('the', '', '', '', 0.0)||('decline', '', '', '', 0.0)||('in', '', '', '', 0.0)||('circulating', 'adj', 'C0175630', ['ftcn'], 0.0)||('oestrogen', '', '', '', 0.0)||('around', '', '', '', 0.0)||('the', '', '', '', 0.0)||('time', 'noun', 'C0040223', ['tmco'], 0.0)||('of', '', '', '', 0.0)||('the', '', '', '', 0.0)||('menopause', 'noun', 'C0025320', ['phsf'], 0.0)||('often', 'adv', 'C0332183', ['tmco'], 0.0)||('induces', '', '', '', 0.0)||('unacceptable', 'adj', 'C1883420', ['qlco'], 0.0)||('symptoms', 'noun', 'C0683368', ['ftcn'], 0.0)||('that', '', '', '', 0.0)||('affect', 'verb', 'C0001721', ['menp'], 0.0)||('the', '', '', '', 0.0)||('health', 'noun', 'C0018684', ['idcn'], 0.0)||('and', '', '', '', 0.0)||('well being', 'noun', 'C0031206', ['fndg'], 0.0)||('of', '', '', '', 0.0)||('women', 'noun', 'C0043210', ['popg'], 0.0)||('.', '', '', '', 0.0)||
('hormone replacement therapy', 'noun', 'C0282402', ['topp'], 0.0)||('(', '', '', '', 0.0)||('both', '', '', '', 0.0)||('unopposed', '', '', '', 0.0)||('oestrogen', '', '', '', 0.0)||('and', '', '', '', 0.0)||('oestrogen', '', '', '', 0.0)||('and', '', '', '', 0.0)||('progestogen', '', '', '', 0.0)||('combinations', 'noun', 'C0453882', ['mnob'], 0.0)||(')', '', '', '', 0.0)||('is', '', '', '', 0.0)||('an', '', '', '', 0.0)||('effective', 'adj', 'C1704419', ['qlco'], 0.0)||('treatment', 'noun', 'C0039798', ['ftcn'], 0.0)||('for', '', '', '', 0.0)||('these', '', '', '', 0.0)||('symptoms', 'noun', 'C0683368', ['ftcn'], 0.0)||('.', '', '', '', 0.0)||
('in', '', '', '', 0.0)||('women', 'noun', 'C0043210', ['popg'], 0.0)||('with', '', '', '', 0.0)||('an', '', '', '', 0.0)||('intact', 'adj', 'C0205266', ['qlco'], 0.0)||('uterus', 'noun', 'C0042149', ['bpoc'], 0.0)||(',', '', '', '', 0.0)||('unopposed', '', '', '', 0.0)||('oestrogen', '', '', '', 0.0)||('may', '', '', '', 0.0)||('induce', 'verb', 'C0205263', ['ftcn'], 0.0)||('endometrial', 'adj', 'C0227843', ['spco'], 0.0)||('stimulation', 'noun', 'C1292856', ['topp'], 0.0)||('and', '', '', '', 0.0)||('increase', 'verb', 'C0442805', ['ftcn'], 0.0)||('the', '', '', '', 0.0)||('risk', 'noun', 'C0035647', ['qlco'], 0.0)||('of', '', '', '', 0.0)||('endometrial hyperplasia', 'noun', 'C0014173', ['dsyn'], 0.0)||('and', '', '', '', 0.0)||('carcinoma', 'noun', 'C0007097', ['neop'], 0.0)||('.', '', '', '', 0.0)||
('the', '', '', '', 0.0)||('addition', 'noun', 'C1883712', ['ftcn'], 0.0)||('of', '', '', '', 0.0)||('progestogen', '', '', '', 0.0)||('reduces', '', '', '', 0.0)||('this', '', '', '', 0.0)||('risk', 'noun', 'C0035647', ['qlco'], 0.0)||('but', '', '', '', 0.0)||('may', '', '', '', 0.0)||('cause', 'verb', 'C1524003', ['cnce'], 0.0)||('unacceptable', 'adj', 'C1883420', ['qlco'], 0.0)||('symptoms', 'noun', 'C0683368', ['ftcn'], 0.0)||(',', '', '', '', 0.0)||('bleeding', 'verb', 'C0019080', ['fndg'], 0.0)||('and', '', '', '', 0.0)||('spotting', 'noun', 'C0025874', ['patf'], 0.0)||('which', '', '', '', 0.0)||('can', '', '', '', 0.0)||('affect', 'verb', 'C0001721', ['menp'], 0.0)||('adherence', 'noun', 'C1510802', ['ftcn'], 0.0)||('to', '', '', '', 0.0)||('therapy', 'noun', 'C0039798', ['ftcn'], 0.0)||('.', '', '', '', 0.0)||
('the', '', '', '', 0.0)||('objective', 'noun', 'C0018017', ['inpr'], 0.0)||('of', '', '', '', 0.0)||('this', '', '', '', 0.0)||('review', 'noun', 'C0282443', ['inpr'], 0.0)||('is', '', '', '', 0.0)||('to', '', '', '', 0.0)||('assess', 'verb', 'C1516048', ['acty'], 0.0)||('which', '', '', '', 0.0)||('hormone replacement therapy', 'noun', 'C0282402', ['topp'], 0.0)||('regimens', '', '', '', 0.0)||('provide', 'verb', 'C0359589', ['food'], 0.0)||('effective', 'adj', 'C1704419', ['qlco'], 0.0)||('protection', 'noun', 'C1545588', ['fndg'], 0.0)||('against', '', '', '', 0.0)||('the', '', '', '', 0.0)||('development', 'noun', 'C0020119', ['phsf'], 0.0)||('of', '', '', '', 0.0)||('endometrial hyperplasia', 'noun', 'C0014173', ['dsyn'], 0.0)||('and / or', '', '', '', 0.0)||('carcinoma', 'noun', 'C0007097', ['neop'], 0.0)||('with', '', '', '', 0.0)||('a', '', '', '', 0.0)||('low', 'adj', 'C0205251', ['qlco'], 0.0)||('rate', 'noun', 'C0871208', ['acty'], 0.0)||('of', '', '', '', 0.0)||('abnormal', 'adj', 'C0205161', ['ftcn'], 0.0)||('vaginal', 'adj', 'C0042232', ['bpoc'], 0.0)||('bleeding', 'noun', 'C0019080', ['fndg'], 0.0)||('.', '', '', '', 0.0)||
('electronic', 'adj', 'C0013850', ['mnob'], 0.0)||('searches', '', '', '', 0.0)||('for', '', '', '', 0.0)||('relevant', 'adj', 'C2347946', ['qlco'], 0.0)||('randomised controlled trials', '', '', '', 0.0)||('of', '', '', '', 0.0)||('the', '', '', '', 0.0)||('cochrane', '', '', '', 0.0)||('menstrual', 'adj', 'C0025344', ['orgf'], 0.0)||('disorders', 'noun', 'C0012634', ['dsyn'], 0.0)||('and', '', '', '', 0.0)||('subfertility', 'noun', 'C0729353', ['dsyn'], 0.0)||('group', 'noun', 'C0441833', ['idcn'], 0.0)||('register', '', '', '', 0.0)||('of', '', '', '', 0.0)||('trials', '', '', '', 0.0)||(',', '', '', '', 0.0)||('medline', 'noun', 'C0025141', ['inpr'], 0.0)||(',', '', '', '', 0.0)||('embase', '', '', '', 0.0)||(',', '', '', '', 0.0)||('psychlit', '', '', '', 0.0)||(',', '', '', '', 0.0)||('current', 'adj', 'C0521116', ['tmco'], 0.0)||('contents', 'noun', 'C0456205', ['cnce'], 0.0)||(',', '', '', '', 0.0)||('biological', 'adj', 'C0005532', ['bmod'], 0.0)||('abstracts', 'noun', 'C0600678', ['inpr'], 0.0)||(',', '', '', '', 0.0)||('social sciences', 'noun', 'C0037434', ['ocdi'], 0.0)||('index', 'noun', 'C0918012', ['inpr'], 0.0)||('and', '', '', '', 0.0)||('cinahl', '', '', '', 0.0)||('were', '', '', '', 0.0)||('performed', 'verb', 'C0884358', ['ftcn'], 0.0)||('.', '', '', '', 0.0)||
('attempts', '', '', '', 0.0)||('were', '', '', '', 0.0)||('also', '', '', '', 0.0)||('made', '', '', '', 0.0)||('to', '', '', '', 0.0)||('identify', '', '', '', 0.0)||('trials', '', '', '', 0.0)||('from', '', '', '', 0.0)||('citation', 'noun', 'C0552371', ['inpr'], 0.0)||('lists', '', '', '', 0.0)||('of', '', '', '', 0.0)||('review', 'noun', 'C0282443', ['inpr'], 0.0)||('articles', '', '', '', 0.0)||('and', '', '', '', 0.0)||('drug', 'noun', 'C0013227', ['phsu'], 0.0)||('companies', 'noun', 'C0683757', ['mnob', 'orgt'], 0.0)||('were', '', '', '', 0.0)||('contacted', '', '', '', 0.0)||('for', '', '', '', 0.0)||('unpublished', '', '', '', 0.0)||('data', 'noun', 'C1511726', ['idcn'], 0.0)||('.', '', '', '', 0.0)||
('in', '', '', '', 0.0)||('most', '', '', '', 0.0)||('cases', 'noun', 'C0868928', ['ftcn'], 0.0)||(',', '', '', '', 0.0)||('the', '', '', '', 0.0)||('corresponding', '', '', '', 0.0)||('author', 'noun', 'C0341628', ['prog'], 0.0)||('of', '', '', '', 0.0)||('each', '', '', '', 0.0)||('included', '', '', '', 0.0)||('trial', 'noun', 'C0008976', ['resa'], 0.0)||('was', '', '', '', 0.0)||('contacted', '', '', '', 0.0)||('for', '', '', '', 0.0)||('additional', 'adj', 'C1524062', ['ftcn'], 0.0)||('information', 'noun', 'C1533716', ['idcn'], 0.0)||('.', '', '', '', 0.0)||
('the', '', '', '', 0.0)||('inclusion', 'noun', 'C1512693', ['qlco'], 0.0)||('criteria', 'noun', 'C0243161', ['inpr'], 0.0)||('were', '', '', '', 0.0)||('randomised', '', '', '', 0.0)||('comparisons', '', '', '', 0.0)||('of', '', '', '', 0.0)||('unopposed', '', '', '', 0.0)||('oestrogen', '', '', '', 0.0)||('therapy', 'noun', 'C0039798', ['ftcn'], 0.0)||(',', '', '', '', 0.0)||('combined', 'verb', 'C0205195', ['qlco'], 0.0)||('continuous', 'adj', 'C0549178', ['idcn'], 0.0)||('oestrogen', '', '', '', 0.0)||('-', '', '', '', 0.0)||('progestogen', '', '', '', 0.0)||('therapy', 'noun', 'C0039798', ['ftcn'], 0.0)||('and', '', '', '', 0.0)||('sequential', 'adj', 'C1548958', ['idcn'], 0.0)||('oestrogen', '', '', '', 0.0)||('-', '', '', '', 0.0)||('progestogen', '', '', '', 0.0)||('therapy', 'noun', 'C0039798', ['ftcn'], 0.0)||('with', '', '', '', 0.0)||('each other', '', '', '', 0.0)||('and', '', '', '', 0.0)||('placebo', 'noun', 'C0032042', ['topp'], 0.0)||('administered', 'verb', 'C1521801', ['ftcn'], 0.0)||('over', '', '', '', 0.0)||('a', '', '', '', 0.0)||('minimum', 'noun', 'C1524031', ['qlco'], 0.0)||('treatment', 'noun', 'C0039798', ['ftcn'], 0.0)||('period', 'noun', 'C1948053', ['tmco'], 0.0)||('of', '', '', '', 0.0)||('six', '', 'C0205452', ['qnco'], 0.0)||('months', 'noun', 'C0439231', ['tmco'], 0.0)||('.', '', '', '', 0.0)||
('trials', '', '', '', 0.0)||('had', '', '', '', 0.0)||('to', '', '', '', 0.0)||('assess', 'verb', 'C1516048', ['acty'], 0.0)||('which', '', '', '', 0.0)||('regimen', 'noun', 'C0040808', ['topp'], 0.0)||('was', '', '', '', 0.0)||('the', '', '', '', 0.0)||('most', '', '', '', 0.0)||('protective', '', '', '', 0.0)||('against', '', '', '', 0.0)||('the', '', '', '', 0.0)||('development', 'noun', 'C0020119', ['phsf'], 0.0)||('of', '', '', '', 0.0)||('endometrial hyperplasia', 'noun', 'C0014173', ['dsyn'], 0.0)||('/', '', '', '', 0.0)||('carcinoma', 'noun', 'C0007097', ['neop'], 0.0)||('and / or', '', '', '', 0.0)||('caused', '', '', '', 0.0)||('the', '', '', '', 0.0)||('lowest', 'adj', 'C1708760', ['qlco'], 0.0)||('rate', 'noun', 'C0871208', ['acty'], 0.0)||('of', '', '', '', 0.0)||('irregular', 'adj', 'C0205271', ['qlco'], 0.0)||('bleeding', 'noun', 'C0019080', ['fndg'], 0.0)||('.', '', '', '', 0.0)||
('twenty three', '', '', '', 0.0)||('rcts', '', '', '', 0.0)||('were', '', '', '', 0.0)||('identified', 'verb', 'C0205396', ['qlco'], 0.0)||('and', '', '', '', 0.0)||('five', '', 'C0205451', ['qnco'], 0.0)||('were', '', '', '', 0.0)||('excluded', 'verb', 'C1554077', ['idcn'], 0.0)||('.', '', '', '', 0.0)||
('the', '', '', '', 0.0)||('reviewers', '', '', '', 0.0)||('assessed', 'verb', 'C1516048', ['acty'], 0.0)||('the', '', '', '', 0.0)||('eighteen', '', '', '', 0.0)||('included', '', '', '', 0.0)||('studies', '', '', '', 0.0)||('for', '', '', '', 0.0)||('quality', 'noun', 'C0332306', ['qlco'], 0.0)||(',', '', '', '', 0.0)||('extracted', 'verb', 'C0185115', ['topp'], 0.0)||('the', '', '', '', 0.0)||('data', 'noun', 'C1511726', ['idcn'], 0.0)||('independently', '', '', '', 0.0)||('and', '', '', '', 0.0)||('odds ratios', 'noun', 'C0028873', ['qnco'], 0.0)||('for', '', '', '', 0.0)||('dichotomous', '', '', '', 0.0)||('outcomes', 'noun', 'C0085415', ['qlco'], 0.0)||('were', '', '', '', 0.0)||('estimated', 'verb', 'C0750572', ['qnco'], 0.0)||('.', '', '', '', 0.0)||
('outcomes', 'noun', 'C0085415', ['qlco'], 0.0)||('analysed', '', '', '', 0.0)||('included', '', '', '', 0.0)||('frequency', 'noun', 'C0376249', ['qnco'], 0.0)||('of', '', '', '', 0.0)||('endometrial hyperplasia', 'noun', 'C0014173', ['dsyn'], 0.0)||('or', '', '', '', 0.0)||('carcinoma', 'noun', 'C0007097', ['neop'], 0.0)||(',', '', '', '', 0.0)||('frequency', 'noun', 'C0376249', ['qnco'], 0.0)||('of', '', '', '', 0.0)||('irregular', 'adj', 'C0205271', ['qlco'], 0.0)||('bleeding', 'noun', 'C0019080', ['fndg'], 0.0)||('and', '', '', '', 0.0)||('unscheduled', 'adj', 'C1699701', ['idcn'], 0.0)||('biopsies', 'noun', 'C0005558', ['diap'], 0.0)||('or', '', '', '', 0.0)||('dilation', 'noun', 'C0012359', ['patf'], 0.0)||('and', '', '', '', 0.0)||('curettage', 'noun', 'C0010468', ['topp'], 0.0)||(',', '', '', '', 0.0)||('and', '', '', '', 0.0)||('adherence', 'noun', 'C1510802', ['ftcn'], 0.0)||('to', '', '', '', 0.0)||('therapy', 'noun', 'C0039798', ['ftcn'], 0.0)||('.', '', '', '', 0.0)||
('unopposed', '', '', '', 0.0)||('moderate', 'adj', 'C0205081', ['qlco'], 0.0)||('or', '', '', '', 0.0)||('high dose', 'adj', 'C0444956', ['qnco'], 0.0)||('oestrogen', '', '', '', 0.0)||('therapy', 'noun', 'C0039798', ['ftcn'], 0.0)||('was', '', '', '', 0.0)||('associated', 'verb', 'C0332281', ['qlco'], 0.0)||('with', '', '', '', 0.0)||('a', '', '', '', 0.0)||('significant', 'adj', 'C0750502', ['idcn'], 0.0)||('increase', 'noun', 'C0442805', ['ftcn'], 0.0)||('in', '', '', '', 0.0)||('rates', '', '', '', 0.0)||('of', '', '', '', 0.0)||('endometrial hyperplasia', 'noun', 'C0014173', ['dsyn'], 0.0)||('with', '', '', '', 0.0)||('increasing', 'adj', 'C0442808', ['ftcn'], 0.0)||('rates', '', '', '', 0.0)||('at', '', '', '', 0.0)||('longer', '', '', '', 0.0)||('duration', 'noun', 'C0449238', ['tmco'], 0.0)||('of', '', '', '', 0.0)||('treatment', 'noun', 'C0039798', ['ftcn'], 0.0)||('and', '', '', '', 0.0)||('follow up', '', '', '', 0.0)||('.', '', '', '', 0.0)||
('odds ratios', 'noun', 'C0028873', ['qnco'], 0.0)||('ranged', '', '', '', 0.0)||('from', '', '', '', 0.0)||('5 . 4', '', '', '', 0.0)||('(', '', '', '', 0.0)||('1', '', '', '', 0.0)||('.', '', '', '', 0.0)||('4', '', '', '', 0.0)||('-', '', '', '', 0.0)||('20 . 9', '', '', '', 0.0)||(')', '', '', '', 0.0)||('for', '', '', '', 0.0)||('6', '', '', '', 0.0)||('months', 'noun', 'C0439231', ['tmco'], 0.0)||('of', '', '', '', 0.0)||('treatment', 'noun', 'C0039798', ['ftcn'], 0.0)||('to', '', '', '', 0.0)||('16 . 0', '', '', '', 0.0)||('(', '', '', '', 0.0)||('9 . 3', '', '', '', 0.0)||('-', '', '', '', 0.0)||('27 . 5', '', '', '', 0.0)||(')', '', '', '', 0.0)||('for', '', '', '', 0.0)||('36', '', '', '', 0.0)||('months', 'noun', 'C0439231', ['tmco'], 0.0)||('of', '', '', '', 0.0)||('treatment', 'noun', 'C0039798', ['ftcn'], 0.0)||('with', '', '', '', 0.0)||('moderate', 'adj', 'C0205081', ['qlco'], 0.0)||('dose', 'noun', 'C0178602', ['qnco'], 0.0)||('oestrogen', '', '', '', 0.0)||('(', '', '', '', 0.0)||('in', '', '', '', 0.0)||('the', '', '', '', 0.0)||('pepi', 'noun', 'C1415311', ['gngm'], 0.0)||('trial', 'noun', 'C0008976', ['resa'], 0.0)||(',', '', '', '', 0.0)||('62 %', '', '', '', 0.0)||('of', '', '', '', 0.0)||('those', '', '', '', 0.0)||('who', '', '', '', 0.0)||('took', '', '', '', 0.0)||('moderate', 'adj', 'C0205081', ['qlco'], 0.0)||('dose', 'noun', 'C0178602', ['qnco'], 0.0)||('oestrogen', '', '', '', 0.0)||('had', '', '', '', 0.0)||('some', '', '', '', 0.0)||('form', 'noun', 'C0013058', ['bodm'], 0.0)||('of', '', '', '', 0.0)||('hyperplasia', 'noun', 'C0020507', ['patf'], 0.0)||('at', '', '', '', 0.0)||('36', '', '', '', 0.0)||('months', 'noun', 'C0439231', ['tmco'], 0.0)||('compared', 'verb', 'C1707455', ['acty'], 0.0)||('to', '', '', '', 0.0)||('2 %', '', '', '', 0.0)||('of', '', '', '', 0.0)||('those', '', '', '', 0.0)||('who', '', '', '', 0.0)||('took', '', '', '', 0.0)||('placebo', 'noun', 'C0032042', ['topp'], 0.0)||(')', '', '', '', 0.0)||('.', '', '', '', 0.0)||
('irregular', 'adj', 'C0205271', ['qlco'], 0.0)||('bleeding', 'noun', 'C0019080', ['fndg'], 0.0)||('and', '', '', '', 0.0)||('non adherence', 'noun', 'C1999011', ['fndg'], 0.0)||('to', '', '', '', 0.0)||('treatment', 'noun', 'C0039798', ['ftcn'], 0.0)||('were', '', '', '', 0.0)||('also', '', '', '', 0.0)||('significantly', '', '', '', 0.0)||('more', '', '', '', 0.0)||('likely', 'adv', 'C0332148', ['qlco'], 0.0)||('under', '', '', '', 0.0)||('these', '', '', '', 0.0)||('unopposed', '', '', '', 0.0)||('oestrogen', '', '', '', 0.0)||('regimens', '', '', '', 0.0)||('with', '', '', '', 0.0)||('greater', 'adj', 'C1704243', ['qnco'], 0.0)||('effects', '', '', '', 0.0)||('with', '', '', '', 0.0)||('higher', '', '', '', 0.0)||('dose', 'noun', 'C0178602', ['qnco'], 0.0)||('therapy', 'noun', 'C0039798', ['ftcn'], 0.0)||('.', '', '', '', 0.0)||
('there', '', '', '', 0.0)||('was', '', '', '', 0.0)||('no', '', '', '', 0.0)||('evidence', 'noun', 'C0332120', ['ftcn'], 0.0)||('of', '', '', '', 0.0)||('increased', 'adj', 'C0205217', ['qnco'], 0.0)||('hyperplasia', 'noun', 'C0020507', ['patf'], 0.0)||('rates', '', '', '', 0.0)||(',', '', '', '', 0.0)||('however', '', '', '', 0.0)||(',', '', '', '', 0.0)||('with', '', '', '', 0.0)||('low dose', 'noun', 'C0445550', ['qnco'], 0.0)||('oestrogen', '', '', '', 0.0)||('.', '', '', '', 0.0)||
('the', '', '', '', 0.0)||('addition', 'noun', 'C1883712', ['ftcn'], 0.0)||('of', '', '', '', 0.0)||('progestogens', '', '', '', 0.0)||(',', '', '', '', 0.0)||('either', '', '', '', 0.0)||('in', '', '', '', 0.0)||('continuous', 'adj', 'C0549178', ['idcn'], 0.0)||('combined', 'adj', 'C0205195', ['qlco'], 0.0)||('or', '', '', '', 0.0)||('sequential', 'adj', 'C1548958', ['idcn'], 0.0)||('regimens', '', '', '', 0.0)||(',', '', '', '', 0.0)||('helped', '', '', '', 0.0)||('to', '', '', '', 0.0)||('prevent', 'verb', 'C0309872', ['phsu'], 0.0)||('the', '', '', '', 0.0)||('development', 'noun', 'C0020119', ['phsf'], 0.0)||('of', '', '', '', 0.0)||('endometrial hyperplasia', 'noun', 'C0014173', ['dsyn'], 0.0)||('and', '', '', '', 0.0)||('improved', 'adj', 'C0184511', ['qlco'], 0.0)||('adherence', 'noun', 'C1510802', ['ftcn'], 0.0)||('to', '', '', '', 0.0)||('therapy', 'noun', 'C0039798', ['ftcn'], 0.0)||('(', '', '', '', 0.0)||('odds ratios', 'noun', 'C0028873', ['qnco'], 0.0)||('of', '', '', '', 0.0)||('3 . 7', '', '', '', 0.0)||('for', '', '', '', 0.0)||('sequential', 'adj', 'C1548958', ['idcn'], 0.0)||('therapy', 'noun', 'C0039798', ['ftcn'], 0.0)||('and', '', '', '', 0.0)||('6 . 0', '', '', '', 0.0)||('for', '', '', '', 0.0)||('continuous', 'adj', 'C0549178', ['idcn'], 0.0)||('therapy', 'noun', 'C0039798', ['ftcn'], 0.0)||(')', '', '', '', 0.0)||('.', '', '', '', 0.0)||
('irregular', 'adj', 'C0205271', ['qlco'], 0.0)||('bleeding', 'noun', 'C0019080', ['fndg'], 0.0)||(',', '', '', '', 0.0)||('however', '', '', '', 0.0)||(',', '', '', '', 0.0)||('was', '', '', '', 0.0)||('more', '', '', '', 0.0)||('likely', 'adv', 'C0332148', ['qlco'], 0.0)||('under', '', '', '', 0.0)||('a', '', '', '', 0.0)||('continuous', 'adj', 'C0549178', ['idcn'], 0.0)||('than', '', '', '', 0.0)||('a', '', '', '', 0.0)||('sequential', 'adj', 'C1548958', ['idcn'], 0.0)||('oestrogen', '', '', '', 0.0)||('-', '', '', '', 0.0)||('progestogen', '', '', '', 0.0)||('regimen', 'noun', 'C0040808', ['topp'], 0.0)||('(', '', '', '', 0.0)||('or', '', '', '', 0.0)||('=', '', '', '', 0.0)||('2 . 3', '', '', '', 0.0)||(',', '', '', '', 0.0)||('95 %', '', '', '', 0.0)||('ci', 'noun', 'C1417638', ['gngm'], 0.0)||('2 . 1', '', '', '', 0.0)||('-', '', '', '', 0.0)||('2 . 5', '', '', '', 0.0)||(')', '', '', '', 0.0)||('but', '', '', '', 0.0)||('at', '', '', '', 0.0)||('longer', '', '', '', 0.0)||('duration', 'noun', 'C0449238', ['tmco'], 0.0)||('of', '', '', '', 0.0)||('treatment', 'noun', 'C0039798', ['ftcn'], 0.0)||(',', '', '', '', 0.0)||('continuous', 'adj', 'C0549178', ['idcn'], 0.0)||('therapy', 'noun', 'C0039798', ['ftcn'], 0.0)||('was', '', '', '', 0.0)||('more', '', '', '', 0.0)||('protective', '', '', '', 0.0)||('than', '', '', '', 0.0)||('sequential', 'adj', 'C1548958', ['idcn'], 0.0)||('therapy', 'noun', 'C0039798', ['ftcn'], 0.0)||('in', '', '', '', 0.0)||('preventing', 'noun', 'C1292733', ['ftcn'], 0.0)||('endometrial hyperplasia', 'noun', 'C0014173', ['dsyn'], 0.0)||('(', '', '', '', 0.0)||('or', '', '', '', 0.0)||('=', '', '', '', 0.0)||('0 . 3', '', '', '', 0.0)||(',', '', '', '', 0.0)||('95 %', '', '', '', 0.0)||('ci', 'noun', 'C1417638', ['gngm'], 0.0)||('0 . 1', '', '', '', 0.0)||('-', '', '', '', 0.0)||('0 . 97', '', '', '', 0.0)||(')', '', '', '', 0.0)||('.', '', '', '', 0.0)||
('there', '', '', '', 0.0)||('was', '', '', '', 0.0)||('evidence', 'noun', 'C0332120', ['ftcn'], 0.0)||('of', '', '', '', 0.0)||('a', '', '', '', 0.0)||('higher', '', '', '', 0.0)||('incidence', 'noun', 'C0021149', ['qnco'], 0.0)||('of', '', '', '', 0.0)||('hyperplasia', 'noun', 'C0020507', ['patf'], 0.0)||('under', '', '', '', 0.0)||('long cycle', '', '', '', 0.0)||('sequential', 'adj', 'C1548958', ['idcn'], 0.0)||('therapy', 'noun', 'C0039798', ['ftcn'], 0.0)||('(', '', '', '', 0.0)||('progestogen', '', '', '', 0.0)||('given', '', '', '', 0.0)||('every', '', '', '', 0.0)||('3', '', '', '', 0.0)||('months', 'noun', 'C0439231', ['tmco'], 0.0)||(')', '', '', '', 0.0)||('compared', 'verb', 'C1707455', ['acty'], 0.0)||('to', '', '', '', 0.0)||('monthly', 'adv', 'C0332177', ['tmco'], 0.0)||('sequential', 'adj', 'C1548958', ['idcn'], 0.0)||('therapy', 'noun', 'C0039798', ['ftcn'], 0.0)||('(', '', '', '', 0.0)||('progestogen', '', '', '', 0.0)||('given', '', '', '', 0.0)||('every', '', '', '', 0.0)||('month', 'noun', 'C0439231', ['tmco'], 0.0)||(')', '', '', '', 0.0)||('.', '', '', '', 0.0)||
('no', '', '', '', 0.0)||('increase', 'noun', 'C0442805', ['ftcn'], 0.0)||('in', '', '', '', 0.0)||('endometrial cancer', 'noun', 'C0476089', ['neop'], 0.0)||('was', '', '', '', 0.0)||('seen', 'verb', 'C0205397', ['qlco'], 0.0)||('in', '', '', '', 0.0)||('any', '', '', '', 0.0)||('of', '', '', '', 0.0)||('the', '', '', '', 0.0)||('treatment', 'noun', 'C0039798', ['ftcn'], 0.0)||('groups', 'verb', 'C0441833', ['idcn'], 0.0)||('during', '', '', '', 0.0)||('the', '', '', '', 0.0)||('limited', 'adj', 'C0439801', ['ftcn'], 0.0)||('duration', 'noun', 'C0449238', ['tmco'], 0.0)||('(', '', '', '', 0.0)||('maximum', 'noun', 'C0806909', ['qnco'], 0.0)||('of', '', '', '', 0.0)||('3', '', '', '', 0.0)||('years', 'noun', 'C0439234', ['tmco'], 0.0)||(')', '', '', '', 0.0)||('of', '', '', '', 0.0)||('these', '', '', '', 0.0)||('trials', '', '', '', 0.0)||('.', '', '', '', 0.0)||
('(', '', '', '', 0.0)||('abstract', 'noun', 'C0600678', ['inpr'], 0.0)||('truncated', '', '', '', 0.0)||(')', '', '', '', 0.0)||
