('this', '', '', '', 0.0)||('review', 'noun', 'C0282443', ['inpr'], 0.0)||('compares', '', '', '', 0.0)||('the', '', '', '', 0.0)||('two', 'adj', 'C0205448', ['qnco'], 0.0)||('most', '', '', '', 0.0)||('popular', '', '', '', 0.0)||('treatments', 'noun', 'C0087111', ['topp'], 0.0)||('for', '', '', '', 0.0)||('haemorrhoids', 'noun', 'C0019112', ['dsyn'], 0.0)||(',', '', '', '', 0.0)||('namely', '', '', '', 0.0)||('rubber band ligation', '', '', '', 0.0)||('and', '', '', '', 0.0)||('excisional', 'adj', 'C0728940', ['topp'], 0.0)||('haemorrhoidectomy', 'noun', 'C0019108', ['topp'], 0.0)||('.', '', '', '', 0.0)||
('randomized', 'adj', 'C0034656', ['resa'], 0.0)||('trials', '', '', '', 0.0)||('were', '', '', '', 0.0)||('identified', 'verb', 'C0205396', ['qlco'], 0.0)||('from', '', '', '', 0.0)||('the', '', '', '', 0.0)||('major', 'adj', 'C0205164', ['qlco'], 0.0)||('electronic', 'adj', 'C0013850', ['mnob'], 0.0)||('databases', 'noun', 'C0242356', ['inpr'], 0.0)||('.', '', '', '', 0.0)||
('symptom control', 'noun', 'C1274136', ['topp'], 0.0)||(',', '', '', '', 0.0)||('retreatment', 'noun', 'C0376495', ['topp'], 0.0)||(',', '', '', '', 0.0)||('postoperative pain', '', '', '', 0.0)||(',', '', '', '', 0.0)||('complications', 'noun', 'C0009566', ['patf'], 0.0)||(',', '', '', '', 0.0)||('time', 'noun', 'C0040223', ['tmco'], 0.0)||('off', '', '', '', 0.0)||('work', 'noun', 'C0043227', ['ocac'], 0.0)||('and', '', '', '', 0.0)||('patient', '', '', '', 0.0)||('satisfaction', 'noun', 'C0242428', ['menp'], 0.0)||('were', '', '', '', 0.0)||('assessed', 'verb', 'C1516048', ['acty'], 0.0)||('.', '', '', '', 0.0)||
('relative risk', 'noun', 'C0242492', ['qnco'], 0.0)||('and', '', '', '', 0.0)||('weighted', '', '', '', 0.0)||('mean difference', '', '', '', 0.0)||('with', '', '', '', 0.0)||('95', '', '', '', 0.0)||('per cent', '', '', '', 0.0)||('confidence interval', 'noun', 'C0009667', ['qnco'], 0.0)||
('were', '', '', '', 0.0)||('estimated', 'verb', 'C0750572', ['qnco'], 0.0)||('using', 'verb', 'C1524063', ['ftcn'], 0.0)||('a', '', '', '', 0.0)||('random - effects model', '', '', '', 0.0)||('for', '', '', '', 0.0)||('dichotomous', '', '', '', 0.0)||('and', '', '', '', 0.0)||('continuous', 'adj', 'C0549178', ['idcn'], 0.0)||('outcomes', 'noun', 'C0085415', ['qlco'], 0.0)||('respectively', '', '', '', 0.0)||('.', '', '', '', 0.0)||
('three', '', 'C0205449', ['qnco'], 0.0)||('trials', '', '', '', 0.0)||('met', '', '', '', 0.0)||('the', '', '', '', 0.0)||('inclusion', 'noun', 'C1512693', ['qlco'], 0.0)||('criteria', 'noun', 'C0243161', ['inpr'], 0.0)||('and', '', '', '', 0.0)||('all', '', '', '', 0.0)||('were', '', '', '', 0.0)||('of', '', '', '', 0.0)||('poor', 'adj', 'C0032854', ['grpa'], 0.0)||('methodological', '', '', '', 0.0)||('quality', 'noun', 'C0332306', ['qlco'], 0.0)||('.', '', '', '', 0.0)||
('complete remission', 'noun', 'C0677874', ['fndg'], 0.0)||('of', '', '', '', 0.0)||('haemorrhoidal', '', '', '', 0.0)||('symptoms', 'noun', 'C0683368', ['ftcn'], 0.0)||('was', '', '', '', 0.0)||('better', 'adj', 'C0332272', ['qlco'], 0.0)||('after', '', '', '', 0.0)||('haemorrhoidectomy', 'noun', 'C0019108', ['topp'], 0.0)||('(', '', '', '', 0.0)||('relative risk', 'noun', 'C0242492', ['qnco'], 0.0)||('1 . 68', '', '', '', 0.0)||('(', '', '', '', 0.0)||('95', '', '', '', 0.0)||('per cent', '', '', '', 0.0)||('c', '', '', '', 0.0)||('.', '', '', '', 0.0)||('i 1', '', '', '', 0.0)||('.', '', '', '', 0.0)||('00', '', '', '', 0.0)||('to', '', '', '', 0.0)||('2 . 83', '', '', '', 0.0)||(')', '', '', '', 0.0)||(')', '', '', '', 0.0)||('.', '', '', '', 0.0)||
('there', '', '', '', 0.0)||('was', '', '', '', 0.0)||('significant', 'adj', 'C0750502', ['idcn'], 0.0)||('heterogeneity', 'noun', 'C0019409', ['qlco'], 0.0)||('between', '', '', '', 0.0)||('the', '', '', '', 0.0)||('studies', '', '', '', 0.0)||('(', '', '', '', 0.0)||('i', '', '', '', 0.0)||('(', '', '', '', 0.0)||('2', '', '', '', 0.0)||(')', '', '', '', 0.0)||('=', '', '', '', 0.0)||('90 . 5', '', '', '', 0.0)||('per cent', '', '', '', 0.0)||(';', '', '', '', 0.0)||('p', '', '', '', 0.0)||('<', '', '', '', 0.0)||('0 . 001', '', '', '', 0.0)||(')', '', '', '', 0.0)||('.', '', '', '', 0.0)||
('fewer', '', '', '', 0.0)||('patients', 'noun', 'C0030705', ['podg'], 0.0)||('required', 'verb', 'C1514873', ['ftcn'], 0.0)||('retreatment', 'noun', 'C0376495', ['topp'], 0.0)||('after', '', '', '', 0.0)||('haemorrhoidectomy', 'noun', 'C0019108', ['topp'], 0.0)||('(', '', '', '', 0.0)||('relative risk', 'noun', 'C0242492', ['qnco'], 0.0)||('0 . 20', '', '', '', 0.0)||('(', '', '', '', 0.0)||('95', '', '', '', 0.0)||('per cent', '', '', '', 0.0)||('c', '', '', '', 0.0)||('.', '', '', '', 0.0)||('i', '', '', '', 0.0)||('0 . 09', '', '', '', 0.0)||('to', '', '', '', 0.0)||('0 . 40', '', '', '', 0.0)||(')', '', '', '', 0.0)||(')', '', '', '', 0.0)||(',', '', '', '', 0.0)||('but', '', '', '', 0.0)||('anal', 'adj', 'C0003461', ['bpoc'], 0.0)||('stenosis', 'noun', 'C0009814', ['patf'], 0.0)||(',', '', '', '', 0.0)||('postoperative haemorrhage', '', '', '', 0.0)||('and', '', '', '', 0.0)||('incontinence', 'noun', 'C0021167', ['dsyn'], 0.0)||('to', '', '', '', 0.0)||('flatus', 'noun', 'C0016204', ['sosy'], 0.0)||('were', '', '', '', 0.0)||('more', '', '', '', 0.0)||('common', 'adj', 'C0205214', ['qnco'], 0.0)||('with', '', '', '', 0.0)||('this', '', '', '', 0.0)||('operation', 'noun', 'C0543467', ['topp'], 0.0)||('.', '', '', '', 0.0)||
('haemorrhoidectomy', 'noun', 'C0019108', ['topp'], 0.0)||('produced', '', '', '', 0.0)||('better', 'adv', 'C0332272', ['qlco'], 0.0)||('long - term', '', '', '', 0.0)||('symptom control', 'noun', 'C1274136', ['topp'], 0.0)||('in', '', '', '', 0.0)||('patients', 'noun', 'C0030705', ['podg'], 0.0)||('with', '', '', '', 0.0)||('grade', 'noun', 'C0441800', ['clas'], 0.0)||('iii', 'noun', 'C0439070', ['inpr'], 0.0)||('haemorrhoids', 'noun', 'C0019112', ['dsyn'], 0.0)||(',', '', '', '', 0.0)||('but', '', '', '', 0.0)||('was', '', '', '', 0.0)||('associated', 'verb', 'C0332281', ['qlco'], 0.0)||('with', '', '', '', 0.0)||('more', '', '', '', 0.0)||('postoperative complications', 'noun', 'C0032787', ['patf'], 0.0)||('than', '', '', '', 0.0)||('rubber band ligation', '', '', '', 0.0)||('.', '', '', '', 0.0)||
