('recurrent', 'adj', 'C0034897', ['phpr'], 0.0)||('herpes simplex', 'noun', 'C0019348', ['dsyn'], 0.0)||('labialis', '', '', '', 0.0)||('occurs', '', '', '', 0.0)||('in', '', '', '', 0.0)||('20 %', '', '', '', 0.0)||('to', '', '', '', 0.0)||('40 %', '', '', '', 0.0)||('of', '', '', '', 0.0)||('the', '', '', '', 0.0)||('us', '', '', '', 0.0)||('population', 'noun', 'C0032659', ['qnco'], 0.0)||('.', '', '', '', 0.0)||
('although', '', '', '', 0.0)||('the', '', '', '', 0.0)||('disease', 'noun', 'C0012634', ['dsyn'], 0.0)||('is', '', '', '', 0.0)||('self - limiting', '', '', '', 0.0)||('in', '', '', '', 0.0)||('persons', 'noun', 'C0027361', ['popg'], 0.0)||('with', '', '', '', 0.0)||('a', '', '', '', 0.0)||('healthy', '', '', '', 0.0)||('immune response', 'noun', 'C0301872', ['ortf'], 0.0)||(',', '', '', '', 0.0)||('patients', 'noun', 'C0030705', ['podg'], 0.0)||('seek', '', '', '', 0.0)||('treatment', 'noun', 'C0039798', ['ftcn'], 0.0)||('because of', '', '', '', 0.0)||('the', '', '', '', 0.0)||('discomfort', 'noun', 'C0231218', ['sosy'], 0.0)||('and', '', '', '', 0.0)||('visibility', '', '', '', 0.0)||('of', '', '', '', 0.0)||('a', '', '', '', 0.0)||('recurrent', 'adj', 'C0034897', ['phpr'], 0.0)||('lesion', 'noun', 'C0221198', ['fndg'], 0.0)||('.', '', '', '', 0.0)||
('our', '', '', '', 0.0)||('purpose', 'noun', 'C1285529', ['ftcn'], 0.0)||('was', '', '', '', 0.0)||('to', '', '', '', 0.0)||('determine', '', '', '', 0.0)||('whether', '', '', '', 0.0)||('docosanol', 'noun', 'C0075770', ['orch', 'phsu'], 0.0)||('10 %', '', '', '', 0.0)||('cream', 'noun', 'C0700385', ['food'], 0.0)||('(', '', '', '', 0.0)||('docosanol', 'noun', 'C0075770', ['orch', 'phsu'], 0.0)||(')', '', '', '', 0.0)||('is', '', '', '', 0.0)||('efficacious', '', '', '', 0.0)||('compared', 'verb', 'C1707455', ['acty'], 0.0)||('with', '', '', '', 0.0)||('placebo', 'noun', 'C0032042', ['topp'], 0.0)||('for', '', '', '', 0.0)||('the', '', '', '', 0.0)||('topical', 'adj', 'C0205530', ['spco'], 0.0)||('treatment', 'noun', 'C0039798', ['ftcn'], 0.0)||('of', '', '', '', 0.0)||('episodes', 'noun', 'C0332189', ['tmco'], 0.0)||('of', '', '', '', 0.0)||('acute', 'adj', 'C0205178', ['tmco'], 0.0)||('herpes simplex', 'noun', 'C0019348', ['dsyn'], 0.0)||('labialis', '', '', '', 0.0)||('.', '', '', '', 0.0)||
('two', 'adj', 'C0205448', ['qnco'], 0.0)||('identical', 'adj', 'C0205280', ['qlco'], 0.0)||('double - blind', '', '', '', 0.0)||(',', '', '', '', 0.0)||('placebo - controlled studies', '', '', '', 0.0)||('were', '', '', '', 0.0)||('conducted', '', '', '', 0.0)||('at', '', '', '', 0.0)||('a', '', '', '', 0.0)||('total', 'noun', 'C0439810', ['qlco'], 0.0)||('of', '', '', '', 0.0)||('21', '', '', '', 0.0)||('sites', 'noun', 'C0205145', ['spco'], 0.0)||('.', '', '', '', 0.0)||
('otherwise', '', '', '', 0.0)||('healthy', '', '', '', 0.0)||('adults', 'noun', 'C0001675', ['aggp'], 0.0)||(',', '', '', '', 0.0)||('with', '', '', '', 0.0)||('documented', 'adj', 'C1301725', ['hlca'], 0.0)||('histories', 'noun', 'C0019664', ['ocdi'], 0.0)||('of', '', '', '', 0.0)||('herpes simplex', 'noun', 'C0019348', ['dsyn'], 0.0)||('labialis', '', '', '', 0.0)||(',', '', '', '', 0.0)||('were', '', '', '', 0.0)||('randomized', 'verb', 'C0034656', ['resa'], 0.0)||('to', '', '', '', 0.0)||('receive', 'verb', 'C1514756', ['qlco'], 0.0)||('either', '', '', '', 0.0)||('docosanol', 'noun', 'C0075770', ['orch', 'phsu'], 0.0)||('or', '', '', '', 0.0)||('polyethylene glycol', 'noun', 'C0032478', ['phsu'], 0.0)||('placebo', 'noun', 'C0032042', ['topp'], 0.0)||('and', '', '', '', 0.0)||('initiated', '', '', '', 0.0)||('therapy', 'noun', 'C0039798', ['ftcn'], 0.0)||('in', '', '', '', 0.0)||('the', '', '', '', 0.0)||('prodrome', 'noun', 'C0240805', ['sosy'], 0.0)||('or', '', '', '', 0.0)||('erythema', 'noun', 'C0041834', ['sosy'], 0.0)||('stage', 'noun', 'C0205390', ['tmco'], 0.0)||('of', '', '', '', 0.0)||('an', '', '', '', 0.0)||('episode', '', '', '', 0.0)||('.', '', '', '', 0.0)||
('treatment', 'noun', 'C0039798', ['ftcn'], 0.0)||('was', '', '', '', 0.0)||('administered', 'verb', 'C1521801', ['ftcn'], 0.0)||('5', '', '', '', 0.0)||('times', 'noun', 'C1632851', ['qnco'], 0.0)||('daily', 'adv', 'C0332173', ['tmco'], 0.0)||('until', '', '', '', 0.0)||('healing', 'noun', 'C0043240', ['orgf'], 0.0)||('occurred', 'verb', 'C1709305', ['cnce'], 0.0)||('(', '', '', '', 0.0)||('ie', '', '', '', 0.0)||(',', '', '', '', 0.0)||('the', '', '', '', 0.0)||('crust', 'noun', 'C0205204', ['acab'], 0.0)||('fell', '', '', '', 0.0)||('off', '', '', '', 0.0)||('spontaneously', '', '', '', 0.0)||('or', '', '', '', 0.0)||('there', '', '', '', 0.0)||('was', '', '', '', 0.0)||('no', '', '', '', 0.0)||('longer', '', '', '', 0.0)||('evidence', 'noun', 'C0332120', ['ftcn'], 0.0)||('of', '', '', '', 0.0)||('an', '', '', '', 0.0)||('active', 'adj', 'C0205177', ['ftcn'], 0.0)||('lesion', 'noun', 'C0221198', ['fndg'], 0.0)||(')', '', '', '', 0.0)||('with', '', '', '', 0.0)||('twice - daily', '', '', '', 0.0)||('visits', 'noun', 'C0545082', ['bhvr'], 0.0)||('.', '', '', '', 0.0)||
('the', '', '', '', 0.0)||('median', 'adj', 'C0549183', ['spco'], 0.0)||('time', 'noun', 'C0040223', ['tmco'], 0.0)||('to', '', '', '', 0.0)||('healing', 'noun', 'C0043240', ['orgf'], 0.0)||('in', '', '', '', 0.0)||('the', '', '', '', 0.0)||('370', '', '', '', 0.0)||('docosanol', 'noun', 'C0075770', ['orch', 'phsu'], 0.0)||('-', '', '', '', 0.0)||('treated', 'adj', 'C1522326', ['ftcn'], 0.0)||('patients', 'noun', 'C0030705', ['podg'], 0.0)||('was', '', '', '', 0.0)||('4 . 1', '', '', '', 0.0)||('days', 'noun', 'C0439228', ['tmco'], 0.0)||(',', '', '', '', 0.0)||('18', '', '', '', 0.0)||('hours', 'noun', 'C0439227', ['tmco'], 0.0)||('shorter', '', '', '', 0.0)||('than', '', '', '', 0.0)||('observed', 'verb', 'C1441672', ['ftcn'], 0.0)||('in', '', '', '', 0.0)||('the', '', '', '', 0.0)||('367', '', '', '', 0.0)||('placebo', 'noun', 'C0032042', ['topp'], 0.0)||('-', '', '', '', 0.0)||('treated', 'adj', 'C1522326', ['ftcn'], 0.0)||('patients', 'noun', 'C0030705', ['podg'], 0.0)||('(', '', '', '', 0.0)||('p', '', '', '', 0.0)||('=', '', '', '', 0.0)||('.', '', '', '', 0.0)||('008', '', '', '', 0.0)||(';', '', '', '', 0.0)||('95 %', '', '', '', 0.0)||('confidence interval', 'noun', 'C0009667', ['qnco'], 0.0)||(':', '', '', '', 0.0)||('2', '', '', '', 0.0)||(',', '', '', '', 0.0)||('22', '', '', '', 0.0)||(')', '', '', '', 0.0)||('.', '', '', '', 0.0)||
('the', '', '', '', 0.0)||('docosanol', 'noun', 'C0075770', ['orch', 'phsu'], 0.0)||('group', 'noun', 'C0441833', ['idcn'], 0.0)||('also', '', '', '', 0.0)||('exhibited', '', '', '', 0.0)||('reduced', 'adj', 'C0392756', ['qlco'], 0.0)||('times', 'noun', 'C1632851', ['qnco'], 0.0)||('from', '', '', '', 0.0)||('treatment', 'noun', 'C0039798', ['ftcn'], 0.0)||('initiation', 'noun', 'C0589507', ['menp'], 0.0)||('to', '', '', '', 0.0)||('(', '', '', '', 0.0)||('1', '', '', '', 0.0)||(')', '', '', '', 0.0)||('cessation', 'noun', 'C1880019', ['acty'], 0.0)||('of', '', '', '', 0.0)||('pain', 'noun', 'C0030193', ['sosy'], 0.0)||('and', '', '', '', 0.0)||('all', '', '', '', 0.0)||('other', '', '', '', 0.0)||('symptoms', 'noun', 'C0683368', ['ftcn'], 0.0)||('(', '', '', '', 0.0)||('itching', 'noun', 'C0033774', ['sosy'], 0.0)||(',', '', '', '', 0.0)||('burning', 'noun', 'C0085624', ['sosy'], 0.0)||(',', '', '', '', 0.0)||('and / or', '', '', '', 0.0)||('tingling', 'noun', 'C2242996', ['sosy'], 0.0)||(';', '', '', '', 0.0)||('p', '', '', '', 0.0)||('=', '', '', '', 0.0)||('.', '', '', '', 0.0)||('002', '', '', '', 0.0)||(';', '', '', '', 0.0)||('95 %', '', '', '', 0.0)||('confidence interval', 'noun', 'C0009667', ['qnco'], 0.0)||(':', '', '', '', 0.0)||('3', '', '', '', 0.0)||(',', '', '', '', 0.0)||('16 . 5', '', '', '', 0.0)||(')', '', '', '', 0.0)||(';', '', '', '', 0.0)||
('(', '', '', '', 0.0)||('2', '', '', '', 0.0)||(')', '', '', '', 0.0)||('complete', 'verb', 'C0205197', ['qlco'], 0.0)||('healing', 'noun', 'C0043240', ['orgf'], 0.0)||('of', '', '', '', 0.0)||('classic', 'adj', 'C0439658', ['qlco'], 0.0)||('lesions', 'noun', 'C0221198', ['fndg'], 0.0)||('(', '', '', '', 0.0)||('p', '', '', '', 0.0)||('=', '', '', '', 0.0)||('.', '', '', '', 0.0)||('023', '', '', '', 0.0)||(';', '', '', '', 0.0)||('95 %', '', '', '', 0.0)||('confidence interval', 'noun', 'C0009667', ['qnco'], 0.0)||(':', '', '', '', 0.0)||('1', '', '', '', 0.0)||(',', '', '', '', 0.0)||('24 . 5', '', '', '', 0.0)||(')', '', '', '', 0.0)||(';', '', '', '', 0.0)||
('and', '', '', '', 0.0)||('(', '', '', '', 0.0)||('3', '', '', '', 0.0)||(')', '', '', '', 0.0)||('cessation', 'noun', 'C1880019', ['acty'], 0.0)||('of', '', '', '', 0.0)||('the', '', '', '', 0.0)||('ulcer', 'noun', 'C0041582', ['patf'], 0.0)||('or', '', '', '', 0.0)||('soft', 'adj', 'C0205358', ['qlco'], 0.0)||('crust', 'noun', 'C0205204', ['acab'], 0.0)||('stage', 'noun', 'C0205390', ['tmco'], 0.0)||('of', '', '', '', 0.0)||('classic', 'adj', 'C0439658', ['qlco'], 0.0)||('lesions', 'noun', 'C0221198', ['fndg'], 0.0)||('(', '', '', '', 0.0)||('p', '', '', '', 0.0)||('<', '', '', '', 0.0)||('.', '', '', '', 0.0)||('001', '', '', '', 0.0)||(';', '', '', '', 0.0)||('95 %', '', '', '', 0.0)||('confidence interval', 'noun', 'C0009667', ['qnco'], 0.0)||(':', '', '', '', 0.0)||('8', '', '', '', 0.0)||(',', '', '', '', 0.0)||('25', '', '', '', 0.0)||(')', '', '', '', 0.0)||('.', '', '', '', 0.0)||
('aborted', 'adj', 'C1550015', ['inpr'], 0.0)||('episodes', 'noun', 'C0332189', ['tmco'], 0.0)||('were', '', '', '', 0.0)||('experienced', '', '', '', 0.0)||('by', '', '', '', 0.0)||('40 %', '', '', '', 0.0)||('of', '', '', '', 0.0)||('the', '', '', '', 0.0)||('docosanol', 'noun', 'C0075770', ['orch', 'phsu'], 0.0)||('recipients', '', '', '', 0.0)||('versus', '', '', '', 0.0)||('34 %', '', '', '', 0.0)||('of', '', '', '', 0.0)||('placebo', 'noun', 'C0032042', ['topp'], 0.0)||('recipients', '', '', '', 0.0)||('(', '', '', '', 0.0)||('p', '', '', '', 0.0)||('=', '', '', '', 0.0)||('.', '', '', '', 0.0)||('109', '', '', '', 0.0)||(';', '', '', '', 0.0)||('95 %', '', '', '', 0.0)||('confidence interval', 'noun', 'C0009667', ['qnco'], 0.0)||('for', '', '', '', 0.0)||('odds ratio', 'noun', 'C0028873', ['qnco'], 0.0)||(':', '', '', '', 0.0)||('0 . 95', '', '', '', 0.0)||(',', '', '', '', 0.0)||('1 . 73', '', '', '', 0.0)||(')', '', '', '', 0.0)||('.', '', '', '', 0.0)||
('adverse', '', '', '', 0.0)||('experiences', '', '', '', 0.0)||('with', '', '', '', 0.0)||('docosanol', 'noun', 'C0075770', ['orch', 'phsu'], 0.0)||('were', '', '', '', 0.0)||('mild', 'adj', 'C0547040', ['qlco'], 0.0)||('and', '', '', '', 0.0)||('similar', 'adj', 'C2348205', ['qlco'], 0.0)||('to', '', '', '', 0.0)||('those', '', '', '', 0.0)||('with', '', '', '', 0.0)||('placebo', 'noun', 'C0032042', ['topp'], 0.0)||('.', '', '', '', 0.0)||
('docosanol', 'noun', 'C0075770', ['orch', 'phsu'], 0.0)||('applied', 'verb', 'C0185125', ['hlca'], 0.0)||('5', '', '', '', 0.0)||('times', 'noun', 'C1632851', ['qnco'], 0.0)||('daily', 'adv', 'C0332173', ['tmco'], 0.0)||('is', '', '', '', 0.0)||('safe', '', '', '', 0.0)||('and', '', '', '', 0.0)||('effective', 'adj', 'C1704419', ['qlco'], 0.0)||('in', '', '', '', 0.0)||('the', '', '', '', 0.0)||('treatment', 'noun', 'C0039798', ['ftcn'], 0.0)||('of', '', '', '', 0.0)||('recurrent', 'adj', 'C0034897', ['phpr'], 0.0)||('herpes simplex', 'noun', 'C0019348', ['dsyn'], 0.0)||('labialis', '', '', '', 0.0)||('.', '', '', '', 0.0)||
('differences', '', '', '', 0.0)||('in', '', '', '', 0.0)||('healing', 'adj', 'C0043240', ['orgf'], 0.0)||('time', 'noun', 'C0040223', ['tmco'], 0.0)||('compared', 'verb', 'C1707455', ['acty'], 0.0)||('favorably', '', '', '', 0.0)||('with', '', '', '', 0.0)||('those', '', '', '', 0.0)||('reported', 'verb', 'C0684224', ['inpr'], 0.0)||('for', '', '', '', 0.0)||('the', '', '', '', 0.0)||('only', '', '', '', 0.0)||('treatment', 'noun', 'C0039798', ['ftcn'], 0.0)||('of', '', '', '', 0.0)||('herpes simplex', 'noun', 'C0019348', ['dsyn'], 0.0)||('labialis', '', '', '', 0.0)||('that', '', '', '', 0.0)||('has', '', '', '', 0.0)||('been', '', '', '', 0.0)||('approved', 'verb', 'C0205540', ['qlco'], 0.0)||('by', '', '', '', 0.0)||('the', '', '', '', 0.0)||('food and drug administration', 'noun', 'C0041714', ['hcro'], 0.0)||('.', '', '', '', 0.0)||
