('high - dose', '', '', '', 0.0)||(',', '', '', '', 0.0)||('short', 'adj', 'C1806781', ['qnco'], 0.0)||('-', '', '', '', 0.0)||('duration', 'noun', 'C0449238', ['tmco'], 0.0)||(',', '', '', '', 0.0)||('early', 'adv', 'C1279919', ['tmco'], 0.0)||('valacyclovir', '', '', '', 0.0)||('therapy', 'noun', 'C0039798', ['ftcn'], 0.0)||('for', '', '', '', 0.0)||('episodic', 'adj', 'C1455761', ['qlco'], 0.0)||('treatment', 'noun', 'C0039798', ['ftcn'], 0.0)||('of', '', '', '', 0.0)||('cold sores', 'noun', 'C0019345', ['dsyn'], 0.0)||(':', '', '', '', 0.0)||('results', 'noun', 'C1274040', ['ftcn'], 0.0)||('of', '', '', '', 0.0)||('two', 'noun', 'C0205448', ['qnco'], 0.0)||('randomized', 'verb', 'C0034656', ['resa'], 0.0)||(',', '', '', '', 0.0)||('placebo - controlled', '', '', '', 0.0)||(',', '', '', '', 0.0)||('multicenter', '', '', '', 0.0)||('studies', '', '', '', 0.0)||('.', '', '', '', 0.0)||
('oral', 'adj', 'C0442027', ['spco'], 0.0)||('valacyclovir', '', '', '', 0.0)||('is', '', '', '', 0.0)||('better', 'adj', 'C0332272', ['qlco'], 0.0)||('absorbed', '', '', '', 0.0)||('than', '', '', '', 0.0)||('oral', 'adj', 'C0442027', ['spco'], 0.0)||('acyclovir', '', '', '', 0.0)||(',', '', '', '', 0.0)||('increasing', 'verb', 'C0442808', ['ftcn'], 0.0)||('acyclovir', '', '', '', 0.0)||('bioavailability', 'noun', 'C0005508', ['qnco'], 0.0)||('three', '', 'C0205449', ['qnco'], 0.0)||('-', '', '', '', 0.0)||('to', '', '', '', 0.0)||('fivefold', '', '', '', 0.0)||('.', '', '', '', 0.0)||
('this', '', '', '', 0.0)||('provides', '', '', '', 0.0)||('the', '', '', '', 0.0)||('opportunity', '', '', '', 0.0)||('to', '', '', '', 0.0)||('explore', '', '', '', 0.0)||('whether', '', '', '', 0.0)||('high', 'adj', 'C0205250', ['qlco'], 0.0)||('systemic', 'adj', 'C0205373', ['ftcn'], 0.0)||('acyclovir', '', '', '', 0.0)||('concentrations', 'noun', 'C0086045', ['menp'], 0.0)||('are', '', '', '', 0.0)||('effective', 'adj', 'C1704419', ['qlco'], 0.0)||('in', '', '', '', 0.0)||('the', '', '', '', 0.0)||('treatment', 'noun', 'C0039798', ['ftcn'], 0.0)||('of', '', '', '', 0.0)||('cold sores', 'noun', 'C0019345', ['dsyn'], 0.0)||('(', '', '', '', 0.0)||('herpes labialis', 'noun', 'C0019345', ['dsyn'], 0.0)||(')', '', '', '', 0.0)||('.', '', '', '', 0.0)||
('two', 'adv', 'C0205448', ['qnco'], 0.0)||('randomized', 'verb', 'C0034656', ['resa'], 0.0)||(',', '', '', '', 0.0)||('double - blind', '', '', '', 0.0)||(',', '', '', '', 0.0)||('placebo - controlled studies', '', '', '', 0.0)||('were', '', '', '', 0.0)||('conducted', '', '', '', 0.0)||('.', '', '', '', 0.0)||
('subjects', '', '', '', 0.0)||('were', '', '', '', 0.0)||('provided', '', '', '', 0.0)||('with', '', '', '', 0.0)||('2', '', '', '', 0.0)||('g', '', '', '', 0.0)||('of', '', '', '', 0.0)||('valacyclovir', '', '', '', 0.0)||('twice daily', 'adv', 'C0585361', ['tmco'], 0.0)||('for', '', '', '', 0.0)||('1', '', '', '', 0.0)||('day', 'noun', 'C0439228', ['tmco'], 0.0)||('(', '', '', '', 0.0)||('1', '', '', '', 0.0)||('-', '', '', '', 0.0)||('day', 'noun', 'C0439228', ['tmco'], 0.0)||('treatment', 'noun', 'C0039798', ['ftcn'], 0.0)||(')', '', '', '', 0.0)||(',', '', '', '', 0.0)||('2', '', '', '', 0.0)||('g', '', '', '', 0.0)||('of', '', '', '', 0.0)||('valacyclovir', '', '', '', 0.0)||('twice daily', 'adv', 'C0585361', ['tmco'], 0.0)||('for', '', '', '', 0.0)||('1', '', '', '', 0.0)||('day', 'noun', 'C0439228', ['tmco'], 0.0)||('and', '', '', '', 0.0)||('then', 'adv', 'C1883708', ['tmco'], 0.0)||('1', '', '', '', 0.0)||('g', '', '', '', 0.0)||('of', '', '', '', 0.0)||('valacyclovir', '', '', '', 0.0)||('twice daily', 'adv', 'C0585361', ['tmco'], 0.0)||('for', '', '', '', 0.0)||('1', '', '', '', 0.0)||('day', 'noun', 'C0439228', ['tmco'], 0.0)||('(', '', '', '', 0.0)||('2', '', '', '', 0.0)||('-', '', '', '', 0.0)||('day', 'noun', 'C0439228', ['tmco'], 0.0)||('treatment', 'noun', 'C0039798', ['ftcn'], 0.0)||(')', '', '', '', 0.0)||(',', '', '', '', 0.0)||('or', '', '', '', 0.0)||('a', '', '', '', 0.0)||('matching', 'adj', 'C0150103', ['resa'], 0.0)||('placebo', 'noun', 'C0032042', ['topp'], 0.0)||('and', '', '', '', 0.0)||('instructed', '', '', '', 0.0)||('to', '', '', '', 0.0)||('initiate', 'verb', 'C1548602', ['idcn'], 0.0)||('treatment', 'noun', 'C0039798', ['ftcn'], 0.0)||('upon', '', '', '', 0.0)||('the', '', '', '', 0.0)||('first', 'adj', 'C0205435', ['qnco'], 0.0)||('symptoms', 'noun', 'C0683368', ['ftcn'], 0.0)||('of', '', '', '', 0.0)||('a', '', '', '', 0.0)||('cold sore', 'noun', 'C0019345', ['dsyn'], 0.0)||('.', '', '', '', 0.0)||
('in study', '', '', '', 0.0)||('1', '', '', '', 0.0)||(',', '', '', '', 0.0)||('the', '', '', '', 0.0)||('median', 'adj', 'C0549183', ['spco'], 0.0)||('duration', 'noun', 'C0449238', ['tmco'], 0.0)||('of', '', '', '', 0.0)||('the', '', '', '', 0.0)||('episode', '', '', '', 0.0)||('(', '', '', '', 0.0)||('primary', 'adj', 'C0205225', ['qlco'], 0.0)||('endpoint', 'noun', 'C2349179', ['qlco'], 0.0)||(')', '', '', '', 0.0)||('was', '', '', '', 0.0)||('reduced', 'verb', 'C0392756', ['qlco'], 0.0)||('by', '', '', '', 0.0)||('1 . 0', '', '', '', 0.0)||('day', 'noun', 'C0439228', ['tmco'], 0.0)||('(', '', '', '', 0.0)||('p', '', '', '', 0.0)||('=', '', '', '', 0.0)||('0 . 001', '', '', '', 0.0)||(')', '', '', '', 0.0)||('with', '', '', '', 0.0)||('1', '', '', '', 0.0)||('-', '', '', '', 0.0)||('day', 'noun', 'C0439228', ['tmco'], 0.0)||('treatment', 'noun', 'C0039798', ['ftcn'], 0.0)||('and', '', '', '', 0.0)||('0 . 5', '', '', '', 0.0)||('days', 'noun', 'C0439228', ['tmco'], 0.0)||('(', '', '', '', 0.0)||('p', '', '', '', 0.0)||('=', '', '', '', 0.0)||('0 . 009', '', '', '', 0.0)||(')', '', '', '', 0.0)||('with', '', '', '', 0.0)||('2', '', '', '', 0.0)||('-', '', '', '', 0.0)||('day', 'noun', 'C0439228', ['tmco'], 0.0)||('treatment', 'noun', 'C0039798', ['ftcn'], 0.0)||('compared', 'verb', 'C1707455', ['acty'], 0.0)||('to', '', '', '', 0.0)||('placebo', 'noun', 'C0032042', ['topp'], 0.0)||('.', '', '', '', 0.0)||
('similarly', '', '', '', 0.0)||(',', '', '', '', 0.0)||('the', '', '', '', 0.0)||('mean', 'noun', 'C0444504', ['qnco'], 0.0)||('duration', 'noun', 'C0449238', ['tmco'], 0.0)||('of', '', '', '', 0.0)||('the', '', '', '', 0.0)||('episode', '', '', '', 0.0)||('was', '', '', '', 0.0)||('statistically', 'adv', 'C0038215', ['ocdi'], 0.0)||('significantly', '', '', '', 0.0)||('reduced', 'verb', 'C0392756', ['qlco'], 0.0)||('by', '', '', '', 0.0)||('1 . 1', '', '', '', 0.0)||('days', 'noun', 'C0439228', ['tmco'], 0.0)||('with', '', '', '', 0.0)||('1', '', '', '', 0.0)||('-', '', '', '', 0.0)||('day', 'noun', 'C0439228', ['tmco'], 0.0)||('treatment', 'noun', 'C0039798', ['ftcn'], 0.0)||('and', '', '', '', 0.0)||('0 . 7', '', '', '', 0.0)||('days', 'noun', 'C0439228', ['tmco'], 0.0)||('with', '', '', '', 0.0)||('2', '', '', '', 0.0)||('-', '', '', '', 0.0)||('day', 'noun', 'C0439228', ['tmco'], 0.0)||('treatment', 'noun', 'C0039798', ['ftcn'], 0.0)||('compared', 'verb', 'C1707455', ['acty'], 0.0)||('to', '', '', '', 0.0)||('placebo', 'noun', 'C0032042', ['topp'], 0.0)||('.', '', '', '', 0.0)||
('the', '', '', '', 0.0)||('proportion', 'noun', 'C1709707', ['qnco'], 0.0)||('of', '', '', '', 0.0)||('subjects', '', '', '', 0.0)||('in', '', '', '', 0.0)||('whom', '', '', '', 0.0)||('cold sore', 'noun', 'C0019345', ['dsyn'], 0.0)||('lesion', 'noun', 'C0221198', ['fndg'], 0.0)||('development', 'noun', 'C0020119', ['phsf'], 0.0)||('was', '', '', '', 0.0)||('prevented', '', '', '', 0.0)||('and / or', '', '', '', 0.0)||('blocked', 'verb', 'C0028778', ['patf'], 0.0)||('was', '', '', '', 0.0)||('increased', 'verb', 'C0205217', ['qnco'], 0.0)||('by', '', '', '', 0.0)||('6 . 4 %', '', '', '', 0.0)||('(', '', '', '', 0.0)||('p', '', '', '', 0.0)||('=', '', '', '', 0.0)||('0 . 096', '', '', '', 0.0)||(')', '', '', '', 0.0)||('with', '', '', '', 0.0)||('1', '', '', '', 0.0)||('-', '', '', '', 0.0)||('day', 'noun', 'C0439228', ['tmco'], 0.0)||('treatment', 'noun', 'C0039798', ['ftcn'], 0.0)||('and', '', '', '', 0.0)||('8 . 5 %', '', '', '', 0.0)||('(', '', '', '', 0.0)||('p', '', '', '', 0.0)||('=', '', '', '', 0.0)||('0 . 061', '', '', '', 0.0)||(')', '', '', '', 0.0)||('with', '', '', '', 0.0)||('2', '', '', '', 0.0)||('-', '', '', '', 0.0)||('day', 'noun', 'C0439228', ['tmco'], 0.0)||('treatment', 'noun', 'C0039798', ['ftcn'], 0.0)||('compared', 'verb', 'C1707455', ['acty'], 0.0)||('to', '', '', '', 0.0)||('placebo', 'noun', 'C0032042', ['topp'], 0.0)||('.', '', '', '', 0.0)||
('the', '', '', '', 0.0)||('time', 'noun', 'C0040223', ['tmco'], 0.0)||('to', '', '', '', 0.0)||('lesion', 'noun', 'C0221198', ['fndg'], 0.0)||('healing', 'noun', 'C0043240', ['orgf'], 0.0)||('and', '', '', '', 0.0)||('time', 'noun', 'C0040223', ['tmco'], 0.0)||('to', '', '', '', 0.0)||('cessation', 'noun', 'C1880019', ['acty'], 0.0)||('of', '', '', '', 0.0)||('pain', 'noun', 'C0030193', ['sosy'], 0.0)||('and / or', '', '', '', 0.0)||('discomfort', 'noun', 'C0231218', ['sosy'], 0.0)||('were', '', '', '', 0.0)||('statistically', 'adv', 'C0038215', ['ocdi'], 0.0)||('significantly', '', '', '', 0.0)||('reduced', 'verb', 'C0392756', ['qlco'], 0.0)||('with', '', '', '', 0.0)||('valacyclovir', '', '', '', 0.0)||('compared', 'verb', 'C1707455', ['acty'], 0.0)||('to', '', '', '', 0.0)||('placebo', 'noun', 'C0032042', ['topp'], 0.0)||('.', '', '', '', 0.0)||
('in study', '', '', '', 0.0)||('2', '', '', '', 0.0)||(',', '', '', '', 0.0)||('results', 'verb', 'C1274040', ['ftcn'], 0.0)||('similar', 'adj', 'C2348205', ['qlco'], 0.0)||('to', '', '', '', 0.0)||('those', '', '', '', 0.0)||('in study', '', '', '', 0.0)||('1', '', '', '', 0.0)||('were', '', '', '', 0.0)||('obtained', 'verb', 'C1301820', ['ftcn'], 0.0)||('.', '', '', '', 0.0)||
('aes', 'noun', 'C1412268', ['gngm'], 0.0)||('were', '', '', '', 0.0)||('similar', 'adj', 'C2348205', ['qlco'], 0.0)||('across', '', '', '', 0.0)||('treatment', 'noun', 'C0039798', ['ftcn'], 0.0)||('groups', 'noun', 'C0441833', ['idcn'], 0.0)||('.', '', '', '', 0.0)||
('these', '', '', '', 0.0)||('studies', '', '', '', 0.0)||('provide', 'verb', 'C0359589', ['food'], 0.0)||('evidence', 'noun', 'C0332120', ['ftcn'], 0.0)||('supporting', '', '', '', 0.0)||('a', '', '', '', 0.0)||('simple', 'adj', 'C0205352', ['qlco'], 0.0)||(',', '', '', '', 0.0)||('1', '', '', '', 0.0)||('-', '', '', '', 0.0)||('day', 'noun', 'C0439228', ['tmco'], 0.0)||('valacyclovir', '', '', '', 0.0)||('treatment', 'noun', 'C0039798', ['ftcn'], 0.0)||('regimen', 'noun', 'C0040808', ['topp'], 0.0)||('for', '', '', '', 0.0)||('cold sores', 'noun', 'C0019345', ['dsyn'], 0.0)||('that', '', '', '', 0.0)||('is', '', '', '', 0.0)||('safe', '', '', '', 0.0)||('and', '', '', '', 0.0)||('effective', 'adj', 'C1704419', ['qlco'], 0.0)||('.', '', '', '', 0.0)||
('the', '', '', '', 0.0)||('1', '', '', '', 0.0)||('-', '', '', '', 0.0)||('day', 'noun', 'C0439228', ['tmco'], 0.0)||('valacyclovir', '', '', '', 0.0)||('regimen', 'noun', 'C0040808', ['topp'], 0.0)||('offers', '', '', '', 0.0)||('patients', 'noun', 'C0030705', ['podg'], 0.0)||('a', '', '', '', 0.0)||('unique', 'adj', 'C1710548', ['qlco'], 0.0)||('and', '', '', '', 0.0)||('convenient', '', '', '', 0.0)||('dosing', '', '', '', 0.0)||('alternative', 'noun', 'C1523987', ['cnce'], 0.0)||('compared', 'verb', 'C1707455', ['acty'], 0.0)||('to', '', '', '', 0.0)||('available', 'adj', 'C0470187', ['ftcn'], 0.0)||('topical', 'adj', 'C0205530', ['spco'], 0.0)||('therapies', 'noun', 'C0087111', ['topp'], 0.0)||('.', '', '', '', 0.0)||
