('closed', 'adj', 'C0587267', ['ftcn'], 0.0)||('soft tissue', 'noun', 'C0225317', ['tisu'], 0.0)||('injury', 'noun', 'C0175677', ['inpo'], 0.0)||('induces', '', '', '', 0.0)||('progressive', 'adj', 'C0205329', ['ftcn'], 0.0)||('microvascular', 'adj', 'C0443258', ['ftcn'], 0.0)||('dysfunction', 'noun', 'C0031847', ['ftcn'], 0.0)||('and', '', '', '', 0.0)||('regional', 'adj', 'C0205147', ['spco'], 0.0)||('inflammation', 'noun', 'C0021368', ['patf'], 0.0)||('.', '', '', '', 0.0)||
('the', '', '', '', 0.0)||('authors', 'noun', 'C0341628', ['prog'], 0.0)||('tested', '', '', '', 0.0)||('the', '', '', '', 0.0)||('hypothesis', 'noun', 'C1512571', ['idcn'], 0.0)||('that', '', '', '', 0.0)||('adverse', '', '', '', 0.0)||('trauma', 'noun', 'C0043251', ['inpo'], 0.0)||('-', '', '', '', 0.0)||('induced', 'adj', 'C0205263', ['ftcn'], 0.0)||('effects', '', '', '', 0.0)||('can', '', '', '', 0.0)||('be', '', '', '', 0.0)||('reduced', 'verb', 'C0392756', ['qlco'], 0.0)||('by', '', '', '', 0.0)||('local', 'adj', 'C0205276', ['spco'], 0.0)||('cooling', 'noun', 'C0678568', ['npop'], 0.0)||('.', '', '', '', 0.0)||
('while', '', '', '', 0.0)||('superficial', 'adj', 'C0205124', ['spco'], 0.0)||('cooling', 'noun', 'C0678568', ['npop'], 0.0)||('reduces', '', '', '', 0.0)||('swelling', 'noun', 'C0013604', ['patf'], 0.0)||(',', '', '', '', 0.0)||('pain', 'noun', 'C0030193', ['sosy'], 0.0)||(',', '', '', '', 0.0)||('and', '', '', '', 0.0)||('cellular', 'adj', 'C0007634', ['cell'], 0.0)||('oxygen', 'noun', 'C0030054', ['elii', 'phsu'], 0.0)||('demand', 'noun', 'C0441516', ['topp'], 0.0)||(',', '', '', '', 0.0)||('the', '', '', '', 0.0)||('effects', '', '', '', 0.0)||('of', '', '', '', 0.0)||('cryotherapy', 'noun', 'C0010412', ['topp'], 0.0)||('on', '', '', '', 0.0)||('posttraumatic', '', '', '', 0.0)||('microcirculation', 'noun', 'C0025962', ['ortf'], 0.0)||('are', '', '', '', 0.0)||('incompletely', '', '', '', 0.0)||('understood', '', '', '', 0.0)||('.', '', '', '', 0.0)||
('controlled', 'adj', 'C2587213', ['ftcn'], 0.0)||('laboratory', 'noun', 'C0022877', ['mnob', 'orgt'], 0.0)||('study', 'noun', 'C0008976', ['resa'], 0.0)||('.', '', '', '', 0.0)||
('after', '', '', '', 0.0)||('a', '', '', '', 0.0)||('standardized', '', '', '', 0.0)||('closed', 'adj', 'C0587267', ['ftcn'], 0.0)||('soft tissue', 'noun', 'C0225317', ['tisu'], 0.0)||('injury', 'noun', 'C0175677', ['inpo'], 0.0)||('to', '', '', '', 0.0)||('the', '', '', '', 0.0)||('left', 'adj', 'C0205091', ['spco'], 0.0)||('tibial', 'adj', 'C0040184', ['bpoc'], 0.0)||('compartment', 'noun', 'C1185625', ['bsoj'], 0.0)||(',', '', '', '', 0.0)||('male', 'noun', 'C0024554', ['orga'], 0.0)||('rats', 'noun', 'C0034693', ['mamm'], 0.0)||('were', '', '', '', 0.0)||('randomly', '', '', '', 0.0)||('subjected', '', '', '', 0.0)||('to', '', '', '', 0.0)||('percutaneous', 'adj', 'C0522523', ['spco'], 0.0)||('perfusion', 'noun', 'C0031001', ['topp'], 0.0)||('for', '', '', '', 0.0)||('6', '', '', '', 0.0)||('hours', 'noun', 'C0439227', ['tmco'], 0.0)||('with', '', '', '', 0.0)||('0 . 9 %', '', '', '', 0.0)||('nacl', 'noun', 'C0037494', ['bacs', 'inch', 'phsu'], 0.0)||('(', '', '', '', 0.0)||('controls', '', '', '', 0.0)||(';', '', '', '', 0.0)||('room temperature', 'adj', 'C1822393', ['fndg'], 0.0)||(')', '', '', '', 0.0)||('or', '', '', '', 0.0)||('cold', 'adj', 'C0009264', ['npop'], 0.0)||('nacl', 'noun', 'C0037494', ['bacs', 'inch', 'phsu'], 0.0)||('(', '', '', '', 0.0)||('cryotherapy', 'noun', 'C0010412', ['topp'], 0.0)||(';', '', '', '', 0.0)||('8', '', '', '', 0.0)||('degrees', '', '', '', 0.0)||('c', '', '', '', 0.0)||(')', '', '', '', 0.0)||('(', '', '', '', 0.0)||('n =', '', '', '', 0.0)||('7', '', '', '', 0.0)||('per', '', '', '', 0.0)||('group', 'noun', 'C0441833', ['idcn'], 0.0)||(')', '', '', '', 0.0)||('.', '', '', '', 0.0)||
('uninjured', '', '', '', 0.0)||('rats', 'noun', 'C0034693', ['mamm'], 0.0)||('served', '', '', '', 0.0)||('as', '', '', '', 0.0)||('shams', '', '', '', 0.0)||('(', '', '', '', 0.0)||('n =', '', '', '', 0.0)||('7', '', '', '', 0.0)||(')', '', '', '', 0.0)||('.', '', '', '', 0.0)||
('microcirculatory', '', '', '', 0.0)||('changes', '', '', '', 0.0)||('and', '', '', '', 0.0)||('leukocyte', '', '', '', 0.0)||('adherence', 'noun', 'C1510802', ['ftcn'], 0.0)||('were', '', '', '', 0.0)||('determined', '', '', '', 0.0)||('by', '', '', '', 0.0)||('intravital', '', '', '', 0.0)||('microscopy', 'noun', 'C0026018', ['lbpr'], 0.0)||('.', '', '', '', 0.0)||
('intramuscular', 'adj', 'C0021492', ['ftcn'], 0.0)||('pressure', 'noun', 'C0033095', ['phpr'], 0.0)||('was', '', '', '', 0.0)||('measured', 'verb', 'C0444706', ['qlco'], 0.0)||(',', '', '', '', 0.0)||('and', '', '', '', 0.0)||('invasion', 'noun', 'C1269955', ['fndg'], 0.0)||('of', '', '', '', 0.0)||('granulocytes', 'noun', 'C0018183', ['cell'], 0.0)||('and', '', '', '', 0.0)||('macrophages', 'noun', 'C0024432', ['cell'], 0.0)||('was', '', '', '', 0.0)||('assessed', 'verb', 'C1516048', ['acty'], 0.0)||('by', '', '', '', 0.0)||('immunohistochemistry', 'noun', 'C0021044', ['lbpr'], 0.0)||('.', '', '', '', 0.0)||
('edema', 'noun', 'C0013604', ['patf'], 0.0)||('and', '', '', '', 0.0)||('tissue', 'noun', 'C0040300', ['tisu'], 0.0)||('damage', 'noun', 'C0010957', ['inpo'], 0.0)||('was', '', '', '', 0.0)||('quantified', '', '', '', 0.0)||('by', '', '', '', 0.0)||('gravimetry', '', '', '', 0.0)||('and', '', '', '', 0.0)||('decreased', 'adj', 'C0205216', ['qnco'], 0.0)||('desmin', 'noun', 'C0011696', ['aapp', 'bacs'], 0.0)||('staining', 'noun', 'C0487602', ['lbpr'], 0.0)||('.', '', '', '', 0.0)||
('closed', 'adj', 'C0587267', ['ftcn'], 0.0)||('soft tissue', 'noun', 'C0225317', ['tisu'], 0.0)||('injury', 'noun', 'C0175677', ['inpo'], 0.0)||('significantly', '', '', '', 0.0)||('decreased', 'verb', 'C0205216', ['qnco'], 0.0)||('functional capillary density', '', '', '', 0.0)||('(', '', '', '', 0.0)||('240', '', '', '', 0.0)||('+', '', '', '', 0.0)||('/', '', '', '', 0.0)||('-', '', '', '', 0.0)||('12', '', '', '', 0.0)||('cm', '', '', '', 0.0)||('(', '', '', '', 0.0)||('-', '', '', '', 0.0)||('1', '', '', '', 0.0)||(')', '', '', '', 0.0)||(')', '', '', '', 0.0)||(';', '', '', '', 0.0)||
('increased', 'adj', 'C0205217', ['qnco'], 0.0)||('microvascular', 'adj', 'C0443258', ['ftcn'], 0.0)||('permeability', 'noun', 'C0031164', ['npop'], 0.0)||('(', '', '', '', 0.0)||('0 . 75', '', '', '', 0.0)||('+', '', '', '', 0.0)||('/', '', '', '', 0.0)||('-', '', '', '', 0.0)||('0 . 03', '', '', '', 0.0)||(')', '', '', '', 0.0)||(',', '', '', '', 0.0)||('endothelial leukocyte', '', '', '', 0.0)||('adherence', 'noun', 'C1510802', ['ftcn'], 0.0)||('(', '', '', '', 0.0)||('995', '', '', '', 0.0)||('+', '', '', '', 0.0)||('/', '', '', '', 0.0)||('-', '', '', '', 0.0)||('77', '', '', '', 0.0)||('/', '', '', '', 0.0)||('cm', '', '', '', 0.0)||('(', '', '', '', 0.0)||('2', '', '', '', 0.0)||(')', '', '', '', 0.0)||(')', '', '', '', 0.0)||(',', '', '', '', 0.0)||('granulocyte', 'noun', 'C0018183', ['cell'], 0.0)||('(', '', '', '', 0.0)||('182 . 0', '', '', '', 0.0)||('+', '', '', '', 0.0)||('/', '', '', '', 0.0)||('-', '', '', '', 0.0)||('25 . 5', '', '', '', 0.0)||('/', '', '', '', 0.0)||('mm', '', '', '', 0.0)||('(', '', '', '', 0.0)||('2', '', '', '', 0.0)||(')', '', '', '', 0.0)||(')', '', '', '', 0.0)||('and', '', '', '', 0.0)||('macrophage', 'noun', 'C0024432', ['cell'], 0.0)||('infiltration', 'noun', 'C0332448', ['patf'], 0.0)||(',', '', '', '', 0.0)||('edema', 'noun', 'C0013604', ['patf'], 0.0)||('formation', 'noun', 'C0220781', ['biof'], 0.0)||(',', '', '', '', 0.0)||('and', '', '', '', 0.0)||('myonecrosis', 'noun', 'C0235957', ['patf'], 0.0)||('(', '', '', '', 0.0)||('ratio', 'noun', 'C0456603', ['qnco'], 0.0)||(':', '', '', '', 0.0)||('2 . 95', '', '', '', 0.0)||('+', '', '', '', 0.0)||('/', '', '', '', 0.0)||('-', '', '', '', 0.0)||('0 . 45', '', '', '', 0.0)||(')', '', '', '', 0.0)||('within', '', '', '', 0.0)||('the', '', '', '', 0.0)||('left', 'adj', 'C0205091', ['spco'], 0.0)||('extensor digitorum longus muscle', 'noun', 'C0224464', ['bpoc'], 0.0)||('.', '', '', '', 0.0)||
('cryotherapy', 'noun', 'C0010412', ['topp'], 0.0)||('for', '', '', '', 0.0)||('6', '', '', '', 0.0)||('hours', 'noun', 'C0439227', ['tmco'], 0.0)||('significantly', '', '', '', 0.0)||('restored', '', '', '', 0.0)||('diminished', 'adj', 'C0205216', ['qnco'], 0.0)||('functional capillary density', '', '', '', 0.0)||('(', '', '', '', 0.0)||('393', '', '', '', 0.0)||('+', '', '', '', 0.0)||('/', '', '', '', 0.0)||('-', '', '', '', 0.0)||('35', '', '', '', 0.0)||(')', '', '', '', 0.0)||(',', '', '', '', 0.0)||('markedly', 'adv', 'C0522501', ['qlco'], 0.0)||('decreased', 'verb', 'C0205216', ['qnco'], 0.0)||('elevated', 'adj', 'C0205250', ['qlco'], 0.0)||('intramuscular', 'adj', 'C0021492', ['ftcn'], 0.0)||('pressure', 'noun', 'C0033095', ['phpr'], 0.0)||(',', '', '', '', 0.0)||('reduced', 'verb', 'C0392756', ['qlco'], 0.0)||('the', '', '', '', 0.0)||('number', 'noun', 'C0449788', ['qnco'], 0.0)||('of', '', '', '', 0.0)||('adhering', '', '', '', 0.0)||('(', '', '', '', 0.0)||('462', '', '', '', 0.0)||('+', '', '', '', 0.0)||('/', '', '', '', 0.0)||('-', '', '', '', 0.0)||('188', '', '', '', 0.0)||('/', '', '', '', 0.0)||('cm', '', '', '', 0.0)||('(', '', '', '', 0.0)||('2', '', '', '', 0.0)||(')', '', '', '', 0.0)||(')', '', '', '', 0.0)||('and', '', '', '', 0.0)||('invading', '', '', '', 0.0)||('granulocytes', 'noun', 'C0018183', ['cell'], 0.0)||('(', '', '', '', 0.0)||('119', '', '', '', 0.0)||('+', '', '', '', 0.0)||('/', '', '', '', 0.0)||('-', '', '', '', 0.0)||('28', '', '', '', 0.0)||(')', '', '', '', 0.0)||(',', '', '', '', 0.0)||('and', '', '', '', 0.0)||('attenuated', 'adj', 'C0332161', ['qlco'], 0.0)||('tissue', 'noun', 'C0040300', ['tisu'], 0.0)||('damage', 'noun', 'C0010957', ['inpo'], 0.0)||('(', '', '', '', 0.0)||('ratio', 'noun', 'C0456603', ['qnco'], 0.0)||(':', '', '', '', 0.0)||('1 . 7', '', '', '', 0.0)||('+', '', '', '', 0.0)||('/', '', '', '', 0.0)||('-', '', '', '', 0.0)||('0 . 17', '', '', '', 0.0)||(')', '', '', '', 0.0)||('.', '', '', '', 0.0)||
('the', '', '', '', 0.0)||('hypothesis', 'noun', 'C1512571', ['idcn'], 0.0)||('that', '', '', '', 0.0)||('prolonged', 'adj', 'C0439590', ['tmco'], 0.0)||('cooling', 'noun', 'C0678568', ['npop'], 0.0)||('reduces', '', '', '', 0.0)||('posttraumatic', '', '', '', 0.0)||('microvascular', 'adj', 'C0443258', ['ftcn'], 0.0)||('dysfunction', 'noun', 'C0031847', ['ftcn'], 0.0)||(',', '', '', '', 0.0)||('inflammation', 'noun', 'C0021368', ['patf'], 0.0)||(',', '', '', '', 0.0)||('and', '', '', '', 0.0)||('structural', 'adj', 'C0678594', ['spco'], 0.0)||('impairment', 'noun', 'C0684336', ['fndg'], 0.0)||('was', '', '', '', 0.0)||('confirmed', 'verb', 'C0750484', ['idcn'], 0.0)||('.', '', '', '', 0.0)||
('these', '', '', '', 0.0)||('results', 'noun', 'C1274040', ['ftcn'], 0.0)||('may', '', '', '', 0.0)||('have', '', '', '', 0.0)||('therapeutic', 'adj', 'C0039796', ['topp'], 0.0)||('implications', '', '', '', 0.0)||('as', '', '', '', 0.0)||('cryotherapy', 'noun', 'C0010412', ['topp'], 0.0)||('after', '', '', '', 0.0)||('closed', 'adj', 'C0587267', ['ftcn'], 0.0)||('soft tissue', 'noun', 'C0225317', ['tisu'], 0.0)||('injury', 'noun', 'C0175677', ['inpo'], 0.0)||('is', '', '', '', 0.0)||('a', '', '', '', 0.0)||('valuable', '', '', '', 0.0)||('therapeutic', 'adj', 'C0039796', ['topp'], 0.0)||('approach', 'noun', 'C0449445', ['spco'], 0.0)||('to', '', '', '', 0.0)||('improve', 'verb', 'C0332161', ['qlco'], 0.0)||('nutritive', '', '', '', 0.0)||('perfusion', 'noun', 'C0031001', ['topp'], 0.0)||('and', '', '', '', 0.0)||('attenuate', '', '', '', 0.0)||('leukocyte', '', '', '', 0.0)||('-', '', '', '', 0.0)||('mediated', 'adj', 'C0127400', ['orch', 'phsu'], 0.0)||('tissue', 'noun', 'C0040300', ['tisu'], 0.0)||('destruction', 'noun', 'C1261381', ['topp'], 0.0)||('.', '', '', '', 0.0)||
('the', '', '', '', 0.0)||('risk', 'noun', 'C0035647', ['qlco'], 0.0)||('for', '', '', '', 0.0)||('evolving', 'adj', 'C0332253', ['ftcn'], 0.0)||('compartment syndrome', 'noun', 'C0009492', ['dsyn'], 0.0)||('may', '', '', '', 0.0)||('be', '', '', '', 0.0)||('reduced', 'verb', 'C0392756', ['qlco'], 0.0)||(',', '', '', '', 0.0)||('thereby', '', '', '', 0.0)||('preventing', 'verb', 'C1292733', ['ftcn'], 0.0)||('further', 'adj', 'C1517331', ['spco'], 0.0)||('irreversible', '', '', '', 0.0)||('aggravation', '', '', '', 0.0)||('.', '', '', '', 0.0)||
