('in', '', '', '', 0.0)||('severe', 'adj', 'C0205082', ['qlco'], 0.0)||('alcoholic hepatitis', '', '', '', 0.0)||(',', '', '', '', 0.0)||('40 %', '', '', '', 0.0)||('of', '', '', '', 0.0)||('patients', 'noun', 'C0030705', ['podg'], 0.0)||('will', '', '', '', 0.0)||('obtain', 'verb', 'C1301820', ['ftcn'], 0.0)||('no', '', '', '', 0.0)||('benefit', 'noun', 'C0814225', ['qnco'], 0.0)||('from', '', '', '', 0.0)||('corticosteroids', 'noun', 'C0001617', ['horm', 'phsu', 'strd'], 0.0)||('.', '', '', '', 0.0)||
('improvement', '', '', '', 0.0)||('in', '', '', '', 0.0)||('management', 'noun', 'C0001554', ['ocac'], 0.0)||('of', '', '', '', 0.0)||('non - responders', '', '', '', 0.0)||('is', '', '', '', 0.0)||('warranted', '', '', '', 0.0)||('and', '', '', '', 0.0)||('only', '', '', '', 0.0)||('pentoxifylline', 'noun', 'C0030899', ['orch', 'phsu'], 0.0)||('can', '', '', '', 0.0)||('be', '', '', '', 0.0)||('considered', '', '', '', 0.0)||('an', '', '', '', 0.0)||('alternative', 'noun', 'C1523987', ['cnce'], 0.0)||('.', '', '', '', 0.0)||
('a', '', '', '', 0.0)||('two - step', '', '', '', 0.0)||('strategy', 'noun', 'C0679199', ['menp'], 0.0)||('was', '', '', '', 0.0)||('evaluated', 'verb', 'C0220825', ['ftcn'], 0.0)||('consisting', '', '', '', 0.0)||('of', '', '', '', 0.0)||('early', 'adj', 'C1279919', ['tmco'], 0.0)||('withdrawal', 'noun', 'C0237955', ['menp'], 0.0)||('of', '', '', '', 0.0)||('corticosteroids', 'noun', 'C0001617', ['horm', 'phsu', 'strd'], 0.0)||('and', '', '', '', 0.0)||('a', '', '', '', 0.0)||('switch', 'noun', 'C1707719', ['mnob'], 0.0)||('to', '', '', '', 0.0)||('pentoxifylline', 'noun', 'C0030899', ['orch', 'phsu'], 0.0)||('for', '', '', '', 0.0)||('28', '', '', '', 0.0)||('additional', 'adj', 'C1524062', ['ftcn'], 0.0)||('days', 'noun', 'C0439228', ['tmco'], 0.0)||('in', '', '', '', 0.0)||('non - responders', '', '', '', 0.0)||('identified', 'verb', 'C0205396', ['qlco'], 0.0)||('using', 'verb', 'C1524063', ['ftcn'], 0.0)||('early', 'adv', 'C1279919', ['tmco'], 0.0)||('change', 'verb', 'C0392747', ['ftcn'], 0.0)||('in', '', '', '', 0.0)||('bilirubin level', 'noun', 'C0344395', ['lbpr'], 0.0)||('.', '', '', '', 0.0)||
('one', 'noun', 'C0205447', ['qnco'], 0.0)||('hundred', '', '', '', 0.0)||('and', '', '', '', 0.0)||('twenty - one', '', '', '', 0.0)||('patients', 'noun', 'C0030705', ['podg'], 0.0)||('with', '', '', '', 0.0)||('alcoholic hepatitis', '', '', '', 0.0)||('were', '', '', '', 0.0)||('treated', 'verb', 'C1522326', ['ftcn'], 0.0)||('prospectively', '', '', '', 0.0)||('with', '', '', '', 0.0)||('corticosteroids', 'noun', 'C0001617', ['horm', 'phsu', 'strd'], 0.0)||(',', '', '', '', 0.0)||('and', '', '', '', 0.0)||('the', '', '', '', 0.0)||('two - step', '', '', '', 0.0)||('strategy', 'noun', 'C0679199', ['menp'], 0.0)||('was', '', '', '', 0.0)||('proposed', 'verb', 'C1441414', ['idcn'], 0.0)||('to', '', '', '', 0.0)||('29', '', '', '', 0.0)||('non - responders', '', '', '', 0.0)||('treated', 'verb', 'C1522326', ['ftcn'], 0.0)||('according to', '', '', '', 0.0)||('a', '', '', '', 0.0)||('two - step', '', '', '', 0.0)||('strategy', 'noun', 'C0679199', ['menp'], 0.0)||('who', '', '', '', 0.0)||('were', '', '', '', 0.0)||('compared', 'verb', 'C1707455', ['acty'], 0.0)||('to', '', '', '', 0.0)||('58', '', '', '', 0.0)||('matched', 'adj', 'C1708943', ['qlco'], 0.0)||('non - responders', '', '', '', 0.0)||('treated', 'verb', 'C1522326', ['ftcn'], 0.0)||('with', '', '', '', 0.0)||('corticosteroids', 'noun', 'C0001617', ['horm', 'phsu', 'strd'], 0.0)||('only', '', '', '', 0.0)||('.', '', '', '', 0.0)||
('clinical', 'adj', 'C0205210', ['qlco'], 0.0)||('and', '', '', '', 0.0)||('biological', 'adj', 'C0005532', ['bmod'], 0.0)||('features', '', '', '', 0.0)||('of', '', '', '', 0.0)||('the', '', '', '', 0.0)||('two', 'adj', 'C0205448', ['qnco'], 0.0)||('groups', 'noun', 'C0441833', ['idcn'], 0.0)||('were', '', '', '', 0.0)||('similar', 'adj', 'C2348205', ['qlco'], 0.0)||('.', '', '', '', 0.0)||
('there', '', '', '', 0.0)||('was', '', '', '', 0.0)||('no', '', '', '', 0.0)||('survival', 'noun', 'C0038952', ['acty'], 0.0)||('improvement', '', '', '', 0.0)||('at 2', '', '', '', 0.0)||('months', 'noun', 'C0439231', ['tmco'], 0.0)||('in', '', '', '', 0.0)||('patients', 'noun', 'C0030705', ['podg'], 0.0)||('treated', 'verb', 'C1522326', ['ftcn'], 0.0)||('with', '', '', '', 0.0)||('the', '', '', '', 0.0)||('two - step', '', '', '', 0.0)||('strategy', 'noun', 'C0679199', ['menp'], 0.0)||('compared', 'verb', 'C1707455', ['acty'], 0.0)||('to', '', '', '', 0.0)||('controls', '', '', '', 0.0)||(':', '', '', '', 0.0)||('35 . 5', '', '', '', 0.0)||('+', '', '', '', 0.0)||('/', '', '', '', 0.0)||('-', '', '', '', 0.0)||('6 . 3 %', '', '', '', 0.0)||('vs', '', '', '', 0.0)||('31', '', '', '', 0.0)||('+', '', '', '', 0.0)||('/', '', '', '', 0.0)||('-', '', '', '', 0.0)||('8 . 6 %', '', '', '', 0.0)||('.', '', '', '', 0.0)||
('after', '', '', '', 0.0)||('21', '', '', '', 0.0)||('days', 'noun', 'C0439228', ['tmco'], 0.0)||(',', '', '', '', 0.0)||('biological', 'adj', 'C0005532', ['bmod'], 0.0)||('evolution', 'noun', 'C0015219', ['genf'], 0.0)||('was', '', '', '', 0.0)||('similar', 'adj', 'C2348205', ['qlco'], 0.0)||('for', '', '', '', 0.0)||('prothrombin time', '', '', '', 0.0)||('(', '', '', '', 0.0)||('-', '', '', '', 0.0)||('0', '', '', '', 0.0)||('.', '', '', '', 0.0)||('25s', 'noun', 'C1552139', ['bpoc'], 0.0)||('vs +', '', '', '', 0.0)||('0', '', '', '', 0.0)||('.', '', '', '', 0.0)||('2s', 'noun', 'C1552116', ['bpoc'], 0.0)||(')', '', '', '', 0.0)||(',', '', '', '', 0.0)||('bilirubin', 'noun', 'C0005437', ['bacs', 'orch'], 0.0)||('(', '', '', '', 0.0)||('0 . 8', '', '', '', 0.0)||('mg', '', '', '', 0.0)||('/', '', '', '', 0.0)||('dl', '', '', '', 0.0)||('vs', '', '', '', 0.0)||('2 . 03', '', '', '', 0.0)||('mg', '', '', '', 0.0)||('/', '', '', '', 0.0)||('dl', '', '', '', 0.0)||(')', '', '', '', 0.0)||('and', '', '', '', 0.0)||('creatinine', 'noun', 'C0010294', ['bacs', 'orch'], 0.0)||('(', '', '', '', 0.0)||('+', '', '', '', 0.0)||('0 . 16', '', '', '', 0.0)||('mg', '', '', '', 0.0)||('/', '', '', '', 0.0)||('dl', '', '', '', 0.0)||('vs -', '', '', '', 0.0)||('0 . 7', '', '', '', 0.0)||('mg', '', '', '', 0.0)||('/', '', '', '', 0.0)||('dl', '', '', '', 0.0)||(')', '', '', '', 0.0)||('.', '', '', '', 0.0)||
('in', '', '', '', 0.0)||('multivariate analysis', 'noun', 'C0026777', ['qnco'], 0.0)||(',', '', '', '', 0.0)||('only', '', '', '', 0.0)||('age', 'noun', 'C0001779', ['orga'], 0.0)||(',', '', '', '', 0.0)||('evolution', 'noun', 'C0015219', ['genf'], 0.0)||('of', '', '', '', 0.0)||('bilirubin', 'noun', 'C0005437', ['bacs', 'orch'], 0.0)||('during', '', '', '', 0.0)||('the', '', '', '', 0.0)||('first', 'adj', 'C0205435', ['qnco'], 0.0)||('week', 'noun', 'C0439230', ['tmco'], 0.0)||(',', '', '', '', 0.0)||('creatinine', 'noun', 'C0010294', ['bacs', 'orch'], 0.0)||('and', '', '', '', 0.0)||('df', 'noun', 'C1824729', ['gngm'], 0.0)||('were', '', '', '', 0.0)||('associated', 'verb', 'C0332281', ['qlco'], 0.0)||('with', '', '', '', 0.0)||('2', '', '', '', 0.0)||('-', '', '', '', 0.0)||('month', 'noun', 'C0439231', ['tmco'], 0.0)||('survival', 'noun', 'C0038952', ['acty'], 0.0)||('.', '', '', '', 0.0)||
('non - responders', '', '', '', 0.0)||('to', '', '', '', 0.0)||('corticosteroids', 'noun', 'C0001617', ['horm', 'phsu', 'strd'], 0.0)||('do', '', '', '', 0.0)||('not', 'adv', 'C1518422', ['ftcn'], 0.0)||('obtain', 'verb', 'C1301820', ['ftcn'], 0.0)||('any', '', '', '', 0.0)||('benefit', 'noun', 'C0814225', ['qnco'], 0.0)||('from', '', '', '', 0.0)||('an', '', '', '', 0.0)||('early', 'adj', 'C1279919', ['tmco'], 0.0)||('switch', 'noun', 'C1707719', ['mnob'], 0.0)||('to', '', '', '', 0.0)||('pentoxifylline', 'noun', 'C0030899', ['orch', 'phsu'], 0.0)||('.', '', '', '', 0.0)||
('thus', '', '', '', 0.0)||(',', '', '', '', 0.0)||('the', '', '', '', 0.0)||('issue', 'noun', 'C0033213', ['fndg'], 0.0)||('of', '', '', '', 0.0)||('management', 'noun', 'C0001554', ['ocac'], 0.0)||('of', '', '', '', 0.0)||('non - responders', '', '', '', 0.0)||('remains', '', '', '', 0.0)||('unresolved', 'verb', 'C0443342', ['qlco'], 0.0)||('.', '', '', '', 0.0)||
