('the', '', '', '', 0.0)||('authors', 'noun', 'C0341628', ['prog'], 0.0)||('sought', '', '', '', 0.0)||('to', '', '', '', 0.0)||('replicate', 'verb', 'C0205173', ['ftcn'], 0.0)||('open - label', '', '', '', 0.0)||('findings', 'noun', 'C2607943', ['ftcn'], 0.0)||('showing', '', '', '', 0.0)||('that', '', '', '', 0.0)||('specific', 'adj', 'C0205369', ['qlco'], 0.0)||('criteria', 'noun', 'C0243161', ['inpr'], 0.0)||('for', '', '', '', 0.0)||('explosive', 'adj', 'C1548765', ['inpr'], 0.0)||('temper', '', '', '', 0.0)||('and', '', '', '', 0.0)||('mood', 'noun', 'C0026516', ['menp'], 0.0)||('lability', '', '', '', 0.0)||('identify', '', '', '', 0.0)||('disruptive', '', '', '', 0.0)||('youth', 'noun', 'C0087178', ['aggp'], 0.0)||('who', '', '', '', 0.0)||('improve', 'verb', 'C0332161', ['qlco'], 0.0)||('while', '', '', '', 0.0)||('receiving', '', '', '', 0.0)||('the', '', '', '', 0.0)||('anticonvulsant', 'adj', 'C0003286', ['phsu'], 0.0)||('divalproex sodium', 'noun', 'C0886883', ['orch', 'phsu'], 0.0)||('.', '', '', '', 0.0)||
('twenty', '', '', '', 0.0)||('outpatient', 'adj', 'C0029921', ['podg'], 0.0)||('children', 'noun', 'C0008059', ['aggp'], 0.0)||('and', '', '', '', 0.0)||('adolescents', 'noun', 'C0205653', ['aggp'], 0.0)||('(', '', '', '', 0.0)||('ages', '', '', '', 0.0)||('10', '', '', '', 0.0)||('-', '', '', '', 0.0)||('18', '', '', '', 0.0)||(')', '', '', '', 0.0)||('with', '', '', '', 0.0)||('a', '', '', '', 0.0)||('disruptive behavior disorder', 'noun', 'C0012734', ['mobd'], 0.0)||('(', '', '', '', 0.0)||('oppositional defiant disorder', 'noun', 'C0029121', ['mobd'], 0.0)||('or', '', '', '', 0.0)||('conduct disorder', 'noun', 'C0149654', ['mobd'], 0.0)||(')', '', '', '', 0.0)||('met', '', '', '', 0.0)||('the', '', '', '', 0.0)||('specific', 'adj', 'C0205369', ['qlco'], 0.0)||('criteria', 'noun', 'C0243161', ['inpr'], 0.0)||('for', '', '', '', 0.0)||('explosive', 'adj', 'C1548765', ['inpr'], 0.0)||('temper', '', '', '', 0.0)||('and', '', '', '', 0.0)||('mood', 'noun', 'C0026516', ['menp'], 0.0)||('lability', '', '', '', 0.0)||('.', '', '', '', 0.0)||
('they', '', '', '', 0.0)||('received', 'verb', 'C1514756', ['qlco'], 0.0)||('6', '', '', '', 0.0)||('weeks', 'noun', 'C0439230', ['tmco'], 0.0)||('of', '', '', '', 0.0)||('divalproex', 'noun', 'C0042291', ['orch', 'phsu'], 0.0)||('treatment', 'noun', 'C0039798', ['ftcn'], 0.0)||('and', '', '', '', 0.0)||('6', '', '', '', 0.0)||('weeks', 'noun', 'C0439230', ['tmco'], 0.0)||('of', '', '', '', 0.0)||('placebo', 'noun', 'C0032042', ['topp'], 0.0)||('by', '', '', '', 0.0)||('random', 'adj', 'C0034656', ['resa'], 0.0)||('assignment', 'noun', 'C1516050', ['ftcn'], 0.0)||('.', '', '', '', 0.0)||
('independent', 'adj', 'C0085862', ['idcn'], 0.0)||('evaluators', '', '', '', 0.0)||('blind', 'noun', 'C0150108', ['resa'], 0.0)||('to', '', '', '', 0.0)||('group', 'noun', 'C0441833', ['idcn'], 0.0)||('assignment', 'noun', 'C1516050', ['ftcn'], 0.0)||('assessed', 'verb', 'C1516048', ['acty'], 0.0)||('response', 'noun', 'C0871261', ['clna'], 0.0)||('at', '', '', '', 0.0)||('the', '', '', '', 0.0)||('end', 'noun', 'C0444930', ['spco'], 0.0)||('of', '', '', '', 0.0)||('each', '', '', '', 0.0)||('phase', 'noun', 'C0205390', ['tmco'], 0.0)||('.', '', '', '', 0.0)||
('at', '', '', '', 0.0)||('the', '', '', '', 0.0)||('end', 'noun', 'C0444930', ['spco'], 0.0)||('of', '', '', '', 0.0)||('phase', 'noun', 'C0205390', ['tmco'], 0.0)||('1', '', '', '', 0.0)||(',', '', '', '', 0.0)||('eight', '', 'C0205454', ['qnco'], 0.0)||('of', '', '', '', 0.0)||('10', '', '', '', 0.0)||('subjects', '', '', '', 0.0)||('had', '', '', '', 0.0)||('responded', '', '', '', 0.0)||('to', '', '', '', 0.0)||('divalproex', 'noun', 'C0042291', ['orch', 'phsu'], 0.0)||(';', '', '', '', 0.0)||
('zero', 'noun', 'C0919414', ['qnco'], 0.0)||('of', '', '', '', 0.0)||('10', '', '', '', 0.0)||('had', '', '', '', 0.0)||('responded', '', '', '', 0.0)||('to', '', '', '', 0.0)||('placebo', 'noun', 'C0032042', ['topp'], 0.0)||('.', '', '', '', 0.0)||
('of', '', '', '', 0.0)||('the', '', '', '', 0.0)||('15', '', '', '', 0.0)||('subjects', '', '', '', 0.0)||('who', '', '', '', 0.0)||('completed', 'verb', 'C0205197', ['qlco'], 0.0)||('both', '', '', '', 0.0)||('phases', 'noun', 'C0205390', ['tmco'], 0.0)||(',', '', '', '', 0.0)||('12', '', '', '', 0.0)||('has', '', '', '', 0.0)||('superior', 'adj', 'C1282910', ['spco'], 0.0)||('response', 'noun', 'C0871261', ['clna'], 0.0)||('taking', '', '', '', 0.0)||('divalproex', 'noun', 'C0042291', ['orch', 'phsu'], 0.0)||('.', '', '', '', 0.0)||
('this', '', '', '', 0.0)||('preliminary study', '', '', '', 0.0)||('replicates', '', '', '', 0.0)||('open - label', '', '', '', 0.0)||('findings', 'noun', 'C2607943', ['ftcn'], 0.0)||('showing', '', '', '', 0.0)||('that', '', '', '', 0.0)||('divalproex', 'noun', 'C0042291', ['orch', 'phsu'], 0.0)||('is', '', '', '', 0.0)||('an', '', '', '', 0.0)||('efficacious', '', '', '', 0.0)||('treatment', 'noun', 'C0039798', ['ftcn'], 0.0)||('for', '', '', '', 0.0)||('explosive', 'adj', 'C1548765', ['inpr'], 0.0)||('temper', '', '', '', 0.0)||('and', '', '', '', 0.0)||('mood', 'noun', 'C0026516', ['menp'], 0.0)||('lability', '', '', '', 0.0)||('in', '', '', '', 0.0)||('disruptive', '', '', '', 0.0)||('children', 'noun', 'C0008059', ['aggp'], 0.0)||('and', '', '', '', 0.0)||('adolescents', 'noun', 'C0205653', ['aggp'], 0.0)||('.', '', '', '', 0.0)||
