('the', '', '', '', 0.0)||('study', 'noun', 'C0008976', ['resa'], 0.0)||('tested', '', '', '', 0.0)||('alternative', 'adj', 'C1523987', ['cnce'], 0.0)||('intervention', 'noun', 'C1273869', ['hlca'], 0.0)||('strategies', 'noun', 'C0679199', ['menp'], 0.0)||('to', '', '', '', 0.0)||('reduce', '', '', '', 0.0)||('escalation', '', '', '', 0.0)||('in', '', '', '', 0.0)||('problem', 'noun', 'C0033213', ['fndg'], 0.0)||('behaviors', 'noun', 'C0004927', ['inbe'], 0.0)||('among', '', '', '', 0.0)||('high - risk', '', '', '', 0.0)||('young', 'adj', 'C0332239', ['tmco'], 0.0)||('adolescents', 'noun', 'C0205653', ['aggp'], 0.0)||('(', '', '', '', 0.0)||('11', '', '', '', 0.0)||('to', '', '', '', 0.0)||('14', '', '', '', 0.0)||('years', 'noun', 'C0439234', ['tmco'], 0.0)||('old', 'noun', 'C0580836', ['tmco'], 0.0)||(')', '', '', '', 0.0)||('.', '', '', '', 0.0)||
('a', '', '', '', 0.0)||('total', 'noun', 'C0439810', ['qlco'], 0.0)||('of', '', '', '', 0.0)||('158', '', '', '', 0.0)||('families', 'noun', 'C0015576', ['famg'], 0.0)||('with', '', '', '', 0.0)||('young', 'adj', 'C0332239', ['tmco'], 0.0)||('adolescents', 'noun', 'C0205653', ['aggp'], 0.0)||('(', '', '', '', 0.0)||('male', 'noun', 'C0024554', ['orga'], 0.0)||('and', '', '', '', 0.0)||('female', 'noun', 'C0015780', ['orga'], 0.0)||(')', '', '', '', 0.0)||('participated', '', '', '', 0.0)||('in', '', '', '', 0.0)||('this', '', '', '', 0.0)||('study', 'noun', 'C0008976', ['resa'], 0.0)||('.', '', '', '', 0.0)||
('of', '', '', '', 0.0)||('these', '', '', '', 0.0)||(',', '', '', '', 0.0)||('119', '', '', '', 0.0)||('families', 'noun', 'C0015576', ['famg'], 0.0)||('were', '', '', '', 0.0)||('randomly', '', '', '', 0.0)||('assigned', 'verb', 'C1516050', ['ftcn'], 0.0)||('to', '', '', '', 0.0)||('1', '', '', '', 0.0)||('of', '', '', '', 0.0)||('the', '', '', '', 0.0)||('following', '', '', '', 0.0)||('intervention', 'noun', 'C1273869', ['hlca'], 0.0)||('conditions', '', '', '', 0.0)||(':', '', '', '', 0.0)||('(', '', '', '', 0.0)||('a', '', '', '', 0.0)||(')', '', '', '', 0.0)||('parent', 'verb', 'C0030551', ['famg'], 0.0)||('focus', 'noun', 'C0205234', ['spco'], 0.0)||(',', '', '', '', 0.0)||('(', '', '', '', 0.0)||('b', '', '', '', 0.0)||(')', '', '', '', 0.0)||('teen', 'noun', 'C1521910', ['popg'], 0.0)||('focus', 'noun', 'C0205234', ['spco'], 0.0)||(',', '', '', '', 0.0)||('(', '', '', '', 0.0)||('c', '', '', '', 0.0)||(')', '', '', '', 0.0)||('parent', 'noun', 'C0030551', ['famg'], 0.0)||('and', '', '', '', 0.0)||('teen', 'adj', 'C1521910', ['popg'], 0.0)||('focus', 'noun', 'C0205234', ['spco'], 0.0)||(',', '', '', '', 0.0)||('(', '', '', '', 0.0)||('d )', '', '', '', 0.0)||('self - directed', '', '', '', 0.0)||('change', 'noun', 'C0392747', ['ftcn'], 0.0)||('(', '', '', '', 0.0)||('materials', 'noun', 'C0520510', ['sbst'], 0.0)||('only', '', '', '', 0.0)||(')', '', '', '', 0.0)||('.', '', '', '', 0.0)||
('in', '', '', '', 0.0)||('addition', 'noun', 'C1883712', ['ftcn'], 0.0)||(',', '', '', '', 0.0)||('39', '', '', '', 0.0)||('families', 'noun', 'C0015576', ['famg'], 0.0)||('of', '', '', '', 0.0)||('young', 'adj', 'C0332239', ['tmco'], 0.0)||('adolescents', 'noun', 'C0205653', ['aggp'], 0.0)||('were', '', '', '', 0.0)||('recruited', '', '', '', 0.0)||('as', '', '', '', 0.0)||('a', '', '', '', 0.0)||('quasi - experimental', '', '', '', 0.0)||('control', 'noun', 'C0243148', ['qlco'], 0.0)||('.', '', '', '', 0.0)||
('parent', 'noun', 'C0030551', ['famg'], 0.0)||('focus', 'noun', 'C0205234', ['spco'], 0.0)||('and', '', '', '', 0.0)||('teen', 'adj', 'C1521910', ['popg'], 0.0)||('focus', 'noun', 'C0205234', ['spco'], 0.0)||('interventions', '', '', '', 0.0)||('resulted', '', '', '', 0.0)||('in', '', '', '', 0.0)||('immediate', 'adj', 'C0205253', ['tmco'], 0.0)||('beneficial', '', '', '', 0.0)||('effects', '', '', '', 0.0)||('in', '', '', '', 0.0)||('observed', 'adj', 'C1441672', ['ftcn'], 0.0)||('and', '', '', '', 0.0)||('reported', 'adj', 'C0684224', ['inpr'], 0.0)||('family', 'noun', 'C0015576', ['famg'], 0.0)||('conflict', 'noun', 'C0009671', ['inbe'], 0.0)||('.', '', '', '', 0.0)||
('the', '', '', '', 0.0)||('parent', 'noun', 'C0030551', ['famg'], 0.0)||('intervention', 'noun', 'C1273869', ['hlca'], 0.0)||('conditions', '', '', '', 0.0)||('showed', '', '', '', 0.0)||('immediate', 'adj', 'C0205253', ['tmco'], 0.0)||('beneficial', '', '', '', 0.0)||('effects', '', '', '', 0.0)||('on', '', '', '', 0.0)||('behavior', 'noun', 'C0004927', ['inbe'], 0.0)||('problems', 'noun', 'C1546466', ['idcn'], 0.0)||('at', '', '', '', 0.0)||('school', 'noun', 'C0036375', ['mnob', 'orgt'], 0.0)||('.', '', '', '', 0.0)||
('longitudinal', 'adj', 'C0205127', ['spco'], 0.0)||('trends', 'noun', 'C0040833', ['tmco'], 0.0)||('suggest', 'verb', 'C1705535', ['idcn'], 0.0)||('that', '', '', '', 0.0)||('the', '', '', '', 0.0)||('parent', 'noun', 'C0030551', ['famg'], 0.0)||('focus', 'noun', 'C0205234', ['spco'], 0.0)||('condition', 'noun', 'C0348080', ['qlco'], 0.0)||('may', '', '', '', 0.0)||('reduce', '', '', '', 0.0)||('subsequent', 'adj', 'C0332282', ['tmco'], 0.0)||('tobacco use', 'noun', 'C0543414', ['inbe'], 0.0)||(',', '', '', '', 0.0)||('compared', 'verb', 'C1707455', ['acty'], 0.0)||('with', '', '', '', 0.0)||('all', '', '', '', 0.0)||('other', '', '', '', 0.0)||('approaches', 'noun', 'C0449445', ['spco'], 0.0)||('.', '', '', '', 0.0)||
('interventions', '', '', '', 0.0)||('that', '', '', '', 0.0)||('aggregated', 'verb', 'C0332621', ['ftcn'], 0.0)||('high - risk', '', '', '', 0.0)||('youths', 'noun', 'C0087178', ['aggp'], 0.0)||('into', '', '', '', 0.0)||('groups', 'noun', 'C0441833', ['idcn'], 0.0)||(',', '', '', '', 0.0)||('however', '', '', '', 0.0)||(',', '', '', '', 0.0)||('showed', '', '', '', 0.0)||('the', '', '', '', 0.0)||('highest', 'adj', 'C1522410', ['qlco'], 0.0)||('escalations', '', '', '', 0.0)||('in', '', '', '', 0.0)||('tobacco use', 'noun', 'C0543414', ['inbe'], 0.0)||('and', '', '', '', 0.0)||('problem', 'noun', 'C0033213', ['fndg'], 0.0)||('behavior', 'noun', 'C0004927', ['inbe'], 0.0)||('at', '', '', '', 0.0)||('school', 'noun', 'C0036375', ['mnob', 'orgt'], 0.0)||(',', '', '', '', 0.0)||('beginning', 'verb', 'C0439659', ['tmco'], 0.0)||('at', '', '', '', 0.0)||('termination', 'noun', 'C1549081', ['inpr'], 0.0)||('and', '', '', '', 0.0)||('persisting', '', '', '', 0.0)||('to', '', '', '', 0.0)||('follow - up', '', '', '', 0.0)||('.', '', '', '', 0.0)||
('these', '', '', '', 0.0)||('findings', 'noun', 'C2607943', ['ftcn'], 0.0)||('are', '', '', '', 0.0)||('discussed', '', '', '', 0.0)||('with', '', '', '', 0.0)||('respect', 'noun', 'C0679133', ['socb'], 0.0)||('to', '', '', '', 0.0)||('the', '', '', '', 0.0)||('need', 'noun', 'C0027552', ['qlco'], 0.0)||('to', '', '', '', 0.0)||('re - evaluate', '', '', '', 0.0)||('strategies', 'noun', 'C0679199', ['menp'], 0.0)||('that', '', '', '', 0.0)||('aggregate', 'verb', 'C0205418', ['qlco'], 0.0)||('high - risk', '', '', '', 0.0)||('youths', 'noun', 'C0087178', ['aggp'], 0.0)||('into', '', '', '', 0.0)||('intervention', 'noun', 'C1273869', ['hlca'], 0.0)||('programs', 'noun', 'C0376691', ['inpr'], 0.0)||('and', '', '', '', 0.0)||('focus', 'noun', 'C0205234', ['spco'], 0.0)||('more', '', '', '', 0.0)||('on', '', '', '', 0.0)||('strategies', 'noun', 'C0679199', ['menp'], 0.0)||('to', '', '', '', 0.0)||('engage', '', '', '', 0.0)||('parents', 'noun', 'C0030551', ['famg'], 0.0)||('in', '', '', '', 0.0)||('prevention', 'noun', 'C0199176', ['topp'], 0.0)||('.', '', '', '', 0.0)||
