('a', '', '', '', 0.0)||('meta - analysis', '', '', '', 0.0)||('evaluated', 'verb', 'C0220825', ['ftcn'], 0.0)||('28', '', '', '', 0.0)||('studies', '', '', '', 0.0)||('of', '', '', '', 0.0)||('stimulant', 'noun', 'C0304402', ['phsu'], 0.0)||('medication', '', '', '', 0.0)||('(', '', '', '', 0.0)||('methylphenidate', 'noun', 'C0025810', ['orch', 'phsu'], 0.0)||(',', '', '', '', 0.0)||('amphetamine', 'noun', 'C2698100', ['lbpr'], 0.0)||(',', '', '', '', 0.0)||('or', '', '', '', 0.0)||('pemoline', 'noun', 'C0030800', ['orch', 'phsu'], 0.0)||(')', '', '', '', 0.0)||('for', '', '', '', 0.0)||('children', 'noun', 'C0008059', ['aggp'], 0.0)||('with', '', '', '', 0.0)||('comorbid', '', '', '', 0.0)||('adhd', 'noun', 'C1263846', ['mobd'], 0.0)||('and', '', '', '', 0.0)||('odd', 'noun', 'C1415068', ['gngm'], 0.0)||('.', '', '', '', 0.0)||
('a', '', '', '', 0.0)||('total', 'noun', 'C0439810', ['qlco'], 0.0)||('of', '', '', '', 0.0)||('683', '', '', '', 0.0)||('patients', 'noun', 'C0030705', ['podg'], 0.0)||('aged', 'verb', 'C0001779', ['orga'], 0.0)||('8', '', '', '', 0.0)||('to', '', '', '', 0.0)||('18', '', '', '', 0.0)||('years', 'noun', 'C0439234', ['tmco'], 0.0)||('were', '', '', '', 0.0)||('included', '', '', '', 0.0)||('.', '', '', '', 0.0)||
('stimulants', 'noun', 'C0304402', ['phsu'], 0.0)||('reduced', 'verb', 'C0392756', ['qlco'], 0.0)||('aggression', 'noun', 'C0001807', ['mobd'], 0.0)||('-', '', '', '', 0.0)||('related', 'adj', 'C0439849', ['qlco'], 0.0)||('behaviors', 'noun', 'C0004927', ['inbe'], 0.0)||('in', '', '', '', 0.0)||('these', '', '', '', 0.0)||('children', 'noun', 'C0008059', ['aggp'], 0.0)||('by', '', '', '', 0.0)||('an', '', '', '', 0.0)||('effect', 'noun', 'C1280500', ['qlco'], 0.0)||('size', 'noun', 'C0456389', ['spco'], 0.0)||('of', '', '', '', 0.0)||('0 . 84', '', '', '', 0.0)||('for', '', '', '', 0.0)||('overt', '', '', '', 0.0)||('aggression', 'noun', 'C0001807', ['mobd'], 0.0)||('and', '', '', '', 0.0)||('0 . 69', '', '', '', 0.0)||('for', '', '', '', 0.0)||('covert', '', '', '', 0.0)||('aggression', 'noun', 'C0001807', ['mobd'], 0.0)||('.', '', '', '', 0.0)||
('stimulants', 'noun', 'C0304402', ['phsu'], 0.0)||('typically', '', '', '', 0.0)||('reduce', '', '', '', 0.0)||('aggressive', 'adj', 'C0001807', ['mobd'], 0.0)||('behaviors', 'noun', 'C0004927', ['inbe'], 0.0)||('by', '', '', '', 0.0)||('similar', 'adj', 'C2348205', ['qlco'], 0.0)||('effect', 'noun', 'C1280500', ['qlco'], 0.0)||('sizes', 'noun', 'C0456389', ['spco'], 0.0)||('when', '', '', '', 0.0)||('prescribed', 'verb', 'C0278329', ['hlca'], 0.0)||('for', '', '', '', 0.0)||('children', 'noun', 'C0008059', ['aggp'], 0.0)||('with', '', '', '', 0.0)||('add', 'verb', 'C1883712', ['ftcn'], 0.0)||('alone', 'adj', 'C0439044', ['fndg'], 0.0)||('.', '', '', '', 0.0)||
('the', '', '', '', 0.0)||('study groups', '', '', '', 0.0)||('did', '', '', '', 0.0)||('not', 'adv', 'C1518422', ['ftcn'], 0.0)||('separate', 'adj', 'C0443299', ['spco'], 0.0)||('children', 'noun', 'C0008059', ['aggp'], 0.0)||('with', '', '', '', 0.0)||('adhd', 'noun', 'C1263846', ['mobd'], 0.0)||('and', '', '', '', 0.0)||('odd', 'noun', 'C1415068', ['gngm'], 0.0)||('from', '', '', '', 0.0)||('those', '', '', '', 0.0)||('with', '', '', '', 0.0)||('adhd', 'noun', 'C1263846', ['mobd'], 0.0)||('and', '', '', '', 0.0)||('conduct disorder', 'noun', 'C0149654', ['mobd'], 0.0)||(';', '', '', '', 0.0)||
('they', '', '', '', 0.0)||('also', '', '', '', 0.0)||('grouped', 'adj', 'C0439745', ['spco'], 0.0)||('adolescents', 'noun', 'C0205653', ['aggp'], 0.0)||('together with', '', '', '', 0.0)||('younger', '', '', '', 0.0)||('children', 'noun', 'C0008059', ['aggp'], 0.0)||('.', '', '', '', 0.0)||
