('to', '', '', '', 0.0)||('investigate', '', '', '', 0.0)||('the', '', '', '', 0.0)||('relation', 'noun', 'C0080103', ['famg'], 0.0)||('between', '', '', '', 0.0)||('routine', 'adj', 'C0205547', ['qlco'], 0.0)||('infant', 'noun', 'C0021270', ['aggp'], 0.0)||('care', 'noun', 'C0580931', ['fndg'], 0.0)||('practices', '', '', '', 0.0)||('and', '', '', '', 0.0)||('the', '', '', '', 0.0)||('sudden infant death syndrome', 'noun', 'C0038644', ['dsyn'], 0.0)||('in', '', '', '', 0.0)||('scotland', 'noun', 'C0036453', ['geoa'], 0.0)||('.', '', '', '', 0.0)||
('national', '', '', '', 0.0)||('study', 'noun', 'C0008976', ['resa'], 0.0)||('of', '', '', '', 0.0)||('201', '', '', '', 0.0)||('infants', 'noun', 'C0021270', ['aggp'], 0.0)||('dying', 'verb', 'C0184532', ['orgf'], 0.0)||('of', '', '', '', 0.0)||('the', '', '', '', 0.0)||('sudden infant death syndrome', 'noun', 'C0038644', ['dsyn'], 0.0)||('(', '', '', '', 0.0)||('cases', 'noun', 'C0868928', ['ftcn'], 0.0)||(')', '', '', '', 0.0)||('and', '', '', '', 0.0)||('276', '', '', '', 0.0)||('controls', '', '', '', 0.0)||('by means of', '', '', '', 0.0)||('home', 'noun', 'C0442519', ['cnce'], 0.0)||('interviews', 'verb', 'C0021822', ['acty'], 0.0)||('comparing', '', '', '', 0.0)||('methods', 'noun', 'C0025663', ['inpr'], 0.0)||('of', '', '', '', 0.0)||('infant', 'noun', 'C0021270', ['aggp'], 0.0)||('care', 'noun', 'C0580931', ['fndg'], 0.0)||('and', '', '', '', 0.0)||('socioeconomic factors', 'noun', 'C0037464', ['grpa'], 0.0)||('.', '', '', '', 0.0)||
('sleeping', 'verb', 'C0037313', ['orgf'], 0.0)||('prone', 'adj', 'C0033422', ['spco'], 0.0)||('(', '', '', '', 0.0)||('odds ratio', 'noun', 'C0028873', ['qnco'], 0.0)||('6 . 96', '', '', '', 0.0)||('(', '', '', '', 0.0)||('95 %', '', '', '', 0.0)||('confidence interval', 'noun', 'C0009667', ['qnco'], 0.0)||('1 . 51', '', '', '', 0.0)||('to', '', '', '', 0.0)||('31 . 97', '', '', '', 0.0)||(')', '', '', '', 0.0)||('and', '', '', '', 0.0)||('drug treatment', '', '', '', 0.0)||('in', '', '', '', 0.0)||('the', '', '', '', 0.0)||('previous', 'adj', 'C0205156', ['tmco'], 0.0)||('week', 'noun', 'C0439230', ['tmco'], 0.0)||('(', '', '', '', 0.0)||('odds ratio', 'noun', 'C0028873', ['qnco'], 0.0)||('2 . 33', '', '', '', 0.0)||('(', '', '', '', 0.0)||('1 . 10', '', '', '', 0.0)||('to', '', '', '', 0.0)||('4 . 94', '', '', '', 0.0)||(')', '', '', '', 0.0)||(')', '', '', '', 0.0)||('were', '', '', '', 0.0)||('more', '', '', '', 0.0)||('common', 'adj', 'C0205214', ['qnco'], 0.0)||('in', '', '', '', 0.0)||('the', '', '', '', 0.0)||('cases', 'noun', 'C0868928', ['ftcn'], 0.0)||('than', '', '', '', 0.0)||('controls', '', '', '', 0.0)||('on', '', '', '', 0.0)||('multivariate analysis', 'noun', 'C0026777', ['qnco'], 0.0)||('.', '', '', '', 0.0)||
('smoking', 'noun', 'C0037369', ['inbe'], 0.0)||('was', '', '', '', 0.0)||('confirmed', 'verb', 'C0750484', ['idcn'], 0.0)||('as', '', '', '', 0.0)||('a', '', '', '', 0.0)||('significant', 'adj', 'C0750502', ['idcn'], 0.0)||('risk factor', '', '', '', 0.0)||('(', '', '', '', 0.0)||('odds ratio', 'noun', 'C0028873', ['qnco'], 0.0)||('for', '', '', '', 0.0)||('mother', 'noun', 'C0026591', ['famg'], 0.0)||('and', '', '', '', 0.0)||('father', 'noun', 'C0015671', ['famg'], 0.0)||('both', '', '', '', 0.0)||('smoking', 'adj', 'C0037369', ['inbe'], 0.0)||('5 . 19', '', '', '', 0.0)||('(', '', '', '', 0.0)||('2 . 26', '', '', '', 0.0)||('to', '', '', '', 0.0)||('11 . 91', '', '', '', 0.0)||(')', '', '', '', 0.0)||(')', '', '', '', 0.0)||('.', '', '', '', 0.0)||
('the', '', '', '', 0.0)||('risk', 'noun', 'C0035647', ['qlco'], 0.0)||('increased', 'verb', 'C0205217', ['qnco'], 0.0)||('with', '', '', '', 0.0)||('the', '', '', '', 0.0)||('number', 'noun', 'C0449788', ['qnco'], 0.0)||('of', '', '', '', 0.0)||('parents', 'noun', 'C0030551', ['famg'], 0.0)||('smoking', 'verb', 'C0037369', ['inbe'], 0.0)||('(', '', '', '', 0.0)||('p', '', '', '', 0.0)||('<', '', '', '', 0.0)||('0 . 0001', '', '', '', 0.0)||(')', '', '', '', 0.0)||(',', '', '', '', 0.0)||('with', '', '', '', 0.0)||('the', '', '', '', 0.0)||('number', 'noun', 'C0449788', ['qnco'], 0.0)||('of', '', '', '', 0.0)||('cigarettes', 'noun', 'C0677453', ['mnob'], 0.0)||('smoked', '', '', '', 0.0)||('by', '', '', '', 0.0)||('mother', 'noun', 'C0026591', ['famg'], 0.0)||('or', '', '', '', 0.0)||('father', 'noun', 'C0015671', ['famg'], 0.0)||('(', '', '', '', 0.0)||('p', '', '', '', 0.0)||('=', '', '', '', 0.0)||('0 . 0001', '', '', '', 0.0)||(')', '', '', '', 0.0)||(',', '', '', '', 0.0)||('and', '', '', '', 0.0)||('with', '', '', '', 0.0)||('bed', 'noun', 'C0004916', ['mnob'], 0.0)||('sharing', 'noun', 'C0237876', ['socb'], 0.0)||('(', '', '', '', 0.0)||('p', '', '', '', 0.0)||('<', '', '', '', 0.0)||('0 . 005', '', '', '', 0.0)||(')', '', '', '', 0.0)||('.', '', '', '', 0.0)||
('a', '', '', '', 0.0)||('new', 'adj', 'C0205314', ['tmco'], 0.0)||('finding', 'noun', 'C0037088', ['sosy'], 0.0)||('was', '', '', '', 0.0)||('an', '', '', '', 0.0)||('increased risk', '', '', '', 0.0)||('of', '', '', '', 0.0)||('dying', 'noun', 'C0184532', ['orgf'], 0.0)||('of', '', '', '', 0.0)||('the', '', '', '', 0.0)||('syndrome', 'noun', 'C0039082', ['dsyn'], 0.0)||('for', '', '', '', 0.0)||('infants', 'noun', 'C0021270', ['aggp'], 0.0)||('who', '', '', '', 0.0)||('slept', '', '', '', 0.0)||('at', '', '', '', 0.0)||('night', 'noun', 'C0240526', ['tmco'], 0.0)||('on', '', '', '', 0.0)||('a', '', '', '', 0.0)||('mattress', 'noun', 'C0024940', ['mnob'], 0.0)||('previously', '', '', '', 0.0)||('used', '', '', '', 0.0)||('by', '', '', '', 0.0)||('another', '', '', '', 0.0)||('infant', 'noun', 'C0021270', ['aggp'], 0.0)||('or', '', '', '', 0.0)||('adult', 'noun', 'C0001675', ['aggp'], 0.0)||('(', '', '', '', 0.0)||('odds ratio', 'noun', 'C0028873', ['qnco'], 0.0)||('2 . 51', '', '', '', 0.0)||('(', '', '', '', 0.0)||('1 . 39', '', '', '', 0.0)||('to', '', '', '', 0.0)||('4 . 52', '', '', '', 0.0)||(')', '', '', '', 0.0)||(')', '', '', '', 0.0)||('.', '', '', '', 0.0)||
('however', '', '', '', 0.0)||(',', '', '', '', 0.0)||('this', '', '', '', 0.0)||('increased risk', '', '', '', 0.0)||('was', '', '', '', 0.0)||('not', 'adv', 'C1518422', ['ftcn'], 0.0)||('established', 'verb', 'C0443211', ['qlco'], 0.0)||('for', '', '', '', 0.0)||('mattresses', 'noun', 'C0024940', ['mnob'], 0.0)||('totally', '', '', '', 0.0)||('covered', 'verb', 'C0439844', ['ftcn'], 0.0)||('by', '', '', '', 0.0)||('polyvinyl chloride', 'noun', 'C0032624', ['bodm', 'orch'], 0.0)||('.', '', '', '', 0.0)||
('sleeping', 'verb', 'C0037313', ['orgf'], 0.0)||('prone', 'adj', 'C0033422', ['spco'], 0.0)||('and', '', '', '', 0.0)||('parental', 'adj', 'C0030551', ['famg'], 0.0)||('smoking', 'noun', 'C0037369', ['inbe'], 0.0)||('are', '', '', '', 0.0)||('confirmed', 'verb', 'C0750484', ['idcn'], 0.0)||('as', '', '', '', 0.0)||('modifiable', '', '', '', 0.0)||('risk factors', 'noun', 'C0035648', ['qnco'], 0.0)||('for', '', '', '', 0.0)||('the', '', '', '', 0.0)||('sudden infant death syndrome', 'noun', 'C0038644', ['dsyn'], 0.0)||('.', '', '', '', 0.0)||
('sleeping', 'noun', 'C0037313', ['orgf'], 0.0)||('on', '', '', '', 0.0)||('an', '', '', '', 0.0)||('old', 'adj', 'C0580836', ['tmco'], 0.0)||('mattress', 'noun', 'C0024940', ['mnob'], 0.0)||('may', '', '', '', 0.0)||('be', '', '', '', 0.0)||('important', '', '', '', 0.0)||('but', '', '', '', 0.0)||('needs', 'verb', 'C0027552', ['qlco'], 0.0)||('confirmation', 'noun', 'C0750484', ['idcn'], 0.0)||('before', '', '', '', 0.0)||('recommendations', 'noun', 'C0034866', ['idcn'], 0.0)||('can', '', '', '', 0.0)||('be', '', '', '', 0.0)||('made', '', '', '', 0.0)||('.', '', '', '', 0.0)||
