('male', 'noun', 'C0024554', ['orga'], 0.0)||('osteoporosis', 'noun', 'C0029456', ['dsyn'], 0.0)||('represents', '', '', '', 0.0)||('an', '', '', '', 0.0)||('important', '', '', '', 0.0)||(',', '', '', '', 0.0)||('although', '', '', '', 0.0)||('long', 'adj', 'C0205166', ['qlco'], 0.0)||('underestimated', '', '', '', 0.0)||(',', '', '', '', 0.0)||('public health', 'noun', 'C0034019', ['bmod'], 0.0)||('problem', 'noun', 'C0033213', ['fndg'], 0.0)||('.', '', '', '', 0.0)||
('both', '', '', '', 0.0)||('in', '', '', '', 0.0)||('men', 'noun', 'C0025266', ['popg'], 0.0)||('and', '', '', '', 0.0)||('in', '', '', '', 0.0)||('women', 'noun', 'C0043210', ['popg'], 0.0)||('aging', '', '', '', 0.0)||('is', '', '', '', 0.0)||('accompanied', '', '', '', 0.0)||('by', '', '', '', 0.0)||('continuous', 'adj', 'C0549178', ['idcn'], 0.0)||('bone', 'noun', 'C0262950', ['bpoc'], 0.0)||('loss', 'noun', 'C1517945', ['qnco'], 0.0)||('and', '', '', '', 0.0)||('by', '', '', '', 0.0)||('an', '', '', '', 0.0)||('exponential', 'adj', 'C1552645', ['qlco'], 0.0)||('increase', 'noun', 'C0442805', ['ftcn'], 0.0)||('in', '', '', '', 0.0)||('the', '', '', '', 0.0)||('incidence', 'noun', 'C0021149', ['qnco'], 0.0)||('of', '', '', '', 0.0)||('osteoporotic', '', '', '', 0.0)||('fracture', 'noun', 'C0016658', ['inpo'], 0.0)||(',', '', '', '', 0.0)||('with', '', '', '', 0.0)||('a', '', '', '', 0.0)||('female', 'noun', 'C0015780', ['orga'], 0.0)||('to', '', '', '', 0.0)||('male', 'noun', 'C0024554', ['orga'], 0.0)||('incidence', 'noun', 'C0021149', ['qnco'], 0.0)||('ratio', 'noun', 'C0456603', ['qnco'], 0.0)||('of', '', '', '', 0.0)||('about', '', '', '', 0.0)||('2', '', '', '', 0.0)||('to', '', '', '', 0.0)||('3', '', '', '', 0.0)||('to', '', '', '', 0.0)||('1', '', '', '', 0.0)||('in', '', '', '', 0.0)||('the', '', '', '', 0.0)||('elderly', 'noun', 'C0001792', ['popg'], 0.0)||('for', '', '', '', 0.0)||('hip', 'noun', 'C0019552', ['bpoc'], 0.0)||('and', '', '', '', 0.0)||('vertebral', 'adj', 'C0549207', ['bpoc'], 0.0)||('fractures', 'noun', 'C0016658', ['inpo'], 0.0)||('.', '', '', '', 0.0)||
('morbidity', 'noun', 'C0026538', ['qnco'], 0.0)||('after', '', '', '', 0.0)||('osteoporotic', '', '', '', 0.0)||('fractures', 'noun', 'C0016658', ['inpo'], 0.0)||('appears', '', '', '', 0.0)||('to', '', '', '', 0.0)||('be', '', '', '', 0.0)||('more', '', '', '', 0.0)||('serious', 'adj', 'C0205404', ['qlco'], 0.0)||('and', '', '', '', 0.0)||('mortality', 'noun', 'C0026565', ['qnco'], 0.0)||('more', '', '', '', 0.0)||('common', 'adj', 'C0205214', ['qnco'], 0.0)||('in', '', '', '', 0.0)||('men', 'noun', 'C0025266', ['popg'], 0.0)||('than', '', '', '', 0.0)||('in', '', '', '', 0.0)||('women', 'noun', 'C0043210', ['popg'], 0.0)||('.', '', '', '', 0.0)||
('to', '', '', '', 0.0)||('date', 'noun', 'C0011008', ['tmco'], 0.0)||(',', '', '', '', 0.0)||('no', '', '', '', 0.0)||('single', 'adj', 'C0037179', ['popg'], 0.0)||('treatment', 'noun', 'C0039798', ['ftcn'], 0.0)||('has', '', '', '', 0.0)||('been', '', '', '', 0.0)||('proved', '', '', '', 0.0)||('to', '', '', '', 0.0)||('be', '', '', '', 0.0)||('effective', 'adj', 'C1704419', ['qlco'], 0.0)||('and', '', '', '', 0.0)||('safe', '', '', '', 0.0)||('in', '', '', '', 0.0)||('published', 'adj', 'C0034037', ['ocac'], 0.0)||('prospective studies', 'noun', 'C0033522', ['resa'], 0.0)||('.', '', '', '', 0.0)||
('the', '', '', '', 0.0)||('present', 'adj', 'C0150312', ['qnco'], 0.0)||('report', 'noun', 'C0684224', ['inpr'], 0.0)||(',', '', '', '', 0.0)||('based', 'verb', 'C1527178', ['ftcn'], 0.0)||('on', '', '', '', 0.0)||('a', '', '', '', 0.0)||('systematic', 'adj', 'C0220922', ['ftcn'], 0.0)||('search', 'noun', 'C1552603', ['idcn'], 0.0)||('of', '', '', '', 0.0)||('the', '', '', '', 0.0)||('literature', 'noun', 'C0023866', ['inpr'], 0.0)||('on', '', '', '', 0.0)||('male', 'noun', 'C0024554', ['orga'], 0.0)||('osteoporosis', 'noun', 'C0029456', ['dsyn'], 0.0)||(',', '', '', '', 0.0)||('summarises', '', '', '', 0.0)||('the', '', '', '', 0.0)||('state of the art', '', '', '', 0.0)||('on', '', '', '', 0.0)||('the', '', '', '', 0.0)||('clinical', 'adj', 'C0205210', ['qlco'], 0.0)||('consequences', '', '', '', 0.0)||('of', '', '', '', 0.0)||('male', 'noun', 'C0024554', ['orga'], 0.0)||('osteoporosis', 'noun', 'C0029456', ['dsyn'], 0.0)||('and', '', '', '', 0.0)||('its', '', '', '', 0.0)||('risk factors', 'noun', 'C0035648', ['qnco'], 0.0)||(',', '', '', '', 0.0)||('in relation to', '', '', '', 0.0)||('the', '', '', '', 0.0)||('present', 'adj', 'C0150312', ['qnco'], 0.0)||('state', 'noun', 'C1301808', ['geoa'], 0.0)||('of', '', '', '', 0.0)||('knowledge', 'noun', 'C0376554', ['inpr'], 0.0)||('about', '', '', '', 0.0)||('female', 'noun', 'C0015780', ['orga'], 0.0)||('osteoporosis', 'noun', 'C0029456', ['dsyn'], 0.0)||('.', '', '', '', 0.0)||
('this', '', '', '', 0.0)||('constitutes', '', '', '', 0.0)||('the', '', '', '', 0.0)||('background', 'noun', 'C1706907', ['cnce'], 0.0)||('for', '', '', '', 0.0)||('the', '', '', '', 0.0)||('design', 'noun', 'C1707689', ['acty'], 0.0)||('of', '', '', '', 0.0)||('rational', '', '', '', 0.0)||('clinical', 'adj', 'C0205210', ['qlco'], 0.0)||('development', 'noun', 'C0020119', ['phsf'], 0.0)||('strategies', 'noun', 'C0679199', ['menp'], 0.0)||('for', '', '', '', 0.0)||('therapeutic', 'adj', 'C0039796', ['topp'], 0.0)||('interventions', '', '', '', 0.0)||('in', '', '', '', 0.0)||('male', 'noun', 'C0024554', ['orga'], 0.0)||('osteoporosis', 'noun', 'C0029456', ['dsyn'], 0.0)||('.', '', '', '', 0.0)||
('from', '', '', '', 0.0)||('this', '', '', '', 0.0)||('review', 'noun', 'C0282443', ['inpr'], 0.0)||('of', '', '', '', 0.0)||('the', '', '', '', 0.0)||('literature', 'noun', 'C0023866', ['inpr'], 0.0)||('it', '', '', '', 0.0)||('is', '', '', '', 0.0)||('apparent', 'adj', 'C0750489', ['idcn'], 0.0)||('that', '', '', '', 0.0)||('notwithstanding', '', '', '', 0.0)||('the', '', '', '', 0.0)||('existing', '', '', '', 0.0)||('sex', 'noun', 'C0036864', ['bhvr'], 0.0)||('differences', '', '', '', 0.0)||('in', '', '', '', 0.0)||('pathophysiology', 'noun', 'C0031847', ['ftcn'], 0.0)||('of', '', '', '', 0.0)||('osteoporosis', 'noun', 'C0029456', ['dsyn'], 0.0)||('and', '', '', '', 0.0)||('the', '', '', '', 0.0)||('difference', 'noun', 'C1705242', ['qlco'], 0.0)||('in', '', '', '', 0.0)||('age - specific', '', '', '', 0.0)||('incidence', 'noun', 'C0021149', ['qnco'], 0.0)||('of', '', '', '', 0.0)||('osteoporotic', '', '', '', 0.0)||('fractures', 'noun', 'C0016658', ['inpo'], 0.0)||(',', '', '', '', 0.0)||('there', '', '', '', 0.0)||('are', '', '', '', 0.0)||('also', '', '', '', 0.0)||('important', '', '', '', 0.0)||('similarities', '', '', '', 0.0)||('between', '', '', '', 0.0)||('osteoporosis', 'noun', 'C0029456', ['dsyn'], 0.0)||('in', '', '', '', 0.0)||('women', 'noun', 'C0043210', ['popg'], 0.0)||('and', '', '', '', 0.0)||('men', 'noun', 'C0025266', ['popg'], 0.0)||('.', '', '', '', 0.0)||
('the', '', '', '', 0.0)||('higher', '', '', '', 0.0)||('incidence', 'noun', 'C0021149', ['qnco'], 0.0)||('of', '', '', '', 0.0)||('fracture', 'noun', 'C0016658', ['inpo'], 0.0)||('in', '', '', '', 0.0)||('women', 'noun', 'C0043210', ['popg'], 0.0)||('than', '', '', '', 0.0)||('in', '', '', '', 0.0)||('men', 'noun', 'C0025266', ['popg'], 0.0)||('results', 'verb', 'C1274040', ['ftcn'], 0.0)||('from', '', '', '', 0.0)||('quantitative', 'adj', 'C0392762', ['qnco'], 0.0)||('differences', '', '', '', 0.0)||('in', '', '', '', 0.0)||('risk factors', 'noun', 'C0035648', ['qnco'], 0.0)||('rather than', '', '', '', 0.0)||('from', '', '', '', 0.0)||('different', 'adj', 'C1705242', ['qlco'], 0.0)||('risk factors', 'noun', 'C0035648', ['qnco'], 0.0)||('.', '', '', '', 0.0)||
('even', '', '', '', 0.0)||('though', '', '', '', 0.0)||('there', '', '', '', 0.0)||('are', '', '', '', 0.0)||('sex', 'noun', 'C0036864', ['bhvr'], 0.0)||('differences', '', '', '', 0.0)||('in', '', '', '', 0.0)||('bone', 'noun', 'C0262950', ['bpoc'], 0.0)||('geometry', 'noun', 'C0449829', ['spco'], 0.0)||(',', '', '', '', 0.0)||('incidence', 'noun', 'C0021149', ['qnco'], 0.0)||('of', '', '', '', 0.0)||('fracture', 'noun', 'C0016658', ['inpo'], 0.0)||('seems', '', '', '', 0.0)||('to', '', '', '', 0.0)||('be', '', '', '', 0.0)||('similar', 'adj', 'C2348205', ['qlco'], 0.0)||('in', '', '', '', 0.0)||('men', 'noun', 'C0025266', ['popg'], 0.0)||('and', '', '', '', 0.0)||('women', 'noun', 'C0043210', ['popg'], 0.0)||('for', '', '', '', 0.0)||('a', '', '', '', 0.0)||('same', 'adj', 'C0445247', ['qlco'], 0.0)||('absolute', 'adj', 'C0205344', ['qlco'], 0.0)||('areal bone mineral density', '', '', '', 0.0)||('.', '', '', '', 0.0)||
('however', '', '', '', 0.0)||(',', '', '', '', 0.0)||('the', '', '', '', 0.0)||('lack', 'noun', 'C0332268', ['qlco'], 0.0)||('of', '', '', '', 0.0)||('data', 'noun', 'C1511726', ['idcn'], 0.0)||('on', '', '', '', 0.0)||('the', '', '', '', 0.0)||('changes', '', '', '', 0.0)||('in', '', '', '', 0.0)||('fracture', 'noun', 'C0016658', ['inpo'], 0.0)||('rates', '', '', '', 0.0)||('in', '', '', '', 0.0)||('men', 'noun', 'C0025266', ['popg'], 0.0)||('resulting', '', '', '', 0.0)||('from', '', '', '', 0.0)||('pharmacological', 'adj', 'C0031330', ['bmod'], 0.0)||('intervention', 'noun', 'C1273869', ['hlca'], 0.0)||(',', '', '', '', 0.0)||('leading', 'verb', 'C0332152', ['tmco'], 0.0)||('to', '', '', '', 0.0)||('changes', '', '', '', 0.0)||('in', '', '', '', 0.0)||('bone mineral density', 'noun', 'C0005938', ['clna'], 0.0)||('or', '', '', '', 0.0)||('bone', 'noun', 'C0262950', ['bpoc'], 0.0)||('turnover', 'noun', 'C0031227', ['qnco'], 0.0)||(',', '', '', '', 0.0)||('remains', '', '', '', 0.0)||('the', '', '', '', 0.0)||('main', 'adj', 'C0205225', ['qlco'], 0.0)||('limitation', 'noun', 'C0449295', ['ftcn'], 0.0)||('for', '', '', '', 0.0)||('extrapolation', '', '', '', 0.0)||('of', '', '', '', 0.0)||('established', 'adj', 'C0443211', ['qlco'], 0.0)||('treatment', 'noun', 'C0039798', ['ftcn'], 0.0)||('outcomes', 'noun', 'C0085415', ['qlco'], 0.0)||('from', '', '', '', 0.0)||('women', 'noun', 'C0043210', ['popg'], 0.0)||('to', '', '', '', 0.0)||('men', 'noun', 'C0025266', ['popg'], 0.0)||('.', '', '', '', 0.0)||
