('panic disorder', 'noun', 'C0030319', ['mobd'], 0.0)||('may', '', '', '', 0.0)||('be', '', '', '', 0.0)||('treated', 'verb', 'C1522326', ['ftcn'], 0.0)||('with', '', '', '', 0.0)||('drugs', 'noun', 'C0013227', ['phsu'], 0.0)||(',', '', '', '', 0.0)||('psychosocial', 'adj', 'C0542298', ['ftcn'], 0.0)||('intervention', 'noun', 'C1273869', ['hlca'], 0.0)||(',', '', '', '', 0.0)||('or', '', '', '', 0.0)||('both', '', '', '', 0.0)||(',', '', '', '', 0.0)||('but', '', '', '', 0.0)||('the', '', '', '', 0.0)||('relative', 'adj', 'C0080103', ['famg'], 0.0)||('and', '', '', '', 0.0)||('combined', 'adj', 'C0205195', ['qlco'], 0.0)||('efficacies', '', '', '', 0.0)||('have', '', '', '', 0.0)||('not', 'adv', 'C1518422', ['ftcn'], 0.0)||('been', '', '', '', 0.0)||('evaluated', 'verb', 'C0220825', ['ftcn'], 0.0)||('in', '', '', '', 0.0)||('an', '', '', '', 0.0)||('unbiased', '', '', '', 0.0)||('fashion', '', '', '', 0.0)||('.', '', '', '', 0.0)||
('to', '', '', '', 0.0)||('evaluate', 'verb', 'C0220825', ['ftcn'], 0.0)||('whether', '', '', '', 0.0)||('drug', 'noun', 'C0013227', ['phsu'], 0.0)||('and', '', '', '', 0.0)||('psychosocial', 'adj', 'C0542298', ['ftcn'], 0.0)||('therapies', 'noun', 'C0087111', ['topp'], 0.0)||('for', '', '', '', 0.0)||('panic disorder', 'noun', 'C0030319', ['mobd'], 0.0)||('are', '', '', '', 0.0)||('each', '', '', '', 0.0)||('more', '', '', '', 0.0)||('effective', 'adj', 'C1704419', ['qlco'], 0.0)||('than', '', '', '', 0.0)||('placebo', 'noun', 'C0032042', ['topp'], 0.0)||(',', '', '', '', 0.0)||('whether', '', '', '', 0.0)||('one', 'noun', 'C0205447', ['qnco'], 0.0)||('treatment', 'noun', 'C0039798', ['ftcn'], 0.0)||('is', '', '', '', 0.0)||('more', '', '', '', 0.0)||('effective', 'adj', 'C1704419', ['qlco'], 0.0)||('than', '', '', '', 0.0)||('the', '', '', '', 0.0)||('other', '', '', '', 0.0)||(',', '', '', '', 0.0)||('and', '', '', '', 0.0)||('whether', '', '', '', 0.0)||('combined therapy', 'noun', 'C0033972', ['topp'], 0.0)||('is', '', '', '', 0.0)||('more', '', '', '', 0.0)||('effective', 'adj', 'C1704419', ['qlco'], 0.0)||('than', '', '', '', 0.0)||('either', '', '', '', 0.0)||('therapy', 'noun', 'C0039798', ['ftcn'], 0.0)||('alone', 'adj', 'C0439044', ['fndg'], 0.0)||('.', '', '', '', 0.0)||
('randomized', 'verb', 'C0034656', ['resa'], 0.0)||(',', '', '', '', 0.0)||('double - blind', '', '', '', 0.0)||(',', '', '', '', 0.0)||('placebo - controlled', '', '', '', 0.0)||('clinical trial', 'noun', 'C0008976', ['resa'], 0.0)||('conducted', '', '', '', 0.0)||('in', '', '', '', 0.0)||('4', '', '', '', 0.0)||('anxiety', 'noun', 'C0003467', ['menp'], 0.0)||('research', 'noun', 'C0035168', ['resa'], 0.0)||('clinics', 'noun', 'C0442592', ['hcro', 'mnob'], 0.0)||('from', '', '', '', 0.0)||('may', '', '', '', 0.0)||('1991', '', '', '', 0.0)||('to', '', '', '', 0.0)||('april', '', '', '', 0.0)||('1998', '', '', '', 0.0)||('.', '', '', '', 0.0)||
('a', '', '', '', 0.0)||('total', 'noun', 'C0439810', ['qlco'], 0.0)||('of', '', '', '', 0.0)||('312', '', '', '', 0.0)||('patients', 'noun', 'C0030705', ['podg'], 0.0)||('with', '', '', '', 0.0)||('panic disorder', 'noun', 'C0030319', ['mobd'], 0.0)||('were', '', '', '', 0.0)||('included', '', '', '', 0.0)||('in', '', '', '', 0.0)||('the', '', '', '', 0.0)||('analysis', 'noun', 'C0002778', ['lbpr'], 0.0)||('.', '', '', '', 0.0)||
('patients', 'noun', 'C0030705', ['podg'], 0.0)||('were', '', '', '', 0.0)||('randomly', '', '', '', 0.0)||('assigned', 'verb', 'C1516050', ['ftcn'], 0.0)||('to', '', '', '', 0.0)||('receive', 'verb', 'C1514756', ['qlco'], 0.0)||('imipramine', 'noun', 'C0020934', ['orch', 'phsu'], 0.0)||(',', '', '', '', 0.0)||('up to', '', '', '', 0.0)||('300', '', '', '', 0.0)||('mg', '', '', '', 0.0)||('/', '', '', '', 0.0)||('d', '', '', '', 0.0)||(',', '', '', '', 0.0)||('only', '', '', '', 0.0)||('(', '', '', '', 0.0)||('n =', '', '', '', 0.0)||('83', '', '', '', 0.0)||(')', '', '', '', 0.0)||(';', '', '', '', 0.0)||
('cognitive - behavioral therapy', '', '', '', 0.0)||('only', '', '', '', 0.0)||('(', '', '', '', 0.0)||('n =', '', '', '', 0.0)||('77', '', '', '', 0.0)||(')', '', '', '', 0.0)||(';', '', '', '', 0.0)||
('placebo', 'noun', 'C0032042', ['topp'], 0.0)||('only', '', '', '', 0.0)||('(', '', '', '', 0.0)||('n =', '', '', '', 0.0)||('24', '', '', '', 0.0)||(')', '', '', '', 0.0)||(';', '', '', '', 0.0)||
('cognitive - behavioral therapy', '', '', '', 0.0)||('plus', '', '', '', 0.0)||('imipramine', 'noun', 'C0020934', ['orch', 'phsu'], 0.0)||('(', '', '', '', 0.0)||('n =', '', '', '', 0.0)||('65', '', '', '', 0.0)||(')', '', '', '', 0.0)||(';', '', '', '', 0.0)||
('or', '', '', '', 0.0)||('cognitive - behavioral therapy', '', '', '', 0.0)||('plus', '', '', '', 0.0)||('placebo', 'noun', 'C0032042', ['topp'], 0.0)||('(', '', '', '', 0.0)||('n =', '', '', '', 0.0)||('63', '', '', '', 0.0)||(')', '', '', '', 0.0)||('.', '', '', '', 0.0)||
('patients', 'noun', 'C0030705', ['podg'], 0.0)||('were', '', '', '', 0.0)||('treated', 'verb', 'C1522326', ['ftcn'], 0.0)||('weekly', 'adv', 'C0332174', ['tmco'], 0.0)||('for', '', '', '', 0.0)||('3', '', '', '', 0.0)||('months', 'noun', 'C0439231', ['tmco'], 0.0)||('(', '', '', '', 0.0)||('acute phase', 'noun', 'C0439557', ['tmco'], 0.0)||(')', '', '', '', 0.0)||(';', '', '', '', 0.0)||
('responders', '', '', '', 0.0)||('were', '', '', '', 0.0)||('then', 'adv', 'C1883708', ['tmco'], 0.0)||('seen', 'verb', 'C0205397', ['qlco'], 0.0)||('monthly', 'adv', 'C0332177', ['tmco'], 0.0)||('for', '', '', '', 0.0)||('6', '', '', '', 0.0)||('months', 'noun', 'C0439231', ['tmco'], 0.0)||('(', '', '', '', 0.0)||('maintenance', 'noun', 'C0024501', ['acty'], 0.0)||('phase', 'noun', 'C0205390', ['tmco'], 0.0)||(')', '', '', '', 0.0)||('and', '', '', '', 0.0)||('then', 'adv', 'C1883708', ['tmco'], 0.0)||('followed', '', '', '', 0.0)||('up', '', '', '', 0.0)||('for', '', '', '', 0.0)||('6', '', '', '', 0.0)||('months', 'noun', 'C0439231', ['tmco'], 0.0)||('after', '', '', '', 0.0)||('treatment', 'noun', 'C0039798', ['ftcn'], 0.0)||('discontinuation', 'noun', 'C0457454', ['hlca'], 0.0)||('.', '', '', '', 0.0)||
('treatment', 'noun', 'C0039798', ['ftcn'], 0.0)||('response', 'noun', 'C0871261', ['clna'], 0.0)||('based', 'verb', 'C1527178', ['ftcn'], 0.0)||('on', '', '', '', 0.0)||('the', '', '', '', 0.0)||('panic disorder', 'noun', 'C0030319', ['mobd'], 0.0)||('severity', 'noun', 'C0439793', ['qlco'], 0.0)||('scale', 'noun', 'C0175659', ['medd'], 0.0)||('and', '', '', '', 0.0)||('the', '', '', '', 0.0)||('clinical', 'adj', 'C0205210', ['qlco'], 0.0)||('global', 'adj', 'C0205246', ['spco'], 0.0)||('impression', 'noun', 'C0596764', ['inbe'], 0.0)||('scale', 'noun', 'C0175659', ['medd'], 0.0)||('by', '', '', '', 0.0)||('treatment', 'noun', 'C0039798', ['ftcn'], 0.0)||('group', 'noun', 'C0441833', ['idcn'], 0.0)||('.', '', '', '', 0.0)||
('both', '', '', '', 0.0)||('imipramine', 'noun', 'C0020934', ['orch', 'phsu'], 0.0)||('and', '', '', '', 0.0)||('cognitive - behavioral therapy', '', '', '', 0.0)||('were', '', '', '', 0.0)||('significantly', '', '', '', 0.0)||('superior', 'adj', 'C1282910', ['spco'], 0.0)||('to', '', '', '', 0.0)||('placebo', 'noun', 'C0032042', ['topp'], 0.0)||('for', '', '', '', 0.0)||('the', '', '', '', 0.0)||('acute', 'adj', 'C0205178', ['tmco'], 0.0)||('treatment', 'noun', 'C0039798', ['ftcn'], 0.0)||('phase', 'noun', 'C0205390', ['tmco'], 0.0)||('as', '', '', '', 0.0)||('assessed', 'verb', 'C1516048', ['acty'], 0.0)||('by', '', '', '', 0.0)||('the', '', '', '', 0.0)||('panic disorder', 'noun', 'C0030319', ['mobd'], 0.0)||('severity', 'noun', 'C0439793', ['qlco'], 0.0)||('scale', 'noun', 'C0175659', ['medd'], 0.0)||('(', '', '', '', 0.0)||('response rates', '', '', '', 0.0)||('for', '', '', '', 0.0)||('the', '', '', '', 0.0)||('intent', 'noun', 'C0162425', ['menp'], 0.0)||('-', '', '', '', 0.0)||('to', '', '', '', 0.0)||('-', '', '', '', 0.0)||('treat', 'verb', 'C1292734', ['ftcn'], 0.0)||('analysis', 'noun', 'C0002778', ['lbpr'], 0.0)||(',', '', '', '', 0.0)||('45 . 8 %', '', '', '', 0.0)||(',', '', '', '', 0.0)||('48 . 7 %', '', '', '', 0.0)||(',', '', '', '', 0.0)||('and', '', '', '', 0.0)||('21 . 7 %', '', '', '', 0.0)||(';', '', '', '', 0.0)||('p', '', '', '', 0.0)||('=', '', '', '', 0.0)||('.', '', '', '', 0.0)||('05', '', '', '', 0.0)||('and', '', '', '', 0.0)||('p', '', '', '', 0.0)||('=', '', '', '', 0.0)||('.', '', '', '', 0.0)||('03', '', '', '', 0.0)||(',', '', '', '', 0.0)||('respectively', '', '', '', 0.0)||(')', '', '', '', 0.0)||(',', '', '', '', 0.0)||('but', '', '', '', 0.0)||('were', '', '', '', 0.0)||('not', 'adv', 'C1518422', ['ftcn'], 0.0)||('significantly', '', '', '', 0.0)||('different', 'adj', 'C1705242', ['qlco'], 0.0)||('for', '', '', '', 0.0)||('the', '', '', '', 0.0)||('clinical', 'adj', 'C0205210', ['qlco'], 0.0)||('global', 'adj', 'C0205246', ['spco'], 0.0)||('impression', 'noun', 'C0596764', ['inbe'], 0.0)||('scale', 'noun', 'C0175659', ['medd'], 0.0)||('(', '', '', '', 0.0)||('48', '', '', '', 0.0)||('.', '', '', '', 0.0)||('2 %', '', '', '', 0.0)||(',', '', '', '', 0.0)||('53 . 9 %', '', '', '', 0.0)||(',', '', '', '', 0.0)||('and', '', '', '', 0.0)||('37 . 5 %', '', '', '', 0.0)||(',', '', '', '', 0.0)||('respectively', '', '', '', 0.0)||(')', '', '', '', 0.0)||('.', '', '', '', 0.0)||
('after', '', '', '', 0.0)||('6', '', '', '', 0.0)||('months', 'noun', 'C0439231', ['tmco'], 0.0)||('of', '', '', '', 0.0)||('maintenance', 'noun', 'C0024501', ['acty'], 0.0)||(',', '', '', '', 0.0)||('imipramine', 'noun', 'C0020934', ['orch', 'phsu'], 0.0)||('and', '', '', '', 0.0)||('cognitive - behavioral therapy', '', '', '', 0.0)||('were', '', '', '', 0.0)||('significantly', '', '', '', 0.0)||('more', '', '', '', 0.0)||('effective', 'adj', 'C1704419', ['qlco'], 0.0)||('than', '', '', '', 0.0)||('placebo', 'noun', 'C0032042', ['topp'], 0.0)||('for', '', '', '', 0.0)||('both', '', '', '', 0.0)||('the', '', '', '', 0.0)||('panic disorder', 'noun', 'C0030319', ['mobd'], 0.0)||('severity', 'noun', 'C0439793', ['qlco'], 0.0)||('scale', 'noun', 'C0175659', ['medd'], 0.0)||('(', '', '', '', 0.0)||('response rates', '', '', '', 0.0)||(',', '', '', '', 0.0)||('37 . 8 %', '', '', '', 0.0)||(',', '', '', '', 0.0)||('39 . 5 %', '', '', '', 0.0)||(',', '', '', '', 0.0)||('and', '', '', '', 0.0)||('13 . 0 %', '', '', '', 0.0)||(',', '', '', '', 0.0)||('respectively', '', '', '', 0.0)||(';', '', '', '', 0.0)||('p', '', '', '', 0.0)||('=', '', '', '', 0.0)||('.', '', '', '', 0.0)||('02', '', '', '', 0.0)||('for', '', '', '', 0.0)||('both', '', '', '', 0.0)||(')', '', '', '', 0.0)||('and', '', '', '', 0.0)||('the', '', '', '', 0.0)||('clinical', 'adj', 'C0205210', ['qlco'], 0.0)||('global', 'adj', 'C0205246', ['spco'], 0.0)||('impression', 'noun', 'C0596764', ['inbe'], 0.0)||('scale', 'noun', 'C0175659', ['medd'], 0.0)||('(', '', '', '', 0.0)||('37 . 8 %', '', '', '', 0.0)||(',', '', '', '', 0.0)||('42 . 1 %', '', '', '', 0.0)||(',', '', '', '', 0.0)||('and', '', '', '', 0.0)||('13 . 0 %', '', '', '', 0.0)||(',', '', '', '', 0.0)||('respectively', '', '', '', 0.0)||(')', '', '', '', 0.0)||('.', '', '', '', 0.0)||
('among', '', '', '', 0.0)||('responders', '', '', '', 0.0)||(',', '', '', '', 0.0)||('imipramine', 'noun', 'C0020934', ['orch', 'phsu'], 0.0)||('produced', '', '', '', 0.0)||('a', '', '', '', 0.0)||('response', 'noun', 'C0871261', ['clna'], 0.0)||('of', '', '', '', 0.0)||('higher quality', '', '', '', 0.0)||('.', '', '', '', 0.0)||
('the', '', '', '', 0.0)||('acute', 'adj', 'C0205178', ['tmco'], 0.0)||('response rate', 'noun', 'C0237629', ['tmco'], 0.0)||('for', '', '', '', 0.0)||('the', '', '', '', 0.0)||('combined', 'adj', 'C0205195', ['qlco'], 0.0)||('treatment', 'noun', 'C0039798', ['ftcn'], 0.0)||('was', '', '', '', 0.0)||('60 . 3 %', '', '', '', 0.0)||('for', '', '', '', 0.0)||('the', '', '', '', 0.0)||('panic disorder', 'noun', 'C0030319', ['mobd'], 0.0)||('severity', 'noun', 'C0439793', ['qlco'], 0.0)||('scale', 'noun', 'C0175659', ['medd'], 0.0)||('and', '', '', '', 0.0)||('64 . 1 %', '', '', '', 0.0)||('for', '', '', '', 0.0)||('the', '', '', '', 0.0)||('clinical', 'adj', 'C0205210', ['qlco'], 0.0)||('global', 'adj', 'C0205246', ['spco'], 0.0)||('impression', 'noun', 'C0596764', ['inbe'], 0.0)||('scale', 'noun', 'C0175659', ['medd'], 0.0)||(';', '', '', '', 0.0)||
('neither', '', '', '', 0.0)||('was', '', '', '', 0.0)||('significantly', '', '', '', 0.0)||('different', 'adj', 'C1705242', ['qlco'], 0.0)||('from', '', '', '', 0.0)||('the', '', '', '', 0.0)||('other', '', '', '', 0.0)||('groups', 'noun', 'C0441833', ['idcn'], 0.0)||('.', '', '', '', 0.0)||
('the', '', '', '', 0.0)||('6', '', '', '', 0.0)||('-', '', '', '', 0.0)||('month', 'noun', 'C0439231', ['tmco'], 0.0)||('maintenance', 'noun', 'C0024501', ['acty'], 0.0)||('response rate', 'noun', 'C0237629', ['tmco'], 0.0)||('for', '', '', '', 0.0)||('combined therapy', 'noun', 'C0033972', ['topp'], 0.0)||('was', '', '', '', 0.0)||('57 . 1 %', '', '', '', 0.0)||('for', '', '', '', 0.0)||('the', '', '', '', 0.0)||('panic disorder', 'noun', 'C0030319', ['mobd'], 0.0)||('severity', 'noun', 'C0439793', ['qlco'], 0.0)||('scale', 'noun', 'C0175659', ['medd'], 0.0)||('(', '', '', '', 0.0)||('p', '', '', '', 0.0)||('=', '', '', '', 0.0)||('.', '', '', '', 0.0)||('04', '', '', '', 0.0)||('vs', '', '', '', 0.0)||('cognitive - behavioral therapy', '', '', '', 0.0)||('alone', 'adj', 'C0439044', ['fndg'], 0.0)||('and', '', '', '', 0.0)||('p', '', '', '', 0.0)||('=', '', '', '', 0.0)||('.', '', '', '', 0.0)||('03', '', '', '', 0.0)||('vs', '', '', '', 0.0)||('imipramine', 'noun', 'C0020934', ['orch', 'phsu'], 0.0)||('alone', 'adj', 'C0439044', ['fndg'], 0.0)||(')', '', '', '', 0.0)||('and', '', '', '', 0.0)||('56 . 3 %', '', '', '', 0.0)||('for', '', '', '', 0.0)||('the', '', '', '', 0.0)||('clinical', 'adj', 'C0205210', ['qlco'], 0.0)||('global', 'adj', 'C0205246', ['spco'], 0.0)||('impression', 'noun', 'C0596764', ['inbe'], 0.0)||('scale', 'noun', 'C0175659', ['medd'], 0.0)||('(', '', '', '', 0.0)||('p', '', '', '', 0.0)||('=', '', '', '', 0.0)||('.', '', '', '', 0.0)||('03', '', '', '', 0.0)||('vs', '', '', '', 0.0)||('imipramine', 'noun', 'C0020934', ['orch', 'phsu'], 0.0)||('alone', 'adj', 'C0439044', ['fndg'], 0.0)||(')', '', '', '', 0.0)||(',', '', '', '', 0.0)||('but', '', '', '', 0.0)||('not', 'adv', 'C1518422', ['ftcn'], 0.0)||('significantly', '', '', '', 0.0)||('better', 'adj', 'C0332272', ['qlco'], 0.0)||('than', '', '', '', 0.0)||('cognitive - behavioral therapy', '', '', '', 0.0)||('plus', '', '', '', 0.0)||('placebo', 'noun', 'C0032042', ['topp'], 0.0)||('in', '', '', '', 0.0)||('either', '', '', '', 0.0)||('analysis', 'noun', 'C0002778', ['lbpr'], 0.0)||('.', '', '', '', 0.0)||
('six', '', 'C0205452', ['qnco'], 0.0)||('months', 'noun', 'C0439231', ['tmco'], 0.0)||('after', '', '', '', 0.0)||('treatment', 'noun', 'C0039798', ['ftcn'], 0.0)||('discontinuation', 'noun', 'C0457454', ['hlca'], 0.0)||(',', '', '', '', 0.0)||('in', '', '', '', 0.0)||('the', '', '', '', 0.0)||('intent', 'noun', 'C0162425', ['menp'], 0.0)||('-', '', '', '', 0.0)||('to', '', '', '', 0.0)||('-', '', '', '', 0.0)||('treat', 'verb', 'C1292734', ['ftcn'], 0.0)||('analysis', 'noun', 'C0002778', ['lbpr'], 0.0)||('clinical', 'adj', 'C0205210', ['qlco'], 0.0)||('global', 'adj', 'C0205246', ['spco'], 0.0)||('impression', 'noun', 'C0596764', ['inbe'], 0.0)||('scale', 'noun', 'C0175659', ['medd'], 0.0)||('response rates', '', '', '', 0.0)||('were', '', '', '', 0.0)||('41 . 0 %', '', '', '', 0.0)||('for', '', '', '', 0.0)||('cognitive - behavioral therapy', '', '', '', 0.0)||('plus', '', '', '', 0.0)||('placebo', 'noun', 'C0032042', ['topp'], 0.0)||(',', '', '', '', 0.0)||('31 . 9 %', '', '', '', 0.0)||('for', '', '', '', 0.0)||('cognitive - behavioral therapy', '', '', '', 0.0)||('alone', 'adj', 'C0439044', ['fndg'], 0.0)||(',', '', '', '', 0.0)||('19 . 7 %', '', '', '', 0.0)||('for', '', '', '', 0.0)||('imipramine', 'noun', 'C0020934', ['orch', 'phsu'], 0.0)||('alone', 'adj', 'C0439044', ['fndg'], 0.0)||(',', '', '', '', 0.0)||('13 %', '', '', '', 0.0)||('for', '', '', '', 0.0)||('placebo', 'noun', 'C0032042', ['topp'], 0.0)||(',', '', '', '', 0.0)||('and', '', '', '', 0.0)||('26 . 3 %', '', '', '', 0.0)||('for', '', '', '', 0.0)||('cognitive - behavioral therapy', '', '', '', 0.0)||('combined', 'verb', 'C0205195', ['qlco'], 0.0)||('with', '', '', '', 0.0)||('imipramine', 'noun', 'C0020934', ['orch', 'phsu'], 0.0)||('.', '', '', '', 0.0)||
('combining', '', '', '', 0.0)||('imipramine', 'noun', 'C0020934', ['orch', 'phsu'], 0.0)||('and', '', '', '', 0.0)||('cognitive - behavioral therapy', '', '', '', 0.0)||('appeared', '', '', '', 0.0)||('to', '', '', '', 0.0)||('confer', '', '', '', 0.0)||('limited', 'adj', 'C0439801', ['ftcn'], 0.0)||('advantage', '', '', '', 0.0)||('acutely', '', '', '', 0.0)||('but', '', '', '', 0.0)||('more', '', '', '', 0.0)||('substantial', '', '', '', 0.0)||('advantage', '', '', '', 0.0)||('by', '', '', '', 0.0)||('the', '', '', '', 0.0)||('end', 'noun', 'C0444930', ['spco'], 0.0)||('of', '', '', '', 0.0)||('maintenance', 'noun', 'C0024501', ['acty'], 0.0)||('.', '', '', '', 0.0)||
('each', '', '', '', 0.0)||('treatment', 'noun', 'C0039798', ['ftcn'], 0.0)||('worked', '', '', '', 0.0)||('well', 'adv', 'C0205170', ['qlco'], 0.0)||('immediately', 'adv', 'C0205548', ['tmco'], 0.0)||('following', '', '', '', 0.0)||('treatment', 'noun', 'C0039798', ['ftcn'], 0.0)||('and', '', '', '', 0.0)||('during', '', '', '', 0.0)||('maintenance', 'noun', 'C0024501', ['acty'], 0.0)||(';', '', '', '', 0.0)||
('cognitive - behavioral therapy', '', '', '', 0.0)||('appeared', '', '', '', 0.0)||('durable', '', '', '', 0.0)||('in', '', '', '', 0.0)||('follow - up', '', '', '', 0.0)||('.', '', '', '', 0.0)||
('jama', 'noun', 'C1422839', ['gngm'], 0.0)||('.', '', '', '', 0.0)||
('2000', '', '', '', 0.0)||(';', '', '', '', 0.0)||('283', '', '', '', 0.0)||(':', '', '', '', 0.0)||('2529', '', '', '', 0.0)||('-', '', '', '', 0.0)||('2536', '', '', '', 0.0)||
