('there', '', '', '', 0.0)||('is', '', '', '', 0.0)||('a', '', '', '', 0.0)||('paucity', '', '', '', 0.0)||('of', '', '', '', 0.0)||('long - term', '', '', '', 0.0)||('outcome studies', 'noun', 'C0543472', ['resa'], 0.0)||('of', '', '', '', 0.0)||('panic disorder', 'noun', 'C0030319', ['mobd'], 0.0)||('that', '', '', '', 0.0)||('exceed', '', '', '', 0.0)||('a', '', '', '', 0.0)||('2', '', '', '', 0.0)||('-', '', '', '', 0.0)||('year', 'noun', 'C0439234', ['tmco'], 0.0)||('follow - up', '', '', '', 0.0)||('.', '', '', '', 0.0)||
('the', '', '', '', 0.0)||('aim', 'noun', 'C1947946', ['idcn'], 0.0)||('of', '', '', '', 0.0)||('the', '', '', '', 0.0)||('study', 'noun', 'C0008976', ['resa'], 0.0)||('was', '', '', '', 0.0)||('to', '', '', '', 0.0)||('evaluate', 'verb', 'C0220825', ['ftcn'], 0.0)||('the', '', '', '', 0.0)||('long - term', '', '', '', 0.0)||('follow - up', '', '', '', 0.0)||('of', '', '', '', 0.0)||('patients', 'noun', 'C0030705', ['podg'], 0.0)||('with', '', '', '', 0.0)||('panic disorder', 'noun', 'C0030319', ['mobd'], 0.0)||('with', '', '', '', 0.0)||('agoraphobia', 'noun', 'C0001818', ['mobd'], 0.0)||('treated', 'verb', 'C1522326', ['ftcn'], 0.0)||('according to', '', '', '', 0.0)||('a', '', '', '', 0.0)||('standardized', '', '', '', 0.0)||('protocol', 'noun', 'C0442711', ['inpr'], 0.0)||('.', '', '', '', 0.0)||
('a', '', '', '', 0.0)||('consecutive', 'adj', 'C1707491', ['qlco'], 0.0)||('series', 'noun', 'C0205549', ['qnco'], 0.0)||('of', '', '', '', 0.0)||('200', '', '', '', 0.0)||('patients', 'noun', 'C0030705', ['podg'], 0.0)||('satisfying', '', '', '', 0.0)||('the', '', '', '', 0.0)||('dsm - iv', '', '', '', 0.0)||('criteria', 'noun', 'C0243161', ['inpr'], 0.0)||('for', '', '', '', 0.0)||('panic disorder', 'noun', 'C0030319', ['mobd'], 0.0)||('with', '', '', '', 0.0)||('agoraphobia', 'noun', 'C0001818', ['mobd'], 0.0)||('was', '', '', '', 0.0)||('treated', 'verb', 'C1522326', ['ftcn'], 0.0)||('in', '', '', '', 0.0)||('an', '', '', '', 0.0)||('out - patient', '', '', '', 0.0)||('clinic', 'noun', 'C0002424', ['hcro', 'mnob'], 0.0)||('with', '', '', '', 0.0)||('behavioural', '', '', '', 0.0)||('methods', 'noun', 'C0025663', ['inpr'], 0.0)||('based', 'verb', 'C1527178', ['ftcn'], 0.0)||('on', '', '', '', 0.0)||('exposure', 'noun', 'C0332157', ['clna'], 0.0)||('homework', 'noun', 'C0589414', ['edac'], 0.0)||('.', '', '', '', 0.0)||
('one', 'noun', 'C0205447', ['qnco'], 0.0)||('hundred', '', '', '', 0.0)||('and', '', '', '', 0.0)||('thirty - six', '', '', '', 0.0)||('patients', 'noun', 'C0030705', ['podg'], 0.0)||('became', '', '', '', 0.0)||('panic', 'noun', 'C0030318', ['fndg'], 0.0)||('free', 'adj', 'C1880497', ['qlco'], 0.0)||('after', '', '', '', 0.0)||('12', '', '', '', 0.0)||('sessions', '', '', '', 0.0)||('of', '', '', '', 0.0)||('psychotherapy', 'noun', 'C0033968', ['topp'], 0.0)||('and', '', '', '', 0.0)||('132', '', '', '', 0.0)||('were', '', '', '', 0.0)||('available', 'adj', 'C0470187', ['ftcn'], 0.0)||('for', '', '', '', 0.0)||('follow - up', '', '', '', 0.0)||('.', '', '', '', 0.0)||
('a', '', '', '', 0.0)||('2', '', '', '', 0.0)||('-', '', '', '', 0.0)||('to', '', '', '', 0.0)||('14', '', '', '', 0.0)||('-', '', '', '', 0.0)||('year', 'noun', 'C0439234', ['tmco'], 0.0)||('(', '', '', '', 0.0)||('median', 'noun', 'C0549183', ['spco'], 0.0)||('=', '', '', '', 0.0)||('8', '', '', '', 0.0)||('years', 'noun', 'C0439234', ['tmco'], 0.0)||(')', '', '', '', 0.0)||('follow - up', '', '', '', 0.0)||('was', '', '', '', 0.0)||('performed', 'verb', 'C0884358', ['ftcn'], 0.0)||('.', '', '', '', 0.0)||
('survival', 'noun', 'C0038952', ['acty'], 0.0)||('analysis', 'noun', 'C0002778', ['lbpr'], 0.0)||('was', '', '', '', 0.0)||('employed', 'verb', 'C0557351', ['fndg'], 0.0)||('to', '', '', '', 0.0)||('characterize', '', '', '', 0.0)||('the', '', '', '', 0.0)||('clinical course', 'noun', 'C0449259', ['tmco'], 0.0)||('of', '', '', '', 0.0)||('patients', 'noun', 'C0030705', ['podg'], 0.0)||('.', '', '', '', 0.0)||
('thirty - one', '', '', '', 0.0)||('of', '', '', '', 0.0)||('the', '', '', '', 0.0)||('132', '', '', '', 0.0)||('patients', 'noun', 'C0030705', ['podg'], 0.0)||('(', '', '', '', 0.0)||('23 %', '', '', '', 0.0)||(')', '', '', '', 0.0)||('had', '', '', '', 0.0)||('a', '', '', '', 0.0)||('relapse', 'noun', 'C0035020', ['phpr'], 0.0)||('of', '', '', '', 0.0)||('panic disorder', 'noun', 'C0030319', ['mobd'], 0.0)||('at', '', '', '', 0.0)||('some', '', '', '', 0.0)||('time', 'noun', 'C0040223', ['tmco'], 0.0)||('during', '', '', '', 0.0)||('follow - up', '', '', '', 0.0)||('.', '', '', '', 0.0)||
('the', '', '', '', 0.0)||('estimated', 'adj', 'C0750572', ['qnco'], 0.0)||('cumulative', 'adj', 'C1511559', ['qlco'], 0.0)||('percentage', 'noun', 'C0439165', ['qnco'], 0.0)||('of', '', '', '', 0.0)||('patients', 'noun', 'C0030705', ['podg'], 0.0)||('remaining', 'verb', 'C1527428', ['qlco'], 0.0)||('in', '', '', '', 0.0)||('remission', 'noun', 'C0544452', ['fndg'], 0.0)||('was', '', '', '', 0.0)||('93 . 1', '', '', '', 0.0)||('after', '', '', '', 0.0)||('2', '', '', '', 0.0)||('years', 'noun', 'C0439234', ['tmco'], 0.0)||(',', '', '', '', 0.0)||('82 . 4', '', '', '', 0.0)||('after', '', '', '', 0.0)||('5', '', '', '', 0.0)||('years', 'noun', 'C0439234', ['tmco'], 0.0)||(',', '', '', '', 0.0)||('78 . 8', '', '', '', 0.0)||('after', '', '', '', 0.0)||('7', '', '', '', 0.0)||('years', 'noun', 'C0439234', ['tmco'], 0.0)||('and', '', '', '', 0.0)||('62 . 1', '', '', '', 0.0)||('after', '', '', '', 0.0)||('10', '', '', '', 0.0)||('years', 'noun', 'C0439234', ['tmco'], 0.0)||('.', '', '', '', 0.0)||
('such', '', '', '', 0.0)||('probabilities', 'noun', 'C0033204', ['qnco'], 0.0)||('increased', 'verb', 'C0205217', ['qnco'], 0.0)||('with', '', '', '', 0.0)||('younger', '', '', '', 0.0)||('age', 'noun', 'C0001779', ['orga'], 0.0)||(',', '', '', '', 0.0)||('and', '', '', '', 0.0)||('in', '', '', '', 0.0)||('the', '', '', '', 0.0)||('absence', 'noun', 'C1689985', ['anab'], 0.0)||('of', '', '', '', 0.0)||('a', '', '', '', 0.0)||('personality disorder', '', '', '', 0.0)||(',', '', '', '', 0.0)||('of', '', '', '', 0.0)||('high', 'adj', 'C0205250', ['qlco'], 0.0)||('pre - treatment levels', '', '', '', 0.0)||('of', '', '', '', 0.0)||('depressed', 'adj', 'C0344315', ['fndg'], 0.0)||('mood', 'noun', 'C0026516', ['menp'], 0.0)||(',', '', '', '', 0.0)||('of', '', '', '', 0.0)||('residual', 'adj', 'C1609982', ['qlco'], 0.0)||('agoraphobic', '', '', '', 0.0)||('avoidance', 'noun', 'C0870186', ['menp'], 0.0)||('after', '', '', '', 0.0)||('exposure', 'noun', 'C0332157', ['clna'], 0.0)||(',', '', '', '', 0.0)||('and', '', '', '', 0.0)||('of', '', '', '', 0.0)||('concurrent', 'adj', 'C0205420', ['tmco'], 0.0)||('use', 'noun', 'C0042153', ['ftcn'], 0.0)||('of', '', '', '', 0.0)||('benzodiazepines', 'noun', 'C0005064', ['orch', 'phsu'], 0.0)||('and', '', '', '', 0.0)||('antidepressant', 'noun', 'C0003289', ['phsu'], 0.0)||('drugs', 'noun', 'C0013227', ['phsu'], 0.0)||('.', '', '', '', 0.0)||
('the', '', '', '', 0.0)||('findings', 'noun', 'C2607943', ['ftcn'], 0.0)||('suggest', 'verb', 'C1705535', ['idcn'], 0.0)||('that', '', '', '', 0.0)||('exposure', 'noun', 'C0332157', ['clna'], 0.0)||('treatment', 'noun', 'C0039798', ['ftcn'], 0.0)||('can', '', '', '', 0.0)||('provide', 'verb', 'C0359589', ['food'], 0.0)||('lasting', '', '', '', 0.0)||('relief', 'noun', 'C0564405', ['fndg'], 0.0)||('to', '', '', '', 0.0)||('the', '', '', '', 0.0)||('majority', 'noun', 'C0680220', ['socb'], 0.0)||('of', '', '', '', 0.0)||('patients', 'noun', 'C0030705', ['podg'], 0.0)||('with', '', '', '', 0.0)||('panic disorder', 'noun', 'C0030319', ['mobd'], 0.0)||('and', '', '', '', 0.0)||('agoraphobia', 'noun', 'C0001818', ['mobd'], 0.0)||('.', '', '', '', 0.0)||
('disappearance', '', '', '', 0.0)||('of', '', '', '', 0.0)||('residual', 'adj', 'C1609982', ['qlco'], 0.0)||('and', '', '', '', 0.0)||('subclinical', 'adj', 'C0205211', ['qlco'], 0.0)||('agoraphobic', '', '', '', 0.0)||('avoidance', 'noun', 'C0870186', ['menp'], 0.0)||(',', '', '', '', 0.0)||('and', '', '', '', 0.0)||('not', 'adv', 'C1518422', ['ftcn'], 0.0)||('simply', '', '', '', 0.0)||('of', '', '', '', 0.0)||('panic attacks', 'noun', 'C0086769', ['mobd'], 0.0)||(',', '', '', '', 0.0)||('should', '', '', '', 0.0)||('be', '', '', '', 0.0)||('the', '', '', '', 0.0)||('aim', 'noun', 'C1947946', ['idcn'], 0.0)||('of', '', '', '', 0.0)||('exposure', 'noun', 'C0332157', ['clna'], 0.0)||('therapy', 'noun', 'C0039798', ['ftcn'], 0.0)||('.', '', '', '', 0.0)||
