('augmentation mammaplasty', '', '', '', 0.0)||('is', '', '', '', 0.0)||('rapidly', 'adv', 'C1637379', ['qlco'], 0.0)||('becoming', '', '', '', 0.0)||('one', 'noun', 'C0205447', ['qnco'], 0.0)||('of', '', '', '', 0.0)||('the', '', '', '', 0.0)||('most', '', '', '', 0.0)||('frequently', 'adv', 'C0332183', ['tmco'], 0.0)||('performed', 'verb', 'C0884358', ['ftcn'], 0.0)||('cosmetic surgeries', '', '', '', 0.0)||('.', '', '', '', 0.0)||
('however', '', '', '', 0.0)||(',', '', '', '', 0.0)||('as', '', '', '', 0.0)||('the', '', '', '', 0.0)||('augmented', 'adj', 'C0205217', ['qnco'], 0.0)||('patient', '', '', '', 0.0)||('population', 'noun', 'C0032659', ['qnco'], 0.0)||('ages', '', '', '', 0.0)||(',', '', '', '', 0.0)||('major', 'adj', 'C0205164', ['qlco'], 0.0)||('concerns', '', '', '', 0.0)||('associated', 'verb', 'C0332281', ['qlco'], 0.0)||('with', '', '', '', 0.0)||('the', '', '', '', 0.0)||('screening', 'noun', 'C0220908', ['hlca'], 0.0)||(',', '', '', '', 0.0)||('diagnosis', 'noun', 'C0011900', ['fndg'], 0.0)||('and', '', '', '', 0.0)||('treatment', 'noun', 'C0039798', ['ftcn'], 0.0)||('of', '', '', '', 0.0)||('breast cancer', 'noun', 'C0006142', ['neop'], 0.0)||('are', '', '', '', 0.0)||('being', '', '', '', 0.0)||('realized', '', '', '', 0.0)||('.', '', '', '', 0.0)||
('although', '', '', '', 0.0)||('current', 'adj', 'C0521116', ['tmco'], 0.0)||('evidence', 'noun', 'C0332120', ['ftcn'], 0.0)||('convincingly', '', '', '', 0.0)||('indicates', '', '', '', 0.0)||('that', '', '', '', 0.0)||('breast', 'noun', 'C0006141', ['bpoc'], 0.0)||('implants', 'noun', 'C0021102', ['medd'], 0.0)||('do', '', '', '', 0.0)||('not', 'adv', 'C1518422', ['ftcn'], 0.0)||('play', 'verb', 'C0032214', ['dora'], 0.0)||('a', '', '', '', 0.0)||('role', 'noun', 'C0035820', ['socb'], 0.0)||('in', '', '', '', 0.0)||('inducing', 'adj', 'C0205263', ['ftcn'], 0.0)||('localized', '', '', '', 0.0)||('or', '', '', '', 0.0)||('systemic disease', 'noun', 'C0442893', ['dsyn'], 0.0)||(',', '', '', '', 0.0)||('particularly', '', '', '', 0.0)||('breast cancer', 'noun', 'C0006142', ['neop'], 0.0)||(',', '', '', '', 0.0)||('recent', 'adj', 'C0332185', ['tmco'], 0.0)||('studies', '', '', '', 0.0)||('have', '', '', '', 0.0)||('shown', '', '', '', 0.0)||('implants', 'verb', 'C0021102', ['medd'], 0.0)||('not', 'adv', 'C1518422', ['ftcn'], 0.0)||('only', '', '', '', 0.0)||('reduce', '', '', '', 0.0)||('the', '', '', '', 0.0)||('sensitivity', 'noun', 'C0036667', ['qnco'], 0.0)||('of', '', '', '', 0.0)||('mammography', 'noun', 'C0024671', ['diap'], 0.0)||(',', '', '', '', 0.0)||('but', '', '', '', 0.0)||('interfere', '', '', '', 0.0)||('with', '', '', '', 0.0)||('mammographic', '', '', '', 0.0)||('detection', 'noun', 'C1511790', ['topp'], 0.0)||(',', '', '', '', 0.0)||('possibly', 'adv', 'C0332149', ['qlco'], 0.0)||('leading', 'verb', 'C0332152', ['tmco'], 0.0)||('to', '', '', '', 0.0)||('delayed', 'adj', 'C0205421', ['tmco'], 0.0)||('breast cancer', 'noun', 'C0006142', ['neop'], 0.0)||('diagnosis', 'noun', 'C0011900', ['fndg'], 0.0)||('.', '', '', '', 0.0)||
('in', '', '', '', 0.0)||('addition', 'noun', 'C1883712', ['ftcn'], 0.0)||(',', '', '', '', 0.0)||('the', '', '', '', 0.0)||('risk', 'noun', 'C0035647', ['qlco'], 0.0)||('for', '', '', '', 0.0)||('local', 'adj', 'C0205276', ['spco'], 0.0)||('recurrence', 'noun', 'C0034897', ['phpr'], 0.0)||(',', '', '', '', 0.0)||('as well as', '', '', '', 0.0)||('unfavorable', '', '', '', 0.0)||('cosmetic', 'adj', 'C0010164', ['mnob'], 0.0)||('results', 'noun', 'C1274040', ['ftcn'], 0.0)||(',', '', '', '', 0.0)||('breast', 'noun', 'C0006141', ['bpoc'], 0.0)||('fibrosis', 'noun', 'C0016059', ['patf'], 0.0)||(',', '', '', '', 0.0)||('and', '', '', '', 0.0)||('capsular', 'adj', 'C0205151', ['spco'], 0.0)||('contracture', 'noun', 'C0009917', ['acab'], 0.0)||('following', '', '', '', 0.0)||('radiation therapy', 'noun', 'C0034619', ['inpr'], 0.0)||('as', '', '', '', 0.0)||('part', 'noun', 'C0449719', ['spco'], 0.0)||('of', '', '', '', 0.0)||('breast - conserving therapy', '', '', '', 0.0)||('in', '', '', '', 0.0)||('previously', '', '', '', 0.0)||('augmented', 'adj', 'C0205217', ['qnco'], 0.0)||('patients', 'noun', 'C0030705', ['podg'], 0.0)||('are', '', '', '', 0.0)||('of', '', '', '', 0.0)||('great', 'adj', 'C0549177', ['qnco'], 0.0)||('concern', 'noun', 'C2699424', ['idcn'], 0.0)||('.', '', '', '', 0.0)||
('given', '', '', '', 0.0)||('the', '', '', '', 0.0)||('overall', 'adj', 'C0282416', ['inpr'], 0.0)||('lack', 'noun', 'C0332268', ['qlco'], 0.0)||('of', '', '', '', 0.0)||('treatment', 'noun', 'C0039798', ['ftcn'], 0.0)||('consensus', 'noun', 'C0376298', ['socb'], 0.0)||(',', '', '', '', 0.0)||('paucity', '', '', '', 0.0)||('of', '', '', '', 0.0)||('literature', 'noun', 'C0023866', ['inpr'], 0.0)||(',', '', '', '', 0.0)||('and', '', '', '', 0.0)||('increasing', 'adj', 'C0442808', ['ftcn'], 0.0)||('number', 'noun', 'C0449788', ['qnco'], 0.0)||('of', '', '', '', 0.0)||('augmented', 'adj', 'C0205217', ['qnco'], 0.0)||('breast cancer', 'noun', 'C0006142', ['neop'], 0.0)||('patients', 'noun', 'C0030705', ['podg'], 0.0)||(',', '', '', '', 0.0)||('we', '', '', '', 0.0)||('provide', 'verb', 'C0359589', ['food'], 0.0)||('a', '', '', '', 0.0)||('retrospective', 'adj', 'C1514923', ['qlco'], 0.0)||('review', 'noun', 'C0282443', ['inpr'], 0.0)||('of', '', '', '', 0.0)||('the', '', '', '', 0.0)||('diagnosis', 'noun', 'C0011900', ['fndg'], 0.0)||(',', '', '', '', 0.0)||('treatment', 'noun', 'C0039798', ['ftcn'], 0.0)||(',', '', '', '', 0.0)||('and', '', '', '', 0.0)||('follow - up', '', '', '', 0.0)||('of', '', '', '', 0.0)||('12', '', '', '', 0.0)||('augmented', 'adj', 'C0205217', ['qnco'], 0.0)||('patients', 'noun', 'C0030705', ['podg'], 0.0)||('from', '', '', '', 0.0)||('1998', '', '', '', 0.0)||('to', '', '', '', 0.0)||('2004', '', '', '', 0.0)||('who', '', '', '', 0.0)||('developed', '', '', '', 0.0)||('breast cancer', 'noun', 'C0006142', ['neop'], 0.0)||('.', '', '', '', 0.0)||
('eight', '', 'C0205454', ['qnco'], 0.0)||('of', '', '', '', 0.0)||('12', '', '', '', 0.0)||('augmented', 'adj', 'C0205217', ['qnco'], 0.0)||('patients', 'noun', 'C0030705', ['podg'], 0.0)||('presented', 'verb', 'C0449450', ['idcn'], 0.0)||('with', '', '', '', 0.0)||('a', '', '', '', 0.0)||('palpable', 'adj', 'C0522499', ['qlco'], 0.0)||('mass', 'noun', 'C0577559', ['fndg'], 0.0)||('on', '', '', '', 0.0)||('physical examination', 'noun', 'C0031809', ['hlca'], 0.0)||(',', '', '', '', 0.0)||('which', '', '', '', 0.0)||('prompted', '', '', '', 0.0)||('further', 'adv', 'C1517331', ['spco'], 0.0)||('mammographic', '', '', '', 0.0)||('evaluation', 'noun', 'C0220825', ['ftcn'], 0.0)||('.', '', '', '', 0.0)||
('abnormalities', 'noun', 'C0000768', ['cgab'], 0.0)||('in', '', '', '', 0.0)||('the', '', '', '', 0.0)||('remaining', 'adj', 'C1527428', ['qlco'], 0.0)||('four', '', 'C0205450', ['qnco'], 0.0)||('individuals', '', '', '', 0.0)||('were', '', '', '', 0.0)||('detected', 'verb', 'C0442726', ['fndg'], 0.0)||('on', '', '', '', 0.0)||('routine', 'adj', 'C0205547', ['qlco'], 0.0)||('mammographic', '', '', '', 0.0)||('screening', 'noun', 'C0220908', ['hlca'], 0.0)||('.', '', '', '', 0.0)||
('pathology', 'noun', 'C0030664', ['bmod'], 0.0)||('staging', 'adj', 'C0332305', ['ftcn'], 0.0)||('results', 'noun', 'C1274040', ['ftcn'], 0.0)||('were', '', '', '', 0.0)||('available', 'adj', 'C0470187', ['ftcn'], 0.0)||('for', '', '', '', 0.0)||('all', '', '', '', 0.0)||('12', '', '', '', 0.0)||('patients', 'noun', 'C0030705', ['podg'], 0.0)||('.', '', '', '', 0.0)||
('breast - conserving therapy', '', '', '', 0.0)||('was', '', '', '', 0.0)||('used', '', '', '', 0.0)||('to', '', '', '', 0.0)||('treat', 'verb', 'C1292734', ['ftcn'], 0.0)||('six', '', 'C0205452', ['qnco'], 0.0)||('patients', 'noun', 'C0030705', ['podg'], 0.0)||('and', '', '', '', 0.0)||('adequate', 'adj', 'C0205410', ['qlco'], 0.0)||('negative', 'adj', 'C0205160', ['qlco'], 0.0)||('pathologic', 'adj', 'C1521733', ['ftcn'], 0.0)||('margins', '', '', '', 0.0)||('were', '', '', '', 0.0)||('obtained', 'verb', 'C1301820', ['ftcn'], 0.0)||('in', '', '', '', 0.0)||('all', '', '', '', 0.0)||('patients', 'noun', 'C0030705', ['podg'], 0.0)||('.', '', '', '', 0.0)||
('the', '', '', '', 0.0)||('remaining', 'adj', 'C1527428', ['qlco'], 0.0)||('six', '', 'C0205452', ['qnco'], 0.0)||('patients', 'noun', 'C0030705', ['podg'], 0.0)||('were', '', '', '', 0.0)||('treated', 'verb', 'C1522326', ['ftcn'], 0.0)||('with', '', '', '', 0.0)||('mastectomy', 'noun', 'C0024881', ['topp'], 0.0)||('due to', '', '', '', 0.0)||('multifocal', 'adj', 'C0205292', ['spco'], 0.0)||('disease', 'noun', 'C0012634', ['dsyn'], 0.0)||(',', '', '', '', 0.0)||('inadequate', 'adj', 'C0205412', ['qlco'], 0.0)||('margins', '', '', '', 0.0)||(',', '', '', '', 0.0)||('or', '', '', '', 0.0)||('proximity', 'noun', 'C1514583', ['spco'], 0.0)||('to', '', '', '', 0.0)||('the', '', '', '', 0.0)||('implant', 'noun', 'C0021102', ['medd'], 0.0)||('capsule', 'noun', 'C0006935', ['bodm'], 0.0)||('.', '', '', '', 0.0)||
('thus', '', '', '', 0.0)||('far', '', '', '', 0.0)||(',', '', '', '', 0.0)||('one', 'noun', 'C0205447', ['qnco'], 0.0)||('patient', '', '', '', 0.0)||('has', '', '', '', 0.0)||('had', '', '', '', 0.0)||('local', 'adj', 'C0205276', ['spco'], 0.0)||('recurrence', 'noun', 'C0034897', ['phpr'], 0.0)||('and', '', '', '', 0.0)||('one', 'noun', 'C0205447', ['qnco'], 0.0)||('patient', '', '', '', 0.0)||('has', '', '', '', 0.0)||('had', '', '', '', 0.0)||('distant', 'adj', 'C0443203', ['spco'], 0.0)||('recurrence', 'noun', 'C0034897', ['phpr'], 0.0)||('after', '', '', '', 0.0)||('initial', 'adj', 'C0205265', ['tmco'], 0.0)||('surgery', 'noun', 'C0038894', ['bmod'], 0.0)||('.', '', '', '', 0.0)||
('no', '', '', '', 0.0)||('evidence', 'noun', 'C0332120', ['ftcn'], 0.0)||('of', '', '', '', 0.0)||('local', 'adj', 'C0205276', ['spco'], 0.0)||('or', '', '', '', 0.0)||('systemic', 'adj', 'C0205373', ['ftcn'], 0.0)||('recurrence', 'noun', 'C0034897', ['phpr'], 0.0)||(',', '', '', '', 0.0)||('infection', 'noun', 'C0021311', ['dsyn'], 0.0)||(',', '', '', '', 0.0)||('contracture', 'noun', 'C0009917', ['acab'], 0.0)||(',', '', '', '', 0.0)||('poor', 'adj', 'C0032854', ['grpa'], 0.0)||('cosmetic', 'adj', 'C0010164', ['mnob'], 0.0)||('outcome', 'noun', 'C1274040', ['ftcn'], 0.0)||(',', '', '', '', 0.0)||('or', '', '', '', 0.0)||('other', '', '', '', 0.0)||('complications', 'noun', 'C0009566', ['patf'], 0.0)||('has', '', '', '', 0.0)||('been', '', '', '', 0.0)||('detected', 'verb', 'C0442726', ['fndg'], 0.0)||('in', '', '', '', 0.0)||('the', '', '', '', 0.0)||('remaining', 'adj', 'C1527428', ['qlco'], 0.0)||('10', '', '', '', 0.0)||('patients', 'noun', 'C0030705', ['podg'], 0.0)||('as of', '', '', '', 0.0)||('the', '', '', '', 0.0)||('most', '', '', '', 0.0)||('recent', 'adj', 'C0332185', ['tmco'], 0.0)||('follow - up', '', '', '', 0.0)||('.', '', '', '', 0.0)||
('based', 'verb', 'C1527178', ['ftcn'], 0.0)||('on', '', '', '', 0.0)||('this', '', '', '', 0.0)||('small', 'adj', 'C0700321', ['qnco'], 0.0)||('cohort', 'noun', 'C0599755', ['popg'], 0.0)||('of', '', '', '', 0.0)||('augmented', 'adj', 'C0205217', ['qnco'], 0.0)||('women', 'noun', 'C0043210', ['popg'], 0.0)||(',', '', '', '', 0.0)||('the', '', '', '', 0.0)||('presence', 'noun', 'C0392148', ['topp'], 0.0)||('of', '', '', '', 0.0)||('implants', 'noun', 'C0021102', ['medd'], 0.0)||('led', '', '', '', 0.0)||('to', '', '', '', 0.0)||('an', '', '', '', 0.0)||('increased', 'adj', 'C0205217', ['qnco'], 0.0)||('proportion', 'noun', 'C1709707', ['qnco'], 0.0)||('of', '', '', '', 0.0)||('palpable', 'adj', 'C0522499', ['qlco'], 0.0)||('tumors', 'noun', 'C0027651', ['neop'], 0.0)||(',', '', '', '', 0.0)||('in spite of', '', '', '', 0.0)||('routine', 'adj', 'C0205547', ['qlco'], 0.0)||('screening', 'adj', 'C0220908', ['hlca'], 0.0)||('mammography', 'noun', 'C0024671', ['diap'], 0.0)||('.', '', '', '', 0.0)||
('consistent', 'adj', 'C0332290', ['idcn'], 0.0)||('with', '', '', '', 0.0)||('other', '', '', '', 0.0)||('studies', '', '', '', 0.0)||(',', '', '', '', 0.0)||('although', '', '', '', 0.0)||('our', '', '', '', 0.0)||('results', 'noun', 'C1274040', ['ftcn'], 0.0)||('suggest', 'verb', 'C1705535', ['idcn'], 0.0)||('a', '', '', '', 0.0)||('tendency', 'noun', 'C1998911', ['fndg'], 0.0)||('toward', '', '', '', 0.0)||('delayed', 'adj', 'C0205421', ['tmco'], 0.0)||('diagnosis', 'noun', 'C0011900', ['fndg'], 0.0)||('in', '', '', '', 0.0)||('augmented', 'adj', 'C0205217', ['qnco'], 0.0)||('women', 'noun', 'C0043210', ['popg'], 0.0)||('relative', 'adj', 'C0080103', ['famg'], 0.0)||('to', '', '', '', 0.0)||('age - matched controls', '', '', '', 0.0)||(',', '', '', '', 0.0)||('this', '', '', '', 0.0)||('did', '', '', '', 0.0)||('not', 'adv', 'C1518422', ['ftcn'], 0.0)||('appear', '', '', '', 0.0)||('to', '', '', '', 0.0)||('influence', '', '', '', 0.0)||('the', '', '', '', 0.0)||('overall', 'adj', 'C0282416', ['inpr'], 0.0)||('prognosis', 'noun', 'C0033325', ['hlca'], 0.0)||('.', '', '', '', 0.0)||
