('mammography', 'noun', 'C0024671', ['diap'], 0.0)||('is', '', '', '', 0.0)||('best', 'adv', 'C1522427', ['qlco'], 0.0)||('.', '', '', '', 0.0)||
('it', '', '', '', 0.0)||('is', '', '', '', 0.0)||('considered', '', '', '', 0.0)||('as', '', '', '', 0.0)||('effective', 'adj', 'C1704419', ['qlco'], 0.0)||('for', '', '', '', 0.0)||('screening', 'adj', 'C0220908', ['hlca'], 0.0)||('women', 'noun', 'C0043210', ['popg'], 0.0)||('who', '', '', '', 0.0)||('have', '', '', '', 0.0)||('undergone', '', '', '', 0.0)||('augmentation mammoplasty', 'noun', 'C0191925', ['topp'], 0.0)||('as', '', '', '', 0.0)||('those', '', '', '', 0.0)||('who', '', '', '', 0.0)||('have', '', '', '', 0.0)||('not', 'adv', 'C1518422', ['ftcn'], 0.0)||('.', '', '', '', 0.0)||
('this', '', '', '', 0.0)||('question', 'noun', 'C1522634', ['inpr'], 0.0)||('has', '', '', '', 0.0)||('not', 'adv', 'C1518422', ['ftcn'], 0.0)||('been', '', '', '', 0.0)||('well studied', '', '', '', 0.0)||(',', '', '', '', 0.0)||('however', '', '', '', 0.0)||('.', '', '', '', 0.0)||
