('the', '', '', '', 0.0)||('appropriate', 'adj', 'C1548787', ['qlco'], 0.0)||('roles', 'noun', 'C0035820', ['socb'], 0.0)||('for', '', '', '', 0.0)||('several', '', '', '', 0.0)||('diagnostic tests', 'noun', 'C0086143', ['diap'], 0.0)||('for', '', '', '', 0.0)||('coronary disease', 'noun', 'C0010068', ['dsyn'], 0.0)||('are', '', '', '', 0.0)||('uncertain', 'adj', 'C0087130', ['idcn'], 0.0)||('.', '', '', '', 0.0)||
('to', '', '', '', 0.0)||('evaluate', 'verb', 'C0220825', ['ftcn'], 0.0)||('the', '', '', '', 0.0)||('cost - effectiveness', '', '', '', 0.0)||('of', '', '', '', 0.0)||('alternative', 'adj', 'C1523987', ['cnce'], 0.0)||('approaches', 'noun', 'C0449445', ['spco'], 0.0)||('to', '', '', '', 0.0)||('diagnosis', 'noun', 'C0011900', ['fndg'], 0.0)||('of', '', '', '', 0.0)||('coronary disease', 'noun', 'C0010068', ['dsyn'], 0.0)||('.', '', '', '', 0.0)||
('meta - analysis', '', '', '', 0.0)||('of', '', '', '', 0.0)||('the', '', '', '', 0.0)||('accuracy', 'noun', 'C0443131', ['qlco'], 0.0)||('of', '', '', '', 0.0)||('alternative', 'adj', 'C1523987', ['cnce'], 0.0)||('diagnostic tests', 'noun', 'C0086143', ['diap'], 0.0)||('plus', '', '', '', 0.0)||('decision analysis', 'noun', 'C0011108', ['ocdi'], 0.0)||('to', '', '', '', 0.0)||('assess', 'verb', 'C1516048', ['acty'], 0.0)||('the', '', '', '', 0.0)||('health', 'noun', 'C0018684', ['idcn'], 0.0)||('outcomes', 'noun', 'C0085415', ['qlco'], 0.0)||('and', '', '', '', 0.0)||('costs', 'verb', 'C0010186', ['qnco'], 0.0)||('of', '', '', '', 0.0)||('alternative', 'adj', 'C1523987', ['cnce'], 0.0)||('diagnostic', 'adj', 'C0011900', ['fndg'], 0.0)||('strategies', 'noun', 'C0679199', ['menp'], 0.0)||('for', '', '', '', 0.0)||('patients', 'noun', 'C0030705', ['podg'], 0.0)||('at', '', '', '', 0.0)||('intermediate', 'adj', 'C0205103', ['spco'], 0.0)||('pretest', '', '', '', 0.0)||('risk', 'noun', 'C0035647', ['qlco'], 0.0)||('for', '', '', '', 0.0)||('coronary disease', 'noun', 'C0010068', ['dsyn'], 0.0)||('.', '', '', '', 0.0)||
('studies', '', '', '', 0.0)||('of', '', '', '', 0.0)||('test', 'noun', 'C0022885', ['lbpr'], 0.0)||('accuracy', 'noun', 'C0443131', ['qlco'], 0.0)||('that', '', '', '', 0.0)||('met', '', '', '', 0.0)||('inclusion', 'noun', 'C1512693', ['qlco'], 0.0)||('criteria', 'noun', 'C0243161', ['inpr'], 0.0)||(';', '', '', '', 0.0)||
('published', 'adj', 'C0034037', ['ocac'], 0.0)||('information', 'noun', 'C1533716', ['idcn'], 0.0)||('on', '', '', '', 0.0)||('treatment', 'noun', 'C0039798', ['ftcn'], 0.0)||('effectiveness', 'noun', 'C1280519', ['qlco'], 0.0)||('and', '', '', '', 0.0)||('disease', 'noun', 'C0012634', ['dsyn'], 0.0)||('prevalence', 'noun', 'C0033105', ['qnco'], 0.0)||('.', '', '', '', 0.0)||
('men', 'noun', 'C0025266', ['popg'], 0.0)||('and', '', '', '', 0.0)||('women', 'noun', 'C0043210', ['popg'], 0.0)||('45', '', '', '', 0.0)||(',', '', '', '', 0.0)||('55', '', '', '', 0.0)||(',', '', '', '', 0.0)||('and', '', '', '', 0.0)||('65', '', '', '', 0.0)||('years', 'noun', 'C0439234', ['tmco'], 0.0)||('of', '', '', '', 0.0)||('age', 'noun', 'C0001779', ['orga'], 0.0)||('with', '', '', '', 0.0)||('a', '', '', '', 0.0)||('25 %', '', '', '', 0.0)||('to', '', '', '', 0.0)||('75 %', '', '', '', 0.0)||('pretest', '', '', '', 0.0)||('risk', 'noun', 'C0035647', ['qlco'], 0.0)||('for', '', '', '', 0.0)||('coronary disease', 'noun', 'C0010068', ['dsyn'], 0.0)||('.', '', '', '', 0.0)||
('30', '', '', '', 0.0)||('years', 'noun', 'C0439234', ['tmco'], 0.0)||('.', '', '', '', 0.0)||
('societal', '', '', '', 0.0)||('.', '', '', '', 0.0)||
('diagnostic', 'adj', 'C0011900', ['fndg'], 0.0)||('strategies', 'noun', 'C0679199', ['menp'], 0.0)||('were', '', '', '', 0.0)||('initial', 'adj', 'C0205265', ['tmco'], 0.0)||('angiography', 'noun', 'C0002978', ['diap'], 0.0)||('and', '', '', '', 0.0)||('initial', 'adj', 'C0205265', ['tmco'], 0.0)||('testing', 'noun', 'C0039593', ['ftcn'], 0.0)||('with', '', '', '', 0.0)||('one', 'noun', 'C0205447', ['qnco'], 0.0)||('of', '', '', '', 0.0)||('five', '', 'C0205451', ['qnco'], 0.0)||('noninvasive', '', '', '', 0.0)||('tests', 'noun', 'C0022885', ['lbpr'], 0.0)||('-', '', '', '', 0.0)||('-', '', '', '', 0.0)||('exercise', 'noun', 'C0015259', ['dora'], 0.0)||('treadmill', 'noun', 'C0184069', ['mnob'], 0.0)||('testing', 'noun', 'C0039593', ['ftcn'], 0.0)||(',', '', '', '', 0.0)||('planar', '', '', '', 0.0)||('thallium', 'noun', 'C0039738', ['elii'], 0.0)||('imaging', 'adj', 'C0011923', ['diap'], 0.0)||(',', '', '', '', 0.0)||('single - photon emission computed tomography', '', '', '', 0.0)||(',', '', '', '', 0.0)||('stress', 'noun', 'C0038435', ['fndg'], 0.0)||('echocardiography', 'noun', 'C0013516', ['diap'], 0.0)||(',', '', '', '', 0.0)||('and', '', '', '', 0.0)||('positron emission tomography', '', '', '', 0.0)||('-', '', '', '', 0.0)||('-', '', '', '', 0.0)||('followed', '', '', '', 0.0)||('by', '', '', '', 0.0)||('coronary angiography', 'noun', 'C0085532', ['diap'], 0.0)||('if', '', '', '', 0.0)||('noninvasive', '', '', '', 0.0)||('test', 'noun', 'C0022885', ['lbpr'], 0.0)||('results', 'noun', 'C1274040', ['ftcn'], 0.0)||('were', '', '', '', 0.0)||('positive', 'adj', 'C1446409', ['qlco'], 0.0)||('.', '', '', '', 0.0)||
('testing', 'noun', 'C0039593', ['ftcn'], 0.0)||('was', '', '', '', 0.0)||('followed', '', '', '', 0.0)||('by', '', '', '', 0.0)||('observation', 'noun', 'C0302523', ['resa'], 0.0)||(',', '', '', '', 0.0)||('medical', 'adj', 'C0205476', ['ftcn'], 0.0)||('treatment', 'noun', 'C0039798', ['ftcn'], 0.0)||(',', '', '', '', 0.0)||('or', '', '', '', 0.0)||('revascularization', '', '', '', 0.0)||('.', '', '', '', 0.0)||
('life', 'noun', 'C0376558', ['idcn'], 0.0)||('-', '', '', '', 0.0)||('years', 'noun', 'C0439234', ['tmco'], 0.0)||(',', '', '', '', 0.0)||('quality - adjusted life - years', '', '', '', 0.0)||(',', '', '', '', 0.0)||('costs', 'noun', 'C0010186', ['qnco'], 0.0)||(',', '', '', '', 0.0)||('and', '', '', '', 0.0)||('costs', 'verb', 'C0010186', ['qnco'], 0.0)||('per', '', '', '', 0.0)||('qaly', 'noun', 'C0080071', ['tmco'], 0.0)||('.', '', '', '', 0.0)||
('life expectancy', 'noun', 'C0023671', ['grpa'], 0.0)||('varied', '', '', '', 0.0)||('little', 'adj', 'C0700321', ['qnco'], 0.0)||('with', '', '', '', 0.0)||('the', '', '', '', 0.0)||('initial', 'adj', 'C0205265', ['tmco'], 0.0)||('diagnostic test', 'noun', 'C0086143', ['diap'], 0.0)||(';', '', '', '', 0.0)||
('for', '', '', '', 0.0)||('a', '', '', '', 0.0)||('55', '', '', '', 0.0)||('-', '', '', '', 0.0)||('year', 'noun', 'C0439234', ['tmco'], 0.0)||('-', '', '', '', 0.0)||('old', 'noun', 'C0580836', ['tmco'], 0.0)||('man', 'noun', 'C0024554', ['orga'], 0.0)||(',', '', '', '', 0.0)||('the', '', '', '', 0.0)||('best', 'adj', 'C1522427', ['qlco'], 0.0)||('-', '', '', '', 0.0)||('performing', 'noun', 'C1999219', ['ftcn'], 0.0)||('test', 'verb', 'C0022885', ['lbpr'], 0.0)||('increased', 'adj', 'C0205217', ['qnco'], 0.0)||('life expectancy', 'noun', 'C0023671', ['grpa'], 0.0)||('by', '', '', '', 0.0)||('7', '', '', '', 0.0)||('more', '', '', '', 0.0)||('days', 'noun', 'C0439228', ['tmco'], 0.0)||('than', '', '', '', 0.0)||('the', '', '', '', 0.0)||('worst', 'noun', 'C1522166', ['qlco'], 0.0)||('-', '', '', '', 0.0)||('performing', 'adj', 'C1999219', ['ftcn'], 0.0)||('test', 'noun', 'C0022885', ['lbpr'], 0.0)||('.', '', '', '', 0.0)||
('more', '', '', '', 0.0)||('sensitive', 'adj', 'C0332324', ['ftcn'], 0.0)||('tests', 'noun', 'C0022885', ['lbpr'], 0.0)||('increased', 'verb', 'C0205217', ['qnco'], 0.0)||('quality - adjusted life - years', '', '', '', 0.0)||('more', '', '', '', 0.0)||('.', '', '', '', 0.0)||
('echocardiography', 'noun', 'C0013516', ['diap'], 0.0)||('improved', 'verb', 'C0184511', ['qlco'], 0.0)||('health', 'noun', 'C0018684', ['idcn'], 0.0)||('outcomes', 'noun', 'C0085415', ['qlco'], 0.0)||('and', '', '', '', 0.0)||('reduced', 'adj', 'C0392756', ['qlco'], 0.0)||('costs', 'verb', 'C0010186', ['qnco'], 0.0)||('relative', 'adj', 'C0080103', ['famg'], 0.0)||('to', '', '', '', 0.0)||('stress', 'noun', 'C0038435', ['fndg'], 0.0)||('testing', 'noun', 'C0039593', ['ftcn'], 0.0)||('and', '', '', '', 0.0)||('planar', '', '', '', 0.0)||('thallium', 'noun', 'C0039738', ['elii'], 0.0)||('imaging', 'verb', 'C0011923', ['diap'], 0.0)||('.', '', '', '', 0.0)||
('the', '', '', '', 0.0)||('incremental cost - effectiveness ratio', '', '', '', 0.0)||('was', '', '', '', 0.0)||('$ 75 , 000', '', '', '', 0.0)||('/', '', '', '', 0.0)||('qaly', 'noun', 'C0080071', ['tmco'], 0.0)||('for', '', '', '', 0.0)||('single - photon emission computed tomography', '', '', '', 0.0)||('relative', 'adj', 'C0080103', ['famg'], 0.0)||('to', '', '', '', 0.0)||('echocardiography', 'noun', 'C0013516', ['diap'], 0.0)||('and', '', '', '', 0.0)||('was', '', '', '', 0.0)||('greater', 'adj', 'C1704243', ['qnco'], 0.0)||('than', '', '', '', 0.0)||('$ 640 , 000', '', '', '', 0.0)||('for', '', '', '', 0.0)||('positron emission tomography', '', '', '', 0.0)||('relative', 'adj', 'C0080103', ['famg'], 0.0)||('to', '', '', '', 0.0)||('single - photon emission computed tomography', '', '', '', 0.0)||('.', '', '', '', 0.0)||
('compared', 'verb', 'C1707455', ['acty'], 0.0)||('with', '', '', '', 0.0)||('single - photon emission computed tomography', '', '', '', 0.0)||(',', '', '', '', 0.0)||('immediate', 'adj', 'C0205253', ['tmco'], 0.0)||('angiography', 'noun', 'C0002978', ['diap'], 0.0)||('had', '', '', '', 0.0)||('an', '', '', '', 0.0)||('incremental cost - effectiveness ratio', '', '', '', 0.0)||('of', '', '', '', 0.0)||('$ 94 , 000', '', '', '', 0.0)||('/', '', '', '', 0.0)||('qaly', 'noun', 'C0080071', ['tmco'], 0.0)||('.', '', '', '', 0.0)||
('qualitative', 'adj', 'C0205556', ['qlco'], 0.0)||('findings', 'noun', 'C2607943', ['ftcn'], 0.0)||('varied', '', '', '', 0.0)||('little', 'adj', 'C0700321', ['qnco'], 0.0)||('with', '', '', '', 0.0)||('age', 'noun', 'C0001779', ['orga'], 0.0)||(',', '', '', '', 0.0)||('sex', 'noun', 'C0036864', ['bhvr'], 0.0)||(',', '', '', '', 0.0)||('pretest', '', '', '', 0.0)||('probability', 'noun', 'C0033204', ['qnco'], 0.0)||('of', '', '', '', 0.0)||('disease', 'noun', 'C0012634', ['dsyn'], 0.0)||(',', '', '', '', 0.0)||('or', '', '', '', 0.0)||('the', '', '', '', 0.0)||('test', 'noun', 'C0022885', ['lbpr'], 0.0)||('indeterminancy', '', '', '', 0.0)||('rate', 'noun', 'C0871208', ['acty'], 0.0)||('.', '', '', '', 0.0)||
('results', 'noun', 'C1274040', ['ftcn'], 0.0)||('varied', '', '', '', 0.0)||('most', '', '', '', 0.0)||('with', '', '', '', 0.0)||('sensitivity', 'noun', 'C0036667', ['qnco'], 0.0)||('to', '', '', '', 0.0)||('severe', 'adj', 'C0205082', ['qlco'], 0.0)||('coronary disease', 'noun', 'C0010068', ['dsyn'], 0.0)||('.', '', '', '', 0.0)||
('echocardiography', 'noun', 'C0013516', ['diap'], 0.0)||(',', '', '', '', 0.0)||('single - photon emission computed tomography', '', '', '', 0.0)||(',', '', '', '', 0.0)||('and', '', '', '', 0.0)||('immediate', 'adj', 'C0205253', ['tmco'], 0.0)||('angiography', 'noun', 'C0002978', ['diap'], 0.0)||('are', '', '', '', 0.0)||('cost - effective', '', '', '', 0.0)||('alternatives', '', '', '', 0.0)||('to', '', '', '', 0.0)||('positron emission tomography', '', '', '', 0.0)||('and', '', '', '', 0.0)||('other', '', '', '', 0.0)||('diagnostic', 'adj', 'C0011900', ['fndg'], 0.0)||('approaches', 'noun', 'C0449445', ['spco'], 0.0)||('.', '', '', '', 0.0)||
('test', 'noun', 'C0022885', ['lbpr'], 0.0)||('selection', 'noun', 'C0036576', ['genf'], 0.0)||('should', '', '', '', 0.0)||('reflect', '', '', '', 0.0)||('local', 'adj', 'C0205276', ['spco'], 0.0)||('variation', 'noun', 'C0205419', ['qlco'], 0.0)||('in', '', '', '', 0.0)||('test', 'noun', 'C0022885', ['lbpr'], 0.0)||('accuracy', 'noun', 'C0443131', ['qlco'], 0.0)||('.', '', '', '', 0.0)||
