('a', '', '', '', 0.0)||('randomised', '', '', '', 0.0)||('crossover trial', 'noun', 'C0150097', ['resa'], 0.0)||('was', '', '', '', 0.0)||('performed', 'verb', 'C0884358', ['ftcn'], 0.0)||('in', '', '', '', 0.0)||('55', '', '', '', 0.0)||('pregnant', 'adj', 'C0549206', ['fndg'], 0.0)||('women', 'noun', 'C0043210', ['popg'], 0.0)||('who', '', '', '', 0.0)||('complained', '', '', '', 0.0)||('of', '', '', '', 0.0)||('heartburn', 'noun', 'C0018834', ['sosy'], 0.0)||('to', '', '', '', 0.0)||('see', 'verb', 'C1947903', ['acty'], 0.0)||('whether', '', '', '', 0.0)||('alkali', 'noun', 'C0002055', ['inch'], 0.0)||('or', '', '', '', 0.0)||('acid', 'noun', 'C0001128', ['chem'], 0.0)||('treatment', 'noun', 'C0039798', ['ftcn'], 0.0)||('alleviated', '', '', '', 0.0)||('it', '', '', '', 0.0)||('.', '', '', '', 0.0)||
('each', '', '', '', 0.0)||('woman', 'noun', 'C0043210', ['popg'], 0.0)||('was', '', '', '', 0.0)||('given', '', '', '', 0.0)||('a', '', '', '', 0.0)||('week', 'noun', 'C0439230', ['tmco'], 0.0)||("' s", '', '', '', 0.0)||('treatment', 'noun', 'C0039798', ['ftcn'], 0.0)||('with', '', '', '', 0.0)||('an', '', '', '', 0.0)||('acid', 'noun', 'C0001128', ['chem'], 0.0)||('mixture', 'noun', 'C0439962', ['sbst'], 0.0)||(',', '', '', '', 0.0)||('an', '', '', '', 0.0)||('alkali', 'noun', 'C0002055', ['inch'], 0.0)||('mixture', 'noun', 'C0439962', ['sbst'], 0.0)||(',', '', '', '', 0.0)||('and', '', '', '', 0.0)||('a', '', '', '', 0.0)||('placebo', 'noun', 'C0032042', ['topp'], 0.0)||('in', '', '', '', 0.0)||('randomised', '', '', '', 0.0)||('order', 'noun', 'C1705175', ['inpr'], 0.0)||('.', '', '', '', 0.0)||
('both', '', '', '', 0.0)||('acid', 'noun', 'C0001128', ['chem'], 0.0)||('and', '', '', '', 0.0)||('alkali', 'noun', 'C0002055', ['inch'], 0.0)||('mixtures', '', '', '', 0.0)||('were', '', '', '', 0.0)||('better', 'adj', 'C0332272', ['qlco'], 0.0)||('than', '', '', '', 0.0)||('placebo', 'noun', 'C0032042', ['topp'], 0.0)||(',', '', '', '', 0.0)||('but', '', '', '', 0.0)||('there', '', '', '', 0.0)||('was', '', '', '', 0.0)||('no', '', '', '', 0.0)||('significant', 'adj', 'C0750502', ['idcn'], 0.0)||('difference', 'noun', 'C1705242', ['qlco'], 0.0)||('between', '', '', '', 0.0)||('the', '', '', '', 0.0)||('acid', 'noun', 'C0001128', ['chem'], 0.0)||('and', '', '', '', 0.0)||('alkali', 'noun', 'C0002055', ['inch'], 0.0)||('treatments', 'noun', 'C0087111', ['topp'], 0.0)||('.', '', '', '', 0.0)||
('together with', '', '', '', 0.0)||('the', '', '', '', 0.0)||('inconsistent', 'adj', 'C0442809', ['qlco'], 0.0)||('reports', 'noun', 'C0684224', ['inpr'], 0.0)||('of', '', '', '', 0.0)||('some', '', '', '', 0.0)||('patients', 'noun', 'C0030705', ['podg'], 0.0)||(',', '', '', '', 0.0)||('these', '', '', '', 0.0)||('findings', 'noun', 'C2607943', ['ftcn'], 0.0)||('suggest', 'verb', 'C1705535', ['idcn'], 0.0)||('that', '', '', '', 0.0)||('both', '', '', '', 0.0)||('acid', 'noun', 'C0001128', ['chem'], 0.0)||('reflux', 'noun', 'C0232483', ['patf'], 0.0)||('and', '', '', '', 0.0)||('bile', 'noun', 'C0005388', ['bdsu'], 0.0)||('regurgitation', 'noun', 'C0232605', ['fndg'], 0.0)||('may', '', '', '', 0.0)||('cause', 'verb', 'C1524003', ['cnce'], 0.0)||('heartburn', 'noun', 'C0018834', ['sosy'], 0.0)||('in', '', '', '', 0.0)||('pregnant', 'adj', 'C0549206', ['fndg'], 0.0)||('women', 'noun', 'C0043210', ['popg'], 0.0)||('and', '', '', '', 0.0)||('that', '', '', '', 0.0)||('other', '', '', '', 0.0)||('factors', '', '', '', 0.0)||('may', '', '', '', 0.0)||('also', '', '', '', 0.0)||('play', 'verb', 'C0032214', ['dora'], 0.0)||('a', '', '', '', 0.0)||('part', 'noun', 'C0449719', ['spco'], 0.0)||('.', '', '', '', 0.0)||
('because', '', '', '', 0.0)||('the', '', '', '', 0.0)||('cause', 'noun', 'C1524003', ['cnce'], 0.0)||('of', '', '', '', 0.0)||('heartburn', 'noun', 'C0018834', ['sosy'], 0.0)||('may', '', '', '', 0.0)||('be', '', '', '', 0.0)||('difficult', 'adj', 'C0332218', ['qlco'], 0.0)||('to', '', '', '', 0.0)||('determine', '', '', '', 0.0)||(',', '', '', '', 0.0)||('treatment', 'noun', 'C0039798', ['ftcn'], 0.0)||('should', '', '', '', 0.0)||('be', '', '', '', 0.0)||('empirical', 'adj', 'C1880496', ['qlco'], 0.0)||('.', '', '', '', 0.0)||
('if', '', '', '', 0.0)||('the', '', '', '', 0.0)||('patient', '', '', '', 0.0)||('does', '', '', '', 0.0)||('not', 'adv', 'C1518422', ['ftcn'], 0.0)||('respond', '', '', '', 0.0)||('to', '', '', '', 0.0)||('seven', '', 'C0205453', ['qnco'], 0.0)||('days', 'noun', 'C0439228', ['tmco'], 0.0)||("'", '', '', '', 0.0)||('acid', 'noun', 'C0001128', ['chem'], 0.0)||('treatment', 'noun', 'C0039798', ['ftcn'], 0.0)||('an', '', '', '', 0.0)||('alkali', 'noun', 'C0002055', ['inch'], 0.0)||('mixture', 'noun', 'C0439962', ['sbst'], 0.0)||('should', '', '', '', 0.0)||('be', '', '', '', 0.0)||('prescribed', 'verb', 'C0278329', ['hlca'], 0.0)||(';', '', '', '', 0.0)||
('there', '', '', '', 0.0)||('is', '', '', '', 0.0)||('a', '', '', '', 0.0)||('98 %', '', '', '', 0.0)||('chance', 'noun', 'C0237506', ['qlco'], 0.0)||('that', '', '', '', 0.0)||('one', 'noun', 'C0205447', ['qnco'], 0.0)||('of', '', '', '', 0.0)||('these', '', '', '', 0.0)||('treatments', 'noun', 'C0087111', ['topp'], 0.0)||('will', '', '', '', 0.0)||('relieve', '', '', '', 0.0)||('symptoms', 'noun', 'C0683368', ['ftcn'], 0.0)||('.', '', '', '', 0.0)||
