('studies', '', '', '', 0.0)||('involving', 'verb', 'C1314939', ['ftcn'], 0.0)||('topical', 'adj', 'C0205530', ['spco'], 0.0)||('agents', '', '', '', 0.0)||('are', '', '', '', 0.0)||('also', '', '', '', 0.0)||('limited', 'verb', 'C0439801', ['ftcn'], 0.0)||('.', '', '', '', 0.0)||
('according to', '', '', '', 0.0)||('an', '', '', '', 0.0)||('information', 'noun', 'C1533716', ['idcn'], 0.0)||('summary', 'noun', 'C1552616', ['inpr'], 0.0)||(',', '', '', '', 0.0)||('3', '', '', '', 0.0)||('a', '', '', '', 0.0)||('total', 'noun', 'C0439810', ['qlco'], 0.0)||('of', '', '', '', 0.0)||('4', '', '', '', 0.0)||('trials', '', '', '', 0.0)||('have', '', '', '', 0.0)||('addressed', '', '', '', 0.0)||('the', '', '', '', 0.0)||('efficacy', 'noun', 'C1707887', ['resa'], 0.0)||('of', '', '', '', 0.0)||('topical', 'adj', 'C0205530', ['spco'], 0.0)||('capsaicin', 'noun', 'C0006931', ['lipd', 'phsu'], 0.0)||('for', '', '', '', 0.0)||('neuropathic pain', 'noun', 'C0423716', ['sosy'], 0.0)||('.', '', '', '', 0.0)||
('compared', 'verb', 'C1707455', ['acty'], 0.0)||('with', '', '', '', 0.0)||('placebo', 'noun', 'C0032042', ['topp'], 0.0)||(',', '', '', '', 0.0)||('capsaicin', 'noun', 'C0006931', ['lipd', 'phsu'], 0.0)||('reduces', '', '', '', 0.0)||('pain', 'noun', 'C0030193', ['sosy'], 0.0)||('(', '', '', '', 0.0)||('nnt', 'noun', 'C1417750', ['gngm'], 0.0)||('=', '', '', '', 0.0)||('4', '', '', '', 0.0)||(';', '', '', '', 0.0)||('95 %', '', '', '', 0.0)||('ci', 'noun', 'C1417638', ['gngm'], 0.0)||(',', '', '', '', 0.0)||('2 . 9', '', '', '', 0.0)||('-', '', '', '', 0.0)||('6 . 7', '', '', '', 0.0)||(')', '', '', '', 0.0)||('.', '', '', '', 0.0)||
