('a', '', '', '', 0.0)||('well - done', '', '', '', 0.0)||('meta - analysis', '', '', '', 0.0)||('summarized', '', '', '', 0.0)||('available', 'adj', 'C0470187', ['ftcn'], 0.0)||('randomized', 'adj', 'C0034656', ['resa'], 0.0)||('placebo - controlled', '', '', '', 0.0)||('trials', '', '', '', 0.0)||('of', '', '', '', 0.0)||('antidepressants', 'noun', 'C0003289', ['phsu'], 0.0)||('(', '', '', '', 0.0)||('including', '', '', '', 0.0)||('tricyclics', 'noun', 'C0003290', ['phsu'], 0.0)||('and', '', '', '', 0.0)||('ssris', 'noun', 'C0162758', ['phsu'], 0.0)||(')', '', '', '', 0.0)||('and', '', '', '', 0.0)||('anticonvulsants', 'noun', 'C0003286', ['phsu'], 0.0)||('(', '', '', '', 0.0)||('including', '', '', '', 0.0)||('phenytoin', 'noun', 'C0031507', ['orch', 'phsu'], 0.0)||(',', '', '', '', 0.0)||('carbamazepine', 'noun', 'C0006949', ['orch', 'phsu'], 0.0)||(',', '', '', '', 0.0)||('and', '', '', '', 0.0)||('gabapentin', 'noun', 'C0060926', ['orch', 'phsu'], 0.0)||(')', '', '', '', 0.0)||('.', '', '', '', 0.0)||
('almost', '', '', '', 0.0)||('all', '', '', '', 0.0)||('trials', '', '', '', 0.0)||('compare', 'verb', 'C1707455', ['acty'], 0.0)||('individual', 'adj', 'C0027361', ['popg'], 0.0)||('agents', '', '', '', 0.0)||('against', '', '', '', 0.0)||('placebo', 'noun', 'C0032042', ['topp'], 0.0)||(',', '', '', '', 0.0)||('and', '', '', '', 0.0)||('there', '', '', '', 0.0)||('have', '', '', '', 0.0)||('been', '', '', '', 0.0)||('no', '', '', '', 0.0)||('head - to - head', '', '', '', 0.0)||('trials', '', '', '', 0.0)||('that', '', '', '', 0.0)||('address', 'verb', 'C1442065', ['spco'], 0.0)||('functional', 'adj', 'C0205245', ['ftcn'], 0.0)||('outcomes', 'noun', 'C0085415', ['qlco'], 0.0)||(',', '', '', '', 0.0)||('quality', 'noun', 'C0332306', ['qlco'], 0.0)||('of', '', '', '', 0.0)||('life', 'noun', 'C0376558', ['idcn'], 0.0)||(',', '', '', '', 0.0)||('patient', '', '', '', 0.0)||('satisfaction', 'noun', 'C0242428', ['menp'], 0.0)||(',', '', '', '', 0.0)||('or', '', '', '', 0.0)||('cost', 'noun', 'C0010186', ['qnco'], 0.0)||('.', '', '', '', 0.0)||
('most', '', '', '', 0.0)||('trials', '', '', '', 0.0)||('do', '', '', '', 0.0)||('not', 'adv', 'C1518422', ['ftcn'], 0.0)||('describe', '', '', '', 0.0)||('diagnostic', 'adj', 'C0011900', ['fndg'], 0.0)||('criteria', 'noun', 'C0243161', ['inpr'], 0.0)||(',', '', '', '', 0.0)||('consider', 'verb', 'C0750591', ['idcn'], 0.0)||('causes', 'noun', 'C0015127', ['ftcn'], 0.0)||('of', '', '', '', 0.0)||('pain', 'noun', 'C0030193', ['sosy'], 0.0)||('other than', '', '', '', 0.0)||('diabetes', 'noun', 'C0011847', ['dsyn'], 0.0)||('or', '', '', '', 0.0)||('address', 'verb', 'C1442065', ['spco'], 0.0)||('diabetic', 'adj', 'C0241863', ['fndg'], 0.0)||('control', 'noun', 'C0243148', ['qlco'], 0.0)||(',', '', '', '', 0.0)||('which', '', '', '', 0.0)||('is', '', '', '', 0.0)||('known', 'verb', 'C0205309', ['qlco'], 0.0)||('to', '', '', '', 0.0)||('predict', '', '', '', 0.0)||('frequency', 'noun', 'C0376249', ['qnco'], 0.0)||('of', '', '', '', 0.0)||('neuropathy', 'noun', 'C0442874', ['dsyn'], 0.0)||('.', '', '', '', 0.0)||
('finally', '', '', '', 0.0)||(',', '', '', '', 0.0)||('very', 'adv', 'C0442824', ['qlco'], 0.0)||('few', '', '', '', 0.0)||('trials', '', '', '', 0.0)||('include', 'verb', 'C1552866', ['idcn'], 0.0)||('typical', '', '', '', 0.0)||('primary care', 'noun', 'C0033137', ['hlca'], 0.0)||('patients', 'noun', 'C0030705', ['podg'], 0.0)||('in', '', '', '', 0.0)||('a', '', '', '', 0.0)||('primary care', 'noun', 'C0033137', ['hlca'], 0.0)||('setting', 'noun', 'C0542559', ['ftcn'], 0.0)||('or', '', '', '', 0.0)||('control', 'noun', 'C0243148', ['qlco'], 0.0)||('for', '', '', '', 0.0)||('important', '', '', '', 0.0)||('confounding', '', '', '', 0.0)||('variables', '', '', '', 0.0)||('such as', '', '', '', 0.0)||('over - the - counter', '', '', '', 0.0)||('medications', 'noun', 'C0013227', ['phsu'], 0.0)||('or', '', '', '', 0.0)||('comorbid', '', '', '', 0.0)||('illnesses', '', '', '', 0.0)||('.', '', '', '', 0.0)||
('within', '', '', '', 0.0)||('the', '', '', '', 0.0)||('constraints', '', '', '', 0.0)||('of', '', '', '', 0.0)||('this', '', '', '', 0.0)||('literature', 'noun', 'C0023866', ['inpr'], 0.0)||(',', '', '', '', 0.0)||('placebos', 'noun', 'C0032042', ['topp'], 0.0)||('have', '', '', '', 0.0)||('a', '', '', '', 0.0)||('substantial', '', '', '', 0.0)||('impact', '', '', '', 0.0)||(',', '', '', '', 0.0)||('with', '', '', '', 0.0)||('an', '', '', '', 0.0)||('aggregate', 'noun', 'C0205418', ['qlco'], 0.0)||('32 %', '', '', '', 0.0)||('of', '', '', '', 0.0)||('patients', 'noun', 'C0030705', ['podg'], 0.0)||('receiving', '', '', '', 0.0)||('placebo', 'noun', 'C0032042', ['topp'], 0.0)||('reporting', 'verb', 'C0700287', ['hlca'], 0.0)||('at', '', '', '', 0.0)||('least', '', '', '', 0.0)||('50 %', '', '', '', 0.0)||('reduction', 'noun', 'C0301630', ['npop'], 0.0)||('in', '', '', '', 0.0)||('pain', 'noun', 'C0030193', ['sosy'], 0.0)||('.', '', '', '', 0.0)||
('a', '', '', '', 0.0)||('total', 'noun', 'C0439810', ['qlco'], 0.0)||('of', '', '', '', 0.0)||('16', '', '', '', 0.0)||('trials', '', '', '', 0.0)||('have', '', '', '', 0.0)||('addressed', '', '', '', 0.0)||('the', '', '', '', 0.0)||('efficacy', 'noun', 'C1707887', ['resa'], 0.0)||('of', '', '', '', 0.0)||('antidepressants', 'noun', 'C0003289', ['phsu'], 0.0)||('for', '', '', '', 0.0)||('diabetic neuropathy', '', '', '', 0.0)||('.', '', '', '', 0.0)||
('compared', 'verb', 'C1707455', ['acty'], 0.0)||('with', '', '', '', 0.0)||('placebo', 'noun', 'C0032042', ['topp'], 0.0)||(',', '', '', '', 0.0)||('tricyclic antidepressants', '', '', '', 0.0)||('have', '', '', '', 0.0)||('an', '', '', '', 0.0)||('aggregate', 'noun', 'C0205418', ['qlco'], 0.0)||('nnt', 'noun', 'C1417750', ['gngm'], 0.0)||('of', '', '', '', 0.0)||('3 . 5', '', '', '', 0.0)||('(', '', '', '', 0.0)||('95 %', '', '', '', 0.0)||('confidence interval', 'noun', 'C0009667', ['qnco'], 0.0)||(',', '', '', '', 0.0)||('2 . 6', '', '', '', 0.0)||('-', '', '', '', 0.0)||('4 . 7', '', '', '', 0.0)||(')', '', '', '', 0.0)||('for', '', '', '', 0.0)||('patients', 'noun', 'C0030705', ['podg'], 0.0)||('reporting', 'verb', 'C0700287', ['hlca'], 0.0)||('at', '', '', '', 0.0)||('least', '', '', '', 0.0)||('50 %', '', '', '', 0.0)||('reduction', 'noun', 'C0301630', ['npop'], 0.0)||('of', '', '', '', 0.0)||('pain', 'noun', 'C0030193', ['sosy'], 0.0)||(',', '', '', '', 0.0)||('along', '', '', '', 0.0)||('with', '', '', '', 0.0)||('an', '', '', '', 0.0)||('nnh', 'noun', 'C1850406', ['dsyn'], 0.0)||('of', '', '', '', 0.0)||('2 . 7', '', '', '', 0.0)||('(', '', '', '', 0.0)||('95 %', '', '', '', 0.0)||('confidence interval', 'noun', 'C0009667', ['qnco'], 0.0)||(',', '', '', '', 0.0)||('2 . 1', '', '', '', 0.0)||('-', '', '', '', 0.0)||('3 . 9', '', '', '', 0.0)||(')', '', '', '', 0.0)||('for', '', '', '', 0.0)||('minor', 'adj', 'C0026193', ['popg'], 0.0)||('adverse effects', 'noun', 'C0001688', ['ftcn'], 0.0)||('(', '', '', '', 0.0)||('typically', '', '', '', 0.0)||('the', '', '', '', 0.0)||('muscarinic', '', '', '', 0.0)||('effects', '', '', '', 0.0)||('of', '', '', '', 0.0)||('dry mouth', 'noun', 'C0043352', ['dsyn'], 0.0)||(',', '', '', '', 0.0)||('constipation', 'noun', 'C0009806', ['sosy'], 0.0)||(',', '', '', '', 0.0)||('and', '', '', '', 0.0)||('blurred vision', 'noun', 'C0344232', ['sosy'], 0.0)||(')', '', '', '', 0.0)||('and', '', '', '', 0.0)||('17', '', '', '', 0.0)||('(', '', '', '', 0.0)||('95 %', '', '', '', 0.0)||('confidence interval', 'noun', 'C0009667', ['qnco'], 0.0)||(',', '', '', '', 0.0)||('10', '', '', '', 0.0)||('-', '', '', '', 0.0)||('43', '', '', '', 0.0)||(')', '', '', '', 0.0)||('for', '', '', '', 0.0)||('side effects', 'noun', 'C0001688', ['ftcn'], 0.0)||('severe', 'adj', 'C0205082', ['qlco'], 0.0)||('enough', '', '', '', 0.0)||('to', '', '', '', 0.0)||('cause', 'verb', 'C1524003', ['cnce'], 0.0)||('withdrawal', 'noun', 'C0237955', ['menp'], 0.0)||('from', '', '', '', 0.0)||('a', '', '', '', 0.0)||('trial', 'noun', 'C0008976', ['resa'], 0.0)||('.', '', '', '', 0.0)||
('dosages', 'noun', 'C0178602', ['qnco'], 0.0)||('were', '', '', '', 0.0)||('in', '', '', '', 0.0)||('the', '', '', '', 0.0)||('low', 'adj', 'C0205251', ['qlco'], 0.0)||('to', '', '', '', 0.0)||('middle', 'adj', 'C0444598', ['spco'], 0.0)||('range', 'noun', 'C1514721', ['qnco'], 0.0)||('of', '', '', '', 0.0)||('those', '', '', '', 0.0)||('used', '', '', '', 0.0)||('to', '', '', '', 0.0)||('treat', 'verb', 'C1292734', ['ftcn'], 0.0)||('depression', 'noun', 'C0011570', ['mobd'], 0.0)||(';', '', '', '', 0.0)||
('there', '', '', '', 0.0)||('was', '', '', '', 0.0)||('no', '', '', '', 0.0)||('significant', 'adj', 'C0750502', ['idcn'], 0.0)||('difference', 'noun', 'C1705242', ['qlco'], 0.0)||('in', '', '', '', 0.0)||('efficacy', 'noun', 'C1707887', ['resa'], 0.0)||('between', '', '', '', 0.0)||('trials', '', '', '', 0.0)||('less', '', '', '', 0.0)||('than', '', '', '', 0.0)||('3', '', '', '', 0.0)||('weeks', 'noun', 'C0439230', ['tmco'], 0.0)||('and', '', '', '', 0.0)||('those', '', '', '', 0.0)||('greater', 'adj', 'C1704243', ['qnco'], 0.0)||('than', '', '', '', 0.0)||('3', '', '', '', 0.0)||('weeks', 'noun', 'C0439230', ['tmco'], 0.0)||('.', '', '', '', 0.0)||
('a', '', '', '', 0.0)||('total', 'noun', 'C0439810', ['qlco'], 0.0)||('of', '', '', '', 0.0)||('4', '', '', '', 0.0)||('randomized', 'adj', 'C0034656', ['resa'], 0.0)||('placebo - controlled', '', '', '', 0.0)||('trials', '', '', '', 0.0)||('(', '', '', '', 0.0)||('1', '', '', '', 0.0)||('each', '', '', '', 0.0)||('for', '', '', '', 0.0)||('phenytoin', 'noun', 'C0031507', ['orch', 'phsu'], 0.0)||('[', '', '', '', 0.0)||('dilantin', 'noun', 'C0699512', ['orch', 'phsu'], 0.0)||(']', '', '', '', 0.0)||(',', '', '', '', 0.0)||('carbamazepine', 'noun', 'C0006949', ['orch', 'phsu'], 0.0)||('[', '', '', '', 0.0)||('tegretol', 'noun', 'C0700087', ['orch', 'phsu'], 0.0)||(']', '', '', '', 0.0)||(',', '', '', '', 0.0)||('gabapentin', 'noun', 'C0060926', ['orch', 'phsu'], 0.0)||('[', '', '', '', 0.0)||('neurontin', 'noun', 'C0678176', ['orch', 'phsu'], 0.0)||(']', '', '', '', 0.0)||(',', '', '', '', 0.0)||('and', '', '', '', 0.0)||('valproate', 'noun', 'C0080356', ['lipd', 'phsu'], 0.0)||('[', '', '', '', 0.0)||('depakote', 'noun', 'C0719751', ['lipd', 'phsu'], 0.0)||(']', '', '', '', 0.0)||(')', '', '', '', 0.0)||('have', '', '', '', 0.0)||('extractable', '', '', '', 0.0)||('data', 'noun', 'C1511726', ['idcn'], 0.0)||('about', '', '', '', 0.0)||('the', '', '', '', 0.0)||('efficacy', 'noun', 'C1707887', ['resa'], 0.0)||('of', '', '', '', 0.0)||('anticonvulsants', 'noun', 'C0003286', ['phsu'], 0.0)||('for', '', '', '', 0.0)||('the', '', '', '', 0.0)||('pain', 'noun', 'C0030193', ['sosy'], 0.0)||('of', '', '', '', 0.0)||('diabetic neuropathy', '', '', '', 0.0)||('.', '', '', '', 0.0)||
('as', '', '', '', 0.0)||('a', '', '', '', 0.0)||('class', 'noun', 'C0456387', ['inpr'], 0.0)||(',', '', '', '', 0.0)||('the', '', '', '', 0.0)||('nnt', 'noun', 'C1417750', ['gngm'], 0.0)||('for', '', '', '', 0.0)||('patients', 'noun', 'C0030705', ['podg'], 0.0)||('reporting', 'verb', 'C0700287', ['hlca'], 0.0)||('at', '', '', '', 0.0)||('least', '', '', '', 0.0)||('a', '', '', '', 0.0)||('50 %', '', '', '', 0.0)||('reduction', 'noun', 'C0301630', ['npop'], 0.0)||('in', '', '', '', 0.0)||('pain', 'noun', 'C0030193', ['sosy'], 0.0)||('was', '', '', '', 0.0)||('2 . 7', '', '', '', 0.0)||('(', '', '', '', 0.0)||('95 %', '', '', '', 0.0)||('confidence interval', 'noun', 'C0009667', ['qnco'], 0.0)||(',', '', '', '', 0.0)||('2 . 2', '', '', '', 0.0)||('-', '', '', '', 0.0)||('3 . 8', '', '', '', 0.0)||(')', '', '', '', 0.0)||(';', '', '', '', 0.0)||
('the', '', '', '', 0.0)||('nnh', 'noun', 'C1850406', ['dsyn'], 0.0)||('for', '', '', '', 0.0)||('minor', 'adj', 'C0026193', ['popg'], 0.0)||('adverse effects', 'noun', 'C0001688', ['ftcn'], 0.0)||('(', '', '', '', 0.0)||('typically', '', '', '', 0.0)||('transient', 'adj', 'C0040704', ['popg'], 0.0)||('central nervous system', 'noun', 'C0927232', ['bdsy'], 0.0)||('effect', 'noun', 'C1280500', ['qlco'], 0.0)||('such as', '', '', '', 0.0)||('dizziness', 'noun', 'C0012833', ['sosy'], 0.0)||(',', '', '', '', 0.0)||('somnolence', 'noun', 'C0013144', ['fndg'], 0.0)||(',', '', '', '', 0.0)||('or', '', '', '', 0.0)||('disturbance', 'noun', 'C2699787', ['qlco'], 0.0)||('in', '', '', '', 0.0)||('gait', 'noun', 'C0016928', ['fndg'], 0.0)||(')', '', '', '', 0.0)||('was', '', '', '', 0.0)||('2 . 7', '', '', '', 0.0)||('(', '', '', '', 0.0)||('95 %', '', '', '', 0.0)||('confidence interval', 'noun', 'C0009667', ['qnco'], 0.0)||(',', '', '', '', 0.0)||('2 . 2', '', '', '', 0.0)||('-', '', '', '', 0.0)||('3 . 4', '', '', '', 0.0)||(')', '', '', '', 0.0)||('.', '', '', '', 0.0)||
