('this', '', '', '', 0.0)||('updated', '', '', '', 0.0)||('statement', 'noun', 'C1710187', ['idcn'], 0.0)||('reviews', '', '', '', 0.0)||('the', '', '', '', 0.0)||('scientific', 'adj', 'C0036397', ['ocdi'], 0.0)||('justification', 'noun', 'C0392360', ['idcn'], 0.0)||('for', '', '', '', 0.0)||('the', '', '', '', 0.0)||('recommendations', 'noun', 'C0034866', ['idcn'], 0.0)||('of', '', '', '', 0.0)||('dietary', 'adj', 'C0012155', ['food'], 0.0)||('changes', '', '', '', 0.0)||('in', '', '', '', 0.0)||('all', '', '', '', 0.0)||('healthy', '', '', '', 0.0)||('children', 'noun', 'C0008059', ['aggp'], 0.0)||('(', '', '', '', 0.0)||('a', '', '', '', 0.0)||('population', 'noun', 'C0032659', ['qnco'], 0.0)||('approach', 'noun', 'C0449445', ['spco'], 0.0)||(')', '', '', '', 0.0)||('and', '', '', '', 0.0)||('a', '', '', '', 0.0)||('strategy', 'noun', 'C0679199', ['menp'], 0.0)||('to', '', '', '', 0.0)||('identify', '', '', '', 0.0)||('and', '', '', '', 0.0)||('treat', 'verb', 'C1292734', ['ftcn'], 0.0)||('children', 'noun', 'C0008059', ['aggp'], 0.0)||('who', '', '', '', 0.0)||('are', '', '', '', 0.0)||('at', '', '', '', 0.0)||('highest risk', '', '', '', 0.0)||('for', '', '', '', 0.0)||('the', '', '', '', 0.0)||('development', 'noun', 'C0020119', ['phsf'], 0.0)||('of', '', '', '', 0.0)||('accelerated', 'adj', 'C0521110', ['ftcn'], 0.0)||('atherosclerosis', 'noun', 'C0004153', ['dsyn'], 0.0)||('in', '', '', '', 0.0)||('early', 'adj', 'C1279919', ['tmco'], 0.0)||('adult', 'noun', 'C0001675', ['aggp'], 0.0)||('life', 'noun', 'C0376558', ['idcn'], 0.0)||('(', '', '', '', 0.0)||('an', '', '', '', 0.0)||('individualized', 'adj', 'C1881197', ['qlco'], 0.0)||('approach', 'noun', 'C0449445', ['spco'], 0.0)||(')', '', '', '', 0.0)||('.', '', '', '', 0.0)||
('although', '', '', '', 0.0)||('the', '', '', '', 0.0)||('precise', '', '', '', 0.0)||('fraction', 'noun', 'C1264633', ['qnco'], 0.0)||('of', '', '', '', 0.0)||('risk', 'noun', 'C0035647', ['qlco'], 0.0)||('for', '', '', '', 0.0)||('future', 'adj', 'C0016884', ['tmco'], 0.0)||('coronary heart disease', 'noun', 'C0010068', ['dsyn'], 0.0)||('conveyed', '', '', '', 0.0)||('by', '', '', '', 0.0)||('elevated', 'adj', 'C0205250', ['qlco'], 0.0)||('cholesterol levels', '', '', '', 0.0)||('in', '', '', '', 0.0)||('childhood', 'noun', 'C0231335', ['tmco'], 0.0)||('is', '', '', '', 0.0)||('unknown', 'verb', 'C0439673', ['idcn'], 0.0)||(',', '', '', '', 0.0)||('clear', 'adj', 'C0522503', ['qlco'], 0.0)||('epidemiologic', 'adj', 'C0014507', ['bmod'], 0.0)||('and', '', '', '', 0.0)||('experimental', 'adj', 'C1517004', ['ftcn'], 0.0)||('evidence', 'noun', 'C0332120', ['ftcn'], 0.0)||('indicates', '', '', '', 0.0)||('tha', '', '', '', 0.0)||('the', '', '', '', 0.0)||('risk', 'noun', 'C0035647', ['qlco'], 0.0)||('is', '', '', '', 0.0)||('significant', 'adj', 'C0750502', ['idcn'], 0.0)||('.', '', '', '', 0.0)||
('diet', 'noun', 'C0012155', ['food'], 0.0)||('changes', '', '', '', 0.0)||('that', '', '', '', 0.0)||('lower fat', '', '', '', 0.0)||(',', '', '', '', 0.0)||('saturated fat', 'noun', 'C0597423', ['lipd'], 0.0)||(',', '', '', '', 0.0)||('and', '', '', '', 0.0)||('cholesterol', 'noun', 'C0008377', ['bacs', 'strd'], 0.0)||('intake', 'noun', 'C1512806', ['ftcn'], 0.0)||('in', '', '', '', 0.0)||('children', 'noun', 'C0008059', ['aggp'], 0.0)||('and', '', '', '', 0.0)||('adolescents', 'noun', 'C0205653', ['aggp'], 0.0)||('can', '', '', '', 0.0)||('be', '', '', '', 0.0)||('applied', 'verb', 'C0185125', ['hlca'], 0.0)||('safely', '', '', '', 0.0)||('and', '', '', '', 0.0)||('acceptably', '', '', '', 0.0)||(',', '', '', '', 0.0)||('resulting', '', '', '', 0.0)||('in', '', '', '', 0.0)||('improved', 'adj', 'C0184511', ['qlco'], 0.0)||('plasma', 'noun', 'C0032105', ['bdsu'], 0.0)||('lipid', 'noun', 'C0023779', ['lipd'], 0.0)||('profiles', '', '', '', 0.0)||('that', '', '', '', 0.0)||(',', '', '', '', 0.0)||('if', '', '', '', 0.0)||('carried', '', '', '', 0.0)||('into', '', '', '', 0.0)||('adult', 'noun', 'C0001675', ['aggp'], 0.0)||('life', 'noun', 'C0376558', ['idcn'], 0.0)||('have', '', '', '', 0.0)||('the', '', '', '', 0.0)||('potential', 'adj', 'C0035647', ['qlco'], 0.0)||('to', '', '', '', 0.0)||('reduce', '', '', '', 0.0)||('atherosclerotic vascular disease', 'noun', 'C0004153', ['dsyn'], 0.0)||('.', '', '', '', 0.0)||
