('(', '', '', '', 0.0)||('1', '', '', '', 0.0)||(')', '', '', '', 0.0)||('to', '', '', '', 0.0)||('propose', '', '', '', 0.0)||('definitions', '', '', '', 0.0)||('for', '', '', '', 0.0)||('the', '', '', '', 0.0)||('discretionary', '', '', '', 0.0)||('screening', 'adj', 'C0220908', ['hlca'], 0.0)||('indicators', 'noun', 'C0021212', ['irda'], 0.0)||('described', 'verb', 'C1552738', ['idcn'], 0.0)||('by', '', '', '', 0.0)||('the', '', '', '', 0.0)||('national', '', '', '', 0.0)||('cholesterol', 'noun', 'C0008377', ['bacs', 'strd'], 0.0)||('education', 'noun', 'C0013621', ['edac'], 0.0)||('program', 'noun', 'C1709697', ['cnce'], 0.0)||('for', '', '', '', 0.0)||('children', 'noun', 'C0008059', ['aggp'], 0.0)||('and', '', '', '', 0.0)||('adolescents', 'noun', 'C0205653', ['aggp'], 0.0)||('(', '', '', '', 0.0)||('ncep', '', '', '', 0.0)||('-', '', '', '', 0.0)||('peds', '', '', '', 0.0)||(')', '', '', '', 0.0)||(';', '', '', '', 0.0)||
('(', '', '', '', 0.0)||('2', '', '', '', 0.0)||(')', '', '', '', 0.0)||('to', '', '', '', 0.0)||('examine', '', '', '', 0.0)||('the', '', '', '', 0.0)||('relative', 'adj', 'C0080103', ['famg'], 0.0)||('prevalence', 'noun', 'C0033105', ['qnco'], 0.0)||('of', '', '', '', 0.0)||('major', 'adj', 'C0205164', ['qlco'], 0.0)||('screening', 'adj', 'C0220908', ['hlca'], 0.0)||('indicators', 'noun', 'C0021212', ['irda'], 0.0)||('(', '', '', '', 0.0)||('family history', 'noun', 'C0241889', ['fndg'], 0.0)||('of', '', '', '', 0.0)||('premature', 'adj', 'C0205252', ['tmco'], 0.0)||('heart disease', 'noun', 'C0018799', ['dsyn'], 0.0)||('and', '', '', '', 0.0)||('parental', 'adj', 'C0030551', ['famg'], 0.0)||('plasma', 'noun', 'C0032105', ['bdsu'], 0.0)||('cholesterol', 'noun', 'C0008377', ['bacs', 'strd'], 0.0)||('concentration', 'noun', 'C0086045', ['menp'], 0.0)||('>', '', '', '', 0.0)||('or', '', '', '', 0.0)||('=', '', '', '', 0.0)||('6 . 21', '', '', '', 0.0)||('mmol', '', '', '', 0.0)||('/', '', '', '', 0.0)||('l (', '', '', '', 0.0)||('240', '', '', '', 0.0)||('mg', '', '', '', 0.0)||('/', '', '', '', 0.0)||('dl', '', '', '', 0.0)||(')', '', '', '', 0.0)||(')', '', '', '', 0.0)||('and', '', '', '', 0.0)||('discretionary', '', '', '', 0.0)||('screening', 'adj', 'C0220908', ['hlca'], 0.0)||('indicators', 'noun', 'C0021212', ['irda'], 0.0)||('(', '', '', '', 0.0)||('excessive', 'adj', 'C0442802', ['qlco'], 0.0)||('consumption', 'noun', 'C0009830', ['acty'], 0.0)||('of', '', '', '', 0.0)||('fat', 'noun', 'C0424612', ['orga'], 0.0)||('or', '', '', '', 0.0)||('cholesterol', 'noun', 'C0008377', ['bacs', 'strd'], 0.0)||('or', '', '', '', 0.0)||('both', '', '', '', 0.0)||(',', '', '', '', 0.0)||('smoking', 'verb', 'C0037369', ['inbe'], 0.0)||(',', '', '', '', 0.0)||('diabetes', 'noun', 'C0011847', ['dsyn'], 0.0)||(',', '', '', '', 0.0)||('hypertension', 'noun', 'C0020538', ['dsyn'], 0.0)||(',', '', '', '', 0.0)||('and', '', '', '', 0.0)||('steroid', 'noun', 'C0038317', ['strd'], 0.0)||('use', 'noun', 'C0042153', ['ftcn'], 0.0)||(')', '', '', '', 0.0)||('in', '', '', '', 0.0)||('a', '', '', '', 0.0)||('family', 'noun', 'C0015576', ['famg'], 0.0)||('population', 'noun', 'C0032659', ['qnco'], 0.0)||(';', '', '', '', 0.0)||
('and', '', '', '', 0.0)||('(', '', '', '', 0.0)||('3', '', '', '', 0.0)||(')', '', '', '', 0.0)||('to', '', '', '', 0.0)||('evaluate', 'verb', 'C0220825', ['ftcn'], 0.0)||('the', '', '', '', 0.0)||('relative', 'adj', 'C0080103', ['famg'], 0.0)||('value', 'noun', 'C0042295', ['qlco'], 0.0)||('of', '', '', '', 0.0)||('the', '', '', '', 0.0)||('major', 'adj', 'C0205164', ['qlco'], 0.0)||('and', '', '', '', 0.0)||('the', '', '', '', 0.0)||('discretionary', '', '', '', 0.0)||('indicators', 'noun', 'C0021212', ['irda'], 0.0)||('in', '', '', '', 0.0)||('detecting', '', '', '', 0.0)||('high', 'adj', 'C0205250', ['qlco'], 0.0)||('serum levels', '', '', '', 0.0)||('of', '', '', '', 0.0)||('low - density lipoprotein - cholesterol', '', '', '', 0.0)||('(', '', '', '', 0.0)||('ldl - c', '', '', '', 0.0)||(')', '', '', '', 0.0)||('(', '', '', '', 0.0)||('>', '', '', '', 0.0)||('or', '', '', '', 0.0)||('=', '', '', '', 0.0)||('3 . 36', '', '', '', 0.0)||('mmol', '', '', '', 0.0)||('/', '', '', '', 0.0)||('l ( >', '', '', '', 0.0)||('or', '', '', '', 0.0)||('=', '', '', '', 0.0)||('130', '', '', '', 0.0)||('mg', '', '', '', 0.0)||('/', '', '', '', 0.0)||('dl', '', '', '', 0.0)||(')', '', '', '', 0.0)||(')', '', '', '', 0.0)||('.', '', '', '', 0.0)||
('control', 'noun', 'C0243148', ['qlco'], 0.0)||('cohort', 'noun', 'C0599755', ['popg'], 0.0)||('from', '', '', '', 0.0)||('a', '', '', '', 0.0)||('case - control study', '', '', '', 0.0)||('.', '', '', '', 0.0)||
('lipid', 'noun', 'C0023779', ['lipd'], 0.0)||('research', 'noun', 'C0035168', ['resa'], 0.0)||('clinic', 'noun', 'C0002424', ['hcro', 'mnob'], 0.0)||('.', '', '', '', 0.0)||
('white children', '', '', '', 0.0)||('and', '', '', '', 0.0)||('adolescents', 'noun', 'C0205653', ['aggp'], 0.0)||('<', '', '', '', 0.0)||('20', '', '', '', 0.0)||('years', 'noun', 'C0439234', ['tmco'], 0.0)||('of', '', '', '', 0.0)||('age', 'noun', 'C0001779', ['orga'], 0.0)||('from', '', '', '', 0.0)||('232', '', '', '', 0.0)||('nuclear families', '', '', '', 0.0)||('who', '', '', '', 0.0)||('participated', '', '', '', 0.0)||('in', '', '', '', 0.0)||('the', '', '', '', 0.0)||('cincinnati', '', '', '', 0.0)||('myocardial infarction', 'noun', 'C0027051', ['dsyn'], 0.0)||('hormone', 'noun', 'C0019932', ['horm'], 0.0)||('study', 'noun', 'C0008976', ['resa'], 0.0)||('.', '', '', '', 0.0)||
('(', '', '', '', 0.0)||('1', '', '', '', 0.0)||(')', '', '', '', 0.0)||('number', 'noun', 'C0449788', ['qnco'], 0.0)||('of', '', '', '', 0.0)||('children', 'noun', 'C0008059', ['aggp'], 0.0)||('who', '', '', '', 0.0)||('have', '', '', '', 0.0)||('major', 'adj', 'C0205164', ['qlco'], 0.0)||('and', '', '', '', 0.0)||('discretionary', '', '', '', 0.0)||('screening', 'adj', 'C0220908', ['hlca'], 0.0)||('indicators', 'noun', 'C0021212', ['irda'], 0.0)||(';', '', '', '', 0.0)||
('(', '', '', '', 0.0)||('2', '', '', '', 0.0)||(')', '', '', '', 0.0)||('sensitivity and specificity', 'noun', 'C0036668', ['qnco'], 0.0)||('of', '', '', '', 0.0)||('the', '', '', '', 0.0)||('major', 'adj', 'C0205164', ['qlco'], 0.0)||('and', '', '', '', 0.0)||('the', '', '', '', 0.0)||('discretionary', '', '', '', 0.0)||('screening', 'adj', 'C0220908', ['hlca'], 0.0)||('indicators', 'noun', 'C0021212', ['irda'], 0.0)||('in', '', '', '', 0.0)||('identifying', 'adj', 'C0205396', ['qlco'], 0.0)||('children', 'noun', 'C0008059', ['aggp'], 0.0)||('with', '', '', '', 0.0)||('ldl - c', '', '', '', 0.0)||('concentrations', 'noun', 'C0086045', ['menp'], 0.0)||('>', '', '', '', 0.0)||('3 . 36', '', '', '', 0.0)||('mmol', '', '', '', 0.0)||('/', '', '', '', 0.0)||('l (', '', '', '', 0.0)||('130', '', '', '', 0.0)||('mg', '', '', '', 0.0)||('/', '', '', '', 0.0)||('dl', '', '', '', 0.0)||(')', '', '', '', 0.0)||('(', '', '', '', 0.0)||('high', 'adj', 'C0205250', ['qlco'], 0.0)||('ldl - c', '', '', '', 0.0)||(')', '', '', '', 0.0)||('.', '', '', '', 0.0)||
('with', '', '', '', 0.0)||('cutoff', 'noun', 'C1442160', ['ftcn'], 0.0)||('points', '', '', '', 0.0)||('of', '', '', '', 0.0)||('the', '', '', '', 0.0)||('90th', '', '', '', 0.0)||('percentile', 'noun', 'C1264641', ['qnco'], 0.0)||('for', '', '', '', 0.0)||('blood pressure', 'noun', 'C0005823', ['orgf'], 0.0)||(',', '', '', '', 0.0)||('the', '', '', '', 0.0)||('85th', '', '', '', 0.0)||('percentile', 'noun', 'C1264641', ['qnco'], 0.0)||('for', '', '', '', 0.0)||('obesity', 'noun', 'C0028754', ['dsyn'], 0.0)||(',', '', '', '', 0.0)||('and', '', '', '', 0.0)||('the', '', '', '', 0.0)||('80th', '', '', '', 0.0)||('percentile', 'noun', 'C1264641', ['qnco'], 0.0)||('for', '', '', '', 0.0)||('dietary fat', 'noun', 'C1527016', ['resa'], 0.0)||('and', '', '', '', 0.0)||('cholesterol', 'noun', 'C0008377', ['bacs', 'strd'], 0.0)||(',', '', '', '', 0.0)||('and', '', '', '', 0.0)||('self - report', '', '', '', 0.0)||('for', '', '', '', 0.0)||('diabetes', 'noun', 'C0011847', ['dsyn'], 0.0)||(',', '', '', '', 0.0)||('smoking', 'verb', 'C0037369', ['inbe'], 0.0)||(',', '', '', '', 0.0)||('and', '', '', '', 0.0)||('corticosteroid', 'noun', 'C0001617', ['horm', 'phsu', 'strd'], 0.0)||('use', 'noun', 'C0042153', ['ftcn'], 0.0)||(',', '', '', '', 0.0)||('54 %', '', '', '', 0.0)||('of', '', '', '', 0.0)||('the', '', '', '', 0.0)||('232', '', '', '', 0.0)||('children', 'noun', 'C0008059', ['aggp'], 0.0)||('in', '', '', '', 0.0)||('the', '', '', '', 0.0)||('cohort', 'noun', 'C0599755', ['popg'], 0.0)||('had', '', '', '', 0.0)||('one', 'noun', 'C0205447', ['qnco'], 0.0)||('or', '', '', '', 0.0)||('more', '', '', '', 0.0)||('discretionary', '', '', '', 0.0)||('indicators', 'noun', 'C0021212', ['irda'], 0.0)||('.', '', '', '', 0.0)||
('additionally', '', '', '', 0.0)||(',', '', '', '', 0.0)||('applying', 'verb', 'C0185125', ['hlca'], 0.0)||('the', '', '', '', 0.0)||('major', 'adj', 'C0205164', ['qlco'], 0.0)||('screening', 'adj', 'C0220908', ['hlca'], 0.0)||('indicators', 'noun', 'C0021212', ['irda'], 0.0)||('raised', 'verb', 'C0442818', ['qnco'], 0.0)||('the', '', '', '', 0.0)||('percentage', 'noun', 'C0439165', ['qnco'], 0.0)||('of', '', '', '', 0.0)||('children', 'noun', 'C0008059', ['aggp'], 0.0)||('identified', 'verb', 'C0205396', ['qlco'], 0.0)||('to', '', '', '', 0.0)||('74 %', '', '', '', 0.0)||('.', '', '', '', 0.0)||
('twenty - eight', '', '', '', 0.0)||('percent', 'noun', 'C0439165', ['qnco'], 0.0)||('had', '', '', '', 0.0)||('both', '', '', '', 0.0)||('major', 'adj', 'C0205164', ['qlco'], 0.0)||('and', '', '', '', 0.0)||('discretionary', '', '', '', 0.0)||('indicators', 'noun', 'C0021212', ['irda'], 0.0)||('.', '', '', '', 0.0)||
('having', '', '', '', 0.0)||('a', '', '', '', 0.0)||('discretionary', '', '', '', 0.0)||('screening', 'adj', 'C0220908', ['hlca'], 0.0)||('indicator', 'noun', 'C1235732', ['bird'], 0.0)||('did', '', '', '', 0.0)||('not', 'adv', 'C1518422', ['ftcn'], 0.0)||('increase', 'verb', 'C0442805', ['ftcn'], 0.0)||('the', '', '', '', 0.0)||('probability', 'noun', 'C0033204', ['qnco'], 0.0)||('of', '', '', '', 0.0)||('having', '', '', '', 0.0)||('a', '', '', '', 0.0)||('major', 'adj', 'C0205164', ['qlco'], 0.0)||('indicator', 'noun', 'C1235732', ['bird'], 0.0)||('.', '', '', '', 0.0)||
('applying', 'noun', 'C0185125', ['hlca'], 0.0)||('both', '', '', '', 0.0)||('discretionary', '', '', '', 0.0)||('and', '', '', '', 0.0)||('major', 'adj', 'C0205164', ['qlco'], 0.0)||('screening', 'adj', 'C0220908', ['hlca'], 0.0)||('indicators', 'noun', 'C0021212', ['irda'], 0.0)||('to', '', '', '', 0.0)||('the', '', '', '', 0.0)||('cohort', 'noun', 'C0599755', ['popg'], 0.0)||('identified', 'verb', 'C0205396', ['qlco'], 0.0)||('96 %', '', '', '', 0.0)||('of', '', '', '', 0.0)||('the', '', '', '', 0.0)||('children', 'noun', 'C0008059', ['aggp'], 0.0)||('who', '', '', '', 0.0)||('had', '', '', '', 0.0)||('a', '', '', '', 0.0)||('high', 'adj', 'C0205250', ['qlco'], 0.0)||('concentration', 'noun', 'C0086045', ['menp'], 0.0)||('of', '', '', '', 0.0)||('ldl - c', '', '', '', 0.0)||(';', '', '', '', 0.0)||
('30 %', '', '', '', 0.0)||('of', '', '', '', 0.0)||('the', '', '', '', 0.0)||('children', 'noun', 'C0008059', ['aggp'], 0.0)||('with', '', '', '', 0.0)||('high', 'adj', 'C0205250', ['qlco'], 0.0)||('ldl - c levels', '', '', '', 0.0)||('were', '', '', '', 0.0)||('discovered', '', '', '', 0.0)||('solely', '', '', '', 0.0)||('by', '', '', '', 0.0)||('the', '', '', '', 0.0)||('discretionary', '', '', '', 0.0)||('indicators', 'noun', 'C0021212', ['irda'], 0.0)||('.', '', '', '', 0.0)||
('similar', 'adj', 'C2348205', ['qlco'], 0.0)||('sensitivity and specificity', 'noun', 'C0036668', ['qnco'], 0.0)||('were', '', '', '', 0.0)||('noted', '', '', '', 0.0)||('between', '', '', '', 0.0)||('the', '', '', '', 0.0)||('major', 'adj', 'C0205164', ['qlco'], 0.0)||('and', '', '', '', 0.0)||('the', '', '', '', 0.0)||('discretionary', '', '', '', 0.0)||('indicators', 'noun', 'C0021212', ['irda'], 0.0)||('.', '', '', '', 0.0)||
('children', 'noun', 'C0008059', ['aggp'], 0.0)||('with', '', '', '', 0.0)||('high', 'adj', 'C0205250', ['qlco'], 0.0)||('ldl - c', '', '', '', 0.0)||('concentrations', 'noun', 'C0086045', ['menp'], 0.0)||('were', '', '', '', 0.0)||('more', '', '', '', 0.0)||('likely', 'adv', 'C0332148', ['qlco'], 0.0)||('to', '', '', '', 0.0)||('have', '', '', '', 0.0)||('multiple', 'adj', 'C0439064', ['qnco'], 0.0)||('screening', 'adj', 'C0220908', ['hlca'], 0.0)||('indicators', 'noun', 'C0021212', ['irda'], 0.0)||('.', '', '', '', 0.0)||
('discretionary', '', '', '', 0.0)||('and', '', '', '', 0.0)||('major', 'adj', 'C0205164', ['qlco'], 0.0)||('screening', 'adj', 'C0220908', ['hlca'], 0.0)||('indicators', 'noun', 'C0021212', ['irda'], 0.0)||('suggested', '', '', '', 0.0)||('by', '', '', '', 0.0)||('the', '', '', '', 0.0)||('national', '', '', '', 0.0)||('cholesterol', 'noun', 'C0008377', ['bacs', 'strd'], 0.0)||('education', 'noun', 'C0013621', ['edac'], 0.0)||('program', 'noun', 'C1709697', ['cnce'], 0.0)||('for', '', '', '', 0.0)||('children', 'noun', 'C0008059', ['aggp'], 0.0)||('and', '', '', '', 0.0)||('adolescents', 'noun', 'C0205653', ['aggp'], 0.0)||('identify', '', '', '', 0.0)||('different', 'adj', 'C1705242', ['qlco'], 0.0)||('subsets', '', '', '', 0.0)||('of', '', '', '', 0.0)||('children', 'noun', 'C0008059', ['aggp'], 0.0)||('at risk', '', '', '', 0.0)||('of', '', '', '', 0.0)||('having', '', '', '', 0.0)||('premature', 'adj', 'C0205252', ['tmco'], 0.0)||('cardiovascular disease', 'noun', 'C0007222', ['dsyn'], 0.0)||('.', '', '', '', 0.0)||
('both', '', '', '', 0.0)||('major', 'adj', 'C0205164', ['qlco'], 0.0)||('and', '', '', '', 0.0)||('discretionary', '', '', '', 0.0)||('indicators', 'noun', 'C0021212', ['irda'], 0.0)||('contribute', 'verb', 'C1880177', ['acty'], 0.0)||('to', '', '', '', 0.0)||('the', '', '', '', 0.0)||('identification', 'noun', 'C0020792', ['menp'], 0.0)||('of', '', '', '', 0.0)||('children', 'noun', 'C0008059', ['aggp'], 0.0)||('with', '', '', '', 0.0)||('high', 'adj', 'C0205250', ['qlco'], 0.0)||('ldl - c', '', '', '', 0.0)||('concentrations', 'noun', 'C0086045', ['menp'], 0.0)||('.', '', '', '', 0.0)||
