('glycosylated haemoglobins', '', '', '', 0.0)||('aia', 'noun', 'C0003353', ['geoa'], 0.0)||('+', '', '', '', 0.0)||('ib', '', '', '', 0.0)||('and', '', '', '', 0.0)||('aic', 'noun', 'C0175713', ['dsyn'], 0.0)||('were', '', '', '', 0.0)||('measured', 'verb', 'C0444706', ['qlco'], 0.0)||('serially', '', '', '', 0.0)||('in', '', '', '', 0.0)||('10', '', '', '', 0.0)||('consecutive', 'adj', 'C1707491', ['qlco'], 0.0)||('cases', 'noun', 'C0868928', ['ftcn'], 0.0)||('of', '', '', '', 0.0)||('newly', 'adv', 'C0750546', ['idcn'], 0.0)||('discovered', '', '', '', 0.0)||('non - acidotic', '', '', '', 0.0)||('diabetes', 'noun', 'C0011847', ['dsyn'], 0.0)||('before', '', '', '', 0.0)||('and', '', '', '', 0.0)||('after', '', '', '', 0.0)||('diet', 'noun', 'C0012155', ['food'], 0.0)||('and', '', '', '', 0.0)||('insulin', 'noun', 'C0021641', ['aapp', 'horm', 'phsu'], 0.0)||('treatment', 'noun', 'C0039798', ['ftcn'], 0.0)||('.', '', '', '', 0.0)||
('the', '', '', '', 0.0)||('average', 'adj', 'C1510992', ['qnco'], 0.0)||('concentration', 'noun', 'C0086045', ['menp'], 0.0)||('of', '', '', '', 0.0)||('hb', 'noun', 'C0019046', ['aapp', 'bacs'], 0.0)||('aic', 'noun', 'C0175713', ['dsyn'], 0.0)||('was', '', '', '', 0.0)||('11 . 4 %', '', '', '', 0.0)||('in', '', '', '', 0.0)||('untreated', '', '', '', 0.0)||('diabetics', '', '', '', 0.0)||('as', '', '', '', 0.0)||('compared', 'verb', 'C1707455', ['acty'], 0.0)||('with', '', '', '', 0.0)||('4 . 3 %', '', '', '', 0.0)||('in', '', '', '', 0.0)||('healthy', '', '', '', 0.0)||('controls', '', '', '', 0.0)||('.', '', '', '', 0.0)||
('with', '', '', '', 0.0)||('prolonged', 'adj', 'C0439590', ['tmco'], 0.0)||('optimal', 'adj', 'C2698651', ['qlco'], 0.0)||('regulation', 'noun', 'C0851285', ['gora'], 0.0)||('of', '', '', '', 0.0)||('blood glucose', 'noun', 'C0005802', ['carb'], 0.0)||('hb', 'noun', 'C0019046', ['aapp', 'bacs'], 0.0)||('aic', 'noun', 'C0175713', ['dsyn'], 0.0)||('slowly', 'adv', 'C0439834', ['qlco'], 0.0)||('decreased', 'verb', 'C0205216', ['qnco'], 0.0)||('to', '', '', '', 0.0)||('a', '', '', '', 0.0)||('mean concentration', '', '', '', 0.0)||('of', '', '', '', 0.0)||('5 . 5 %', '', '', '', 0.0)||('.', '', '', '', 0.0)||
('the', '', '', '', 0.0)||('concentration', 'noun', 'C0086045', ['menp'], 0.0)||('of', '', '', '', 0.0)||('hb', 'noun', 'C0019046', ['aapp', 'bacs'], 0.0)||('aic', 'noun', 'C0175713', ['dsyn'], 0.0)||('was', '', '', '', 0.0)||('significantly', '', '', '', 0.0)||('correlated', 'verb', 'C1707520', ['qlco'], 0.0)||('with', '', '', '', 0.0)||('the', '', '', '', 0.0)||('fasting blood sugar', 'noun', 'C1261430', ['lbtr'], 0.0)||('value', 'noun', 'C0042295', ['qlco'], 0.0)||('.', '', '', '', 0.0)||
('the', '', '', '', 0.0)||('findings', 'noun', 'C2607943', ['ftcn'], 0.0)||('suggest', 'verb', 'C1705535', ['idcn'], 0.0)||('that', '', '', '', 0.0)||('determining', 'adj', 'C2004162', ['acty'], 0.0)||('hb', 'noun', 'C0019046', ['aapp', 'bacs'], 0.0)||('aic', 'noun', 'C0175713', ['dsyn'], 0.0)||('may', '', '', '', 0.0)||('give', 'verb', 'C1947971', ['ftcn'], 0.0)||('valuable', '', '', '', 0.0)||('information', 'noun', 'C1533716', ['idcn'], 0.0)||('on', '', '', '', 0.0)||('the', '', '', '', 0.0)||('regulation', 'noun', 'C0851285', ['gora'], 0.0)||('of', '', '', '', 0.0)||('carbohydrate', 'noun', 'C0007004', ['carb'], 0.0)||('metabolism', 'noun', 'C0025519', ['orgf'], 0.0)||('in', '', '', '', 0.0)||('the', '', '', '', 0.0)||('preceding', 'adj', 'C0332152', ['tmco'], 0.0)||('one', 'noun', 'C0205447', ['qnco'], 0.0)||('to', '', '', '', 0.0)||('two', 'adj', 'C0205448', ['qnco'], 0.0)||('months', 'noun', 'C0439231', ['tmco'], 0.0)||('and', '', '', '', 0.0)||('thus', '', '', '', 0.0)||('become', '', '', '', 0.0)||('an', '', '', '', 0.0)||('important', '', '', '', 0.0)||('aid', 'noun', 'C0449435', ['mnob'], 0.0)||('to', '', '', '', 0.0)||('management', 'noun', 'C0001554', ['ocac'], 0.0)||('.', '', '', '', 0.0)||
