('six', '', 'C0205452', ['qnco'], 0.0)||('-', '', '', '', 0.0)||('hundred', '', '', '', 0.0)||('-', '', '', '', 0.0)||('and', '', '', '', 0.0)||('-', '', '', '', 0.0)||('three', '', 'C0205449', ['qnco'], 0.0)||('people', 'noun', 'C0027361', ['popg'], 0.0)||('aged', 'verb', 'C0001779', ['orga'], 0.0)||('40', '', '', '', 0.0)||('or', '', '', '', 0.0)||('more', '', '', '', 0.0)||('years', 'noun', 'C0439234', ['tmco'], 0.0)||(',', '', '', '', 0.0)||('from', '', '', '', 0.0)||('maryborough', '', '', '', 0.0)||('in', '', '', '', 0.0)||('central', 'adj', 'C0205099', ['spco'], 0.0)||('victoria', 'noun', 'C0042645', ['geoa'], 0.0)||(',', '', '', '', 0.0)||('were', '', '', '', 0.0)||('enrolled', '', '', '', 0.0)||('in', '', '', '', 0.0)||('a', '', '', '', 0.0)||('randomized', 'adj', 'C0034656', ['resa'], 0.0)||('longitudinal study', 'noun', 'C0023981', ['resa'], 0.0)||(',', '', '', '', 0.0)||('which', '', '', '', 0.0)||('required', 'verb', 'C1514873', ['ftcn'], 0.0)||('daily', 'adj', 'C0332173', ['tmco'], 0.0)||('application', 'noun', 'C0185125', ['hlca'], 0.0)||('of', '', '', '', 0.0)||('either', '', '', '', 0.0)||('a', '', '', '', 0.0)||('spf', 'noun', 'C0796617', ['qnco'], 0.0)||('15', '', '', '', 0.0)||('+', '', '', '', 0.0)||(',', '', '', '', 0.0)||('broad - spectrum', '', '', '', 0.0)||(',', '', '', '', 0.0)||('water', 'noun', 'C0043047', ['inch', 'phsu'], 0.0)||('-', '', '', '', 0.0)||('resistant', 'adj', 'C0332325', ['ftcn'], 0.0)||('sunscreen', 'noun', 'C0038818', ['sbst'], 0.0)||('cream', 'noun', 'C0700385', ['food'], 0.0)||('or', '', '', '', 0.0)||('the', '', '', '', 0.0)||('cream', 'noun', 'C0700385', ['food'], 0.0)||('base', 'noun', 'C0178499', ['chvf'], 0.0)||('without', '', '', '', 0.0)||('the', '', '', '', 0.0)||('active', 'adj', 'C0205177', ['ftcn'], 0.0)||('ingredients', '', '', '', 0.0)||('.', '', '', '', 0.0)||
('the', '', '', '', 0.0)||('study', 'noun', 'C0008976', ['resa'], 0.0)||('duration', 'noun', 'C0449238', ['tmco'], 0.0)||('was', '', '', '', 0.0)||('7', '', '', '', 0.0)||('months', 'noun', 'C0439231', ['tmco'], 0.0)||(',', '', '', '', 0.0)||('from', '', '', '', 0.0)||('september', '', '', '', 0.0)||('1991', '', '', '', 0.0)||('until', '', '', '', 0.0)||('april', '', '', '', 0.0)||('1992', '', '', '', 0.0)||('.', '', '', '', 0.0)||
('one', 'noun', 'C0205447', ['qnco'], 0.0)||('-', '', '', '', 0.0)||('hundred', '', '', '', 0.0)||('-', '', '', '', 0.0)||('and', '', '', '', 0.0)||('-', '', '', '', 0.0)||('fourteen', '', '', '', 0.0)||('(', '', '', '', 0.0)||('18 . 9 %', '', '', '', 0.0)||(')', '', '', '', 0.0)||('of', '', '', '', 0.0)||('these', '', '', '', 0.0)||('subjects', '', '', '', 0.0)||('developed', '', '', '', 0.0)||('an', '', '', '', 0.0)||('adverse reaction', 'noun', 'C0559546', ['fndg'], 0.0)||('to', '', '', '', 0.0)||('the', '', '', '', 0.0)||('cream', 'noun', 'C0700385', ['food'], 0.0)||('they', '', '', '', 0.0)||('were', '', '', '', 0.0)||('applying', 'noun', 'C0185125', ['hlca'], 0.0)||('.', '', '', '', 0.0)||
('patch', 'noun', 'C0332461', ['bdsu'], 0.0)||('testing', 'noun', 'C0039593', ['ftcn'], 0.0)||(',', '', '', '', 0.0)||('photopatch', '', '', '', 0.0)||('testing', 'noun', 'C0039593', ['ftcn'], 0.0)||('and', '', '', '', 0.0)||('scratch', 'adv', 'C1384489', ['inpo'], 0.0)||('testing', 'noun', 'C0039593', ['ftcn'], 0.0)||('with', '', '', '', 0.0)||('the', '', '', '', 0.0)||('ingredients', '', '', '', 0.0)||('of', '', '', '', 0.0)||('the', '', '', '', 0.0)||('creams', '', '', '', 0.0)||('revealed', 'verb', 'C0443289', ['qlco'], 0.0)||('that', '', '', '', 0.0)||('only', '', '', '', 0.0)||('a', '', '', '', 0.0)||('small', 'adj', 'C0700321', ['qnco'], 0.0)||('proportion', 'noun', 'C1709707', ['qnco'], 0.0)||('(', '', '', '', 0.0)||('<', '', '', '', 0.0)||('10 %', '', '', '', 0.0)||(')', '', '', '', 0.0)||('of', '', '', '', 0.0)||('the', '', '', '', 0.0)||('inflammatory', 'adj', 'C0333348', ['ftcn'], 0.0)||('eruptions', 'noun', 'C0302295', ['orgf'], 0.0)||('were', '', '', '', 0.0)||('allergic', 'adj', 'C0700624', ['ftcn'], 0.0)||('in', '', '', '', 0.0)||('nature', 'noun', 'C0349590', ['idcn'], 0.0)||('.', '', '', '', 0.0)||
('none', 'noun', 'C0549184', ['qnco'], 0.0)||('of', '', '', '', 0.0)||('the', '', '', '', 0.0)||('people', 'noun', 'C0027361', ['popg'], 0.0)||('tested', '', '', '', 0.0)||('was', '', '', '', 0.0)||('allergic', 'adj', 'C0700624', ['ftcn'], 0.0)||('to', '', '', '', 0.0)||('the', '', '', '', 0.0)||('sunscreen', 'adj', 'C0038818', ['sbst'], 0.0)||('active', 'adj', 'C0205177', ['ftcn'], 0.0)||('ingredients', '', '', '', 0.0)||('.', '', '', '', 0.0)||
('history', 'noun', 'C0019664', ['ocdi'], 0.0)||('and', '', '', '', 0.0)||('examination', '', '', '', 0.0)||('findings', 'noun', 'C2607943', ['ftcn'], 0.0)||(',', '', '', '', 0.0)||('where', '', '', '', 0.0)||('available', 'adj', 'C0470187', ['ftcn'], 0.0)||(',', '', '', '', 0.0)||('suggested', '', '', '', 0.0)||('that', '', '', '', 0.0)||('the', '', '', '', 0.0)||('majority', 'noun', 'C0680220', ['socb'], 0.0)||('of', '', '', '', 0.0)||('adverse', '', '', '', 0.0)||('responses', 'noun', 'C0871261', ['clna'], 0.0)||('were', '', '', '', 0.0)||('consistent', 'adj', 'C0332290', ['idcn'], 0.0)||('with', '', '', '', 0.0)||('an', '', '', '', 0.0)||('irritant', 'adj', 'C0022108', ['hops'], 0.0)||('reaction', 'noun', 'C0443286', ['ftcn'], 0.0)||(',', '', '', '', 0.0)||('both', '', '', '', 0.0)||('to', '', '', '', 0.0)||('the', '', '', '', 0.0)||('sunscreen', 'adj', 'C0038818', ['sbst'], 0.0)||('preparation', 'noun', 'C0455052', ['hlca'], 0.0)||('and', '', '', '', 0.0)||('the', '', '', '', 0.0)||('base', 'noun', 'C0178499', ['chvf'], 0.0)||('cream', 'noun', 'C0700385', ['food'], 0.0)||('control', 'noun', 'C0243148', ['qlco'], 0.0)||('.', '', '', '', 0.0)||
('a', '', '', '', 0.0)||('higher', '', '', '', 0.0)||('than', '', '', '', 0.0)||('expected', 'adj', 'C1517001', ['idcn'], 0.0)||('proportion', 'noun', 'C1709707', ['qnco'], 0.0)||('of', '', '', '', 0.0)||('the', '', '', '', 0.0)||('people', 'noun', 'C0027361', ['popg'], 0.0)||('who', '', '', '', 0.0)||('developed', '', '', '', 0.0)||('an', '', '', '', 0.0)||('adverse reaction', 'noun', 'C0559546', ['fndg'], 0.0)||('had', '', '', '', 0.0)||('a', '', '', '', 0.0)||('personal', 'adj', 'C1519021', ['orga'], 0.0)||('history', 'noun', 'C0019664', ['ocdi'], 0.0)||('consistent', 'adj', 'C0332290', ['idcn'], 0.0)||('with', '', '', '', 0.0)||('atopy', 'noun', 'C0392707', ['patf'], 0.0)||('.', '', '', '', 0.0)||
('other', '', '', '', 0.0)||('reactions', '', '', '', 0.0)||('included', '', '', '', 0.0)||('acneiform', '', '', '', 0.0)||('eruptions', 'noun', 'C0302295', ['orgf'], 0.0)||('and', '', '', '', 0.0)||('contact urticaria', 'noun', 'C0263333', ['dsyn'], 0.0)||('.', '', '', '', 0.0)||
('a', '', '', '', 0.0)||('frequency', 'noun', 'C0376249', ['qnco'], 0.0)||('of', '', '', '', 0.0)||('reactions', '', '', '', 0.0)||('to', '', '', '', 0.0)||('sunscreen', 'verb', 'C0038818', ['sbst'], 0.0)||('preparations', '', '', '', 0.0)||('of', '', '', '', 0.0)||('over', 'adv', 'C0205136', ['spco'], 0.0)||('15 %', '', '', '', 0.0)||('means', 'noun', 'C1704970', ['cnce'], 0.0)||('that', '', '', '', 0.0)||('further', 'adj', 'C1517331', ['spco'], 0.0)||('work', 'noun', 'C0043227', ['ocac'], 0.0)||('is', '', '', '', 0.0)||('necessary', '', '', '', 0.0)||('to', '', '', '', 0.0)||('improve', 'verb', 'C0332161', ['qlco'], 0.0)||('both', '', '', '', 0.0)||('the', '', '', '', 0.0)||('formulation', 'noun', 'C0013058', ['bodm'], 0.0)||('of', '', '', '', 0.0)||('such', '', '', '', 0.0)||('products', 'noun', 'C1514468', ['enty'], 0.0)||(',', '', '', '', 0.0)||('and', '', '', '', 0.0)||('the', '', '', '', 0.0)||('manner', '', '', '', 0.0)||('and', '', '', '', 0.0)||('conditions', '', '', '', 0.0)||('under', '', '', '', 0.0)||('which', '', '', '', 0.0)||('they', '', '', '', 0.0)||('are', '', '', '', 0.0)||('used', '', '', '', 0.0)||(',', '', '', '', 0.0)||('to', '', '', '', 0.0)||('ensure', 'verb', 'C0218063', ['food'], 0.0)||('satisfactory', 'adj', 'C1547307', ['inpr'], 0.0)||('compliance', 'noun', 'C0009563', ['qnco'], 0.0)||('.', '', '', '', 0.0)||
