('we', '', '', '', 0.0)||('tested', '', '', '', 0.0)||('the', '', '', '', 0.0)||('spine', 'noun', 'C0037949', ['bpoc'], 0.0)||('antifracture', '', '', '', 0.0)||('and', '', '', '', 0.0)||('bone', 'noun', 'C0262950', ['bpoc'], 0.0)||('sparing', '', '', '', 0.0)||('efficacy', 'noun', 'C1707887', ['resa'], 0.0)||('of', '', '', '', 0.0)||('1 . 2', '', '', '', 0.0)||('g', '', '', '', 0.0)||('/', '', '', '', 0.0)||('day', 'noun', 'C0439228', ['tmco'], 0.0)||('of', '', '', '', 0.0)||('oral', 'adj', 'C0442027', ['spco'], 0.0)||('calcium', 'noun', 'C0006675', ['bacs', 'elii', 'phsu'], 0.0)||('as', '', '', '', 0.0)||('carbonate', 'noun', 'C0007026', ['inch'], 0.0)||('in', '', '', '', 0.0)||('two', 'noun', 'C0205448', ['qnco'], 0.0)||('groups', 'noun', 'C0441833', ['idcn'], 0.0)||('of', '', '', '', 0.0)||('elderly', 'adj', 'C0001792', ['popg'], 0.0)||('women', 'noun', 'C0043210', ['popg'], 0.0)||(',', '', '', '', 0.0)||('one', 'noun', 'C0205447', ['qnco'], 0.0)||('with', '', '', '', 0.0)||('prevalent', '', '', '', 0.0)||('fractures', 'noun', 'C0016658', ['inpo'], 0.0)||('(', '', '', '', 0.0)||('pf', '', '', '', 0.0)||(',', '', '', '', 0.0)||('n =', '', '', '', 0.0)||('94', '', '', '', 0.0)||(')', '', '', '', 0.0)||('on', '', '', '', 0.0)||('entry', 'noun', 'C1550548', ['ftcn'], 0.0)||('and', '', '', '', 0.0)||('the', '', '', '', 0.0)||('other', '', '', '', 0.0)||('without', '', '', '', 0.0)||('(', '', '', '', 0.0)||('npf', '', '', '', 0.0)||(',', '', '', '', 0.0)||('n =', '', '', '', 0.0)||('103', '', '', '', 0.0)||(')', '', '', '', 0.0)||('.', '', '', '', 0.0)||
('it', '', '', '', 0.0)||('was', '', '', '', 0.0)||('a', '', '', '', 0.0)||('prospective', 'adj', 'C0023981', ['resa'], 0.0)||('randomized', 'adj', 'C0034656', ['resa'], 0.0)||(',', '', '', '', 0.0)||('double - blind', '', '', '', 0.0)||(',', '', '', '', 0.0)||('placebo - controlled', '', '', '', 0.0)||('trial', 'noun', 'C0008976', ['resa'], 0.0)||('in', '', '', '', 0.0)||('mostly', 'adv', 'C0750554', ['idcn'], 0.0)||('rural', 'adj', 'C0240919', ['fndg'], 0.0)||('communities', 'noun', 'C0009462', ['geoa'], 0.0)||('in', '', '', '', 0.0)||('women', 'noun', 'C0043210', ['popg'], 0.0)||('over', '', '', '', 0.0)||('age', 'noun', 'C0001779', ['orga'], 0.0)||('60', '', '', '', 0.0)||('who', '', '', '', 0.0)||('were', '', '', '', 0.0)||('living', 'verb', 'C0376558', ['idcn'], 0.0)||('independently', '', '', '', 0.0)||('and', '', '', '', 0.0)||('were', '', '', '', 0.0)||('consuming', '', '', '', 0.0)||('<', '', '', '', 0.0)||('1', '', '', '', 0.0)||('g', '', '', '', 0.0)||('/', '', '', '', 0.0)||('day', 'noun', 'C0439228', ['tmco'], 0.0)||('of', '', '', '', 0.0)||('calcium', 'noun', 'C0006675', ['bacs', 'elii', 'phsu'], 0.0)||('.', '', '', '', 0.0)||
('we', '', '', '', 0.0)||('obtained', 'verb', 'C1301820', ['ftcn'], 0.0)||('annual', 'adj', 'C0332181', ['tmco'], 0.0)||('lateral', 'adj', 'C0205093', ['spco'], 0.0)||('spine', 'noun', 'C0037949', ['bpoc'], 0.0)||('radiographs', '', '', '', 0.0)||('and', '', '', '', 0.0)||('semiannual', '', '', '', 0.0)||('forearm', 'noun', 'C0016536', ['blor'], 0.0)||('bone density', 'noun', 'C0005938', ['clna'], 0.0)||('over', '', '', '', 0.0)||('4 . 3', '', '', '', 0.0)||('+', '', '', '', 0.0)||('/', '', '', '', 0.0)||('-', '', '', '', 0.0)||('1 . 1', '', '', '', 0.0)||('years', 'noun', 'C0439234', ['tmco'], 0.0)||('and', '', '', '', 0.0)||('determined', '', '', '', 0.0)||('vertebral', 'adj', 'C0549207', ['bpoc'], 0.0)||('fractures', 'noun', 'C0016658', ['inpo'], 0.0)||('by', '', '', '', 0.0)||('radiographic', 'adj', 'C0444708', ['npop'], 0.0)||('morphometry', 'noun', 'C0200760', ['lbpr'], 0.0)||('augmented', 'verb', 'C0205217', ['qnco'], 0.0)||('by', '', '', '', 0.0)||('physician', 'noun', 'C0031831', ['prog'], 0.0)||('assessment', 'noun', 'C1261322', ['hlca'], 0.0)||('.', '', '', '', 0.0)||
('in', '', '', '', 0.0)||('the', '', '', '', 0.0)||('pf', '', '', '', 0.0)||('group', 'noun', 'C0441833', ['idcn'], 0.0)||(',', '', '', '', 0.0)||('15', '', '', '', 0.0)||('of', '', '', '', 0.0)||('53', '', '', '', 0.0)||('subjects', '', '', '', 0.0)||('on', '', '', '', 0.0)||('calcium', 'noun', 'C0006675', ['bacs', 'elii', 'phsu'], 0.0)||('had', '', '', '', 0.0)||('incident', 'adj', 'C1551358', ['idcn'], 0.0)||('fractures', 'noun', 'C0016658', ['inpo'], 0.0)||(',', '', '', '', 0.0)||('compared', 'verb', 'C1707455', ['acty'], 0.0)||('with', '', '', '', 0.0)||('21', '', '', '', 0.0)||('of', '', '', '', 0.0)||('41', '', '', '', 0.0)||('on', '', '', '', 0.0)||('placebo', 'noun', 'C0032042', ['topp'], 0.0)||('(', '', '', '', 0.0)||('p', '', '', '', 0.0)||('=', '', '', '', 0.0)||('0 . 023', '', '', '', 0.0)||(',', '', '', '', 0.0)||('chi2', '', '', '', 0.0)||(')', '', '', '', 0.0)||('.', '', '', '', 0.0)||
('calcium', 'noun', 'C0006675', ['bacs', 'elii', 'phsu'], 0.0)||('did', '', '', '', 0.0)||('not', 'adv', 'C1518422', ['ftcn'], 0.0)||('reduce', '', '', '', 0.0)||('the', '', '', '', 0.0)||('rate', 'noun', 'C0871208', ['acty'], 0.0)||('of', '', '', '', 0.0)||('incident', 'adj', 'C1551358', ['idcn'], 0.0)||('fractures', 'noun', 'C0016658', ['inpo'], 0.0)||('in', '', '', '', 0.0)||('the', '', '', '', 0.0)||('npf', '', '', '', 0.0)||('group', 'noun', 'C0441833', ['idcn'], 0.0)||('.', '', '', '', 0.0)||
('those', '', '', '', 0.0)||('with', '', '', '', 0.0)||('a', '', '', '', 0.0)||('prevalent', '', '', '', 0.0)||('fracture', 'noun', 'C0016658', ['inpo'], 0.0)||('on', '', '', '', 0.0)||('entry', 'noun', 'C1550548', ['ftcn'], 0.0)||('and', '', '', '', 0.0)||('not', 'adv', 'C1518422', ['ftcn'], 0.0)||('treated', 'verb', 'C1522326', ['ftcn'], 0.0)||('with', '', '', '', 0.0)||('calcium', 'noun', 'C0006675', ['bacs', 'elii', 'phsu'], 0.0)||('were', '', '', '', 0.0)||('2 . 8', '', '', '', 0.0)||('times', 'noun', 'C1632851', ['qnco'], 0.0)||('more', '', '', '', 0.0)||('likely', 'adv', 'C0332148', ['qlco'], 0.0)||('to', '', '', '', 0.0)||('experience', 'verb', 'C0596545', ['menp'], 0.0)||('an', '', '', '', 0.0)||('incident', 'adj', 'C1551358', ['idcn'], 0.0)||('fracture', 'noun', 'C0016658', ['inpo'], 0.0)||('than', '', '', '', 0.0)||('all', '', '', '', 0.0)||('others', 'noun', 'C1955473', ['fndg'], 0.0)||('.', '', '', '', 0.0)||
('change', 'noun', 'C0392747', ['ftcn'], 0.0)||('in', '', '', '', 0.0)||('the', '', '', '', 0.0)||('forearm', 'noun', 'C0016536', ['blor'], 0.0)||('bone mass', 'noun', 'C0238806', ['dsyn'], 0.0)||('on', '', '', '', 0.0)||('placebo', 'noun', 'C0032042', ['topp'], 0.0)||('in', '', '', '', 0.0)||('the', '', '', '', 0.0)||('pf', '', '', '', 0.0)||('group', 'noun', 'C0441833', ['idcn'], 0.0)||('was', '', '', '', 0.0)||('-', '', '', '', 0.0)||('1 . 24', '', '', '', 0.0)||('+', '', '', '', 0.0)||('/', '', '', '', 0.0)||('-', '', '', '', 0.0)||('2 . 41 %', '', '', '', 0.0)||('/', '', '', '', 0.0)||('year', 'noun', 'C0439234', ['tmco'], 0.0)||('compared', 'verb', 'C1707455', ['acty'], 0.0)||('with', '', '', '', 0.0)||('+', '', '', '', 0.0)||('0 . 31', '', '', '', 0.0)||('+', '', '', '', 0.0)||('/', '', '', '', 0.0)||('-', '', '', '', 0.0)||('1 . 80 %', '', '', '', 0.0)||('/', '', '', '', 0.0)||('year', 'noun', 'C0439234', ['tmco'], 0.0)||('on', '', '', '', 0.0)||('calcium', 'noun', 'C0006675', ['bacs', 'elii', 'phsu'], 0.0)||('(', '', '', '', 0.0)||('p', '', '', '', 0.0)||('<', '', '', '', 0.0)||('0 . 001', '', '', '', 0.0)||(')', '', '', '', 0.0)||('.', '', '', '', 0.0)||
('in', '', '', '', 0.0)||('the', '', '', '', 0.0)||('npf', '', '', '', 0.0)||('group', 'noun', 'C0441833', ['idcn'], 0.0)||(',', '', '', '', 0.0)||('the', '', '', '', 0.0)||('difference', 'noun', 'C1705242', ['qlco'], 0.0)||('was', '', '', '', 0.0)||('less', '', '', '', 0.0)||(':', '', '', '', 0.0)||('-', '', '', '', 0.0)||('0 . 39', '', '', '', 0.0)||('+', '', '', '', 0.0)||('/', '', '', '', 0.0)||('-', '', '', '', 0.0)||('2 . 08 %', '', '', '', 0.0)||('/', '', '', '', 0.0)||('year', 'noun', 'C0439234', ['tmco'], 0.0)||('versus', '', '', '', 0.0)||('0 . 00', '', '', '', 0.0)||('+', '', '', '', 0.0)||('/', '', '', '', 0.0)||('-', '', '', '', 0.0)||('1 . 64 %', '', '', '', 0.0)||('/', '', '', '', 0.0)||('year', 'noun', 'C0439234', ['tmco'], 0.0)||('(', '', '', '', 0.0)||('p', '', '', '', 0.0)||('=', '', '', '', 0.0)||('0 . 2', '', '', '', 0.0)||(')', '', '', '', 0.0)||('.', '', '', '', 0.0)||
('we', '', '', '', 0.0)||('conclude', 'verb', 'C0917903', ['bodm', 'orch'], 0.0)||('that', '', '', '', 0.0)||('in', '', '', '', 0.0)||('elderly', 'adj', 'C0001792', ['popg'], 0.0)||('postmenopausal women', '', '', '', 0.0)||('with', '', '', '', 0.0)||('spine', 'noun', 'C0037949', ['bpoc'], 0.0)||('fractures', 'noun', 'C0016658', ['inpo'], 0.0)||('and', '', '', '', 0.0)||('selfselected', '', '', '', 0.0)||('calcium', 'noun', 'C0006675', ['bacs', 'elii', 'phsu'], 0.0)||('intakes', '', '', '', 0.0)||('of', '', '', '', 0.0)||('<', '', '', '', 0.0)||('1', '', '', '', 0.0)||('g', '', '', '', 0.0)||('/', '', '', '', 0.0)||('day', 'noun', 'C0439228', ['tmco'], 0.0)||(',', '', '', '', 0.0)||('a', '', '', '', 0.0)||('calcium', 'noun', 'C0006675', ['bacs', 'elii', 'phsu'], 0.0)||('supplement', 'noun', 'C0242295', ['food'], 0.0)||('of', '', '', '', 0.0)||('1 . 2', '', '', '', 0.0)||('g', '', '', '', 0.0)||('/', '', '', '', 0.0)||('day', 'noun', 'C0439228', ['tmco'], 0.0)||('reduces', '', '', '', 0.0)||('the', '', '', '', 0.0)||('incidence', 'noun', 'C0021149', ['qnco'], 0.0)||('of', '', '', '', 0.0)||('spine', 'noun', 'C0037949', ['bpoc'], 0.0)||('fractures', 'noun', 'C0016658', ['inpo'], 0.0)||('and', '', '', '', 0.0)||('halts', '', '', '', 0.0)||('measurable', 'adj', 'C1513040', ['ftcn'], 0.0)||('bone', 'noun', 'C0262950', ['bpoc'], 0.0)||('loss', 'noun', 'C1517945', ['qnco'], 0.0)||('.', '', '', '', 0.0)||
