('a', '', '', '', 0.0)||('study', 'noun', 'C0008976', ['resa'], 0.0)||('of', '', '', '', 0.0)||('the', '', '', '', 0.0)||('safety', 'noun', 'C0036043', ['hcpp'], 0.0)||('of', '', '', '', 0.0)||('tetracycline', 'noun', 'C0039644', ['antb', 'orch'], 0.0)||(',', '', '', '', 0.0)||('which', '', '', '', 0.0)||('used', '', '', '', 0.0)||('reports', 'noun', 'C0684224', ['inpr'], 0.0)||('in', '', '', '', 0.0)||('a', '', '', '', 0.0)||('drug', 'noun', 'C0013227', ['phsu'], 0.0)||('safety', 'noun', 'C0036043', ['hcpp'], 0.0)||('database', 'noun', 'C0242356', ['inpr'], 0.0)||('and', '', '', '', 0.0)||('a', '', '', '', 0.0)||('literature review', 'noun', 'C0282441', ['inpr'], 0.0)||('of', '', '', '', 0.0)||('reported', 'adj', 'C0684224', ['inpr'], 0.0)||('adverse', '', '', '', 0.0)||('events', 'noun', 'C0441471', ['evnt'], 0.0)||(',', '', '', '', 0.0)||('concluded', '', '', '', 0.0)||('that', '', '', '', 0.0)||('rare', 'adj', 'C0521114', ['tmco'], 0.0)||('but', '', '', '', 0.0)||('serious', 'adj', 'C0205404', ['qlco'], 0.0)||('events', 'noun', 'C0441471', ['evnt'], 0.0)||('do', '', '', '', 0.0)||('occur', 'verb', 'C1709305', ['cnce'], 0.0)||('with', '', '', '', 0.0)||('tetracycline', 'noun', 'C0039644', ['antb', 'orch'], 0.0)||('.', '', '', '', 0.0)||
('severe', 'adj', 'C0205082', ['qlco'], 0.0)||('cutaneous', 'adj', 'C0221912', ['spco'], 0.0)||('adverse reaction', 'noun', 'C0559546', ['fndg'], 0.0)||('was', '', '', '', 0.0)||('the', '', '', '', 0.0)||('most', '', '', '', 0.0)||('common', 'adj', 'C0205214', ['qnco'], 0.0)||('reported', 'adj', 'C0684224', ['inpr'], 0.0)||('single', 'adj', 'C0037179', ['popg'], 0.0)||('-', '', '', '', 0.0)||('organ', 'noun', 'C0178784', ['bpoc'], 0.0)||('dysfunction', 'noun', 'C0031847', ['ftcn'], 0.0)||('.', '', '', '', 0.0)||
('other', '', '', '', 0.0)||('rare', 'adj', 'C0521114', ['tmco'], 0.0)||('events', 'noun', 'C0441471', ['evnt'], 0.0)||('included', '', '', '', 0.0)||('hypersensitivity syndrome', 'noun', 'C0543698', ['dsyn'], 0.0)||('reactions', '', '', '', 0.0)||('and', '', '', '', 0.0)||('serum sickness - like reactions', '', '', '', 0.0)||('.', '', '', '', 0.0)||
