('in', '', '', '', 0.0)||('one', 'noun', 'C0205447', ['qnco'], 0.0)||('study', 'noun', 'C0008976', ['resa'], 0.0)||(',', '', '', '', 0.0)||('6', '', '', '', 0.0)||('volunteers', 'noun', 'C0042960', ['prog'], 0.0)||('in', '', '', '', 0.0)||('an', '', '', '', 0.0)||('8x8x7', '', '', '', 0.0)||('-', '', '', '', 0.0)||('ft', '', '', '', 0.0)||('enclosed', 'adj', 'C0205380', ['spco'], 0.0)||('room', 'noun', 'C1547703', ['spco'], 0.0)||('were', '', '', '', 0.0)||('exposed', 'verb', 'C0332157', ['clna'], 0.0)||('to', '', '', '', 0.0)||('200', '', '', '', 0.0)||('mg', '', '', '', 0.0)||('freebase', '', '', '', 0.0)||('cocaine', 'noun', 'C0009170', ['hops', 'orch', 'phsu'], 0.0)||('vapor', 'noun', 'C0597635', ['chvs'], 0.0)||(';', '', '', '', 0.0)||
('none', 'noun', 'C0549184', ['qnco'], 0.0)||('of', '', '', '', 0.0)||('their', '', '', '', 0.0)||('urine', 'noun', 'C0042036', ['bdsu'], 0.0)||('samples', '', '', '', 0.0)||('exceeded', '', '', '', 0.0)||('the', '', '', '', 0.0)||('federal', '', '', '', 0.0)||('gc - ms', '', '', '', 0.0)||('threshold', 'noun', 'C0449864', ['qlco'], 0.0)||('.', '', '', '', 0.0)||
('in', '', '', '', 0.0)||('a', '', '', '', 0.0)||('similar', 'adj', 'C2348205', ['qlco'], 0.0)||('study', 'noun', 'C0008976', ['resa'], 0.0)||('of', '', '', '', 0.0)||('3', '', '', '', 0.0)||('non - smokers', '', '', '', 0.0)||('exposed', 'verb', 'C0332157', ['clna'], 0.0)||('to', '', '', '', 0.0)||('8', '', '', '', 0.0)||('marijuana', '', '', '', 0.0)||('smokers', '', '', '', 0.0)||('(', '', '', '', 0.0)||('smoking', 'verb', 'C0037369', ['inbe'], 0.0)||('32', '', '', '', 0.0)||('joints', 'noun', 'C0022417', ['bsoj'], 0.0)||(')', '', '', '', 0.0)||('in', '', '', '', 0.0)||('a', '', '', '', 0.0)||('10x10x8', '', '', '', 0.0)||('-', '', '', '', 0.0)||('ft', '', '', '', 0.0)||('enclosed', 'adj', 'C0205380', ['spco'], 0.0)||('room', 'noun', 'C1547703', ['spco'], 0.0)||(',', '', '', '', 0.0)||('no', '', '', '', 0.0)||('samples', '', '', '', 0.0)||('from', '', '', '', 0.0)||('the', '', '', '', 0.0)||('nonsmokers', '', '', '', 0.0)||('exceeded', '', '', '', 0.0)||('the', '', '', '', 0.0)||('federal', '', '', '', 0.0)||('gc - ms', '', '', '', 0.0)||('threshold', 'noun', 'C0449864', ['qlco'], 0.0)||('.', '', '', '', 0.0)||
