('positive', 'adj', 'C1446409', ['qlco'], 0.0)||('confirmation', 'noun', 'C0750484', ['idcn'], 0.0)||('tests', 'noun', 'C0022885', ['lbpr'], 0.0)||('may', '', '', '', 0.0)||('occur', 'verb', 'C1709305', ['cnce'], 0.0)||('in', '', '', '', 0.0)||('urine', 'noun', 'C0042036', ['bdsu'], 0.0)||('specimens', '', '', '', 0.0)||('from', '', '', '', 0.0)||('patients', 'noun', 'C0030705', ['podg'], 0.0)||('who', '', '', '', 0.0)||('legally', '', '', '', 0.0)||('or', '', '', '', 0.0)||('unknowingly', '', '', '', 0.0)||('ingest', '', '', '', 0.0)||('products', 'noun', 'C1514468', ['enty'], 0.0)||('that', '', '', '', 0.0)||('contain', 'verb', 'C2700400', ['acty'], 0.0)||('drugs', 'noun', 'C0013227', ['phsu'], 0.0)||('of', '', '', '', 0.0)||('abuse', 'noun', 'C0013146', ['mobd'], 0.0)||('.', '', '', '', 0.0)||
('in', '', '', '', 0.0)||('these', '', '', '', 0.0)||('instances', '', '', '', 0.0)||(',', '', '', '', 0.0)||('the', '', '', '', 0.0)||('finding', 'noun', 'C0037088', ['sosy'], 0.0)||('is', '', '', '', 0.0)||('a', '', '', '', 0.0)||('true', 'adj', 'C0205238', ['qlco'], 0.0)||('positive', 'noun', 'C1446409', ['qlco'], 0.0)||('but', '', '', '', 0.0)||('may', '', '', '', 0.0)||('not', 'adv', 'C1518422', ['ftcn'], 0.0)||('reflect', '', '', '', 0.0)||('drug abuse', 'noun', 'C0013146', ['mobd'], 0.0)||('by', '', '', '', 0.0)||('the', '', '', '', 0.0)||('client', 'noun', 'C0008942', ['popg'], 0.0)||('.', '', '', '', 0.0)||
('many', '', '', '', 0.0)||('products', 'noun', 'C1514468', ['enty'], 0.0)||('available', 'adj', 'C0470187', ['ftcn'], 0.0)||('without', '', '', '', 0.0)||('prescription', 'noun', 'C0033080', ['hlca'], 0.0)||('outside of', '', '', '', 0.0)||('the', '', '', '', 0.0)||('us', '', '', '', 0.0)||('contain', 'verb', 'C2700400', ['acty'], 0.0)||('opiates', 'noun', 'C0029095', ['mobd'], 0.0)||('(', '', '', '', 0.0)||('eg', 'noun', 'C0013715', ['geoa'], 0.0)||(',', '', '', '', 0.0)||('donnagel', 'noun', 'C0305973', ['orch', 'phsu'], 0.0)||('pg', '', '', '', 0.0)||('from', '', '', '', 0.0)||('canada', 'noun', 'C0006823', ['geoa'], 0.0)||(')', '', '', '', 0.0)||('.', '', '', '', 0.0)||
