('it', '', '', '', 0.0)||("' s", '', '', '', 0.0)||('not', 'adv', 'C1518422', ['ftcn'], 0.0)||('clear', 'verb', 'C0522503', ['qlco'], 0.0)||(';', '', '', '', 0.0)||
('little', 'adj', 'C0700321', ['qnco'], 0.0)||('evidence', 'noun', 'C0332120', ['ftcn'], 0.0)||('supports', 'verb', 'C0183683', ['medd'], 0.0)||('or', '', '', '', 0.0)||('refutes', '', '', '', 0.0)||('the', '', '', '', 0.0)||('safety', 'noun', 'C0036043', ['hcpp'], 0.0)||('of', '', '', '', 0.0)||('guaifenesin', 'noun', 'C0018305', ['orch', 'phsu'], 0.0)||(',', '', '', '', 0.0)||('a', '', '', '', 0.0)||('common', 'adj', 'C0205214', ['qnco'], 0.0)||('expectorant', 'noun', 'C0015314', ['phsu'], 0.0)||(',', '', '', '', 0.0)||('in', '', '', '', 0.0)||('pregnancy', 'noun', 'C0032961', ['orgf'], 0.0)||('.', '', '', '', 0.0)||
('a', '', '', '', 0.0)||('small', 'adj', 'C0700321', ['qnco'], 0.0)||('number', 'noun', 'C0449788', ['qnco'], 0.0)||('of', '', '', '', 0.0)||('observational', 'adj', 'C1964257', ['diap'], 0.0)||('and', '', '', '', 0.0)||('case - control studies', '', '', '', 0.0)||('suggest', 'verb', 'C1705535', ['idcn'], 0.0)||('a', '', '', '', 0.0)||('weak', 'adj', 'C0004093', ['sosy'], 0.0)||('association', 'noun', 'C0004083', ['menp'], 0.0)||('between', '', '', '', 0.0)||('guaifenesin', 'noun', 'C0018305', ['orch', 'phsu'], 0.0)||('use', 'noun', 'C0042153', ['ftcn'], 0.0)||('and', '', '', '', 0.0)||('inguinal hernias', '', '', '', 0.0)||('and', '', '', '', 0.0)||('neural tube defects', 'noun', 'C0027794', ['fndg'], 0.0)||('in', '', '', '', 0.0)||('newborns', 'noun', 'C0021289', ['aggp'], 0.0)||('.', '', '', '', 0.0)||
('however', '', '', '', 0.0)||(',', '', '', '', 0.0)||('substantial', '', '', '', 0.0)||('methodological', '', '', '', 0.0)||('flaws', '', '', '', 0.0)||(',', '', '', '', 0.0)||('the', '', '', '', 0.0)||('absence', 'noun', 'C1689985', ['anab'], 0.0)||('of', '', '', '', 0.0)||('statistical significance', 'noun', 'C0237881', ['qnco'], 0.0)||(',', '', '', '', 0.0)||('and', '', '', '', 0.0)||('low', 'adj', 'C0205251', ['qlco'], 0.0)||('rates', '', '', '', 0.0)||('of', '', '', '', 0.0)||('prevalence', 'noun', 'C0033105', ['qnco'], 0.0)||('cast', 'verb', 'C0179686', ['medd'], 0.0)||('a', '', '', '', 0.0)||('shadow', 'noun', 'C0332554', ['ftcn'], 0.0)||('of', '', '', '', 0.0)||('a', '', '', '', 0.0)||('doubt', 'noun', 'C0870444', ['menp'], 0.0)||('over', '', '', '', 0.0)||('the', '', '', '', 0.0)||('data', 'noun', 'C1511726', ['idcn'], 0.0)||('.', '', '', '', 0.0)||
