('guaifenesin', 'noun', 'C0018305', ['orch', 'phsu'], 0.0)||('use', 'noun', 'C0042153', ['ftcn'], 0.0)||('in', '', '', '', 0.0)||('pregnancy', 'noun', 'C0032961', ['orgf'], 0.0)||('has', '', '', '', 0.0)||('been', '', '', '', 0.0)||('associated', 'verb', 'C0332281', ['qlco'], 0.0)||('with', '', '', '', 0.0)||('inguinal hernias', '', '', '', 0.0)||('in', '', '', '', 0.0)||('newborns', 'noun', 'C0021289', ['aggp'], 0.0)||('.', '', '', '', 0.0)||
('from', '', '', '', 0.0)||('1958', '', '', '', 0.0)||('to', '', '', '', 0.0)||('1965', '', '', '', 0.0)||(',', '', '', '', 0.0)||('the', '', '', '', 0.0)||('collaborative', 'adj', 'C0282116', ['acty'], 0.0)||('perinatal', 'adj', 'C0178795', ['tmco'], 0.0)||('project', 'noun', 'C1709701', ['cnce'], 0.0)||('recruited', '', '', '', 0.0)||('132 , 500', '', '', '', 0.0)||('women', 'noun', 'C0043210', ['popg'], 0.0)||('to', '', '', '', 0.0)||('participate', '', '', '', 0.0)||('in', '', '', '', 0.0)||('a', '', '', '', 0.0)||('multicenter', '', '', '', 0.0)||('study', 'noun', 'C0008976', ['resa'], 0.0)||(';', '', '', '', 0.0)||
('however', '', '', '', 0.0)||(',', '', '', '', 0.0)||('selection', 'noun', 'C0036576', ['genf'], 0.0)||('and', '', '', '', 0.0)||('exclusion', 'noun', 'C0680251', ['ftcn'], 0.0)||('criteria', 'noun', 'C0243161', ['inpr'], 0.0)||('were', '', '', '', 0.0)||('not', 'adv', 'C1518422', ['ftcn'], 0.0)||('consistent', 'adj', 'C0332290', ['idcn'], 0.0)||('.', '', '', '', 0.0)||
('from', '', '', '', 0.0)||('this', '', '', '', 0.0)||('initial', 'adj', 'C0205265', ['tmco'], 0.0)||('group', 'noun', 'C0441833', ['idcn'], 0.0)||(',', '', '', '', 0.0)||('only', '', '', '', 0.0)||('50 , 282', '', '', '', 0.0)||('mother', 'noun', 'C0026591', ['famg'], 0.0)||('-', '', '', '', 0.0)||('child', 'noun', 'C0008059', ['aggp'], 0.0)||('pairs', '', '', '', 0.0)||('were', '', '', '', 0.0)||('studied', '', '', '', 0.0)||('.', '', '', '', 0.0)||
('trained', '', '', '', 0.0)||('examiners', '', '', '', 0.0)||('interviewed', '', '', '', 0.0)||('the', '', '', '', 0.0)||('women', 'noun', 'C0043210', ['popg'], 0.0)||('at', '', '', '', 0.0)||('the', '', '', '', 0.0)||('child', 'noun', 'C0008059', ['aggp'], 0.0)||("' s", '', '', '', 0.0)||('4', '', '', '', 0.0)||(',', '', '', '', 0.0)||('8', '', '', '', 0.0)||(',', '', '', '', 0.0)||('12', '', '', '', 0.0)||(',', '', '', '', 0.0)||('and', '', '', '', 0.0)||('24', '', '', '', 0.0)||('-', '', '', '', 0.0)||('month', 'noun', 'C0439231', ['tmco'], 0.0)||('visits', 'noun', 'C0545082', ['bhvr'], 0.0)||(',', '', '', '', 0.0)||('and', '', '', '', 0.0)||('then', 'adv', 'C1883708', ['tmco'], 0.0)||('annually', 'adv', 'C0332181', ['tmco'], 0.0)||('thereafter', '', '', '', 0.0)||('to', '', '', '', 0.0)||('8', '', '', '', 0.0)||('years', 'noun', 'C0439234', ['tmco'], 0.0)||('of', '', '', '', 0.0)||('age', 'noun', 'C0001779', ['orga'], 0.0)||('.', '', '', '', 0.0)||
('the', '', '', '', 0.0)||('examiners', '', '', '', 0.0)||('identified', 'verb', 'C0205396', ['qlco'], 0.0)||('7', '', '', '', 0.0)||('children', 'noun', 'C0008059', ['aggp'], 0.0)||('with', '', '', '', 0.0)||('inguinal hernias', '', '', '', 0.0)||('among', '', '', '', 0.0)||('197', '', '', '', 0.0)||('mothers', 'noun', 'C0026591', ['famg'], 0.0)||('who', '', '', '', 0.0)||('had', '', '', '', 0.0)||('used', '', '', '', 0.0)||('guaifenesin', 'noun', 'C0018305', ['orch', 'phsu'], 0.0)||('during', '', '', '', 0.0)||('their', '', '', '', 0.0)||('first', 'adj', 'C0205435', ['qnco'], 0.0)||('trimester', 'noun', 'C0032982', ['tmco'], 0.0)||('(', '', '', '', 0.0)||('standardized', '', '', '', 0.0)||('relative risk', 'noun', 'C0242492', ['qnco'], 0.0)||('of', '', '', '', 0.0)||('2 . 6', '', '', '', 0.0)||(';', '', '', '', 0.0)||('no', '', '', '', 0.0)||('confidence interval', 'noun', 'C0009667', ['qnco'], 0.0)||('or', '', '', '', 0.0)||('p value', '', '', '', 0.0)||('reported', 'verb', 'C0684224', ['inpr'], 0.0)||(')', '', '', '', 0.0)||('.', '', '', '', 0.0)||
('twenty', '', '', '', 0.0)||('children', 'noun', 'C0008059', ['aggp'], 0.0)||('had', '', '', '', 0.0)||('inguinal hernias', '', '', '', 0.0)||('among', '', '', '', 0.0)||('the', '', '', '', 0.0)||('1337', '', '', '', 0.0)||('mothers', 'noun', 'C0026591', ['famg'], 0.0)||('who', '', '', '', 0.0)||('had', '', '', '', 0.0)||('used', '', '', '', 0.0)||('guaifenesin', 'noun', 'C0018305', ['orch', 'phsu'], 0.0)||('during', '', '', '', 0.0)||('any', '', '', '', 0.0)||('trimester', 'noun', 'C0032982', ['tmco'], 0.0)||('of', '', '', '', 0.0)||('their', '', '', '', 0.0)||('pregnancy', 'noun', 'C0032961', ['orgf'], 0.0)||('(', '', '', '', 0.0)||('relative risk', 'noun', 'C0242492', ['qnco'], 0.0)||('=', '', '', '', 0.0)||('1 . 1', '', '', '', 0.0)||(';', '', '', '', 0.0)||('no', '', '', '', 0.0)||('confidence interval', 'noun', 'C0009667', ['qnco'], 0.0)||('or', '', '', '', 0.0)||('p value', '', '', '', 0.0)||('reported', 'verb', 'C0684224', ['inpr'], 0.0)||(')', '', '', '', 0.0)||('.', '', '', '', 0.0)||
('the', '', '', '', 0.0)||('authors', 'noun', 'C0341628', ['prog'], 0.0)||('acknowledged', '', '', '', 0.0)||('that', '', '', '', 0.0)||('reporting', 'adj', 'C0700287', ['hlca'], 0.0)||('bias', 'noun', 'C0242568', ['idcn'], 0.0)||('among', '', '', '', 0.0)||('the', '', '', '', 0.0)||('participating', 'adj', 'C0679823', ['ftcn'], 0.0)||('centers', '', '', '', 0.0)||('prevented', '', '', '', 0.0)||('them', '', '', '', 0.0)||('from', '', '', '', 0.0)||('drawing', 'noun', 'C0013113', ['inpr'], 0.0)||('any', '', '', '', 0.0)||('conclusions', 'noun', 'C1707478', ['idcn'], 0.0)||('from', '', '', '', 0.0)||('the', '', '', '', 0.0)||('data', 'noun', 'C1511726', ['idcn'], 0.0)||('.', '', '', '', 0.0)||
