('alpha - glucosidase', '', '', '', 0.0)||('inhibitors', 'noun', 'C0243077', ['chvf'], 0.0)||('such as', '', '', '', 0.0)||('acarbose', 'noun', 'C0050393', ['carb', 'phsu'], 0.0)||('or', '', '', '', 0.0)||('miglitol', 'noun', 'C0066535', ['orch', 'phsu'], 0.0)||(',', '', '', '', 0.0)||('have', '', '', '', 0.0)||('the', '', '', '', 0.0)||('potential', 'adj', 'C0035647', ['qlco'], 0.0)||('to', '', '', '', 0.0)||('improve', 'verb', 'C0332161', ['qlco'], 0.0)||('glycemic control', '', '', '', 0.0)||('in', '', '', '', 0.0)||('type 2 diabetes mellitus', '', '', '', 0.0)||('.', '', '', '', 0.0)||
('the', '', '', '', 0.0)||('true', 'adj', 'C0205238', ['qlco'], 0.0)||('value', 'noun', 'C0042295', ['qlco'], 0.0)||('of', '', '', '', 0.0)||('these', '', '', '', 0.0)||('agents', '', '', '', 0.0)||(',', '', '', '', 0.0)||('especially', '', '', '', 0.0)||('in relation to', '', '', '', 0.0)||('diabetes', 'noun', 'C0011847', ['dsyn'], 0.0)||('related', 'verb', 'C0439849', ['qlco'], 0.0)||('mortality', 'noun', 'C0026565', ['qnco'], 0.0)||('and', '', '', '', 0.0)||('morbidity', 'noun', 'C0026538', ['qnco'], 0.0)||(',', '', '', '', 0.0)||('has', '', '', '', 0.0)||('never', 'adv', 'C2003901', ['tmco'], 0.0)||('been', '', '', '', 0.0)||('investigated', '', '', '', 0.0)||('in', '', '', '', 0.0)||('a', '', '', '', 0.0)||('systematic', 'adj', 'C0220922', ['ftcn'], 0.0)||('literature review', 'noun', 'C0282441', ['inpr'], 0.0)||('and', '', '', '', 0.0)||('meta - analysis', '', '', '', 0.0)||('.', '', '', '', 0.0)||
('to', '', '', '', 0.0)||('assess', 'verb', 'C1516048', ['acty'], 0.0)||('the', '', '', '', 0.0)||('effects', '', '', '', 0.0)||('of', '', '', '', 0.0)||('alpha - glucosidase', '', '', '', 0.0)||('inhibitors', 'noun', 'C0243077', ['chvf'], 0.0)||('s', '', '', '', 0.0)||('in', '', '', '', 0.0)||('patients', 'noun', 'C0030705', ['podg'], 0.0)||('with', '', '', '', 0.0)||('type 2 diabetes mellitus', '', '', '', 0.0)||('.', '', '', '', 0.0)||
('we', '', '', '', 0.0)||('searched', 'verb', 'C1706202', ['acty'], 0.0)||('the', '', '', '', 0.0)||('cochrane', '', '', '', 0.0)||('library', 'noun', 'C0023621', ['mnob', 'orgt'], 0.0)||(',', '', '', '', 0.0)||('medline', 'noun', 'C0025141', ['inpr'], 0.0)||(',', '', '', '', 0.0)||('embase', '', '', '', 0.0)||(',', '', '', '', 0.0)||('current', 'adj', 'C0521116', ['tmco'], 0.0)||('contents', 'noun', 'C0456205', ['cnce'], 0.0)||(',', '', '', '', 0.0)||('lilacs', '', '', '', 0.0)||(',', '', '', '', 0.0)||('databases', 'noun', 'C0242356', ['inpr'], 0.0)||('of', '', '', '', 0.0)||('ongoing', 'adj', 'C0549178', ['idcn'], 0.0)||('trials', '', '', '', 0.0)||(',', '', '', '', 0.0)||('reference', 'noun', 'C1514811', ['idcn'], 0.0)||('lists', '', '', '', 0.0)||('of', '', '', '', 0.0)||('reviews', '', '', '', 0.0)||('on', '', '', '', 0.0)||('the', '', '', '', 0.0)||('topic', 'noun', 'C1522168', ['ftcn'], 0.0)||('of', '', '', '', 0.0)||('alpha - glucosidase', '', '', '', 0.0)||('inhibitors', 'noun', 'C0243077', ['chvf'], 0.0)||('and', '', '', '', 0.0)||('we', '', '', '', 0.0)||('contacted', '', '', '', 0.0)||('experts', '', '', '', 0.0)||('and', '', '', '', 0.0)||('manufacturers', '', '', '', 0.0)||('for', '', '', '', 0.0)||('additional', 'adj', 'C1524062', ['ftcn'], 0.0)||('trials', '', '', '', 0.0)||('.', '', '', '', 0.0)||
('date', 'noun', 'C0011008', ['tmco'], 0.0)||('of', '', '', '', 0.0)||('most', '', '', '', 0.0)||('recent', 'adj', 'C0332185', ['tmco'], 0.0)||('search', 'noun', 'C1552603', ['idcn'], 0.0)||(':', '', '', '', 0.0)||('december', '', '', '', 0.0)||('2003', '', '', '', 0.0)||('(', '', '', '', 0.0)||('current', 'noun', 'C0521116', ['tmco'], 0.0)||('contents', 'noun', 'C0456205', ['cnce'], 0.0)||(')', '', '', '', 0.0)||('and', '', '', '', 0.0)||('april', '', '', '', 0.0)||('2003', '', '', '', 0.0)||('(', '', '', '', 0.0)||('other', '', '', '', 0.0)||('databases', 'noun', 'C0242356', ['inpr'], 0.0)||(')', '', '', '', 0.0)||('.', '', '', '', 0.0)||
('randomised controlled trials', '', '', '', 0.0)||('of', '', '', '', 0.0)||('at', '', '', '', 0.0)||('least', '', '', '', 0.0)||('12', '', '', '', 0.0)||('weeks', 'noun', 'C0439230', ['tmco'], 0.0)||('duration', 'noun', 'C0449238', ['tmco'], 0.0)||('comparing', '', '', '', 0.0)||('alpha - glucosidase', '', '', '', 0.0)||('inhibitor', 'noun', 'C1999216', ['qlco'], 0.0)||('monotherapy', '', '', '', 0.0)||('in', '', '', '', 0.0)||('patients', 'noun', 'C0030705', ['podg'], 0.0)||('with', '', '', '', 0.0)||('type 2 diabetes', 'noun', 'C0011860', ['dsyn'], 0.0)||('with', '', '', '', 0.0)||('any', '', '', '', 0.0)||('other', '', '', '', 0.0)||('intervention', 'noun', 'C1273869', ['hlca'], 0.0)||('and', '', '', '', 0.0)||('that', '', '', '', 0.0)||('included', '', '', '', 0.0)||('at', '', '', '', 0.0)||('least', '', '', '', 0.0)||('one', 'verb', 'C0205447', ['qnco'], 0.0)||('of', '', '', '', 0.0)||('the', '', '', '', 0.0)||('following', '', '', '', 0.0)||('outcomes', 'noun', 'C0085415', ['qlco'], 0.0)||(':', '', '', '', 0.0)||('mortality', 'noun', 'C0026565', ['qnco'], 0.0)||(',', '', '', '', 0.0)||('morbidity', 'noun', 'C0026538', ['qnco'], 0.0)||(',', '', '', '', 0.0)||('quality', 'noun', 'C0332306', ['qlco'], 0.0)||('of', '', '', '', 0.0)||('life', 'noun', 'C0376558', ['idcn'], 0.0)||(',', '', '', '', 0.0)||('glycemic control', '', '', '', 0.0)||(',', '', '', '', 0.0)||('lipids', 'noun', 'C0023779', ['lipd'], 0.0)||(',', '', '', '', 0.0)||('insulin levels', '', '', '', 0.0)||(',', '', '', '', 0.0)||('body weight', 'noun', 'C0005910', ['orga'], 0.0)||(',', '', '', '', 0.0)||('adverse', '', '', '', 0.0)||('events', 'noun', 'C0441471', ['evnt'], 0.0)||('.', '', '', '', 0.0)||
('two', 'adj', 'C0205448', ['qnco'], 0.0)||('reviewers', '', '', '', 0.0)||('read', 'verb', 'C0034754', ['dora'], 0.0)||('all', '', '', '', 0.0)||('abstracts', 'noun', 'C0600678', ['inpr'], 0.0)||(',', '', '', '', 0.0)||('assessed', 'adj', 'C1516048', ['acty'], 0.0)||('quality', 'noun', 'C0332306', ['qlco'], 0.0)||('and', '', '', '', 0.0)||('extracted', 'adj', 'C0185115', ['topp'], 0.0)||('data', 'noun', 'C1511726', ['idcn'], 0.0)||('independently', '', '', '', 0.0)||('.', '', '', '', 0.0)||
('discrepancies', '', '', '', 0.0)||('were', '', '', '', 0.0)||('resolved', 'verb', 'C1514893', ['idcn'], 0.0)||('by', '', '', '', 0.0)||('consensus', 'noun', 'C0376298', ['socb'], 0.0)||('or', '', '', '', 0.0)||('by', '', '', '', 0.0)||('the', '', '', '', 0.0)||('judgement', 'noun', 'C0022423', ['menp'], 0.0)||('of', '', '', '', 0.0)||('a', '', '', '', 0.0)||('third', 'adj', 'C0205437', ['qnco'], 0.0)||('reviewer', 'noun', 'C1709941', ['qlco'], 0.0)||('.', '', '', '', 0.0)||
('a', '', '', '', 0.0)||('statistician', 'adj', 'C0334957', ['prog'], 0.0)||('checked', '', '', '', 0.0)||('all', '', '', '', 0.0)||('extracted', 'adj', 'C0185115', ['topp'], 0.0)||('data', 'noun', 'C1511726', ['idcn'], 0.0)||('entrance', 'noun', 'C0337095', ['spco'], 0.0)||('in', '', '', '', 0.0)||('the', '', '', '', 0.0)||('database', 'noun', 'C0242356', ['inpr'], 0.0)||('.', '', '', '', 0.0)||
('we', '', '', '', 0.0)||('attempted', '', '', '', 0.0)||('to', '', '', '', 0.0)||('contact', 'verb', 'C0337611', ['popg'], 0.0)||('all', '', '', '', 0.0)||('authors', 'noun', 'C0341628', ['prog'], 0.0)||('for', '', '', '', 0.0)||('data', 'noun', 'C1511726', ['idcn'], 0.0)||('clarification', '', '', '', 0.0)||('.', '', '', '', 0.0)||
('we', '', '', '', 0.0)||('included', '', '', '', 0.0)||('41', '', '', '', 0.0)||('trials', '', '', '', 0.0)||('(', '', '', '', 0.0)||('8130', '', '', '', 0.0)||('participants', '', '', '', 0.0)||(')', '', '', '', 0.0)||(',', '', '', '', 0.0)||('30', '', '', '', 0.0)||('investigated', '', '', '', 0.0)||('acarbose', 'noun', 'C0050393', ['carb', 'phsu'], 0.0)||(',', '', '', '', 0.0)||('seven', '', 'C0205453', ['qnco'], 0.0)||('miglitol', 'noun', 'C0066535', ['orch', 'phsu'], 0.0)||(',', '', '', '', 0.0)||('one', 'noun', 'C0205447', ['qnco'], 0.0)||('trial', 'noun', 'C0008976', ['resa'], 0.0)||('voglibose', 'noun', 'C0532578', ['carb', 'phsu'], 0.0)||('and', '', '', '', 0.0)||('three', '', 'C0205449', ['qnco'], 0.0)||('trials', '', '', '', 0.0)||('compared', 'verb', 'C1707455', ['acty'], 0.0)||('different', 'adj', 'C1705242', ['qlco'], 0.0)||('alpha - glucosidase', '', '', '', 0.0)||('inhibitors', 'noun', 'C0243077', ['chvf'], 0.0)||('.', '', '', '', 0.0)||
('study', 'noun', 'C0008976', ['resa'], 0.0)||('duration', 'noun', 'C0449238', ['tmco'], 0.0)||('was', '', '', '', 0.0)||('24', '', '', '', 0.0)||('weeks', 'noun', 'C0439230', ['tmco'], 0.0)||('in', '', '', '', 0.0)||('most', '', '', '', 0.0)||('cases', 'noun', 'C0868928', ['ftcn'], 0.0)||('and', '', '', '', 0.0)||('only', '', '', '', 0.0)||('two', 'adj', 'C0205448', ['qnco'], 0.0)||('studies', '', '', '', 0.0)||('lasted', '', '', '', 0.0)||('amply', '', '', '', 0.0)||('longer', '', '', '', 0.0)||('than', '', '', '', 0.0)||('one', 'noun', 'C0205447', ['qnco'], 0.0)||('year', 'noun', 'C0439234', ['tmco'], 0.0)||('.', '', '', '', 0.0)||
('we', '', '', '', 0.0)||('found', '', '', '', 0.0)||('only', '', '', '', 0.0)||('few', '', '', '', 0.0)||('data', 'noun', 'C1511726', ['idcn'], 0.0)||('on', '', '', '', 0.0)||('mortality', 'noun', 'C0026565', ['qnco'], 0.0)||(',', '', '', '', 0.0)||('morbidity', 'noun', 'C0026538', ['qnco'], 0.0)||('and', '', '', '', 0.0)||('quality', 'noun', 'C0332306', ['qlco'], 0.0)||('of', '', '', '', 0.0)||('life', 'noun', 'C0376558', ['idcn'], 0.0)||('.', '', '', '', 0.0)||
('acarbose', 'noun', 'C0050393', ['carb', 'phsu'], 0.0)||('had', '', '', '', 0.0)||('a', '', '', '', 0.0)||('clear', 'adj', 'C0522503', ['qlco'], 0.0)||('effect', 'noun', 'C1280500', ['qlco'], 0.0)||('on', '', '', '', 0.0)||('glycemic control', '', '', '', 0.0)||('compared', 'verb', 'C1707455', ['acty'], 0.0)||('to', '', '', '', 0.0)||('placebo', 'noun', 'C0032042', ['topp'], 0.0)||(':', '', '', '', 0.0)||('glycated haemoglobin', 'noun', 'C0017853', ['aapp', 'bacs'], 0.0)||('-', '', '', '', 0.0)||('0 . 8 %', '', '', '', 0.0)||('(', '', '', '', 0.0)||('95 %', '', '', '', 0.0)||('confidence interval', 'noun', 'C0009667', ['qnco'], 0.0)||('-', '', '', '', 0.0)||('0 . 9', '', '', '', 0.0)||('to', '', '', '', 0.0)||('-', '', '', '', 0.0)||('0 . 7', '', '', '', 0.0)||(')', '', '', '', 0.0)||(',', '', '', '', 0.0)||('fasting blood glucose', 'noun', 'C0428568', ['lbpr'], 0.0)||('-', '', '', '', 0.0)||('1 . 1', '', '', '', 0.0)||('mmol', '', '', '', 0.0)||('/', '', '', '', 0.0)||('l (', '', '', '', 0.0)||('95 %', '', '', '', 0.0)||('confidence interval', 'noun', 'C0009667', ['qnco'], 0.0)||('-', '', '', '', 0.0)||('1 . 4', '', '', '', 0.0)||('to', '', '', '', 0.0)||('-', '', '', '', 0.0)||('0 . 9', '', '', '', 0.0)||(')', '', '', '', 0.0)||(',', '', '', '', 0.0)||('post - load', '', '', '', 0.0)||('blood glucose', 'noun', 'C0005802', ['carb'], 0.0)||('-', '', '', '', 0.0)||('2 . 3', '', '', '', 0.0)||('mmol', '', '', '', 0.0)||('/', '', '', '', 0.0)||('l (', '', '', '', 0.0)||('95 %', '', '', '', 0.0)||('confidence interval', 'noun', 'C0009667', ['qnco'], 0.0)||('-', '', '', '', 0.0)||('2 . 7', '', '', '', 0.0)||('to', '', '', '', 0.0)||('-', '', '', '', 0.0)||('1 . 9', '', '', '', 0.0)||(')', '', '', '', 0.0)||('.', '', '', '', 0.0)||
('the', '', '', '', 0.0)||('effect', 'noun', 'C1280500', ['qlco'], 0.0)||('on', '', '', '', 0.0)||('glycated haemoglobin', 'noun', 'C0017853', ['aapp', 'bacs'], 0.0)||('by', '', '', '', 0.0)||('acarbose', 'noun', 'C0050393', ['carb', 'phsu'], 0.0)||('was', '', '', '', 0.0)||('not', 'adv', 'C1518422', ['ftcn'], 0.0)||('dose - dependent', '', '', '', 0.0)||('.', '', '', '', 0.0)||
('we', '', '', '', 0.0)||('found', '', '', '', 0.0)||('a', '', '', '', 0.0)||('decreasing', 'adj', 'C0442797', ['qlco'], 0.0)||('effect', 'noun', 'C1280500', ['qlco'], 0.0)||('on', '', '', '', 0.0)||('post - load', '', '', '', 0.0)||('insulin', 'noun', 'C0021641', ['aapp', 'horm', 'phsu'], 0.0)||('and', '', '', '', 0.0)||('no', '', '', '', 0.0)||('clinically', '', '', '', 0.0)||('relevant', 'adj', 'C2347946', ['qlco'], 0.0)||('effects', '', '', '', 0.0)||('on', '', '', '', 0.0)||('lipids', 'noun', 'C0023779', ['lipd'], 0.0)||('or', '', '', '', 0.0)||('body weight', 'noun', 'C0005910', ['orga'], 0.0)||('.', '', '', '', 0.0)||
('adverse effects', 'noun', 'C0001688', ['ftcn'], 0.0)||('were', '', '', '', 0.0)||('mostly', 'adv', 'C0750554', ['idcn'], 0.0)||('of', '', '', '', 0.0)||('gastro - intestinal', '', '', '', 0.0)||('origin', 'noun', 'C0439659', ['tmco'], 0.0)||('and', '', '', '', 0.0)||('dose dependent', '', '', '', 0.0)||('.', '', '', '', 0.0)||
('compared', 'verb', 'C1707455', ['acty'], 0.0)||('to', '', '', '', 0.0)||('sulphonylurea', '', '', '', 0.0)||(',', '', '', '', 0.0)||('acarbose', 'noun', 'C0050393', ['carb', 'phsu'], 0.0)||('decreased', 'adj', 'C0205216', ['qnco'], 0.0)||('fasting', 'noun', 'C0015663', ['fndg'], 0.0)||('and', '', '', '', 0.0)||('post - load', '', '', '', 0.0)||('insulin levels', '', '', '', 0.0)||('by', '', '', '', 0.0)||('-', '', '', '', 0.0)||('24 . 8', '', '', '', 0.0)||('pmol', 'noun', 'C0439192', ['qnco'], 0.0)||('/', '', '', '', 0.0)||('l (', '', '', '', 0.0)||('95 %', '', '', '', 0.0)||('confidence interval', 'noun', 'C0009667', ['qnco'], 0.0)||('-', '', '', '', 0.0)||('43 . 3', '', '', '', 0.0)||('to', '', '', '', 0.0)||('-', '', '', '', 0.0)||('6 . 3', '', '', '', 0.0)||(')', '', '', '', 0.0)||('and', '', '', '', 0.0)||('-', '', '', '', 0.0)||('133 . 2', '', '', '', 0.0)||('pmol', 'noun', 'C0439192', ['qnco'], 0.0)||('/', '', '', '', 0.0)||('l (', '', '', '', 0.0)||('95 %', '', '', '', 0.0)||('confidence interval', 'noun', 'C0009667', ['qnco'], 0.0)||('-', '', '', '', 0.0)||('184 . 5', '', '', '', 0.0)||('to', '', '', '', 0.0)||('-', '', '', '', 0.0)||('81 . 8', '', '', '', 0.0)||(')', '', '', '', 0.0)||('respectively', '', '', '', 0.0)||('and', '', '', '', 0.0)||('acarbose', 'noun', 'C0050393', ['carb', 'phsu'], 0.0)||('caused', '', '', '', 0.0)||('more', '', '', '', 0.0)||('adverse effects', 'noun', 'C0001688', ['ftcn'], 0.0)||('.', '', '', '', 0.0)||
('it', '', '', '', 0.0)||('remains', '', '', '', 0.0)||('unclear', '', '', '', 0.0)||('whether', '', '', '', 0.0)||('alpha - glucosidase', '', '', '', 0.0)||('inhibitors', 'noun', 'C0243077', ['chvf'], 0.0)||('influence', '', '', '', 0.0)||('mortality', 'noun', 'C0026565', ['qnco'], 0.0)||('or', '', '', '', 0.0)||('morbidity', 'noun', 'C0026538', ['qnco'], 0.0)||('in', '', '', '', 0.0)||('patients', 'noun', 'C0030705', ['podg'], 0.0)||('with', '', '', '', 0.0)||('type 2 diabetes', 'noun', 'C0011860', ['dsyn'], 0.0)||('.', '', '', '', 0.0)||
('conversely', '', '', '', 0.0)||(',', '', '', '', 0.0)||('they', '', '', '', 0.0)||('have', '', '', '', 0.0)||('a', '', '', '', 0.0)||('significant', 'adj', 'C0750502', ['idcn'], 0.0)||('effect', 'noun', 'C1280500', ['qlco'], 0.0)||('on', '', '', '', 0.0)||('glycemic control', '', '', '', 0.0)||('and', '', '', '', 0.0)||('insulin levels', '', '', '', 0.0)||(',', '', '', '', 0.0)||('but', '', '', '', 0.0)||('no', '', '', '', 0.0)||('statistically significant', 'adj', 'C0237881', ['qnco'], 0.0)||('effect', 'noun', 'C1280500', ['qlco'], 0.0)||('on', '', '', '', 0.0)||('lipids', 'noun', 'C0023779', ['lipd'], 0.0)||('and', '', '', '', 0.0)||('body weight', 'noun', 'C0005910', ['orga'], 0.0)||('.', '', '', '', 0.0)||
('these', '', '', '', 0.0)||('effects', '', '', '', 0.0)||('are', '', '', '', 0.0)||('less', '', '', '', 0.0)||('sure', '', '', '', 0.0)||('when', '', '', '', 0.0)||('alpha - glucosidase', '', '', '', 0.0)||('inhibitors', 'noun', 'C0243077', ['chvf'], 0.0)||('are', '', '', '', 0.0)||('used', '', '', '', 0.0)||('for', '', '', '', 0.0)||('a', '', '', '', 0.0)||('longer', '', '', '', 0.0)||('duration', 'noun', 'C0449238', ['tmco'], 0.0)||('.', '', '', '', 0.0)||
('acarbose', 'noun', 'C0050393', ['carb', 'phsu'], 0.0)||('dosages', 'noun', 'C0178602', ['qnco'], 0.0)||('higher', '', '', '', 0.0)||('than', '', '', '', 0.0)||('50', '', '', '', 0.0)||('mg', '', '', '', 0.0)||('tid', 'noun', 'C0556984', ['tmco'], 0.0)||('offer', '', '', '', 0.0)||('no', '', '', '', 0.0)||('additional', 'adj', 'C1524062', ['ftcn'], 0.0)||('effect', 'noun', 'C1280500', ['qlco'], 0.0)||('on', '', '', '', 0.0)||('glycated hemoglobin', '', '', '', 0.0)||('but', '', '', '', 0.0)||('more', '', '', '', 0.0)||('adverse effects', 'noun', 'C0001688', ['ftcn'], 0.0)||('instead', '', '', '', 0.0)||('.', '', '', '', 0.0)||
('compared', 'verb', 'C1707455', ['acty'], 0.0)||('to', '', '', '', 0.0)||('sulphonylurea', '', '', '', 0.0)||(',', '', '', '', 0.0)||('alpha - glucosidase', '', '', '', 0.0)||('inhibitors', 'noun', 'C0243077', ['chvf'], 0.0)||('lower', 'verb', 'C0441994', ['ftcn'], 0.0)||('fasting', 'noun', 'C0015663', ['fndg'], 0.0)||('and', '', '', '', 0.0)||('post - load', '', '', '', 0.0)||('insulin levels', '', '', '', 0.0)||('and', '', '', '', 0.0)||('have', '', '', '', 0.0)||('an', '', '', '', 0.0)||('inferior', 'adj', 'C0542339', ['spco'], 0.0)||('profile', 'noun', 'C1979963', ['lbpr'], 0.0)||('regarding', '', '', '', 0.0)||('glycemic control', '', '', '', 0.0)||('and', '', '', '', 0.0)||('adverse effects', 'noun', 'C0001688', ['ftcn'], 0.0)||('.', '', '', '', 0.0)||
