('one', 'noun', 'C0205447', ['qnco'], 0.0)||('good', 'adj', 'C0205170', ['qlco'], 0.0)||('-', '', '', '', 0.0)||('quality', 'noun', 'C0332306', ['qlco'], 0.0)||('rct', '', '', '', 0.0)||('(', '', '', '', 0.0)||('100', '', '', '', 0.0)||('children', 'noun', 'C0008059', ['aggp'], 0.0)||(',', '', '', '', 0.0)||('6', '', '', '', 0.0)||('months', 'noun', 'C0439231', ['tmco'], 0.0)||('to', '', '', '', 0.0)||('15', '', '', '', 0.0)||('years', 'noun', 'C0439234', ['tmco'], 0.0)||('old', 'noun', 'C0580836', ['tmco'], 0.0)||('with', '', '', '', 0.0)||('cfc', 'noun', 'C1420595', ['gngm'], 0.0)||(')', '', '', '', 0.0)||('compared', 'adj', 'C1707455', ['acty'], 0.0)||('peg', 'noun', 'C0032478', ['phsu'], 0.0)||('+', '', '', '', 0.0)||('e', '', '', '', 0.0)||('with', '', '', '', 0.0)||('lactulose', 'noun', 'C0022957', ['carb', 'phsu'], 0.0)||('.', '', '', '', 0.0)||
('both', '', '', '', 0.0)||('significantly', '', '', '', 0.0)||('increased', 'adj', 'C0205217', ['qnco'], 0.0)||('stool', 'noun', 'C0015733', ['bdsu'], 0.0)||('frequency', 'noun', 'C0376249', ['qnco'], 0.0)||('and', '', '', '', 0.0)||('decreased', 'adj', 'C0205216', ['qnco'], 0.0)||('encopresis', 'noun', 'C0014089', ['fndg'], 0.0)||('.', '', '', '', 0.0)||
('however', '', '', '', 0.0)||(',', '', '', '', 0.0)||('peg', 'noun', 'C0032478', ['phsu'], 0.0)||('+', '', '', '', 0.0)||('e', '', '', '', 0.0)||('had', '', '', '', 0.0)||('a', '', '', '', 0.0)||('markedly', 'adv', 'C0522501', ['qlco'], 0.0)||('higher', '', '', '', 0.0)||('success rate', '', '', '', 0.0)||('(', '', '', '', 0.0)||('56 %', '', '', '', 0.0)||('vs', '', '', '', 0.0)||('29 %', '', '', '', 0.0)||(';', '', '', '', 0.0)||('nnt', 'noun', 'C1417750', ['gngm'], 0.0)||('=', '', '', '', 0.0)||('3 . 7', '', '', '', 0.0)||(';', '', '', '', 0.0)||('p', '', '', '', 0.0)||('=', '', '', '', 0.0)||('.', '', '', '', 0.0)||('02', '', '', '', 0.0)||(')', '', '', '', 0.0)||('.', '', '', '', 0.0)||
('the', '', '', '', 0.0)||('8', '', '', '', 0.0)||('-', '', '', '', 0.0)||('week', 'noun', 'C0439230', ['tmco'], 0.0)||('trial', 'noun', 'C0008976', ['resa'], 0.0)||('found', '', '', '', 0.0)||('significantly', '', '', '', 0.0)||('more', '', '', '', 0.0)||('complaints', '', '', '', 0.0)||('about', '', '', '', 0.0)||('bad', 'adj', 'C0205169', ['qlco'], 0.0)||('taste', 'noun', 'C0039336', ['ortf'], 0.0)||('in', '', '', '', 0.0)||('the', '', '', '', 0.0)||('peg', 'noun', 'C0032478', ['phsu'], 0.0)||('+', '', '', '', 0.0)||('e', '', '', '', 0.0)||('group', 'noun', 'C0441833', ['idcn'], 0.0)||(';', '', '', '', 0.0)||
('the', '', '', '', 0.0)||('lactulose', 'noun', 'C0022957', ['carb', 'phsu'], 0.0)||('group', 'noun', 'C0441833', ['idcn'], 0.0)||('reported', 'verb', 'C0684224', ['inpr'], 0.0)||('higher', '', '', '', 0.0)||('rates', '', '', '', 0.0)||('of', '', '', '', 0.0)||('abdominal pain', 'noun', 'C0000737', ['sosy'], 0.0)||(',', '', '', '', 0.0)||('straining', 'noun', 'C0442694', ['phsf'], 0.0)||(',', '', '', '', 0.0)||('and', '', '', '', 0.0)||('pain', 'noun', 'C0030193', ['sosy'], 0.0)||('at', '', '', '', 0.0)||('defecation', '', '', '', 0.0)||('.', '', '', '', 0.0)||
('the', '', '', '', 0.0)||('only', '', '', '', 0.0)||('dropout', 'adv', 'C0013135', ['popg'], 0.0)||('because of', '', '', '', 0.0)||('adverse', '', '', '', 0.0)||('events', 'noun', 'C0441471', ['evnt'], 0.0)||('(', '', '', '', 0.0)||('bad', 'adj', 'C0205169', ['qlco'], 0.0)||('taste', 'noun', 'C0039336', ['ortf'], 0.0)||(')', '', '', '', 0.0)||('occurred', 'verb', 'C1709305', ['cnce'], 0.0)||('in', '', '', '', 0.0)||('the', '', '', '', 0.0)||('peg', 'noun', 'C0032478', ['phsu'], 0.0)||('+', '', '', '', 0.0)||('e', '', '', '', 0.0)||('group', 'noun', 'C0441833', ['idcn'], 0.0)||('.', '', '', '', 0.0)||
