('this', '', '', '', 0.0)||('study', 'noun', 'C0008976', ['resa'], 0.0)||('was', '', '', '', 0.0)||('conducted', '', '', '', 0.0)||('to', '', '', '', 0.0)||('determine', '', '', '', 0.0)||('the', '', '', '', 0.0)||('effect', 'noun', 'C1280500', ['qlco'], 0.0)||('of', '', '', '', 0.0)||('bupropion', 'noun', 'C0085208', ['orch', 'phsu'], 0.0)||('on', '', '', '', 0.0)||('the', '', '', '', 0.0)||('sexual', 'adj', 'C0036864', ['bhvr'], 0.0)||('functioning', '', '', '', 0.0)||('of', '', '', '', 0.0)||('male', 'noun', 'C0024554', ['orga'], 0.0)||('and', '', '', '', 0.0)||('female', 'noun', 'C0015780', ['orga'], 0.0)||('outpatients', 'noun', 'C0029921', ['podg'], 0.0)||('who', '', '', '', 0.0)||('developed', '', '', '', 0.0)||('anorgasmia', 'noun', 'C0234022', ['mobd'], 0.0)||('or', '', '', '', 0.0)||('delayed', 'adj', 'C0205421', ['tmco'], 0.0)||('orgasm', 'noun', 'C0029260', ['orgf'], 0.0)||('while', '', '', '', 0.0)||('receiving', '', '', '', 0.0)||('fluoxetine', 'noun', 'C0016365', ['orch', 'phsu'], 0.0)||('treatment', 'noun', 'C0039798', ['ftcn'], 0.0)||('for', '', '', '', 0.0)||('depression', 'noun', 'C0011570', ['mobd'], 0.0)||('.', '', '', '', 0.0)||
('thirty - nine', '', '', '', 0.0)||('patients', 'noun', 'C0030705', ['podg'], 0.0)||('who', '', '', '', 0.0)||('satisfied', 'verb', 'C0242428', ['menp'], 0.0)||('criteria', 'noun', 'C0243161', ['inpr'], 0.0)||('for', '', '', '', 0.0)||('participation', 'noun', 'C0679823', ['ftcn'], 0.0)||('in', '', '', '', 0.0)||('the', '', '', '', 0.0)||('study', 'noun', 'C0008976', ['resa'], 0.0)||('discontinued', 'verb', 'C1444662', ['fndg'], 0.0)||('fluoxetine', 'noun', 'C0016365', ['orch', 'phsu'], 0.0)||('treatment', 'noun', 'C0039798', ['ftcn'], 0.0)||('and', '', '', '', 0.0)||('entered', 'verb', 'C1521975', ['qlco'], 0.0)||('a', '', '', '', 0.0)||('2', '', '', '', 0.0)||('-', '', '', '', 0.0)||('week', 'noun', 'C0439230', ['tmco'], 0.0)||('washout', 'noun', 'C1710661', ['tmco'], 0.0)||('phase', 'noun', 'C0205390', ['tmco'], 0.0)||('followed', '', '', '', 0.0)||('by', '', '', '', 0.0)||('an', '', '', '', 0.0)||('open', 'adj', 'C0175566', ['spco'], 0.0)||('8', '', '', '', 0.0)||('-', '', '', '', 0.0)||('week', 'noun', 'C0439230', ['tmco'], 0.0)||('bupropion', 'noun', 'C0085208', ['orch', 'phsu'], 0.0)||('treatment', 'noun', 'C0039798', ['ftcn'], 0.0)||('phase', 'noun', 'C0205390', ['tmco'], 0.0)||('.', '', '', '', 0.0)||
('three', '', 'C0205449', ['qnco'], 0.0)||('parameters', 'noun', 'C0449381', ['fndg'], 0.0)||('of', '', '', '', 0.0)||('sexual', 'adj', 'C0036864', ['bhvr'], 0.0)||('functioning', '', '', '', 0.0)||('were', '', '', '', 0.0)||('followed', '', '', '', 0.0)||('throughout', '', '', '', 0.0)||('the', '', '', '', 0.0)||('study', 'noun', 'C0008976', ['resa'], 0.0)||(':', '', '', '', 0.0)||('orgasm', 'noun', 'C0029260', ['orgf'], 0.0)||('function', 'noun', 'C0031843', ['phsf'], 0.0)||(',', '', '', '', 0.0)||('libido', 'noun', 'C0023618', ['menp'], 0.0)||(',', '', '', '', 0.0)||('and', '', '', '', 0.0)||('satisfaction', 'noun', 'C0242428', ['menp'], 0.0)||('with', '', '', '', 0.0)||('overall', 'adj', 'C0282416', ['inpr'], 0.0)||('sexual', 'adj', 'C0036864', ['bhvr'], 0.0)||('functioning', '', '', '', 0.0)||('.', '', '', '', 0.0)||
('depression', 'noun', 'C0011570', ['mobd'], 0.0)||('was', '', '', '', 0.0)||('also', '', '', '', 0.0)||('evaluated', 'verb', 'C0220825', ['ftcn'], 0.0)||('at', '', '', '', 0.0)||('each', '', '', '', 0.0)||('visit', 'noun', 'C0545082', ['bhvr'], 0.0)||('.', '', '', '', 0.0)||
('all', '', '', '', 0.0)||('patients', 'noun', 'C0030705', ['podg'], 0.0)||('reported', 'verb', 'C0684224', ['inpr'], 0.0)||('orgasm', 'noun', 'C0029260', ['orgf'], 0.0)||('delay', 'noun', 'C0205421', ['tmco'], 0.0)||('and / or', '', '', '', 0.0)||('failure', 'noun', 'C0231174', ['ftcn'], 0.0)||('at', '', '', '', 0.0)||('the', '', '', '', 0.0)||('time', 'noun', 'C0040223', ['tmco'], 0.0)||('of', '', '', '', 0.0)||('fluoxetine', 'noun', 'C0016365', ['orch', 'phsu'], 0.0)||('discontinuation', 'noun', 'C0457454', ['hlca'], 0.0)||('.', '', '', '', 0.0)||
('orgasm', 'noun', 'C0029260', ['orgf'], 0.0)||('function', 'noun', 'C0031843', ['phsf'], 0.0)||(',', '', '', '', 0.0)||('libido', 'noun', 'C0023618', ['menp'], 0.0)||(',', '', '', '', 0.0)||('and', '', '', '', 0.0)||('satisfaction', 'noun', 'C0242428', ['menp'], 0.0)||('with', '', '', '', 0.0)||('sexual', 'adj', 'C0036864', ['bhvr'], 0.0)||('functioning', '', '', '', 0.0)||('improved', 'verb', 'C0184511', ['qlco'], 0.0)||('during', '', '', '', 0.0)||('the', '', '', '', 0.0)||('2', '', '', '', 0.0)||('-', '', '', '', 0.0)||('week', 'noun', 'C0439230', ['tmco'], 0.0)||('fluoxetine', 'noun', 'C0016365', ['orch', 'phsu'], 0.0)||('washout', 'noun', 'C1710661', ['tmco'], 0.0)||('period', 'noun', 'C1948053', ['tmco'], 0.0)||('and', '', '', '', 0.0)||('during', '', '', '', 0.0)||('the', '', '', '', 0.0)||('bupropion', 'noun', 'C0085208', ['orch', 'phsu'], 0.0)||('treatment', 'noun', 'C0039798', ['ftcn'], 0.0)||('phase', 'noun', 'C0205390', ['tmco'], 0.0)||('.', '', '', '', 0.0)||
('ninety - four', '', '', '', 0.0)||('percent', 'noun', 'C0439165', ['qnco'], 0.0)||('of', '', '', '', 0.0)||('patients', 'noun', 'C0030705', ['podg'], 0.0)||('(', '', '', '', 0.0)||('29 / 31', '', '', '', 0.0)||(')', '', '', '', 0.0)||('had', '', '', '', 0.0)||('complete', 'adj', 'C0205197', ['qlco'], 0.0)||('or', '', '', '', 0.0)||('partial', 'adj', 'C0728938', ['qnco'], 0.0)||('resolution', 'noun', 'C1514893', ['idcn'], 0.0)||('of', '', '', '', 0.0)||('their', '', '', '', 0.0)||('orgasm', 'noun', 'C0029260', ['orgf'], 0.0)||('dysfunction', 'noun', 'C0031847', ['ftcn'], 0.0)||('at', '', '', '', 0.0)||('the', '', '', '', 0.0)||('end', 'noun', 'C0444930', ['spco'], 0.0)||('of', '', '', '', 0.0)||('bupropion', 'noun', 'C0085208', ['orch', 'phsu'], 0.0)||('treatment', 'noun', 'C0039798', ['ftcn'], 0.0)||(',', '', '', '', 0.0)||('and', '', '', '', 0.0)||('81 %', '', '', '', 0.0)||('of', '', '', '', 0.0)||('patients', 'noun', 'C0030705', ['podg'], 0.0)||('(', '', '', '', 0.0)||('25 / 31', '', '', '', 0.0)||(')', '', '', '', 0.0)||('were', '', '', '', 0.0)||('"', '', '', '', 0.0)||('much', '', '', '', 0.0)||('"', '', '', '', 0.0)||('or', '', '', '', 0.0)||('"', '', '', '', 0.0)||('very', 'adv', 'C0442824', ['qlco'], 0.0)||('much', '', '', '', 0.0)||('"', '', '', '', 0.0)||('more', '', '', '', 0.0)||('satisfied', 'verb', 'C0242428', ['menp'], 0.0)||('with', '', '', '', 0.0)||('their', '', '', '', 0.0)||('overall', 'adj', 'C0282416', ['inpr'], 0.0)||('sexual', 'adj', 'C0036864', ['bhvr'], 0.0)||('functioning', '', '', '', 0.0)||('.', '', '', '', 0.0)||
('most', '', '', '', 0.0)||('patients', 'noun', 'C0030705', ['podg'], 0.0)||('entered', 'verb', 'C1521975', ['qlco'], 0.0)||('the', '', '', '', 0.0)||('study', 'noun', 'C0008976', ['resa'], 0.0)||('with', '', '', '', 0.0)||('decreased libido', 'noun', 'C0011124', ['sosy'], 0.0)||('on', '', '', '', 0.0)||('fluoxetine', 'noun', 'C0016365', ['orch', 'phsu'], 0.0)||('.', '', '', '', 0.0)||
('libido', 'noun', 'C0023618', ['menp'], 0.0)||('was', '', '', '', 0.0)||('"', '', '', '', 0.0)||('much', '', '', '', 0.0)||('"', '', '', '', 0.0)||('or', '', '', '', 0.0)||('"', '', '', '', 0.0)||('very', 'adv', 'C0442824', ['qlco'], 0.0)||('much', '', '', '', 0.0)||('"', '', '', '', 0.0)||('increased', 'verb', 'C0205217', ['qnco'], 0.0)||('for', '', '', '', 0.0)||('81 %', '', '', '', 0.0)||('of', '', '', '', 0.0)||('patients', 'noun', 'C0030705', ['podg'], 0.0)||('(', '', '', '', 0.0)||('25 / 31', '', '', '', 0.0)||(')', '', '', '', 0.0)||('at', '', '', '', 0.0)||('the', '', '', '', 0.0)||('end', 'noun', 'C0444930', ['spco'], 0.0)||('of', '', '', '', 0.0)||('the', '', '', '', 0.0)||('study', 'noun', 'C0008976', ['resa'], 0.0)||('.', '', '', '', 0.0)||
('in', '', '', '', 0.0)||('addition', 'noun', 'C1883712', ['ftcn'], 0.0)||(',', '', '', '', 0.0)||('depression', 'noun', 'C0011570', ['mobd'], 0.0)||('scores', 'verb', 'C0449820', ['qnco'], 0.0)||('on', '', '', '', 0.0)||('the', '', '', '', 0.0)||('hamilton rating scale for depression', 'noun', 'C0451203', ['inpr'], 0.0)||('and', '', '', '', 0.0)||('clinical', 'adj', 'C0205210', ['qlco'], 0.0)||('global', 'adj', 'C0205246', ['spco'], 0.0)||('impressions', '', '', '', 0.0)||('-', '', '', '', 0.0)||('severity', 'noun', 'C0439793', ['qlco'], 0.0)||('scale', 'noun', 'C0175659', ['medd'], 0.0)||('significantly', '', '', '', 0.0)||('improved', 'verb', 'C0184511', ['qlco'], 0.0)||('during', '', '', '', 0.0)||('the', '', '', '', 0.0)||('bupropion', 'noun', 'C0085208', ['orch', 'phsu'], 0.0)||('treatment', 'noun', 'C0039798', ['ftcn'], 0.0)||('phase', 'noun', 'C0205390', ['tmco'], 0.0)||('.', '', '', '', 0.0)||
('finally', '', '', '', 0.0)||(',', '', '', '', 0.0)||('bupropion', 'noun', 'C0085208', ['orch', 'phsu'], 0.0)||('was', '', '', '', 0.0)||('well tolerated', '', '', '', 0.0)||('by', '', '', '', 0.0)||('most', '', '', '', 0.0)||('patients', 'noun', 'C0030705', ['podg'], 0.0)||('.', '', '', '', 0.0)||
('bupropion', 'noun', 'C0085208', ['orch', 'phsu'], 0.0)||('may', '', '', '', 0.0)||('be', '', '', '', 0.0)||('an', '', '', '', 0.0)||('appropriate', 'adj', 'C1548787', ['qlco'], 0.0)||('antidepressant', 'noun', 'C0003289', ['phsu'], 0.0)||('for', '', '', '', 0.0)||('patients', 'noun', 'C0030705', ['podg'], 0.0)||('who', '', '', '', 0.0)||('develop', '', '', '', 0.0)||('sexual', 'adj', 'C0036864', ['bhvr'], 0.0)||('dysfunction', 'noun', 'C0031847', ['ftcn'], 0.0)||('during', '', '', '', 0.0)||('fluoxetine', 'noun', 'C0016365', ['orch', 'phsu'], 0.0)||('treatment', 'noun', 'C0039798', ['ftcn'], 0.0)||('or', '', '', '', 0.0)||('for', '', '', '', 0.0)||('whom', '', '', '', 0.0)||('sexual', 'adj', 'C0036864', ['bhvr'], 0.0)||('dysfunction', 'noun', 'C0031847', ['ftcn'], 0.0)||('is', '', '', '', 0.0)||('a', '', '', '', 0.0)||('concern', 'noun', 'C2699424', ['idcn'], 0.0)||('.', '', '', '', 0.0)||
