('to', '', '', '', 0.0)||('evaluate', 'verb', 'C0220825', ['ftcn'], 0.0)||('saline infusion sonohysterography', 'noun', 'C0949051', ['diap'], 0.0)||('as', '', '', '', 0.0)||('an', '', '', '', 0.0)||('investigative', '', '', '', 0.0)||('modality', 'noun', 'C0695347', ['idcn'], 0.0)||('in', '', '', '', 0.0)||('abnormal', 'adj', 'C0205161', ['ftcn'], 0.0)||('uterine', 'adj', 'C0042149', ['bpoc'], 0.0)||('bleeding', 'noun', 'C0019080', ['fndg'], 0.0)||('in', '', '', '', 0.0)||('perimenopausal', 'adj', 'C0677925', ['tmco'], 0.0)||('and', '', '', '', 0.0)||('postmenopausal women', '', '', '', 0.0)||('.', '', '', '', 0.0)||
('fifty - eight', '', '', '', 0.0)||('patients', 'noun', 'C0030705', ['podg'], 0.0)||(',', '', '', '', 0.0)||('52', '', '', '', 0.0)||('perimenopausal', 'noun', 'C0677925', ['tmco'], 0.0)||('and', '', '', '', 0.0)||('six', '', 'C0205452', ['qnco'], 0.0)||('postmenopausal women', '', '', '', 0.0)||(',', '', '', '', 0.0)||('with', '', '', '', 0.0)||('abnormal', 'adj', 'C0205161', ['ftcn'], 0.0)||('uterine', 'adj', 'C0042149', ['bpoc'], 0.0)||('bleeding', 'noun', 'C0019080', ['fndg'], 0.0)||('were', '', '', '', 0.0)||('selected', '', '', '', 0.0)||('from', '', '', '', 0.0)||('the', '', '', '', 0.0)||('department', 'noun', 'C1704729', ['orgt'], 0.0)||('of', '', '', '', 0.0)||('obstetrics', 'noun', 'C0028773', ['bmod'], 0.0)||('and', '', '', '', 0.0)||('gynecology', 'noun', 'C0237419', ['prog'], 0.0)||('of', '', '', '', 0.0)||('shrimati', '', '', '', 0.0)||('sucheta', '', '', '', 0.0)||('kriplani', '', '', '', 0.0)||('hospital', 'noun', 'C0019994', ['hcro', 'mnob'], 0.0)||('.', '', '', '', 0.0)||
('after', '', '', '', 0.0)||('complete', 'adj', 'C0205197', ['qlco'], 0.0)||('work - ups', '', '', '', 0.0)||(',', '', '', '', 0.0)||('transvaginal', 'adj', 'C0175672', ['spco'], 0.0)||('examinations', '', '', '', 0.0)||('were', '', '', '', 0.0)||('performed', 'verb', 'C0884358', ['ftcn'], 0.0)||('followed', '', '', '', 0.0)||('by', '', '', '', 0.0)||('sonohysterographies', '', '', '', 0.0)||('.', '', '', '', 0.0)||
('the', '', '', '', 0.0)||('sensitivity', 'noun', 'C0036667', ['qnco'], 0.0)||(',', '', '', '', 0.0)||('specificity', 'noun', 'C0037791', ['qnco'], 0.0)||(',', '', '', '', 0.0)||('positive predictive values', '', '', '', 0.0)||('and', '', '', '', 0.0)||('negative predictive values', '', '', '', 0.0)||('were', '', '', '', 0.0)||('calculated', 'verb', 'C0444686', ['ftcn'], 0.0)||('for', '', '', '', 0.0)||('transvaginal', 'adj', 'C0175672', ['spco'], 0.0)||('sonography', 'noun', 'C0041618', ['diap'], 0.0)||('and', '', '', '', 0.0)||('saline infusion sonohysterography', 'noun', 'C0949051', ['diap'], 0.0)||('as', '', '', '', 0.0)||('compared', 'verb', 'C1707455', ['acty'], 0.0)||('with', '', '', '', 0.0)||('findings', 'noun', 'C2607943', ['ftcn'], 0.0)||('of', '', '', '', 0.0)||('hysteroscopy', 'noun', 'C0020710', ['diap', 'topp'], 0.0)||('/', '', '', '', 0.0)||('hysterectomy', 'noun', 'C0020699', ['topp'], 0.0)||('.', '', '', '', 0.0)||
('saline infusion sonohysterography', 'noun', 'C0949051', ['diap'], 0.0)||('was', '', '', '', 0.0)||('performed', 'verb', 'C0884358', ['ftcn'], 0.0)||('in', '', '', '', 0.0)||('56', '', '', '', 0.0)||('cases', 'noun', 'C0868928', ['ftcn'], 0.0)||('.', '', '', '', 0.0)||
('it', '', '', '', 0.0)||('could', '', '', '', 0.0)||('not', 'adv', 'C1518422', ['ftcn'], 0.0)||('be', '', '', '', 0.0)||('done', '', '', '', 0.0)||('in', '', '', '', 0.0)||('one', 'noun', 'C0205447', ['qnco'], 0.0)||('perimenopausal', 'noun', 'C0677925', ['tmco'], 0.0)||('and', '', '', '', 0.0)||('one', 'noun', 'C0205447', ['qnco'], 0.0)||('postmenopausal woman', '', '', '', 0.0)||('.', '', '', '', 0.0)||
('cavity', 'noun', 'C0333343', ['bsoj'], 0.0)||('was', '', '', '', 0.0)||('normal', 'adj', 'C0205307', ['qlco'], 0.0)||('in', '', '', '', 0.0)||('41', '', '', '', 0.0)||('perimenopausal', 'noun', 'C0677925', ['tmco'], 0.0)||('and', '', '', '', 0.0)||('five', '', 'C0205451', ['qnco'], 0.0)||('postmenopausal women', '', '', '', 0.0)||('.', '', '', '', 0.0)||
('ten', 'noun', 'C0014518', ['dsyn'], 0.0)||('women', 'noun', 'C0043210', ['popg'], 0.0)||('displayed', '', '', '', 0.0)||('abnormalities', 'noun', 'C0000768', ['cgab'], 0.0)||('.', '', '', '', 0.0)||
('two', 'noun', 'C0205448', ['qnco'], 0.0)||('had', '', '', '', 0.0)||('submucosal', 'adj', 'C0731521', ['spco'], 0.0)||('fibroids', 'noun', 'C0023267', ['neop'], 0.0)||(',', '', '', '', 0.0)||('two', 'noun', 'C0205448', ['qnco'], 0.0)||('had', '', '', '', 0.0)||('intramural', 'adj', 'C0205102', ['spco'], 0.0)||('fibroids', 'noun', 'C0023267', ['neop'], 0.0)||(',', '', '', '', 0.0)||('one', 'noun', 'C0205447', ['qnco'], 0.0)||('had', '', '', '', 0.0)||('fibroid', 'adj', 'C0023267', ['neop'], 0.0)||('polyp', 'noun', 'C0032584', ['anab'], 0.0)||(',', '', '', '', 0.0)||('three', '', 'C0205449', ['qnco'], 0.0)||('had', '', '', '', 0.0)||('endometrial polyps', 'noun', 'C1704273', ['neop'], 0.0)||('and', '', '', '', 0.0)||('two', 'adj', 'C0205448', ['qnco'], 0.0)||('patients', 'noun', 'C0030705', ['podg'], 0.0)||('had', '', '', '', 0.0)||('endometrial', 'adj', 'C0227843', ['spco'], 0.0)||('growths', '', '', '', 0.0)||('.', '', '', '', 0.0)||
('we', '', '', '', 0.0)||('found', '', '', '', 0.0)||('that', '', '', '', 0.0)||('transvaginal', 'adj', 'C0175672', ['spco'], 0.0)||('sonography', 'noun', 'C0041618', ['diap'], 0.0)||('missed', 'verb', 'C1705492', ['qlco'], 0.0)||('three', '', 'C0205449', ['qnco'], 0.0)||('endometrial polyps', 'noun', 'C1704273', ['neop'], 0.0)||('and', '', '', '', 0.0)||('one', 'noun', 'C0205447', ['qnco'], 0.0)||('endometrial', 'adj', 'C0227843', ['spco'], 0.0)||('growth', 'noun', 'C0018270', ['orgf'], 0.0)||('and', '', '', '', 0.0)||('led', '', '', '', 0.0)||('to', '', '', '', 0.0)||('mislabeling', '', '', '', 0.0)||('two', 'adj', 'C0205448', ['qnco'], 0.0)||('intramural', 'adj', 'C0205102', ['spco'], 0.0)||('fibroids', 'noun', 'C0023267', ['neop'], 0.0)||('as', '', '', '', 0.0)||('submucosal', 'adj', 'C0731521', ['spco'], 0.0)||('.', '', '', '', 0.0)||
('on', '', '', '', 0.0)||('comparing', '', '', '', 0.0)||('the', '', '', '', 0.0)||('sonohysterographic', '', '', '', 0.0)||('findings', 'noun', 'C2607943', ['ftcn'], 0.0)||('with', '', '', '', 0.0)||('those', '', '', '', 0.0)||('of', '', '', '', 0.0)||('hysteroscopy', 'noun', 'C0020710', ['diap', 'topp'], 0.0)||('or', '', '', '', 0.0)||('hysterectomy', 'noun', 'C0020699', ['topp'], 0.0)||(',', '', '', '', 0.0)||('one', 'noun', 'C0205447', ['qnco'], 0.0)||('endometrial polyp', 'noun', 'C1704273', ['neop'], 0.0)||('and', '', '', '', 0.0)||('one', 'noun', 'C0205447', ['qnco'], 0.0)||('endocervical polyp', 'noun', 'C0014126', ['neop'], 0.0)||('was', '', '', '', 0.0)||('missed', 'verb', 'C1705492', ['qlco'], 0.0)||('on', '', '', '', 0.0)||('sonohysterography', 'noun', 'C1512577', ['diap'], 0.0)||(',', '', '', '', 0.0)||('and', '', '', '', 0.0)||('one', 'noun', 'C0205447', ['qnco'], 0.0)||('false positive', 'adj', 'C0205557', ['fndg'], 0.0)||('growth', 'noun', 'C0018270', ['orgf'], 0.0)||('was', '', '', '', 0.0)||('observed', 'verb', 'C1441672', ['ftcn'], 0.0)||('on', '', '', '', 0.0)||('sonohysterography', 'noun', 'C1512577', ['diap'], 0.0)||('.', '', '', '', 0.0)||
('the', '', '', '', 0.0)||('sensitivity', 'noun', 'C0036667', ['qnco'], 0.0)||(',', '', '', '', 0.0)||('specificity', 'noun', 'C0037791', ['qnco'], 0.0)||(',', '', '', '', 0.0)||('positive predictive value', '', '', '', 0.0)||('and', '', '', '', 0.0)||('the', '', '', '', 0.0)||('negative predictive value', '', '', '', 0.0)||('of', '', '', '', 0.0)||('transvaginal', 'adj', 'C0175672', ['spco'], 0.0)||('sonography', 'noun', 'C0041618', ['diap'], 0.0)||('were', '', '', '', 0.0)||('84 . 8 %', '', '', '', 0.0)||(',', '', '', '', 0.0)||('79 %', '', '', '', 0.0)||(',', '', '', '', 0.0)||('82 . 4 %', '', '', '', 0.0)||('and', '', '', '', 0.0)||('82 %', '', '', '', 0.0)||(',', '', '', '', 0.0)||('respectively', '', '', '', 0.0)||('.', '', '', '', 0.0)||
('the', '', '', '', 0.0)||('sensitivity', 'noun', 'C0036667', ['qnco'], 0.0)||(',', '', '', '', 0.0)||('specificity', 'noun', 'C0037791', ['qnco'], 0.0)||(',', '', '', '', 0.0)||('positive predictive value', '', '', '', 0.0)||('and', '', '', '', 0.0)||('the', '', '', '', 0.0)||('negative predictive value', '', '', '', 0.0)||('of', '', '', '', 0.0)||('saline infusion sonohysterography', 'noun', 'C0949051', ['diap'], 0.0)||('were', '', '', '', 0.0)||('94 . 1 %', '', '', '', 0.0)||(',', '', '', '', 0.0)||('88 . 5 %', '', '', '', 0.0)||(',', '', '', '', 0.0)||('91 . 4 %', '', '', '', 0.0)||('and', '', '', '', 0.0)||('92 %', '', '', '', 0.0)||(',', '', '', '', 0.0)||('respectively', '', '', '', 0.0)||('.', '', '', '', 0.0)||
('saline infusion sonohysterography', 'noun', 'C0949051', ['diap'], 0.0)||('is', '', '', '', 0.0)||('a', '', '', '', 0.0)||('safe', '', '', '', 0.0)||(',', '', '', '', 0.0)||('convenient', '', '', '', 0.0)||(',', '', '', '', 0.0)||('time', 'noun', 'C0040223', ['tmco'], 0.0)||('conserving', '', '', '', 0.0)||(',', '', '', '', 0.0)||('cost effective', '', '', '', 0.0)||(',', '', '', '', 0.0)||('easily', 'adv', 'C0332219', ['qlco'], 0.0)||('accessible', '', '', '', 0.0)||('and', '', '', '', 0.0)||('acceptable', 'adj', 'C1879533', ['qlco'], 0.0)||('investigative', '', '', '', 0.0)||('modality', 'noun', 'C0695347', ['idcn'], 0.0)||('.', '', '', '', 0.0)||
('it', '', '', '', 0.0)||('definitely', '', '', '', 0.0)||('enhances', '', '', '', 0.0)||('the', '', '', '', 0.0)||('diagnostic', 'adj', 'C0011900', ['fndg'], 0.0)||('potential', 'noun', 'C0035647', ['qlco'], 0.0)||('of', '', '', '', 0.0)||('transvaginal', 'adj', 'C0175672', ['spco'], 0.0)||('sonography', 'noun', 'C0041618', ['diap'], 0.0)||('in', '', '', '', 0.0)||('assessment', 'noun', 'C1261322', ['hlca'], 0.0)||('of', '', '', '', 0.0)||('endometrium', 'noun', 'C0014180', ['bpoc'], 0.0)||('and', '', '', '', 0.0)||('intracavitary', 'adj', 'C1298613', ['spco'], 0.0)||('pathologies', 'noun', 'C0030664', ['bmod'], 0.0)||('.', '', '', '', 0.0)||
