('intentional', 'adj', 'C1283828', ['qlco'], 0.0)||('artificial rupture', '', '', '', 0.0)||('of', '', '', '', 0.0)||('the', '', '', '', 0.0)||('amniotic membranes', 'noun', 'C0002630', ['emst'], 0.0)||('during', '', '', '', 0.0)||('labour', '', '', '', 0.0)||(',', '', '', '', 0.0)||('sometimes', 'noun', 'C1998882', ['tmco'], 0.0)||('called', '', '', '', 0.0)||('amniotomy', 'noun', 'C2192357', ['topp'], 0.0)||('or', '', '', '', 0.0)||("'", '', '', '', 0.0)||('breaking', '', '', '', 0.0)||('of', '', '', '', 0.0)||('the', '', '', '', 0.0)||('waters', 'noun', 'C0043047', ['inch', 'phsu'], 0.0)||("'", '', '', '', 0.0)||(',', '', '', '', 0.0)||('is', '', '', '', 0.0)||('one', 'verb', 'C0205447', ['qnco'], 0.0)||('of', '', '', '', 0.0)||('the', '', '', '', 0.0)||('most', '', '', '', 0.0)||('commonly', '', '', '', 0.0)||('performed', 'adj', 'C0884358', ['ftcn'], 0.0)||('procedures', 'noun', 'C0025664', ['inpr'], 0.0)||('in', '', '', '', 0.0)||('modern', '', '', '', 0.0)||('obstetric', 'adj', 'C0205484', ['ftcn'], 0.0)||('and', '', '', '', 0.0)||('midwifery', 'noun', 'C0026082', ['bmod'], 0.0)||('practice', 'noun', 'C0237607', ['menp'], 0.0)||('.', '', '', '', 0.0)||
('the', '', '', '', 0.0)||('primary', 'adj', 'C0205225', ['qlco'], 0.0)||('aim', 'noun', 'C1947946', ['idcn'], 0.0)||('of', '', '', '', 0.0)||('amniotomy', 'noun', 'C2192357', ['topp'], 0.0)||('is', '', '', '', 0.0)||('to', '', '', '', 0.0)||('speed up', '', '', '', 0.0)||('contractions', 'noun', 'C0567116', ['fndg'], 0.0)||('and', '', '', '', 0.0)||(',', '', '', '', 0.0)||('therefore', '', '', '', 0.0)||(',', '', '', '', 0.0)||('shorten', '', '', '', 0.0)||('the', '', '', '', 0.0)||('length', 'noun', 'C1444754', ['qnco'], 0.0)||('of', '', '', '', 0.0)||('labour', '', '', '', 0.0)||('.', '', '', '', 0.0)||
('however', '', '', '', 0.0)||(',', '', '', '', 0.0)||('there', '', '', '', 0.0)||('are', '', '', '', 0.0)||('concerns', '', '', '', 0.0)||('regarding', '', '', '', 0.0)||('unintended', '', '', '', 0.0)||('adverse effects', 'noun', 'C0001688', ['ftcn'], 0.0)||('on', '', '', '', 0.0)||('the', '', '', '', 0.0)||('woman', 'noun', 'C0043210', ['popg'], 0.0)||('and', '', '', '', 0.0)||('baby', 'noun', 'C0021270', ['aggp'], 0.0)||('.', '', '', '', 0.0)||
('to', '', '', '', 0.0)||('determine', '', '', '', 0.0)||('the', '', '', '', 0.0)||('effectiveness', 'noun', 'C1280519', ['qlco'], 0.0)||('and', '', '', '', 0.0)||('safety', 'noun', 'C0036043', ['hcpp'], 0.0)||('of', '', '', '', 0.0)||('amniotomy', 'noun', 'C2192357', ['topp'], 0.0)||('alone', 'adj', 'C0439044', ['fndg'], 0.0)||('for', '', '', '', 0.0)||('(', '', '', '', 0.0)||('1', '', '', '', 0.0)||(')', '', '', '', 0.0)||('routinely', '', '', '', 0.0)||('shortening', 'verb', 'C0441636', ['topp'], 0.0)||('all', '', '', '', 0.0)||('labours', '', '', '', 0.0)||('that', '', '', '', 0.0)||('start', 'verb', 'C0439659', ['tmco'], 0.0)||('spontaneously', '', '', '', 0.0)||(',', '', '', '', 0.0)||('and', '', '', '', 0.0)||('(', '', '', '', 0.0)||('2', '', '', '', 0.0)||(')', '', '', '', 0.0)||('shortening', 'adj', 'C0441636', ['topp'], 0.0)||('labours', '', '', '', 0.0)||('that', '', '', '', 0.0)||('have', '', '', '', 0.0)||('started', 'verb', 'C1272689', ['qlco'], 0.0)||('spontaneously', '', '', '', 0.0)||(',', '', '', '', 0.0)||('but', '', '', '', 0.0)||('have', '', '', '', 0.0)||('become', '', '', '', 0.0)||('prolonged', 'verb', 'C0439590', ['tmco'], 0.0)||('.', '', '', '', 0.0)||
('we', '', '', '', 0.0)||('searched', 'verb', 'C1706202', ['acty'], 0.0)||('the', '', '', '', 0.0)||('cochrane', '', '', '', 0.0)||('pregnancy', 'noun', 'C0032961', ['orgf'], 0.0)||('and', '', '', '', 0.0)||('childbirth', 'noun', 'C1148523', ['orgf'], 0.0)||('group', 'noun', 'C0441833', ['idcn'], 0.0)||("' s", '', '', '', 0.0)||('trials', '', '', '', 0.0)||('register', '', '', '', 0.0)||('(', '', '', '', 0.0)||('30', '', '', '', 0.0)||('march', '', '', '', 0.0)||('2007', '', '', '', 0.0)||(')', '', '', '', 0.0)||('.', '', '', '', 0.0)||
('randomised controlled trials', '', '', '', 0.0)||('comparing', '', '', '', 0.0)||('amniotomy', 'adv', 'C2192357', ['topp'], 0.0)||('alone', 'adj', 'C0439044', ['fndg'], 0.0)||('versus', '', '', '', 0.0)||('intention', 'noun', 'C0162425', ['menp'], 0.0)||('to', '', '', '', 0.0)||('preserve', '', '', '', 0.0)||('the', '', '', '', 0.0)||('membranes', 'noun', 'C0025255', ['tisu'], 0.0)||('.', '', '', '', 0.0)||
('we', '', '', '', 0.0)||('excluded', 'verb', 'C1554077', ['idcn'], 0.0)||('quasi - randomised', '', '', '', 0.0)||('trials', '', '', '', 0.0)||('.', '', '', '', 0.0)||
('two', 'adj', 'C0205448', ['qnco'], 0.0)||('authors', 'noun', 'C0341628', ['prog'], 0.0)||('assessed', 'verb', 'C1516048', ['acty'], 0.0)||('identified', 'adj', 'C0205396', ['qlco'], 0.0)||('studies', '', '', '', 0.0)||('for', '', '', '', 0.0)||('inclusion', 'noun', 'C1512693', ['qlco'], 0.0)||('.', '', '', '', 0.0)||
('both', '', '', '', 0.0)||('authors', 'noun', 'C0341628', ['prog'], 0.0)||('extracted', 'verb', 'C0185115', ['topp'], 0.0)||('data', 'noun', 'C1511726', ['idcn'], 0.0)||('.', '', '', '', 0.0)||
('primary', 'adj', 'C0205225', ['qlco'], 0.0)||('analysis', 'noun', 'C0002778', ['lbpr'], 0.0)||('was', '', '', '', 0.0)||('by', '', '', '', 0.0)||('intention', 'noun', 'C0162425', ['menp'], 0.0)||('to', '', '', '', 0.0)||('treat', 'verb', 'C1292734', ['ftcn'], 0.0)||('.', '', '', '', 0.0)||
('we', '', '', '', 0.0)||('have', '', '', '', 0.0)||('included', '', '', '', 0.0)||('14', '', '', '', 0.0)||('studies', '', '', '', 0.0)||('in', '', '', '', 0.0)||('this', '', '', '', 0.0)||('review', 'noun', 'C0282443', ['inpr'], 0.0)||(',', '', '', '', 0.0)||('involving', 'verb', 'C1314939', ['ftcn'], 0.0)||('4893', '', '', '', 0.0)||('women', 'noun', 'C0043210', ['popg'], 0.0)||('.', '', '', '', 0.0)||
('there', '', '', '', 0.0)||('was', '', '', '', 0.0)||('no', '', '', '', 0.0)||('evidence', 'noun', 'C0332120', ['ftcn'], 0.0)||('of', '', '', '', 0.0)||('any', '', '', '', 0.0)||('statistical', 'adj', 'C0038215', ['ocdi'], 0.0)||('difference', 'noun', 'C1705242', ['qlco'], 0.0)||('in', '', '', '', 0.0)||('length', 'noun', 'C1444754', ['qnco'], 0.0)||('of', '', '', '', 0.0)||('first stage', 'adj', 'C0441766', ['inpr'], 0.0)||('of', '', '', '', 0.0)||('labour', '', '', '', 0.0)||('(', '', '', '', 0.0)||('weighted', '', '', '', 0.0)||('mean difference', '', '', '', 0.0)||('-', '', '', '', 0.0)||('20 . 43', '', '', '', 0.0)||('minutes', 'noun', 'C0439232', ['tmco'], 0.0)||(',', '', '', '', 0.0)||('95 %', '', '', '', 0.0)||('confidence interval', 'noun', 'C0009667', ['qnco'], 0.0)||('-', '', '', '', 0.0)||('95 . 93', '', '', '', 0.0)||('to', '', '', '', 0.0)||('55 . 06', '', '', '', 0.0)||(')', '', '', '', 0.0)||(',', '', '', '', 0.0)||('maternal', 'adj', 'C1858460', ['clna'], 0.0)||('satisfaction', 'noun', 'C0242428', ['menp'], 0.0)||('with', '', '', '', 0.0)||('childbirth', 'noun', 'C1148523', ['orgf'], 0.0)||('experience', 'noun', 'C0596545', ['menp'], 0.0)||('(', '', '', '', 0.0)||('standardised mean difference', '', '', '', 0.0)||('0 . 27', '', '', '', 0.0)||(',', '', '', '', 0.0)||('95 %', '', '', '', 0.0)||('confidence interval', 'noun', 'C0009667', ['qnco'], 0.0)||('-', '', '', '', 0.0)||('0 . 49', '', '', '', 0.0)||('to', '', '', '', 0.0)||('1 . 04', '', '', '', 0.0)||(')', '', '', '', 0.0)||('or', '', '', '', 0.0)||('low', 'adj', 'C0205251', ['qlco'], 0.0)||('apgar score', 'noun', 'C0003533', ['orga'], 0.0)||('less', '', '', '', 0.0)||('than', '', '', '', 0.0)||('seven', '', 'C0205453', ['qnco'], 0.0)||('at', '', '', '', 0.0)||('five', '', 'C0205451', ['qnco'], 0.0)||('minutes', 'noun', 'C0439232', ['tmco'], 0.0)||('(', '', '', '', 0.0)||('rr', 'noun', 'C0231832', ['clna'], 0.0)||('0 . 55', '', '', '', 0.0)||(',', '', '', '', 0.0)||('95 %', '', '', '', 0.0)||('confidence interval', 'noun', 'C0009667', ['qnco'], 0.0)||('0 . 29', '', '', '', 0.0)||('to', '', '', '', 0.0)||('1 . 05', '', '', '', 0.0)||(')', '', '', '', 0.0)||('.', '', '', '', 0.0)||
('amniotomy', 'noun', 'C2192357', ['topp'], 0.0)||('was', '', '', '', 0.0)||('associated', 'verb', 'C0332281', ['qlco'], 0.0)||('with', '', '', '', 0.0)||('an', '', '', '', 0.0)||('increased risk', '', '', '', 0.0)||('of', '', '', '', 0.0)||('delivery', 'noun', 'C0011209', ['topp'], 0.0)||('by', '', '', '', 0.0)||('caesarean section', 'noun', 'C0007876', ['topp'], 0.0)||('compared', 'verb', 'C1707455', ['acty'], 0.0)||('to', '', '', '', 0.0)||('women', 'noun', 'C0043210', ['popg'], 0.0)||('in', '', '', '', 0.0)||('the', '', '', '', 0.0)||('control group', 'noun', 'C0009932', ['grup'], 0.0)||(',', '', '', '', 0.0)||('although', '', '', '', 0.0)||('the', '', '', '', 0.0)||('difference', 'noun', 'C1705242', ['qlco'], 0.0)||('was', '', '', '', 0.0)||('not', 'adv', 'C1518422', ['ftcn'], 0.0)||('statistically significant', 'adj', 'C0237881', ['qnco'], 0.0)||('(', '', '', '', 0.0)||('rr', 'noun', 'C0231832', ['clna'], 0.0)||('1 . 26', '', '', '', 0.0)||(',', '', '', '', 0.0)||('95 %', '', '', '', 0.0)||('confidence interval', 'noun', 'C0009667', ['qnco'], 0.0)||('0 . 98', '', '', '', 0.0)||('to', '', '', '', 0.0)||('1 . 62', '', '', '', 0.0)||(')', '', '', '', 0.0)||('.', '', '', '', 0.0)||
('there', '', '', '', 0.0)||('was', '', '', '', 0.0)||('no', '', '', '', 0.0)||('consistency', 'noun', 'C0332529', ['qlco'], 0.0)||('between', '', '', '', 0.0)||('papers', 'noun', 'C0030351', ['mnob'], 0.0)||('regarding', '', '', '', 0.0)||('the', '', '', '', 0.0)||('timing', 'noun', 'C0449243', ['tmco'], 0.0)||('of', '', '', '', 0.0)||('amniotomy', 'noun', 'C2192357', ['topp'], 0.0)||('during', '', '', '', 0.0)||('labour', '', '', '', 0.0)||('in', '', '', '', 0.0)||('terms', '', '', '', 0.0)||('of', '', '', '', 0.0)||('cervical', 'adj', 'C0205064', ['spco'], 0.0)||('dilatation', 'noun', 'C0012356', ['topp'], 0.0)||('.', '', '', '', 0.0)||
('on', '', '', '', 0.0)||('the', '', '', '', 0.0)||('basis', 'noun', 'C1527178', ['ftcn'], 0.0)||('of', '', '', '', 0.0)||('the', '', '', '', 0.0)||('findings', 'noun', 'C2607943', ['ftcn'], 0.0)||('of', '', '', '', 0.0)||('this', '', '', '', 0.0)||('review', 'noun', 'C0282443', ['inpr'], 0.0)||(',', '', '', '', 0.0)||('we', '', '', '', 0.0)||('cannot', '', '', '', 0.0)||('recommend', '', '', '', 0.0)||('that', '', '', '', 0.0)||('amniotomy', 'noun', 'C2192357', ['topp'], 0.0)||('should', '', '', '', 0.0)||('be', '', '', '', 0.0)||('introduced', '', '', '', 0.0)||('routinely', '', '', '', 0.0)||('as', '', '', '', 0.0)||('part', 'noun', 'C0449719', ['spco'], 0.0)||('of', '', '', '', 0.0)||('standard', 'adj', 'C1442989', ['ftcn'], 0.0)||('labour', '', '', '', 0.0)||('management', 'noun', 'C0001554', ['ocac'], 0.0)||('and', '', '', '', 0.0)||('care', 'noun', 'C0580931', ['fndg'], 0.0)||('.', '', '', '', 0.0)||
('we', '', '', '', 0.0)||('do', '', '', '', 0.0)||('recommend', '', '', '', 0.0)||('that', '', '', '', 0.0)||('the', '', '', '', 0.0)||('evidence', 'noun', 'C0332120', ['ftcn'], 0.0)||('presented', 'verb', 'C0449450', ['idcn'], 0.0)||('in', '', '', '', 0.0)||('this', '', '', '', 0.0)||('review', 'noun', 'C0282443', ['inpr'], 0.0)||('should', '', '', '', 0.0)||('be', '', '', '', 0.0)||('made', '', '', '', 0.0)||('available', 'adj', 'C0470187', ['ftcn'], 0.0)||('to', '', '', '', 0.0)||('women', 'noun', 'C0043210', ['popg'], 0.0)||('offered', 'verb', 'C1444648', ['fndg'], 0.0)||('an', '', '', '', 0.0)||('amniotomy', 'noun', 'C2192357', ['topp'], 0.0)||('and', '', '', '', 0.0)||('may', '', '', '', 0.0)||('be', '', '', '', 0.0)||('useful', '', '', '', 0.0)||('as', '', '', '', 0.0)||('a', '', '', '', 0.0)||('foundation', 'noun', 'C0016617', ['orgt'], 0.0)||('for', '', '', '', 0.0)||('discussion', 'noun', 'C0557061', ['topp'], 0.0)||('and', '', '', '', 0.0)||('any', '', '', '', 0.0)||('resulting', '', '', '', 0.0)||('decisions', '', '', '', 0.0)||('made', '', '', '', 0.0)||('between', '', '', '', 0.0)||('women', 'noun', 'C0043210', ['popg'], 0.0)||('and', '', '', '', 0.0)||('their', '', '', '', 0.0)||('caregivers', 'noun', 'C0085537', ['prog'], 0.0)||('.', '', '', '', 0.0)||
