('colorectal cancer', 'noun', 'C0009402', ['neop'], 0.0)||('is', '', '', '', 0.0)||('a', '', '', '', 0.0)||('major cause', '', '', '', 0.0)||('of', '', '', '', 0.0)||('morbidity', 'noun', 'C0026538', ['qnco'], 0.0)||('and', '', '', '', 0.0)||('mortality', 'noun', 'C0026565', ['qnco'], 0.0)||('in', '', '', '', 0.0)||('industrialized countries', 'noun', 'C0282613', ['qlco'], 0.0)||('.', '', '', '', 0.0)||
('experimental', 'adj', 'C1517004', ['ftcn'], 0.0)||('evidence', 'noun', 'C0332120', ['ftcn'], 0.0)||('has', '', '', '', 0.0)||('supported', 'verb', 'C1521721', ['cnce'], 0.0)||('the', '', '', '', 0.0)||('hypothesis', 'noun', 'C1512571', ['idcn'], 0.0)||('that', '', '', '', 0.0)||('dietary fibre', '', '', '', 0.0)||('may', '', '', '', 0.0)||('be', '', '', '', 0.0)||('protective', '', '', '', 0.0)||('for', '', '', '', 0.0)||('the', '', '', '', 0.0)||('development', 'noun', 'C0020119', ['phsf'], 0.0)||('of', '', '', '', 0.0)||('colorectal cancer', 'noun', 'C0009402', ['neop'], 0.0)||(',', '', '', '', 0.0)||('although', '', '', '', 0.0)||('epidemiologic', 'adj', 'C0014507', ['bmod'], 0.0)||('data', 'noun', 'C1511726', ['idcn'], 0.0)||('have', '', '', '', 0.0)||('been', '', '', '', 0.0)||('inconclusive', 'adj', 'C1629507', ['qlco'], 0.0)||('.', '', '', '', 0.0)||
('we', '', '', '', 0.0)||('have', '', '', '', 0.0)||('conducted', '', '', '', 0.0)||('a', '', '', '', 0.0)||('systematic review', '', '', '', 0.0)||('and', '', '', '', 0.0)||('meta - analysis', '', '', '', 0.0)||('to', '', '', '', 0.0)||('assess', 'verb', 'C1516048', ['acty'], 0.0)||('the', '', '', '', 0.0)||('effect', 'noun', 'C1280500', ['qlco'], 0.0)||('of', '', '', '', 0.0)||('dietary fibre', '', '', '', 0.0)||('on', '', '', '', 0.0)||('the', '', '', '', 0.0)||('incidence', 'noun', 'C0021149', ['qnco'], 0.0)||('or', '', '', '', 0.0)||('recurrence', 'noun', 'C0034897', ['phpr'], 0.0)||('of', '', '', '', 0.0)||('colorectal adenomas', '', '', '', 0.0)||(',', '', '', '', 0.0)||('the', '', '', '', 0.0)||('incidence', 'noun', 'C0021149', ['qnco'], 0.0)||('of', '', '', '', 0.0)||('colorectal cancer', 'noun', 'C0009402', ['neop'], 0.0)||(',', '', '', '', 0.0)||('and', '', '', '', 0.0)||('the', '', '', '', 0.0)||('development', 'noun', 'C0020119', ['phsf'], 0.0)||('of', '', '', '', 0.0)||('adverse', '', '', '', 0.0)||('events', 'noun', 'C0441471', ['evnt'], 0.0)||('.', '', '', '', 0.0)||
('we', '', '', '', 0.0)||('identified', 'verb', 'C0205396', ['qlco'], 0.0)||('randomized controlled trials', '', '', '', 0.0)||('from', '', '', '', 0.0)||('medline', 'noun', 'C0025141', ['inpr'], 0.0)||(',', '', '', '', 0.0)||('embase', '', '', '', 0.0)||(',', '', '', '', 0.0)||('and', '', '', '', 0.0)||('the', '', '', '', 0.0)||('cochrane', '', '', '', 0.0)||('controlled', 'adj', 'C2587213', ['ftcn'], 0.0)||('trials', '', '', '', 0.0)||('register', '', '', '', 0.0)||('up to', '', '', '', 0.0)||('oct', '', '', '', 0.0)||('2001', '', '', '', 0.0)||('randomized', 'verb', 'C0034656', ['resa'], 0.0)||('or', '', '', '', 0.0)||('quasi - randomized controlled trials', '', '', '', 0.0)||('were', '', '', '', 0.0)||('assessed', 'verb', 'C1516048', ['acty'], 0.0)||('.', '', '', '', 0.0)||
('the', '', '', '', 0.0)||('population', 'noun', 'C0032659', ['qnco'], 0.0)||('included', '', '', '', 0.0)||('all', '', '', '', 0.0)||('subjects', '', '', '', 0.0)||('that', '', '', '', 0.0)||('had', '', '', '', 0.0)||('adenomatous polyps', 'noun', 'C0206677', ['neop'], 0.0)||('but', '', '', '', 0.0)||('no', '', '', '', 0.0)||('previous', 'adj', 'C0205156', ['tmco'], 0.0)||('history', 'noun', 'C0019664', ['ocdi'], 0.0)||('of', '', '', '', 0.0)||('colorectal cancer', 'noun', 'C0009402', ['neop'], 0.0)||('(', '', '', '', 0.0)||('colorectal cancer', 'noun', 'C0009402', ['neop'], 0.0)||(')', '', '', '', 0.0)||(',', '', '', '', 0.0)||('a', '', '', '', 0.0)||('documented', 'adj', 'C1301725', ['hlca'], 0.0)||('"', '', '', '', 0.0)||('clean', 'verb', 'C1947930', ['acty'], 0.0)||('colon', 'noun', 'C0009368', ['bpoc'], 0.0)||('"', '', '', '', 0.0)||('at', '', '', '', 0.0)||('baseline', 'noun', 'C0168634', ['bodm'], 0.0)||('and', '', '', '', 0.0)||('repeated', 'adj', 'C0205341', ['ftcn'], 0.0)||('visualization', 'noun', 'C0175631', ['menp'], 0.0)||('of', '', '', '', 0.0)||('the', '', '', '', 0.0)||('colon', 'noun', 'C0009368', ['bpoc'], 0.0)||('/', '', '', '', 0.0)||('rectum', 'noun', 'C0034896', ['bpoc'], 0.0)||('after', '', '', '', 0.0)||('at', '', '', '', 0.0)||('least', '', '', '', 0.0)||('two', 'adj', 'C0205448', ['qnco'], 0.0)||('years', 'noun', 'C0439234', ['tmco'], 0.0)||('of', '', '', '', 0.0)||('follow - up', '', '', '', 0.0)||('.', '', '', '', 0.0)||
('dietary fibre', '', '', '', 0.0)||('was', '', '', '', 0.0)||('the', '', '', '', 0.0)||('intervention', 'noun', 'C1273869', ['hlca'], 0.0)||('.', '', '', '', 0.0)||
('the', '', '', '', 0.0)||('primary', 'adj', 'C0205225', ['qlco'], 0.0)||('outcomes', 'noun', 'C0085415', ['qlco'], 0.0)||('were', '', '', '', 0.0)||('the', '', '', '', 0.0)||('number', 'noun', 'C0449788', ['qnco'], 0.0)||('of', '', '', '', 0.0)||('subjects', '', '', '', 0.0)||('with', '', '', '', 0.0)||(':', '', '', '', 0.0)||('a', '', '', '', 0.0)||(')', '', '', '', 0.0)||('at', '', '', '', 0.0)||('least', '', '', '', 0.0)||('one', 'noun', 'C0205447', ['qnco'], 0.0)||('adenoma', 'noun', 'C0001430', ['neop'], 0.0)||(',', '', '', '', 0.0)||('b', '', '', '', 0.0)||(')', '', '', '', 0.0)||('more', '', '', '', 0.0)||('than', '', '', '', 0.0)||('one', 'noun', 'C0205447', ['qnco'], 0.0)||('adenoma', 'noun', 'C0001430', ['neop'], 0.0)||(',', '', '', '', 0.0)||('c', '', '', '', 0.0)||(')', '', '', '', 0.0)||('at', '', '', '', 0.0)||('least', '', '', '', 0.0)||('one', 'noun', 'C0205447', ['qnco'], 0.0)||('adenoma', 'noun', 'C0001430', ['neop'], 0.0)||('greater', 'adj', 'C1704243', ['qnco'], 0.0)||('than', '', '', '', 0.0)||('or', '', '', '', 0.0)||('equal', 'adj', 'C0205163', ['qlco'], 0.0)||('to', '', '', '', 0.0)||('1', '', '', '', 0.0)||('cm', '', '', '', 0.0)||('or', '', '', '', 0.0)||('d ) a', '', '', '', 0.0)||('new', 'adj', 'C0205314', ['tmco'], 0.0)||('diagnosis', 'noun', 'C0011900', ['fndg'], 0.0)||('of', '', '', '', 0.0)||('colorectal cancer', 'noun', 'C0009402', ['neop'], 0.0)||('.', '', '', '', 0.0)||
('the', '', '', '', 0.0)||('secondary', 'adj', 'C0175668', ['tmco'], 0.0)||('outcome', 'noun', 'C1274040', ['ftcn'], 0.0)||('was', '', '', '', 0.0)||('the', '', '', '', 0.0)||('number', 'noun', 'C0449788', ['qnco'], 0.0)||('of', '', '', '', 0.0)||('adverse', '', '', '', 0.0)||('events', 'noun', 'C0441471', ['evnt'], 0.0)||('.', '', '', '', 0.0)||
('two', 'noun', 'C0205448', ['qnco'], 0.0)||('reviewers', '', '', '', 0.0)||('independently', '', '', '', 0.0)||('extracted', 'adj', 'C0185115', ['topp'], 0.0)||('data', 'noun', 'C1511726', ['idcn'], 0.0)||(',', '', '', '', 0.0)||('assessed', 'adj', 'C1516048', ['acty'], 0.0)||('trial', 'noun', 'C0008976', ['resa'], 0.0)||('quality', 'noun', 'C0332306', ['qlco'], 0.0)||('and', '', '', '', 0.0)||('resolved', 'adj', 'C1514893', ['idcn'], 0.0)||('discrepancies', '', '', '', 0.0)||('by', '', '', '', 0.0)||('consensus', 'noun', 'C0376298', ['socb'], 0.0)||('.', '', '', '', 0.0)||
('the', '', '', '', 0.0)||('outcomes', 'noun', 'C0085415', ['qlco'], 0.0)||('were', '', '', '', 0.0)||('reported', 'verb', 'C0684224', ['inpr'], 0.0)||('as', '', '', '', 0.0)||('relative risks', 'noun', 'C0242492', ['qnco'], 0.0)||('and', '', '', '', 0.0)||('risk', 'noun', 'C0035647', ['qlco'], 0.0)||('difference', 'noun', 'C1705242', ['qlco'], 0.0)||('with', '', '', '', 0.0)||('95 %', '', '', '', 0.0)||('confidence intervals', 'noun', 'C0009667', ['qnco'], 0.0)||('.', '', '', '', 0.0)||
('if', '', '', '', 0.0)||('statistical significance', 'noun', 'C0237881', ['qnco'], 0.0)||('was', '', '', '', 0.0)||('reached', '', '', '', 0.0)||(',', '', '', '', 0.0)||('the', '', '', '', 0.0)||('number', 'noun', 'C0449788', ['qnco'], 0.0)||('need', 'verb', 'C0027552', ['qlco'], 0.0)||('to', '', '', '', 0.0)||('treat', 'verb', 'C1292734', ['ftcn'], 0.0)||('or', '', '', '', 0.0)||('harm', '', '', '', 0.0)||('(', '', '', '', 0.0)||('nnth', '', '', '', 0.0)||(')', '', '', '', 0.0)||('was', '', '', '', 0.0)||('reported', 'verb', 'C0684224', ['inpr'], 0.0)||('.', '', '', '', 0.0)||
('the', '', '', '', 0.0)||('study', 'noun', 'C0008976', ['resa'], 0.0)||('data', 'noun', 'C1511726', ['idcn'], 0.0)||('were', '', '', '', 0.0)||('combined', 'verb', 'C0205195', ['qlco'], 0.0)||('with', '', '', '', 0.0)||('the', '', '', '', 0.0)||('fixed effects model', '', '', '', 0.0)||('if', '', '', '', 0.0)||('it', '', '', '', 0.0)||('was', '', '', '', 0.0)||('clinically', '', '', '', 0.0)||(',', '', '', '', 0.0)||('methodologically', '', '', '', 0.0)||(',', '', '', '', 0.0)||('and', '', '', '', 0.0)||('statistically', 'adv', 'C0038215', ['ocdi'], 0.0)||('reasonable', '', '', '', 0.0)||('.', '', '', '', 0.0)||
('five', '', 'C0205451', ['qnco'], 0.0)||('studies', '', '', '', 0.0)||('with', '', '', '', 0.0)||('4349', '', '', '', 0.0)||('subjects', '', '', '', 0.0)||('met', '', '', '', 0.0)||('the', '', '', '', 0.0)||('inclusion', 'noun', 'C1512693', ['qlco'], 0.0)||('criteria', 'noun', 'C0243161', ['inpr'], 0.0)||('.', '', '', '', 0.0)||
('the', '', '', '', 0.0)||('interventions', '', '', '', 0.0)||('were', '', '', '', 0.0)||('wheat bran', 'noun', 'C0043138', ['food'], 0.0)||('fibre', '', '', '', 0.0)||(',', '', '', '', 0.0)||('ispaghula', 'noun', 'C0033979', ['bacs', 'orch', 'phsu'], 0.0)||('husk', '', '', '', 0.0)||(',', '', '', '', 0.0)||('or', '', '', '', 0.0)||('a', '', '', '', 0.0)||('comprehensive', 'adj', 'C1880156', ['qlco'], 0.0)||('dietary', 'adj', 'C0012155', ['food'], 0.0)||('intervention', 'noun', 'C1273869', ['hlca'], 0.0)||('with', '', '', '', 0.0)||('high', 'adj', 'C0205250', ['qlco'], 0.0)||('fibre', '', '', '', 0.0)||('whole food', 'noun', 'C0453870', ['food'], 0.0)||('sources', '', '', '', 0.0)||('alone', 'adj', 'C0439044', ['fndg'], 0.0)||('or', '', '', '', 0.0)||('in', '', '', '', 0.0)||('combination', 'noun', 'C0205195', ['qlco'], 0.0)||('.', '', '', '', 0.0)||
('when', '', '', '', 0.0)||('the', '', '', '', 0.0)||('data', 'noun', 'C1511726', ['idcn'], 0.0)||('were', '', '', '', 0.0)||('combined', 'verb', 'C0205195', ['qlco'], 0.0)||('there', '', '', '', 0.0)||('was', '', '', '', 0.0)||('no', '', '', '', 0.0)||('difference', 'noun', 'C1705242', ['qlco'], 0.0)||('between', '', '', '', 0.0)||('the', '', '', '', 0.0)||('intervention', 'noun', 'C1273869', ['hlca'], 0.0)||('and', '', '', '', 0.0)||('control groups', 'noun', 'C0009932', ['grup'], 0.0)||('for', '', '', '', 0.0)||('the', '', '', '', 0.0)||('number', 'noun', 'C0449788', ['qnco'], 0.0)||('of', '', '', '', 0.0)||('subjects', '', '', '', 0.0)||('with', '', '', '', 0.0)||('at', '', '', '', 0.0)||('least', '', '', '', 0.0)||('one', 'noun', 'C0205447', ['qnco'], 0.0)||('adenoma', 'noun', 'C0001430', ['neop'], 0.0)||('[', '', '', '', 0.0)||('relative risks', 'noun', 'C0242492', ['qnco'], 0.0)||('1 . 04', '', '', '', 0.0)||('(', '', '', '', 0.0)||('95 %', '', '', '', 0.0)||('confidence intervals', 'noun', 'C0009667', ['qnco'], 0.0)||('0 . 95', '', '', '', 0.0)||(',', '', '', '', 0.0)||('1 . 13', '', '', '', 0.0)||(')', '', '', '', 0.0)||(';', '', '', '', 0.0)||('risk', 'noun', 'C0035647', ['qlco'], 0.0)||('difference', 'noun', 'C1705242', ['qlco'], 0.0)||('0 . 01', '', '', '', 0.0)||('(', '', '', '', 0.0)||('95 %', '', '', '', 0.0)||('confidence intervals', 'noun', 'C0009667', ['qnco'], 0.0)||('0 . 02', '', '', '', 0.0)||(',', '', '', '', 0.0)||('0 . 04', '', '', '', 0.0)||(')', '', '', '', 0.0)||(']', '', '', '', 0.0)||('.', '', '', '', 0.0)||
('as', '', '', '', 0.0)||('well', 'adj', 'C0205170', ['qlco'], 0.0)||(',', '', '', '', 0.0)||('the', '', '', '', 0.0)||('combined', 'adj', 'C0205195', ['qlco'], 0.0)||('results', 'noun', 'C1274040', ['ftcn'], 0.0)||('for', '', '', '', 0.0)||('the', '', '', '', 0.0)||('number', 'noun', 'C0449788', ['qnco'], 0.0)||('of', '', '', '', 0.0)||('subjects', '', '', '', 0.0)||('with', '', '', '', 0.0)||('more', '', '', '', 0.0)||('than', '', '', '', 0.0)||('one', 'noun', 'C0205447', ['qnco'], 0.0)||('adenoma', 'noun', 'C0001430', ['neop'], 0.0)||('[', '', '', '', 0.0)||('relative risks', 'noun', 'C0242492', ['qnco'], 0.0)||('1 . 02', '', '', '', 0.0)||('(', '', '', '', 0.0)||('95 %', '', '', '', 0.0)||('confidence intervals', 'noun', 'C0009667', ['qnco'], 0.0)||('0 . 89', '', '', '', 0.0)||(',', '', '', '', 0.0)||('1 . 17', '', '', '', 0.0)||(')', '', '', '', 0.0)||(',', '', '', '', 0.0)||('risk', 'noun', 'C0035647', ['qlco'], 0.0)||('difference', 'noun', 'C1705242', ['qlco'], 0.0)||('0 . 00', '', '', '', 0.0)||('(', '', '', '', 0.0)||('-', '', '', '', 0.0)||('0 . 02', '', '', '', 0.0)||(',', '', '', '', 0.0)||('0 . 03', '', '', '', 0.0)||(')', '', '', '', 0.0)||(']', '', '', '', 0.0)||('or', '', '', '', 0.0)||('at', '', '', '', 0.0)||('least', '', '', '', 0.0)||('one', 'noun', 'C0205447', ['qnco'], 0.0)||('adenoma', 'noun', 'C0001430', ['neop'], 0.0)||('1', '', '', '', 0.0)||('cm', '', '', '', 0.0)||('or', '', '', '', 0.0)||('greater', 'adj', 'C1704243', ['qnco'], 0.0)||('[', '', '', '', 0.0)||('relative risks', 'noun', 'C0242492', ['qnco'], 0.0)||('0 . 94', '', '', '', 0.0)||('(', '', '', '', 0.0)||('95 %', '', '', '', 0.0)||('confidence intervals', 'noun', 'C0009667', ['qnco'], 0.0)||('0 . 77', '', '', '', 0.0)||(',', '', '', '', 0.0)||('1 . 15', '', '', '', 0.0)||(')', '', '', '', 0.0)||(',', '', '', '', 0.0)||('risk', 'noun', 'C0035647', ['qlco'], 0.0)||('difference', 'noun', 'C1705242', ['qlco'], 0.0)||('-', '', '', '', 0.0)||('0 . 01', '', '', '', 0.0)||('(', '', '', '', 0.0)||('-', '', '', '', 0.0)||('0 . 02', '', '', '', 0.0)||(',', '', '', '', 0.0)||('0 . 01', '', '', '', 0.0)||(')', '', '', '', 0.0)||(']', '', '', '', 0.0)||('were', '', '', '', 0.0)||('not', 'adv', 'C1518422', ['ftcn'], 0.0)||('statistically significant', 'adj', 'C0237881', ['qnco'], 0.0)||('.', '', '', '', 0.0)||
('other', '', '', '', 0.0)||('primary', 'adj', 'C0205225', ['qlco'], 0.0)||('and', '', '', '', 0.0)||('secondary', 'adj', 'C0175668', ['tmco'], 0.0)||('outcomes', 'noun', 'C0085415', ['qlco'], 0.0)||('and', '', '', '', 0.0)||('subanalyses', '', '', '', 0.0)||('by', '', '', '', 0.0)||('type', 'noun', 'C0332307', ['qlco'], 0.0)||('of', '', '', '', 0.0)||('fibre', '', '', '', 0.0)||('intervention', 'noun', 'C1273869', ['hlca'], 0.0)||('were', '', '', '', 0.0)||('not', 'adv', 'C1518422', ['ftcn'], 0.0)||('statistically', 'adv', 'C0038215', ['ocdi'], 0.0)||('or', '', '', '', 0.0)||('clinically', '', '', '', 0.0)||('significant', 'adj', 'C0750502', ['idcn'], 0.0)||('.', '', '', '', 0.0)||
('there', '', '', '', 0.0)||('is', '', '', '', 0.0)||('currently', 'adv', 'C0521116', ['tmco'], 0.0)||('no', '', '', '', 0.0)||('evidence', 'noun', 'C0332120', ['ftcn'], 0.0)||('from', '', '', '', 0.0)||('rcts', '', '', '', 0.0)||('to', '', '', '', 0.0)||('suggest', 'verb', 'C1705535', ['idcn'], 0.0)||('that', '', '', '', 0.0)||('increased', 'adj', 'C0205217', ['qnco'], 0.0)||('dietary fibre', '', '', '', 0.0)||('intake', 'noun', 'C1512806', ['ftcn'], 0.0)||('will', '', '', '', 0.0)||('reduce', '', '', '', 0.0)||('the', '', '', '', 0.0)||('incidence', 'noun', 'C0021149', ['qnco'], 0.0)||('or', '', '', '', 0.0)||('recurrence', 'noun', 'C0034897', ['phpr'], 0.0)||('of', '', '', '', 0.0)||('adenomatous polyps', 'noun', 'C0206677', ['neop'], 0.0)||('within', '', '', '', 0.0)||('a', '', '', '', 0.0)||('two', 'noun', 'C0205448', ['qnco'], 0.0)||('to', '', '', '', 0.0)||('four', '', 'C0205450', ['qnco'], 0.0)||('year', 'noun', 'C0439234', ['tmco'], 0.0)||('period', 'noun', 'C1948053', ['tmco'], 0.0)||('.', '', '', '', 0.0)||
