('to', '', '', '', 0.0)||('test', 'verb', 'C0022885', ['lbpr'], 0.0)||('the', '', '', '', 0.0)||('usefulness', '', '', '', 0.0)||('of', '', '', '', 0.0)||('urodynamic', 'adj', 'C0042059', ['ortf'], 0.0)||('examination', '', '', '', 0.0)||('in', '', '', '', 0.0)||('female', 'noun', 'C0015780', ['orga'], 0.0)||('urinary incontinence', 'noun', 'C0042024', ['dsyn'], 0.0)||('.', '', '', '', 0.0)||
('as', '', '', '', 0.0)||('part', 'noun', 'C0449719', ['spco'], 0.0)||('of', '', '', '', 0.0)||('a', '', '', '', 0.0)||('population - based', '', '', '', 0.0)||(',', '', '', '', 0.0)||('randomized', 'verb', 'C0034656', ['resa'], 0.0)||(',', '', '', '', 0.0)||('controlled', 'adj', 'C2587213', ['ftcn'], 0.0)||('treatment', 'noun', 'C0039798', ['ftcn'], 0.0)||('study', 'noun', 'C0008976', ['resa'], 0.0)||('in', '', '', '', 0.0)||('general practice', 'noun', 'C0086343', ['bmod'], 0.0)||(',', '', '', '', 0.0)||('the', '', '', '', 0.0)||('control group', 'noun', 'C0009932', ['grup'], 0.0)||('was', '', '', '', 0.0)||('offered', 'verb', 'C1444648', ['fndg'], 0.0)||('urodynamic', 'adj', 'C0042059', ['ortf'], 0.0)||('examination', '', '', '', 0.0)||('before', '', '', '', 0.0)||('and', '', '', '', 0.0)||('after', '', '', '', 0.0)||('delayed', 'adj', 'C0205421', ['tmco'], 0.0)||('treatment', 'noun', 'C0039798', ['ftcn'], 0.0)||('starting', '', '', '', 0.0)||('6', '', '', '', 0.0)||('months', 'noun', 'C0439231', ['tmco'], 0.0)||('after', '', '', '', 0.0)||('inclusion', 'noun', 'C1512693', ['qlco'], 0.0)||('in', '', '', '', 0.0)||('the', '', '', '', 0.0)||('study', 'noun', 'C0008976', ['resa'], 0.0)||(',', '', '', '', 0.0)||('i . e', '', '', '', 0.0)||('.', '', '', '', 0.0)||
('after', '', '', '', 0.0)||('the', '', '', '', 0.0)||('first', 'adj', 'C0205435', ['qnco'], 0.0)||('outcome', 'noun', 'C1274040', ['ftcn'], 0.0)||('evaluation', 'noun', 'C0220825', ['ftcn'], 0.0)||('comparing', '', '', '', 0.0)||('the', '', '', '', 0.0)||('initially', 'adv', 'C0205265', ['tmco'], 0.0)||('treated group', '', '', '', 0.0)||('with', '', '', '', 0.0)||('the', '', '', '', 0.0)||('control group', 'noun', 'C0009932', ['grup'], 0.0)||('.', '', '', '', 0.0)||
('the', '', '', '', 0.0)||('intervention', 'noun', 'C1273869', ['hlca'], 0.0)||('group', 'noun', 'C0441833', ['idcn'], 0.0)||('was', '', '', '', 0.0)||('offered', 'verb', 'C1444648', ['fndg'], 0.0)||('urodynamic', 'adj', 'C0042059', ['ortf'], 0.0)||('examination', '', '', '', 0.0)||('only', '', '', '', 0.0)||('after', '', '', '', 0.0)||('the', '', '', '', 0.0)||('final', 'adj', 'C0205088', ['tmco'], 0.0)||('outcome', 'noun', 'C1274040', ['ftcn'], 0.0)||('evaluation', 'noun', 'C0220825', ['ftcn'], 0.0)||('at', '', '', '', 0.0)||('12', '', '', '', 0.0)||('months', 'noun', 'C0439231', ['tmco'], 0.0)||('.', '', '', '', 0.0)||
('eighty', '', '', '', 0.0)||('-', '', '', '', 0.0)||('seven', '', 'C0205453', ['qnco'], 0.0)||('women', 'noun', 'C0043210', ['popg'], 0.0)||(',', '', '', '', 0.0)||('aged', 'verb', 'C0001779', ['orga'], 0.0)||('50', '', '', '', 0.0)||('-', '', '', '', 0.0)||('74', '', '', '', 0.0)||(',', '', '', '', 0.0)||('from', '', '', '', 0.0)||('three', '', 'C0205449', ['qnco'], 0.0)||('norwegian', 'noun', 'C0337812', ['popg'], 0.0)||('municipalities', 'noun', 'C0600182', ['geoa'], 0.0)||('participated', '', '', '', 0.0)||('.', '', '', '', 0.0)||
('there', '', '', '', 0.0)||('was', '', '', '', 0.0)||('no', '', '', '', 0.0)||('difference', 'noun', 'C1705242', ['qlco'], 0.0)||('in treatment', '', '', '', 0.0)||('outcome', 'noun', 'C1274040', ['ftcn'], 0.0)||('whether', '', '', '', 0.0)||('the', '', '', '', 0.0)||('patients', 'noun', 'C0030705', ['podg'], 0.0)||('had', '', '', '', 0.0)||('urodynamic', 'adj', 'C0042059', ['ortf'], 0.0)||('examination', '', '', '', 0.0)||('or', '', '', '', 0.0)||('not', 'adv', 'C1518422', ['ftcn'], 0.0)||('.', '', '', '', 0.0)||
('eleven', '', 'C0205457', ['inpr', 'qnco'], 0.0)||('patients', 'noun', 'C0030705', ['podg'], 0.0)||('(', '', '', '', 0.0)||('26 %', '', '', '', 0.0)||('of', '', '', '', 0.0)||('42', '', '', '', 0.0)||('control patients', '', '', '', 0.0)||(')', '', '', '', 0.0)||('had', '', '', '', 0.0)||('their', '', '', '', 0.0)||('diagnosis', 'noun', 'C0011900', ['fndg'], 0.0)||('revised', 'verb', 'C1527075', ['ftcn'], 0.0)||('after', '', '', '', 0.0)||('urodynamic', 'adj', 'C0042059', ['ortf'], 0.0)||('examination', '', '', '', 0.0)||(',', '', '', '', 0.0)||('ten', 'adv', 'C0014518', ['dsyn'], 0.0)||('of', '', '', '', 0.0)||('them', '', '', '', 0.0)||('with', '', '', '', 0.0)||('a', '', '', '', 0.0)||('subsequent', 'adj', 'C0332282', ['tmco'], 0.0)||('change', 'noun', 'C0392747', ['ftcn'], 0.0)||('in treatment', '', '', '', 0.0)||('.', '', '', '', 0.0)||
('the', '', '', '', 0.0)||('outcome', 'noun', 'C1274040', ['ftcn'], 0.0)||('for', '', '', '', 0.0)||('this', '', '', '', 0.0)||('group', 'noun', 'C0441833', ['idcn'], 0.0)||('was', '', '', '', 0.0)||('no', '', '', '', 0.0)||('different', 'adj', 'C1705242', ['qlco'], 0.0)||('than', '', '', '', 0.0)||('for', '', '', '', 0.0)||('the', '', '', '', 0.0)||('other', '', '', '', 0.0)||('patients', 'noun', 'C0030705', ['podg'], 0.0)||('.', '', '', '', 0.0)||
('as', '', '', '', 0.0)||('a', '', '', '', 0.0)||('subgroup', 'noun', 'C1515021', ['clas'], 0.0)||(',', '', '', '', 0.0)||('the', '', '', '', 0.0)||('11', '', '', '', 0.0)||('patients', 'noun', 'C0030705', ['podg'], 0.0)||('had', '', '', '', 0.0)||('more', '', '', '', 0.0)||('severe', 'adj', 'C0205082', ['qlco'], 0.0)||('leakage', 'noun', 'C0015376', ['patf'], 0.0)||('(', '', '', '', 0.0)||('p', '', '', '', 0.0)||('=', '', '', '', 0.0)||('0 . 048', '', '', '', 0.0)||(')', '', '', '', 0.0)||('and', '', '', '', 0.0)||('more', '', '', '', 0.0)||('previous', 'adj', 'C0205156', ['tmco'], 0.0)||('gynecological', '', '', '', 0.0)||('operations', 'noun', 'C0038895', ['ftcn'], 0.0)||('(', '', '', '', 0.0)||('p', '', '', '', 0.0)||('=', '', '', '', 0.0)||('0 . 038', '', '', '', 0.0)||(')', '', '', '', 0.0)||('than', '', '', '', 0.0)||('the', '', '', '', 0.0)||('other', '', '', '', 0.0)||('control group', 'noun', 'C0009932', ['grup'], 0.0)||('patients', 'noun', 'C0030705', ['podg'], 0.0)||('.', '', '', '', 0.0)||
('our', '', '', '', 0.0)||('study', 'noun', 'C0008976', ['resa'], 0.0)||('supports', 'verb', 'C0183683', ['medd'], 0.0)||('the', '', '', '', 0.0)||('idea', '', '', '', 0.0)||('that', '', '', '', 0.0)||('in', '', '', '', 0.0)||('general practice', 'noun', 'C0086343', ['bmod'], 0.0)||(',', '', '', '', 0.0)||('or', '', '', '', 0.0)||('in', '', '', '', 0.0)||('rather', '', '', '', 0.0)||('unselected', '', '', '', 0.0)||('patients', 'noun', 'C0030705', ['podg'], 0.0)||(',', '', '', '', 0.0)||('women', 'noun', 'C0043210', ['popg'], 0.0)||('with', '', '', '', 0.0)||('urinary incontinence', 'noun', 'C0042024', ['dsyn'], 0.0)||('may', '', '', '', 0.0)||('be', '', '', '', 0.0)||('classified', 'verb', 'C0008902', ['clas'], 0.0)||('and', '', '', '', 0.0)||('treated', 'verb', 'C1522326', ['ftcn'], 0.0)||('without', '', '', '', 0.0)||('urodynamic', 'adj', 'C0042059', ['ortf'], 0.0)||('examination', '', '', '', 0.0)||('.', '', '', '', 0.0)||
('if', '', '', '', 0.0)||('there', '', '', '', 0.0)||('is', '', '', '', 0.0)||('little', 'adj', 'C0700321', ['qnco'], 0.0)||('or', '', '', '', 0.0)||('no', '', '', '', 0.0)||('improvement', '', '', '', 0.0)||('during', '', '', '', 0.0)||('the', '', '', '', 0.0)||('first', 'adj', 'C0205435', ['qnco'], 0.0)||('few', '', '', '', 0.0)||('months', 'noun', 'C0439231', ['tmco'], 0.0)||('referral', 'noun', 'C0034927', ['hlca'], 0.0)||('should', '', '', '', 0.0)||('be', '', '', '', 0.0)||('considered', '', '', '', 0.0)||(',', '', '', '', 0.0)||('and', '', '', '', 0.0)||('this', '', '', '', 0.0)||('should', '', '', '', 0.0)||('be', '', '', '', 0.0)||('done', '', '', '', 0.0)||('sooner', '', '', '', 0.0)||('for', '', '', '', 0.0)||('patients', 'noun', 'C0030705', ['podg'], 0.0)||('with', '', '', '', 0.0)||('severe', 'adj', 'C0205082', ['qlco'], 0.0)||('incontinence', 'noun', 'C0021167', ['dsyn'], 0.0)||('or', '', '', '', 0.0)||('prior', 'adj', 'C0332152', ['tmco'], 0.0)||('gynecological', '', '', '', 0.0)||('operations', 'noun', 'C0038895', ['ftcn'], 0.0)||('than', '', '', '', 0.0)||('for', '', '', '', 0.0)||('other', '', '', '', 0.0)||('patients', 'noun', 'C0030705', ['podg'], 0.0)||('.', '', '', '', 0.0)||
