('a', '', '', '', 0.0)||('study', 'noun', 'C0008976', ['resa'], 0.0)||('recruited', '', '', '', 0.0)||('70', '', '', '', 0.0)||('consecutive', 'adj', 'C1707491', ['qlco'], 0.0)||('children', 'noun', 'C0008059', ['aggp'], 0.0)||('(', '', '', '', 0.0)||('ages', '', '', '', 0.0)||('2', '', '', '', 0.0)||('to', '', '', '', 0.0)||('17', '', '', '', 0.0)||('years', 'noun', 'C0439234', ['tmco'], 0.0)||(')', '', '', '', 0.0)||('from', '', '', '', 0.0)||('a', '', '', '', 0.0)||('sleep', 'noun', 'C0037313', ['orgf'], 0.0)||('lab', 'noun', 'C0022877', ['mnob', 'orgt'], 0.0)||('and', '', '', '', 0.0)||('performed', 'adj', 'C0884358', ['ftcn'], 0.0)||('polysomnography', 'noun', 'C0162701', ['diap'], 0.0)||('on', '', '', '', 0.0)||('2', '', '', '', 0.0)||('consecutive', 'adj', 'C1707491', ['qlco'], 0.0)||('nights', '', '', '', 0.0)||('.', '', '', '', 0.0)||
('the', '', '', '', 0.0)||('first', '', '', '', 0.0)||('test', 'verb', 'C0022885', ['lbpr'], 0.0)||('correctly', '', '', '', 0.0)||('identified', 'verb', 'C0205396', ['qlco'], 0.0)||('obstructive sleep apnea', '', '', '', 0.0)||('in', '', '', '', 0.0)||('64', '', '', '', 0.0)||('children', 'noun', 'C0008059', ['aggp'], 0.0)||(';', '', '', '', 0.0)||
('the', '', '', '', 0.0)||('second', 'adv', 'C0205436', ['qnco'], 0.0)||('identified', 'verb', 'C0205396', ['qlco'], 0.0)||('6', '', '', '', 0.0)||('additional', 'adj', 'C1524062', ['ftcn'], 0.0)||('cases', 'noun', 'C0868928', ['ftcn'], 0.0)||(',', '', '', '', 0.0)||('all', '', '', '', 0.0)||('of', '', '', '', 0.0)||('which', '', '', '', 0.0)||('were', '', '', '', 0.0)||('"', '', '', '', 0.0)||('mild', 'adj', 'C0547040', ['qlco'], 0.0)||('"', '', '', '', 0.0)||('.', '', '', '', 0.0)||
