('to', '', '', '', 0.0)||('evaluate', 'verb', 'C0220825', ['ftcn'], 0.0)||('the', '', '', '', 0.0)||('safety', 'noun', 'C0036043', ['hcpp'], 0.0)||('and', '', '', '', 0.0)||('efficacy', 'noun', 'C1707887', ['resa'], 0.0)||('of', '', '', '', 0.0)||('controlled - release', '', '', '', 0.0)||('niacin', 'noun', 'C0027996', ['orch', 'phsu', 'vita'], 0.0)||('in', '', '', '', 0.0)||('patients', 'noun', 'C0030705', ['podg'], 0.0)||('with', '', '', '', 0.0)||('hyperlipoproteinemia', '', '', '', 0.0)||('.', '', '', '', 0.0)||
('a', '', '', '', 0.0)||('retrospective cohort study', '', '', '', 0.0)||('.', '', '', '', 0.0)||
('a', '', '', '', 0.0)||('department', 'noun', 'C1704729', ['orgt'], 0.0)||('of', '', '', '', 0.0)||('veterans affairs medical center', '', '', '', 0.0)||('.', '', '', '', 0.0)||
('a', '', '', '', 0.0)||('consecutive', 'adj', 'C1707491', ['qlco'], 0.0)||('sample', 'noun', 'C0370003', ['sbst'], 0.0)||('of', '', '', '', 0.0)||('969', '', '', '', 0.0)||('predominantly', '', '', '', 0.0)||('elderly', 'adj', 'C0001792', ['popg'], 0.0)||('male', 'noun', 'C0024554', ['orga'], 0.0)||('veterans', 'noun', 'C0042610', ['popg'], 0.0)||('treated', 'verb', 'C1522326', ['ftcn'], 0.0)||('for', '', '', '', 0.0)||('dyslipoproteinemia', '', '', '', 0.0)||('with', '', '', '', 0.0)||('controlled - release', '', '', '', 0.0)||('niacin', 'noun', 'C0027996', ['orch', 'phsu', 'vita'], 0.0)||('between', '', '', '', 0.0)||('october', '', '', '', 0.0)||('1988', '', '', '', 0.0)||('and', '', '', '', 0.0)||('october', '', '', '', 0.0)||('1991', '', '', '', 0.0)||('.', '', '', '', 0.0)||
('primary', 'adj', 'C0205225', ['qlco'], 0.0)||('outcomes', 'noun', 'C0085415', ['qlco'], 0.0)||('were', '', '', '', 0.0)||('lipid levels', '', '', '', 0.0)||('and', '', '', '', 0.0)||('lipoprotein', 'noun', 'C0023820', ['aapp', 'bacs'], 0.0)||('cholesterol', 'noun', 'C0008377', ['bacs', 'strd'], 0.0)||('response', 'noun', 'C0871261', ['clna'], 0.0)||(',', '', '', '', 0.0)||('alternations', '', '', '', 0.0)||('in', '', '', '', 0.0)||('levels', 'noun', 'C0441889', ['qlco'], 0.0)||('of', '', '', '', 0.0)||('hepatic', 'adj', 'C0205054', ['blor'], 0.0)||('enzymes', 'noun', 'C0014442', ['enzy', 'orch'], 0.0)||('and', '', '', '', 0.0)||('blood', 'noun', 'C0005767', ['tisu'], 0.0)||('chemistry', 'noun', 'C0007996', ['ocdi'], 0.0)||('test', 'noun', 'C0022885', ['lbpr'], 0.0)||('results', 'noun', 'C1274040', ['ftcn'], 0.0)||(',', '', '', '', 0.0)||('and', '', '', '', 0.0)||('characterization', 'noun', 'C1880022', ['acty'], 0.0)||('of', '', '', '', 0.0)||('niacin', 'noun', 'C0027996', ['orch', 'phsu', 'vita'], 0.0)||('-', '', '', '', 0.0)||('induced', 'adj', 'C0205263', ['ftcn'], 0.0)||('hepatotoxicity', 'noun', 'C0235378', ['inpo'], 0.0)||('abstracted', '', '', '', 0.0)||('from', '', '', '', 0.0)||('the', '', '', '', 0.0)||('patient', '', '', '', 0.0)||("' s", '', '', '', 0.0)||('medical', 'adj', 'C0205476', ['ftcn'], 0.0)||(',', '', '', '', 0.0)||('laboratory', 'noun', 'C0022877', ['mnob', 'orgt'], 0.0)||(',', '', '', '', 0.0)||('and', '', '', '', 0.0)||('pharmacy', 'noun', 'C0031322', ['hcro'], 0.0)||('records', 'noun', 'C0034869', ['inpr'], 0.0)||('.', '', '', '', 0.0)||
('93 %', '', '', '', 0.0)||('(', '', '', '', 0.0)||('896', '', '', '', 0.0)||('of', '', '', '', 0.0)||('969', '', '', '', 0.0)||(')', '', '', '', 0.0)||('of', '', '', '', 0.0)||('the', '', '', '', 0.0)||('cohort', 'noun', 'C0599755', ['popg'], 0.0)||('was', '', '', '', 0.0)||('evaluable', 'adj', 'C1516986', ['dsyn'], 0.0)||('.', '', '', '', 0.0)||
('patients', 'noun', 'C0030705', ['podg'], 0.0)||('(', '', '', '', 0.0)||('age', 'noun', 'C0001779', ['orga'], 0.0)||(',', '', '', '', 0.0)||('61 . 7', '', '', '', 0.0)||('years', 'noun', 'C0439234', ['tmco'], 0.0)||('[', '', '', '', 0.0)||('9 . 4', '', '', '', 0.0)||('years', 'noun', 'C0439234', ['tmco'], 0.0)||(']', '', '', '', 0.0)||(',', '', '', '', 0.0)||('mean', 'noun', 'C0444504', ['qnco'], 0.0)||('[', '', '', '', 0.0)||('sd', '', '', '', 0.0)||(']', '', '', '', 0.0)||(')', '', '', '', 0.0)||('were', '', '', '', 0.0)||('treated', 'verb', 'C1522326', ['ftcn'], 0.0)||('for', '', '', '', 0.0)||('1', '', '', '', 0.0)||('to', '', '', '', 0.0)||('36', '', '', '', 0.0)||('months', 'noun', 'C0439231', ['tmco'], 0.0)||('(', '', '', '', 0.0)||('13 . 0', '', '', '', 0.0)||('months', 'noun', 'C0439231', ['tmco'], 0.0)||('[', '', '', '', 0.0)||('9 . 7', '', '', '', 0.0)||('months', 'noun', 'C0439231', ['tmco'], 0.0)||(']', '', '', '', 0.0)||(')', '', '', '', 0.0)||('with', '', '', '', 0.0)||('an', '', '', '', 0.0)||('average', 'adj', 'C1510992', ['qnco'], 0.0)||('maintenance dose', '', '', '', 0.0)||('of', '', '', '', 0.0)||('1 . 67', '', '', '', 0.0)||('g', '', '', '', 0.0)||('/', '', '', '', 0.0)||('d (', '', '', '', 0.0)||('0 . 8', '', '', '', 0.0)||('g', '', '', '', 0.0)||('/', '', '', '', 0.0)||('d', '', '', '', 0.0)||(')', '', '', '', 0.0)||('.', '', '', '', 0.0)||
('niacin', 'noun', 'C0027996', ['orch', 'phsu', 'vita'], 0.0)||('was', '', '', '', 0.0)||('discontinued', 'verb', 'C1444662', ['fndg'], 0.0)||('in', '', '', '', 0.0)||('48 . 5 %', '', '', '', 0.0)||('(', '', '', '', 0.0)||('435', '', '', '', 0.0)||('of', '', '', '', 0.0)||('896', '', '', '', 0.0)||(')', '', '', '', 0.0)||('of', '', '', '', 0.0)||('the', '', '', '', 0.0)||('patients', 'noun', 'C0030705', ['podg'], 0.0)||('primarily', '', '', '', 0.0)||('because of', '', '', '', 0.0)||('adverse effects', 'noun', 'C0001688', ['ftcn'], 0.0)||('.', '', '', '', 0.0)||
('poor', 'adj', 'C0032854', ['grpa'], 0.0)||('glycemic control', '', '', '', 0.0)||('led', '', '', '', 0.0)||('to', '', '', '', 0.0)||('discontinuation', 'noun', 'C0457454', ['hlca'], 0.0)||('in', '', '', '', 0.0)||('40 . 6 %', '', '', '', 0.0)||('(', '', '', '', 0.0)||('43', '', '', '', 0.0)||('of', '', '', '', 0.0)||('106', '', '', '', 0.0)||(')', '', '', '', 0.0)||('of', '', '', '', 0.0)||('the', '', '', '', 0.0)||('patients', 'noun', 'C0030705', ['podg'], 0.0)||('with', '', '', '', 0.0)||('diabetes mellitus', 'noun', 'C0011849', ['dsyn'], 0.0)||('.', '', '', '', 0.0)||
('the', '', '', '', 0.0)||('lipoprotein', 'noun', 'C0023820', ['aapp', 'bacs'], 0.0)||('response', 'noun', 'C0871261', ['clna'], 0.0)||('was', '', '', '', 0.0)||('dose - related', '', '', '', 0.0)||('and', '', '', '', 0.0)||('favorable', '', '', '', 0.0)||('(', '', '', '', 0.0)||('levels', 'noun', 'C0441889', ['qlco'], 0.0)||('of', '', '', '', 0.0)||('total cholesterol', 'noun', 'C0543421', ['strd'], 0.0)||(',', '', '', '', 0.0)||('-', '', '', '', 0.0)||('19 . 1 %', '', '', '', 0.0)||(';', '', '', '', 0.0)||('low - density lipoprotein cholesterol', '', '', '', 0.0)||(',', '', '', '', 0.0)||('-', '', '', '', 0.0)||('24 . 0 %', '', '', '', 0.0)||(';', '', '', '', 0.0)||('high - density lipoprotein cholesterol', '', '', '', 0.0)||(',', '', '', '', 0.0)||('+', '', '', '', 0.0)||('5 . 7 %', '', '', '', 0.0)||(';', '', '', '', 0.0)||('and', '', '', '', 0.0)||('triglycerides', 'noun', 'C0041004', ['bacs', 'lipd'], 0.0)||(',', '', '', '', 0.0)||('-', '', '', '', 0.0)||('32 . 5 %', '', '', '', 0.0)||(')', '', '', '', 0.0)||('.', '', '', '', 0.0)||
('statistically', 'adv', 'C0038215', ['ocdi'], 0.0)||('but', '', '', '', 0.0)||('not', 'adv', 'C1518422', ['ftcn'], 0.0)||('clinically', '', '', '', 0.0)||('meaningful', '', '', '', 0.0)||('dose - related', '', '', '', 0.0)||('increases', '', '', '', 0.0)||('were', '', '', '', 0.0)||('seen', 'verb', 'C0205397', ['qlco'], 0.0)||('in', '', '', '', 0.0)||('levels', 'noun', 'C0441889', ['qlco'], 0.0)||('of', '', '', '', 0.0)||('liver', 'noun', 'C0023884', ['bpoc'], 0.0)||('enzymes', 'noun', 'C0014442', ['enzy', 'orch'], 0.0)||('and', '', '', '', 0.0)||('serum glucose', 'noun', 'C0202041', ['lbpr'], 0.0)||('(', '', '', '', 0.0)||('aspartate aminotransferase', '', '', '', 0.0)||(',', '', '', '', 0.0)||('+', '', '', '', 0.0)||('29 %', '', '', '', 0.0)||(';', '', '', '', 0.0)||('alanine aminotransferase', 'noun', 'C0001899', ['aapp', 'enzy'], 0.0)||(',', '', '', '', 0.0)||('+', '', '', '', 0.0)||('23 %', '', '', '', 0.0)||(';', '', '', '', 0.0)||('alkaline phosphatase', 'noun', 'C0002059', ['aapp', 'enzy'], 0.0)||(',', '', '', '', 0.0)||('+', '', '', '', 0.0)||('25 %', '', '', '', 0.0)||(';', '', '', '', 0.0)||('and', '', '', '', 0.0)||('glucose', 'noun', 'C0017725', ['bacs', 'carb', 'phsu'], 0.0)||(',', '', '', '', 0.0)||('+', '', '', '', 0.0)||('7 %', '', '', '', 0.0)||(';', '', '', '', 0.0)||('p', '', '', '', 0.0)||('=', '', '', '', 0.0)||('0 . 0001', '', '', '', 0.0)||(')', '', '', '', 0.0)||('.', '', '', '', 0.0)||
('twenty', '', '', '', 0.0)||('of', '', '', '', 0.0)||('896', '', '', '', 0.0)||('(', '', '', '', 0.0)||('2 . 2 %', '', '', '', 0.0)||(')', '', '', '', 0.0)||('and', '', '', '', 0.0)||('42', '', '', '', 0.0)||('of', '', '', '', 0.0)||('896', '', '', '', 0.0)||('(', '', '', '', 0.0)||('4 . 7 %', '', '', '', 0.0)||(')', '', '', '', 0.0)||('patients', 'noun', 'C0030705', ['podg'], 0.0)||('met', '', '', '', 0.0)||('biochemical', 'adj', 'C0205474', ['ftcn'], 0.0)||('criteria', 'noun', 'C0243161', ['inpr'], 0.0)||('for', '', '', '', 0.0)||('probable', 'adj', 'C0332148', ['qlco'], 0.0)||('and', '', '', '', 0.0)||('for', '', '', '', 0.0)||('possible', 'adj', 'C0332149', ['qlco'], 0.0)||('or', '', '', '', 0.0)||('probable', 'adj', 'C0332148', ['qlco'], 0.0)||('niacin', 'noun', 'C0027996', ['orch', 'phsu', 'vita'], 0.0)||('-', '', '', '', 0.0)||('induced', 'adj', 'C0205263', ['ftcn'], 0.0)||('hepatotoxicity', 'noun', 'C0235378', ['inpo'], 0.0)||(',', '', '', '', 0.0)||('respectively', '', '', '', 0.0)||('.', '', '', '', 0.0)||
('predisposing', '', '', '', 0.0)||('factors', '', '', '', 0.0)||('included', '', '', '', 0.0)||('high dose', 'adj', 'C0444956', ['qnco'], 0.0)||(',', '', '', '', 0.0)||('alcohol', 'noun', 'C0001962', ['orch', 'phsu'], 0.0)||('use', 'noun', 'C0042153', ['ftcn'], 0.0)||(',', '', '', '', 0.0)||('preexisting', 'verb', 'C2347662', ['qlco'], 0.0)||('liver disease', 'noun', 'C0023895', ['dsyn'], 0.0)||(',', '', '', '', 0.0)||('and', '', '', '', 0.0)||('concurrent', 'adj', 'C0205420', ['tmco'], 0.0)||('oral', 'adj', 'C0442027', ['spco'], 0.0)||('sulfonylurea', 'noun', 'C0038766', ['orch', 'phsu'], 0.0)||('therapy', 'noun', 'C0039798', ['ftcn'], 0.0)||('.', '', '', '', 0.0)||
('controlled - release', '', '', '', 0.0)||('niacin', 'noun', 'C0027996', ['orch', 'phsu', 'vita'], 0.0)||('is', '', '', '', 0.0)||('effective', 'adj', 'C1704419', ['qlco'], 0.0)||('in', '', '', '', 0.0)||('treating', 'adj', 'C1522326', ['ftcn'], 0.0)||('dyslipoproteinemia', '', '', '', 0.0)||('in', '', '', '', 0.0)||('selected', '', '', '', 0.0)||('middle - aged', '', '', '', 0.0)||('and', '', '', '', 0.0)||('elderly', 'adj', 'C0001792', ['popg'], 0.0)||('veterans', 'noun', 'C0042610', ['popg'], 0.0)||(',', '', '', '', 0.0)||('but', '', '', '', 0.0)||('approximately', 'adv', 'C0332232', ['qlco'], 0.0)||('one', 'noun', 'C0205447', ['qnco'], 0.0)||('half', '', '', '', 0.0)||('of', '', '', '', 0.0)||('patients', 'noun', 'C0030705', ['podg'], 0.0)||('discontinued', 'verb', 'C1444662', ['fndg'], 0.0)||('the', '', '', '', 0.0)||('drug', 'noun', 'C0013227', ['phsu'], 0.0)||('because of', '', '', '', 0.0)||('adverse effects', 'noun', 'C0001688', ['ftcn'], 0.0)||('or', '', '', '', 0.0)||('other', '', '', '', 0.0)||('causes', 'noun', 'C0015127', ['ftcn'], 0.0)||('including', '', '', '', 0.0)||('noncompliance', 'noun', 'C0376405', ['fndg'], 0.0)||('.', '', '', '', 0.0)||
('niacin', 'noun', 'C0027996', ['orch', 'phsu', 'vita'], 0.0)||('should', '', '', '', 0.0)||('be', '', '', '', 0.0)||('avoided', '', '', '', 0.0)||('in', '', '', '', 0.0)||('patients', 'noun', 'C0030705', ['podg'], 0.0)||('with', '', '', '', 0.0)||('hepatic', 'adj', 'C0205054', ['blor'], 0.0)||('dysfunction', 'noun', 'C0031847', ['ftcn'], 0.0)||('or', '', '', '', 0.0)||('a', '', '', '', 0.0)||('history', 'noun', 'C0019664', ['ocdi'], 0.0)||('of', '', '', '', 0.0)||('liver disease', 'noun', 'C0023895', ['dsyn'], 0.0)||(',', '', '', '', 0.0)||('patients', 'noun', 'C0030705', ['podg'], 0.0)||('with', '', '', '', 0.0)||('diabetes mellitus', 'noun', 'C0011849', ['dsyn'], 0.0)||(',', '', '', '', 0.0)||('and', '', '', '', 0.0)||('patients', 'noun', 'C0030705', ['podg'], 0.0)||('who', '', '', '', 0.0)||('abuse', 'verb', 'C0013146', ['mobd'], 0.0)||('alcohol', 'noun', 'C0001962', ['orch', 'phsu'], 0.0)||('.', '', '', '', 0.0)||
('because', '', '', '', 0.0)||('controlled - release', '', '', '', 0.0)||('niacin', 'noun', 'C0027996', ['orch', 'phsu', 'vita'], 0.0)||('seems', '', '', '', 0.0)||('to', '', '', '', 0.0)||('be', '', '', '', 0.0)||('more', '', '', '', 0.0)||('potent', '', '', '', 0.0)||('than', '', '', '', 0.0)||('crystalline', 'adj', 'C0444626', ['chvs'], 0.0)||('niacin', 'noun', 'C0027996', ['orch', 'phsu', 'vita'], 0.0)||(',', '', '', '', 0.0)||('product', 'noun', 'C1514468', ['enty'], 0.0)||('substitution', 'noun', 'C1555721', ['idcn'], 0.0)||('without', '', '', '', 0.0)||('dose adjustment', '', '', '', 0.0)||('should', '', '', '', 0.0)||('be', '', '', '', 0.0)||('avoided', '', '', '', 0.0)||('.', '', '', '', 0.0)||
