('patients', 'noun', 'C0030705', ['podg'], 0.0)||('with', '', '', '', 0.0)||('intermediate', 'adj', 'C0205103', ['spco'], 0.0)||('-', '', '', '', 0.0)||('or', '', '', '', 0.0)||('high - risk', '', '', '', 0.0)||('duke', 'noun', 'C1446468', ['lbpr'], 0.0)||('treadmill', 'noun', 'C0184069', ['mnob'], 0.0)||('score', 'noun', 'C0449820', ['qnco'], 0.0)||('on', '', '', '', 0.0)||('exercise stress testing', '', '', '', 0.0)||('should', '', '', '', 0.0)||('undergo', '', '', '', 0.0)||('myocardial', 'adj', 'C0027061', ['tisu'], 0.0)||('perfusion', 'noun', 'C0031001', ['topp'], 0.0)||('imaging', 'verb', 'C0011923', ['diap'], 0.0)||('or', '', '', '', 0.0)||('exercise', 'noun', 'C0015259', ['dora'], 0.0)||('echocardiography', 'noun', 'C0013516', ['diap'], 0.0)||(',', '', '', '', 0.0)||('especially', '', '', '', 0.0)||('if', '', '', '', 0.0)||('they', '', '', '', 0.0)||('have', '', '', '', 0.0)||('abnormal', 'adj', 'C0205161', ['ftcn'], 0.0)||('values', 'noun', 'C0042295', ['qlco'], 0.0)||('of', '', '', '', 0.0)||('chronotropic', 'adj', 'C0598012', ['tmco'], 0.0)||('index', 'noun', 'C0918012', ['inpr'], 0.0)||('or', '', '', '', 0.0)||('post - exercise', '', '', '', 0.0)||('stress', 'noun', 'C0038435', ['fndg'], 0.0)||('testing', 'adj', 'C0039593', ['ftcn'], 0.0)||('heart rate', 'noun', 'C2041121', ['fndg'], 0.0)||('recovery', 'noun', 'C0237820', ['acty'], 0.0)||('.', '', '', '', 0.0)||
('for', '', '', '', 0.0)||('patients', 'noun', 'C0030705', ['podg'], 0.0)||('who', '', '', '', 0.0)||('have', '', '', '', 0.0)||('a', '', '', '', 0.0)||('low - risk', '', '', '', 0.0)||('duke', 'noun', 'C1446468', ['lbpr'], 0.0)||('treadmill', 'noun', 'C0184069', ['mnob'], 0.0)||('score', 'noun', 'C0449820', ['qnco'], 0.0)||(',', '', '', '', 0.0)||('the', '', '', '', 0.0)||('4', '', '', '', 0.0)||('-', '', '', '', 0.0)||('year', 'noun', 'C0439234', ['tmco'], 0.0)||('mortality', 'noun', 'C0026565', ['qnco'], 0.0)||('is', '', '', '', 0.0)||('less', '', '', '', 0.0)||('than', '', '', '', 0.0)||('1 %', '', '', '', 0.0)||('to', '', '', '', 0.0)||('2 %', '', '', '', 0.0)||(';', '', '', '', 0.0)||
('therefore', '', '', '', 0.0)||(',', '', '', '', 0.0)||('risk - factor', '', '', '', 0.0)||('reduction', 'noun', 'C0301630', ['npop'], 0.0)||('without', '', '', '', 0.0)||('further', 'adj', 'C1517331', ['spco'], 0.0)||('investigation', 'noun', 'C1261322', ['hlca'], 0.0)||('is', '', '', '', 0.0)||('appropriate', 'adj', 'C1548787', ['qlco'], 0.0)||('.', '', '', '', 0.0)||
