('cardiovascular disease', 'noun', 'C0007222', ['dsyn'], 0.0)||('is', '', '', '', 0.0)||('the', '', '', '', 0.0)||('leading', 'adj', 'C0332152', ['tmco'], 0.0)||('cause', 'noun', 'C1524003', ['cnce'], 0.0)||('of', '', '', '', 0.0)||('death', 'noun', 'C0011065', ['orgf'], 0.0)||('among', '', '', '', 0.0)||('women', 'noun', 'C0043210', ['popg'], 0.0)||('and', '', '', '', 0.0)||('accounts', '', '', '', 0.0)||('for', '', '', '', 0.0)||('more', '', '', '', 0.0)||('than', '', '', '', 0.0)||('half', '', '', '', 0.0)||('of', '', '', '', 0.0)||('their', '', '', '', 0.0)||('deaths', 'noun', 'C1306577', ['fndg'], 0.0)||('.', '', '', '', 0.0)||
('women', 'noun', 'C0043210', ['popg'], 0.0)||('have', '', '', '', 0.0)||('been', '', '', '', 0.0)||('underrepresented', '', '', '', 0.0)||('in', '', '', '', 0.0)||('most', '', '', '', 0.0)||('studies', '', '', '', 0.0)||('of', '', '', '', 0.0)||('cardiovascular disease', 'noun', 'C0007222', ['dsyn'], 0.0)||('.', '', '', '', 0.0)||
('reduced', 'adj', 'C0392756', ['qlco'], 0.0)||('physical fitness', 'noun', 'C0031812', ['idcn'], 0.0)||('has', '', '', '', 0.0)||('been', '', '', '', 0.0)||('shown', '', '', '', 0.0)||('to', '', '', '', 0.0)||('increase', 'verb', 'C0442805', ['ftcn'], 0.0)||('the', '', '', '', 0.0)||('risk', 'noun', 'C0035647', ['qlco'], 0.0)||('of', '', '', '', 0.0)||('death', 'noun', 'C0011065', ['orgf'], 0.0)||('in', '', '', '', 0.0)||('men', 'noun', 'C0025266', ['popg'], 0.0)||('.', '', '', '', 0.0)||
('exercise', 'noun', 'C0015259', ['dora'], 0.0)||('capacity', 'noun', 'C1516240', ['qnco'], 0.0)||('measured', 'verb', 'C0444706', ['qlco'], 0.0)||('by', '', '', '', 0.0)||('exercise stress test', 'noun', 'C0015260', ['diap'], 0.0)||('is', '', '', '', 0.0)||('an', '', '', '', 0.0)||('objective', 'adj', 'C0018017', ['inpr'], 0.0)||('measure', 'noun', 'C0079809', ['qnco'], 0.0)||('of', '', '', '', 0.0)||('physical fitness', 'noun', 'C0031812', ['idcn'], 0.0)||('.', '', '', '', 0.0)||
('the', '', '', '', 0.0)||('hypothesis', 'noun', 'C1512571', ['idcn'], 0.0)||('that', '', '', '', 0.0)||('reduced', 'adj', 'C0392756', ['qlco'], 0.0)||('exercise', 'noun', 'C0015259', ['dora'], 0.0)||('capacity', 'noun', 'C1516240', ['qnco'], 0.0)||('is', '', '', '', 0.0)||('associated', 'verb', 'C0332281', ['qlco'], 0.0)||('with', '', '', '', 0.0)||('an', '', '', '', 0.0)||('increased risk', '', '', '', 0.0)||('of', '', '', '', 0.0)||('death', 'noun', 'C0011065', ['orgf'], 0.0)||('was', '', '', '', 0.0)||('investigated', '', '', '', 0.0)||('in', '', '', '', 0.0)||('a', '', '', '', 0.0)||('cohort', 'noun', 'C0599755', ['popg'], 0.0)||('of', '', '', '', 0.0)||('5721', '', '', '', 0.0)||('asymptomatic', 'adj', 'C0231221', ['fndg'], 0.0)||('women', 'noun', 'C0043210', ['popg'], 0.0)||('who', '', '', '', 0.0)||('underwent', '', '', '', 0.0)||('baseline', 'noun', 'C0168634', ['bodm'], 0.0)||('examinations', '', '', '', 0.0)||('in', '', '', '', 0.0)||('1992', '', '', '', 0.0)||('.', '', '', '', 0.0)||
('information', 'noun', 'C1533716', ['idcn'], 0.0)||('collected', 'verb', 'C1516695', ['idcn'], 0.0)||('at', '', '', '', 0.0)||('baseline', 'noun', 'C0168634', ['bodm'], 0.0)||('included', '', '', '', 0.0)||('medical', 'adj', 'C0205476', ['ftcn'], 0.0)||('and', '', '', '', 0.0)||('family history', 'noun', 'C0241889', ['fndg'], 0.0)||(',', '', '', '', 0.0)||('demographic', '', '', '', 0.0)||('characteristics', 'noun', 'C1521970', ['qlco'], 0.0)||(',', '', '', '', 0.0)||('physical examination', 'noun', 'C0031809', ['hlca'], 0.0)||(',', '', '', '', 0.0)||('and', '', '', '', 0.0)||('symptom - limited', '', '', '', 0.0)||('stress', 'noun', 'C0038435', ['fndg'], 0.0)||('ecg', 'noun', 'C0018064', ['aapp', 'horm', 'phsu'], 0.0)||(',', '', '', '', 0.0)||('using', 'verb', 'C1524063', ['ftcn'], 0.0)||('the', '', '', '', 0.0)||('bruce', 'noun', 'C0006309', ['dsyn'], 0.0)||('protocol', 'noun', 'C0442711', ['inpr'], 0.0)||('.', '', '', '', 0.0)||
('exercise', 'noun', 'C0015259', ['dora'], 0.0)||('capacity', 'noun', 'C1516240', ['qnco'], 0.0)||('was', '', '', '', 0.0)||('measured', 'verb', 'C0444706', ['qlco'], 0.0)||('in', '', '', '', 0.0)||('metabolic equivalents', 'noun', 'C2355577', ['diap'], 0.0)||('.', '', '', '', 0.0)||
('nonfasting', 'adj', 'C2585491', ['fndg'], 0.0)||('blood', 'noun', 'C0005767', ['tisu'], 0.0)||('was', '', '', '', 0.0)||('analyzed', 'verb', 'C0936012', ['resa'], 0.0)||('at', '', '', '', 0.0)||('baseline', 'noun', 'C0168634', ['bodm'], 0.0)||('.', '', '', '', 0.0)||
('a', '', '', '', 0.0)||('national', '', '', '', 0.0)||('death', 'noun', 'C0011065', ['orgf'], 0.0)||('index', 'noun', 'C0918012', ['inpr'], 0.0)||('search', 'noun', 'C1552603', ['idcn'], 0.0)||('was', '', '', '', 0.0)||('performed', 'verb', 'C0884358', ['ftcn'], 0.0)||('to', '', '', '', 0.0)||('identify', '', '', '', 0.0)||('all', '', '', '', 0.0)||('-', '', '', '', 0.0)||('cause', 'noun', 'C1524003', ['cnce'], 0.0)||('death', 'noun', 'C0011065', ['orgf'], 0.0)||('and', '', '', '', 0.0)||('date', 'noun', 'C0011008', ['tmco'], 0.0)||('of', '', '', '', 0.0)||('death', 'noun', 'C0011065', ['orgf'], 0.0)||('up to', '', '', '', 0.0)||('the', '', '', '', 0.0)||('end', 'noun', 'C0444930', ['spco'], 0.0)||('of', '', '', '', 0.0)||('2000', '', '', '', 0.0)||('.', '', '', '', 0.0)||
('the', '', '', '', 0.0)||('mean', 'noun', 'C0444504', ['qnco'], 0.0)||('age', 'noun', 'C0001779', ['orga'], 0.0)||('of', '', '', '', 0.0)||('participants', '', '', '', 0.0)||('at', '', '', '', 0.0)||('baseline', 'noun', 'C0168634', ['bodm'], 0.0)||('was', '', '', '', 0.0)||('52', '', '', '', 0.0)||('+', '', '', '', 0.0)||('/', '', '', '', 0.0)||('-', '', '', '', 0.0)||('11', '', '', '', 0.0)||('years', 'noun', 'C0439234', ['tmco'], 0.0)||('.', '', '', '', 0.0)||
('framingham risk score', '', '', '', 0.0)||('-', '', '', '', 0.0)||('adjusted', 'adj', 'C0456081', ['ftcn'], 0.0)||('hazards', 'noun', 'C0598697', ['qlco'], 0.0)||('ratios', 'noun', 'C0456603', ['qnco'], 0.0)||('(', '', '', '', 0.0)||('with', '', '', '', 0.0)||('95 %', '', '', '', 0.0)||('ci', 'noun', 'C1417638', ['gngm'], 0.0)||(')', '', '', '', 0.0)||('of', '', '', '', 0.0)||('death', 'noun', 'C0011065', ['orgf'], 0.0)||('associated', 'verb', 'C0332281', ['qlco'], 0.0)||('with', '', '', '', 0.0)||('metabolic equivalents', 'noun', 'C2355577', ['diap'], 0.0)||('levels', 'noun', 'C0441889', ['qlco'], 0.0)||('of', '', '', '', 0.0)||('<', '', '', '', 0.0)||('5', '', '', '', 0.0)||(',', '', '', '', 0.0)||('5', '', '', '', 0.0)||('to', '', '', '', 0.0)||('8', '', '', '', 0.0)||(',', '', '', '', 0.0)||('and', '', '', '', 0.0)||('>', '', '', '', 0.0)||('8', '', '', '', 0.0)||('were', '', '', '', 0.0)||('3 . 1', '', '', '', 0.0)||('(', '', '', '', 0.0)||('2 . 0', '', '', '', 0.0)||('to', '', '', '', 0.0)||('4 . 7', '', '', '', 0.0)||(')', '', '', '', 0.0)||(',', '', '', '', 0.0)||('1 . 9', '', '', '', 0.0)||('(', '', '', '', 0.0)||('1 . 3', '', '', '', 0.0)||('to', '', '', '', 0.0)||('2 . 9', '', '', '', 0.0)||(')', '', '', '', 0.0)||(',', '', '', '', 0.0)||('and', '', '', '', 0.0)||('1 . 00', '', '', '', 0.0)||(',', '', '', '', 0.0)||('respectively', '', '', '', 0.0)||('.', '', '', '', 0.0)||
('the', '', '', '', 0.0)||('framingham risk score', '', '', '', 0.0)||('-', '', '', '', 0.0)||('adjusted', 'adj', 'C0456081', ['ftcn'], 0.0)||('mortality risk', '', '', '', 0.0)||('decreased', 'verb', 'C0205216', ['qnco'], 0.0)||('by', '', '', '', 0.0)||('17 %', '', '', '', 0.0)||('for', '', '', '', 0.0)||('every', '', '', '', 0.0)||('1', '', '', '', 0.0)||('-', '', '', '', 0.0)||('metabolic equivalents', 'noun', 'C2355577', ['diap'], 0.0)||('increase', 'verb', 'C0442805', ['ftcn'], 0.0)||('.', '', '', '', 0.0)||
('this', '', '', '', 0.0)||('is', '', '', '', 0.0)||('the', '', '', '', 0.0)||('largest', 'adj', 'C0443228', ['qnco'], 0.0)||('cohort', 'noun', 'C0599755', ['popg'], 0.0)||('of', '', '', '', 0.0)||('asymptomatic', 'adj', 'C0231221', ['fndg'], 0.0)||('women', 'noun', 'C0043210', ['popg'], 0.0)||('studied', '', '', '', 0.0)||('in', '', '', '', 0.0)||('this', '', '', '', 0.0)||('context', 'noun', 'C0449255', ['fndg'], 0.0)||('over', '', '', '', 0.0)||('the', '', '', '', 0.0)||('longest', 'adj', 'C1522425', ['qlco'], 0.0)||('period', 'noun', 'C1948053', ['tmco'], 0.0)||('of', '', '', '', 0.0)||('follow - up', '', '', '', 0.0)||('.', '', '', '', 0.0)||
('this', '', '', '', 0.0)||('study', 'noun', 'C0008976', ['resa'], 0.0)||('confirms', '', '', '', 0.0)||('that', '', '', '', 0.0)||('exercise', 'noun', 'C0015259', ['dora'], 0.0)||('capacity', 'noun', 'C1516240', ['qnco'], 0.0)||('is', '', '', '', 0.0)||('an', '', '', '', 0.0)||('independent', 'adj', 'C0085862', ['idcn'], 0.0)||('predictor', 'noun', 'C2698872', ['idcn'], 0.0)||('of', '', '', '', 0.0)||('death', 'noun', 'C0011065', ['orgf'], 0.0)||('in', '', '', '', 0.0)||('asymptomatic', 'adj', 'C0231221', ['fndg'], 0.0)||('women', 'noun', 'C0043210', ['popg'], 0.0)||(',', '', '', '', 0.0)||('greater', 'adj', 'C1704243', ['qnco'], 0.0)||('than', '', '', '', 0.0)||('what', '', '', '', 0.0)||('has', '', '', '', 0.0)||('been', '', '', '', 0.0)||('previously', '', '', '', 0.0)||('established', 'verb', 'C0443211', ['qlco'], 0.0)||('among', '', '', '', 0.0)||('men', 'noun', 'C0025266', ['popg'], 0.0)||('.', '', '', '', 0.0)||
('the', '', '', '', 0.0)||('implications', '', '', '', 0.0)||('for', '', '', '', 0.0)||('clinical', 'adj', 'C0205210', ['qlco'], 0.0)||('practice', 'noun', 'C0237607', ['menp'], 0.0)||('and', '', '', '', 0.0)||('health care', 'noun', 'C0086388', ['hlca'], 0.0)||('policy', 'noun', 'C0242456', ['inpr'], 0.0)||('are', '', '', '', 0.0)||('far reaching', '', '', '', 0.0)||('.', '', '', '', 0.0)||
