('bacterial vaginosis', 'noun', 'C0085166', ['dsyn'], 0.0)||('has', '', '', '', 0.0)||('been', '', '', '', 0.0)||('associated', 'verb', 'C0332281', ['qlco'], 0.0)||('with', '', '', '', 0.0)||('preterm birth', 'noun', 'C0151526', ['patf'], 0.0)||('.', '', '', '', 0.0)||
('in', '', '', '', 0.0)||('clinical trials', 'noun', 'C0008976', ['resa'], 0.0)||(',', '', '', '', 0.0)||('the', '', '', '', 0.0)||('treatment', 'noun', 'C0039798', ['ftcn'], 0.0)||('of', '', '', '', 0.0)||('bacterial vaginosis', 'noun', 'C0085166', ['dsyn'], 0.0)||('in', '', '', '', 0.0)||('pregnant', 'adj', 'C0549206', ['fndg'], 0.0)||('women', 'noun', 'C0043210', ['popg'], 0.0)||('who', '', '', '', 0.0)||('previously', '', '', '', 0.0)||('had', '', '', '', 0.0)||('a', '', '', '', 0.0)||('preterm', '', '', '', 0.0)||('delivery', 'noun', 'C0011209', ['topp'], 0.0)||('reduced', 'verb', 'C0392756', ['qlco'], 0.0)||('the', '', '', '', 0.0)||('risk', 'noun', 'C0035647', ['qlco'], 0.0)||('of', '', '', '', 0.0)||('recurrence', 'noun', 'C0034897', ['phpr'], 0.0)||('.', '', '', '', 0.0)||
('to', '', '', '', 0.0)||('determine', '', '', '', 0.0)||('whether', '', '', '', 0.0)||('treating', 'adj', 'C1522326', ['ftcn'], 0.0)||('women', 'noun', 'C0043210', ['popg'], 0.0)||('in', '', '', '', 0.0)||('a', '', '', '', 0.0)||('general', 'adj', 'C0205246', ['spco'], 0.0)||('obstetrical', 'adj', 'C0028773', ['bmod'], 0.0)||('population', 'noun', 'C0032659', ['qnco'], 0.0)||('who', '', '', '', 0.0)||('have', '', '', '', 0.0)||('asymptomatic', 'adj', 'C0231221', ['fndg'], 0.0)||('bacterial vaginosis', 'noun', 'C0085166', ['dsyn'], 0.0)||('(', '', '', '', 0.0)||('as', '', '', '', 0.0)||('diagnosed', 'verb', 'C0011900', ['fndg'], 0.0)||('on', '', '', '', 0.0)||('the', '', '', '', 0.0)||('basis', 'noun', 'C1527178', ['ftcn'], 0.0)||('of', '', '', '', 0.0)||('vaginal', 'adj', 'C0042232', ['bpoc'], 0.0)||('gram', '', '', '', 0.0)||("' s", '', '', '', 0.0)||('staining', 'noun', 'C0487602', ['lbpr'], 0.0)||('and', '', '', '', 0.0)||('ph )', '', '', '', 0.0)||('prevents', 'verb', 'C1292733', ['ftcn'], 0.0)||('preterm', '', '', '', 0.0)||('delivery', 'noun', 'C0011209', ['topp'], 0.0)||(',', '', '', '', 0.0)||('we', '', '', '', 0.0)||('randomly', '', '', '', 0.0)||('assigned', 'verb', 'C1516050', ['ftcn'], 0.0)||('1953', '', '', '', 0.0)||('women', 'noun', 'C0043210', ['popg'], 0.0)||('who', '', '', '', 0.0)||('were', '', '', '', 0.0)||('16', '', '', '', 0.0)||('to', '', '', '', 0.0)||('less', '', '', '', 0.0)||('than', '', '', '', 0.0)||('24', '', '', '', 0.0)||('weeks', 'noun', 'C0439230', ['tmco'], 0.0)||('pregnant', 'adj', 'C0549206', ['fndg'], 0.0)||('to', '', '', '', 0.0)||('receive', 'verb', 'C1514756', ['qlco'], 0.0)||('two', 'noun', 'C0205448', ['qnco'], 0.0)||('2', '', '', '', 0.0)||('-', '', '', '', 0.0)||('g', '', '', '', 0.0)||('doses', 'noun', 'C0178602', ['qnco'], 0.0)||('of', '', '', '', 0.0)||('metronidazole', 'noun', 'C0025872', ['orch', 'phsu'], 0.0)||('or', '', '', '', 0.0)||('placebo', 'noun', 'C0032042', ['topp'], 0.0)||('.', '', '', '', 0.0)||
('the', '', '', '', 0.0)||('diagnostic', 'adj', 'C0011900', ['fndg'], 0.0)||('studies', '', '', '', 0.0)||('were', '', '', '', 0.0)||('repeated', 'verb', 'C0205341', ['ftcn'], 0.0)||('and', '', '', '', 0.0)||('a', '', '', '', 0.0)||('second', 'adj', 'C0205436', ['qnco'], 0.0)||('treatment', 'noun', 'C0039798', ['ftcn'], 0.0)||('was', '', '', '', 0.0)||('administered', 'verb', 'C1521801', ['ftcn'], 0.0)||('to', '', '', '', 0.0)||('all', '', '', '', 0.0)||('the', '', '', '', 0.0)||('women', 'noun', 'C0043210', ['popg'], 0.0)||('at', '', '', '', 0.0)||('24', '', '', '', 0.0)||('to', '', '', '', 0.0)||('less', '', '', '', 0.0)||('than', '', '', '', 0.0)||('30', '', '', '', 0.0)||('weeks', 'noun', 'C0439230', ['tmco'], 0.0)||("'", '', '', '', 0.0)||('gestation', 'noun', 'C0032961', ['orgf'], 0.0)||('.', '', '', '', 0.0)||
('the', '', '', '', 0.0)||('primary', 'adj', 'C0205225', ['qlco'], 0.0)||('outcome', 'noun', 'C1274040', ['ftcn'], 0.0)||('was', '', '', '', 0.0)||('the', '', '', '', 0.0)||('rate', 'noun', 'C0871208', ['acty'], 0.0)||('of', '', '', '', 0.0)||('delivery', 'noun', 'C0011209', ['topp'], 0.0)||('before', '', '', '', 0.0)||('37', '', '', '', 0.0)||('weeks', 'noun', 'C0439230', ['tmco'], 0.0)||("'", '', '', '', 0.0)||('gestation', 'noun', 'C0032961', ['orgf'], 0.0)||('.', '', '', '', 0.0)||
('bacterial vaginosis', 'noun', 'C0085166', ['dsyn'], 0.0)||('resolved', 'verb', 'C1514893', ['idcn'], 0.0)||('in', '', '', '', 0.0)||('657', '', '', '', 0.0)||('of', '', '', '', 0.0)||('845', '', '', '', 0.0)||('women', 'noun', 'C0043210', ['popg'], 0.0)||('who', '', '', '', 0.0)||('had', '', '', '', 0.0)||('follow - up', '', '', '', 0.0)||('gram', '', '', '', 0.0)||("' s", '', '', '', 0.0)||('staining', 'verb', 'C0487602', ['lbpr'], 0.0)||('in', '', '', '', 0.0)||('the', '', '', '', 0.0)||('metronidazole', 'noun', 'C0025872', ['orch', 'phsu'], 0.0)||('group', 'noun', 'C0441833', ['idcn'], 0.0)||('(', '', '', '', 0.0)||('77 . 8', '', '', '', 0.0)||('percent', 'noun', 'C0439165', ['qnco'], 0.0)||(')', '', '', '', 0.0)||('and', '', '', '', 0.0)||('321', '', '', '', 0.0)||('of', '', '', '', 0.0)||('859', '', '', '', 0.0)||('women', 'noun', 'C0043210', ['popg'], 0.0)||('in', '', '', '', 0.0)||('the', '', '', '', 0.0)||('placebo', 'noun', 'C0032042', ['topp'], 0.0)||('group', 'noun', 'C0441833', ['idcn'], 0.0)||('(', '', '', '', 0.0)||('37 . 4', '', '', '', 0.0)||('percent', 'noun', 'C0439165', ['qnco'], 0.0)||(')', '', '', '', 0.0)||('.', '', '', '', 0.0)||
('data', 'noun', 'C1511726', ['idcn'], 0.0)||('on', '', '', '', 0.0)||('the', '', '', '', 0.0)||('time', 'noun', 'C0040223', ['tmco'], 0.0)||('and', '', '', '', 0.0)||('characteristics', 'noun', 'C1521970', ['qlco'], 0.0)||('of', '', '', '', 0.0)||('delivery', 'noun', 'C0011209', ['topp'], 0.0)||('were', '', '', '', 0.0)||('available', 'adj', 'C0470187', ['ftcn'], 0.0)||('for', '', '', '', 0.0)||('953', '', '', '', 0.0)||('women', 'noun', 'C0043210', ['popg'], 0.0)||('in', '', '', '', 0.0)||('the', '', '', '', 0.0)||('metronidazole', 'noun', 'C0025872', ['orch', 'phsu'], 0.0)||('group', 'noun', 'C0441833', ['idcn'], 0.0)||('and', '', '', '', 0.0)||('966', '', '', '', 0.0)||('in', '', '', '', 0.0)||('the', '', '', '', 0.0)||('placebo', 'noun', 'C0032042', ['topp'], 0.0)||('group', 'noun', 'C0441833', ['idcn'], 0.0)||('.', '', '', '', 0.0)||
('preterm', '', '', '', 0.0)||('delivery', 'noun', 'C0011209', ['topp'], 0.0)||('occurred', 'verb', 'C1709305', ['cnce'], 0.0)||('in', '', '', '', 0.0)||('116', '', '', '', 0.0)||('women', 'noun', 'C0043210', ['popg'], 0.0)||('in', '', '', '', 0.0)||('the', '', '', '', 0.0)||('metronidazole', 'noun', 'C0025872', ['orch', 'phsu'], 0.0)||('group', 'noun', 'C0441833', ['idcn'], 0.0)||('(', '', '', '', 0.0)||('12 . 2', '', '', '', 0.0)||('percent', 'noun', 'C0439165', ['qnco'], 0.0)||(')', '', '', '', 0.0)||('and', '', '', '', 0.0)||('121', '', '', '', 0.0)||('women', 'noun', 'C0043210', ['popg'], 0.0)||('in', '', '', '', 0.0)||('the', '', '', '', 0.0)||('placebo', 'noun', 'C0032042', ['topp'], 0.0)||('group', 'noun', 'C0441833', ['idcn'], 0.0)||('(', '', '', '', 0.0)||('12 . 5', '', '', '', 0.0)||('percent', 'noun', 'C0439165', ['qnco'], 0.0)||(')', '', '', '', 0.0)||('(', '', '', '', 0.0)||('relative risk', 'noun', 'C0242492', ['qnco'], 0.0)||(',', '', '', '', 0.0)||('1 . 0', '', '', '', 0.0)||(';', '', '', '', 0.0)||('95', '', '', '', 0.0)||('percent', 'noun', 'C0439165', ['qnco'], 0.0)||('confidence interval', 'noun', 'C0009667', ['qnco'], 0.0)||(',', '', '', '', 0.0)||('0 . 8', '', '', '', 0.0)||('to', '', '', '', 0.0)||('1 . 2', '', '', '', 0.0)||(')', '', '', '', 0.0)||('.', '', '', '', 0.0)||
('treatment', 'noun', 'C0039798', ['ftcn'], 0.0)||('did', '', '', '', 0.0)||('not', 'adv', 'C1518422', ['ftcn'], 0.0)||('prevent', 'verb', 'C0309872', ['phsu'], 0.0)||('preterm', '', '', '', 0.0)||('deliveries', '', '', '', 0.0)||('that', '', '', '', 0.0)||('resulted', '', '', '', 0.0)||('from', '', '', '', 0.0)||('spontaneous labor', 'noun', 'C0474461', ['orgf'], 0.0)||('(', '', '', '', 0.0)||('5 . 1', '', '', '', 0.0)||('percent', 'noun', 'C0439165', ['qnco'], 0.0)||('in', '', '', '', 0.0)||('the', '', '', '', 0.0)||('metronidazole', 'noun', 'C0025872', ['orch', 'phsu'], 0.0)||('group', 'noun', 'C0441833', ['idcn'], 0.0)||('vs', '', '', '', 0.0)||('.', '', '', '', 0.0)||('5 . 7', '', '', '', 0.0)||('percent', 'noun', 'C0439165', ['qnco'], 0.0)||('in', '', '', '', 0.0)||('the', '', '', '', 0.0)||('placebo', 'noun', 'C0032042', ['topp'], 0.0)||('group', 'noun', 'C0441833', ['idcn'], 0.0)||(')', '', '', '', 0.0)||('or', '', '', '', 0.0)||('spontaneous rupture', '', '', '', 0.0)||('of', '', '', '', 0.0)||('the', '', '', '', 0.0)||('membranes', 'noun', 'C0025255', ['tisu'], 0.0)||('(', '', '', '', 0.0)||('4 . 2', '', '', '', 0.0)||('percent', 'noun', 'C0439165', ['qnco'], 0.0)||('vs', '', '', '', 0.0)||('.', '', '', '', 0.0)||('3 . 7', '', '', '', 0.0)||('percent', 'noun', 'C0439165', ['qnco'], 0.0)||(')', '', '', '', 0.0)||(',', '', '', '', 0.0)||('nor', '', '', '', 0.0)||('did', '', '', '', 0.0)||('it', '', '', '', 0.0)||('prevent', 'verb', 'C0309872', ['phsu'], 0.0)||('delivery', 'noun', 'C0011209', ['topp'], 0.0)||('before', '', '', '', 0.0)||('32', '', '', '', 0.0)||('weeks', 'noun', 'C0439230', ['tmco'], 0.0)||('(', '', '', '', 0.0)||('2 . 3', '', '', '', 0.0)||('percent', 'noun', 'C0439165', ['qnco'], 0.0)||('vs', '', '', '', 0.0)||('.', '', '', '', 0.0)||('2 . 7', '', '', '', 0.0)||('percent', 'noun', 'C0439165', ['qnco'], 0.0)||(')', '', '', '', 0.0)||('.', '', '', '', 0.0)||
('treatment', 'noun', 'C0039798', ['ftcn'], 0.0)||('with', '', '', '', 0.0)||('metronidazole', 'noun', 'C0025872', ['orch', 'phsu'], 0.0)||('did', '', '', '', 0.0)||('not', 'adv', 'C1518422', ['ftcn'], 0.0)||('reduce', '', '', '', 0.0)||('the', '', '', '', 0.0)||('occurrence', 'noun', 'C0243132', ['qnco'], 0.0)||('of', '', '', '', 0.0)||('preterm', '', '', '', 0.0)||('labor', 'noun', 'C0022864', ['orgf'], 0.0)||(',', '', '', '', 0.0)||('intraamniotic', 'adj', 'C1298997', ['spco'], 0.0)||('or', '', '', '', 0.0)||('postpartum', 'noun', 'C0086839', ['tmco'], 0.0)||('infections', 'noun', 'C0021311', ['dsyn'], 0.0)||(',', '', '', '', 0.0)||('neonatal', 'adj', 'C0021289', ['aggp'], 0.0)||('sepsis', 'noun', 'C0036690', ['dsyn'], 0.0)||(',', '', '', '', 0.0)||('or', '', '', '', 0.0)||('admission', 'noun', 'C0809949', ['hlca'], 0.0)||('of', '', '', '', 0.0)||('the', '', '', '', 0.0)||('infant', 'noun', 'C0021270', ['aggp'], 0.0)||('to', '', '', '', 0.0)||('the', '', '', '', 0.0)||('neonatal intensive care unit', 'noun', 'C0021709', ['hcro', 'mnob'], 0.0)||('.', '', '', '', 0.0)||
('the', '', '', '', 0.0)||('treatment', 'noun', 'C0039798', ['ftcn'], 0.0)||('of', '', '', '', 0.0)||('asymptomatic', 'adj', 'C0231221', ['fndg'], 0.0)||('bacterial vaginosis', 'noun', 'C0085166', ['dsyn'], 0.0)||('in', '', '', '', 0.0)||('pregnant', 'adj', 'C0549206', ['fndg'], 0.0)||('women', 'noun', 'C0043210', ['popg'], 0.0)||('does', '', '', '', 0.0)||('not', 'adv', 'C1518422', ['ftcn'], 0.0)||('reduce', '', '', '', 0.0)||('the', '', '', '', 0.0)||('occurrence', 'noun', 'C0243132', ['qnco'], 0.0)||('of', '', '', '', 0.0)||('preterm', '', '', '', 0.0)||('delivery', 'noun', 'C0011209', ['topp'], 0.0)||('or', '', '', '', 0.0)||('other', '', '', '', 0.0)||('adverse', '', '', '', 0.0)||('perinatal', 'adj', 'C0178795', ['tmco'], 0.0)||('outcomes', 'noun', 'C0085415', ['qlco'], 0.0)||('.', '', '', '', 0.0)||
