('in', '', '', '', 0.0)||('2003', '', '', '', 0.0)||(',', '', '', '', 0.0)||('a', '', '', '', 0.0)||('rct', '', '', '', 0.0)||('evaluating', 'verb', 'C0220825', ['ftcn'], 0.0)||('the', '', '', '', 0.0)||('early', 'adj', 'C1279919', ['tmco'], 0.0)||('treatment', 'noun', 'C0039798', ['ftcn'], 0.0)||('of', '', '', '', 0.0)||('asymptomatic', 'adj', 'C0231221', ['fndg'], 0.0)||('bv', 'noun', 'C1511278', ['geoa'], 0.0)||('in', '', '', '', 0.0)||('low', 'adj', 'C0205251', ['qlco'], 0.0)||('-', '', '', '', 0.0)||('and', '', '', '', 0.0)||('high - risk', '', '', '', 0.0)||('patients', 'noun', 'C0030705', ['podg'], 0.0)||('showed', '', '', '', 0.0)||('a', '', '', '', 0.0)||('decrease', 'noun', 'C0392756', ['qlco'], 0.0)||('in', '', '', '', 0.0)||('preterm', '', '', '', 0.0)||('labor', 'noun', 'C0022864', ['orgf'], 0.0)||('.', '', '', '', 0.0)||
('the', '', '', '', 0.0)||('rct', '', '', '', 0.0)||('included', '', '', '', 0.0)||('494', '', '', '', 0.0)||('asymptomatic', 'adj', 'C0231221', ['fndg'], 0.0)||('pregnant', 'adj', 'C0549206', ['fndg'], 0.0)||('women', 'noun', 'C0043210', ['popg'], 0.0)||('who', '', '', '', 0.0)||('presented', 'verb', 'C0449450', ['idcn'], 0.0)||('for', '', '', '', 0.0)||('prenatal care', 'noun', 'C0033052', ['hlca'], 0.0)||('between', '', '', '', 0.0)||('12', '', '', '', 0.0)||('and', '', '', '', 0.0)||('22', '', '', '', 0.0)||('weeks', 'noun', 'C0439230', ['tmco'], 0.0)||('gestation', 'noun', 'C0032961', ['orgf'], 0.0)||('.', '', '', '', 0.0)||
('if', '', '', '', 0.0)||('women', 'noun', 'C0043210', ['popg'], 0.0)||('had', '', '', '', 0.0)||('bv', 'noun', 'C1511278', ['geoa'], 0.0)||('detected', 'verb', 'C0442726', ['fndg'], 0.0)||('by', '', '', '', 0.0)||('gram stain', 'noun', 'C0200966', ['lbpr'], 0.0)||('using', 'verb', 'C1524063', ['ftcn'], 0.0)||('nugent', '', '', '', 0.0)||("' s", '', '', '', 0.0)||('criteria', 'noun', 'C0243161', ['inpr'], 0.0)||(',', '', '', '', 0.0)||('they', '', '', '', 0.0)||('were', '', '', '', 0.0)||('randomized', 'verb', 'C0034656', ['resa'], 0.0)||('to', '', '', '', 0.0)||('receive', 'verb', 'C1514756', ['qlco'], 0.0)||('either', '', '', '', 0.0)||('300', '', '', '', 0.0)||('mg', '', '', '', 0.0)||('oral', 'adj', 'C0442027', ['spco'], 0.0)||('clindamycin', 'noun', 'C0008947', ['antb', 'carb'], 0.0)||('twice daily', 'adv', 'C0585361', ['tmco'], 0.0)||('for', '', '', '', 0.0)||('5', '', '', '', 0.0)||('days', 'noun', 'C0439228', ['tmco'], 0.0)||('or', '', '', '', 0.0)||('placebo', 'noun', 'C0032042', ['topp'], 0.0)||('.', '', '', '', 0.0)||
('in', '', '', '', 0.0)||('the', '', '', '', 0.0)||('general', 'adj', 'C0205246', ['spco'], 0.0)||('population', 'noun', 'C0032659', ['qnco'], 0.0)||(',', '', '', '', 0.0)||('treatment', 'noun', 'C0039798', ['ftcn'], 0.0)||('with', '', '', '', 0.0)||('clindamycin', 'noun', 'C0008947', ['antb', 'carb'], 0.0)||('reduced', 'verb', 'C0392756', ['qlco'], 0.0)||('the', '', '', '', 0.0)||('rate', 'noun', 'C0871208', ['acty'], 0.0)||('of', '', '', '', 0.0)||('late', 'adj', 'C0205087', ['tmco'], 0.0)||('miscarriage', 'noun', 'C0000786', ['dsyn'], 0.0)||('and', '', '', '', 0.0)||('spontaneous', 'adj', 'C0205359', ['ftcn'], 0.0)||('preterm', '', '', '', 0.0)||('delivery', 'noun', 'C0011209', ['topp'], 0.0)||('by', '', '', '', 0.0)||('10 . 4 %', '', '', '', 0.0)||('(', '', '', '', 0.0)||('95 %', '', '', '', 0.0)||('ci', 'noun', 'C1417638', ['gngm'], 0.0)||(',', '', '', '', 0.0)||('5 . 0', '', '', '', 0.0)||('-', '', '', '', 0.0)||('15 . 8', '', '', '', 0.0)||(')', '', '', '', 0.0)||('.', '', '', '', 0.0)||
('in', '', '', '', 0.0)||('women', 'noun', 'C0043210', ['popg'], 0.0)||('with', '', '', '', 0.0)||('a', '', '', '', 0.0)||('previous', 'adj', 'C0205156', ['tmco'], 0.0)||('preterm', '', '', '', 0.0)||('delivery', 'noun', 'C0011209', ['topp'], 0.0)||('or', '', '', '', 0.0)||('a', '', '', '', 0.0)||('late', 'adv', 'C0205087', ['tmco'], 0.0)||('miscarriage', 'verb', 'C0000786', ['dsyn'], 0.0)||('the', '', '', '', 0.0)||('proportion', 'noun', 'C1709707', ['qnco'], 0.0)||('of', '', '', '', 0.0)||('preterm', '', '', '', 0.0)||('delivery', 'noun', 'C0011209', ['topp'], 0.0)||('or', '', '', '', 0.0)||('late', 'adj', 'C0205087', ['tmco'], 0.0)||('miscarriage', 'noun', 'C0000786', ['dsyn'], 0.0)||('was', '', '', '', 0.0)||('reduced', 'verb', 'C0392756', ['qlco'], 0.0)||('(', '', '', '', 0.0)||('16 . 6 %', '', '', '', 0.0)||('vs', '', '', '', 0.0)||('42 %', '', '', '', 0.0)||(')', '', '', '', 0.0)||('.', '', '', '', 0.0)||
