('isoniazid', 'noun', 'C0022209', ['orch', 'phsu'], 0.0)||('preventive', 'adj', 'C1456501', ['qlco'], 0.0)||('therapy', 'noun', 'C0039798', ['ftcn'], 0.0)||('for', '', '', '', 0.0)||('latent tuberculosis infection', 'noun', 'C1609538', ['dsyn'], 0.0)||('has', '', '', '', 0.0)||('been', '', '', '', 0.0)||('debated', '', '', '', 0.0)||('because of', '', '', '', 0.0)||('the', '', '', '', 0.0)||('risk', 'noun', 'C0035647', ['qlco'], 0.0)||('of', '', '', '', 0.0)||('hepatotoxicity', 'noun', 'C0235378', ['inpo'], 0.0)||('.', '', '', '', 0.0)||
('the', '', '', '', 0.0)||('frequency', 'noun', 'C0376249', ['qnco'], 0.0)||('of', '', '', '', 0.0)||('hepatotoxicity', 'noun', 'C0235378', ['inpo'], 0.0)||('was', '', '', '', 0.0)||('0 . 5 %', '', '', '', 0.0)||('to', '', '', '', 0.0)||('2 . 0 %', '', '', '', 0.0)||('in', '', '', '', 0.0)||('early', 'adj', 'C1279919', ['tmco'], 0.0)||('studies', '', '', '', 0.0)||('but', '', '', '', 0.0)||('may', '', '', '', 0.0)||('have', '', '', '', 0.0)||('changed', 'verb', 'C0392747', ['ftcn'], 0.0)||('with', '', '', '', 0.0)||('new', 'adj', 'C0205314', ['tmco'], 0.0)||('criteria', 'noun', 'C0243161', ['inpr'], 0.0)||('for', '', '', '', 0.0)||('diagnosis', 'noun', 'C0011900', ['fndg'], 0.0)||('and', '', '', '', 0.0)||('patient', '', '', '', 0.0)||('selection', 'noun', 'C0036576', ['genf'], 0.0)||('.', '', '', '', 0.0)||
('to', '', '', '', 0.0)||('determine', '', '', '', 0.0)||('the', '', '', '', 0.0)||('rate', 'noun', 'C0871208', ['acty'], 0.0)||('of', '', '', '', 0.0)||('isoniazid', 'noun', 'C0022209', ['orch', 'phsu'], 0.0)||('hepatotoxicity', 'noun', 'C0235378', ['inpo'], 0.0)||('in', '', '', '', 0.0)||('patients', 'noun', 'C0030705', ['podg'], 0.0)||('managed', 'verb', 'C1273870', ['ocac'], 0.0)||('according to', '', '', '', 0.0)||('current', 'adj', 'C0521116', ['tmco'], 0.0)||('guidelines', 'noun', 'C0162791', ['inpr'], 0.0)||('and', '', '', '', 0.0)||('practice', 'noun', 'C0237607', ['menp'], 0.0)||('standards', 'noun', 'C0038137', ['inpr'], 0.0)||('.', '', '', '', 0.0)||
('prospective cohort study', 'noun', 'C1709709', ['resa'], 0.0)||('.', '', '', '', 0.0)||
('a', '', '', '', 0.0)||('public health', 'noun', 'C0034019', ['bmod'], 0.0)||('clinic', 'noun', 'C0002424', ['hcro', 'mnob'], 0.0)||('operated', '', '', '', 0.0)||('by', '', '', '', 0.0)||('the', '', '', '', 0.0)||('tuberculosis control program', '', '', '', 0.0)||('of', '', '', '', 0.0)||('a', '', '', '', 0.0)||('city', 'noun', 'C0008848', ['geoa'], 0.0)||('-', '', '', '', 0.0)||('county', 'noun', 'C0079170', ['geoa'], 0.0)||('public health', 'noun', 'C0034019', ['bmod'], 0.0)||('agency', 'noun', 'C0237463', ['orgt'], 0.0)||('.', '', '', '', 0.0)||
('a', '', '', '', 0.0)||('total', 'noun', 'C0439810', ['qlco'], 0.0)||('of', '', '', '', 0.0)||('11141', '', '', '', 0.0)||('consecutive', 'adj', 'C1707491', ['qlco'], 0.0)||('patients', 'noun', 'C0030705', ['podg'], 0.0)||('who', '', '', '', 0.0)||('started', 'verb', 'C1272689', ['qlco'], 0.0)||('a', '', '', '', 0.0)||('regimen', 'noun', 'C0040808', ['topp'], 0.0)||('of', '', '', '', 0.0)||('isoniazid', 'noun', 'C0022209', ['orch', 'phsu'], 0.0)||('preventive', 'adj', 'C1456501', ['qlco'], 0.0)||('therapy', 'noun', 'C0039798', ['ftcn'], 0.0)||('for', '', '', '', 0.0)||('latent tuberculosis infection', 'noun', 'C1609538', ['dsyn'], 0.0)||('from', '', '', '', 0.0)||('january', '', '', '', 0.0)||('1989', '', '', '', 0.0)||('through', '', '', '', 0.0)||('december', '', '', '', 0.0)||('1995', '', '', '', 0.0)||('.', '', '', '', 0.0)||
('the', '', '', '', 0.0)||('rate', 'noun', 'C0871208', ['acty'], 0.0)||('of', '', '', '', 0.0)||('developing', 'adj', 'C1999145', ['acty'], 0.0)||('symptoms', 'noun', 'C0683368', ['ftcn'], 0.0)||('and', '', '', '', 0.0)||('signs', 'noun', 'C0220912', ['ftcn'], 0.0)||('of', '', '', '', 0.0)||('hepatotoxicity', 'noun', 'C0235378', ['inpo'], 0.0)||('among', '', '', '', 0.0)||('all', '', '', '', 0.0)||('persons', 'noun', 'C0027361', ['popg'], 0.0)||('starting', '', '', '', 0.0)||('isoniazid', 'noun', 'C0022209', ['orch', 'phsu'], 0.0)||('preventive', 'adj', 'C1456501', ['qlco'], 0.0)||('therapy', 'noun', 'C0039798', ['ftcn'], 0.0)||(',', '', '', '', 0.0)||('among', '', '', '', 0.0)||('all', '', '', '', 0.0)||('those', '', '', '', 0.0)||('completing', 'adj', 'C0205197', ['qlco'], 0.0)||('therapy', 'noun', 'C0039798', ['ftcn'], 0.0)||(',', '', '', '', 0.0)||('and', '', '', '', 0.0)||('by', '', '', '', 0.0)||('age', 'noun', 'C0001779', ['orga'], 0.0)||(',', '', '', '', 0.0)||('sex', 'noun', 'C0036864', ['bhvr'], 0.0)||(',', '', '', '', 0.0)||('and', '', '', '', 0.0)||('race', 'noun', 'C0034510', ['popg'], 0.0)||('.', '', '', '', 0.0)||
('eleven', '', 'C0205457', ['inpr', 'qnco'], 0.0)||('patients', 'noun', 'C0030705', ['podg'], 0.0)||('(', '', '', '', 0.0)||('0 . 10 %', '', '', '', 0.0)||('of', '', '', '', 0.0)||('those', '', '', '', 0.0)||('starting', '', '', '', 0.0)||(',', '', '', '', 0.0)||('and', '', '', '', 0.0)||('0 . 15 %', '', '', '', 0.0)||('of', '', '', '', 0.0)||('those', '', '', '', 0.0)||('completing', 'adj', 'C0205197', ['qlco'], 0.0)||('treatment', 'noun', 'C0039798', ['ftcn'], 0.0)||(')', '', '', '', 0.0)||('had', '', '', '', 0.0)||('hepatotoxic', '', '', '', 0.0)||('reactions', '', '', '', 0.0)||('to', '', '', '', 0.0)||('isoniazid', 'noun', 'C0022209', ['orch', 'phsu'], 0.0)||('during', '', '', '', 0.0)||('preventive treatment', 'noun', 'C0199176', ['topp'], 0.0)||('.', '', '', '', 0.0)||
('the', '', '', '', 0.0)||('rate', 'noun', 'C0871208', ['acty'], 0.0)||('of', '', '', '', 0.0)||('hepatotoxicity', 'noun', 'C0235378', ['inpo'], 0.0)||('in', '', '', '', 0.0)||('persons', 'noun', 'C0027361', ['popg'], 0.0)||('receiving', '', '', '', 0.0)||('preventive', 'adj', 'C1456501', ['qlco'], 0.0)||('therapy', 'noun', 'C0039798', ['ftcn'], 0.0)||('increased', 'verb', 'C0205217', ['qnco'], 0.0)||('with', '', '', '', 0.0)||('increasing', 'adj', 'C0442808', ['ftcn'], 0.0)||('age', 'noun', 'C0001779', ['orga'], 0.0)||('(', '', '', '', 0.0)||('chi2', '', '', '', 0.0)||('for', '', '', '', 0.0)||('linear', 'adj', 'C0205132', ['spco'], 0.0)||('trend', 'noun', 'C1521798', ['tmco'], 0.0)||('=', '', '', '', 0.0)||('5 . 22', '', '', '', 0.0)||(',', '', '', '', 0.0)||('p', '', '', '', 0.0)||('=', '', '', '', 0.0)||('.', '', '', '', 0.0)||('02', '', '', '', 0.0)||(')', '', '', '', 0.0)||('and', '', '', '', 0.0)||('there', '', '', '', 0.0)||('were', '', '', '', 0.0)||('trends', 'verb', 'C0040833', ['tmco'], 0.0)||('toward', '', '', '', 0.0)||('increased', 'adj', 'C0205217', ['qnco'], 0.0)||('rates', '', '', '', 0.0)||('in', '', '', '', 0.0)||('women', 'noun', 'C0043210', ['popg'], 0.0)||('(', '', '', '', 0.0)||('odds ratio', 'noun', 'C0028873', ['qnco'], 0.0)||(',', '', '', '', 0.0)||('3 . 30', '', '', '', 0.0)||(';', '', '', '', 0.0)||('95 %', '', '', '', 0.0)||('confidence interval', 'noun', 'C0009667', ['qnco'], 0.0)||(',', '', '', '', 0.0)||('0 . 87', '', '', '', 0.0)||('-', '', '', '', 0.0)||('12 . 45', '', '', '', 0.0)||(';', '', '', '', 0.0)||('chi2', '', '', '', 0.0)||('=', '', '', '', 0.0)||('3 . 28', '', '', '', 0.0)||(';', '', '', '', 0.0)||('p', '', '', '', 0.0)||('=', '', '', '', 0.0)||('.', '', '', '', 0.0)||('07', '', '', '', 0.0)||(')', '', '', '', 0.0)||('and', '', '', '', 0.0)||('in', '', '', '', 0.0)||('whites', 'noun', 'C0007457', ['popg'], 0.0)||('(', '', '', '', 0.0)||('odds ratio', 'noun', 'C0028873', ['qnco'], 0.0)||(',', '', '', '', 0.0)||('2 . 60', '', '', '', 0.0)||(';', '', '', '', 0.0)||('95 %', '', '', '', 0.0)||('confidence interval', 'noun', 'C0009667', ['qnco'], 0.0)||(',', '', '', '', 0.0)||('0 . 75', '', '', '', 0.0)||('-', '', '', '', 0.0)||('8 . 95', '', '', '', 0.0)||(';', '', '', '', 0.0)||('chi2', '', '', '', 0.0)||('=', '', '', '', 0.0)||('3 . 08', '', '', '', 0.0)||(';', '', '', '', 0.0)||('p', '', '', '', 0.0)||('=', '', '', '', 0.0)||('.', '', '', '', 0.0)||('08', '', '', '', 0.0)||(')', '', '', '', 0.0)||('.', '', '', '', 0.0)||
('the', '', '', '', 0.0)||('rate', 'noun', 'C0871208', ['acty'], 0.0)||('of', '', '', '', 0.0)||('isoniazid', 'noun', 'C0022209', ['orch', 'phsu'], 0.0)||('hepatotoxicity', 'noun', 'C0235378', ['inpo'], 0.0)||('during', '', '', '', 0.0)||('clinically', '', '', '', 0.0)||('monitored', '', '', '', 0.0)||('preventive', 'adj', 'C1456501', ['qlco'], 0.0)||('therapy', 'noun', 'C0039798', ['ftcn'], 0.0)||('was', '', '', '', 0.0)||('lower', 'adj', 'C0441994', ['ftcn'], 0.0)||('than', '', '', '', 0.0)||('has', '', '', '', 0.0)||('been', '', '', '', 0.0)||('reported', 'verb', 'C0684224', ['inpr'], 0.0)||('previously', '', '', '', 0.0)||('.', '', '', '', 0.0)||
('clinicians', 'noun', 'C0871685', ['prog'], 0.0)||('should', '', '', '', 0.0)||('have', '', '', '', 0.0)||('greater', 'adj', 'C1704243', ['qnco'], 0.0)||('confidence', 'noun', 'C0237529', ['menp'], 0.0)||('in', '', '', '', 0.0)||('the', '', '', '', 0.0)||('safety', 'noun', 'C0036043', ['hcpp'], 0.0)||('of', '', '', '', 0.0)||('isoniazid', 'noun', 'C0022209', ['orch', 'phsu'], 0.0)||('preventive', 'adj', 'C1456501', ['qlco'], 0.0)||('therapy', 'noun', 'C0039798', ['ftcn'], 0.0)||('.', '', '', '', 0.0)||
