('isoniazid', 'noun', 'C0022209', ['orch', 'phsu'], 0.0)||('chemoprophylaxis', 'noun', 'C0282515', ['topp'], 0.0)||('has', '', '', '', 0.0)||('long', 'adj', 'C0205166', ['qlco'], 0.0)||('been', '', '', '', 0.0)||('known', 'verb', 'C0205309', ['qlco'], 0.0)||('to', '', '', '', 0.0)||('be', '', '', '', 0.0)||('a', '', '', '', 0.0)||('highly', 'adv', 'C0205250', ['qlco'], 0.0)||('effective', 'adj', 'C1704419', ['qlco'], 0.0)||('means', 'noun', 'C1704970', ['cnce'], 0.0)||('of', '', '', '', 0.0)||('preventing', 'noun', 'C1292733', ['ftcn'], 0.0)||('silent', 'adj', 'C0443304', ['qlco'], 0.0)||('tuberculous', 'adj', 'C0041296', ['dsyn'], 0.0)||('infections', 'noun', 'C0021311', ['dsyn'], 0.0)||('from', '', '', '', 0.0)||('spreading', 'verb', 'C0332261', ['qlco'], 0.0)||('to', '', '', '', 0.0)||('active disease', '', '', '', 0.0)||('.', '', '', '', 0.0)||
('there', '', '', '', 0.0)||('has', '', '', '', 0.0)||('been', '', '', '', 0.0)||('much', '', '', '', 0.0)||('controversy', 'noun', 'C0680243', ['socb'], 0.0)||(',', '', '', '', 0.0)||('however', '', '', '', 0.0)||(',', '', '', '', 0.0)||('about', '', '', '', 0.0)||('the', '', '', '', 0.0)||('risk', 'noun', 'C0035647', ['qlco'], 0.0)||('it', '', '', '', 0.0)||('carries', 'verb', 'C0699809', ['fndg'], 0.0)||('for', '', '', '', 0.0)||('fatal', 'adj', 'C1302234', ['qlco'], 0.0)||('hepatotoxicity', 'noun', 'C0235378', ['inpo'], 0.0)||('.', '', '', '', 0.0)||
('in', '', '', '', 0.0)||('this', '', '', '', 0.0)||('article', 'noun', 'C1706852', ['inpr'], 0.0)||('i', '', '', '', 0.0)||('review', 'verb', 'C0282443', ['inpr'], 0.0)||('the', '', '', '', 0.0)||('rate', 'noun', 'C0871208', ['acty'], 0.0)||('of', '', '', '', 0.0)||('fatal', 'adj', 'C1302234', ['qlco'], 0.0)||('isoniazid', 'noun', 'C0022209', ['orch', 'phsu'], 0.0)||('-', '', '', '', 0.0)||('induced', 'adj', 'C0205263', ['ftcn'], 0.0)||('hepatitis', 'noun', 'C0019158', ['dsyn'], 0.0)||('during', '', '', '', 0.0)||('chemoprophylaxis', 'noun', 'C0282515', ['topp'], 0.0)||('that', '', '', '', 0.0)||('is', '', '', '', 0.0)||('done', '', '', '', 0.0)||('according to', '', '', '', 0.0)||('current', 'adj', 'C0521116', ['tmco'], 0.0)||('monitoring', 'adj', 'C0150369', ['hlca'], 0.0)||('guidelines', 'noun', 'C0162791', ['inpr'], 0.0)||('.', '', '', '', 0.0)||
('information', 'noun', 'C1533716', ['idcn'], 0.0)||('was', '', '', '', 0.0)||('obtained', 'verb', 'C1301820', ['ftcn'], 0.0)||('from', '', '', '', 0.0)||('a', '', '', '', 0.0)||('medline', 'noun', 'C0025141', ['inpr'], 0.0)||('literature', 'noun', 'C0023866', ['inpr'], 0.0)||('search', 'noun', 'C1552603', ['idcn'], 0.0)||('and', '', '', '', 0.0)||('a', '', '', '', 0.0)||('survey', 'noun', 'C0038951', ['inpr'], 0.0)||('of', '', '', '', 0.0)||('tuberculosis control', '', '', '', 0.0)||('officers', 'noun', 'C1549461', ['idcn'], 0.0)||('in', '', '', '', 0.0)||('large', 'adj', 'C0549177', ['qnco'], 0.0)||('metropolitan', 'noun', 'C0599587', ['spco'], 0.0)||('areas', '', '', '', 0.0)||('throughout', '', '', '', 0.0)||('the', '', '', '', 0.0)||('country', 'noun', 'C0454664', ['geoa'], 0.0)||('.', '', '', '', 0.0)||
('data', 'noun', 'C1511726', ['idcn'], 0.0)||('were', '', '', '', 0.0)||('included', '', '', '', 0.0)||('of', '', '', '', 0.0)||('patients', 'noun', 'C0030705', ['podg'], 0.0)||('who', '', '', '', 0.0)||('were', '', '', '', 0.0)||('monitored', '', '', '', 0.0)||('according to', '', '', '', 0.0)||('the', '', '', '', 0.0)||('american', 'adj', 'C0596070', ['popg'], 0.0)||('thoracic', '', '', '', 0.0)||('society', 'noun', 'C0037455', ['orgt'], 0.0)||("' s", '', '', '', 0.0)||('guidelines', 'noun', 'C0162791', ['inpr'], 0.0)||('or', '', '', '', 0.0)||('who', '', '', '', 0.0)||('were', '', '', '', 0.0)||('treated', 'verb', 'C1522326', ['ftcn'], 0.0)||('after', '', '', '', 0.0)||('1983', '', '', '', 0.0)||('when', '', '', '', 0.0)||('the', '', '', '', 0.0)||('guidelines', 'noun', 'C0162791', ['inpr'], 0.0)||('were', '', '', '', 0.0)||('published', 'verb', 'C0034037', ['ocac'], 0.0)||('.', '', '', '', 0.0)||
('the', '', '', '', 0.0)||('pooled', 'adj', 'C1709595', ['cnce'], 0.0)||('results', 'noun', 'C1274040', ['ftcn'], 0.0)||('of', '', '', '', 0.0)||('the', '', '', '', 0.0)||('published', 'adj', 'C0034037', ['ocac'], 0.0)||('studies', '', '', '', 0.0)||('showed', '', '', '', 0.0)||('no', '', '', '', 0.0)||('hepatotoxic', '', '', '', 0.0)||('deaths', 'noun', 'C1306577', ['fndg'], 0.0)||('in', '', '', '', 0.0)||('20 , 212', '', '', '', 0.0)||('patients', 'noun', 'C0030705', ['podg'], 0.0)||('in', '', '', '', 0.0)||('whom', '', '', '', 0.0)||('prophylaxis', 'noun', 'C0033107', ['inpr'], 0.0)||('was', '', '', '', 0.0)||('started', 'verb', 'C1272689', ['qlco'], 0.0)||('.', '', '', '', 0.0)||
('the', '', '', '', 0.0)||('unpublished', '', '', '', 0.0)||('data', 'noun', 'C1511726', ['idcn'], 0.0)||('showed', '', '', '', 0.0)||('2', '', '', '', 0.0)||('deaths', 'noun', 'C1306577', ['fndg'], 0.0)||('in', '', '', '', 0.0)||('182 , 285', '', '', '', 0.0)||('patients', 'noun', 'C0030705', ['podg'], 0.0)||(',', '', '', '', 0.0)||('for', '', '', '', 0.0)||('a', '', '', '', 0.0)||('combined', 'adj', 'C0205195', ['qlco'], 0.0)||('rate', 'noun', 'C0871208', ['acty'], 0.0)||('of', '', '', '', 0.0)||('0 . 001 %', '', '', '', 0.0)||('(', '', '', '', 0.0)||('2', '', '', '', 0.0)||('of', '', '', '', 0.0)||('202 , 497', '', '', '', 0.0)||(')', '', '', '', 0.0)||('.', '', '', '', 0.0)||
('the', '', '', '', 0.0)||('death rate', 'noun', 'C0026565', ['qnco'], 0.0)||('for', '', '', '', 0.0)||('those', '', '', '', 0.0)||('older', '', '', '', 0.0)||('than', '', '', '', 0.0)||('35', '', '', '', 0.0)||('years', 'noun', 'C0439234', ['tmco'], 0.0)||('was', '', '', '', 0.0)||('estimated', 'verb', 'C0750572', ['qnco'], 0.0)||('to', '', '', '', 0.0)||('be', '', '', '', 0.0)||('0 . 002 %', '', '', '', 0.0)||('(', '', '', '', 0.0)||('1', '', '', '', 0.0)||('of', '', '', '', 0.0)||('43 , 334', '', '', '', 0.0)||(')', '', '', '', 0.0)||('.', '', '', '', 0.0)||
('this', '', '', '', 0.0)||('rate', 'noun', 'C0871208', ['acty'], 0.0)||('is', '', '', '', 0.0)||('significantly', '', '', '', 0.0)||('lower', 'adj', 'C0441994', ['ftcn'], 0.0)||('than', '', '', '', 0.0)||('was', '', '', '', 0.0)||('previously', '', '', '', 0.0)||('estimated', 'verb', 'C0750572', ['qnco'], 0.0)||('and', '', '', '', 0.0)||('should', '', '', '', 0.0)||('be', '', '', '', 0.0)||('used', '', '', '', 0.0)||('to', '', '', '', 0.0)||('reevaluate', '', '', '', 0.0)||('the', '', '', '', 0.0)||('benefit', 'noun', 'C0814225', ['qnco'], 0.0)||('of', '', '', '', 0.0)||('preventive', 'adj', 'C1456501', ['qlco'], 0.0)||('therapy', 'noun', 'C0039798', ['ftcn'], 0.0)||('for', '', '', '', 0.0)||('tuberculin', 'noun', 'C0034131', ['aapp', 'imft', 'irda'], 0.0)||('-', '', '', '', 0.0)||('reactive', 'adj', 'C0205332', ['qlco'], 0.0)||('patients', 'noun', 'C0030705', ['podg'], 0.0)||('older', '', '', '', 0.0)||('than', '', '', '', 0.0)||('35', '', '', '', 0.0)||('.', '', '', '', 0.0)||
('the', '', '', '', 0.0)||('risk', 'noun', 'C0035647', ['qlco'], 0.0)||('of', '', '', '', 0.0)||('fatal', 'adj', 'C1302234', ['qlco'], 0.0)||('isoniazid', 'noun', 'C0022209', ['orch', 'phsu'], 0.0)||('-', '', '', '', 0.0)||('induced', 'adj', 'C0205263', ['ftcn'], 0.0)||('hepatitis', 'noun', 'C0019158', ['dsyn'], 0.0)||('is', '', '', '', 0.0)||('negligible', 'adj', 'C0332269', ['qlco'], 0.0)||('for', '', '', '', 0.0)||('all', '', '', '', 0.0)||('ages', '', '', '', 0.0)||('when', '', '', '', 0.0)||('patients', 'noun', 'C0030705', ['podg'], 0.0)||('are', '', '', '', 0.0)||('routinely', '', '', '', 0.0)||('monitored', '', '', '', 0.0)||('for', '', '', '', 0.0)||('liver', 'noun', 'C0023884', ['bpoc'], 0.0)||('toxicity', 'noun', 'C0040539', ['qlco'], 0.0)||('.', '', '', '', 0.0)||
