('an', '', '', '', 0.0)||('original', 'adj', 'C0205313', ['idcn'], 0.0)||('radioimmunoassay', 'noun', 'C0034580', ['lbpr'], 0.0)||('for', '', '', '', 0.0)||('quantitation', 'noun', 'C1709793', ['qnco'], 0.0)||('of', '', '', '', 0.0)||('circulating', 'adj', 'C0175630', ['ftcn'], 0.0)||('autoantibodies', 'noun', 'C0004358', ['aapp', 'imft'], 0.0)||('to', '', '', '', 0.0)||('thyroperoxidase', 'noun', 'C0021965', ['aapp', 'enzy'], 0.0)||('proved', '', '', '', 0.0)||('to', '', '', '', 0.0)||('be', '', '', '', 0.0)||('well suited', '', '', '', 0.0)||('for', '', '', '', 0.0)||('large scale', '', '', '', 0.0)||('routine', 'adj', 'C0205547', ['qlco'], 0.0)||('testing', 'noun', 'C0039593', ['ftcn'], 0.0)||('.', '', '', '', 0.0)||
('the', '', '', '', 0.0)||('present study', '', '', '', 0.0)||('was', '', '', '', 0.0)||('aimed', '', '', '', 0.0)||('to', '', '', '', 0.0)||('assess', 'verb', 'C1516048', ['acty'], 0.0)||('the', '', '', '', 0.0)||('prevalence', 'noun', 'C0033105', ['qnco'], 0.0)||('of', '', '', '', 0.0)||('autoantibodies', 'noun', 'C0004358', ['aapp', 'imft'], 0.0)||('to', '', '', '', 0.0)||('thyroperoxidase', 'noun', 'C0021965', ['aapp', 'enzy'], 0.0)||('in', '', '', '', 0.0)||('patients', 'noun', 'C0030705', ['podg'], 0.0)||('with', '', '', '', 0.0)||('various', 'adj', 'C0440102', ['irda'], 0.0)||('thyroid', 'noun', 'C0040132', ['bpoc'], 0.0)||('and', '', '', '', 0.0)||('autoimmune disease', 'noun', 'C0004364', ['dsyn'], 0.0)||('and', '', '', '', 0.0)||(',', '', '', '', 0.0)||('for', '', '', '', 0.0)||('comparison', 'noun', 'C1707455', ['acty'], 0.0)||(',', '', '', '', 0.0)||('in', '', '', '', 0.0)||('women', 'noun', 'C0043210', ['popg'], 0.0)||('referred', 'verb', 'C1691010', ['ftcn'], 0.0)||('for', '', '', '', 0.0)||('reproductive', 'adj', 'C0035150', ['orgf'], 0.0)||('disorders', 'noun', 'C0012634', ['dsyn'], 0.0)||('and', '', '', '', 0.0)||('indication', 'noun', 'C0392360', ['idcn'], 0.0)||('of', '', '', '', 0.0)||('in', '', '', '', 0.0)||('vitro', '', '', '', 0.0)||('fertilization', '', '', '', 0.0)||('.', '', '', '', 0.0)||
('anti - thyroperoxidase', '', '', '', 0.0)||('autoantibodies', 'noun', 'C0004358', ['aapp', 'imft'], 0.0)||('were', '', '', '', 0.0)||('measured', 'verb', 'C0444706', ['qlco'], 0.0)||('in', '', '', '', 0.0)||('sera', 'noun', 'C0229671', ['bdsu'], 0.0)||('from', '', '', '', 0.0)||('32', '', '', '', 0.0)||('healthy', '', '', '', 0.0)||('subjects', '', '', '', 0.0)||('and', '', '', '', 0.0)||('262', '', '', '', 0.0)||('patients', 'noun', 'C0030705', ['podg'], 0.0)||('thoroughly', '', '', '', 0.0)||('investigated', '', '', '', 0.0)||('for', '', '', '', 0.0)||('thyroid', 'noun', 'C0040132', ['bpoc'], 0.0)||('dysfunction', 'noun', 'C0031847', ['ftcn'], 0.0)||('.', '', '', '', 0.0)||
('as', '', '', '', 0.0)||('determined', '', '', '', 0.0)||('in', '', '', '', 0.0)||('healthy', '', '', '', 0.0)||('subjects', '', '', '', 0.0)||(',', '', '', '', 0.0)||('the', '', '', '', 0.0)||('normal', 'adj', 'C0205307', ['qlco'], 0.0)||('level', 'noun', 'C0441889', ['qlco'], 0.0)||('of', '', '', '', 0.0)||('autoantibodies', 'noun', 'C0004358', ['aapp', 'imft'], 0.0)||('to', '', '', '', 0.0)||('thyroperoxidase', 'noun', 'C0021965', ['aapp', 'enzy'], 0.0)||('in', '', '', '', 0.0)||('serum', 'noun', 'C0229671', ['bdsu'], 0.0)||('ranged', '', '', '', 0.0)||('from', '', '', '', 0.0)||('0 . 30', '', '', '', 0.0)||('to', '', '', '', 0.0)||('3 . 07', '', '', '', 0.0)||('mg', '', '', '', 0.0)||('/', '', '', '', 0.0)||('l (', '', '', '', 0.0)||('of', '', '', '', 0.0)||('affinity', 'noun', 'C1510827', ['npop'], 0.0)||('-', '', '', '', 0.0)||('purified', 'adj', 'C1998793', ['ftcn'], 0.0)||(')', '', '', '', 0.0)||('anti - thyroperoxidase', '', '', '', 0.0)||('autoantibodies', 'noun', 'C0004358', ['aapp', 'imft'], 0.0)||('.', '', '', '', 0.0)||
('anti - thyroperoxidase', '', '', '', 0.0)||('and', '', '', '', 0.0)||('anti', '', '', '', 0.0)||('-', '', '', '', 0.0)||('mic', 'noun', 'C0281162', ['topp'], 0.0)||('autoantibodies', 'noun', 'C0004358', ['aapp', 'imft'], 0.0)||('levels', 'noun', 'C0441889', ['qlco'], 0.0)||('were', '', '', '', 0.0)||('both', '', '', '', 0.0)||('normal', 'adj', 'C0205307', ['qlco'], 0.0)||('in', '', '', '', 0.0)||('115', '', '', '', 0.0)||('patients', 'noun', 'C0030705', ['podg'], 0.0)||('and', '', '', '', 0.0)||('correlated', 'verb', 'C1707520', ['qlco'], 0.0)||('well', 'adv', 'C0205170', ['qlco'], 0.0)||('(', '', '', '', 0.0)||('r', '', '', '', 0.0)||('=', '', '', '', 0.0)||('0 . 835', '', '', '', 0.0)||(',', '', '', '', 0.0)||('p', '', '', '', 0.0)||('less', '', '', '', 0.0)||('than', '', '', '', 0.0)||('0 . 001', '', '', '', 0.0)||(')', '', '', '', 0.0)||('in', '', '', '', 0.0)||('the', '', '', '', 0.0)||('remaining', 'adj', 'C1527428', ['qlco'], 0.0)||('147', '', '', '', 0.0)||('patients', 'noun', 'C0030705', ['podg'], 0.0)||('.', '', '', '', 0.0)||
('coexistence', '', '', '', 0.0)||('of', '', '', '', 0.0)||('normal', 'adj', 'C0205307', ['qlco'], 0.0)||('level', 'noun', 'C0441889', ['qlco'], 0.0)||('of', '', '', '', 0.0)||('anti - thyroperoxidase', '', '', '', 0.0)||('autoantibodies', 'noun', 'C0004358', ['aapp', 'imft'], 0.0)||('and', '', '', '', 0.0)||('abnormal', 'adj', 'C0205161', ['ftcn'], 0.0)||('level', 'noun', 'C0441889', ['qlco'], 0.0)||('of', '', '', '', 0.0)||('anti', '', '', '', 0.0)||('-', '', '', '', 0.0)||('mic', 'noun', 'C0281162', ['topp'], 0.0)||('autoantibodies', 'noun', 'C0004358', ['aapp', 'imft'], 0.0)||('was', '', '', '', 0.0)||('found', '', '', '', 0.0)||('in', '', '', '', 0.0)||('4', '', '', '', 0.0)||('patients', 'noun', 'C0030705', ['podg'], 0.0)||('and', '', '', '', 0.0)||('ascribed', '', '', '', 0.0)||('to', '', '', '', 0.0)||('a', '', '', '', 0.0)||('lack', 'noun', 'C0332268', ['qlco'], 0.0)||('of', '', '', '', 0.0)||('specificity', 'noun', 'C0037791', ['qnco'], 0.0)||('or', '', '', '', 0.0)||('sensitivity', 'noun', 'C0036667', ['qnco'], 0.0)||('of', '', '', '', 0.0)||('the', '', '', '', 0.0)||('test', 'noun', 'C0022885', ['lbpr'], 0.0)||('for', '', '', '', 0.0)||('anti', '', '', '', 0.0)||('-', '', '', '', 0.0)||('mic', 'noun', 'C0281162', ['topp'], 0.0)||('autoantibodies', 'noun', 'C0004358', ['aapp', 'imft'], 0.0)||('.', '', '', '', 0.0)||
('coexistence', '', '', '', 0.0)||('of', '', '', '', 0.0)||('abnormal', 'adj', 'C0205161', ['ftcn'], 0.0)||('level', 'noun', 'C0441889', ['qlco'], 0.0)||('of', '', '', '', 0.0)||('anti - thyroperoxidase', '', '', '', 0.0)||('autoantibodies', 'noun', 'C0004358', ['aapp', 'imft'], 0.0)||('and', '', '', '', 0.0)||('normal', 'adj', 'C0205307', ['qlco'], 0.0)||('level', 'noun', 'C0441889', ['qlco'], 0.0)||('of', '', '', '', 0.0)||('anti', '', '', '', 0.0)||('-', '', '', '', 0.0)||('mic', 'noun', 'C0281162', ['topp'], 0.0)||('autoantibodies', 'noun', 'C0004358', ['aapp', 'imft'], 0.0)||('was', '', '', '', 0.0)||('found', '', '', '', 0.0)||('in', '', '', '', 0.0)||('67', '', '', '', 0.0)||('patients', 'noun', 'C0030705', ['podg'], 0.0)||('of', '', '', '', 0.0)||('whom', '', '', '', 0.0)||('62', '', '', '', 0.0)||('presented', 'verb', 'C0449450', ['idcn'], 0.0)||('only', '', '', '', 0.0)||('slightly', 'adv', 'C0750482', ['idcn'], 0.0)||('elevated', 'verb', 'C0205250', ['qlco'], 0.0)||('(', '', '', '', 0.0)||('3 . 1', '', '', '', 0.0)||('to', '', '', '', 0.0)||('10 . 0', '', '', '', 0.0)||('mg', '', '', '', 0.0)||('/', '', '', '', 0.0)||('l )', '', '', '', 0.0)||('anti - thyroperoxidase', '', '', '', 0.0)||('autoantibodies', 'noun', 'C0004358', ['aapp', 'imft'], 0.0)||('concentration', 'noun', 'C0086045', ['menp'], 0.0)||(';', '', '', '', 0.0)||
('the', '', '', '', 0.0)||('5', '', '', '', 0.0)||('remaining', 'adj', 'C1527428', ['qlco'], 0.0)||('patients', 'noun', 'C0030705', ['podg'], 0.0)||(',', '', '', '', 0.0)||('all', '', '', '', 0.0)||('with', '', '', '', 0.0)||('overt', '', '', '', 0.0)||('thyroid', 'noun', 'C0040132', ['bpoc'], 0.0)||('autoimmune disease', 'noun', 'C0004364', ['dsyn'], 0.0)||(',', '', '', '', 0.0)||('showed', '', '', '', 0.0)||('anti - thyroperoxidase', '', '', '', 0.0)||('levels', 'noun', 'C0441889', ['qlco'], 0.0)||('between', '', '', '', 0.0)||('10 . 7', '', '', '', 0.0)||('to', '', '', '', 0.0)||('100 . 7', '', '', '', 0.0)||('mg', '', '', '', 0.0)||('/', '', '', '', 0.0)||('l', '', '', '', 0.0)||
