('the', '', '', '', 0.0)||('incidence', 'noun', 'C0021149', ['qnco'], 0.0)||('of', '', '', '', 0.0)||('thyroid', 'noun', 'C0040132', ['bpoc'], 0.0)||('disorders', 'noun', 'C0012634', ['dsyn'], 0.0)||('in', '', '', '', 0.0)||('the', '', '', '', 0.0)||('community', 'noun', 'C0009462', ['geoa'], 0.0)||(':', '', '', '', 0.0)||('a', '', '', '', 0.0)||('twenty', '', '', '', 0.0)||('-', '', '', '', 0.0)||('year', 'noun', 'C0439234', ['tmco'], 0.0)||('follow - up', '', '', '', 0.0)||('of', '', '', '', 0.0)||('the', '', '', '', 0.0)||('whickham', '', '', '', 0.0)||('survey', 'noun', 'C0038951', ['inpr'], 0.0)||('.', '', '', '', 0.0)||
('objective', 'noun', 'C0018017', ['inpr'], 0.0)||(':', '', '', '', 0.0)||('the', '', '', '', 0.0)||('original', 'adj', 'C0205313', ['idcn'], 0.0)||('whickham', '', '', '', 0.0)||('survey', 'noun', 'C0038951', ['inpr'], 0.0)||('documented', 'verb', 'C1301725', ['hlca'], 0.0)||('the', '', '', '', 0.0)||('prevalence', 'noun', 'C0033105', ['qnco'], 0.0)||('of', '', '', '', 0.0)||('thyroid', 'noun', 'C0040132', ['bpoc'], 0.0)||('disorders', 'noun', 'C0012634', ['dsyn'], 0.0)||('in', '', '', '', 0.0)||('a', '', '', '', 0.0)||('randomly', '', '', '', 0.0)||('selected', '', '', '', 0.0)||('sample', 'noun', 'C0370003', ['sbst'], 0.0)||('of', '', '', '', 0.0)||('2779', '', '', '', 0.0)||('adults', 'noun', 'C0001675', ['aggp'], 0.0)||('which', '', '', '', 0.0)||('matched', 'verb', 'C1708943', ['qlco'], 0.0)||('the', '', '', '', 0.0)||('population', 'noun', 'C0032659', ['qnco'], 0.0)||('of', '', '', '', 0.0)||('great britain', 'noun', 'C0018223', ['geoa'], 0.0)||('in', '', '', '', 0.0)||('age', 'noun', 'C0001779', ['orga'], 0.0)||(',', '', '', '', 0.0)||('sex', 'noun', 'C0036864', ['bhvr'], 0.0)||('and', '', '', '', 0.0)||('social class', 'noun', 'C0037402', ['qlco'], 0.0)||('.', '', '', '', 0.0)||
('the', '', '', '', 0.0)||('aim', 'noun', 'C1947946', ['idcn'], 0.0)||('of', '', '', '', 0.0)||('the', '', '', '', 0.0)||('twenty', '', '', '', 0.0)||('-', '', '', '', 0.0)||('year', 'noun', 'C0439234', ['tmco'], 0.0)||('follow - up', '', '', '', 0.0)||('survey', 'noun', 'C0038951', ['inpr'], 0.0)||('was', '', '', '', 0.0)||('to', '', '', '', 0.0)||('determine', '', '', '', 0.0)||('the', '', '', '', 0.0)||('incidence', 'noun', 'C0021149', ['qnco'], 0.0)||('and', '', '', '', 0.0)||('natural history', 'noun', 'C0175860', ['ocdi'], 0.0)||('of', '', '', '', 0.0)||('thyroid disease', 'noun', 'C2186538', ['fndg'], 0.0)||('in', '', '', '', 0.0)||('this', '', '', '', 0.0)||('cohort', 'noun', 'C0599755', ['popg'], 0.0)||('.', '', '', '', 0.0)||
('methods', 'noun', 'C0025663', ['inpr'], 0.0)||(':', '', '', '', 0.0)||('subjects', '', '', '', 0.0)||('were', '', '', '', 0.0)||('traced', '', '', '', 0.0)||('at', '', '', '', 0.0)||('follow - up', '', '', '', 0.0)||('via', '', '', '', 0.0)||('the', '', '', '', 0.0)||('electoral', '', '', '', 0.0)||('register', '', '', '', 0.0)||(',', '', '', '', 0.0)||('general practice', 'noun', 'C0086343', ['bmod'], 0.0)||('registers', 'noun', 'C0600375', ['inpr'], 0.0)||(',', '', '', '', 0.0)||('gateshead', '', '', '', 0.0)||('family', 'noun', 'C0015576', ['famg'], 0.0)||('health', 'noun', 'C0018684', ['idcn'], 0.0)||('services', 'noun', 'C0557854', ['acty'], 0.0)||('authority', 'noun', 'C0599437', ['socb'], 0.0)||('register', '', '', '', 0.0)||('and', '', '', '', 0.0)||('office', 'noun', 'C0442603', ['mnob'], 0.0)||('of', '', '', '', 0.0)||('population', 'noun', 'C0032659', ['qnco'], 0.0)||('censuses', 'noun', 'C0007663', ['qnco'], 0.0)||('and', '', '', '', 0.0)||('surveys', 'noun', 'C0038951', ['inpr'], 0.0)||('.', '', '', '', 0.0)||
('eight hundred and twenty - five', '', '', '', 0.0)||('subjects', '', '', '', 0.0)||('(', '', '', '', 0.0)||('30 %', '', '', '', 0.0)||('of', '', '', '', 0.0)||('the', '', '', '', 0.0)||('sample', 'noun', 'C0370003', ['sbst'], 0.0)||(')', '', '', '', 0.0)||('had', '', '', '', 0.0)||('died', 'verb', 'C1306577', ['fndg'], 0.0)||('and', '', '', '', 0.0)||(',', '', '', '', 0.0)||('in', '', '', '', 0.0)||('addition', 'noun', 'C1883712', ['ftcn'], 0.0)||('to', '', '', '', 0.0)||('death certificates', 'noun', 'C0011066', ['mnob'], 0.0)||(',', '', '', '', 0.0)||('two - thirds', '', '', '', 0.0)||('had', '', '', '', 0.0)||('information', 'noun', 'C1533716', ['idcn'], 0.0)||('from', '', '', '', 0.0)||('either', '', '', '', 0.0)||('hospital', 'noun', 'C0019994', ['hcro', 'mnob'], 0.0)||('/', '', '', '', 0.0)||('general practitioner', 'noun', 'C0017319', ['prog'], 0.0)||('notes', 'noun', 'C1317574', ['inpr'], 0.0)||('or', '', '', '', 0.0)||('post - mortem', '', '', '', 0.0)||('reports', 'verb', 'C0684224', ['inpr'], 0.0)||('to', '', '', '', 0.0)||('document', 'verb', 'C1547673', ['clas'], 0.0)||('morbidity', 'noun', 'C0026538', ['qnco'], 0.0)||('prior to', '', '', '', 0.0)||('death', 'noun', 'C0011065', ['orgf'], 0.0)||('.', '', '', '', 0.0)||
('of', '', '', '', 0.0)||('the', '', '', '', 0.0)||('1877', '', '', '', 0.0)||('known', 'adj', 'C0205309', ['qlco'], 0.0)||('survivors', 'noun', 'C0206194', ['podg'], 0.0)||(',', '', '', '', 0.0)||('96 %', '', '', '', 0.0)||('participated', '', '', '', 0.0)||('in', '', '', '', 0.0)||('the', '', '', '', 0.0)||('follow - up study', '', '', '', 0.0)||('and', '', '', '', 0.0)||('91 %', '', '', '', 0.0)||('were', '', '', '', 0.0)||('tested', '', '', '', 0.0)||('for', '', '', '', 0.0)||('clinical', 'adj', 'C0205210', ['qlco'], 0.0)||(',', '', '', '', 0.0)||('biochemical', 'adj', 'C0205474', ['ftcn'], 0.0)||('and', '', '', '', 0.0)||('immunological', 'adj', 'C0205470', ['ftcn'], 0.0)||('evidence', 'noun', 'C0332120', ['ftcn'], 0.0)||('of', '', '', '', 0.0)||('thyroid', 'noun', 'C0040132', ['bpoc'], 0.0)||('dysfunction', 'noun', 'C0031847', ['ftcn'], 0.0)||('.', '', '', '', 0.0)||
('results', 'noun', 'C1274040', ['ftcn'], 0.0)||(':', '', '', '', 0.0)||('outcomes', 'noun', 'C0085415', ['qlco'], 0.0)||('in', '', '', '', 0.0)||('terms', '', '', '', 0.0)||('of', '', '', '', 0.0)||('morbidity', 'noun', 'C0026538', ['qnco'], 0.0)||('and', '', '', '', 0.0)||('mortality', 'noun', 'C0026565', ['qnco'], 0.0)||('were', '', '', '', 0.0)||('determined', '', '', '', 0.0)||('for', '', '', '', 0.0)||('over', 'adv', 'C0205136', ['spco'], 0.0)||('97 %', '', '', '', 0.0)||('of', '', '', '', 0.0)||('the', '', '', '', 0.0)||('original', 'adj', 'C0205313', ['idcn'], 0.0)||('sample', 'noun', 'C0370003', ['sbst'], 0.0)||('.', '', '', '', 0.0)||
('the', '', '', '', 0.0)||('mean', 'noun', 'C0444504', ['qnco'], 0.0)||('incidence', 'noun', 'C0021149', ['qnco'], 0.0)||('(', '', '', '', 0.0)||('with', '', '', '', 0.0)||('95 %', '', '', '', 0.0)||('confidence intervals', 'noun', 'C0009667', ['qnco'], 0.0)||(')', '', '', '', 0.0)||('of', '', '', '', 0.0)||('spontaneous', 'adj', 'C0205359', ['ftcn'], 0.0)||('hypothyroidism', 'noun', 'C0020676', ['dsyn'], 0.0)||('in', '', '', '', 0.0)||('women', 'noun', 'C0043210', ['popg'], 0.0)||('was', '', '', '', 0.0)||('3 . 5', '', '', '', 0.0)||('/', '', '', '', 0.0)||('1000', '', '', '', 0.0)||('survivors', 'noun', 'C0206194', ['podg'], 0.0)||('/', '', '', '', 0.0)||('year', 'noun', 'C0439234', ['tmco'], 0.0)||('(', '', '', '', 0.0)||('2 . 8', '', '', '', 0.0)||('-', '', '', '', 0.0)||('4 . 5', '', '', '', 0.0)||(')', '', '', '', 0.0)||('rising', '', '', '', 0.0)||('to', '', '', '', 0.0)||('4 . 1', '', '', '', 0.0)||('/', '', '', '', 0.0)||('1000', '', '', '', 0.0)||('survivors', 'noun', 'C0206194', ['podg'], 0.0)||('/', '', '', '', 0.0)||('year', 'noun', 'C0439234', ['tmco'], 0.0)||('(', '', '', '', 0.0)||('3 . 3', '', '', '', 0.0)||('-', '', '', '', 0.0)||('5 . 0', '', '', '', 0.0)||(')', '', '', '', 0.0)||('for', '', '', '', 0.0)||('all', '', '', '', 0.0)||('causes', 'verb', 'C0015127', ['ftcn'], 0.0)||('of', '', '', '', 0.0)||('hypothyroidism', 'noun', 'C0020676', ['dsyn'], 0.0)||('and', '', '', '', 0.0)||('in', '', '', '', 0.0)||('men', 'noun', 'C0025266', ['popg'], 0.0)||('was', '', '', '', 0.0)||('0 . 6', '', '', '', 0.0)||('/', '', '', '', 0.0)||('1000', '', '', '', 0.0)||('survivors', 'noun', 'C0206194', ['podg'], 0.0)||('/', '', '', '', 0.0)||('year', 'noun', 'C0439234', ['tmco'], 0.0)||('(', '', '', '', 0.0)||('0 . 3', '', '', '', 0.0)||('-', '', '', '', 0.0)||('1 . 2', '', '', '', 0.0)||(')', '', '', '', 0.0)||('.', '', '', '', 0.0)||
('the', '', '', '', 0.0)||('mean', 'noun', 'C0444504', ['qnco'], 0.0)||('incidence', 'noun', 'C0021149', ['qnco'], 0.0)||('of', '', '', '', 0.0)||('hyperthyroidism', 'noun', 'C0020550', ['dsyn'], 0.0)||('in', '', '', '', 0.0)||('women', 'noun', 'C0043210', ['popg'], 0.0)||('was', '', '', '', 0.0)||('0 . 8', '', '', '', 0.0)||('/', '', '', '', 0.0)||('1000', '', '', '', 0.0)||('survivors', 'noun', 'C0206194', ['podg'], 0.0)||('/', '', '', '', 0.0)||('year', 'noun', 'C0439234', ['tmco'], 0.0)||('(', '', '', '', 0.0)||('0 . 5', '', '', '', 0.0)||('-', '', '', '', 0.0)||('1 . 4', '', '', '', 0.0)||(')', '', '', '', 0.0)||('and', '', '', '', 0.0)||('was', '', '', '', 0.0)||('negligible', 'adj', 'C0332269', ['qlco'], 0.0)||('in', '', '', '', 0.0)||('men', 'noun', 'C0025266', ['popg'], 0.0)||('.', '', '', '', 0.0)||
('similar', 'adj', 'C2348205', ['qlco'], 0.0)||('incidence rates', '', '', '', 0.0)||('were', '', '', '', 0.0)||('calculated', 'verb', 'C0444686', ['ftcn'], 0.0)||('for', '', '', '', 0.0)||('the', '', '', '', 0.0)||('deceased', 'adj', 'C0011065', ['orgf'], 0.0)||('subjects', '', '', '', 0.0)||('.', '', '', '', 0.0)||
('an', '', '', '', 0.0)||('estimate', 'noun', 'C0750572', ['qnco'], 0.0)||('of', '', '', '', 0.0)||('the', '', '', '', 0.0)||('probability', 'noun', 'C0033204', ['qnco'], 0.0)||('of', '', '', '', 0.0)||('the', '', '', '', 0.0)||('development', 'noun', 'C0020119', ['phsf'], 0.0)||('of', '', '', '', 0.0)||('hypothyroidism', 'noun', 'C0020676', ['dsyn'], 0.0)||('and', '', '', '', 0.0)||('hyperthyroidism', 'noun', 'C0020550', ['dsyn'], 0.0)||('at', '', '', '', 0.0)||('a', '', '', '', 0.0)||('particular', '', '', '', 0.0)||('time', 'noun', 'C0040223', ['tmco'], 0.0)||(',', '', '', '', 0.0)||('i . e', '', '', '', 0.0)||('.', '', '', '', 0.0)||
('the', '', '', '', 0.0)||('hazard rate', '', '', '', 0.0)||(',', '', '', '', 0.0)||('showed', '', '', '', 0.0)||('an', '', '', '', 0.0)||('increase', 'noun', 'C0442805', ['ftcn'], 0.0)||('with', '', '', '', 0.0)||('age', 'noun', 'C0001779', ['orga'], 0.0)||('in', '', '', '', 0.0)||('hypothyroidism', 'noun', 'C0020676', ['dsyn'], 0.0)||('but', '', '', '', 0.0)||('no', '', '', '', 0.0)||('age', 'noun', 'C0001779', ['orga'], 0.0)||('relation', 'noun', 'C0080103', ['famg'], 0.0)||('in', '', '', '', 0.0)||('hyperthyroidism', 'noun', 'C0020550', ['dsyn'], 0.0)||('.', '', '', '', 0.0)||
('the', '', '', '', 0.0)||('frequency', 'noun', 'C0376249', ['qnco'], 0.0)||('of', '', '', '', 0.0)||('goitre', 'noun', 'C0018021', ['dsyn'], 0.0)||('decreased', 'verb', 'C0205216', ['qnco'], 0.0)||('with', '', '', '', 0.0)||('age', 'noun', 'C0001779', ['orga'], 0.0)||('with', '', '', '', 0.0)||('10 %', '', '', '', 0.0)||('of', '', '', '', 0.0)||('women', 'noun', 'C0043210', ['popg'], 0.0)||('and', '', '', '', 0.0)||('2 %', '', '', '', 0.0)||('of', '', '', '', 0.0)||('men', 'noun', 'C0025266', ['popg'], 0.0)||('having', '', '', '', 0.0)||('a', '', '', '', 0.0)||('goitre', 'noun', 'C0018021', ['dsyn'], 0.0)||('at', '', '', '', 0.0)||('follow - up', '', '', '', 0.0)||(',', '', '', '', 0.0)||('as', '', '', '', 0.0)||('compared', 'verb', 'C1707455', ['acty'], 0.0)||('to', '', '', '', 0.0)||('23 %', '', '', '', 0.0)||('and', '', '', '', 0.0)||('5 %', '', '', '', 0.0)||('in', '', '', '', 0.0)||('the', '', '', '', 0.0)||('same', 'adj', 'C0445247', ['qlco'], 0.0)||('subjects', '', '', '', 0.0)||('respectively', '', '', '', 0.0)||('at', '', '', '', 0.0)||('the', '', '', '', 0.0)||('first', 'adj', 'C0205435', ['qnco'], 0.0)||('survey', 'noun', 'C0038951', ['inpr'], 0.0)||('.', '', '', '', 0.0)||
('the', '', '', '', 0.0)||('presence', 'noun', 'C0392148', ['topp'], 0.0)||('of', '', '', '', 0.0)||('a', '', '', '', 0.0)||('goitre', 'noun', 'C0018021', ['dsyn'], 0.0)||('at', '', '', '', 0.0)||('either', '', '', '', 0.0)||('survey', 'noun', 'C0038951', ['inpr'], 0.0)||('was', '', '', '', 0.0)||('not', 'adv', 'C1518422', ['ftcn'], 0.0)||('associated', 'verb', 'C0332281', ['qlco'], 0.0)||('with', '', '', '', 0.0)||('any', '', '', '', 0.0)||('clinical', 'adj', 'C0205210', ['qlco'], 0.0)||('or', '', '', '', 0.0)||('biochemical', 'adj', 'C0205474', ['ftcn'], 0.0)||('evidence', 'noun', 'C0332120', ['ftcn'], 0.0)||('of', '', '', '', 0.0)||('thyroid', 'noun', 'C0040132', ['bpoc'], 0.0)||('dysfunction', 'noun', 'C0031847', ['ftcn'], 0.0)||('.', '', '', '', 0.0)||
('in', '', '', '', 0.0)||('women', 'noun', 'C0043210', ['popg'], 0.0)||(',', '', '', '', 0.0)||('an', '', '', '', 0.0)||('association', 'noun', 'C0004083', ['menp'], 0.0)||('was', '', '', '', 0.0)||('found', '', '', '', 0.0)||('between', '', '', '', 0.0)||('the', '', '', '', 0.0)||('development', 'noun', 'C0020119', ['phsf'], 0.0)||('of', '', '', '', 0.0)||('a', '', '', '', 0.0)||('goitre', 'noun', 'C0018021', ['dsyn'], 0.0)||('and', '', '', '', 0.0)||('thyroid - antibody', '', '', '', 0.0)||('status', 'noun', 'C0449438', ['qlco'], 0.0)||('at', '', '', '', 0.0)||('follow - up', '', '', '', 0.0)||(',', '', '', '', 0.0)||('but', '', '', '', 0.0)||('not', 'adv', 'C1518422', ['ftcn'], 0.0)||('initially', 'adv', 'C0205265', ['tmco'], 0.0)||('.', '', '', '', 0.0)||
('the', '', '', '', 0.0)||('risk', 'noun', 'C0035647', ['qlco'], 0.0)||('of', '', '', '', 0.0)||('having', '', '', '', 0.0)||('developed', '', '', '', 0.0)||('hypothyroidism', 'noun', 'C0020676', ['dsyn'], 0.0)||('at', '', '', '', 0.0)||('follow - up', '', '', '', 0.0)||('was', '', '', '', 0.0)||('examined', 'verb', 'C0332128', ['fndg'], 0.0)||('with', '', '', '', 0.0)||('respect', 'noun', 'C0679133', ['socb'], 0.0)||('to', '', '', '', 0.0)||('risk factors', 'noun', 'C0035648', ['qnco'], 0.0)||('identified', 'verb', 'C0205396', ['qlco'], 0.0)||('at', '', '', '', 0.0)||('first', 'adj', 'C0205435', ['qnco'], 0.0)||('survey', 'noun', 'C0038951', ['inpr'], 0.0)||('.', '', '', '', 0.0)||
('the', '', '', '', 0.0)||('odds ratios', 'noun', 'C0028873', ['qnco'], 0.0)||('(', '', '', '', 0.0)||('with', '', '', '', 0.0)||('95 %', '', '', '', 0.0)||('confidence intervals', 'noun', 'C0009667', ['qnco'], 0.0)||(')', '', '', '', 0.0)||('of', '', '', '', 0.0)||('developing', 'adj', 'C1999145', ['acty'], 0.0)||('hypothyroidism', 'noun', 'C0020676', ['dsyn'], 0.0)||('with', '', '', '', 0.0)||('(', '', '', '', 0.0)||('a', '', '', '', 0.0)||(')', '', '', '', 0.0)||('raised', 'adj', 'C0442818', ['qnco'], 0.0)||('serum', 'noun', 'C0229671', ['bdsu'], 0.0)||('tsh', '', '', '', 0.0)||('alone', 'adj', 'C0439044', ['fndg'], 0.0)||('were', '', '', '', 0.0)||('8', '', '', '', 0.0)||('(', '', '', '', 0.0)||('3', '', '', '', 0.0)||('-', '', '', '', 0.0)||('20', '', '', '', 0.0)||(')', '', '', '', 0.0)||('for', '', '', '', 0.0)||('women', 'noun', 'C0043210', ['popg'], 0.0)||('and', '', '', '', 0.0)||('44', '', '', '', 0.0)||('(', '', '', '', 0.0)||('19', '', '', '', 0.0)||('-', '', '', '', 0.0)||('104', '', '', '', 0.0)||(')', '', '', '', 0.0)||('for', '', '', '', 0.0)||('men', 'noun', 'C0025266', ['popg'], 0.0)||(';', '', '', '', 0.0)||
('(', '', '', '', 0.0)||('b', '', '', '', 0.0)||(')', '', '', '', 0.0)||('positive', 'adj', 'C1446409', ['qlco'], 0.0)||('anti - thyroid antibodies', '', '', '', 0.0)||('alone', 'adj', 'C0439044', ['fndg'], 0.0)||('were', '', '', '', 0.0)||('8', '', '', '', 0.0)||('(', '', '', '', 0.0)||('5', '', '', '', 0.0)||('-', '', '', '', 0.0)||('15', '', '', '', 0.0)||(')', '', '', '', 0.0)||('for', '', '', '', 0.0)||('women', 'noun', 'C0043210', ['popg'], 0.0)||('and', '', '', '', 0.0)||('25', '', '', '', 0.0)||('(', '', '', '', 0.0)||('10', '', '', '', 0.0)||('-', '', '', '', 0.0)||('63', '', '', '', 0.0)||(')', '', '', '', 0.0)||('for', '', '', '', 0.0)||('men', 'noun', 'C0025266', ['popg'], 0.0)||(';', '', '', '', 0.0)||
('(', '', '', '', 0.0)||('c', '', '', '', 0.0)||(')', '', '', '', 0.0)||('both', '', '', '', 0.0)||('raised', 'adj', 'C0442818', ['qnco'], 0.0)||('serum', 'noun', 'C0229671', ['bdsu'], 0.0)||('tsh', '', '', '', 0.0)||('and', '', '', '', 0.0)||('positive', 'adj', 'C1446409', ['qlco'], 0.0)||('anti - thyroid antibodies', '', '', '', 0.0)||('were', '', '', '', 0.0)||('38', '', '', '', 0.0)||('(', '', '', '', 0.0)||('22', '', '', '', 0.0)||('-', '', '', '', 0.0)||('65', '', '', '', 0.0)||(')', '', '', '', 0.0)||('for', '', '', '', 0.0)||('women', 'noun', 'C0043210', ['popg'], 0.0)||('and', '', '', '', 0.0)||('173', '', '', '', 0.0)||('(', '', '', '', 0.0)||('81', '', '', '', 0.0)||('-', '', '', '', 0.0)||('370', '', '', '', 0.0)||(')', '', '', '', 0.0)||('for', '', '', '', 0.0)||('men', 'noun', 'C0025266', ['popg'], 0.0)||('.', '', '', '', 0.0)||
('a', '', '', '', 0.0)||('logit model', 'noun', 'C0206032', ['inpr', 'qnco'], 0.0)||('indicated', 'verb', 'C1444656', ['fndg'], 0.0)||('that', '', '', '', 0.0)||('increasing', 'adj', 'C0442808', ['ftcn'], 0.0)||('values', 'noun', 'C0042295', ['qlco'], 0.0)||('of', '', '', '', 0.0)||('serum', 'noun', 'C0229671', ['bdsu'], 0.0)||('tsh', '', '', '', 0.0)||('above', '', '', '', 0.0)||('2mu', '', '', '', 0.0)||('/', '', '', '', 0.0)||('l', '', '', '', 0.0)||('at', '', '', '', 0.0)||('first', 'adj', 'C0205435', ['qnco'], 0.0)||('survey', 'noun', 'C0038951', ['inpr'], 0.0)||('increased', 'verb', 'C0205217', ['qnco'], 0.0)||('the', '', '', '', 0.0)||('probability', 'noun', 'C0033204', ['qnco'], 0.0)||('of', '', '', '', 0.0)||('developing', 'adj', 'C1999145', ['acty'], 0.0)||('hypothyroidism', 'noun', 'C0020676', ['dsyn'], 0.0)||('which', '', '', '', 0.0)||('was', '', '', '', 0.0)||('further', 'adv', 'C1517331', ['spco'], 0.0)||('increased', 'verb', 'C0205217', ['qnco'], 0.0)||('in', '', '', '', 0.0)||('the', '', '', '', 0.0)||('presence', 'noun', 'C0392148', ['topp'], 0.0)||('of', '', '', '', 0.0)||('anti - thyroid antibodies', '', '', '', 0.0)||('.', '', '', '', 0.0)||
('neither', '', '', '', 0.0)||('a', '', '', '', 0.0)||('positive', 'adj', 'C1446409', ['qlco'], 0.0)||('family history', 'noun', 'C0241889', ['fndg'], 0.0)||('of', '', '', '', 0.0)||('any', '', '', '', 0.0)||('form', 'noun', 'C0013058', ['bodm'], 0.0)||('of', '', '', '', 0.0)||('thyroid disease', 'noun', 'C2186538', ['fndg'], 0.0)||('nor', '', '', '', 0.0)||('parity', 'noun', 'C0030563', ['fndg'], 0.0)||('of', '', '', '', 0.0)||('women', 'noun', 'C0043210', ['popg'], 0.0)||('at', '', '', '', 0.0)||('first', 'adj', 'C0205435', ['qnco'], 0.0)||('survey', 'noun', 'C0038951', ['inpr'], 0.0)||('was', '', '', '', 0.0)||('associated', 'verb', 'C0332281', ['qlco'], 0.0)||('with', '', '', '', 0.0)||('increased risk', '', '', '', 0.0)||('of', '', '', '', 0.0)||('developing', 'adj', 'C1999145', ['acty'], 0.0)||('hypothyroidism', 'noun', 'C0020676', ['dsyn'], 0.0)||('.', '', '', '', 0.0)||
('fasting', 'adj', 'C0015663', ['fndg'], 0.0)||('cholesterol', 'noun', 'C0008377', ['bacs', 'strd'], 0.0)||('and', '', '', '', 0.0)||('triglyceride levels', '', '', '', 0.0)||('at', '', '', '', 0.0)||('first', 'adj', 'C0205435', ['qnco'], 0.0)||('survey', 'noun', 'C0038951', ['inpr'], 0.0)||('when', '', '', '', 0.0)||('corrected', 'verb', 'C0205202', ['qlco'], 0.0)||('for', '', '', '', 0.0)||('age', 'noun', 'C0001779', ['orga'], 0.0)||('showed', '', '', '', 0.0)||('no', '', '', '', 0.0)||('association', 'noun', 'C0004083', ['menp'], 0.0)||('with', '', '', '', 0.0)||('the', '', '', '', 0.0)||('development', 'noun', 'C0020119', ['phsf'], 0.0)||('of', '', '', '', 0.0)||('hypothyroidism', 'noun', 'C0020676', ['dsyn'], 0.0)||('in', '', '', '', 0.0)||('women', 'noun', 'C0043210', ['popg'], 0.0)||('.', '', '', '', 0.0)||
('conclusions', 'noun', 'C1707478', ['idcn'], 0.0)||(':', '', '', '', 0.0)||('this', '', '', '', 0.0)||('historical', 'adj', 'C1552658', ['idcn'], 0.0)||('cohort study', 'noun', 'C0009247', ['qnco'], 0.0)||('has', '', '', '', 0.0)||('provided', '', '', '', 0.0)||('incidence', 'noun', 'C0021149', ['qnco'], 0.0)||('data', 'noun', 'C1511726', ['idcn'], 0.0)||('for', '', '', '', 0.0)||('thyroid disease', 'noun', 'C2186538', ['fndg'], 0.0)||('over', '', '', '', 0.0)||('a', '', '', '', 0.0)||('twenty', '', '', '', 0.0)||('-', '', '', '', 0.0)||('year', 'noun', 'C0439234', ['tmco'], 0.0)||('period', 'noun', 'C1948053', ['tmco'], 0.0)||('for', '', '', '', 0.0)||('a', '', '', '', 0.0)||('representative', 'adj', 'C1882932', ['acty'], 0.0)||('cross - sectional', '', '', '', 0.0)||('sample', 'noun', 'C0370003', ['sbst'], 0.0)||('of', '', '', '', 0.0)||('the', '', '', '', 0.0)||('population', 'noun', 'C0032659', ['qnco'], 0.0)||(',', '', '', '', 0.0)||('and', '', '', '', 0.0)||('has', '', '', '', 0.0)||('allowed', '', '', '', 0.0)||('the', '', '', '', 0.0)||('determination', 'noun', 'C1148554', ['lbpr'], 0.0)||('of', '', '', '', 0.0)||('the', '', '', '', 0.0)||('importance', '', '', '', 0.0)||('of', '', '', '', 0.0)||('prognostic', 'adj', 'C0220901', ['inpr'], 0.0)||('risk factors', 'noun', 'C0035648', ['qnco'], 0.0)||('for', '', '', '', 0.0)||('thyroid disease', 'noun', 'C2186538', ['fndg'], 0.0)||('identified', 'verb', 'C0205396', ['qlco'], 0.0)||('twenty', '', '', '', 0.0)||('years', 'noun', 'C0439234', ['tmco'], 0.0)||('earlier', '', '', '', 0.0)||('.', '', '', '', 0.0)||
