('to', '', '', '', 0.0)||('review', 'verb', 'C0282443', ['inpr'], 0.0)||('the', '', '', '', 0.0)||('published', 'adj', 'C0034037', ['ocac'], 0.0)||('literature', 'noun', 'C0023866', ['inpr'], 0.0)||('comparing', '', '', '', 0.0)||('the', '', '', '', 0.0)||('diagnostic', 'adj', 'C0011900', ['fndg'], 0.0)||('accuracy', 'noun', 'C0443131', ['qlco'], 0.0)||('of', '', '', '', 0.0)||('magnetic resonance', 'noun', 'C0028580', ['npop'], 0.0)||('angiography', 'noun', 'C0002978', ['diap'], 0.0)||('with', '', '', '', 0.0)||('and', '', '', '', 0.0)||('without', '', '', '', 0.0)||('gadolinium', 'noun', 'C0016911', ['elii', 'irda', 'phsu'], 0.0)||('in', '', '', '', 0.0)||('diagnosing', '', '', '', 0.0)||('renal artery stenosis', 'noun', 'C0035067', ['dsyn'], 0.0)||(',', '', '', '', 0.0)||('using', 'verb', 'C1524063', ['ftcn'], 0.0)||('catheter', 'noun', 'C0085590', ['medd'], 0.0)||('angiography', 'noun', 'C0002978', ['diap'], 0.0)||('as', '', '', '', 0.0)||('reference', 'noun', 'C1514811', ['idcn'], 0.0)||('.', '', '', '', 0.0)||
('a', '', '', '', 0.0)||('meta - analysis', '', '', '', 0.0)||('was', '', '', '', 0.0)||('performed', 'verb', 'C0884358', ['ftcn'], 0.0)||('of', '', '', '', 0.0)||('english', 'adj', 'C1556083', ['popg'], 0.0)||('language', 'noun', 'C0023008', ['lang'], 0.0)||('articles', '', '', '', 0.0)||('identified', 'verb', 'C0205396', ['qlco'], 0.0)||('by', '', '', '', 0.0)||('computer', 'noun', 'C0009622', ['mnob'], 0.0)||('search', 'noun', 'C1552603', ['idcn'], 0.0)||('using', 'verb', 'C1524063', ['ftcn'], 0.0)||('pubmed', 'noun', 'C1138432', ['inpr'], 0.0)||('/', '', '', '', 0.0)||('medline', 'noun', 'C0025141', ['inpr'], 0.0)||(',', '', '', '', 0.0)||('followed', '', '', '', 0.0)||('by', '', '', '', 0.0)||('extensive', 'adj', 'C0205231', ['qlco'], 0.0)||('bibliography', 'noun', 'C0005358', ['inpr', 'mnob'], 0.0)||('review', 'noun', 'C0282443', ['inpr'], 0.0)||('from', '', '', '', 0.0)||('1985', '', '', '', 0.0)||('to', '', '', '', 0.0)||('may', '', '', '', 0.0)||('2001', '', '', '', 0.0)||('.', '', '', '', 0.0)||
('inclusion', 'noun', 'C1512693', ['qlco'], 0.0)||('criteria', 'noun', 'C0243161', ['inpr'], 0.0)||('were', '', '', '', 0.0)||(':', '', '', '', 0.0)||('(', '', '', '', 0.0)||('1', '', '', '', 0.0)||(')', '', '', '', 0.0)||('blinded', 'adj', 'C0150108', ['resa'], 0.0)||('comparison', 'noun', 'C1707455', ['acty'], 0.0)||('with', '', '', '', 0.0)||('catheter', 'noun', 'C0085590', ['medd'], 0.0)||('angiography', 'noun', 'C0002978', ['diap'], 0.0)||(';', '', '', '', 0.0)||
('(', '', '', '', 0.0)||('2', '', '', '', 0.0)||(')', '', '', '', 0.0)||('indication', 'noun', 'C0392360', ['idcn'], 0.0)||('for', '', '', '', 0.0)||('magnetic resonance', 'noun', 'C0028580', ['npop'], 0.0)||('angiography', 'noun', 'C0002978', ['diap'], 0.0)||('stated', 'verb', 'C1442792', ['ftcn'], 0.0)||(';', '', '', '', 0.0)||
('(', '', '', '', 0.0)||('3', '', '', '', 0.0)||(')', '', '', '', 0.0)||('clear', 'verb', 'C0522503', ['qlco'], 0.0)||('descriptions', '', '', '', 0.0)||('of', '', '', '', 0.0)||('imaging', 'adj', 'C0011923', ['diap'], 0.0)||('techniques', 'noun', 'C0025664', ['inpr'], 0.0)||(';', '', '', '', 0.0)||
('and', '', '', '', 0.0)||('(', '', '', '', 0.0)||('4', '', '', '', 0.0)||(')', '', '', '', 0.0)||('interval', 'noun', 'C1272706', ['tmco'], 0.0)||('between', '', '', '', 0.0)||('magnetic resonance', 'noun', 'C0028580', ['npop'], 0.0)||('angiography', 'noun', 'C0002978', ['diap'], 0.0)||('and', '', '', '', 0.0)||('catheter', 'noun', 'C0085590', ['medd'], 0.0)||('angiography', 'noun', 'C0002978', ['diap'], 0.0)||('<', '', '', '', 0.0)||('3', '', '', '', 0.0)||('months', 'noun', 'C0439231', ['tmco'], 0.0)||('and', '', '', '', 0.0)||('only', '', '', '', 0.0)||('the', '', '', '', 0.0)||('largest', 'adj', 'C0443228', ['qnco'], 0.0)||('of', '', '', '', 0.0)||('all', '', '', '', 0.0)||('studies', '', '', '', 0.0)||('from', '', '', '', 0.0)||('one', 'noun', 'C0205447', ['qnco'], 0.0)||('centre', '', '', '', 0.0)||('was', '', '', '', 0.0)||('selected', '', '', '', 0.0)||('in', '', '', '', 0.0)||('the', '', '', '', 0.0)||('analysis', 'noun', 'C0002778', ['lbpr'], 0.0)||('.', '', '', '', 0.0)||
('a', '', '', '', 0.0)||('total', 'noun', 'C0439810', ['qlco'], 0.0)||('of', '', '', '', 0.0)||('39', '', '', '', 0.0)||('studies', '', '', '', 0.0)||('were', '', '', '', 0.0)||('identified', 'verb', 'C0205396', ['qlco'], 0.0)||(',', '', '', '', 0.0)||('of', '', '', '', 0.0)||('which', '', '', '', 0.0)||('25', '', '', '', 0.0)||('met', '', '', '', 0.0)||('the', '', '', '', 0.0)||('inclusion', 'noun', 'C1512693', ['qlco'], 0.0)||('criteria', 'noun', 'C0243161', ['inpr'], 0.0)||('.', '', '', '', 0.0)||
('the', '', '', '', 0.0)||('number', 'noun', 'C0449788', ['qnco'], 0.0)||('of', '', '', '', 0.0)||('patients', 'noun', 'C0030705', ['podg'], 0.0)||('included', '', '', '', 0.0)||('in', '', '', '', 0.0)||('the', '', '', '', 0.0)||('meta - analysis', '', '', '', 0.0)||('was', '', '', '', 0.0)||('998', '', '', '', 0.0)||(':', '', '', '', 0.0)||('499', '', '', '', 0.0)||('with', '', '', '', 0.0)||('non - enhanced', '', '', '', 0.0)||('magnetic resonance', 'noun', 'C0028580', ['npop'], 0.0)||('angiography', 'noun', 'C0002978', ['diap'], 0.0)||('and', '', '', '', 0.0)||('499', '', '', '', 0.0)||('with', '', '', '', 0.0)||('gadolinium', 'noun', 'C0016911', ['elii', 'irda', 'phsu'], 0.0)||('-', '', '', '', 0.0)||('enhanced', 'adj', 'C2349975', ['acty'], 0.0)||('magnetic resonance', 'noun', 'C0028580', ['npop'], 0.0)||('angiography', 'noun', 'C0002978', ['diap'], 0.0)||('.', '', '', '', 0.0)||
('the', '', '', '', 0.0)||('sensitivity and specificity', 'noun', 'C0036668', ['qnco'], 0.0)||('of', '', '', '', 0.0)||('non - enhanced', '', '', '', 0.0)||('magnetic resonance', 'noun', 'C0028580', ['npop'], 0.0)||('angiography', 'noun', 'C0002978', ['diap'], 0.0)||('were', '', '', '', 0.0)||('94 %', '', '', '', 0.0)||('(', '', '', '', 0.0)||('95 %', '', '', '', 0.0)||('ci', 'noun', 'C1417638', ['gngm'], 0.0)||(':', '', '', '', 0.0)||('90', '', '', '', 0.0)||('-', '', '', '', 0.0)||('97 %', '', '', '', 0.0)||(')', '', '', '', 0.0)||('and', '', '', '', 0.0)||('85 %', '', '', '', 0.0)||('(', '', '', '', 0.0)||('95 %', '', '', '', 0.0)||('ci', 'noun', 'C1417638', ['gngm'], 0.0)||(':', '', '', '', 0.0)||('82', '', '', '', 0.0)||('-', '', '', '', 0.0)||('87 %', '', '', '', 0.0)||(')', '', '', '', 0.0)||(',', '', '', '', 0.0)||('respectively', '', '', '', 0.0)||('.', '', '', '', 0.0)||
('for', '', '', '', 0.0)||('gadolinium', 'noun', 'C0016911', ['elii', 'irda', 'phsu'], 0.0)||('-', '', '', '', 0.0)||('enhanced', 'adj', 'C2349975', ['acty'], 0.0)||('magnetic resonance', 'noun', 'C0028580', ['npop'], 0.0)||('angiography', 'noun', 'C0002978', ['diap'], 0.0)||('sensitivity', 'noun', 'C0036667', ['qnco'], 0.0)||('was', '', '', '', 0.0)||('97 %', '', '', '', 0.0)||('(', '', '', '', 0.0)||('95 %', '', '', '', 0.0)||('ci', 'noun', 'C1417638', ['gngm'], 0.0)||(':', '', '', '', 0.0)||('93', '', '', '', 0.0)||('-', '', '', '', 0.0)||('98 %', '', '', '', 0.0)||(')', '', '', '', 0.0)||('and', '', '', '', 0.0)||('specificity', 'noun', 'C0037791', ['qnco'], 0.0)||('was', '', '', '', 0.0)||('93 %', '', '', '', 0.0)||('(', '', '', '', 0.0)||('95 %', '', '', '', 0.0)||('ci', 'noun', 'C1417638', ['gngm'], 0.0)||(':', '', '', '', 0.0)||('91', '', '', '', 0.0)||('-', '', '', '', 0.0)||('95 %', '', '', '', 0.0)||(')', '', '', '', 0.0)||('.', '', '', '', 0.0)||
('thus', '', '', '', 0.0)||(',', '', '', '', 0.0)||('specificity', 'noun', 'C0037791', ['qnco'], 0.0)||('and', '', '', '', 0.0)||('positive predictive value', '', '', '', 0.0)||('were', '', '', '', 0.0)||('significantly', '', '', '', 0.0)||('better', 'adj', 'C0332272', ['qlco'], 0.0)||('for', '', '', '', 0.0)||('gadolinium', 'noun', 'C0016911', ['elii', 'irda', 'phsu'], 0.0)||('-', '', '', '', 0.0)||('enhanced', 'adj', 'C2349975', ['acty'], 0.0)||('magnetic resonance', 'noun', 'C0028580', ['npop'], 0.0)||('angiography', 'noun', 'C0002978', ['diap'], 0.0)||('(', '', '', '', 0.0)||('p', '', '', '', 0.0)||('<', '', '', '', 0.0)||('0 . 001', '', '', '', 0.0)||(')', '', '', '', 0.0)||('.', '', '', '', 0.0)||
('accessory', '', '', '', 0.0)||('renal arteries', 'noun', 'C0035065', ['bpoc'], 0.0)||('were', '', '', '', 0.0)||('depicted', '', '', '', 0.0)||('better', 'adv', 'C0332272', ['qlco'], 0.0)||('by', '', '', '', 0.0)||('gadolinium', 'noun', 'C0016911', ['elii', 'irda', 'phsu'], 0.0)||('-', '', '', '', 0.0)||('enhanced', 'adj', 'C2349975', ['acty'], 0.0)||('magnetic resonance', 'noun', 'C0028580', ['npop'], 0.0)||('angiography', 'noun', 'C0002978', ['diap'], 0.0)||('(', '', '', '', 0.0)||('82 %', '', '', '', 0.0)||(';', '', '', '', 0.0)||('95 %', '', '', '', 0.0)||('ci', 'noun', 'C1417638', ['gngm'], 0.0)||(':', '', '', '', 0.0)||('75', '', '', '', 0.0)||('-', '', '', '', 0.0)||('87 %', '', '', '', 0.0)||(')', '', '', '', 0.0)||('than', '', '', '', 0.0)||('non', 'noun', 'C1518422', ['ftcn'], 0.0)||('-', '', '', '', 0.0)||('gadolinium', 'noun', 'C0016911', ['elii', 'irda', 'phsu'], 0.0)||('magnetic resonance', 'noun', 'C0028580', ['npop'], 0.0)||('angiography', 'noun', 'C0002978', ['diap'], 0.0)||('(', '', '', '', 0.0)||('49 %', '', '', '', 0.0)||(';', '', '', '', 0.0)||('95 %', '', '', '', 0.0)||('ci', 'noun', 'C1417638', ['gngm'], 0.0)||(':', '', '', '', 0.0)||('42', '', '', '', 0.0)||('-', '', '', '', 0.0)||('60 %', '', '', '', 0.0)||(')', '', '', '', 0.0)||('(', '', '', '', 0.0)||('p', '', '', '', 0.0)||('<', '', '', '', 0.0)||('0 . 001', '', '', '', 0.0)||(')', '', '', '', 0.0)||('.', '', '', '', 0.0)||
('gadolinium', 'noun', 'C0016911', ['elii', 'irda', 'phsu'], 0.0)||('-', '', '', '', 0.0)||('enhanced', 'adj', 'C2349975', ['acty'], 0.0)||('magnetic resonance', 'noun', 'C0028580', ['npop'], 0.0)||('angiography', 'noun', 'C0002978', ['diap'], 0.0)||('may', '', '', '', 0.0)||('replace', 'verb', 'C1554078', ['idcn'], 0.0)||('arteriography', 'noun', 'C0003844', ['diap'], 0.0)||('in', '', '', '', 0.0)||('most', '', '', '', 0.0)||('patients', 'noun', 'C0030705', ['podg'], 0.0)||('with', '', '', '', 0.0)||('suspected', 'adj', 'C0332147', ['qlco'], 0.0)||('renal artery stenosis', 'noun', 'C0035067', ['dsyn'], 0.0)||(',', '', '', '', 0.0)||('and', '', '', '', 0.0)||('has', '', '', '', 0.0)||('major', 'adj', 'C0205164', ['qlco'], 0.0)||('advantages', '', '', '', 0.0)||('in', '', '', '', 0.0)||('that', '', '', '', 0.0)||('it', '', '', '', 0.0)||('is', '', '', '', 0.0)||('non - invasive', '', '', '', 0.0)||(',', '', '', '', 0.0)||('avoids', '', '', '', 0.0)||('ionizing radiation', '', '', '', 0.0)||('and', '', '', '', 0.0)||('uses', '', '', '', 0.0)||('a', '', '', '', 0.0)||('non - nephrotoxic', '', '', '', 0.0)||('contrast agent', 'noun', 'C0009924', ['irda'], 0.0)||('.', '', '', '', 0.0)||
