('to', '', '', '', 0.0)||('study', 'verb', 'C0008976', ['resa'], 0.0)||('awareness', 'noun', 'C0004448', ['menp'], 0.0)||('of', '', '', '', 0.0)||('urinary tract infections', '', '', '', 0.0)||('by', '', '', '', 0.0)||('determining', 'noun', 'C2004162', ['acty'], 0.0)||('the', '', '', '', 0.0)||('diagnostic', 'adj', 'C0011900', ['fndg'], 0.0)||('rate', 'noun', 'C0871208', ['acty'], 0.0)||('of', '', '', '', 0.0)||('first', 'adj', 'C0205435', ['qnco'], 0.0)||('uti', 'noun', 'C0042029', ['dsyn'], 0.0)||('in', '', '', '', 0.0)||('children', 'noun', 'C0008059', ['aggp'], 0.0)||('<', '', '', '', 0.0)||('2', '', '', '', 0.0)||('years', 'noun', 'C0439234', ['tmco'], 0.0)||('of', '', '', '', 0.0)||('age', 'noun', 'C0001779', ['orga'], 0.0)||('and', '', '', '', 0.0)||('to', '', '', '', 0.0)||('estimate', 'verb', 'C0750572', ['qnco'], 0.0)||('the', '', '', '', 0.0)||('minimum', 'noun', 'C1524031', ['qlco'], 0.0)||('incidence', 'noun', 'C0021149', ['qnco'], 0.0)||('.', '', '', '', 0.0)||
('twenty - six', '', '', '', 0.0)||('of', '', '', '', 0.0)||('a', '', '', '', 0.0)||('total', 'noun', 'C0439810', ['qlco'], 0.0)||('of', '', '', '', 0.0)||('43', '', '', '', 0.0)||('pediatric', 'adj', 'C1521725', ['qlco'], 0.0)||('centers', '', '', '', 0.0)||('participated', '', '', '', 0.0)||('in', '', '', '', 0.0)||('the', '', '', '', 0.0)||('study', 'noun', 'C0008976', ['resa'], 0.0)||('.', '', '', '', 0.0)||
('sixty', '', '', '', 0.0)||('-', '', '', '', 0.0)||('four', '', 'C0205450', ['qnco'], 0.0)||('percent', 'noun', 'C0439165', ['qnco'], 0.0)||('of', '', '', '', 0.0)||('the', '', '', '', 0.0)||('total', 'adj', 'C0439810', ['qlco'], 0.0)||('childhood', 'noun', 'C0231335', ['tmco'], 0.0)||('population', 'noun', 'C0032659', ['qnco'], 0.0)||('<', '', '', '', 0.0)||('2', '', '', '', 0.0)||('years', 'noun', 'C0439234', ['tmco'], 0.0)||('of', '', '', '', 0.0)||('age', 'noun', 'C0001779', ['orga'], 0.0)||('was', '', '', '', 0.0)||('covered', 'verb', 'C0439844', ['ftcn'], 0.0)||('.', '', '', '', 0.0)||
('the', '', '', '', 0.0)||('number', 'noun', 'C0449788', ['qnco'], 0.0)||('of', '', '', '', 0.0)||('all', '', '', '', 0.0)||('children', 'noun', 'C0008059', ['aggp'], 0.0)||('included', '', '', '', 0.0)||('in', '', '', '', 0.0)||('the', '', '', '', 0.0)||('study', 'noun', 'C0008976', ['resa'], 0.0)||('was', '', '', '', 0.0)||('used', '', '', '', 0.0)||('to', '', '', '', 0.0)||('calculate', 'verb', 'C1441506', ['acty'], 0.0)||('the', '', '', '', 0.0)||('diagnostic', 'adj', 'C0011900', ['fndg'], 0.0)||('rate', 'noun', 'C0871208', ['acty'], 0.0)||('.', '', '', '', 0.0)||
('only', '', '', '', 0.0)||('uti', 'noun', 'C0042029', ['dsyn'], 0.0)||('confirmed', 'verb', 'C0750484', ['idcn'], 0.0)||('by', '', '', '', 0.0)||('either', '', '', '', 0.0)||('suprapubic', 'adj', 'C0205498', ['spco'], 0.0)||('aspiration', 'noun', 'C0004048', ['orgf'], 0.0)||('(', '', '', '', 0.0)||('any', '', '', '', 0.0)||('growth', 'noun', 'C0018270', ['orgf'], 0.0)||(')', '', '', '', 0.0)||('or', '', '', '', 0.0)||('midstream', '', '', '', 0.0)||('or', '', '', '', 0.0)||('bag', 'noun', 'C0179196', ['mnob'], 0.0)||('samples', '', '', '', 0.0)||('with', '', '', '', 0.0)||('>', '', '', '', 0.0)||('/', '', '', '', 0.0)||('=', '', '', '', 0.0)||('100', '', '', '', 0.0)||('000', '', '', '', 0.0)||('bacteria', 'noun', 'C0004611', ['bact'], 0.0)||('/', '', '', '', 0.0)||('ml', '', '', '', 0.0)||(',', '', '', '', 0.0)||('together with', '', '', '', 0.0)||('a', '', '', '', 0.0)||('positive', 'adj', 'C1446409', ['qlco'], 0.0)||('nitrite', 'noun', 'C0028137', ['chvs'], 0.0)||('reaction', 'noun', 'C0443286', ['ftcn'], 0.0)||(',', '', '', '', 0.0)||('was', '', '', '', 0.0)||('used', '', '', '', 0.0)||('to', '', '', '', 0.0)||('estimate', 'verb', 'C0750572', ['qnco'], 0.0)||('the', '', '', '', 0.0)||('minimum', 'noun', 'C1524031', ['qlco'], 0.0)||('incidence', 'noun', 'C0021149', ['qnco'], 0.0)||('.', '', '', '', 0.0)||
('the', '', '', '', 0.0)||('mean', 'noun', 'C0444504', ['qnco'], 0.0)||('diagnostic', 'adj', 'C0011900', ['fndg'], 0.0)||('rate', 'noun', 'C0871208', ['acty'], 0.0)||('was', '', '', '', 0.0)||('1 . 5 %', '', '', '', 0.0)||('for', '', '', '', 0.0)||('boys', 'noun', 'C0870221', ['aggp'], 0.0)||('(', '', '', '', 0.0)||('range', 'noun', 'C1514721', ['qnco'], 0.0)||(',', '', '', '', 0.0)||('0 . 7 %', '', '', '', 0.0)||('-', '', '', '', 0.0)||('3 . 0 %', '', '', '', 0.0)||(')', '', '', '', 0.0)||('and', '', '', '', 0.0)||('1 . 7 %', '', '', '', 0.0)||('for', '', '', '', 0.0)||('girls', 'noun', 'C0870604', ['aggp'], 0.0)||('(', '', '', '', 0.0)||('range', 'noun', 'C1514721', ['qnco'], 0.0)||(',', '', '', '', 0.0)||('0 . 7 %', '', '', '', 0.0)||('-', '', '', '', 0.0)||('2 . 9 %', '', '', '', 0.0)||(')', '', '', '', 0.0)||('.', '', '', '', 0.0)||
('the', '', '', '', 0.0)||('diagnostic', 'adj', 'C0011900', ['fndg'], 0.0)||('rate', 'noun', 'C0871208', ['acty'], 0.0)||('was', '', '', '', 0.0)||('significantly', '', '', '', 0.0)||('higher', '', '', '', 0.0)||('in', '', '', '', 0.0)||('june', '', '', '', 0.0)||('than', '', '', '', 0.0)||('in', '', '', '', 0.0)||('december', '', '', '', 0.0)||('.', '', '', '', 0.0)||
('the', '', '', '', 0.0)||('mean', 'noun', 'C0444504', ['qnco'], 0.0)||('incidence', 'noun', 'C0021149', ['qnco'], 0.0)||('was', '', '', '', 0.0)||('1 . 0 %', '', '', '', 0.0)||('for', '', '', '', 0.0)||('both', '', '', '', 0.0)||('boys', 'noun', 'C0870221', ['aggp'], 0.0)||('and', '', '', '', 0.0)||('girls', 'noun', 'C0870604', ['aggp'], 0.0)||('(', '', '', '', 0.0)||('range', 'noun', 'C1514721', ['qnco'], 0.0)||(',', '', '', '', 0.0)||('0 . 3 %', '', '', '', 0.0)||('-', '', '', '', 0.0)||('3 . 0 %', '', '', '', 0.0)||('and', '', '', '', 0.0)||('0 . 4 %', '', '', '', 0.0)||('-', '', '', '', 0.0)||('2 . 9 %', '', '', '', 0.0)||(',', '', '', '', 0.0)||('respectively', '', '', '', 0.0)||(')', '', '', '', 0.0)||('.', '', '', '', 0.0)||
('the', '', '', '', 0.0)||('minimum', 'noun', 'C1524031', ['qlco'], 0.0)||('cumulative', 'adj', 'C1511559', ['qlco'], 0.0)||('incidence', 'noun', 'C0021149', ['qnco'], 0.0)||('at 2', '', '', '', 0.0)||('years', 'noun', 'C0439234', ['tmco'], 0.0)||('of', '', '', '', 0.0)||('age', 'noun', 'C0001779', ['orga'], 0.0)||('was', '', '', '', 0.0)||('estimated', 'verb', 'C0750572', ['qnco'], 0.0)||('to', '', '', '', 0.0)||('be', '', '', '', 0.0)||('2 . 2 %', '', '', '', 0.0)||('for', '', '', '', 0.0)||('boys', 'noun', 'C0870221', ['aggp'], 0.0)||('and', '', '', '', 0.0)||('2 . 1 %', '', '', '', 0.0)||('for', '', '', '', 0.0)||('girls', 'noun', 'C0870604', ['aggp'], 0.0)||('.', '', '', '', 0.0)||
('this', '', '', '', 0.0)||('study', 'noun', 'C0008976', ['resa'], 0.0)||('suggests', '', '', '', 0.0)||('a', '', '', '', 0.0)||('high', 'adj', 'C0205250', ['qlco'], 0.0)||('uti', 'noun', 'C0042029', ['dsyn'], 0.0)||('awareness', 'noun', 'C0004448', ['menp'], 0.0)||('in', '', '', '', 0.0)||('sweden', 'noun', 'C0038995', ['geoa'], 0.0)||('as', '', '', '', 0.0)||('indicated', 'verb', 'C1444656', ['fndg'], 0.0)||('by', '', '', '', 0.0)||('a', '', '', '', 0.0)||('higher', '', '', '', 0.0)||('diagnostic', 'adj', 'C0011900', ['fndg'], 0.0)||('rate', 'noun', 'C0871208', ['acty'], 0.0)||('and', '', '', '', 0.0)||(',', '', '', '', 0.0)||('despite', '', '', '', 0.0)||('stricter', '', '', '', 0.0)||('diagnostic', 'adj', 'C0011900', ['fndg'], 0.0)||('criteria', 'noun', 'C0243161', ['inpr'], 0.0)||(',', '', '', '', 0.0)||('a', '', '', '', 0.0)||('higher', '', '', '', 0.0)||('incidence', 'noun', 'C0021149', ['qnco'], 0.0)||('of', '', '', '', 0.0)||('uti', 'noun', 'C0042029', ['dsyn'], 0.0)||('in', '', '', '', 0.0)||('children', 'noun', 'C0008059', ['aggp'], 0.0)||('<', '', '', '', 0.0)||('2', '', '', '', 0.0)||('years', 'noun', 'C0439234', ['tmco'], 0.0)||('of', '', '', '', 0.0)||('age', 'noun', 'C0001779', ['orga'], 0.0)||('than', '', '', '', 0.0)||('previously', '', '', '', 0.0)||('reported', 'verb', 'C0684224', ['inpr'], 0.0)||('.', '', '', '', 0.0)||
('it', '', '', '', 0.0)||('is', '', '', '', 0.0)||('suggested', '', '', '', 0.0)||('that', '', '', '', 0.0)||('a', '', '', '', 0.0)||('high', 'adj', 'C0205250', ['qlco'], 0.0)||('uti', 'noun', 'C0042029', ['dsyn'], 0.0)||('awareness', 'noun', 'C0004448', ['menp'], 0.0)||('may', '', '', '', 0.0)||('reduce', '', '', '', 0.0)||('chronic renal failure', '', '', '', 0.0)||('because of', '', '', '', 0.0)||('pyelonephritic', '', '', '', 0.0)||('renal scarring', 'noun', 'C1700247', ['fndg'], 0.0)||('.', '', '', '', 0.0)||
