('to', '', '', '', 0.0)||('estimate', 'verb', 'C0750572', ['qnco'], 0.0)||('the', '', '', '', 0.0)||('effect', 'noun', 'C1280500', ['qlco'], 0.0)||('of', '', '', '', 0.0)||('body mass index', 'noun', 'C0005893', ['diap'], 0.0)||('and', '', '', '', 0.0)||('weight', 'noun', 'C0005910', ['orga'], 0.0)||('on', '', '', '', 0.0)||('risk', 'noun', 'C0035647', ['qlco'], 0.0)||('of', '', '', '', 0.0)||('pregnancy', 'noun', 'C0032961', ['orgf'], 0.0)||('while', '', '', '', 0.0)||('using', 'verb', 'C1524063', ['ftcn'], 0.0)||('oral contraceptives', 'noun', 'C1548892', ['hlca'], 0.0)||('.', '', '', '', 0.0)||
('we', '', '', '', 0.0)||('conducted', '', '', '', 0.0)||('a', '', '', '', 0.0)||('case - control study', '', '', '', 0.0)||('of', '', '', '', 0.0)||('248', '', '', '', 0.0)||('health maintenance organization', 'noun', 'C0018720', ['hcro', 'mnob'], 0.0)||('enrollees', '', '', '', 0.0)||('who', '', '', '', 0.0)||('became', '', '', '', 0.0)||('pregnant', 'adj', 'C0549206', ['fndg'], 0.0)||('while', '', '', '', 0.0)||('using', 'verb', 'C1524063', ['ftcn'], 0.0)||('oral contraceptives', 'noun', 'C1548892', ['hlca'], 0.0)||('between', '', '', '', 0.0)||('1998', '', '', '', 0.0)||('and', '', '', '', 0.0)||('2001', '', '', '', 0.0)||('and', '', '', '', 0.0)||('533', '', '', '', 0.0)||('age - matched', '', '', '', 0.0)||('enrollees', '', '', '', 0.0)||('who', '', '', '', 0.0)||('were', '', '', '', 0.0)||('nonpregnant', '', '', '', 0.0)||('oc', 'noun', 'C0029151', ['topp'], 0.0)||('users', 'noun', 'C1706077', ['humn'], 0.0)||('during', '', '', '', 0.0)||('the', '', '', '', 0.0)||('same', 'adj', 'C0445247', ['qlco'], 0.0)||('period', 'noun', 'C1948053', ['tmco'], 0.0)||('.', '', '', '', 0.0)||
('using', 'verb', 'C1524063', ['ftcn'], 0.0)||('logistic regression', 'noun', 'C0206031', ['resa'], 0.0)||('we', '', '', '', 0.0)||('calculated', 'verb', 'C0444686', ['ftcn'], 0.0)||('adjusted odds ratios', '', '', '', 0.0)||('to', '', '', '', 0.0)||('estimate', 'verb', 'C0750572', ['qnco'], 0.0)||('the', '', '', '', 0.0)||('risk', 'noun', 'C0035647', ['qlco'], 0.0)||('of', '', '', '', 0.0)||('pregnancy', 'noun', 'C0032961', ['orgf'], 0.0)||('according to', '', '', '', 0.0)||('body mass index', 'noun', 'C0005893', ['diap'], 0.0)||('and', '', '', '', 0.0)||('weight', 'noun', 'C0005910', ['orga'], 0.0)||('quartile', '', '', '', 0.0)||('.', '', '', '', 0.0)||
('among', '', '', '', 0.0)||('all', '', '', '', 0.0)||('oc', 'noun', 'C0029151', ['topp'], 0.0)||('users', 'noun', 'C1706077', ['humn'], 0.0)||(',', '', '', '', 0.0)||('when', '', '', '', 0.0)||('compared', 'verb', 'C1707455', ['acty'], 0.0)||('with', '', '', '', 0.0)||('women', 'noun', 'C0043210', ['popg'], 0.0)||('having', '', '', '', 0.0)||('a', '', '', '', 0.0)||('body mass index', 'noun', 'C0005893', ['diap'], 0.0)||('of', '', '', '', 0.0)||('27 . 3', '', '', '', 0.0)||('or', '', '', '', 0.0)||('less', '', '', '', 0.0)||(',', '', '', '', 0.0)||('the', '', '', '', 0.0)||('risk', 'noun', 'C0035647', ['qlco'], 0.0)||('of', '', '', '', 0.0)||('pregnancy', 'noun', 'C0032961', ['orgf'], 0.0)||('was', '', '', '', 0.0)||('nearly', '', '', '', 0.0)||('60 %', '', '', '', 0.0)||('higher', '', '', '', 0.0)||('in', '', '', '', 0.0)||('women', 'noun', 'C0043210', ['popg'], 0.0)||('with', '', '', '', 0.0)||('body mass index', 'noun', 'C0005893', ['diap'], 0.0)||('greater', 'adj', 'C1704243', ['qnco'], 0.0)||('than', '', '', '', 0.0)||('27 . 3', '', '', '', 0.0)||('(', '', '', '', 0.0)||('or', '', '', '', 0.0)||('1 . 58', '', '', '', 0.0)||(',', '', '', '', 0.0)||('95 %', '', '', '', 0.0)||('confidence interval', 'noun', 'C0009667', ['qnco'], 0.0)||('1 . 11', '', '', '', 0.0)||('-', '', '', '', 0.0)||('2 . 24', '', '', '', 0.0)||(')', '', '', '', 0.0)||('and', '', '', '', 0.0)||('over', 'adv', 'C0205136', ['spco'], 0.0)||('70 %', '', '', '', 0.0)||('higher', '', '', '', 0.0)||('in', '', '', '', 0.0)||('women', 'noun', 'C0043210', ['popg'], 0.0)||('with', '', '', '', 0.0)||('body mass index', 'noun', 'C0005893', ['diap'], 0.0)||('greater', 'adj', 'C1704243', ['qnco'], 0.0)||('than', '', '', '', 0.0)||('32 . 2', '', '', '', 0.0)||('(', '', '', '', 0.0)||('or', '', '', '', 0.0)||('1 . 72', '', '', '', 0.0)||(',', '', '', '', 0.0)||('95 %', '', '', '', 0.0)||('confidence interval', 'noun', 'C0009667', ['qnco'], 0.0)||('1 . 04', '', '', '', 0.0)||('-', '', '', '', 0.0)||('2 . 82', '', '', '', 0.0)||(')', '', '', '', 0.0)||('.', '', '', '', 0.0)||
('among', '', '', '', 0.0)||('consistent', 'adj', 'C0332290', ['idcn'], 0.0)||('users', 'noun', 'C1706077', ['humn'], 0.0)||('(', '', '', '', 0.0)||('women', 'noun', 'C0043210', ['popg'], 0.0)||('who', '', '', '', 0.0)||('missed', 'verb', 'C1705492', ['qlco'], 0.0)||('no', '', '', '', 0.0)||('pills', '', '', '', 0.0)||('in', '', '', '', 0.0)||('reference', 'noun', 'C1514811', ['idcn'], 0.0)||('month', 'noun', 'C0439231', ['tmco'], 0.0)||(')', '', '', '', 0.0)||(',', '', '', '', 0.0)||('the', '', '', '', 0.0)||('risk', 'noun', 'C0035647', ['qlco'], 0.0)||('of', '', '', '', 0.0)||('pregnancy', 'noun', 'C0032961', ['orgf'], 0.0)||('was', '', '', '', 0.0)||('more', '', '', '', 0.0)||('than', '', '', '', 0.0)||('doubled', '', '', '', 0.0)||('in', '', '', '', 0.0)||('women', 'noun', 'C0043210', ['popg'], 0.0)||('with', '', '', '', 0.0)||('body mass index', 'noun', 'C0005893', ['diap'], 0.0)||('greater', 'adj', 'C1704243', ['qnco'], 0.0)||('than', '', '', '', 0.0)||('27 . 3', '', '', '', 0.0)||('(', '', '', '', 0.0)||('or', '', '', '', 0.0)||('2 . 17', '', '', '', 0.0)||(',', '', '', '', 0.0)||('95 %', '', '', '', 0.0)||('confidence interval', 'noun', 'C0009667', ['qnco'], 0.0)||('1 . 38', '', '', '', 0.0)||('-', '', '', '', 0.0)||('3 . 41', '', '', '', 0.0)||(')', '', '', '', 0.0)||('or', '', '', '', 0.0)||('body mass index', 'noun', 'C0005893', ['diap'], 0.0)||('greater', 'adj', 'C1704243', ['qnco'], 0.0)||('than', '', '', '', 0.0)||('32 . 2', '', '', '', 0.0)||('(', '', '', '', 0.0)||('or', '', '', '', 0.0)||('2 . 22', '', '', '', 0.0)||(',', '', '', '', 0.0)||('95 %', '', '', '', 0.0)||('confidence interval', 'noun', 'C0009667', ['qnco'], 0.0)||('1 . 18', '', '', '', 0.0)||('-', '', '', '', 0.0)||('4 . 20', '', '', '', 0.0)||(')', '', '', '', 0.0)||('.', '', '', '', 0.0)||
('when', '', '', '', 0.0)||('compared', 'verb', 'C1707455', ['acty'], 0.0)||('with', '', '', '', 0.0)||('women', 'noun', 'C0043210', ['popg'], 0.0)||('weighing', 'verb', 'C1305866', ['diap'], 0.0)||('74 . 8', '', '', '', 0.0)||('kg', 'noun', 'C0022718', ['geoa'], 0.0)||('or', '', '', '', 0.0)||('less', '', '', '', 0.0)||(',', '', '', '', 0.0)||('among', '', '', '', 0.0)||('consistent', 'adj', 'C0332290', ['idcn'], 0.0)||('oc', 'noun', 'C0029151', ['topp'], 0.0)||('users', 'noun', 'C1706077', ['humn'], 0.0)||('the', '', '', '', 0.0)||('risk', 'noun', 'C0035647', ['qlco'], 0.0)||('of', '', '', '', 0.0)||('pregnancy', 'noun', 'C0032961', ['orgf'], 0.0)||('was', '', '', '', 0.0)||('over', 'adv', 'C0205136', ['spco'], 0.0)||('70 %', '', '', '', 0.0)||('higher', '', '', '', 0.0)||('in', '', '', '', 0.0)||('women', 'noun', 'C0043210', ['popg'], 0.0)||('weighing', 'verb', 'C1305866', ['diap'], 0.0)||('more', '', '', '', 0.0)||('than', '', '', '', 0.0)||('74 . 8', '', '', '', 0.0)||('kg', 'noun', 'C0022718', ['geoa'], 0.0)||('(', '', '', '', 0.0)||('or', '', '', '', 0.0)||('1 . 71', '', '', '', 0.0)||(',', '', '', '', 0.0)||('95 %', '', '', '', 0.0)||('confidence interval', 'noun', 'C0009667', ['qnco'], 0.0)||('1 . 08', '', '', '', 0.0)||('-', '', '', '', 0.0)||('2 . 71', '', '', '', 0.0)||(')', '', '', '', 0.0)||('and', '', '', '', 0.0)||('nearly', '', '', '', 0.0)||('doubled', '', '', '', 0.0)||('in', '', '', '', 0.0)||('women', 'noun', 'C0043210', ['popg'], 0.0)||('weighing', 'verb', 'C1305866', ['diap'], 0.0)||('more', '', '', '', 0.0)||('than', '', '', '', 0.0)||('86 . 2', '', '', '', 0.0)||('kg', 'noun', 'C0022718', ['geoa'], 0.0)||('(', '', '', '', 0.0)||('or', '', '', '', 0.0)||('1 . 95', '', '', '', 0.0)||(',', '', '', '', 0.0)||('95 %', '', '', '', 0.0)||('confidence interval', 'noun', 'C0009667', ['qnco'], 0.0)||('1 . 06', '', '', '', 0.0)||('-', '', '', '', 0.0)||('3 . 67', '', '', '', 0.0)||(')', '', '', '', 0.0)||('.', '', '', '', 0.0)||
('our', '', '', '', 0.0)||('results', 'noun', 'C1274040', ['ftcn'], 0.0)||('suggest', 'verb', 'C1705535', ['idcn'], 0.0)||('that', '', '', '', 0.0)||('being', '', '', '', 0.0)||('overweight', 'noun', 'C0497406', ['sosy'], 0.0)||('may', '', '', '', 0.0)||('increase', 'verb', 'C0442805', ['ftcn'], 0.0)||('the', '', '', '', 0.0)||('risk', 'noun', 'C0035647', ['qlco'], 0.0)||('of', '', '', '', 0.0)||('becoming', '', '', '', 0.0)||('pregnant', 'adj', 'C0549206', ['fndg'], 0.0)||('while', '', '', '', 0.0)||('using', 'verb', 'C1524063', ['ftcn'], 0.0)||('oral contraceptives', 'noun', 'C1548892', ['hlca'], 0.0)||('.', '', '', '', 0.0)||
('if', '', '', '', 0.0)||('causal', '', '', '', 0.0)||(',', '', '', '', 0.0)||('this', '', '', '', 0.0)||('association', 'noun', 'C0004083', ['menp'], 0.0)||('translates', '', '', '', 0.0)||('to', '', '', '', 0.0)||('an', '', '', '', 0.0)||('additional', 'adj', 'C1524062', ['ftcn'], 0.0)||('2', '', '', '', 0.0)||('-', '', '', '', 0.0)||('4', '', '', '', 0.0)||('pregnancies', 'noun', 'C0032961', ['orgf'], 0.0)||('per', '', '', '', 0.0)||('100', '', '', '', 0.0)||('woman', 'noun', 'C0043210', ['popg'], 0.0)||('-', '', '', '', 0.0)||('years', 'noun', 'C0439234', ['tmco'], 0.0)||('of', '', '', '', 0.0)||('use', 'noun', 'C0042153', ['ftcn'], 0.0)||('among', '', '', '', 0.0)||('overweight', 'adj', 'C0497406', ['sosy'], 0.0)||('women', 'noun', 'C0043210', ['popg'], 0.0)||(',', '', '', '', 0.0)||('for', '', '', '', 0.0)||('whom', '', '', '', 0.0)||('consideration', 'noun', 'C0518609', ['fndg'], 0.0)||('of', '', '', '', 0.0)||('additional', 'adj', 'C1524062', ['ftcn'], 0.0)||('or', '', '', '', 0.0)||('effective', 'adj', 'C1704419', ['qlco'], 0.0)||('alternative', 'adj', 'C1523987', ['cnce'], 0.0)||('contraceptive', 'adj', 'C0009871', ['phsu'], 0.0)||('methods', 'noun', 'C0025663', ['inpr'], 0.0)||('may', '', '', '', 0.0)||('be', '', '', '', 0.0)||('warranted', '', '', '', 0.0)||('.', '', '', '', 0.0)||
