('these', '', '', '', 0.0)||('guidelines', 'noun', 'C0162791', ['inpr'], 0.0)||('for', '', '', '', 0.0)||('the', '', '', '', 0.0)||('treatment', 'noun', 'C0039798', ['ftcn'], 0.0)||('of', '', '', '', 0.0)||('patients', 'noun', 'C0030705', ['podg'], 0.0)||('who', '', '', '', 0.0)||('have', '', '', '', 0.0)||('sexually transmitted diseases', 'noun', 'C0036916', ['dsyn'], 0.0)||('were', '', '', '', 0.0)||('developed', '', '', '', 0.0)||('by', '', '', '', 0.0)||('the', '', '', '', 0.0)||('centers for disease control and prevention', 'noun', 'C0007670', ['hcro'], 0.0)||('(', '', '', '', 0.0)||('cdc', 'noun', 'C0007670', ['hcro'], 0.0)||(')', '', '', '', 0.0)||('after', '', '', '', 0.0)||('consultation', 'noun', 'C0009818', ['hlca'], 0.0)||('with', '', '', '', 0.0)||('a', '', '', '', 0.0)||('group', 'noun', 'C0441833', ['idcn'], 0.0)||('of', '', '', '', 0.0)||('professionals', '', '', '', 0.0)||('knowledgeable', 'adj', 'C0562354', ['fndg'], 0.0)||('in the field', '', '', '', 0.0)||('of', '', '', '', 0.0)||('sexually transmitted diseases', 'noun', 'C0036916', ['dsyn'], 0.0)||('who', '', '', '', 0.0)||('met', '', '', '', 0.0)||('in', '', '', '', 0.0)||('atlanta', '', '', '', 0.0)||('on', '', '', '', 0.0)||('september', '', '', '', 0.0)||('26', '', '', '', 0.0)||('-', '', '', '', 0.0)||('28', '', '', '', 0.0)||(',', '', '', '', 0.0)||('2000', '', '', '', 0.0)||('.', '', '', '', 0.0)||
('the', '', '', '', 0.0)||('information', 'noun', 'C1533716', ['idcn'], 0.0)||('in', '', '', '', 0.0)||('this', '', '', '', 0.0)||('report', 'noun', 'C0684224', ['inpr'], 0.0)||('updates', '', '', '', 0.0)||('the', '', '', '', 0.0)||('1998', '', '', '', 0.0)||('guidelines', 'noun', 'C0162791', ['inpr'], 0.0)||('for', '', '', '', 0.0)||('treatment', 'noun', 'C0039798', ['ftcn'], 0.0)||('of', '', '', '', 0.0)||('sexually transmitted diseases', 'noun', 'C0036916', ['dsyn'], 0.0)||('(', '', '', '', 0.0)||('mmwr', '', '', '', 0.0)||('1998', '', '', '', 0.0)||(';', '', '', '', 0.0)||('47', '', '', '', 0.0)||('[', '', '', '', 0.0)||('no', '', '', '', 0.0)||('.', '', '', '', 0.0)||('rr', 'noun', 'C0231832', ['clna'], 0.0)||('-', '', '', '', 0.0)||('1', '', '', '', 0.0)||(']', '', '', '', 0.0)||(')', '', '', '', 0.0)||('.', '', '', '', 0.0)||
('included', '', '', '', 0.0)||('in', '', '', '', 0.0)||('these', '', '', '', 0.0)||('updated', '', '', '', 0.0)||('guidelines', 'noun', 'C0162791', ['inpr'], 0.0)||('are', '', '', '', 0.0)||('new', 'adj', 'C0205314', ['tmco'], 0.0)||('alternative', 'adj', 'C1523987', ['cnce'], 0.0)||('regimens', '', '', '', 0.0)||('for', '', '', '', 0.0)||('scabies', 'noun', 'C0036262', ['dsyn'], 0.0)||(',', '', '', '', 0.0)||('bacterial vaginosis', 'noun', 'C0085166', ['dsyn'], 0.0)||(',', '', '', '', 0.0)||('early syphilis', 'noun', 'C0348148', ['dsyn'], 0.0)||(',', '', '', '', 0.0)||('and', '', '', '', 0.0)||('granuloma inguinale', 'noun', 'C0018190', ['dsyn'], 0.0)||(';', '', '', '', 0.0)||
('an', '', '', '', 0.0)||('expanded', '', '', '', 0.0)||('section', 'noun', 'C0205155', ['spco'], 0.0)||('on', '', '', '', 0.0)||('the', '', '', '', 0.0)||('diagnosis', 'noun', 'C0011900', ['fndg'], 0.0)||('of', '', '', '', 0.0)||('genital herpes', 'noun', 'C0019342', ['dsyn'], 0.0)||('(', '', '', '', 0.0)||('including', '', '', '', 0.0)||('type - specific', '', '', '', 0.0)||('serologic tests', 'noun', 'C0036743', ['lbpr'], 0.0)||(')', '', '', '', 0.0)||(';', '', '', '', 0.0)||
('new', 'adj', 'C0205314', ['tmco'], 0.0)||('recommendations', 'noun', 'C0034866', ['idcn'], 0.0)||('for', '', '', '', 0.0)||('treatment', 'noun', 'C0039798', ['ftcn'], 0.0)||('of', '', '', '', 0.0)||('recurrent', 'adj', 'C0034897', ['phpr'], 0.0)||('genital herpes', 'noun', 'C0019342', ['dsyn'], 0.0)||('among', '', '', '', 0.0)||('persons', 'noun', 'C0027361', ['popg'], 0.0)||('infected', 'verb', 'C0439663', ['ftcn'], 0.0)||('with', '', '', '', 0.0)||('human immunodeficiency virus', 'noun', 'C0019682', ['virs'], 0.0)||(';', '', '', '', 0.0)||
('a', '', '', '', 0.0)||('revised', 'adj', 'C1527075', ['ftcn'], 0.0)||('approach', 'noun', 'C0449445', ['spco'], 0.0)||('to', '', '', '', 0.0)||('the', '', '', '', 0.0)||('management', 'noun', 'C0001554', ['ocac'], 0.0)||('of', '', '', '', 0.0)||('victims', '', '', '', 0.0)||('of', '', '', '', 0.0)||('sexual', 'adj', 'C0036864', ['bhvr'], 0.0)||('assault', 'noun', 'C0004063', ['inpo'], 0.0)||(';', '', '', '', 0.0)||
('expanded', '', '', '', 0.0)||('regimens', '', '', '', 0.0)||('for', '', '', '', 0.0)||('the', '', '', '', 0.0)||('treatment', 'noun', 'C0039798', ['ftcn'], 0.0)||('of', '', '', '', 0.0)||('urethral', 'adj', 'C0041967', ['bpoc'], 0.0)||('meatal', '', '', '', 0.0)||('warts', 'noun', 'C0043037', ['dsyn'], 0.0)||(';', '', '', '', 0.0)||
('and', '', '', '', 0.0)||('inclusion', 'noun', 'C1512693', ['qlco'], 0.0)||('of', '', '', '', 0.0)||('hepatitis c', 'noun', 'C0019196', ['dsyn'], 0.0)||('as', '', '', '', 0.0)||('a', '', '', '', 0.0)||('sexually', 'adv', 'C0036864', ['bhvr'], 0.0)||('transmitted', 'adj', 'C0242781', ['patf'], 0.0)||('infection', 'noun', 'C0021311', ['dsyn'], 0.0)||('.', '', '', '', 0.0)||
('in', '', '', '', 0.0)||('addition', 'noun', 'C1883712', ['ftcn'], 0.0)||(',', '', '', '', 0.0)||('these', '', '', '', 0.0)||('guidelines', 'noun', 'C0162791', ['inpr'], 0.0)||('emphasize', '', '', '', 0.0)||('education', 'noun', 'C0013621', ['edac'], 0.0)||('and', '', '', '', 0.0)||('counseling', 'noun', 'C0010210', ['hlca'], 0.0)||('for', '', '', '', 0.0)||('persons', 'noun', 'C0027361', ['popg'], 0.0)||('infected', 'verb', 'C0439663', ['ftcn'], 0.0)||('with', '', '', '', 0.0)||('human papillomavirus', 'noun', 'C0021344', ['virs'], 0.0)||(',', '', '', '', 0.0)||('clarify', '', '', '', 0.0)||('the', '', '', '', 0.0)||('diagnostic', 'adj', 'C0011900', ['fndg'], 0.0)||('evaluation', 'noun', 'C0220825', ['ftcn'], 0.0)||('of', '', '', '', 0.0)||('congenital syphilis', '', '', '', 0.0)||(',', '', '', '', 0.0)||('and', '', '', '', 0.0)||('present', 'adj', 'C0150312', ['qnco'], 0.0)||('information', 'noun', 'C1533716', ['idcn'], 0.0)||('regarding', '', '', '', 0.0)||('the', '', '', '', 0.0)||('emergence', '', '', '', 0.0)||('of', '', '', '', 0.0)||('quinolone', '', '', '', 0.0)||('-', '', '', '', 0.0)||('resistant', 'adj', 'C0332325', ['ftcn'], 0.0)||('neisseria gonorrhoeae', '', '', '', 0.0)||('and', '', '', '', 0.0)||('implications', '', '', '', 0.0)||('for', '', '', '', 0.0)||('treatment', 'noun', 'C0039798', ['ftcn'], 0.0)||('.', '', '', '', 0.0)||
('recommendations', 'noun', 'C0034866', ['idcn'], 0.0)||('also', '', '', '', 0.0)||('are', '', '', '', 0.0)||('provided', '', '', '', 0.0)||('for', '', '', '', 0.0)||('vaccine', 'noun', 'C0042210', ['imft', 'phsu'], 0.0)||('-', '', '', '', 0.0)||('preventable', 'adj', 'C1547273', ['inpr'], 0.0)||('sexually transmitted diseases', 'noun', 'C0036916', ['dsyn'], 0.0)||(',', '', '', '', 0.0)||('including', '', '', '', 0.0)||('hepatitis a', 'noun', 'C0019159', ['dsyn'], 0.0)||('and', '', '', '', 0.0)||('hepatitis b', 'noun', 'C0019163', ['dsyn'], 0.0)||('.', '', '', '', 0.0)||
