('detection', 'noun', 'C1511790', ['topp'], 0.0)||('methods', 'noun', 'C0025663', ['inpr'], 0.0)||('include', 'verb', 'C1552866', ['idcn'], 0.0)||('the', '', '', '', 0.0)||('tzanck smear', 'noun', 'C0200968', ['lbpr'], 0.0)||(',', '', '', '', 0.0)||('which', '', '', '', 0.0)||('is', '', '', '', 0.0)||('only', '', '', '', 0.0)||('40 %', '', '', '', 0.0)||('to', '', '', '', 0.0)||('50 %', '', '', '', 0.0)||('sensitive', 'adj', 'C0332324', ['ftcn'], 0.0)||('compared', 'verb', 'C1707455', ['acty'], 0.0)||('with', '', '', '', 0.0)||('culture', 'noun', 'C0010453', ['idcn'], 0.0)||(',', '', '', '', 0.0)||('and', '', '', '', 0.0)||('the', '', '', '', 0.0)||('pap smear', 'noun', 'C0079104', ['diap'], 0.0)||(',', '', '', '', 0.0)||('which', '', '', '', 0.0)||('is', '', '', '', 0.0)||('60 %', '', '', '', 0.0)||('to', '', '', '', 0.0)||('70 %', '', '', '', 0.0)||('sensitive', 'adj', 'C0332324', ['ftcn'], 0.0)||('.', '', '', '', 0.0)||
('these', '', '', '', 0.0)||('tests', 'noun', 'C0022885', ['lbpr'], 0.0)||('should', '', '', '', 0.0)||('not', 'adv', 'C1518422', ['ftcn'], 0.0)||('be', '', '', '', 0.0)||('the', '', '', '', 0.0)||('sole', 'adj', 'C0230463', ['blor'], 0.0)||('method', 'noun', 'C0025663', ['inpr'], 0.0)||('for', '', '', '', 0.0)||('the', '', '', '', 0.0)||('diagnosis', 'noun', 'C0011900', ['fndg'], 0.0)||('of', '', '', '', 0.0)||('hsv', 'noun', 'C0206558', ['virs'], 0.0)||('.', '', '', '', 0.0)||
('they', '', '', '', 0.0)||('cannot', '', '', '', 0.0)||('differentiate', '', '', '', 0.0)||('between', '', '', '', 0.0)||('hsv 1', '', '', '', 0.0)||('and', '', '', '', 0.0)||('hsv', 'noun', 'C0206558', ['virs'], 0.0)||('2', '', '', '', 0.0)||(';', '', '', '', 0.0)||
('furthermore', '', '', '', 0.0)||(',', '', '', '', 0.0)||('the', '', '', '', 0.0)||('tzanck', '', '', '', 0.0)||('prep', 'noun', 'C1418885', ['gngm'], 0.0)||('will', '', '', '', 0.0)||('give', 'verb', 'C1947971', ['ftcn'], 0.0)||('a', '', '', '', 0.0)||('positive', 'noun', 'C1446409', ['qlco'], 0.0)||('result', 'verb', 'C1274040', ['ftcn'], 0.0)||('if', '', '', '', 0.0)||('varicella zoster virus', '', '', '', 0.0)||('is', '', '', '', 0.0)||('present', 'adj', 'C0150312', ['qnco'], 0.0)||('.', '', '', '', 0.0)||
('if', '', '', '', 0.0)||('these', '', '', '', 0.0)||('tests', 'noun', 'C0022885', ['lbpr'], 0.0)||('are', '', '', '', 0.0)||('positive', 'adj', 'C1446409', ['qlco'], 0.0)||(',', '', '', '', 0.0)||('confirmatory', 'adj', 'C0750484', ['idcn'], 0.0)||('testing', 'noun', 'C0039593', ['ftcn'], 0.0)||('specific', 'adj', 'C0205369', ['qlco'], 0.0)||('for', '', '', '', 0.0)||('hsv', 'noun', 'C0206558', ['virs'], 0.0)||('should', '', '', '', 0.0)||('be', '', '', '', 0.0)||('performed', 'verb', 'C0884358', ['ftcn'], 0.0)||('.', '', '', '', 0.0)||
