('our', '', '', '', 0.0)||('purpose', 'noun', 'C1285529', ['ftcn'], 0.0)||('was', '', '', '', 0.0)||('to', '', '', '', 0.0)||('compare', 'verb', 'C1707455', ['acty'], 0.0)||('the', '', '', '', 0.0)||('controlled', 'adj', 'C2587213', ['ftcn'], 0.0)||('cord', 'noun', 'C1550235', ['bpoc'], 0.0)||('traction', 'noun', 'C0040597', ['topp'], 0.0)||('technique', 'noun', 'C0449851', ['ftcn'], 0.0)||('with', '', '', '', 0.0)||('the', '', '', '', 0.0)||('minimal', 'adj', 'C0547040', ['qlco'], 0.0)||('intervention', 'noun', 'C1273869', ['hlca'], 0.0)||('technique', 'noun', 'C0449851', ['ftcn'], 0.0)||('for', '', '', '', 0.0)||('delivery', 'noun', 'C0011209', ['topp'], 0.0)||('of', '', '', '', 0.0)||('the', '', '', '', 0.0)||('placenta', 'noun', 'C0032043', ['emst'], 0.0)||('.', '', '', '', 0.0)||
('the', '', '', '', 0.0)||('primary', 'adj', 'C0205225', ['qlco'], 0.0)||('outcome', 'noun', 'C1274040', ['ftcn'], 0.0)||('was', '', '', '', 0.0)||('the', '', '', '', 0.0)||('incidence', 'noun', 'C0021149', ['qnco'], 0.0)||('of', '', '', '', 0.0)||('postpartum hemorrhage', 'noun', 'C0032797', ['patf'], 0.0)||('.', '', '', '', 0.0)||
('secondary', 'adj', 'C0175668', ['tmco'], 0.0)||('outcomes', 'noun', 'C0085415', ['qlco'], 0.0)||('included', '', '', '', 0.0)||('duration', 'noun', 'C0449238', ['tmco'], 0.0)||('of', '', '', '', 0.0)||('third stage', 'adj', 'C0441771', ['inpr'], 0.0)||('of', '', '', '', 0.0)||('labor', 'noun', 'C0022864', ['orgf'], 0.0)||(',', '', '', '', 0.0)||('frequency', 'noun', 'C0376249', ['qnco'], 0.0)||('of', '', '', '', 0.0)||('retained placenta', '', '', '', 0.0)||(',', '', '', '', 0.0)||('hemorrhagic shock', '', '', '', 0.0)||(',', '', '', '', 0.0)||('the', '', '', '', 0.0)||('need', 'noun', 'C0027552', ['qlco'], 0.0)||('for', '', '', '', 0.0)||('blood transfusion', 'noun', 'C0005841', ['topp'], 0.0)||(',', '', '', '', 0.0)||('and', '', '', '', 0.0)||('the', '', '', '', 0.0)||('need', 'noun', 'C0027552', ['qlco'], 0.0)||('for', '', '', '', 0.0)||('uterotonic', '', '', '', 0.0)||('agents', '', '', '', 0.0)||('to', '', '', '', 0.0)||('control', 'verb', 'C0243148', ['qlco'], 0.0)||('postpartum hemorrhage', 'noun', 'C0032797', ['patf'], 0.0)||('.', '', '', '', 0.0)||
('a', '', '', '', 0.0)||('total', 'noun', 'C0439810', ['qlco'], 0.0)||('of', '', '', '', 0.0)||('1648', '', '', '', 0.0)||('women', 'noun', 'C0043210', ['popg'], 0.0)||('who', '', '', '', 0.0)||('were', '', '', '', 0.0)||('delivered', 'verb', 'C1705822', ['acty'], 0.0)||('vaginally', '', '', '', 0.0)||('were', '', '', '', 0.0)||('randomly', '', '', '', 0.0)||('allocated', '', '', '', 0.0)||('during', '', '', '', 0.0)||('labor', 'noun', 'C0022864', ['orgf'], 0.0)||('to', '', '', '', 0.0)||('the', '', '', '', 0.0)||('controlled', 'adj', 'C2587213', ['ftcn'], 0.0)||('cord', 'noun', 'C1550235', ['bpoc'], 0.0)||('traction', 'noun', 'C0040597', ['topp'], 0.0)||('group', 'noun', 'C0441833', ['idcn'], 0.0)||('(', '', '', '', 0.0)||('n =', '', '', '', 0.0)||('827', '', '', '', 0.0)||(')', '', '', '', 0.0)||('or', '', '', '', 0.0)||('the', '', '', '', 0.0)||('minimal', 'adj', 'C0547040', ['qlco'], 0.0)||('intervention', 'noun', 'C1273869', ['hlca'], 0.0)||('group', 'noun', 'C0441833', ['idcn'], 0.0)||('(', '', '', '', 0.0)||('n =', '', '', '', 0.0)||('821', '', '', '', 0.0)||(')', '', '', '', 0.0)||('.', '', '', '', 0.0)||
('in', '', '', '', 0.0)||('the', '', '', '', 0.0)||('controlled', 'adj', 'C2587213', ['ftcn'], 0.0)||('cord', 'noun', 'C1550235', ['bpoc'], 0.0)||('traction', 'noun', 'C0040597', ['topp'], 0.0)||('group', 'noun', 'C0441833', ['idcn'], 0.0)||('women', 'noun', 'C0043210', ['popg'], 0.0)||('received', 'verb', 'C1514756', ['qlco'], 0.0)||('oxytocin', 'noun', 'C0030095', ['aapp', 'horm', 'phsu'], 0.0)||(',', '', '', '', 0.0)||('10', '', '', '', 0.0)||('units', 'noun', 'C0439148', ['qnco'], 0.0)||('intramuscularly', '', '', '', 0.0)||(',', '', '', '', 0.0)||('with', '', '', '', 0.0)||('delivery', 'noun', 'C0011209', ['topp'], 0.0)||('of', '', '', '', 0.0)||('the', '', '', '', 0.0)||('baby', 'noun', 'C0021270', ['aggp'], 0.0)||("' s", '', '', '', 0.0)||('anterior', 'adj', 'C0205094', ['spco'], 0.0)||('shoulder', 'noun', 'C0037004', ['blor'], 0.0)||(',', '', '', '', 0.0)||('after', '', '', '', 0.0)||('which', '', '', '', 0.0)||('the', '', '', '', 0.0)||('placenta', 'noun', 'C0032043', ['emst'], 0.0)||('was', '', '', '', 0.0)||('delivered', 'verb', 'C1705822', ['acty'], 0.0)||('actively', '', '', '', 0.0)||('by', '', '', '', 0.0)||('controlled', 'adj', 'C2587213', ['ftcn'], 0.0)||('cord', 'noun', 'C1550235', ['bpoc'], 0.0)||('traction', 'noun', 'C0040597', ['topp'], 0.0)||('(', '', '', '', 0.0)||('brandt', '', '', '', 0.0)||('-', '', '', '', 0.0)||('andrews', '', '', '', 0.0)||('method', 'noun', 'C0025663', ['inpr'], 0.0)||(')', '', '', '', 0.0)||('.', '', '', '', 0.0)||
('in', '', '', '', 0.0)||('the', '', '', '', 0.0)||('minimal', 'adj', 'C0547040', ['qlco'], 0.0)||('intervention', 'noun', 'C1273869', ['hlca'], 0.0)||('group', 'noun', 'C0441833', ['idcn'], 0.0)||('the', '', '', '', 0.0)||('placenta', 'noun', 'C0032043', ['emst'], 0.0)||('was', '', '', '', 0.0)||('delivered', 'verb', 'C1705822', ['acty'], 0.0)||('by', '', '', '', 0.0)||('maternal', 'adj', 'C1858460', ['clna'], 0.0)||('pushing', 'noun', 'C2584302', ['phsf'], 0.0)||('.', '', '', '', 0.0)||
('continuous', 'adj', 'C0549178', ['idcn'], 0.0)||('intravenous', 'adj', 'C0205520', ['ftcn'], 0.0)||('oxytocin', 'noun', 'C0030095', ['aapp', 'horm', 'phsu'], 0.0)||('was', '', '', '', 0.0)||('given', '', '', '', 0.0)||('after', '', '', '', 0.0)||('delivery', 'noun', 'C0011209', ['topp'], 0.0)||('of', '', '', '', 0.0)||('the', '', '', '', 0.0)||('placenta', 'noun', 'C0032043', ['emst'], 0.0)||('.', '', '', '', 0.0)||
('odds ratios', 'noun', 'C0028873', ['qnco'], 0.0)||('with', '', '', '', 0.0)||('95 %', '', '', '', 0.0)||('confidence intervals', 'noun', 'C0009667', ['qnco'], 0.0)||('were', '', '', '', 0.0)||('calculated', 'verb', 'C0444686', ['ftcn'], 0.0)||('for', '', '', '', 0.0)||('each', '', '', '', 0.0)||('variable', 'noun', 'C0439828', ['qlco'], 0.0)||('.', '', '', '', 0.0)||
('the', '', '', '', 0.0)||('overall', 'adj', 'C0282416', ['inpr'], 0.0)||('incidence', 'noun', 'C0021149', ['qnco'], 0.0)||('of', '', '', '', 0.0)||('postpartum hemorrhage', 'noun', 'C0032797', ['patf'], 0.0)||('was', '', '', '', 0.0)||('significantly', '', '', '', 0.0)||('lower', 'adj', 'C0441994', ['ftcn'], 0.0)||('in', '', '', '', 0.0)||('the', '', '', '', 0.0)||('controlled', 'adj', 'C2587213', ['ftcn'], 0.0)||('cord', 'noun', 'C1550235', ['bpoc'], 0.0)||('traction', 'noun', 'C0040597', ['topp'], 0.0)||('group', 'noun', 'C0441833', ['idcn'], 0.0)||('(', '', '', '', 0.0)||('5 . 8 %', '', '', '', 0.0)||('vs', '', '', '', 0.0)||('11 %', '', '', '', 0.0)||(';', '', '', '', 0.0)||('odds ratio', 'noun', 'C0028873', ['qnco'], 0.0)||('0 . 50', '', '', '', 0.0)||(',', '', '', '', 0.0)||('95 %', '', '', '', 0.0)||('confidence interval', 'noun', 'C0009667', ['qnco'], 0.0)||('0 . 34', '', '', '', 0.0)||('to', '', '', '', 0.0)||('0 . 73', '', '', '', 0.0)||(')', '', '', '', 0.0)||('.', '', '', '', 0.0)||
('the', '', '', '', 0.0)||('incidence', 'noun', 'C0021149', ['qnco'], 0.0)||('of', '', '', '', 0.0)||('retained placenta', '', '', '', 0.0)||('(', '', '', '', 0.0)||('>', '', '', '', 0.0)||('or', '', '', '', 0.0)||('=', '', '', '', 0.0)||('30', '', '', '', 0.0)||('minutes', 'noun', 'C0439232', ['tmco'], 0.0)||(')', '', '', '', 0.0)||('was', '', '', '', 0.0)||('1 . 6 %', '', '', '', 0.0)||('in', '', '', '', 0.0)||('the', '', '', '', 0.0)||('controlled', 'adj', 'C2587213', ['ftcn'], 0.0)||('cord', 'noun', 'C1550235', ['bpoc'], 0.0)||('traction', 'noun', 'C0040597', ['topp'], 0.0)||('group', 'noun', 'C0441833', ['idcn'], 0.0)||('and', '', '', '', 0.0)||('4 . 5 %', '', '', '', 0.0)||('in', '', '', '', 0.0)||('the', '', '', '', 0.0)||('minimal', 'adj', 'C0547040', ['qlco'], 0.0)||('intervention', 'noun', 'C1273869', ['hlca'], 0.0)||('group', 'noun', 'C0441833', ['idcn'], 0.0)||('(', '', '', '', 0.0)||('odds ratio', 'noun', 'C0028873', ['qnco'], 0.0)||('0 . 31', '', '', '', 0.0)||(',', '', '', '', 0.0)||('95 %', '', '', '', 0.0)||('confidence interval', 'noun', 'C0009667', ['qnco'], 0.0)||('0 . 15', '', '', '', 0.0)||('to', '', '', '', 0.0)||('0 . 63', '', '', '', 0.0)||(')', '', '', '', 0.0)||('.', '', '', '', 0.0)||
('significantly', '', '', '', 0.0)||('more', '', '', '', 0.0)||('patients', 'noun', 'C0030705', ['podg'], 0.0)||('in', '', '', '', 0.0)||('the', '', '', '', 0.0)||('minimal', 'adj', 'C0547040', ['qlco'], 0.0)||('intervention', 'noun', 'C1273869', ['hlca'], 0.0)||('group', 'noun', 'C0441833', ['idcn'], 0.0)||('required', 'verb', 'C1514873', ['ftcn'], 0.0)||('additional', 'adj', 'C1524062', ['ftcn'], 0.0)||('uterotonic', '', '', '', 0.0)||('agents', '', '', '', 0.0)||('to', '', '', '', 0.0)||('control', 'verb', 'C0243148', ['qlco'], 0.0)||('hemorrhage', '', '', '', 0.0)||('(', '', '', '', 0.0)||('5 . 1 %', '', '', '', 0.0)||('vs', '', '', '', 0.0)||('2 . 3 %', '', '', '', 0.0)||(';', '', '', '', 0.0)||('odds ratio', 'noun', 'C0028873', ['qnco'], 0.0)||('0 . 44', '', '', '', 0.0)||(',', '', '', '', 0.0)||('95 %', '', '', '', 0.0)||('confidence interval', 'noun', 'C0009667', ['qnco'], 0.0)||('0 . 24', '', '', '', 0.0)||('to', '', '', '', 0.0)||('0 . 78', '', '', '', 0.0)||(')', '', '', '', 0.0)||('.', '', '', '', 0.0)||
('the', '', '', '', 0.0)||('controlled', 'adj', 'C2587213', ['ftcn'], 0.0)||('cord', 'noun', 'C1550235', ['bpoc'], 0.0)||('traction', 'noun', 'C0040597', ['topp'], 0.0)||('technique', 'noun', 'C0449851', ['ftcn'], 0.0)||('for', '', '', '', 0.0)||('delivery', 'noun', 'C0011209', ['topp'], 0.0)||('of', '', '', '', 0.0)||('the', '', '', '', 0.0)||('placenta', 'noun', 'C0032043', ['emst'], 0.0)||('results', 'verb', 'C1274040', ['ftcn'], 0.0)||('in', '', '', '', 0.0)||('a', '', '', '', 0.0)||('significantly', '', '', '', 0.0)||('lower', 'adj', 'C0441994', ['ftcn'], 0.0)||('incidence', 'noun', 'C0021149', ['qnco'], 0.0)||('of', '', '', '', 0.0)||('postpartum hemorrhage', 'noun', 'C0032797', ['patf'], 0.0)||('and', '', '', '', 0.0)||('retained placenta', '', '', '', 0.0)||(',', '', '', '', 0.0)||('as well as', '', '', '', 0.0)||('less', '', '', '', 0.0)||('need', 'verb', 'C0027552', ['qlco'], 0.0)||('for', '', '', '', 0.0)||('uterotonic', '', '', '', 0.0)||('agents', '', '', '', 0.0)||(',', '', '', '', 0.0)||('compared', 'verb', 'C1707455', ['acty'], 0.0)||('with', '', '', '', 0.0)||('the', '', '', '', 0.0)||('minimal', 'adj', 'C0547040', ['qlco'], 0.0)||('intervention', 'noun', 'C1273869', ['hlca'], 0.0)||('technique', 'noun', 'C0449851', ['ftcn'], 0.0)||('.', '', '', '', 0.0)||
