('the', '', '', '', 0.0)||('objective', 'noun', 'C0018017', ['inpr'], 0.0)||('of', '', '', '', 0.0)||('this', '', '', '', 0.0)||('study', 'noun', 'C0008976', ['resa'], 0.0)||('was', '', '', '', 0.0)||('to', '', '', '', 0.0)||('assess', 'verb', 'C1516048', ['acty'], 0.0)||('the', '', '', '', 0.0)||('discriminative', '', '', '', 0.0)||('properties', '', '', '', 0.0)||('of', '', '', '', 0.0)||('the', '', '', '', 0.0)||('methods', 'noun', 'C0025663', ['inpr'], 0.0)||('for', '', '', '', 0.0)||('diagnosing', '', '', '', 0.0)||('acute', 'adj', 'C0205178', ['tmco'], 0.0)||('maxillary', 'adj', 'C0024947', ['bpoc'], 0.0)||('sinusitis', 'noun', 'C0037199', ['dsyn'], 0.0)||('in', '', '', '', 0.0)||('unselected', '', '', '', 0.0)||('patients', 'noun', 'C0030705', ['podg'], 0.0)||('.', '', '', '', 0.0)||
('the', '', '', '', 0.0)||('study design', 'noun', 'C0035171', ['resa'], 0.0)||('was', '', '', '', 0.0)||('a', '', '', '', 0.0)||('systematic review', '', '', '', 0.0)||('of', '', '', '', 0.0)||('evaluation studies', 'noun', 'C0015196', ['inpr'], 0.0)||('identified', 'verb', 'C0205396', ['qlco'], 0.0)||('by', '', '', '', 0.0)||('using', 'verb', 'C1524063', ['ftcn'], 0.0)||('medline', 'noun', 'C0025141', ['inpr'], 0.0)||(',', '', '', '', 0.0)||('by', '', '', '', 0.0)||('searching', '', '', '', 0.0)||('reference', 'noun', 'C1514811', ['idcn'], 0.0)||('lists', '', '', '', 0.0)||(',', '', '', '', 0.0)||('by', '', '', '', 0.0)||('hand searches', '', '', '', 0.0)||(',', '', '', '', 0.0)||('and', '', '', '', 0.0)||('by', '', '', '', 0.0)||('contacting', 'adj', 'C0332158', ['ftcn'], 0.0)||('investigators', 'noun', 'C0035173', ['prog'], 0.0)||('.', '', '', '', 0.0)||
('evaluation studies', 'noun', 'C0015196', ['inpr'], 0.0)||('were', '', '', '', 0.0)||('conducted', '', '', '', 0.0)||('anywhere', '', '', '', 0.0)||('in', '', '', '', 0.0)||('the', '', '', '', 0.0)||('world', 'noun', 'C2700280', ['popg'], 0.0)||('.', '', '', '', 0.0)||
('subjects', '', '', '', 0.0)||('were', '', '', '', 0.0)||('adults', 'noun', 'C0001675', ['aggp'], 0.0)||('with', '', '', '', 0.0)||('suspected', 'adj', 'C0332147', ['qlco'], 0.0)||('acute', 'adj', 'C0205178', ['tmco'], 0.0)||('maxillary', 'adj', 'C0024947', ['bpoc'], 0.0)||('sinusitis', 'noun', 'C0037199', ['dsyn'], 0.0)||('.', '', '', '', 0.0)||
('main', 'adj', 'C0205225', ['qlco'], 0.0)||('outcome', 'noun', 'C1274040', ['ftcn'], 0.0)||('measures', 'noun', 'C0079809', ['qnco'], 0.0)||('were', '', '', '', 0.0)||(':', '', '', '', 0.0)||('sensitivity', 'noun', 'C0036667', ['qnco'], 0.0)||(',', '', '', '', 0.0)||('specificity', 'noun', 'C0037791', ['qnco'], 0.0)||(',', '', '', '', 0.0)||('positive', 'noun', 'C1446409', ['qlco'], 0.0)||('and', '', '', '', 0.0)||('negative', 'adj', 'C0205160', ['qlco'], 0.0)||('likelihood', 'noun', 'C0033204', ['qnco'], 0.0)||('ratios', 'noun', 'C0456603', ['qnco'], 0.0)||('of', '', '', '', 0.0)||('the', '', '', '', 0.0)||('primary', 'adj', 'C0205225', ['qlco'], 0.0)||('studies', '', '', '', 0.0)||(',', '', '', '', 0.0)||('weighted', '', '', '', 0.0)||('means', 'noun', 'C1704970', ['cnce'], 0.0)||('of', '', '', '', 0.0)||('these', '', '', '', 0.0)||('parameters', 'noun', 'C0449381', ['fndg'], 0.0)||('in', '', '', '', 0.0)||('each', '', '', '', 0.0)||('comparison', 'noun', 'C1707455', ['acty'], 0.0)||('(', '', '', '', 0.0)||('clinical', 'adj', 'C0205210', ['qlco'], 0.0)||('examination', '', '', '', 0.0)||(',', '', '', '', 0.0)||('radiography', 'noun', 'C0034571', ['ftcn'], 0.0)||(',', '', '', '', 0.0)||('and', '', '', '', 0.0)||('ultrasound', 'noun', 'C0041618', ['diap'], 0.0)||('compared', 'verb', 'C1707455', ['acty'], 0.0)||('to', '', '', '', 0.0)||('a', '', '', '', 0.0)||('reference', 'noun', 'C1514811', ['idcn'], 0.0)||('standard', 'noun', 'C1442989', ['ftcn'], 0.0)||('in', '', '', '', 0.0)||('diagnosing', '', '', '', 0.0)||('acute', 'adj', 'C0205178', ['tmco'], 0.0)||('maxillary', 'adj', 'C0024947', ['bpoc'], 0.0)||('sinusitis', 'noun', 'C0037199', ['dsyn'], 0.0)||(')', '', '', '', 0.0)||(',', '', '', '', 0.0)||('and', '', '', '', 0.0)||('summary', 'noun', 'C1552616', ['inpr'], 0.0)||('roc', 'noun', 'C0683187', ['aapp', 'bacs'], 0.0)||('curves', '', '', '', 0.0)||('and', '', '', '', 0.0)||('their', '', '', '', 0.0)||('q *', '', '', '', 0.0)||('points', '', '', '', 0.0)||('where', '', '', '', 0.0)||('sensitivity', 'noun', 'C0036667', ['qnco'], 0.0)||('equals', 'verb', 'C0205163', ['qlco'], 0.0)||('specificity', 'noun', 'C0037791', ['qnco'], 0.0)||('.', '', '', '', 0.0)||
('for', '', '', '', 0.0)||('the', '', '', '', 0.0)||('years', 'noun', 'C0439234', ['tmco'], 0.0)||('from', '', '', '', 0.0)||('1962', '', '', '', 0.0)||('to', '', '', '', 0.0)||('present', 'verb', 'C0150312', ['qnco'], 0.0)||(',', '', '', '', 0.0)||('49', '', '', '', 0.0)||('study', 'noun', 'C0008976', ['resa'], 0.0)||('reports', 'noun', 'C0684224', ['inpr'], 0.0)||('were', '', '', '', 0.0)||('found', '', '', '', 0.0)||(';', '', '', '', 0.0)||
('11', '', '', '', 0.0)||('articles', '', '', '', 0.0)||('on', '', '', '', 0.0)||('studies', '', '', '', 0.0)||('that', '', '', '', 0.0)||('included', '', '', '', 0.0)||('a', '', '', '', 0.0)||('total', 'noun', 'C0439810', ['qlco'], 0.0)||('of', '', '', '', 0.0)||('1144', '', '', '', 0.0)||('patients', 'noun', 'C0030705', ['podg'], 0.0)||('were', '', '', '', 0.0)||('eligible', 'adj', 'C1548635', ['idcn'], 0.0)||('.', '', '', '', 0.0)||
('compared', 'verb', 'C1707455', ['acty'], 0.0)||('to', '', '', '', 0.0)||('sinus', 'noun', 'C0016169', ['anab'], 0.0)||('puncture', 'noun', 'C0033119', ['fndg'], 0.0)||(',', '', '', '', 0.0)||('radiography', 'noun', 'C0034571', ['ftcn'], 0.0)||('was', '', '', '', 0.0)||('the', '', '', '', 0.0)||('most', '', '', '', 0.0)||('accurate', 'adj', 'C0443131', ['qlco'], 0.0)||('method', 'noun', 'C0025663', ['inpr'], 0.0)||('for', '', '', '', 0.0)||('diagnosing', '', '', '', 0.0)||('acute', 'adj', 'C0205178', ['tmco'], 0.0)||('maxillary', 'adj', 'C0024947', ['bpoc'], 0.0)||('sinusitis', 'noun', 'C0037199', ['dsyn'], 0.0)||(':', '', '', '', 0.0)||('the', '', '', '', 0.0)||('q *', '', '', '', 0.0)||('point', 'noun', 'C1552961', ['qnco'], 0.0)||('on', '', '', '', 0.0)||('the', '', '', '', 0.0)||('summary', 'noun', 'C1552616', ['inpr'], 0.0)||('roc', 'noun', 'C0683187', ['aapp', 'bacs'], 0.0)||('curve', 'noun', 'C0205134', ['spco'], 0.0)||('was', '', '', '', 0.0)||('0 . 82', '', '', '', 0.0)||('(', '', '', '', 0.0)||('95 %', '', '', '', 0.0)||('confidence interval', 'noun', 'C0009667', ['qnco'], 0.0)||(',', '', '', '', 0.0)||('ci', 'noun', 'C1417638', ['gngm'], 0.0)||(',', '', '', '', 0.0)||('0 . 78', '', '', '', 0.0)||('-', '', '', '', 0.0)||('0 . 85', '', '', '', 0.0)||(')', '', '', '', 0.0)||('.', '', '', '', 0.0)||
('ultrasound', 'noun', 'C0041618', ['diap'], 0.0)||('was', '', '', '', 0.0)||('slightly', 'adv', 'C0750482', ['idcn'], 0.0)||('less', '', '', '', 0.0)||('accurate', 'adj', 'C0443131', ['qlco'], 0.0)||('than', '', '', '', 0.0)||('radiography', 'noun', 'C0034571', ['ftcn'], 0.0)||('compared', 'verb', 'C1707455', ['acty'], 0.0)||('to', '', '', '', 0.0)||('sinus', 'noun', 'C0016169', ['anab'], 0.0)||('puncture', 'noun', 'C0033119', ['fndg'], 0.0)||('(', '', '', '', 0.0)||('q *', '', '', '', 0.0)||('0 . 80', '', '', '', 0.0)||(',', '', '', '', 0.0)||('95 %', '', '', '', 0.0)||('ci', 'noun', 'C1417638', ['gngm'], 0.0)||('0 . 76', '', '', '', 0.0)||('-', '', '', '', 0.0)||('0 . 83', '', '', '', 0.0)||(')', '', '', '', 0.0)||('.', '', '', '', 0.0)||
('only', '', '', '', 0.0)||('two', 'adj', 'C0205448', ['qnco'], 0.0)||('articles', '', '', '', 0.0)||('reported', 'verb', 'C0684224', ['inpr'], 0.0)||('clinical', 'adj', 'C0205210', ['qlco'], 0.0)||('examination', '', '', '', 0.0)||('compared', 'verb', 'C1707455', ['acty'], 0.0)||('to', '', '', '', 0.0)||('sinus', 'noun', 'C0016169', ['anab'], 0.0)||('puncture', 'noun', 'C0033119', ['fndg'], 0.0)||('and', '', '', '', 0.0)||('the', '', '', '', 0.0)||('q *', '', '', '', 0.0)||('for', '', '', '', 0.0)||('them', '', '', '', 0.0)||('was', '', '', '', 0.0)||('0 . 75', '', '', '', 0.0)||('(', '', '', '', 0.0)||('95 %', '', '', '', 0.0)||('0 . 58', '', '', '', 0.0)||('-', '', '', '', 0.0)||('0 . 86', '', '', '', 0.0)||(')', '', '', '', 0.0)||('.', '', '', '', 0.0)||
('clinical', 'adj', 'C0205210', ['qlco'], 0.0)||('examination', '', '', '', 0.0)||('is', '', '', '', 0.0)||('a', '', '', '', 0.0)||('rather', '', '', '', 0.0)||('unreliable', 'adj', 'C0749770', ['idcn'], 0.0)||('method', 'noun', 'C0025663', ['inpr'], 0.0)||('for', '', '', '', 0.0)||('diagnosing', '', '', '', 0.0)||('acute', 'adj', 'C0205178', ['tmco'], 0.0)||('maxillary', 'adj', 'C0024947', ['bpoc'], 0.0)||('sinusitis', 'noun', 'C0037199', ['dsyn'], 0.0)||(',', '', '', '', 0.0)||('even', '', '', '', 0.0)||('in', '', '', '', 0.0)||('the', '', '', '', 0.0)||('hands', 'noun', 'C0018563', ['bpoc'], 0.0)||('of', '', '', '', 0.0)||('experienced', '', '', '', 0.0)||('specialists', 'noun', 'C0087009', ['prog'], 0.0)||('.', '', '', '', 0.0)||
('using', 'verb', 'C1524063', ['ftcn'], 0.0)||('radiography', 'noun', 'C0034571', ['ftcn'], 0.0)||('or', '', '', '', 0.0)||('ultrasound', 'noun', 'C0041618', ['diap'], 0.0)||('improves', '', '', '', 0.0)||('the', '', '', '', 0.0)||('accuracy', 'noun', 'C0443131', ['qlco'], 0.0)||('of', '', '', '', 0.0)||('diagnosis', 'noun', 'C0011900', ['fndg'], 0.0)||('.', '', '', '', 0.0)||
('the', '', '', '', 0.0)||('diagnosis', 'noun', 'C0011900', ['fndg'], 0.0)||('of', '', '', '', 0.0)||('acute', 'adj', 'C0205178', ['tmco'], 0.0)||('maxillary', 'adj', 'C0024947', ['bpoc'], 0.0)||('sinusitis', 'noun', 'C0037199', ['dsyn'], 0.0)||('is', '', '', '', 0.0)||('rarely', 'adv', 'C0522498', ['qlco'], 0.0)||('studied', '', '', '', 0.0)||('in', '', '', '', 0.0)||('primary care', 'noun', 'C0033137', ['hlca'], 0.0)||('settings', '', '', '', 0.0)||('.', '', '', '', 0.0)||
('future', 'adj', 'C0016884', ['tmco'], 0.0)||('comparative', '', '', '', 0.0)||('trials', '', '', '', 0.0)||('should', '', '', '', 0.0)||('preferably', '', '', '', 0.0)||('combine', 'verb', 'C0336789', ['mnob'], 0.0)||('diagnosis', 'noun', 'C0011900', ['fndg'], 0.0)||('and', '', '', '', 0.0)||('treatment', 'noun', 'C0039798', ['ftcn'], 0.0)||(',', '', '', '', 0.0)||('evaluating', 'verb', 'C0220825', ['ftcn'], 0.0)||('the', '', '', '', 0.0)||('two', 'adj', 'C0205448', ['qnco'], 0.0)||('aspects', '', '', '', 0.0)||('of', '', '', '', 0.0)||('clinical', 'adj', 'C0205210', ['qlco'], 0.0)||('management', 'noun', 'C0001554', ['ocac'], 0.0)||('as', '', '', '', 0.0)||('unit', 'noun', 'C0439148', ['qnco'], 0.0)||('.', '', '', '', 0.0)||
