('the', '', '', '', 0.0)||('outcome', 'noun', 'C1274040', ['ftcn'], 0.0)||('among', '', '', '', 0.0)||('patients', 'noun', 'C0030705', ['podg'], 0.0)||('with', '', '', '', 0.0)||('clinical stage', '', '', '', 0.0)||('i', '', '', '', 0.0)||('cancer', 'noun', 'C0006826', ['neop'], 0.0)||('that', '', '', '', 0.0)||('is', '', '', '', 0.0)||('detected', 'verb', 'C0442726', ['fndg'], 0.0)||('on', '', '', '', 0.0)||('annual', 'adj', 'C0332181', ['tmco'], 0.0)||('screening', 'noun', 'C0220908', ['hlca'], 0.0)||('using', 'verb', 'C1524063', ['ftcn'], 0.0)||('spiral', 'adj', 'C0332712', ['inpo'], 0.0)||('computed tomography', 'noun', 'C0040405', ['diap'], 0.0)||('is', '', '', '', 0.0)||('unknown', 'verb', 'C0439673', ['idcn'], 0.0)||('.', '', '', '', 0.0)||
('in', '', '', '', 0.0)||('a', '', '', '', 0.0)||('large', 'adj', 'C0549177', ['qnco'], 0.0)||('collaborative study', 'noun', 'C0681804', ['resa'], 0.0)||(',', '', '', '', 0.0)||('we', '', '', '', 0.0)||('screened', '', '', '', 0.0)||('31 , 567', '', '', '', 0.0)||('asymptomatic', 'adj', 'C0231221', ['fndg'], 0.0)||('persons', 'noun', 'C0027361', ['popg'], 0.0)||('at risk', '', '', '', 0.0)||('for', '', '', '', 0.0)||('lung cancer', 'noun', 'C0242379', ['neop'], 0.0)||('using', 'verb', 'C1524063', ['ftcn'], 0.0)||('low - dose', '', '', '', 0.0)||('computed tomography', 'noun', 'C0040405', ['diap'], 0.0)||('from', '', '', '', 0.0)||('1993', '', '', '', 0.0)||('through', '', '', '', 0.0)||('2005', '', '', '', 0.0)||(',', '', '', '', 0.0)||('and', '', '', '', 0.0)||('from', '', '', '', 0.0)||('1994', '', '', '', 0.0)||('through', '', '', '', 0.0)||('2005', '', '', '', 0.0)||(',', '', '', '', 0.0)||('27 , 456', '', '', '', 0.0)||('repeated', 'adj', 'C0205341', ['ftcn'], 0.0)||('screenings', 'noun', 'C0220908', ['hlca'], 0.0)||('were', '', '', '', 0.0)||('performed', 'verb', 'C0884358', ['ftcn'], 0.0)||('7', '', '', '', 0.0)||('to', '', '', '', 0.0)||('18', '', '', '', 0.0)||('months', 'noun', 'C0439231', ['tmco'], 0.0)||('after', '', '', '', 0.0)||('the', '', '', '', 0.0)||('previous', 'adj', 'C0205156', ['tmco'], 0.0)||('screening', 'noun', 'C0220908', ['hlca'], 0.0)||('.', '', '', '', 0.0)||
('we', '', '', '', 0.0)||('estimated', 'verb', 'C0750572', ['qnco'], 0.0)||('the', '', '', '', 0.0)||('10', '', '', '', 0.0)||('-', '', '', '', 0.0)||('year', 'noun', 'C0439234', ['tmco'], 0.0)||('lung - cancer', '', '', '', 0.0)||('-', '', '', '', 0.0)||('specific survival', '', '', '', 0.0)||('rate', 'noun', 'C0871208', ['acty'], 0.0)||('among', '', '', '', 0.0)||('participants', '', '', '', 0.0)||('with', '', '', '', 0.0)||('clinical stage', '', '', '', 0.0)||('i', '', '', '', 0.0)||('lung cancer', 'noun', 'C0242379', ['neop'], 0.0)||('that', '', '', '', 0.0)||('was', '', '', '', 0.0)||('detected', 'verb', 'C0442726', ['fndg'], 0.0)||('on', '', '', '', 0.0)||('computed tomography', 'noun', 'C0040405', ['diap'], 0.0)||('screening', 'noun', 'C0220908', ['hlca'], 0.0)||('and', '', '', '', 0.0)||('diagnosed', 'verb', 'C0011900', ['fndg'], 0.0)||('by', '', '', '', 0.0)||('biopsy', 'noun', 'C0005558', ['diap'], 0.0)||(',', '', '', '', 0.0)||('regardless of', '', '', '', 0.0)||('the', '', '', '', 0.0)||('type', 'noun', 'C0332307', ['qlco'], 0.0)||('of', '', '', '', 0.0)||('treatment', 'noun', 'C0039798', ['ftcn'], 0.0)||('received', 'verb', 'C1514756', ['qlco'], 0.0)||(',', '', '', '', 0.0)||('and', '', '', '', 0.0)||('among', '', '', '', 0.0)||('those', '', '', '', 0.0)||('who', '', '', '', 0.0)||('underwent', '', '', '', 0.0)||('surgical', 'adj', 'C0543467', ['topp'], 0.0)||('resection', 'noun', 'C0728940', ['topp'], 0.0)||('of', '', '', '', 0.0)||('clinical stage', '', '', '', 0.0)||('i', '', '', '', 0.0)||('cancer', 'noun', 'C0006826', ['neop'], 0.0)||('within', '', '', '', 0.0)||('1', '', '', '', 0.0)||('month', 'noun', 'C0439231', ['tmco'], 0.0)||('.', '', '', '', 0.0)||
('a', '', '', '', 0.0)||('pathology', 'noun', 'C0030664', ['bmod'], 0.0)||('panel', 'noun', 'C0441833', ['idcn'], 0.0)||('reviewed', 'verb', 'C1709940', ['qlco'], 0.0)||('the', '', '', '', 0.0)||('surgical', 'adj', 'C0543467', ['topp'], 0.0)||('specimens', '', '', '', 0.0)||('obtained', 'verb', 'C1301820', ['ftcn'], 0.0)||('from', '', '', '', 0.0)||('participants', '', '', '', 0.0)||('who', '', '', '', 0.0)||('underwent', '', '', '', 0.0)||('resection', 'noun', 'C0728940', ['topp'], 0.0)||('.', '', '', '', 0.0)||
('screening', 'noun', 'C0220908', ['hlca'], 0.0)||('resulted', '', '', '', 0.0)||('in', '', '', '', 0.0)||('a', '', '', '', 0.0)||('diagnosis', 'noun', 'C0011900', ['fndg'], 0.0)||('of', '', '', '', 0.0)||('lung cancer', 'noun', 'C0242379', ['neop'], 0.0)||('in', '', '', '', 0.0)||('484', '', '', '', 0.0)||('participants', '', '', '', 0.0)||('.', '', '', '', 0.0)||
('of', '', '', '', 0.0)||('these', '', '', '', 0.0)||('participants', '', '', '', 0.0)||(',', '', '', '', 0.0)||('412', '', '', '', 0.0)||('(', '', '', '', 0.0)||('85 %', '', '', '', 0.0)||(')', '', '', '', 0.0)||('had', '', '', '', 0.0)||('clinical stage', '', '', '', 0.0)||('i', '', '', '', 0.0)||('lung cancer', 'noun', 'C0242379', ['neop'], 0.0)||(',', '', '', '', 0.0)||('and', '', '', '', 0.0)||('the', '', '', '', 0.0)||('estimated', 'adj', 'C0750572', ['qnco'], 0.0)||('10 - year survival rate', '', '', '', 0.0)||('was', '', '', '', 0.0)||('88 %', '', '', '', 0.0)||('in', '', '', '', 0.0)||('this', '', '', '', 0.0)||('subgroup', 'noun', 'C1515021', ['clas'], 0.0)||('(', '', '', '', 0.0)||('95 %', '', '', '', 0.0)||('confidence interval', 'noun', 'C0009667', ['qnco'], 0.0)||(',', '', '', '', 0.0)||('84', '', '', '', 0.0)||('to', '', '', '', 0.0)||('91', '', '', '', 0.0)||(')', '', '', '', 0.0)||('.', '', '', '', 0.0)||
('among', '', '', '', 0.0)||('the', '', '', '', 0.0)||('302', '', '', '', 0.0)||('participants', '', '', '', 0.0)||('with', '', '', '', 0.0)||('clinical stage', '', '', '', 0.0)||('i', '', '', '', 0.0)||('cancer', 'noun', 'C0006826', ['neop'], 0.0)||('who', '', '', '', 0.0)||('underwent', '', '', '', 0.0)||('surgical', 'adj', 'C0543467', ['topp'], 0.0)||('resection', 'noun', 'C0728940', ['topp'], 0.0)||('within', '', '', '', 0.0)||('1', '', '', '', 0.0)||('month', 'noun', 'C0439231', ['tmco'], 0.0)||('after', '', '', '', 0.0)||('diagnosis', 'noun', 'C0011900', ['fndg'], 0.0)||(',', '', '', '', 0.0)||('the', '', '', '', 0.0)||('survival rate', 'noun', 'C0038954', ['qnco'], 0.0)||('was', '', '', '', 0.0)||('92 %', '', '', '', 0.0)||('(', '', '', '', 0.0)||('95 %', '', '', '', 0.0)||('confidence interval', 'noun', 'C0009667', ['qnco'], 0.0)||(',', '', '', '', 0.0)||('88', '', '', '', 0.0)||('to', '', '', '', 0.0)||('95', '', '', '', 0.0)||(')', '', '', '', 0.0)||('.', '', '', '', 0.0)||
('the', '', '', '', 0.0)||('8', '', '', '', 0.0)||('participants', '', '', '', 0.0)||('with', '', '', '', 0.0)||('clinical stage', '', '', '', 0.0)||('i', '', '', '', 0.0)||('cancer', 'noun', 'C0006826', ['neop'], 0.0)||('who', '', '', '', 0.0)||('did', '', '', '', 0.0)||('not', 'adv', 'C1518422', ['ftcn'], 0.0)||('receive', 'verb', 'C1514756', ['qlco'], 0.0)||('treatment', 'noun', 'C0039798', ['ftcn'], 0.0)||('died', 'verb', 'C1306577', ['fndg'], 0.0)||('within', '', '', '', 0.0)||('5', '', '', '', 0.0)||('years', 'noun', 'C0439234', ['tmco'], 0.0)||('after', '', '', '', 0.0)||('diagnosis', 'noun', 'C0011900', ['fndg'], 0.0)||('.', '', '', '', 0.0)||
('annual', 'adj', 'C0332181', ['tmco'], 0.0)||('spiral', 'adj', 'C0332712', ['inpo'], 0.0)||('computed tomography', 'noun', 'C0040405', ['diap'], 0.0)||('screening', 'noun', 'C0220908', ['hlca'], 0.0)||('can', '', '', '', 0.0)||('detect', '', '', '', 0.0)||('lung cancer', 'noun', 'C0242379', ['neop'], 0.0)||('that', '', '', '', 0.0)||('is', '', '', '', 0.0)||('curable', '', '', '', 0.0)||('.', '', '', '', 0.0)||
