('giardiasis', 'noun', 'C0017536', ['dsyn'], 0.0)||('and', '', '', '', 0.0)||('soil', 'noun', 'C0037592', ['sbst'], 0.0)||('-', '', '', '', 0.0)||('transmitted', 'adj', 'C0242781', ['patf'], 0.0)||('helminthosis', 'noun', 'C0018889', ['dsyn'], 0.0)||('are', '', '', '', 0.0)||('prevalent', '', '', '', 0.0)||('in', '', '', '', 0.0)||('many', '', '', '', 0.0)||('parts', 'noun', 'C1709471', ['qnco'], 0.0)||('of', '', '', '', 0.0)||('the', '', '', '', 0.0)||('world', 'noun', 'C2700280', ['popg'], 0.0)||('.', '', '', '', 0.0)||
('application', 'noun', 'C0185125', ['hlca'], 0.0)||('of', '', '', '', 0.0)||('a', '', '', '', 0.0)||('single', 'adj', 'C0037179', ['popg'], 0.0)||('drug', 'noun', 'C0013227', ['phsu'], 0.0)||('for', '', '', '', 0.0)||('treatment', 'noun', 'C0039798', ['ftcn'], 0.0)||('of', '', '', '', 0.0)||('both', '', '', '', 0.0)||('giardiasis', 'noun', 'C0017536', ['dsyn'], 0.0)||('and', '', '', '', 0.0)||('soil', 'noun', 'C0037592', ['sbst'], 0.0)||('-', '', '', '', 0.0)||('transmitted', 'adj', 'C0242781', ['patf'], 0.0)||('helminthosis', 'noun', 'C0018889', ['dsyn'], 0.0)||('is', '', '', '', 0.0)||('highly', 'adv', 'C0205250', ['qlco'], 0.0)||('desirable', '', '', '', 0.0)||('.', '', '', '', 0.0)||
('one', 'noun', 'C0205447', ['qnco'], 0.0)||('hundred', '', '', '', 0.0)||('children', 'noun', 'C0008059', ['aggp'], 0.0)||('of', '', '', '', 0.0)||('both', '', '', '', 0.0)||('sexes', '', '', '', 0.0)||(',', '', '', '', 0.0)||('ranging', '', '', '', 0.0)||('from', '', '', '', 0.0)||('7', '', '', '', 0.0)||('to', '', '', '', 0.0)||('12', '', '', '', 0.0)||('years', 'noun', 'C0439234', ['tmco'], 0.0)||('old', 'noun', 'C0580836', ['tmco'], 0.0)||('with', '', '', '', 0.0)||('giardia intestinalis', 'noun', 'C0017535', ['euka'], 0.0)||('cysts', 'noun', 'C0010709', ['anab'], 0.0)||('or', '', '', '', 0.0)||('trophozoites', 'noun', 'C0686882', ['euka'], 0.0)||('in', '', '', '', 0.0)||('their', '', '', '', 0.0)||('stool', 'noun', 'C0015733', ['bdsu'], 0.0)||('samples', '', '', '', 0.0)||(',', '', '', '', 0.0)||('were', '', '', '', 0.0)||('randomly', '', '', '', 0.0)||('separated', 'verb', 'C0086972', ['fndg'], 0.0)||('into', '', '', '', 0.0)||('two', 'noun', 'C0205448', ['qnco'], 0.0)||('groups', 'noun', 'C0441833', ['idcn'], 0.0)||('of', '', '', '', 0.0)||('50', '', '', '', 0.0)||('individuals', '', '', '', 0.0)||('each', '', '', '', 0.0)||('.', '', '', '', 0.0)||
('each', '', '', '', 0.0)||('group', 'noun', 'C0441833', ['idcn'], 0.0)||('received', 'verb', 'C1514756', ['qlco'], 0.0)||('either', '', '', '', 0.0)||('mebendazole', 'adj', 'C0025023', ['orch', 'phsu'], 0.0)||('tablets', 'noun', 'C0039225', ['bodm'], 0.0)||('200', '', '', '', 0.0)||('mg', '', '', '', 0.0)||('thrice', '', '', '', 0.0)||('daily', 'adv', 'C0332173', ['tmco'], 0.0)||('for', '', '', '', 0.0)||('5', '', '', '', 0.0)||('days', 'noun', 'C0439228', ['tmco'], 0.0)||('or', '', '', '', 0.0)||('metronidazole', 'noun', 'C0025872', ['orch', 'phsu'], 0.0)||('tablet', 'noun', 'C0039225', ['bodm'], 0.0)||('15', '', '', '', 0.0)||('mg / kg', '', '', '', 0.0)||('/', '', '', '', 0.0)||('day', 'noun', 'C0439228', ['tmco'], 0.0)||('in', '', '', '', 0.0)||('three', '', 'C0205449', ['qnco'], 0.0)||('divided doses', '', '', '', 0.0)||(',', '', '', '', 0.0)||('for', '', '', '', 0.0)||('7', '', '', '', 0.0)||('days', 'noun', 'C0439228', ['tmco'], 0.0)||('.', '', '', '', 0.0)||
('the', '', '', '', 0.0)||('results', 'noun', 'C1274040', ['ftcn'], 0.0)||('were', '', '', '', 0.0)||('evaluated', 'verb', 'C0220825', ['ftcn'], 0.0)||('by', '', '', '', 0.0)||('microscopic', 'adj', 'C0205288', ['qlco'], 0.0)||('examination', '', '', '', 0.0)||('of', '', '', '', 0.0)||('stools', 'noun', 'C0015733', ['bdsu'], 0.0)||('on', '', '', '', 0.0)||('two', 'adj', 'C0205448', ['qnco'], 0.0)||('successive', '', '', '', 0.0)||('occasions', '', '', '', 0.0)||(':', '', '', '', 0.0)||('1', '', '', '', 0.0)||('week', 'noun', 'C0439230', ['tmco'], 0.0)||('and', '', '', '', 0.0)||('2', '', '', '', 0.0)||('weeks', 'noun', 'C0439230', ['tmco'], 0.0)||('after', '', '', '', 0.0)||('treatment', 'noun', 'C0039798', ['ftcn'], 0.0)||('.', '', '', '', 0.0)||
('each', '', '', '', 0.0)||('occasion', '', '', '', 0.0)||('consisted', '', '', '', 0.0)||('of', '', '', '', 0.0)||('three', '', 'C0205449', ['qnco'], 0.0)||('stool', 'noun', 'C0015733', ['bdsu'], 0.0)||('examination', '', '', '', 0.0)||('on', '', '', '', 0.0)||('3', '', '', '', 0.0)||('successive', '', '', '', 0.0)||('days', 'noun', 'C0439228', ['tmco'], 0.0)||('.', '', '', '', 0.0)||
('the', '', '', '', 0.0)||('cure', 'noun', 'C1511495', ['gora'], 0.0)||('rate', 'noun', 'C0871208', ['acty'], 0.0)||('of', '', '', '', 0.0)||('mebendazole', 'noun', 'C0025023', ['orch', 'phsu'], 0.0)||('-', '', '', '', 0.0)||('treated', 'adj', 'C1522326', ['ftcn'], 0.0)||('children', 'noun', 'C0008059', ['aggp'], 0.0)||('was', '', '', '', 0.0)||('43', '', '', '', 0.0)||('out of', '', '', '', 0.0)||('50', '', '', '', 0.0)||('(', '', '', '', 0.0)||('86', '', '', '', 0.0)||('per cent', '', '', '', 0.0)||(')', '', '', '', 0.0)||(',', '', '', '', 0.0)||('and', '', '', '', 0.0)||('for', '', '', '', 0.0)||('metronidazole', 'noun', 'C0025872', ['orch', 'phsu'], 0.0)||('it', '', '', '', 0.0)||('was', '', '', '', 0.0)||('45', '', '', '', 0.0)||('out of', '', '', '', 0.0)||('50', '', '', '', 0.0)||('(', '', '', '', 0.0)||('90', '', '', '', 0.0)||('per cent', '', '', '', 0.0)||(')', '', '', '', 0.0)||('with', '', '', '', 0.0)||('no', '', '', '', 0.0)||('statistical', 'adj', 'C0038215', ['ocdi'], 0.0)||('difference', 'noun', 'C1705242', ['qlco'], 0.0)||('between', '', '', '', 0.0)||('the', '', '', '', 0.0)||('two', 'adj', 'C0205448', ['qnco'], 0.0)||('groups', 'noun', 'C0441833', ['idcn'], 0.0)||('.', '', '', '', 0.0)||
('no', '', '', '', 0.0)||('side - effects', '', '', '', 0.0)||('were', '', '', '', 0.0)||('observed', 'verb', 'C1441672', ['ftcn'], 0.0)||('in', '', '', '', 0.0)||('the', '', '', '', 0.0)||('mebendazole', 'noun', 'C0025023', ['orch', 'phsu'], 0.0)||('-', '', '', '', 0.0)||('treated group', '', '', '', 0.0)||(',', '', '', '', 0.0)||('whereas', '', '', '', 0.0)||('nausea', 'noun', 'C0027497', ['sosy'], 0.0)||(',', '', '', '', 0.0)||('anorexia', 'noun', 'C0003123', ['sosy'], 0.0)||('and', '', '', '', 0.0)||('metallic', '', '', '', 0.0)||('taste', 'noun', 'C0039336', ['ortf'], 0.0)||('were', '', '', '', 0.0)||('observed', 'verb', 'C1441672', ['ftcn'], 0.0)||('in', '', '', '', 0.0)||('4 . 9', '', '', '', 0.0)||(',', '', '', '', 0.0)||('6', '', '', '', 0.0)||('and', '', '', '', 0.0)||('24', '', '', '', 0.0)||('per cent', '', '', '', 0.0)||('of', '', '', '', 0.0)||('metronidazole', 'noun', 'C0025872', ['orch', 'phsu'], 0.0)||('-', '', '', '', 0.0)||('treated', 'adj', 'C1522326', ['ftcn'], 0.0)||('children', 'noun', 'C0008059', ['aggp'], 0.0)||(',', '', '', '', 0.0)||('respectively', '', '', '', 0.0)||('.', '', '', '', 0.0)||
('in', '', '', '', 0.0)||('conclusion', 'noun', 'C1707478', ['idcn'], 0.0)||(',', '', '', '', 0.0)||('the', '', '', '', 0.0)||('use', 'noun', 'C0042153', ['ftcn'], 0.0)||('of', '', '', '', 0.0)||('mebendazole', 'noun', 'C0025023', ['orch', 'phsu'], 0.0)||(',', '', '', '', 0.0)||('which', '', '', '', 0.0)||('is', '', '', '', 0.0)||('less', '', '', '', 0.0)||('toxic', 'adj', 'C1407029', ['qlco'], 0.0)||('with', '', '', '', 0.0)||('no', '', '', '', 0.0)||('side - effects', '', '', '', 0.0)||(',', '', '', '', 0.0)||('is', '', '', '', 0.0)||('available', 'adj', 'C0470187', ['ftcn'], 0.0)||('and', '', '', '', 0.0)||('effective', 'adj', 'C1704419', ['qlco'], 0.0)||('on', '', '', '', 0.0)||('giardia intestinalis', 'noun', 'C0017535', ['euka'], 0.0)||('as well as', '', '', '', 0.0)||('intestinal', 'adj', 'C0021853', ['bpoc'], 0.0)||('nematodes', 'noun', 'C0027581', ['euka'], 0.0)||(',', '', '', '', 0.0)||('is', '', '', '', 0.0)||('recommended', 'verb', 'C0034866', ['idcn'], 0.0)||('especially', '', '', '', 0.0)||('in', '', '', '', 0.0)||('the', '', '', '', 0.0)||('areas', '', '', '', 0.0)||('where', '', '', '', 0.0)||('giardiasis', 'noun', 'C0017536', ['dsyn'], 0.0)||('and', '', '', '', 0.0)||('intestinal', 'adj', 'C0021853', ['bpoc'], 0.0)||('nematodiasis', 'noun', 'C0027583', ['dsyn'], 0.0)||('are', '', '', '', 0.0)||('prevalent', '', '', '', 0.0)||('and', '', '', '', 0.0)||('overlap', 'noun', 'C1948020', ['cnce'], 0.0)||('.', '', '', '', 0.0)||
