('a', '', '', '', 0.0)||('2006', '', '', '', 0.0)||('cochrane', '', '', '', 0.0)||('review', 'noun', 'C0282443', ['inpr'], 0.0)||('compared', 'verb', 'C1707455', ['acty'], 0.0)||('34', '', '', '', 0.0)||('trials', '', '', '', 0.0)||('of', '', '', '', 0.0)||('many', '', '', '', 0.0)||('drug therapies', 'noun', 'C0013216', ['topp'], 0.0)||('for', '', '', '', 0.0)||('giardiasis', 'noun', 'C0017536', ['dsyn'], 0.0)||('.', '', '', '', 0.0)||
('the', '', '', '', 0.0)||('review', 'noun', 'C0282443', ['inpr'], 0.0)||(',', '', '', '', 0.0)||('which', '', '', '', 0.0)||('is', '', '', '', 0.0)||('being', '', '', '', 0.0)||('updated', '', '', '', 0.0)||('to', '', '', '', 0.0)||('include', 'verb', 'C1552866', ['idcn'], 0.0)||('additional', 'adj', 'C1524062', ['ftcn'], 0.0)||('publications', 'noun', 'C0034036', ['inpr', 'mnob'], 0.0)||(',', '', '', '', 0.0)||('evaluated', 'verb', 'C0220825', ['ftcn'], 0.0)||('both', '', '', '', 0.0)||('head - to - head', '', '', '', 0.0)||('and', '', '', '', 0.0)||('placebo - controlled studies', '', '', '', 0.0)||(',', '', '', '', 0.0)||('looking', '', '', '', 0.0)||('at', '', '', '', 0.0)||('dosage', 'noun', 'C0178602', ['qnco'], 0.0)||('as well as', '', '', '', 0.0)||('length', 'noun', 'C1444754', ['qnco'], 0.0)||('of', '', '', '', 0.0)||('drug therapy', 'noun', 'C0013216', ['topp'], 0.0)||('.', '', '', '', 0.0)||
('the', '', '', '', 0.0)||('review', 'noun', 'C0282443', ['inpr'], 0.0)||('found', '', '', '', 0.0)||('that', '', '', '', 0.0)||('a', '', '', '', 0.0)||('single dose', '', '', '', 0.0)||('of', '', '', '', 0.0)||('tinidazole', 'noun', 'C0040263', ['orch', 'phsu'], 0.0)||('had', '', '', '', 0.0)||('a', '', '', '', 0.0)||('higher', '', '', '', 0.0)||('clinical', 'adj', 'C0205210', ['qlco'], 0.0)||('cure', 'noun', 'C1511495', ['gora'], 0.0)||('rate', 'noun', 'C0871208', ['acty'], 0.0)||('than', '', '', '', 0.0)||('other', '', '', '', 0.0)||('therapies', 'noun', 'C0087111', ['topp'], 0.0)||('such as', '', '', '', 0.0)||('metronidazole', 'noun', 'C0025872', ['orch', 'phsu'], 0.0)||('(', '', '', '', 0.0)||('odds ratio', 'noun', 'C0028873', ['qnco'], 0.0)||('=', '', '', '', 0.0)||('5 . 33', '', '', '', 0.0)||(';', '', '', '', 0.0)||('95 %', '', '', '', 0.0)||('confidence interval', 'noun', 'C0009667', ['qnco'], 0.0)||(',', '', '', '', 0.0)||('2 . 66', '', '', '', 0.0)||('-', '', '', '', 0.0)||('10 . 67', '', '', '', 0.0)||(')', '', '', '', 0.0)||('along', '', '', '', 0.0)||('with', '', '', '', 0.0)||('a', '', '', '', 0.0)||('comparable', '', '', '', 0.0)||('side - effect profile', '', '', '', 0.0)||('.', '', '', '', 0.0)||
('these', '', '', '', 0.0)||('findings', 'noun', 'C2607943', ['ftcn'], 0.0)||('favor', 'verb', 'C0309049', ['orch', 'phsu', 'vita'], 0.0)||('tinidazole', 'noun', 'C0040263', ['orch', 'phsu'], 0.0)||('as', '', '', '', 0.0)||('the', '', '', '', 0.0)||('treatment', 'noun', 'C0039798', ['ftcn'], 0.0)||('of', '', '', '', 0.0)||('choice', 'noun', 'C0008300', ['inbe'], 0.0)||('for', '', '', '', 0.0)||('symptomatic', 'adj', 'C0231220', ['ftcn'], 0.0)||('giardiasis', 'noun', 'C0017536', ['dsyn'], 0.0)||('.', '', '', '', 0.0)||
