('a', '', '', '', 0.0)||('multivariate', '', '', '', 0.0)||('logistic regression', 'noun', 'C0206031', ['resa'], 0.0)||('analysis', 'noun', 'C0002778', ['lbpr'], 0.0)||('of', '', '', '', 0.0)||('patient', '', '', '', 0.0)||('symptoms', 'noun', 'C0683368', ['ftcn'], 0.0)||('and', '', '', '', 0.0)||('signs', 'noun', 'C0220912', ['ftcn'], 0.0)||('and', '', '', '', 0.0)||('laboratory', 'noun', 'C0022877', ['mnob', 'orgt'], 0.0)||('findings', 'noun', 'C2607943', ['ftcn'], 0.0)||('associated', 'verb', 'C0332281', ['qlco'], 0.0)||('with', '', '', '', 0.0)||('the', '', '', '', 0.0)||('diagnosis', 'noun', 'C0011900', ['fndg'], 0.0)||('of', '', '', '', 0.0)||('acute', 'adj', 'C0205178', ['tmco'], 0.0)||('pelvic inflammatory disease', 'noun', 'C0242172', ['dsyn'], 0.0)||('was', '', '', '', 0.0)||('performed', 'verb', 'C0884358', ['ftcn'], 0.0)||('with', '', '', '', 0.0)||('use', 'noun', 'C0042153', ['ftcn'], 0.0)||('of', '', '', '', 0.0)||('data', 'noun', 'C1511726', ['idcn'], 0.0)||('from', '', '', '', 0.0)||('628', '', '', '', 0.0)||('women', 'noun', 'C0043210', ['popg'], 0.0)||('who', '', '', '', 0.0)||('were', '', '', '', 0.0)||('clinically', '', '', '', 0.0)||('diagnosed', 'verb', 'C0011900', ['fndg'], 0.0)||('as', '', '', '', 0.0)||('having', '', '', '', 0.0)||('the', '', '', '', 0.0)||('disease', 'noun', 'C0012634', ['dsyn'], 0.0)||('for', '', '', '', 0.0)||('the', '', '', '', 0.0)||('first', 'adj', 'C0205435', ['qnco'], 0.0)||('time', 'noun', 'C0040223', ['tmco'], 0.0)||('at', '', '', '', 0.0)||('the', '', '', '', 0.0)||('university', 'noun', 'C0041740', ['mnob', 'orgt'], 0.0)||('of', '', '', '', 0.0)||('lund', '', '', '', 0.0)||(',', '', '', '', 0.0)||('sweden', 'noun', 'C0038995', ['geoa'], 0.0)||('.', '', '', '', 0.0)||
('in', '', '', '', 0.0)||('414', '', '', '', 0.0)||('women', 'noun', 'C0043210', ['popg'], 0.0)||('(', '', '', '', 0.0)||('65 . 9 %', '', '', '', 0.0)||(')', '', '', '', 0.0)||('acute', 'adj', 'C0205178', ['tmco'], 0.0)||('pelvic inflammatory disease', 'noun', 'C0242172', ['dsyn'], 0.0)||('was', '', '', '', 0.0)||('laparoscopically', '', '', '', 0.0)||('confirmed', 'verb', 'C0750484', ['idcn'], 0.0)||('.', '', '', '', 0.0)||
('we', '', '', '', 0.0)||('developed', '', '', '', 0.0)||('a', '', '', '', 0.0)||('mathematical model', 'noun', 'C0876936', ['inpr'], 0.0)||('that', '', '', '', 0.0)||('correctly', '', '', '', 0.0)||('predicted', 'verb', 'C0681842', ['idcn'], 0.0)||('87 . 0 %', '', '', '', 0.0)||('of', '', '', '', 0.0)||('the', '', '', '', 0.0)||('cases', 'noun', 'C0868928', ['ftcn'], 0.0)||('of', '', '', '', 0.0)||('acute', 'adj', 'C0205178', ['tmco'], 0.0)||('pelvic inflammatory disease', 'noun', 'C0242172', ['dsyn'], 0.0)||('and', '', '', '', 0.0)||('had', '', '', '', 0.0)||('an', '', '', '', 0.0)||('overall', 'adj', 'C0282416', ['inpr'], 0.0)||('correct', 'adj', 'C1548444', ['inpr'], 0.0)||('classification', 'noun', 'C0008902', ['clas'], 0.0)||('rate', 'noun', 'C0871208', ['acty'], 0.0)||('of', '', '', '', 0.0)||('75 . 6 %', '', '', '', 0.0)||('.', '', '', '', 0.0)||
('variables', '', '', '', 0.0)||('that', '', '', '', 0.0)||('were', '', '', '', 0.0)||('good', 'adj', 'C0205170', ['qlco'], 0.0)||('predictors', '', '', '', 0.0)||('of', '', '', '', 0.0)||('acute', 'adj', 'C0205178', ['tmco'], 0.0)||('pelvic inflammatory disease', 'noun', 'C0242172', ['dsyn'], 0.0)||('were', '', '', '', 0.0)||('purulent', 'adj', 'C0439665', ['qlco'], 0.0)||('vaginal', 'adj', 'C0042232', ['bpoc'], 0.0)||('discharge', 'noun', 'C0012621', ['bdsu'], 0.0)||(',', '', '', '', 0.0)||('erythrocyte sedimentation rate', 'noun', 'C0086250', ['lbpr'], 0.0)||('greater', 'adj', 'C1704243', ['qnco'], 0.0)||('than', '', '', '', 0.0)||('or', '', '', '', 0.0)||('equal', 'adj', 'C0205163', ['qlco'], 0.0)||('to', '', '', '', 0.0)||('15', '', '', '', 0.0)||('mm', '', '', '', 0.0)||('/', '', '', '', 0.0)||('hr', '', '', '', 0.0)||(',', '', '', '', 0.0)||('positive', 'adj', 'C1446409', ['qlco'], 0.0)||('gonorrhea', 'noun', 'C0018081', ['dsyn'], 0.0)||('result', 'noun', 'C1274040', ['ftcn'], 0.0)||(',', '', '', '', 0.0)||('adnexal', '', '', '', 0.0)||('swelling', 'noun', 'C0013604', ['patf'], 0.0)||('on', '', '', '', 0.0)||('bimanual', 'adj', 'C1511117', ['ftcn'], 0.0)||('examination', '', '', '', 0.0)||(',', '', '', '', 0.0)||('and', '', '', '', 0.0)||('rectal temperature', 'noun', 'C0489749', ['fndg'], 0.0)||('greater', 'adj', 'C1704243', ['qnco'], 0.0)||('than', '', '', '', 0.0)||('or', '', '', '', 0.0)||('equal', 'adj', 'C0205163', ['qlco'], 0.0)||('to', '', '', '', 0.0)||('38', '', '', '', 0.0)||('degrees', '', '', '', 0.0)||('c', '', '', '', 0.0)||('.', '', '', '', 0.0)||
('furthermore', '', '', '', 0.0)||(',', '', '', '', 0.0)||('we', '', '', '', 0.0)||('developed', '', '', '', 0.0)||('"', '', '', '', 0.0)||('mixed', 'adj', 'C0205430', ['ftcn'], 0.0)||('model', '', '', '', 0.0)||('i', '', '', '', 0.0)||('"', '', '', '', 0.0)||('and', '', '', '', 0.0)||('"', '', '', '', 0.0)||('mixed', 'adj', 'C0205430', ['ftcn'], 0.0)||('model', '', '', '', 0.0)||('ii', '', '', '', 0.0)||(',', '', '', '', 0.0)||('"', '', '', '', 0.0)||('which', '', '', '', 0.0)||('combine', 'verb', 'C0336789', ['mnob'], 0.0)||('simple', 'adj', 'C0205352', ['qlco'], 0.0)||('clinical', 'adj', 'C0205210', ['qlco'], 0.0)||('parameters', 'noun', 'C0449381', ['fndg'], 0.0)||('and', '', '', '', 0.0)||('laparoscopy', 'noun', 'C0031150', ['diap'], 0.0)||('in', '', '', '', 0.0)||('varying', '', '', '', 0.0)||('degrees', '', '', '', 0.0)||('.', '', '', '', 0.0)||
('in', '', '', '', 0.0)||('mixed', 'adj', 'C0205430', ['ftcn'], 0.0)||('model', '', '', '', 0.0)||('i', '', '', '', 0.0)||('the', '', '', '', 0.0)||('sensitivity', 'noun', 'C0036667', ['qnco'], 0.0)||(',', '', '', '', 0.0)||('specificity', 'noun', 'C0037791', ['qnco'], 0.0)||(',', '', '', '', 0.0)||('and', '', '', '', 0.0)||('overall', 'adj', 'C0282416', ['inpr'], 0.0)||('classification', 'noun', 'C0008902', ['clas'], 0.0)||('values', 'noun', 'C0042295', ['qlco'], 0.0)||('were', '', '', '', 0.0)||('93 %', '', '', '', 0.0)||(',', '', '', '', 0.0)||('67 . 2 %', '', '', '', 0.0)||(',', '', '', '', 0.0)||('and', '', '', '', 0.0)||('84 . 5 %', '', '', '', 0.0)||(';', '', '', '', 0.0)||
('in', '', '', '', 0.0)||('mixed', 'adj', 'C0205430', ['ftcn'], 0.0)||('model', '', '', '', 0.0)||('ii', '', '', '', 0.0)||('these', '', '', '', 0.0)||('values', 'noun', 'C0042295', ['qlco'], 0.0)||('were', '', '', '', 0.0)||('100 %', '', '', '', 0.0)||(',', '', '', '', 0.0)||('67 . 2 %', '', '', '', 0.0)||(',', '', '', '', 0.0)||('and', '', '', '', 0.0)||('89 . 2 %', '', '', '', 0.0)||('.', '', '', '', 0.0)||
('use', 'noun', 'C0042153', ['ftcn'], 0.0)||('of', '', '', '', 0.0)||('relatively', '', '', '', 0.0)||('simple', 'adj', 'C0205352', ['qlco'], 0.0)||('and', '', '', '', 0.0)||('reproducible', '', '', '', 0.0)||('clinical', 'adj', 'C0205210', ['qlco'], 0.0)||('parameters', 'noun', 'C0449381', ['fndg'], 0.0)||('can', '', '', '', 0.0)||('identify', '', '', '', 0.0)||('those', '', '', '', 0.0)||('women', 'noun', 'C0043210', ['popg'], 0.0)||('who', '', '', '', 0.0)||('would', '', '', '', 0.0)||('most', '', '', '', 0.0)||('benefit', 'noun', 'C0814225', ['qnco'], 0.0)||('from', '', '', '', 0.0)||('laparoscopy', 'noun', 'C0031150', ['diap'], 0.0)||('to', '', '', '', 0.0)||('diagnose', '', '', '', 0.0)||('acute', 'adj', 'C0205178', ['tmco'], 0.0)||('pelvic inflammatory disease', 'noun', 'C0242172', ['dsyn'], 0.0)||('.', '', '', '', 0.0)||
