('the', '', '', '', 0.0)||('valsartan', 'noun', 'C0216784', ['orch', 'phsu'], 0.0)||('antihypertensive', 'adj', 'C0003364', ['phsu'], 0.0)||('long - term', '', '', '', 0.0)||('use', 'noun', 'C0042153', ['ftcn'], 0.0)||('evaluation', 'noun', 'C0220825', ['ftcn'], 0.0)||('trial', 'noun', 'C0008976', ['resa'], 0.0)||('was', '', '', '', 0.0)||('designed', '', '', '', 0.0)||('to', '', '', '', 0.0)||('test', 'verb', 'C0022885', ['lbpr'], 0.0)||('the', '', '', '', 0.0)||('hypothesis', 'noun', 'C1512571', ['idcn'], 0.0)||('that', '', '', '', 0.0)||('for', '', '', '', 0.0)||('the', '', '', '', 0.0)||('same', 'adj', 'C0445247', ['qlco'], 0.0)||('blood - pressure control', '', '', '', 0.0)||(',', '', '', '', 0.0)||('valsartan', 'noun', 'C0216784', ['orch', 'phsu'], 0.0)||('would', '', '', '', 0.0)||('reduce', '', '', '', 0.0)||('cardiac', 'adj', 'C0018787', ['bpoc'], 0.0)||('morbidity', 'noun', 'C0026538', ['qnco'], 0.0)||('and', '', '', '', 0.0)||('mortality', 'noun', 'C0026565', ['qnco'], 0.0)||('more', '', '', '', 0.0)||('than', '', '', '', 0.0)||('amlodipine', 'noun', 'C0051696', ['orch', 'phsu'], 0.0)||('in', '', '', '', 0.0)||('hypertensive', 'adj', 'C0857121', ['fndg'], 0.0)||('patients', 'noun', 'C0030705', ['podg'], 0.0)||('at', '', '', '', 0.0)||('high', 'adj', 'C0205250', ['qlco'], 0.0)||('cardiovascular risk', '', '', '', 0.0)||('.', '', '', '', 0.0)||
('15', '', '', '', 0.0)||('?', '', '', '', 0.0)||('245', '', '', '', 0.0)||('patients', 'noun', 'C0030705', ['podg'], 0.0)||(',', '', '', '', 0.0)||('aged', 'verb', 'C0001779', ['orga'], 0.0)||('50', '', '', '', 0.0)||('years', 'noun', 'C0439234', ['tmco'], 0.0)||('or', '', '', '', 0.0)||('older', '', '', '', 0.0)||('with', '', '', '', 0.0)||('treated', 'adj', 'C1522326', ['ftcn'], 0.0)||('or', '', '', '', 0.0)||('untreated', '', '', '', 0.0)||('hypertension', 'noun', 'C0020538', ['dsyn'], 0.0)||('and', '', '', '', 0.0)||('high risk', '', '', '', 0.0)||('of', '', '', '', 0.0)||('cardiac', 'adj', 'C0018787', ['bpoc'], 0.0)||('events', 'noun', 'C0441471', ['evnt'], 0.0)||('participated', '', '', '', 0.0)||('in', '', '', '', 0.0)||('a', '', '', '', 0.0)||('randomised', '', '', '', 0.0)||(',', '', '', '', 0.0)||('double - blind', '', '', '', 0.0)||(',', '', '', '', 0.0)||('parallel', 'noun', 'C2348042', ['qlco'], 0.0)||('-', '', '', '', 0.0)||('group', 'noun', 'C0441833', ['idcn'], 0.0)||('comparison', 'noun', 'C1707455', ['acty'], 0.0)||('of', '', '', '', 0.0)||('therapy', 'noun', 'C0039798', ['ftcn'], 0.0)||('based', 'verb', 'C1527178', ['ftcn'], 0.0)||('on', '', '', '', 0.0)||('valsartan', 'noun', 'C0216784', ['orch', 'phsu'], 0.0)||('or', '', '', '', 0.0)||('amlodipine', 'noun', 'C0051696', ['orch', 'phsu'], 0.0)||('.', '', '', '', 0.0)||
('duration', 'noun', 'C0449238', ['tmco'], 0.0)||('of', '', '', '', 0.0)||('treatment', 'noun', 'C0039798', ['ftcn'], 0.0)||('was', '', '', '', 0.0)||('event', 'noun', 'C0441471', ['evnt'], 0.0)||('-', '', '', '', 0.0)||('driven', '', '', '', 0.0)||('and', '', '', '', 0.0)||('the', '', '', '', 0.0)||('trial', 'noun', 'C0008976', ['resa'], 0.0)||('lasted', '', '', '', 0.0)||('until', '', '', '', 0.0)||('at', '', '', '', 0.0)||('least', '', '', '', 0.0)||('1450', '', '', '', 0.0)||('patients', 'noun', 'C0030705', ['podg'], 0.0)||('had', '', '', '', 0.0)||('reached', '', '', '', 0.0)||('a', '', '', '', 0.0)||('primary', 'adj', 'C0205225', ['qlco'], 0.0)||('endpoint', 'noun', 'C2349179', ['qlco'], 0.0)||(',', '', '', '', 0.0)||('defined', 'verb', 'C1704788', ['cnce'], 0.0)||('as', '', '', '', 0.0)||('a', '', '', '', 0.0)||('composite', 'noun', 'C0205199', ['qlco'], 0.0)||('of', '', '', '', 0.0)||('cardiac', 'adj', 'C0018787', ['bpoc'], 0.0)||('mortality', 'noun', 'C0026565', ['qnco'], 0.0)||('and', '', '', '', 0.0)||('morbidity', 'noun', 'C0026538', ['qnco'], 0.0)||('.', '', '', '', 0.0)||
('patients', 'noun', 'C0030705', ['podg'], 0.0)||('from', '', '', '', 0.0)||('31', '', '', '', 0.0)||('countries', 'noun', 'C0454664', ['geoa'], 0.0)||('were', '', '', '', 0.0)||('followed', '', '', '', 0.0)||('up', '', '', '', 0.0)||('for', '', '', '', 0.0)||('a', '', '', '', 0.0)||('mean', 'noun', 'C0444504', ['qnco'], 0.0)||('of', '', '', '', 0.0)||('4 . 2', '', '', '', 0.0)||('years', 'noun', 'C0439234', ['tmco'], 0.0)||('.', '', '', '', 0.0)||
('blood pressure', 'noun', 'C0005823', ['orgf'], 0.0)||('was', '', '', '', 0.0)||('reduced', 'verb', 'C0392756', ['qlco'], 0.0)||('by', '', '', '', 0.0)||('both', '', '', '', 0.0)||('treatments', 'noun', 'C0087111', ['topp'], 0.0)||(',', '', '', '', 0.0)||('but', '', '', '', 0.0)||('the', '', '', '', 0.0)||('effects', '', '', '', 0.0)||('of', '', '', '', 0.0)||('the', '', '', '', 0.0)||('amlodipine', 'noun', 'C0051696', ['orch', 'phsu'], 0.0)||('-', '', '', '', 0.0)||('based', 'adj', 'C1527178', ['ftcn'], 0.0)||('regimen', 'noun', 'C0040808', ['topp'], 0.0)||('were', '', '', '', 0.0)||('more', '', '', '', 0.0)||('pronounced', '', '', '', 0.0)||(',', '', '', '', 0.0)||('especially', '', '', '', 0.0)||('in', '', '', '', 0.0)||('the', '', '', '', 0.0)||('early', 'adj', 'C1279919', ['tmco'], 0.0)||('period', 'noun', 'C1948053', ['tmco'], 0.0)||('(', '', '', '', 0.0)||('blood pressure', 'noun', 'C0005823', ['orgf'], 0.0)||('4 . 0', '', '', '', 0.0)||('/', '', '', '', 0.0)||('2 . 1', '', '', '', 0.0)||('mm hg', 'noun', 'C0439475', ['qnco'], 0.0)||('lower', 'adj', 'C0441994', ['ftcn'], 0.0)||('in', '', '', '', 0.0)||('amlodipine', 'noun', 'C0051696', ['orch', 'phsu'], 0.0)||('than', '', '', '', 0.0)||('valsartan', 'noun', 'C0216784', ['orch', 'phsu'], 0.0)||('group', 'noun', 'C0441833', ['idcn'], 0.0)||('after', '', '', '', 0.0)||('1', '', '', '', 0.0)||('month', 'noun', 'C0439231', ['tmco'], 0.0)||(';', '', '', '', 0.0)||('1 . 5', '', '', '', 0.0)||('/', '', '', '', 0.0)||('1 . 3', '', '', '', 0.0)||('mm hg', 'noun', 'C0439475', ['qnco'], 0.0)||('after', '', '', '', 0.0)||('1', '', '', '', 0.0)||('year', 'noun', 'C0439234', ['tmco'], 0.0)||(';', '', '', '', 0.0)||('p', '', '', '', 0.0)||('<', '', '', '', 0.0)||('0 . 001', '', '', '', 0.0)||('between', '', '', '', 0.0)||('groups', 'noun', 'C0441833', ['idcn'], 0.0)||(')', '', '', '', 0.0)||('.', '', '', '', 0.0)||
('the', '', '', '', 0.0)||('primary', 'adj', 'C0205225', ['qlco'], 0.0)||('composite', 'adj', 'C0205199', ['qlco'], 0.0)||('endpoint', 'noun', 'C2349179', ['qlco'], 0.0)||('occurred', 'verb', 'C1709305', ['cnce'], 0.0)||('in', '', '', '', 0.0)||('810', '', '', '', 0.0)||('patients', 'noun', 'C0030705', ['podg'], 0.0)||('in', '', '', '', 0.0)||('the', '', '', '', 0.0)||('valsartan', 'noun', 'C0216784', ['orch', 'phsu'], 0.0)||('group', 'noun', 'C0441833', ['idcn'], 0.0)||('(', '', '', '', 0.0)||('10 . 6 %', '', '', '', 0.0)||(',', '', '', '', 0.0)||('25 . 5', '', '', '', 0.0)||('per', '', '', '', 0.0)||('1000', '', '', '', 0.0)||('patient - years', '', '', '', 0.0)||(')', '', '', '', 0.0)||('and', '', '', '', 0.0)||('789', '', '', '', 0.0)||('in', '', '', '', 0.0)||('the', '', '', '', 0.0)||('amlodipine', 'adj', 'C0051696', ['orch', 'phsu'], 0.0)||('group', 'noun', 'C0441833', ['idcn'], 0.0)||('(', '', '', '', 0.0)||('10 . 4 %', '', '', '', 0.0)||(',', '', '', '', 0.0)||('24 . 7', '', '', '', 0.0)||('per', '', '', '', 0.0)||('1000', '', '', '', 0.0)||('patient - years', '', '', '', 0.0)||(';', '', '', '', 0.0)||('hazard ratio', '', '', '', 0.0)||('1 . 04', '', '', '', 0.0)||(',', '', '', '', 0.0)||('95 %', '', '', '', 0.0)||('ci', 'noun', 'C1417638', ['gngm'], 0.0)||('0 . 94', '', '', '', 0.0)||('-', '', '', '', 0.0)||('1 . 15', '', '', '', 0.0)||(',', '', '', '', 0.0)||('p', '', '', '', 0.0)||('=', '', '', '', 0.0)||('0 . 49', '', '', '', 0.0)||(')', '', '', '', 0.0)||('.', '', '', '', 0.0)||
('the', '', '', '', 0.0)||('main', 'adj', 'C0205225', ['qlco'], 0.0)||('outcome', 'noun', 'C1274040', ['ftcn'], 0.0)||('of', '', '', '', 0.0)||('cardiac disease', 'noun', 'C0018799', ['dsyn'], 0.0)||('did', '', '', '', 0.0)||('not', 'adv', 'C1518422', ['ftcn'], 0.0)||('differ', '', '', '', 0.0)||('between', '', '', '', 0.0)||('the', '', '', '', 0.0)||('treatment', 'noun', 'C0039798', ['ftcn'], 0.0)||('groups', 'noun', 'C0441833', ['idcn'], 0.0)||('.', '', '', '', 0.0)||
('unequal', 'adj', 'C0205162', ['qlco'], 0.0)||('reductions', '', '', '', 0.0)||('in', '', '', '', 0.0)||('blood pressure', 'noun', 'C0005823', ['orgf'], 0.0)||('might', '', '', '', 0.0)||('account', 'verb', 'C1551359', ['idcn'], 0.0)||('for', '', '', '', 0.0)||('differences', '', '', '', 0.0)||('between', '', '', '', 0.0)||('the', '', '', '', 0.0)||('groups', 'noun', 'C0441833', ['idcn'], 0.0)||('in', '', '', '', 0.0)||('cause', 'noun', 'C1524003', ['cnce'], 0.0)||('-', '', '', '', 0.0)||('specific', 'adj', 'C0205369', ['qlco'], 0.0)||('outcomes', 'noun', 'C0085415', ['qlco'], 0.0)||('.', '', '', '', 0.0)||
('the', '', '', '', 0.0)||('findings', 'noun', 'C2607943', ['ftcn'], 0.0)||('emphasise', '', '', '', 0.0)||('the', '', '', '', 0.0)||('importance', '', '', '', 0.0)||('of', '', '', '', 0.0)||('prompt', 'noun', 'C1602245', ['phsu'], 0.0)||('blood - pressure control', '', '', '', 0.0)||('in', '', '', '', 0.0)||('hypertensive', 'adj', 'C0857121', ['fndg'], 0.0)||('patients', 'noun', 'C0030705', ['podg'], 0.0)||('at', '', '', '', 0.0)||('high', 'adj', 'C0205250', ['qlco'], 0.0)||('cardiovascular risk', '', '', '', 0.0)||('.', '', '', '', 0.0)||
