('a', '', '', '', 0.0)||('cochrane', '', '', '', 0.0)||('systematic review', '', '', '', 0.0)||('identified', 'verb', 'C0205396', ['qlco'], 0.0)||('13', '', '', '', 0.0)||('randomized controlled trials', '', '', '', 0.0)||('enrolling', '', '', '', 0.0)||('a', '', '', '', 0.0)||('combined', 'adj', 'C0205195', ['qlco'], 0.0)||('1022', '', '', '', 0.0)||('patients', 'noun', 'C0030705', ['podg'], 0.0)||('with', '', '', '', 0.0)||('psoriatic arthritis', '', '', '', 0.0)||('randomly', '', '', '', 0.0)||('assigned', 'verb', 'C1516050', ['ftcn'], 0.0)||('to', '', '', '', 0.0)||('receive', 'verb', 'C1514756', ['qlco'], 0.0)||('a', '', '', '', 0.0)||('dmard', 'noun', 'C0242708', ['phsu'], 0.0)||('-', '', '', '', 0.0)||('methotrexate', 'noun', 'C0025677', ['orch', 'phsu'], 0.0)||(',', '', '', '', 0.0)||('sulfasalazine', 'noun', 'C0036078', ['orch', 'phsu'], 0.0)||('(', '', '', '', 0.0)||('azulfidine', '', '', '', 0.0)||(')', '', '', '', 0.0)||(',', '', '', '', 0.0)||('azathioprine', 'noun', 'C0004482', ['orch', 'phsu'], 0.0)||('(', '', '', '', 0.0)||('imuran', 'noun', 'C0699279', ['orch', 'phsu'], 0.0)||('/', '', '', '', 0.0)||('azasan', 'noun', 'C1330077', ['orch', 'phsu'], 0.0)||(')', '', '', '', 0.0)||(',', '', '', '', 0.0)||('or', '', '', '', 0.0)||('etretinate', 'noun', 'C0015137', ['orch', 'phsu'], 0.0)||('(', '', '', '', 0.0)||('tegison', 'noun', 'C0723623', ['orch', 'phsu'], 0.0)||(';', '', '', '', 0.0)||('no', '', '', '', 0.0)||('longer', '', '', '', 0.0)||('available', 'adj', 'C0470187', ['ftcn'], 0.0)||('in', '', '', '', 0.0)||('the', '', '', '', 0.0)||('us', '', '', '', 0.0)||(')', '', '', '', 0.0)||('-', '', '', '', 0.0)||('compared', 'verb', 'C1707455', ['acty'], 0.0)||('with', '', '', '', 0.0)||('placebo', 'noun', 'C0032042', ['topp'], 0.0)||('.', '', '', '', 0.0)||
('all', '', '', '', 0.0)||('agents', '', '', '', 0.0)||('were', '', '', '', 0.0)||('better', 'adj', 'C0332272', ['qlco'], 0.0)||('than', '', '', '', 0.0)||('placebo', 'noun', 'C0032042', ['topp'], 0.0)||(';', '', '', '', 0.0)||
('however', '', '', '', 0.0)||(',', '', '', '', 0.0)||('only', '', '', '', 0.0)||('2', '', '', '', 0.0)||('agents', '', '', '', 0.0)||('(', '', '', '', 0.0)||('parenteral', 'adj', 'C1518896', ['ftcn'], 0.0)||('high - dose methotrexate', '', '', '', 0.0)||('and', '', '', '', 0.0)||('sulfasalazine', 'noun', 'C0036078', ['orch', 'phsu'], 0.0)||(')', '', '', '', 0.0)||('had', '', '', '', 0.0)||('clinically', '', '', '', 0.0)||('important', '', '', '', 0.0)||('benefits', 'noun', 'C0814225', ['qnco'], 0.0)||('for', '', '', '', 0.0)||('more', '', '', '', 0.0)||('than', '', '', '', 0.0)||('half', '', '', '', 0.0)||('the', '', '', '', 0.0)||('patients', 'noun', 'C0030705', ['podg'], 0.0)||('.', '', '', '', 0.0)||
('the', '', '', '', 0.0)||('studies', '', '', '', 0.0)||('were', '', '', '', 0.0)||('too', '', '', '', 0.0)||('small', 'adj', 'C0700321', ['qnco'], 0.0)||('to', '', '', '', 0.0)||('establish', '', '', '', 0.0)||('toxicity', 'noun', 'C0040539', ['qlco'], 0.0)||('or', '', '', '', 0.0)||('to', '', '', '', 0.0)||('evaluate', 'verb', 'C0220825', ['ftcn'], 0.0)||('the', '', '', '', 0.0)||('other', '', '', '', 0.0)||('agents', '', '', '', 0.0)||('.', '', '', '', 0.0)||
