('to', '', '', '', 0.0)||('determine', '', '', '', 0.0)||('the', '', '', '', 0.0)||('effectiveness', 'noun', 'C1280519', ['qlco'], 0.0)||('of', '', '', '', 0.0)||('self', '', '', '', 0.0)||('-', '', '', '', 0.0)||('management', 'noun', 'C0001554', ['ocac'], 0.0)||('education', 'noun', 'C0013621', ['edac'], 0.0)||('and', '', '', '', 0.0)||('physical training', '', '', '', 0.0)||('in', '', '', '', 0.0)||('decreasing', 'adj', 'C0442797', ['qlco'], 0.0)||('fibromyalgia', 'noun', 'C0016053', ['dsyn'], 0.0)||('(', '', '', '', 0.0)||('fms', '', '', '', 0.0)||(')', '', '', '', 0.0)||('symptoms', 'noun', 'C0683368', ['ftcn'], 0.0)||('and', '', '', '', 0.0)||('increasing', 'adj', 'C0442808', ['ftcn'], 0.0)||('physical', 'adj', 'C0031809', ['hlca'], 0.0)||('and', '', '', '', 0.0)||('psychological', 'adj', 'C0205486', ['ftcn'], 0.0)||('well being', 'noun', 'C0031206', ['fndg'], 0.0)||('.', '', '', '', 0.0)||
('a', '', '', '', 0.0)||('pretest', '', '', '', 0.0)||('-', '', '', '', 0.0)||('posttest', '', '', '', 0.0)||('control group', 'noun', 'C0009932', ['grup'], 0.0)||('design', 'noun', 'C1707689', ['acty'], 0.0)||('was', '', '', '', 0.0)||('used', '', '', '', 0.0)||('.', '', '', '', 0.0)||
('ninety - nine', '', '', '', 0.0)||('women', 'noun', 'C0043210', ['popg'], 0.0)||('with', '', '', '', 0.0)||('fms', '', '', '', 0.0)||('were', '', '', '', 0.0)||('randomly', '', '', '', 0.0)||('assigned', 'verb', 'C1516050', ['ftcn'], 0.0)||('to', '', '', '', 0.0)||('1', '', '', '', 0.0)||('of', '', '', '', 0.0)||('3', '', '', '', 0.0)||('groups', 'noun', 'C0441833', ['idcn'], 0.0)||(';', '', '', '', 0.0)||
('86', '', '', '', 0.0)||('completed', 'verb', 'C0205197', ['qlco'], 0.0)||('the', '', '', '', 0.0)||('study', 'noun', 'C0008976', ['resa'], 0.0)||('.', '', '', '', 0.0)||
('the', '', '', '', 0.0)||('education', 'noun', 'C0013621', ['edac'], 0.0)||('only', '', '', '', 0.0)||('group', 'noun', 'C0441833', ['idcn'], 0.0)||('received', 'verb', 'C1514756', ['qlco'], 0.0)||('a', '', '', '', 0.0)||('6', '', '', '', 0.0)||('-', '', '', '', 0.0)||('week', 'noun', 'C0439230', ['tmco'], 0.0)||('self', '', '', '', 0.0)||('-', '', '', '', 0.0)||('management', 'noun', 'C0001554', ['ocac'], 0.0)||('course', 'noun', 'C0750729', ['tmco'], 0.0)||('.', '', '', '', 0.0)||
('the', '', '', '', 0.0)||('education', 'noun', 'C0013621', ['edac'], 0.0)||('plus', '', '', '', 0.0)||('physical training', '', '', '', 0.0)||('group', 'noun', 'C0441833', ['idcn'], 0.0)||('received', 'verb', 'C1514756', ['qlco'], 0.0)||('the', '', '', '', 0.0)||('course', 'noun', 'C0750729', ['tmco'], 0.0)||('and', '', '', '', 0.0)||('6', '', '', '', 0.0)||('h', '', '', '', 0.0)||('of', '', '', '', 0.0)||('training', 'noun', 'C0040607', ['edac'], 0.0)||('designed', '', '', '', 0.0)||('to', '', '', '', 0.0)||('assist', 'verb', 'C1515950', ['hcro'], 0.0)||('them', '', '', '', 0.0)||('to', '', '', '', 0.0)||('exercise', 'verb', 'C0015259', ['dora'], 0.0)||('independently', '', '', '', 0.0)||('.', '', '', '', 0.0)||
('the', '', '', '', 0.0)||('control group', 'noun', 'C0009932', ['grup'], 0.0)||('got', '', '', '', 0.0)||('treatment', 'noun', 'C0039798', ['ftcn'], 0.0)||('after', '', '', '', 0.0)||('3', '', '', '', 0.0)||('months', 'noun', 'C0439231', ['tmco'], 0.0)||('.', '', '', '', 0.0)||
('the', '', '', '', 0.0)||('experimental', 'adj', 'C1517004', ['ftcn'], 0.0)||('programs', 'noun', 'C0376691', ['inpr'], 0.0)||('had', '', '', '', 0.0)||('a', '', '', '', 0.0)||('significant', 'adj', 'C0750502', ['idcn'], 0.0)||('positive', 'adj', 'C1446409', ['qlco'], 0.0)||('impact', '', '', '', 0.0)||('on', '', '', '', 0.0)||('quality', 'noun', 'C0332306', ['qlco'], 0.0)||('of', '', '', '', 0.0)||('life', 'noun', 'C0376558', ['idcn'], 0.0)||('and', '', '', '', 0.0)||('self - efficacy', '', '', '', 0.0)||('.', '', '', '', 0.0)||
('helplessness', 'noun', 'C0814060', ['menp'], 0.0)||(',', '', '', '', 0.0)||('number', 'noun', 'C0449788', ['qnco'], 0.0)||('of', '', '', '', 0.0)||('days', 'noun', 'C0439228', ['tmco'], 0.0)||('feeling', 'verb', 'C1527305', ['menp'], 0.0)||('bad', 'adj', 'C0205169', ['qlco'], 0.0)||(',', '', '', '', 0.0)||('physical', 'adj', 'C0031809', ['hlca'], 0.0)||('dysfunction', 'noun', 'C0031847', ['ftcn'], 0.0)||(',', '', '', '', 0.0)||('and', '', '', '', 0.0)||('pain', 'noun', 'C0030193', ['sosy'], 0.0)||('in', '', '', '', 0.0)||('the', '', '', '', 0.0)||('tender', 'noun', 'C0234234', ['qlco'], 0.0)||('points', '', '', '', 0.0)||('decreased', 'verb', 'C0205216', ['qnco'], 0.0)||('significantly', '', '', '', 0.0)||('in', '', '', '', 0.0)||('one', 'noun', 'C0205447', ['qnco'], 0.0)||('or', '', '', '', 0.0)||('both', '', '', '', 0.0)||('of', '', '', '', 0.0)||('the', '', '', '', 0.0)||('treated groups', '', '', '', 0.0)||('when', '', '', '', 0.0)||('retested', '', '', '', 0.0)||('6', '', '', '', 0.0)||('weeks', 'noun', 'C0439230', ['tmco'], 0.0)||('after', '', '', '', 0.0)||('the', '', '', '', 0.0)||('end', 'noun', 'C0444930', ['spco'], 0.0)||('of', '', '', '', 0.0)||('the', '', '', '', 0.0)||('program', 'noun', 'C1709697', ['cnce'], 0.0)||('.', '', '', '', 0.0)||
('longterm', '', '', '', 0.0)||('followup', 'noun', 'C1522577', ['hlca'], 0.0)||('of', '', '', '', 0.0)||('67', '', '', '', 0.0)||('treated', 'adj', 'C1522326', ['ftcn'], 0.0)||('subjects', '', '', '', 0.0)||('showed', '', '', '', 0.0)||('significant', 'adj', 'C0750502', ['idcn'], 0.0)||('positive', 'noun', 'C1446409', ['qlco'], 0.0)||('changes', '', '', '', 0.0)||('on', '', '', '', 0.0)||('the', '', '', '', 0.0)||('fibromyalgia', 'noun', 'C0016053', ['dsyn'], 0.0)||('impact', '', '', '', 0.0)||('questionnaire', 'noun', 'C0034394', ['inpr'], 0.0)||('primarily', '', '', '', 0.0)||('in', '', '', '', 0.0)||('the', '', '', '', 0.0)||('physical training', '', '', '', 0.0)||('group', 'noun', 'C0441833', ['idcn'], 0.0)||('.', '', '', '', 0.0)||
('among', '', '', '', 0.0)||('all', '', '', '', 0.0)||('subjects', '', '', '', 0.0)||(',', '', '', '', 0.0)||('87 %', '', '', '', 0.0)||('were', '', '', '', 0.0)||('exercising', 'verb', 'C0015259', ['dora'], 0.0)||('at', '', '', '', 0.0)||('least', '', '', '', 0.0)||('3', '', '', '', 0.0)||('times', 'noun', 'C1632851', ['qnco'], 0.0)||('/', '', '', '', 0.0)||('week', 'noun', 'C0439230', ['tmco'], 0.0)||('for', '', '', '', 0.0)||('20', '', '', '', 0.0)||('min', '', '', '', 0.0)||('or', '', '', '', 0.0)||('more', '', '', '', 0.0)||(';', '', '', '', 0.0)||
('46 %', '', '', '', 0.0)||('said', '', '', '', 0.0)||('they', '', '', '', 0.0)||('had', '', '', '', 0.0)||('increased', 'verb', 'C0205217', ['qnco'], 0.0)||('their', '', '', '', 0.0)||('exercise', 'noun', 'C0015259', ['dora'], 0.0)||('level', 'noun', 'C0441889', ['qlco'], 0.0)||('since', '', '', '', 0.0)||('participating', 'verb', 'C0679823', ['ftcn'], 0.0)||('in', '', '', '', 0.0)||('the', '', '', '', 0.0)||('program', 'noun', 'C1709697', ['cnce'], 0.0)||(';', '', '', '', 0.0)||
('70 %', '', '', '', 0.0)||('were', '', '', '', 0.0)||('practicing', '', '', '', 0.0)||('relaxation', 'noun', 'C0035028', ['acty'], 0.0)||('strategies', 'noun', 'C0679199', ['menp'], 0.0)||('as', '', '', '', 0.0)||('needed', 'verb', 'C0027552', ['qlco'], 0.0)||(';', '', '', '', 0.0)||
('46 %', '', '', '', 0.0)||('were', '', '', '', 0.0)||('working', 'verb', 'C0043227', ['ocac'], 0.0)||('at', '', '', '', 0.0)||('least', '', '', '', 0.0)||('half time', '', '', '', 0.0)||('as', '', '', '', 0.0)||('opposed', '', '', '', 0.0)||('to', '', '', '', 0.0)||('37 %', '', '', '', 0.0)||('at', '', '', '', 0.0)||('pretest', '', '', '', 0.0)||('.', '', '', '', 0.0)||
('self - efficacy', '', '', '', 0.0)||('of', '', '', '', 0.0)||('the', '', '', '', 0.0)||('treated groups', '', '', '', 0.0)||('was', '', '', '', 0.0)||('enhanced', 'verb', 'C2349975', ['acty'], 0.0)||('significantly', '', '', '', 0.0)||('by', '', '', '', 0.0)||('the', '', '', '', 0.0)||('program', 'noun', 'C1709697', ['cnce'], 0.0)||('.', '', '', '', 0.0)||
('other', '', '', '', 0.0)||('changes', '', '', '', 0.0)||('were', '', '', '', 0.0)||('smaller', 'adj', 'C0547044', ['qlco'], 0.0)||('and', '', '', '', 0.0)||('more', '', '', '', 0.0)||('delayed', 'verb', 'C0205421', ['tmco'], 0.0)||('than', '', '', '', 0.0)||('had', '', '', '', 0.0)||('been', '', '', '', 0.0)||('expected', 'verb', 'C1517001', ['idcn'], 0.0)||('.', '', '', '', 0.0)||
('recommendations', 'noun', 'C0034866', ['idcn'], 0.0)||('for', '', '', '', 0.0)||('future', 'adj', 'C0016884', ['tmco'], 0.0)||('trials', '', '', '', 0.0)||('include', 'verb', 'C1552866', ['idcn'], 0.0)||('a', '', '', '', 0.0)||('longer', '', '', '', 0.0)||('education', 'noun', 'C0013621', ['edac'], 0.0)||('program', 'noun', 'C1709697', ['cnce'], 0.0)||(',', '', '', '', 0.0)||('more', '', '', '', 0.0)||('vigorous', '', '', '', 0.0)||('physical training', '', '', '', 0.0)||(',', '', '', '', 0.0)||('and', '', '', '', 0.0)||('longterm', '', '', '', 0.0)||('followup', 'noun', 'C1522577', ['hlca'], 0.0)||('.', '', '', '', 0.0)||
