('a', '', '', '', 0.0)||('systematic review', '', '', '', 0.0)||('of', '', '', '', 0.0)||('the', '', '', '', 0.0)||('literature', 'noun', 'C0023866', ['inpr'], 0.0)||('on', '', '', '', 0.0)||('postherpetic neuralgia', 'noun', 'C0032768', ['dsyn'], 0.0)||('was', '', '', '', 0.0)||('performed', 'verb', 'C0884358', ['ftcn'], 0.0)||('.', '', '', '', 0.0)||
('the', '', '', '', 0.0)||('authors', 'noun', 'C0341628', ['prog'], 0.0)||('identified', 'verb', 'C0205396', ['qlco'], 0.0)||('studies', '', '', '', 0.0)||('using', 'verb', 'C1524063', ['ftcn'], 0.0)||('the', '', '', '', 0.0)||('national', '', '', '', 0.0)||('library', 'noun', 'C0023621', ['mnob', 'orgt'], 0.0)||('of', '', '', '', 0.0)||('medicine', 'noun', 'C0025118', ['bmod'], 0.0)||("' s", '', '', '', 0.0)||('medline', 'noun', 'C0025141', ['inpr'], 0.0)||('database', 'noun', 'C0242356', ['inpr'], 0.0)||('and', '', '', '', 0.0)||('cochrane', '', '', '', 0.0)||('library', 'noun', 'C0023621', ['mnob', 'orgt'], 0.0)||('database', 'noun', 'C0242356', ['inpr'], 0.0)||('.', '', '', '', 0.0)||
('the', '', '', '', 0.0)||('authors', 'noun', 'C0341628', ['prog'], 0.0)||('determined', '', '', '', 0.0)||('absolute', 'adj', 'C0205344', ['qlco'], 0.0)||('reduction', 'noun', 'C0301630', ['npop'], 0.0)||('rate', 'noun', 'C0871208', ['acty'], 0.0)||(',', '', '', '', 0.0)||('number', 'noun', 'C0449788', ['qnco'], 0.0)||('needed', 'verb', 'C0027552', ['qlco'], 0.0)||('to', '', '', '', 0.0)||('treat', 'verb', 'C1292734', ['ftcn'], 0.0)||(',', '', '', '', 0.0)||('95 %', '', '', '', 0.0)||('ci', 'noun', 'C1417638', ['gngm'], 0.0)||('for', '', '', '', 0.0)||('number', 'noun', 'C0449788', ['qnco'], 0.0)||('needed', 'verb', 'C0027552', ['qlco'], 0.0)||('to', '', '', '', 0.0)||('treat', 'verb', 'C1292734', ['ftcn'], 0.0)||(',', '', '', '', 0.0)||('and', '', '', '', 0.0)||('number', 'noun', 'C0449788', ['qnco'], 0.0)||('needed', 'verb', 'C0027552', ['qlco'], 0.0)||('to', '', '', '', 0.0)||('harm', '', '', '', 0.0)||('for', '', '', '', 0.0)||('successful', 'adj', 'C1272703', ['qlco'], 0.0)||('therapies', 'noun', 'C0087111', ['topp'], 0.0)||('of', '', '', '', 0.0)||('postherpetic neuralgia', 'noun', 'C0032768', ['dsyn'], 0.0)||('.', '', '', '', 0.0)||
('tricyclic antidepressants', '', '', '', 0.0)||(',', '', '', '', 0.0)||('gabapentin', 'noun', 'C0060926', ['orch', 'phsu'], 0.0)||(',', '', '', '', 0.0)||('pregabalin', 'noun', 'C0657912', ['aapp', 'phsu'], 0.0)||(',', '', '', '', 0.0)||('opioids', 'noun', 'C0242402', ['hops', 'phsu'], 0.0)||(',', '', '', '', 0.0)||('and', '', '', '', 0.0)||('lidocaine', 'noun', 'C0023660', ['orch', 'phsu'], 0.0)||('patch', 'noun', 'C0332461', ['bdsu'], 0.0)||('were', '', '', '', 0.0)||('found', '', '', '', 0.0)||('to', '', '', '', 0.0)||('be', '', '', '', 0.0)||('effective', 'adj', 'C1704419', ['qlco'], 0.0)||('in', '', '', '', 0.0)||('reducing', 'noun', 'C0392756', ['qlco'], 0.0)||('the', '', '', '', 0.0)||('pain', 'noun', 'C0030193', ['sosy'], 0.0)||('of', '', '', '', 0.0)||('postherpetic neuralgia', 'noun', 'C0032768', ['dsyn'], 0.0)||('.', '', '', '', 0.0)||
