('this', '', '', '', 0.0)||('is', '', '', '', 0.0)||('an', '', '', '', 0.0)||('updated', '', '', '', 0.0)||('version', 'noun', 'C0333052', ['ftcn'], 0.0)||('of', '', '', '', 0.0)||('the', '', '', '', 0.0)||('original', 'adj', 'C0205313', ['idcn'], 0.0)||('cochrane', '', '', '', 0.0)||('review', 'noun', 'C0282443', ['inpr'], 0.0)||('published', 'verb', 'C0034037', ['ocac'], 0.0)||('in', '', '', '', 0.0)||('issue', 'noun', 'C0033213', ['fndg'], 0.0)||('3', '', '', '', 0.0)||(',', '', '', '', 0.0)||('2005', '', '', '', 0.0)||('of', '', '', '', 0.0)||('the', '', '', '', 0.0)||('cochrane', '', '', '', 0.0)||('library', 'noun', 'C0023621', ['mnob', 'orgt'], 0.0)||('.', '', '', '', 0.0)||
('for', '', '', '', 0.0)||('many', '', '', '', 0.0)||('years', 'noun', 'C0439234', ['tmco'], 0.0)||('antidepressant', 'noun', 'C0003289', ['phsu'], 0.0)||('drugs', 'noun', 'C0013227', ['phsu'], 0.0)||('have', '', '', '', 0.0)||('been', '', '', '', 0.0)||('used', '', '', '', 0.0)||('to', '', '', '', 0.0)||('manage', '', '', '', 0.0)||('neuropathic pain', 'noun', 'C0423716', ['sosy'], 0.0)||(',', '', '', '', 0.0)||('and', '', '', '', 0.0)||('are', '', '', '', 0.0)||('often', 'adv', 'C0332183', ['tmco'], 0.0)||('the', '', '', '', 0.0)||('first', 'adj', 'C0205435', ['qnco'], 0.0)||('choice', 'noun', 'C0008300', ['inbe'], 0.0)||('treatment', 'noun', 'C0039798', ['ftcn'], 0.0)||('.', '', '', '', 0.0)||
('it', '', '', '', 0.0)||('is', '', '', '', 0.0)||('not', 'adv', 'C1518422', ['ftcn'], 0.0)||('clear', 'verb', 'C0522503', ['qlco'], 0.0)||(',', '', '', '', 0.0)||('however', '', '', '', 0.0)||(',', '', '', '', 0.0)||('which', '', '', '', 0.0)||('antidepressant', 'noun', 'C0003289', ['phsu'], 0.0)||('is', '', '', '', 0.0)||('more', '', '', '', 0.0)||('effective', 'adj', 'C1704419', ['qlco'], 0.0)||(',', '', '', '', 0.0)||('what', '', '', '', 0.0)||('role', 'noun', 'C0035820', ['socb'], 0.0)||('the', '', '', '', 0.0)||('newer', '', '', '', 0.0)||('antidepressants', 'noun', 'C0003289', ['phsu'], 0.0)||('can', '', '', '', 0.0)||('play', 'verb', 'C0032214', ['dora'], 0.0)||('in', '', '', '', 0.0)||('treating', 'noun', 'C1522326', ['ftcn'], 0.0)||('neuropathic pain', 'noun', 'C0423716', ['sosy'], 0.0)||(',', '', '', '', 0.0)||('and', '', '', '', 0.0)||('what', '', '', '', 0.0)||('adverse effects', 'noun', 'C0001688', ['ftcn'], 0.0)||('are', '', '', '', 0.0)||('experienced', '', '', '', 0.0)||('by', '', '', '', 0.0)||('patients', 'noun', 'C0030705', ['podg'], 0.0)||('.', '', '', '', 0.0)||
('to', '', '', '', 0.0)||('determine', '', '', '', 0.0)||('the', '', '', '', 0.0)||('analgesic', 'adj', 'C0002771', ['phsu'], 0.0)||('effectiveness', 'noun', 'C1280519', ['qlco'], 0.0)||('and', '', '', '', 0.0)||('safety', 'noun', 'C0036043', ['hcpp'], 0.0)||('of', '', '', '', 0.0)||('antidepressant', 'noun', 'C0003289', ['phsu'], 0.0)||('drugs', 'noun', 'C0013227', ['phsu'], 0.0)||('in', '', '', '', 0.0)||('neuropathic pain', 'noun', 'C0423716', ['sosy'], 0.0)||('.', '', '', '', 0.0)||
('randomised controlled trials', '', '', '', 0.0)||('of', '', '', '', 0.0)||('antidepressants', 'noun', 'C0003289', ['phsu'], 0.0)||('in', '', '', '', 0.0)||('neuropathic pain', 'noun', 'C0423716', ['sosy'], 0.0)||('were', '', '', '', 0.0)||('identified', 'verb', 'C0205396', ['qlco'], 0.0)||('in', '', '', '', 0.0)||('medline', 'noun', 'C0025141', ['inpr'], 0.0)||('(', '', '', '', 0.0)||('1966', '', '', '', 0.0)||('to', '', '', '', 0.0)||('oct', '', '', '', 0.0)||('2005', '', '', '', 0.0)||(')', '', '', '', 0.0)||(';', '', '', '', 0.0)||
('embase', '', '', '', 0.0)||('(', '', '', '', 0.0)||('1980', '', '', '', 0.0)||('to', '', '', '', 0.0)||('oct', '', '', '', 0.0)||('2005', '', '', '', 0.0)||(')', '', '', '', 0.0)||(';', '', '', '', 0.0)||
('the', '', '', '', 0.0)||('cochrane', '', '', '', 0.0)||('central', 'adj', 'C0205099', ['spco'], 0.0)||('register', '', '', '', 0.0)||('of', '', '', '', 0.0)||('controlled', 'adj', 'C2587213', ['ftcn'], 0.0)||('trials', '', '', '', 0.0)||('in', '', '', '', 0.0)||('the', '', '', '', 0.0)||('cochrane', '', '', '', 0.0)||('library', 'noun', 'C0023621', ['mnob', 'orgt'], 0.0)||(',', '', '', '', 0.0)||('issue', 'noun', 'C0033213', ['fndg'], 0.0)||('3', '', '', '', 0.0)||(',', '', '', '', 0.0)||('2005', '', '', '', 0.0)||(';', '', '', '', 0.0)||
('and', '', '', '', 0.0)||('the', '', '', '', 0.0)||('cochrane', '', '', '', 0.0)||('pain', 'noun', 'C0030193', ['sosy'], 0.0)||(',', '', '', '', 0.0)||('palliative', 'adj', 'C1285530', ['qlco'], 0.0)||('and', '', '', '', 0.0)||('supportive care', 'noun', 'C0344211', ['topp'], 0.0)||('trials', '', '', '', 0.0)||('register', '', '', '', 0.0)||('(', '', '', '', 0.0)||('may', '', '', '', 0.0)||('2002', '', '', '', 0.0)||(')', '', '', '', 0.0)||('.', '', '', '', 0.0)||
('additional', 'adj', 'C1524062', ['ftcn'], 0.0)||('reports', 'noun', 'C0684224', ['inpr'], 0.0)||('were', '', '', '', 0.0)||('identified', 'verb', 'C0205396', ['qlco'], 0.0)||('from', '', '', '', 0.0)||('the', '', '', '', 0.0)||('reference', 'noun', 'C1514811', ['idcn'], 0.0)||('list', 'noun', 'C0745732', ['cnce'], 0.0)||('of', '', '', '', 0.0)||('the', '', '', '', 0.0)||('retrieved', '', '', '', 0.0)||('papers', 'noun', 'C0030351', ['mnob'], 0.0)||(',', '', '', '', 0.0)||('and', '', '', '', 0.0)||('by', '', '', '', 0.0)||('contacting', 'adj', 'C0332158', ['ftcn'], 0.0)||('investigators', 'noun', 'C0035173', ['prog'], 0.0)||('.', '', '', '', 0.0)||
('randomised controlled trials', '', '', '', 0.0)||('reporting', 'verb', 'C0700287', ['hlca'], 0.0)||('the', '', '', '', 0.0)||('analgesic', 'adj', 'C0002771', ['phsu'], 0.0)||('effects', '', '', '', 0.0)||('of', '', '', '', 0.0)||('antidepressant', 'noun', 'C0003289', ['phsu'], 0.0)||('drugs', 'noun', 'C0013227', ['phsu'], 0.0)||('in', '', '', '', 0.0)||('adult', 'noun', 'C0001675', ['aggp'], 0.0)||('patients', 'noun', 'C0030705', ['podg'], 0.0)||(',', '', '', '', 0.0)||('with', '', '', '', 0.0)||('subjective', 'adj', 'C0439655', ['qlco'], 0.0)||('assessment', 'noun', 'C1261322', ['hlca'], 0.0)||('of', '', '', '', 0.0)||('pain', 'noun', 'C0030193', ['sosy'], 0.0)||('of', '', '', '', 0.0)||('neuropathic', '', '', '', 0.0)||('origin', 'noun', 'C0439659', ['tmco'], 0.0)||('.', '', '', '', 0.0)||
('studies', '', '', '', 0.0)||('that', '', '', '', 0.0)||('included', '', '', '', 0.0)||('patients', 'noun', 'C0030705', ['podg'], 0.0)||('with', '', '', '', 0.0)||('chronic', 'adj', 'C0205191', ['tmco'], 0.0)||('headache', 'noun', 'C0018681', ['sosy'], 0.0)||('and', '', '', '', 0.0)||('migraine', 'noun', 'C0149931', ['dsyn'], 0.0)||('were', '', '', '', 0.0)||('excluded', 'verb', 'C1554077', ['idcn'], 0.0)||('.', '', '', '', 0.0)||
('two', 'noun', 'C0205448', ['qnco'], 0.0)||('review', 'noun', 'C0282443', ['inpr'], 0.0)||('authors', 'noun', 'C0341628', ['prog'], 0.0)||('agreed', '', '', '', 0.0)||('the', '', '', '', 0.0)||('included', '', '', '', 0.0)||('studies', '', '', '', 0.0)||(',', '', '', '', 0.0)||('extracted', 'adj', 'C0185115', ['topp'], 0.0)||('data', 'noun', 'C1511726', ['idcn'], 0.0)||(',', '', '', '', 0.0)||('and', '', '', '', 0.0)||('assessed', 'adj', 'C1516048', ['acty'], 0.0)||('methodological', '', '', '', 0.0)||('quality', 'noun', 'C0332306', ['qlco'], 0.0)||('independently', '', '', '', 0.0)||('.', '', '', '', 0.0)||
('sixty', '', '', '', 0.0)||('one', 'noun', 'C0205447', ['qnco'], 0.0)||('trials', '', '', '', 0.0)||('of', '', '', '', 0.0)||('20', '', '', '', 0.0)||('antidepressants', 'noun', 'C0003289', ['phsu'], 0.0)||('were', '', '', '', 0.0)||('considered', '', '', '', 0.0)||('eligible', 'adj', 'C1548635', ['idcn'], 0.0)||('(', '', '', '', 0.0)||('3293', '', '', '', 0.0)||('participants', '', '', '', 0.0)||(')', '', '', '', 0.0)||('for', '', '', '', 0.0)||('inclusion', 'noun', 'C1512693', ['qlco'], 0.0)||('.', '', '', '', 0.0)||
('relative risk', 'noun', 'C0242492', ['qnco'], 0.0)||('and', '', '', '', 0.0)||('number', 'noun', 'C0449788', ['qnco'], 0.0)||('-', '', '', '', 0.0)||('needed', 'verb', 'C0027552', ['qlco'], 0.0)||('-', '', '', '', 0.0)||('to', '', '', '', 0.0)||('-', '', '', '', 0.0)||('treat', 'verb', 'C1292734', ['ftcn'], 0.0)||('(', '', '', '', 0.0)||('nnts', '', '', '', 0.0)||(')', '', '', '', 0.0)||('were', '', '', '', 0.0)||('calculated', 'verb', 'C0444686', ['ftcn'], 0.0)||('from', '', '', '', 0.0)||('dichotomous', '', '', '', 0.0)||('data', 'noun', 'C1511726', ['idcn'], 0.0)||('for', '', '', '', 0.0)||('effectiveness', 'noun', 'C1280519', ['qlco'], 0.0)||('and', '', '', '', 0.0)||('adverse effects', 'noun', 'C0001688', ['ftcn'], 0.0)||('.', '', '', '', 0.0)||
('this', '', '', '', 0.0)||('update', 'noun', 'C1519814', ['tmco'], 0.0)||('includes', 'verb', 'C0332257', ['ftcn'], 0.0)||('11', '', '', '', 0.0)||('additional', 'adj', 'C1524062', ['ftcn'], 0.0)||('studies', '', '', '', 0.0)||('(', '', '', '', 0.0)||('778', '', '', '', 0.0)||('participants', '', '', '', 0.0)||(')', '', '', '', 0.0)||('.', '', '', '', 0.0)||
('sixty', '', '', '', 0.0)||('one', 'noun', 'C0205447', ['qnco'], 0.0)||('randomised controlled trials', '', '', '', 0.0)||('were', '', '', '', 0.0)||('included', '', '', '', 0.0)||('in', '', '', '', 0.0)||('total', 'noun', 'C0439810', ['qlco'], 0.0)||('.', '', '', '', 0.0)||
('tricyclic antidepressants', '', '', '', 0.0)||('are', '', '', '', 0.0)||('effective', 'adj', 'C1704419', ['qlco'], 0.0)||('and', '', '', '', 0.0)||('have', '', '', '', 0.0)||('an', '', '', '', 0.0)||('nnt', 'noun', 'C1417750', ['gngm'], 0.0)||('of', '', '', '', 0.0)||('3 . 6', '', '', '', 0.0)||('(', '', '', '', 0.0)||('95 %', '', '', '', 0.0)||('ci', 'noun', 'C1417638', ['gngm'], 0.0)||('3', '', '', '', 0.0)||('to', '', '', '', 0.0)||('4 . 5', '', '', '', 0.0)||(')', '', '', '', 0.0)||('relative risk', 'noun', 'C0242492', ['qnco'], 0.0)||('2 . 1', '', '', '', 0.0)||('(', '', '', '', 0.0)||('95 %', '', '', '', 0.0)||('ci', 'noun', 'C1417638', ['gngm'], 0.0)||('1 . 8', '', '', '', 0.0)||('to', '', '', '', 0.0)||('2 . 5', '', '', '', 0.0)||(')', '', '', '', 0.0)||('for', '', '', '', 0.0)||('the', '', '', '', 0.0)||('achievement', 'noun', 'C0001072', ['bhvr'], 0.0)||('of', '', '', '', 0.0)||('at', '', '', '', 0.0)||('least', '', '', '', 0.0)||('moderate', 'verb', 'C0205081', ['qlco'], 0.0)||('pain relief', 'noun', 'C0451615', ['topp'], 0.0)||('.', '', '', '', 0.0)||
('there', '', '', '', 0.0)||('is', '', '', '', 0.0)||('limited', 'verb', 'C0439801', ['ftcn'], 0.0)||('evidence', 'noun', 'C0332120', ['ftcn'], 0.0)||('for', '', '', '', 0.0)||('the', '', '', '', 0.0)||('effectiveness', 'noun', 'C1280519', ['qlco'], 0.0)||('of', '', '', '', 0.0)||('the', '', '', '', 0.0)||('newer', '', '', '', 0.0)||('ssris', 'noun', 'C0162758', ['phsu'], 0.0)||('but', '', '', '', 0.0)||('no', '', '', '', 0.0)||('studies', '', '', '', 0.0)||('of', '', '', '', 0.0)||('snris', '', '', '', 0.0)||('were', '', '', '', 0.0)||('found', '', '', '', 0.0)||('.', '', '', '', 0.0)||
('venlafaxine', 'noun', 'C0078569', ['orch', 'phsu'], 0.0)||('(', '', '', '', 0.0)||('three', '', 'C0205449', ['qnco'], 0.0)||('studies', '', '', '', 0.0)||(')', '', '', '', 0.0)||('has', '', '', '', 0.0)||('an', '', '', '', 0.0)||('nnt', 'noun', 'C1417750', ['gngm'], 0.0)||('of', '', '', '', 0.0)||('3 . 1', '', '', '', 0.0)||('(', '', '', '', 0.0)||('95 %', '', '', '', 0.0)||('ci', 'noun', 'C1417638', ['gngm'], 0.0)||('2 . 2', '', '', '', 0.0)||('to', '', '', '', 0.0)||('5 . 1', '', '', '', 0.0)||(')', '', '', '', 0.0)||('relative risk', 'noun', 'C0242492', ['qnco'], 0.0)||('2 . 2', '', '', '', 0.0)||('(', '', '', '', 0.0)||('95 %', '', '', '', 0.0)||('ci', 'noun', 'C1417638', ['gngm'], 0.0)||('1 . 5', '', '', '', 0.0)||('to', '', '', '', 0.0)||('3 . 1', '', '', '', 0.0)||(')', '', '', '', 0.0)||('.', '', '', '', 0.0)||
('there', '', '', '', 0.0)||('were', '', '', '', 0.0)||('insufficient', 'adj', 'C0205412', ['qlco'], 0.0)||('data', 'noun', 'C1511726', ['idcn'], 0.0)||('to', '', '', '', 0.0)||('assess', 'verb', 'C1516048', ['acty'], 0.0)||('effectiveness', 'noun', 'C1280519', ['qlco'], 0.0)||('for', '', '', '', 0.0)||('other', '', '', '', 0.0)||('antidepressants', 'noun', 'C0003289', ['phsu'], 0.0)||('such as', '', '', '', 0.0)||('st johns wort', 'noun', 'C0936242', ['plnt'], 0.0)||('and', '', '', '', 0.0)||('l - tryptophan', '', '', '', 0.0)||('.', '', '', '', 0.0)||
('for', '', '', '', 0.0)||('diabetic neuropathy', '', '', '', 0.0)||('the', '', '', '', 0.0)||('nnt', 'noun', 'C1417750', ['gngm'], 0.0)||('for', '', '', '', 0.0)||('effectiveness', 'noun', 'C1280519', ['qlco'], 0.0)||('was', '', '', '', 0.0)||('1 . 3', '', '', '', 0.0)||('(', '', '', '', 0.0)||('95 %', '', '', '', 0.0)||('ci', 'noun', 'C1417638', ['gngm'], 0.0)||('1 . 2', '', '', '', 0.0)||('to', '', '', '', 0.0)||('1 . 5', '', '', '', 0.0)||(')', '', '', '', 0.0)||('relative risk', 'noun', 'C0242492', ['qnco'], 0.0)||('12 . 4', '', '', '', 0.0)||('(', '', '', '', 0.0)||('95 %', '', '', '', 0.0)||('ci', 'noun', 'C1417638', ['gngm'], 0.0)||('5 . 2', '', '', '', 0.0)||('to', '', '', '', 0.0)||('29 . 2', '', '', '', 0.0)||(')', '', '', '', 0.0)||('(', '', '', '', 0.0)||('five', '', 'C0205451', ['qnco'], 0.0)||('studies', '', '', '', 0.0)||(')', '', '', '', 0.0)||(';', '', '', '', 0.0)||
('for', '', '', '', 0.0)||('postherpetic neuralgia', 'noun', 'C0032768', ['dsyn'], 0.0)||('2 . 7', '', '', '', 0.0)||('(', '', '', '', 0.0)||('95 %', '', '', '', 0.0)||('ci', 'noun', 'C1417638', ['gngm'], 0.0)||('2', '', '', '', 0.0)||('to', '', '', '', 0.0)||('4 . 1', '', '', '', 0.0)||(')', '', '', '', 0.0)||(',', '', '', '', 0.0)||('relative risk', 'noun', 'C0242492', ['qnco'], 0.0)||('2 . 2', '', '', '', 0.0)||('(', '', '', '', 0.0)||('95 %', '', '', '', 0.0)||('ci', 'noun', 'C1417638', ['gngm'], 0.0)||('1 . 6', '', '', '', 0.0)||('to', '', '', '', 0.0)||('3 . 1', '', '', '', 0.0)||(')', '', '', '', 0.0)||('(', '', '', '', 0.0)||('four', '', 'C0205450', ['qnco'], 0.0)||('studies', '', '', '', 0.0)||(')', '', '', '', 0.0)||('.', '', '', '', 0.0)||
('there', '', '', '', 0.0)||('was', '', '', '', 0.0)||('evidence', 'noun', 'C0332120', ['ftcn'], 0.0)||('that', '', '', '', 0.0)||('tricyclic antidepressants', '', '', '', 0.0)||('are', '', '', '', 0.0)||('not', 'adv', 'C1518422', ['ftcn'], 0.0)||('effective', 'adj', 'C1704419', ['qlco'], 0.0)||('in', '', '', '', 0.0)||('hiv', 'noun', 'C0019682', ['virs'], 0.0)||('-', '', '', '', 0.0)||('related', 'adj', 'C0439849', ['qlco'], 0.0)||('neuropathies', '', '', '', 0.0)||('.', '', '', '', 0.0)||
('the', '', '', '', 0.0)||('number', 'noun', 'C0449788', ['qnco'], 0.0)||('needed', 'verb', 'C0027552', ['qlco'], 0.0)||('to', '', '', '', 0.0)||('harm', '', '', '', 0.0)||('for', '', '', '', 0.0)||('major', 'adj', 'C0205164', ['qlco'], 0.0)||('adverse effects', 'noun', 'C0001688', ['ftcn'], 0.0)||('defined', 'verb', 'C1704788', ['cnce'], 0.0)||('as', '', '', '', 0.0)||('an', '', '', '', 0.0)||('event', 'noun', 'C0441471', ['evnt'], 0.0)||('leading', 'verb', 'C0332152', ['tmco'], 0.0)||('to', '', '', '', 0.0)||('withdrawal', 'noun', 'C0237955', ['menp'], 0.0)||('from', '', '', '', 0.0)||('a', '', '', '', 0.0)||('study', 'noun', 'C0008976', ['resa'], 0.0)||('was', '', '', '', 0.0)||('28', '', '', '', 0.0)||('(', '', '', '', 0.0)||('95 %', '', '', '', 0.0)||('ci', 'noun', 'C1417638', ['gngm'], 0.0)||('17 . 6', '', '', '', 0.0)||('to', '', '', '', 0.0)||('68 . 9', '', '', '', 0.0)||(')', '', '', '', 0.0)||('for', '', '', '', 0.0)||('amitriptyline', 'noun', 'C0002600', ['orch', 'phsu'], 0.0)||('and', '', '', '', 0.0)||('16 . 2', '', '', '', 0.0)||('(', '', '', '', 0.0)||('95 %', '', '', '', 0.0)||('ci', 'noun', 'C1417638', ['gngm'], 0.0)||('8', '', '', '', 0.0)||('to', '', '', '', 0.0)||('436', '', '', '', 0.0)||(')', '', '', '', 0.0)||('for', '', '', '', 0.0)||('venlafaxine', 'noun', 'C0078569', ['orch', 'phsu'], 0.0)||('.', '', '', '', 0.0)||
('the', '', '', '', 0.0)||('number', 'noun', 'C0449788', ['qnco'], 0.0)||('needed', 'verb', 'C0027552', ['qlco'], 0.0)||('to', '', '', '', 0.0)||('harm', '', '', '', 0.0)||('for', '', '', '', 0.0)||('minor', 'adj', 'C0026193', ['popg'], 0.0)||('adverse effects', 'noun', 'C0001688', ['ftcn'], 0.0)||('was', '', '', '', 0.0)||('6', '', '', '', 0.0)||('(', '', '', '', 0.0)||('95 %', '', '', '', 0.0)||('ci', 'noun', 'C1417638', ['gngm'], 0.0)||('4 . 2', '', '', '', 0.0)||('to', '', '', '', 0.0)||('10 . 7', '', '', '', 0.0)||(')', '', '', '', 0.0)||('for', '', '', '', 0.0)||('amitriptyline', 'noun', 'C0002600', ['orch', 'phsu'], 0.0)||('and', '', '', '', 0.0)||('9 . 6', '', '', '', 0.0)||('(', '', '', '', 0.0)||('95 %', '', '', '', 0.0)||('ci', 'noun', 'C1417638', ['gngm'], 0.0)||('3 . 5', '', '', '', 0.0)||('to', '', '', '', 0.0)||('13', '', '', '', 0.0)||(')', '', '', '', 0.0)||('for', '', '', '', 0.0)||('venlafaxine', 'noun', 'C0078569', ['orch', 'phsu'], 0.0)||('.', '', '', '', 0.0)||
('this', '', '', '', 0.0)||('update', 'noun', 'C1519814', ['tmco'], 0.0)||('has', '', '', '', 0.0)||('provided', '', '', '', 0.0)||('additional', 'adj', 'C1524062', ['ftcn'], 0.0)||('confirmation', 'noun', 'C0750484', ['idcn'], 0.0)||('on', '', '', '', 0.0)||('the', '', '', '', 0.0)||('effectiveness', 'noun', 'C1280519', ['qlco'], 0.0)||('of', '', '', '', 0.0)||('antidepressants', 'noun', 'C0003289', ['phsu'], 0.0)||('for', '', '', '', 0.0)||('neuropathic pain', 'noun', 'C0423716', ['sosy'], 0.0)||('and', '', '', '', 0.0)||('has', '', '', '', 0.0)||('provided', '', '', '', 0.0)||('new', 'adj', 'C0205314', ['tmco'], 0.0)||('information', 'noun', 'C1533716', ['idcn'], 0.0)||('on', '', '', '', 0.0)||('another', '', '', '', 0.0)||('antidepressant', 'noun', 'C0003289', ['phsu'], 0.0)||('-', '', '', '', 0.0)||('venlafaxine', 'noun', 'C0078569', ['orch', 'phsu'], 0.0)||('.', '', '', '', 0.0)||
('there', '', '', '', 0.0)||('is', '', '', '', 0.0)||('still', '', '', '', 0.0)||('limited', 'adj', 'C0439801', ['ftcn'], 0.0)||('evidence', 'noun', 'C0332120', ['ftcn'], 0.0)||('for', '', '', '', 0.0)||('the', '', '', '', 0.0)||('role', 'noun', 'C0035820', ['socb'], 0.0)||('of', '', '', '', 0.0)||('ssris', 'noun', 'C0162758', ['phsu'], 0.0)||('.', '', '', '', 0.0)||
('whether', '', '', '', 0.0)||('antidepressants', 'noun', 'C0003289', ['phsu'], 0.0)||('prevent', 'verb', 'C0309872', ['phsu'], 0.0)||('the', '', '', '', 0.0)||('development', 'noun', 'C0020119', ['phsf'], 0.0)||('of', '', '', '', 0.0)||('neuropathic pain', 'noun', 'C0423716', ['sosy'], 0.0)||('(', '', '', '', 0.0)||('pre - emptive', '', '', '', 0.0)||('use', 'noun', 'C0042153', ['ftcn'], 0.0)||(')', '', '', '', 0.0)||('is', '', '', '', 0.0)||('still', '', '', '', 0.0)||('unclear', '', '', '', 0.0)||('.', '', '', '', 0.0)||
('both', '', '', '', 0.0)||('tricyclic antidepressants', '', '', '', 0.0)||('and', '', '', '', 0.0)||('venlafaxine', 'noun', 'C0078569', ['orch', 'phsu'], 0.0)||('have', '', '', '', 0.0)||('nnts', '', '', '', 0.0)||('of', '', '', '', 0.0)||('approximately', 'adv', 'C0332232', ['qlco'], 0.0)||('three', '', 'C0205449', ['qnco'], 0.0)||('.', '', '', '', 0.0)||
('this', '', '', '', 0.0)||('means', 'noun', 'C1704970', ['cnce'], 0.0)||('that', '', '', '', 0.0)||('for', '', '', '', 0.0)||('approximately', 'adv', 'C0332232', ['qlco'], 0.0)||('every', '', '', '', 0.0)||('three', '', 'C0205449', ['qnco'], 0.0)||('patients', 'noun', 'C0030705', ['podg'], 0.0)||('with', '', '', '', 0.0)||('neuropathic pain', 'noun', 'C0423716', ['sosy'], 0.0)||('who', '', '', '', 0.0)||('are', '', '', '', 0.0)||('treated', 'verb', 'C1522326', ['ftcn'], 0.0)||('with', '', '', '', 0.0)||('either', '', '', '', 0.0)||('of', '', '', '', 0.0)||('these', '', '', '', 0.0)||('antidepressants', 'noun', 'C0003289', ['phsu'], 0.0)||(',', '', '', '', 0.0)||('one', 'noun', 'C0205447', ['qnco'], 0.0)||('will', '', '', '', 0.0)||('get', '', '', '', 0.0)||('at', '', '', '', 0.0)||('least', '', '', '', 0.0)||('moderate', 'verb', 'C0205081', ['qlco'], 0.0)||('pain relief', 'noun', 'C0451615', ['topp'], 0.0)||('.', '', '', '', 0.0)||
('there', '', '', '', 0.0)||('is', '', '', '', 0.0)||('evidence', 'noun', 'C0332120', ['ftcn'], 0.0)||('to', '', '', '', 0.0)||('suggest', 'verb', 'C1705535', ['idcn'], 0.0)||('that', '', '', '', 0.0)||('other', '', '', '', 0.0)||('antidepressants', 'noun', 'C0003289', ['phsu'], 0.0)||('may', '', '', '', 0.0)||('be', '', '', '', 0.0)||('effective', 'adj', 'C1704419', ['qlco'], 0.0)||('but', '', '', '', 0.0)||('numbers', 'noun', 'C0237753', ['qnco'], 0.0)||('of', '', '', '', 0.0)||('participants', '', '', '', 0.0)||('are', '', '', '', 0.0)||('insufficient', 'adj', 'C0205412', ['qlco'], 0.0)||('to', '', '', '', 0.0)||('calculate', 'verb', 'C1441506', ['acty'], 0.0)||('robust', '', '', '', 0.0)||('nnts', '', '', '', 0.0)||('.', '', '', '', 0.0)||
('ssris', 'noun', 'C0162758', ['phsu'], 0.0)||('are', '', '', '', 0.0)||('generally', '', '', '', 0.0)||('better', 'adj', 'C0332272', ['qlco'], 0.0)||('tolerated', '', '', '', 0.0)||('by', '', '', '', 0.0)||('patients', 'noun', 'C0030705', ['podg'], 0.0)||('and', '', '', '', 0.0)||('more', '', '', '', 0.0)||('high quality', '', '', '', 0.0)||('studies', '', '', '', 0.0)||('are', '', '', '', 0.0)||('required', 'verb', 'C1514873', ['ftcn'], 0.0)||('.', '', '', '', 0.0)||
