('statins', 'noun', 'C0360714', ['orch', 'phsu'], 0.0)||('for', '', '', '', 0.0)||('the', '', '', '', 0.0)||('reduction', 'noun', 'C0301630', ['npop'], 0.0)||('of', '', '', '', 0.0)||('risk', 'noun', 'C0035647', ['qlco'], 0.0)||('of', '', '', '', 0.0)||("alzheimer ' s disease", '', '', '', 0.0)||('.', '', '', '', 0.0)||
('background', 'noun', 'C1706907', ['cnce'], 0.0)||(':', '', '', '', 0.0)||(':', '', '', '', 0.0)||('two', 'noun', 'C0205448', ['qnco'], 0.0)||('recent', 'adj', 'C0332185', ['tmco'], 0.0)||('clinical', 'adj', 'C0205210', ['qlco'], 0.0)||('reports', 'noun', 'C0684224', ['inpr'], 0.0)||('describe', '', '', '', 0.0)||('an', '', '', '', 0.0)||('association', 'noun', 'C0004083', ['menp'], 0.0)||('between', '', '', '', 0.0)||('statin', 'noun', 'C0360714', ['orch', 'phsu'], 0.0)||('therapy', 'noun', 'C0039798', ['ftcn'], 0.0)||('and', '', '', '', 0.0)||('a', '', '', '', 0.0)||('reduction', 'noun', 'C0301630', ['npop'], 0.0)||('in', '', '', '', 0.0)||('the', '', '', '', 0.0)||('occurrence', 'noun', 'C0243132', ['qnco'], 0.0)||('of', '', '', '', 0.0)||("alzheimer ' s disease", '', '', '', 0.0)||('by', '', '', '', 0.0)||('as', '', '', '', 0.0)||('much', '', '', '', 0.0)||('as', '', '', '', 0.0)||('70 %', '', '', '', 0.0)||('.', '', '', '', 0.0)||
('one', 'noun', 'C0205447', ['qnco'], 0.0)||('report', 'noun', 'C0684224', ['inpr'], 0.0)||('is', '', '', '', 0.0)||('a', '', '', '', 0.0)||('cross - sectional', '', '', '', 0.0)||('analysis', 'noun', 'C0002778', ['lbpr'], 0.0)||('of', '', '', '', 0.0)||('discharges', 'noun', 'C0012621', ['bdsu'], 0.0)||('among', '', '', '', 0.0)||('three', '', 'C0205449', ['qnco'], 0.0)||('hospitals', 'noun', 'C0019994', ['hcro', 'mnob'], 0.0)||(',', '', '', '', 0.0)||('and', '', '', '', 0.0)||('the', '', '', '', 0.0)||('other', '', '', '', 0.0)||('is', '', '', '', 0.0)||('a', '', '', '', 0.0)||('nested case control study', '', '', '', 0.0)||('drawn', '', '', '', 0.0)||('from', '', '', '', 0.0)||('ambulatory', 'adj', 'C0439841', ['ftcn'], 0.0)||('patients', 'noun', 'C0030705', ['podg'], 0.0)||('of', '', '', '', 0.0)||('general practitioners', 'noun', 'C0017319', ['prog'], 0.0)||('in', '', '', '', 0.0)||('the', '', '', '', 0.0)||('uk', '', '', '', 0.0)||('.', '', '', '', 0.0)||
('because', '', '', '', 0.0)||('neither', '', '', '', 0.0)||('study', 'noun', 'C0008976', ['resa'], 0.0)||('is', '', '', '', 0.0)||('a', '', '', '', 0.0)||('randomized', 'adj', 'C0034656', ['resa'], 0.0)||('trial', 'noun', 'C0008976', ['resa'], 0.0)||(',', '', '', '', 0.0)||('the', '', '', '', 0.0)||('association', 'noun', 'C0004083', ['menp'], 0.0)||('noted', '', '', '', 0.0)||('between', '', '', '', 0.0)||('statin', 'noun', 'C0360714', ['orch', 'phsu'], 0.0)||('therapy', 'noun', 'C0039798', ['ftcn'], 0.0)||('and', '', '', '', 0.0)||('a', '', '', '', 0.0)||('reduced', 'adj', 'C0392756', ['qlco'], 0.0)||('incidence', 'noun', 'C0021149', ['qnco'], 0.0)||('of', '', '', '', 0.0)||("alzheimer ' s disease", '', '', '', 0.0)||('may', '', '', '', 0.0)||('have', '', '', '', 0.0)||('occurred', 'verb', 'C1709305', ['cnce'], 0.0)||('because', '', '', '', 0.0)||('other', '', '', '', 0.0)||('factors', '', '', '', 0.0)||(',', '', '', '', 0.0)||('unaccounted', '', '', '', 0.0)||('for', '', '', '', 0.0)||('in', '', '', '', 0.0)||('the', '', '', '', 0.0)||('studies', '', '', '', 0.0)||(',', '', '', '', 0.0)||('may', '', '', '', 0.0)||('be', '', '', '', 0.0)||('present', 'adj', 'C0150312', ['qnco'], 0.0)||('(', '', '', '', 0.0)||('so called', '', '', '', 0.0)||('bias', 'noun', 'C0242568', ['idcn'], 0.0)||(')', '', '', '', 0.0)||('and', '', '', '', 0.0)||('be', '', '', '', 0.0)||('responsible', 'adj', 'C1273518', ['fndg'], 0.0)||('for', '', '', '', 0.0)||('the', '', '', '', 0.0)||('observed', 'adj', 'C1441672', ['ftcn'], 0.0)||('association', 'noun', 'C0004083', ['menp'], 0.0)||('.', '', '', '', 0.0)||
('however', '', '', '', 0.0)||(',', '', '', '', 0.0)||('there', '', '', '', 0.0)||('is', '', '', '', 0.0)||('an', '', '', '', 0.0)||('expanding', 'adj', 'C0205229', ['spco'], 0.0)||('body', 'noun', 'C0460148', ['anst'], 0.0)||('of', '', '', '', 0.0)||('biological', 'adj', 'C0005532', ['bmod'], 0.0)||('and', '', '', '', 0.0)||('epidemiological', 'adj', 'C0014507', ['bmod'], 0.0)||('data', 'noun', 'C1511726', ['idcn'], 0.0)||('that', '', '', '', 0.0)||('makes', '', '', '', 0.0)||('it', '', '', '', 0.0)||('plausible', '', '', '', 0.0)||('that', '', '', '', 0.0)||('statin', 'noun', 'C0360714', ['orch', 'phsu'], 0.0)||('therapy', 'noun', 'C0039798', ['ftcn'], 0.0)||('may', '', '', '', 0.0)||('retard', '', '', '', 0.0)||('or', '', '', '', 0.0)||('prevent', 'verb', 'C0309872', ['phsu'], 0.0)||('the', '', '', '', 0.0)||('pathogenesis', 'noun', 'C0543483', ['ftcn'], 0.0)||('and', '', '', '', 0.0)||('clinical', 'adj', 'C0205210', ['qlco'], 0.0)||('expression', 'noun', 'C0185117', ['topp'], 0.0)||('of', '', '', '', 0.0)||("alzheimer ' s disease", '', '', '', 0.0)||('.', '', '', '', 0.0)||
('this', '', '', '', 0.0)||('review', 'noun', 'C0282443', ['inpr'], 0.0)||('was', '', '', '', 0.0)||('initiated', '', '', '', 0.0)||('in', '', '', '', 0.0)||('order', 'noun', 'C1705175', ['inpr'], 0.0)||('to', '', '', '', 0.0)||('find', 'verb', 'C0243095', ['fndg'], 0.0)||('other', '', '', '', 0.0)||('clinical', 'adj', 'C0205210', ['qlco'], 0.0)||('evidence', 'noun', 'C0332120', ['ftcn'], 0.0)||('that', '', '', '', 0.0)||('might', '', '', '', 0.0)||('support', 'verb', 'C0183683', ['medd'], 0.0)||('or', '', '', '', 0.0)||('refute', '', '', '', 0.0)||('the', '', '', '', 0.0)||('hypothesized', '', '', '', 0.0)||('benefit', 'noun', 'C0814225', ['qnco'], 0.0)||('of', '', '', '', 0.0)||('statin', 'noun', 'C0360714', ['orch', 'phsu'], 0.0)||('therapy', 'noun', 'C0039798', ['ftcn'], 0.0)||('.', '', '', '', 0.0)||
('objective', 'noun', 'C0018017', ['inpr'], 0.0)||(':', '', '', '', 0.0)||(':', '', '', '', 0.0)||('the', '', '', '', 0.0)||('purpose', 'noun', 'C1285529', ['ftcn'], 0.0)||('is', '', '', '', 0.0)||('to', '', '', '', 0.0)||('review', 'verb', 'C0282443', ['inpr'], 0.0)||('the', '', '', '', 0.0)||('evidence', 'noun', 'C0332120', ['ftcn'], 0.0)||('that', '', '', '', 0.0)||('treatment', 'noun', 'C0039798', ['ftcn'], 0.0)||('with', '', '', '', 0.0)||('statins', 'noun', 'C0360714', ['orch', 'phsu'], 0.0)||('reduces', '', '', '', 0.0)||('the', '', '', '', 0.0)||('risk', 'noun', 'C0035647', ['qlco'], 0.0)||('of', '', '', '', 0.0)||("alzheimer ' s disease", '', '', '', 0.0)||('.', '', '', '', 0.0)||
('methods', 'noun', 'C0025663', ['inpr'], 0.0)||(':', '', '', '', 0.0)||(':', '', '', '', 0.0)||('the', '', '', '', 0.0)||('following', '', '', '', 0.0)||('data bases', '', '', '', 0.0)||('were', '', '', '', 0.0)||('searched', 'verb', 'C1706202', ['acty'], 0.0)||(':', '', '', '', 0.0)||('specialised', 'noun', 'C1704211', ['cnce'], 0.0)||('register', '', '', '', 0.0)||('of', '', '', '', 0.0)||('the', '', '', '', 0.0)||('cochrane', '', '', '', 0.0)||('dementia', 'noun', 'C0497327', ['dsyn'], 0.0)||('and', '', '', '', 0.0)||('cognitive', 'adj', 'C1516691', ['ftcn'], 0.0)||('improvement', '', '', '', 0.0)||('group', 'noun', 'C0441833', ['idcn'], 0.0)||(',', '', '', '', 0.0)||('medline', 'noun', 'C0025141', ['inpr'], 0.0)||('(', '', '', '', 0.0)||('1966', '', '', '', 0.0)||('-', '', '', '', 0.0)||('2000 / 12', '', '', '', 0.0)||(')', '', '', '', 0.0)||(',', '', '', '', 0.0)||('embase', '', '', '', 0.0)||('(', '', '', '', 0.0)||('1980', '', '', '', 0.0)||('-', '', '', '', 0.0)||('2000 / 12', '', '', '', 0.0)||(')', '', '', '', 0.0)||(',', '', '', '', 0.0)||('and', '', '', '', 0.0)||('psych', 'noun', 'C1306597', ['mobd'], 0.0)||('info', 'noun', 'C1533716', ['idcn'], 0.0)||('(', '', '', '', 0.0)||('1987', '', '', '', 0.0)||('-', '', '', '', 0.0)||('2000 / 11', '', '', '', 0.0)||(')', '', '', '', 0.0)||('.', '', '', '', 0.0)||
('search', 'noun', 'C1552603', ['idcn'], 0.0)||('terms', '', '', '', 0.0)||('included', '', '', '', 0.0)||('statins', 'noun', 'C0360714', ['orch', 'phsu'], 0.0)||(',', '', '', '', 0.0)||('lovastatin', 'noun', 'C0024027', ['orch', 'phsu'], 0.0)||(',', '', '', '', 0.0)||('pravastatin', 'noun', 'C0085542', ['orch', 'phsu'], 0.0)||(',', '', '', '', 0.0)||('simvastatin', 'noun', 'C0074554', ['orch', 'phsu'], 0.0)||(',', '', '', '', 0.0)||('alzheimer', 'noun', 'C0002395', ['dsyn'], 0.0)||('*', '', '', '', 0.0)||(',', '', '', '', 0.0)||('dement', '', '', '', 0.0)||('*', '', '', '', 0.0)||(',', '', '', '', 0.0)||('cogn', '', '', '', 0.0)||('*', '', '', '', 0.0)||('.', '', '', '', 0.0)||
('methods', 'noun', 'C0025663', ['inpr'], 0.0)||(':', '', '', '', 0.0)||(':', '', '', '', 0.0)||('in', '', '', '', 0.0)||('order', 'noun', 'C1705175', ['inpr'], 0.0)||('to', '', '', '', 0.0)||('be', '', '', '', 0.0)||('selected', '', '', '', 0.0)||(',', '', '', '', 0.0)||('trials', '', '', '', 0.0)||('needed', 'verb', 'C0027552', ['qlco'], 0.0)||('to', '', '', '', 0.0)||('be', '', '', '', 0.0)||('randomized', 'verb', 'C0034656', ['resa'], 0.0)||(',', '', '', '', 0.0)||('doubled', '', '', '', 0.0)||('blinded', 'adj', 'C0150108', ['resa'], 0.0)||(',', '', '', '', 0.0)||('and', '', '', '', 0.0)||('of', '', '', '', 0.0)||('sufficient', 'adj', 'C0205410', ['qlco'], 0.0)||('duration', 'noun', 'C0449238', ['tmco'], 0.0)||('(', '', '', '', 0.0)||('probably', 'adv', 'C0750492', ['idcn'], 0.0)||('years', 'noun', 'C0439234', ['tmco'], 0.0)||('rather than', '', '', '', 0.0)||('weeks', 'noun', 'C0439230', ['tmco'], 0.0)||('or', '', '', '', 0.0)||('months', 'noun', 'C0439231', ['tmco'], 0.0)||(')', '', '', '', 0.0)||('to', '', '', '', 0.0)||('ascertain', '', '', '', 0.0)||('the', '', '', '', 0.0)||('preventive', 'adj', 'C1456501', ['qlco'], 0.0)||('potential', 'noun', 'C0035647', ['qlco'], 0.0)||('of', '', '', '', 0.0)||('statin', 'noun', 'C0360714', ['orch', 'phsu'], 0.0)||('therapy', 'noun', 'C0039798', ['ftcn'], 0.0)||('.', '', '', '', 0.0)||
('methods', 'noun', 'C0025663', ['inpr'], 0.0)||(':', '', '', '', 0.0)||(':', '', '', '', 0.0)||('data', 'noun', 'C1511726', ['idcn'], 0.0)||('were', '', '', '', 0.0)||('to', '', '', '', 0.0)||('be', '', '', '', 0.0)||('extracted', 'verb', 'C0185115', ['topp'], 0.0)||('independently', '', '', '', 0.0)||('by', '', '', '', 0.0)||('two', 'adj', 'C0205448', ['qnco'], 0.0)||('reviewers', '', '', '', 0.0)||('and', '', '', '', 0.0)||('pooled', 'verb', 'C1709595', ['cnce'], 0.0)||('where', '', '', '', 0.0)||('appropriate', 'adj', 'C1548787', ['qlco'], 0.0)||('and', '', '', '', 0.0)||('possible', 'adj', 'C0332149', ['qlco'], 0.0)||('.', '', '', '', 0.0)||
('the', '', '', '', 0.0)||('pooled', 'adj', 'C1709595', ['cnce'], 0.0)||('odds ratios', 'noun', 'C0028873', ['qnco'], 0.0)||('(', '', '', '', 0.0)||('95 %', '', '', '', 0.0)||('ci', 'noun', 'C1417638', ['gngm'], 0.0)||(')', '', '', '', 0.0)||('or', '', '', '', 0.0)||('the', '', '', '', 0.0)||('average', 'adj', 'C1510992', ['qnco'], 0.0)||('differences', '', '', '', 0.0)||('were', '', '', '', 0.0)||('to', '', '', '', 0.0)||('be', '', '', '', 0.0)||('estimated', 'verb', 'C0750572', ['qnco'], 0.0)||('.', '', '', '', 0.0)||
('results', 'noun', 'C1274040', ['ftcn'], 0.0)||(':', '', '', '', 0.0)||(':', '', '', '', 0.0)||('there', '', '', '', 0.0)||('were', '', '', '', 0.0)||('no', '', '', '', 0.0)||('randomized', 'adj', 'C0034656', ['resa'], 0.0)||('trials', '', '', '', 0.0)||('found', '', '', '', 0.0)||('in', '', '', '', 0.0)||('the', '', '', '', 0.0)||('search', 'noun', 'C1552603', ['idcn'], 0.0)||('.', '', '', '', 0.0)||
('conclusions', 'noun', 'C1707478', ['idcn'], 0.0)||(':', '', '', '', 0.0)||(':', '', '', '', 0.0)||('there', '', '', '', 0.0)||('is', '', '', '', 0.0)||('no', '', '', '', 0.0)||('good', 'adj', 'C0205170', ['qlco'], 0.0)||('evidence', 'noun', 'C0332120', ['ftcn'], 0.0)||('to', '', '', '', 0.0)||('recommend', '', '', '', 0.0)||('statins', 'noun', 'C0360714', ['orch', 'phsu'], 0.0)||('for', '', '', '', 0.0)||('reducing', 'noun', 'C0392756', ['qlco'], 0.0)||('the', '', '', '', 0.0)||('risk', 'noun', 'C0035647', ['qlco'], 0.0)||('of', '', '', '', 0.0)||("alzheimer ' s disease", '', '', '', 0.0)||('.', '', '', '', 0.0)||
('there', '', '', '', 0.0)||('is', '', '', '', 0.0)||(',', '', '', '', 0.0)||('however', '', '', '', 0.0)||(',', '', '', '', 0.0)||('a', '', '', '', 0.0)||('growing', '', '', '', 0.0)||('body', 'noun', 'C0460148', ['anst'], 0.0)||('of', '', '', '', 0.0)||('biological', 'adj', 'C0005532', ['bmod'], 0.0)||(',', '', '', '', 0.0)||('epidemiological', 'adj', 'C0014507', ['bmod'], 0.0)||(',', '', '', '', 0.0)||('and', '', '', '', 0.0)||('limited', 'adj', 'C0439801', ['ftcn'], 0.0)||('but', '', '', '', 0.0)||('non - randomized', '', '', '', 0.0)||('clinical', 'adj', 'C0205210', ['qlco'], 0.0)||('evidence', 'noun', 'C0332120', ['ftcn'], 0.0)||('that', '', '', '', 0.0)||('lowering', 'adj', 'C2003888', ['ftcn'], 0.0)||('serum cholesterol', 'noun', 'C0587184', ['lbpr'], 0.0)||('may', '', '', '', 0.0)||('retard', '', '', '', 0.0)||('the', '', '', '', 0.0)||('pathogenesis', 'noun', 'C0543483', ['ftcn'], 0.0)||('of', '', '', '', 0.0)||("alzheimer ' s disease", '', '', '', 0.0)||('.', '', '', '', 0.0)||
('mounting', '', '', '', 0.0)||('the', '', '', '', 0.0)||('clinical studies', 'noun', 'C0008972', ['resa'], 0.0)||('to', '', '', '', 0.0)||('determine', '', '', '', 0.0)||('the', '', '', '', 0.0)||('potential', 'adj', 'C0035647', ['qlco'], 0.0)||('benefit', 'noun', 'C0814225', ['qnco'], 0.0)||('of', '', '', '', 0.0)||('statin', 'noun', 'C0360714', ['orch', 'phsu'], 0.0)||('therapy', 'noun', 'C0039798', ['ftcn'], 0.0)||('should', '', '', '', 0.0)||('be', '', '', '', 0.0)||('a', '', '', '', 0.0)||('high priority', 'adj', 'C1273516', ['tmco'], 0.0)||('for', '', '', '', 0.0)||('future', 'adj', 'C0016884', ['tmco'], 0.0)||('research', 'noun', 'C0035168', ['resa'], 0.0)||('agendas', '', '', '', 0.0)||('.', '', '', '', 0.0)||
