('accruing', '', '', '', 0.0)||('evidence', 'noun', 'C0332120', ['ftcn'], 0.0)||('from', '', '', '', 0.0)||('observational', 'adj', 'C1964257', ['diap'], 0.0)||('and', '', '', '', 0.0)||('epidemiological studies', 'noun', 'C0002783', ['resa'], 0.0)||('suggests', '', '', '', 0.0)||('an', '', '', '', 0.0)||('inverse', 'adj', 'C0439850', ['qlco'], 0.0)||('relationship', 'noun', 'C0439849', ['qlco'], 0.0)||('between', '', '', '', 0.0)||('dietary', 'adj', 'C0012155', ['food'], 0.0)||('intake', 'noun', 'C1512806', ['ftcn'], 0.0)||('of', '', '', '', 0.0)||('omega', 'noun', 'C1719844', ['inpr'], 0.0)||('3', '', '', '', 0.0)||('polyunsaturated fatty acid', 'noun', 'C0032615', ['bacs', 'lipd'], 0.0)||('and', '', '', '', 0.0)||('risk', 'noun', 'C0035647', ['qlco'], 0.0)||('of', '', '', '', 0.0)||('dementia', 'noun', 'C0497327', ['dsyn'], 0.0)||('.', '', '', '', 0.0)||
('postulated', '', '', '', 0.0)||('mechanisms', 'noun', 'C0441712', ['ftcn'], 0.0)||('that', '', '', '', 0.0)||('might', '', '', '', 0.0)||('qualify', '', '', '', 0.0)||('omega', 'noun', 'C1719844', ['inpr'], 0.0)||('3', '', '', '', 0.0)||('polyunsaturated fatty acid', 'noun', 'C0032615', ['bacs', 'lipd'], 0.0)||('as', '', '', '', 0.0)||('an', '', '', '', 0.0)||('interventional', 'adj', 'C1948041', ['topp'], 0.0)||('target', 'noun', 'C1521840', ['ftcn'], 0.0)||('for', '', '', '', 0.0)||('the', '', '', '', 0.0)||('primary', 'adj', 'C0205225', ['qlco'], 0.0)||('prevention', 'noun', 'C0199176', ['topp'], 0.0)||('of', '', '', '', 0.0)||('dementia', 'noun', 'C0497327', ['dsyn'], 0.0)||('include', 'verb', 'C1552866', ['idcn'], 0.0)||('its', '', '', '', 0.0)||('anti - atherogenic', '', '', '', 0.0)||(',', '', '', '', 0.0)||('anti - inflammatory', '', '', '', 0.0)||(',', '', '', '', 0.0)||('anti - oxidant', '', '', '', 0.0)||(',', '', '', '', 0.0)||('anti - amyloid', '', '', '', 0.0)||('and', '', '', '', 0.0)||('neuroprotective', '', '', '', 0.0)||('properties', '', '', '', 0.0)||('.', '', '', '', 0.0)||
('to', '', '', '', 0.0)||('review', 'verb', 'C0282443', ['inpr'], 0.0)||('the', '', '', '', 0.0)||('evidence', 'noun', 'C0332120', ['ftcn'], 0.0)||('that', '', '', '', 0.0)||('omega', 'noun', 'C1719844', ['inpr'], 0.0)||('3', '', '', '', 0.0)||('polyunsaturated fatty acid', 'noun', 'C0032615', ['bacs', 'lipd'], 0.0)||('supplementation', 'noun', 'C1515075', ['topp'], 0.0)||('prevents', 'verb', 'C1292733', ['ftcn'], 0.0)||('cognitive', 'adj', 'C1516691', ['ftcn'], 0.0)||('impairment', 'noun', 'C0684336', ['fndg'], 0.0)||('and', '', '', '', 0.0)||('dementia', 'noun', 'C0497327', ['dsyn'], 0.0)||('in', '', '', '', 0.0)||('cognitively', '', '', '', 0.0)||('intact', 'adj', 'C0205266', ['qlco'], 0.0)||('elderly', 'adj', 'C0001792', ['popg'], 0.0)||('persons', 'noun', 'C0027361', ['popg'], 0.0)||('.', '', '', '', 0.0)||
('the', '', '', '', 0.0)||('cochrane', '', '', '', 0.0)||('dementia', 'noun', 'C0497327', ['dsyn'], 0.0)||('and', '', '', '', 0.0)||('cognitive', 'adj', 'C1516691', ['ftcn'], 0.0)||('improvement', '', '', '', 0.0)||('group', 'noun', 'C0441833', ['idcn'], 0.0)||("' s", '', '', '', 0.0)||('specialized', '', '', '', 0.0)||('register', '', '', '', 0.0)||(',', '', '', '', 0.0)||('medline', 'noun', 'C0025141', ['inpr'], 0.0)||(',', '', '', '', 0.0)||('embase', '', '', '', 0.0)||(',', '', '', '', 0.0)||('cinahl', '', '', '', 0.0)||('psycinfo', '', '', '', 0.0)||(',', '', '', '', 0.0)||('amed', '', '', '', 0.0)||('and', '', '', '', 0.0)||('central', 'adj', 'C0205099', ['spco'], 0.0)||('and', '', '', '', 0.0)||('several', '', '', '', 0.0)||('ongoing', 'adj', 'C0549178', ['idcn'], 0.0)||('trials', '', '', '', 0.0)||('databases', 'noun', 'C0242356', ['inpr'], 0.0)||('were', '', '', '', 0.0)||('searched', 'verb', 'C1706202', ['acty'], 0.0)||('on', '', '', '', 0.0)||('5', '', '', '', 0.0)||('and', '', '', '', 0.0)||('6', '', '', '', 0.0)||('october', '', '', '', 0.0)||('2005', '', '', '', 0.0)||('.', '', '', '', 0.0)||
('the', '', '', '', 0.0)||('cochrane', '', '', '', 0.0)||('dementia', 'noun', 'C0497327', ['dsyn'], 0.0)||('and', '', '', '', 0.0)||('cognitive', 'adj', 'C1516691', ['ftcn'], 0.0)||('improvement', '', '', '', 0.0)||('group', 'noun', 'C0441833', ['idcn'], 0.0)||("' s", '', '', '', 0.0)||('register', '', '', '', 0.0)||('is', '', '', '', 0.0)||('updated', '', '', '', 0.0)||('regularly', '', '', '', 0.0)||('and', '', '', '', 0.0)||('contains', 'verb', 'C1549781', ['idcn'], 0.0)||('records', 'noun', 'C0034869', ['inpr'], 0.0)||('from', '', '', '', 0.0)||('all', '', '', '', 0.0)||('major medical', 'adj', 'C1549486', ['idcn'], 0.0)||('databases', 'noun', 'C0242356', ['inpr'], 0.0)||('and', '', '', '', 0.0)||('many', '', '', '', 0.0)||('ongoing', 'adj', 'C0549178', ['idcn'], 0.0)||('trials', '', '', '', 0.0)||('databases', 'noun', 'C0242356', ['inpr'], 0.0)||('.', '', '', '', 0.0)||
('in', '', '', '', 0.0)||('order', 'noun', 'C1705175', ['inpr'], 0.0)||('to', '', '', '', 0.0)||('be', '', '', '', 0.0)||('selected', '', '', '', 0.0)||(',', '', '', '', 0.0)||('trials', '', '', '', 0.0)||('needed', 'verb', 'C0027552', ['qlco'], 0.0)||('to', '', '', '', 0.0)||('be', '', '', '', 0.0)||('randomized', 'verb', 'C0034656', ['resa'], 0.0)||(',', '', '', '', 0.0)||('placebo - controlled', '', '', '', 0.0)||(',', '', '', '', 0.0)||('doubled', '', '', '', 0.0)||('blinded', 'adj', 'C0150108', ['resa'], 0.0)||(',', '', '', '', 0.0)||('of', '', '', '', 0.0)||('minimum', 'noun', 'C1524031', ['qlco'], 0.0)||('study', 'noun', 'C0008976', ['resa'], 0.0)||('duration', 'noun', 'C0449238', ['tmco'], 0.0)||('of', '', '', '', 0.0)||('6', '', '', '', 0.0)||('months', 'noun', 'C0439231', ['tmco'], 0.0)||(',', '', '', '', 0.0)||('involved', 'adj', 'C1314939', ['ftcn'], 0.0)||('persons', 'noun', 'C0027361', ['popg'], 0.0)||('aged', 'verb', 'C0001779', ['orga'], 0.0)||('60', '', '', '', 0.0)||('years', 'noun', 'C0439234', ['tmco'], 0.0)||('and', '', '', '', 0.0)||('above', '', '', '', 0.0)||('without', '', '', '', 0.0)||('pre - existing', '', '', '', 0.0)||('dementia', 'noun', 'C0497327', ['dsyn'], 0.0)||('at', '', '', '', 0.0)||('study', 'noun', 'C0008976', ['resa'], 0.0)||('onset', 'noun', 'C0332162', ['qlco'], 0.0)||(',', '', '', '', 0.0)||('and', '', '', '', 0.0)||('employed', 'adj', 'C0557351', ['fndg'], 0.0)||('cognitive', 'adj', 'C1516691', ['ftcn'], 0.0)||('endpoints', '', '', '', 0.0)||('.', '', '', '', 0.0)||
('reviewers', '', '', '', 0.0)||(',', '', '', '', 0.0)||('working', 'verb', 'C0043227', ['ocac'], 0.0)||('independently', '', '', '', 0.0)||(',', '', '', '', 0.0)||('were', '', '', '', 0.0)||('to', '', '', '', 0.0)||('select', 'verb', 'C1707391', ['acty'], 0.0)||(',', '', '', '', 0.0)||('quality', 'noun', 'C0332306', ['qlco'], 0.0)||('assess', 'verb', 'C1516048', ['acty'], 0.0)||('and', '', '', '', 0.0)||('extract', 'verb', 'C1555707', ['idcn'], 0.0)||('relevant', 'adj', 'C2347946', ['qlco'], 0.0)||('data', 'noun', 'C1511726', ['idcn'], 0.0)||('where', '', '', '', 0.0)||('appropriate', 'adj', 'C1548787', ['qlco'], 0.0)||('and', '', '', '', 0.0)||('possible', 'adj', 'C0332149', ['qlco'], 0.0)||('.', '', '', '', 0.0)||
('in', '', '', '', 0.0)||('comparing', '', '', '', 0.0)||('intervention', 'noun', 'C1273869', ['hlca'], 0.0)||('with', '', '', '', 0.0)||('placebo', 'noun', 'C0032042', ['topp'], 0.0)||(',', '', '', '', 0.0)||('the', '', '', '', 0.0)||('pooled', 'adj', 'C1709595', ['cnce'], 0.0)||('odds ratios', 'noun', 'C0028873', ['qnco'], 0.0)||('or', '', '', '', 0.0)||('weighted', '', '', '', 0.0)||('mean differences', '', '', '', 0.0)||('and', '', '', '', 0.0)||('standardized mean difference', '', '', '', 0.0)||('were', '', '', '', 0.0)||('to', '', '', '', 0.0)||('be', '', '', '', 0.0)||('estimated', 'verb', 'C0750572', ['qnco'], 0.0)||('.', '', '', '', 0.0)||
('there', '', '', '', 0.0)||('were', '', '', '', 0.0)||('no', '', '', '', 0.0)||('randomized', 'adj', 'C0034656', ['resa'], 0.0)||('trials', '', '', '', 0.0)||('found', '', '', '', 0.0)||('in', '', '', '', 0.0)||('the', '', '', '', 0.0)||('search', 'noun', 'C1552603', ['idcn'], 0.0)||('that', '', '', '', 0.0)||('met', '', '', '', 0.0)||('the', '', '', '', 0.0)||('selection', 'noun', 'C0036576', ['genf'], 0.0)||('criteria', 'noun', 'C0243161', ['inpr'], 0.0)||('.', '', '', '', 0.0)||
('results', 'noun', 'C1274040', ['ftcn'], 0.0)||('of', '', '', '', 0.0)||('two', 'adj', 'C0205448', ['qnco'], 0.0)||('clinical trials', 'noun', 'C0008976', ['resa'], 0.0)||('are', '', '', '', 0.0)||('expected', 'verb', 'C1517001', ['idcn'], 0.0)||('in', '', '', '', 0.0)||('2008', '', '', '', 0.0)||('.', '', '', '', 0.0)||
('there', '', '', '', 0.0)||('is', '', '', '', 0.0)||('a', '', '', '', 0.0)||('growing', '', '', '', 0.0)||('body', 'noun', 'C0460148', ['anst'], 0.0)||('of', '', '', '', 0.0)||('evidence', 'noun', 'C0332120', ['ftcn'], 0.0)||('from', '', '', '', 0.0)||('biological', 'adj', 'C0005532', ['bmod'], 0.0)||(',', '', '', '', 0.0)||('observational', 'adj', 'C1964257', ['diap'], 0.0)||('and', '', '', '', 0.0)||('epidemiological studies', 'noun', 'C0002783', ['resa'], 0.0)||('that', '', '', '', 0.0)||('suggests', '', '', '', 0.0)||('a', '', '', '', 0.0)||('protective', '', '', '', 0.0)||('effect', 'noun', 'C1280500', ['qlco'], 0.0)||('of', '', '', '', 0.0)||('omega', 'noun', 'C1719844', ['inpr'], 0.0)||('3', '', '', '', 0.0)||('polyunsaturated fatty acid', 'noun', 'C0032615', ['bacs', 'lipd'], 0.0)||('against', '', '', '', 0.0)||('dementia', 'noun', 'C0497327', ['dsyn'], 0.0)||('.', '', '', '', 0.0)||
('however', '', '', '', 0.0)||(',', '', '', '', 0.0)||('until', '', '', '', 0.0)||('data', 'noun', 'C1511726', ['idcn'], 0.0)||('from', '', '', '', 0.0)||('randomized', 'adj', 'C0034656', ['resa'], 0.0)||('trials', '', '', '', 0.0)||('become', '', '', '', 0.0)||('available', 'adj', 'C0470187', ['ftcn'], 0.0)||('for', '', '', '', 0.0)||('analysis', 'noun', 'C0002778', ['lbpr'], 0.0)||(',', '', '', '', 0.0)||('there', '', '', '', 0.0)||('is', '', '', '', 0.0)||('no', '', '', '', 0.0)||('good', 'adj', 'C0205170', ['qlco'], 0.0)||('evidence', 'noun', 'C0332120', ['ftcn'], 0.0)||('to', '', '', '', 0.0)||('support', 'verb', 'C0183683', ['medd'], 0.0)||('the', '', '', '', 0.0)||('use', 'noun', 'C0042153', ['ftcn'], 0.0)||('of', '', '', '', 0.0)||('dietary', 'adj', 'C0012155', ['food'], 0.0)||('or', '', '', '', 0.0)||('supplemental', 'adj', 'C2348609', ['ftcn'], 0.0)||('omega', 'noun', 'C1719844', ['inpr'], 0.0)||('3', '', '', '', 0.0)||('polyunsaturated fatty acid', 'noun', 'C0032615', ['bacs', 'lipd'], 0.0)||('for', '', '', '', 0.0)||('the', '', '', '', 0.0)||('prevention', 'noun', 'C0199176', ['topp'], 0.0)||('of', '', '', '', 0.0)||('cognitive', 'adj', 'C1516691', ['ftcn'], 0.0)||('impairment', 'noun', 'C0684336', ['fndg'], 0.0)||('or', '', '', '', 0.0)||('dementia', 'noun', 'C0497327', ['dsyn'], 0.0)||('.', '', '', '', 0.0)||
