('middle - aged', '', '', '', 0.0)||('and', '', '', '', 0.0)||('older', '', '', '', 0.0)||('people', 'noun', 'C0027361', ['popg'], 0.0)||('often', 'adv', 'C0332183', ['tmco'], 0.0)||('worry', 'verb', 'C0233481', ['fndg'], 0.0)||('that', '', '', '', 0.0)||('their', '', '', '', 0.0)||('perceived', '', '', '', 0.0)||('diminishing', '', '', '', 0.0)||('memory function', 'noun', 'C0025260', ['menp'], 0.0)||('may', '', '', '', 0.0)||('indicate', '', '', '', 0.0)||('incipient', 'adj', 'C0205256', ['tmco'], 0.0)||('dementia', 'noun', 'C0497327', ['dsyn'], 0.0)||('.', '', '', '', 0.0)||
('the', '', '', '', 0.0)||('present study', '', '', '', 0.0)||('addresses', 'verb', 'C0376649', ['inpr'], 0.0)||('questions', '', '', '', 0.0)||('regarding', '', '', '', 0.0)||('subjective', 'adj', 'C0439655', ['qlco'], 0.0)||('memory', 'noun', 'C0025260', ['menp'], 0.0)||('complaints', '', '', '', 0.0)||('as', '', '', '', 0.0)||('a', '', '', '', 0.0)||('predictor', 'noun', 'C2698872', ['idcn'], 0.0)||('of', '', '', '', 0.0)||('lower', 'adj', 'C0441994', ['ftcn'], 0.0)||('performance', 'noun', 'C0597198', ['inbe'], 0.0)||('on', '', '', '', 0.0)||('cognitive', 'adj', 'C1516691', ['ftcn'], 0.0)||('tasks', '', '', '', 0.0)||('.', '', '', '', 0.0)||
('also', '', '', '', 0.0)||(',', '', '', '', 0.0)||('in', '', '', '', 0.0)||('participants', '', '', '', 0.0)||('with', '', '', '', 0.0)||('subjective', 'adj', 'C0439655', ['qlco'], 0.0)||('memory', 'noun', 'C0025260', ['menp'], 0.0)||('complaints', '', '', '', 0.0)||('it', '', '', '', 0.0)||('was', '', '', '', 0.0)||('investigated', '', '', '', 0.0)||(',', '', '', '', 0.0)||('whether', '', '', '', 0.0)||('trying', '', '', '', 0.0)||('to', '', '', '', 0.0)||('keep', '', '', '', 0.0)||('mentally', '', '', '', 0.0)||('active', 'adj', 'C0205177', ['ftcn'], 0.0)||('improved', 'adj', 'C0184511', ['qlco'], 0.0)||('memory function', 'noun', 'C0025260', ['menp'], 0.0)||('.', '', '', '', 0.0)||
('characteristics', 'noun', 'C1521970', ['qlco'], 0.0)||('of', '', '', '', 0.0)||('the', '', '', '', 0.0)||('participants', '', '', '', 0.0)||('who', '', '', '', 0.0)||('were', '', '', '', 0.0)||('and', '', '', '', 0.0)||('were', '', '', '', 0.0)||('not', 'adv', 'C1518422', ['ftcn'], 0.0)||('interested', 'verb', 'C0543488', ['menp'], 0.0)||('in', '', '', '', 0.0)||('an', '', '', '', 0.0)||('intervention', 'noun', 'C1273869', ['hlca'], 0.0)||('to', '', '', '', 0.0)||('decrease', 'verb', 'C0392756', ['qlco'], 0.0)||('worries', 'noun', 'C0233481', ['fndg'], 0.0)||('and', '', '', '', 0.0)||('to', '', '', '', 0.0)||('improve', 'verb', 'C0332161', ['qlco'], 0.0)||('memory', 'noun', 'C0025260', ['menp'], 0.0)||('in', '', '', '', 0.0)||('daily', 'adj', 'C0332173', ['tmco'], 0.0)||('life', 'noun', 'C0376558', ['idcn'], 0.0)||('were', '', '', '', 0.0)||('determined', '', '', '', 0.0)||('.', '', '', '', 0.0)||
('data', 'noun', 'C1511726', ['idcn'], 0.0)||('were', '', '', '', 0.0)||('obtained', 'verb', 'C1301820', ['ftcn'], 0.0)||('from', '', '', '', 0.0)||('a', '', '', '', 0.0)||('large', 'adj', 'C0549177', ['qnco'], 0.0)||('longitudinal study', 'noun', 'C0023981', ['resa'], 0.0)||(':', '', '', '', 0.0)||('the', '', '', '', 0.0)||('maastricht', '', '', '', 0.0)||('aging study', '', '', '', 0.0)||(',', '', '', '', 0.0)||('involving', 'verb', 'C1314939', ['ftcn'], 0.0)||('557', '', '', '', 0.0)||('participants', '', '', '', 0.0)||('aged', 'verb', 'C0001779', ['orga'], 0.0)||('55', '', '', '', 0.0)||('to', '', '', '', 0.0)||('85', '', '', '', 0.0)||('years', 'noun', 'C0439234', ['tmco'], 0.0)||('.', '', '', '', 0.0)||
('follow - up', '', '', '', 0.0)||('measurement', 'noun', 'C0242485', ['ftcn'], 0.0)||('was', '', '', '', 0.0)||('performed', 'verb', 'C0884358', ['ftcn'], 0.0)||('after', '', '', '', 0.0)||('6', '', '', '', 0.0)||('years', 'noun', 'C0439234', ['tmco'], 0.0)||('.', '', '', '', 0.0)||
('outcome', 'noun', 'C1274040', ['ftcn'], 0.0)||('variables', '', '', '', 0.0)||('were', '', '', '', 0.0)||('simple', 'adj', 'C0205352', ['qlco'], 0.0)||(',', '', '', '', 0.0)||('complex', 'noun', 'C0439855', ['qlco'], 0.0)||('and', '', '', '', 0.0)||('general', 'adj', 'C0205246', ['spco'], 0.0)||('information', 'noun', 'C1533716', ['idcn'], 0.0)||('processing', 'adj', 'C1709694', ['acty'], 0.0)||('speed', 'noun', 'C0678536', ['qnco'], 0.0)||('and', '', '', '', 0.0)||('immediate', 'adj', 'C0205253', ['tmco'], 0.0)||('and', '', '', '', 0.0)||('delayed', 'adj', 'C0205421', ['tmco'], 0.0)||('recall', 'noun', 'C0034770', ['menp'], 0.0)||('.', '', '', '', 0.0)||
('at', '', '', '', 0.0)||('baseline', 'noun', 'C0168634', ['bodm'], 0.0)||(',', '', '', '', 0.0)||('forgetfulness', 'noun', 'C0542476', ['sosy'], 0.0)||('was', '', '', '', 0.0)||('associated', 'verb', 'C0332281', ['qlco'], 0.0)||('with', '', '', '', 0.0)||('a', '', '', '', 0.0)||('slower', '', '', '', 0.0)||('general', 'adj', 'C0205246', ['spco'], 0.0)||('information', 'noun', 'C1533716', ['idcn'], 0.0)||('processing', 'noun', 'C1709694', ['acty'], 0.0)||('and', '', '', '', 0.0)||('delayed', 'adj', 'C0205421', ['tmco'], 0.0)||('recall', 'noun', 'C0034770', ['menp'], 0.0)||('.', '', '', '', 0.0)||
('at', '', '', '', 0.0)||('the', '', '', '', 0.0)||('six', '', 'C0205452', ['qnco'], 0.0)||('-', '', '', '', 0.0)||('year', 'noun', 'C0439234', ['tmco'], 0.0)||('follow - up', '', '', '', 0.0)||(',', '', '', '', 0.0)||('being', '', '', '', 0.0)||('forgetful', 'noun', 'C0542476', ['sosy'], 0.0)||('was', '', '', '', 0.0)||('not', 'adv', 'C1518422', ['ftcn'], 0.0)||('associated', 'verb', 'C0332281', ['qlco'], 0.0)||('with', '', '', '', 0.0)||('a', '', '', '', 0.0)||('significant', 'adj', 'C0750502', ['idcn'], 0.0)||('change', 'noun', 'C0392747', ['ftcn'], 0.0)||('in', '', '', '', 0.0)||('cognitive', 'adj', 'C1516691', ['ftcn'], 0.0)||('performance', 'noun', 'C0597198', ['inbe'], 0.0)||('.', '', '', '', 0.0)||
('taking', '', '', '', 0.0)||('steps', '', '', '', 0.0)||('to', '', '', '', 0.0)||('remain', '', '', '', 0.0)||('cognitively', '', '', '', 0.0)||('active', 'adj', 'C0205177', ['ftcn'], 0.0)||('was', '', '', '', 0.0)||('not', 'adv', 'C1518422', ['ftcn'], 0.0)||('a', '', '', '', 0.0)||('predictor', 'noun', 'C2698872', ['idcn'], 0.0)||('of', '', '', '', 0.0)||('better', 'adj', 'C0332272', ['qlco'], 0.0)||('performance', 'noun', 'C0597198', ['inbe'], 0.0)||('on', '', '', '', 0.0)||('cognitive', 'adj', 'C1516691', ['ftcn'], 0.0)||('tasks', '', '', '', 0.0)||('at', '', '', '', 0.0)||('baseline', 'noun', 'C0168634', ['bodm'], 0.0)||('or', '', '', '', 0.0)||('at', '', '', '', 0.0)||('the', '', '', '', 0.0)||('six', '', 'C0205452', ['qnco'], 0.0)||('-', '', '', '', 0.0)||('year', 'noun', 'C0439234', ['tmco'], 0.0)||('follow - up', '', '', '', 0.0)||('.', '', '', '', 0.0)||
('being', '', '', '', 0.0)||('forgetful', 'adj', 'C0542476', ['sosy'], 0.0)||('might', '', '', '', 0.0)||('be', '', '', '', 0.0)||('an', '', '', '', 0.0)||('indicator', 'noun', 'C1235732', ['bird'], 0.0)||('of', '', '', '', 0.0)||('slower', '', '', '', 0.0)||('general', 'adj', 'C0205246', ['spco'], 0.0)||('information', 'noun', 'C1533716', ['idcn'], 0.0)||('processing', 'adj', 'C1709694', ['acty'], 0.0)||('speed', 'noun', 'C0678536', ['qnco'], 0.0)||('and', '', '', '', 0.0)||('delayed', 'adj', 'C0205421', ['tmco'], 0.0)||('recall', 'noun', 'C0034770', ['menp'], 0.0)||('at', '', '', '', 0.0)||('baseline', 'noun', 'C0168634', ['bodm'], 0.0)||('but', '', '', '', 0.0)||('does', '', '', '', 0.0)||('not', 'adv', 'C1518422', ['ftcn'], 0.0)||('predict', '', '', '', 0.0)||('cognitive change', 'noun', 'C1392786', ['mobd'], 0.0)||('over', '', '', '', 0.0)||('6', '', '', '', 0.0)||('years', 'noun', 'C0439234', ['tmco'], 0.0)||('in', '', '', '', 0.0)||('older', '', '', '', 0.0)||('adults', 'noun', 'C0001675', ['aggp'], 0.0)||('.', '', '', '', 0.0)||
('however', '', '', '', 0.0)||(',', '', '', '', 0.0)||('the', '', '', '', 0.0)||('effects', '', '', '', 0.0)||('are', '', '', '', 0.0)||('rather', '', '', '', 0.0)||('small', 'adj', 'C0700321', ['qnco'], 0.0)||('and', '', '', '', 0.0)||('cannot', '', '', '', 0.0)||('directly', 'adv', 'C1947931', ['qlco'], 0.0)||('be', '', '', '', 0.0)||('generalized', '', '', '', 0.0)||('to', '', '', '', 0.0)||('applications', '', '', '', 0.0)||('in', '', '', '', 0.0)||('clinical', 'adj', 'C0205210', ['qlco'], 0.0)||('settings', '', '', '', 0.0)||('.', '', '', '', 0.0)||
('other', '', '', '', 0.0)||('factors', '', '', '', 0.0)||(',', '', '', '', 0.0)||('such as', '', '', '', 0.0)||('depression', 'noun', 'C0011570', ['mobd'], 0.0)||('and', '', '', '', 0.0)||('anxiety', 'noun', 'C0003467', ['menp'], 0.0)||('might', '', '', '', 0.0)||('also', '', '', '', 0.0)||('underlie', '', '', '', 0.0)||('the', '', '', '', 0.0)||('cause', 'noun', 'C1524003', ['cnce'], 0.0)||('of', '', '', '', 0.0)||('the', '', '', '', 0.0)||('forgetfulness', 'noun', 'C0542476', ['sosy'], 0.0)||('.', '', '', '', 0.0)||
