('extracts', '', '', '', 0.0)||('of', '', '', '', 0.0)||('the', '', '', '', 0.0)||('leaves', 'noun', 'C0242724', ['plnt'], 0.0)||('of', '', '', '', 0.0)||('the', '', '', '', 0.0)||('maidenhair tree', 'noun', 'C0330206', ['plnt'], 0.0)||(',', '', '', '', 0.0)||('ginkgo biloba', 'noun', 'C0330206', ['plnt'], 0.0)||(',', '', '', '', 0.0)||('have', '', '', '', 0.0)||('long', 'adj', 'C0205166', ['qlco'], 0.0)||('been', '', '', '', 0.0)||('used', '', '', '', 0.0)||('in', '', '', '', 0.0)||('china', 'noun', 'C0008115', ['geoa'], 0.0)||('as', '', '', '', 0.0)||('a', '', '', '', 0.0)||('traditional', 'adj', 'C0443324', ['ftcn'], 0.0)||('medicine', 'noun', 'C0025118', ['bmod'], 0.0)||('for', '', '', '', 0.0)||('various', 'adj', 'C0440102', ['irda'], 0.0)||('disorders', 'noun', 'C0012634', ['dsyn'], 0.0)||('of', '', '', '', 0.0)||('health', 'noun', 'C0018684', ['idcn'], 0.0)||('.', '', '', '', 0.0)||
('a', '', '', '', 0.0)||('standardized', '', '', '', 0.0)||('extract', 'noun', 'C1555707', ['idcn'], 0.0)||('is', '', '', '', 0.0)||('widely', '', '', '', 0.0)||('prescribed', 'verb', 'C0278329', ['hlca'], 0.0)||('for', '', '', '', 0.0)||('the', '', '', '', 0.0)||('treatment', 'noun', 'C0039798', ['ftcn'], 0.0)||('of', '', '', '', 0.0)||('a', '', '', '', 0.0)||('range', 'noun', 'C1514721', ['qnco'], 0.0)||('of', '', '', '', 0.0)||('conditions', '', '', '', 0.0)||('including', '', '', '', 0.0)||('memory', 'noun', 'C0025260', ['menp'], 0.0)||('and', '', '', '', 0.0)||('concentration', 'noun', 'C0086045', ['menp'], 0.0)||('problems', 'noun', 'C1546466', ['idcn'], 0.0)||(',', '', '', '', 0.0)||('confusion', 'noun', 'C0009676', ['mobd'], 0.0)||(',', '', '', '', 0.0)||('depression', 'noun', 'C0011570', ['mobd'], 0.0)||(',', '', '', '', 0.0)||('anxiety', 'noun', 'C0003467', ['menp'], 0.0)||(',', '', '', '', 0.0)||('dizziness', 'noun', 'C0012833', ['sosy'], 0.0)||(',', '', '', '', 0.0)||('tinnitus', 'noun', 'C0040264', ['fndg'], 0.0)||('and', '', '', '', 0.0)||('headache', 'noun', 'C0018681', ['sosy'], 0.0)||('.', '', '', '', 0.0)||
('the', '', '', '', 0.0)||('mechanisms', 'noun', 'C0441712', ['ftcn'], 0.0)||('of', '', '', '', 0.0)||('action', 'noun', 'C0441472', ['ftcn'], 0.0)||('are', '', '', '', 0.0)||('thought', 'verb', 'C0039869', ['menp'], 0.0)||('to', '', '', '', 0.0)||('reflect', '', '', '', 0.0)||('the', '', '', '', 0.0)||('action', 'noun', 'C0441472', ['ftcn'], 0.0)||('of', '', '', '', 0.0)||('several', '', '', '', 0.0)||('components', '', '', '', 0.0)||('of', '', '', '', 0.0)||('the', '', '', '', 0.0)||('extract', 'noun', 'C1555707', ['idcn'], 0.0)||('and', '', '', '', 0.0)||('include', 'verb', 'C1552866', ['idcn'], 0.0)||('increasing', 'adj', 'C0442808', ['ftcn'], 0.0)||('blood supply', 'noun', 'C0005839', ['bpoc'], 0.0)||('by', '', '', '', 0.0)||('dilating', '', '', '', 0.0)||('blood vessels', 'noun', 'C0005847', ['bpoc'], 0.0)||(',', '', '', '', 0.0)||('reducing', 'verb', 'C0392756', ['qlco'], 0.0)||('blood viscosity', 'noun', 'C0005848', ['phsf'], 0.0)||(',', '', '', '', 0.0)||('modification', 'noun', 'C0392747', ['ftcn'], 0.0)||('of', '', '', '', 0.0)||('neurotransmitter', 'noun', 'C0027908', ['nsba'], 0.0)||('systems', 'noun', 'C0449913', ['ftcn'], 0.0)||(',', '', '', '', 0.0)||('and', '', '', '', 0.0)||('reducing', 'noun', 'C0392756', ['qlco'], 0.0)||('the', '', '', '', 0.0)||('density', 'noun', 'C0178587', ['qnco'], 0.0)||('of', '', '', '', 0.0)||('oxygen free radicals', '', '', '', 0.0)||('.', '', '', '', 0.0)||
('to', '', '', '', 0.0)||('assess', 'verb', 'C1516048', ['acty'], 0.0)||('the', '', '', '', 0.0)||('efficacy', 'noun', 'C1707887', ['resa'], 0.0)||('and', '', '', '', 0.0)||('safety', 'noun', 'C0036043', ['hcpp'], 0.0)||('of', '', '', '', 0.0)||('ginkgo biloba', 'noun', 'C0330206', ['plnt'], 0.0)||('for', '', '', '', 0.0)||('dementia', 'noun', 'C0497327', ['dsyn'], 0.0)||('or', '', '', '', 0.0)||('cognitive', 'adj', 'C1516691', ['ftcn'], 0.0)||('decline', '', '', '', 0.0)||('.', '', '', '', 0.0)||
('trials', '', '', '', 0.0)||('were', '', '', '', 0.0)||('identified', 'verb', 'C0205396', ['qlco'], 0.0)||('on', '', '', '', 0.0)||('10', '', '', '', 0.0)||('october', '', '', '', 0.0)||('2006', '', '', '', 0.0)||('through', '', '', '', 0.0)||('a', '', '', '', 0.0)||('search', 'noun', 'C1552603', ['idcn'], 0.0)||('of', '', '', '', 0.0)||('the', '', '', '', 0.0)||('cochrane', '', '', '', 0.0)||('dementia', 'noun', 'C0497327', ['dsyn'], 0.0)||('and', '', '', '', 0.0)||('cognitive', 'adj', 'C1516691', ['ftcn'], 0.0)||('improvement', '', '', '', 0.0)||('group', 'noun', 'C0441833', ['idcn'], 0.0)||("' s", '', '', '', 0.0)||('specialized', '', '', '', 0.0)||('register', '', '', '', 0.0)||('which', '', '', '', 0.0)||('contains', 'verb', 'C1549781', ['idcn'], 0.0)||('records', 'noun', 'C0034869', ['inpr'], 0.0)||('from', '', '', '', 0.0)||('all', '', '', '', 0.0)||('main', 'adj', 'C0205225', ['qlco'], 0.0)||('medical', 'adj', 'C0205476', ['ftcn'], 0.0)||('databases', 'noun', 'C0242356', ['inpr'], 0.0)||('(', '', '', '', 0.0)||('medline', 'noun', 'C0025141', ['inpr'], 0.0)||(',', '', '', '', 0.0)||('embase', '', '', '', 0.0)||(',', '', '', '', 0.0)||('cinahl', '', '', '', 0.0)||(',', '', '', '', 0.0)||('psycinfo', '', '', '', 0.0)||(',', '', '', '', 0.0)||('sigle', '', '', '', 0.0)||(',', '', '', '', 0.0)||('lilacs', '', '', '', 0.0)||(')', '', '', '', 0.0)||(',', '', '', '', 0.0)||('from', '', '', '', 0.0)||('ongoing', 'adj', 'C0549178', ['idcn'], 0.0)||('trials', '', '', '', 0.0)||('databases', 'noun', 'C0242356', ['inpr'], 0.0)||('such as', '', '', '', 0.0)||('clinicaltrials', '', '', '', 0.0)||('.', '', '', '', 0.0)||('gov', 'noun', 'C1419208', ['gngm'], 0.0)||('and', '', '', '', 0.0)||('current', 'adj', 'C0521116', ['tmco'], 0.0)||('controlled', 'adj', 'C2587213', ['ftcn'], 0.0)||('trials', '', '', '', 0.0)||('and', '', '', '', 0.0)||('many', '', '', '', 0.0)||('other', '', '', '', 0.0)||('sources', '', '', '', 0.0)||('.', '', '', '', 0.0)||
('the', '', '', '', 0.0)||('search', 'noun', 'C1552603', ['idcn'], 0.0)||('terms', '', '', '', 0.0)||('used', '', '', '', 0.0)||('were', '', '', '', 0.0)||('ginkgo', 'adv', 'C0330205', ['plnt'], 0.0)||('*', '', '', '', 0.0)||(',', '', '', '', 0.0)||('tanakan', 'noun', 'C0525094', ['orch', 'phsu'], 0.0)||(',', '', '', '', 0.0)||('egb', '', '', '', 0.0)||('-', '', '', '', 0.0)||('761', '', '', '', 0.0)||(',', '', '', '', 0.0)||('egb761', 'noun', 'C1095795', ['orch', 'phsu'], 0.0)||(',', '', '', '', 0.0)||('"', '', '', '', 0.0)||('egb', '', '', '', 0.0)||('761', '', '', '', 0.0)||('"', '', '', '', 0.0)||('and', '', '', '', 0.0)||('gingko', 'noun', 'C0330206', ['plnt'], 0.0)||('*', '', '', '', 0.0)||('.', '', '', '', 0.0)||
('randomized', 'verb', 'C0034656', ['resa'], 0.0)||(',', '', '', '', 0.0)||('double - blind studies', '', '', '', 0.0)||(',', '', '', '', 0.0)||('in', '', '', '', 0.0)||('which', '', '', '', 0.0)||('extracts', '', '', '', 0.0)||('of', '', '', '', 0.0)||('ginkgo biloba', 'noun', 'C0330206', ['plnt'], 0.0)||('at', '', '', '', 0.0)||('any', '', '', '', 0.0)||('strength', 'noun', 'C0808080', ['idcn'], 0.0)||('and', '', '', '', 0.0)||('over', '', '', '', 0.0)||('any', '', '', '', 0.0)||('period', 'noun', 'C1948053', ['tmco'], 0.0)||('were', '', '', '', 0.0)||('compared', 'verb', 'C1707455', ['acty'], 0.0)||('with', '', '', '', 0.0)||('placebo', 'noun', 'C0032042', ['topp'], 0.0)||('for', '', '', '', 0.0)||('their', '', '', '', 0.0)||('effects', '', '', '', 0.0)||('on', '', '', '', 0.0)||('people', 'noun', 'C0027361', ['popg'], 0.0)||('with', '', '', '', 0.0)||('acquired', 'adj', 'C0439661', ['tmco'], 0.0)||('cognitive', 'adj', 'C1516691', ['ftcn'], 0.0)||('impairment', 'noun', 'C0684336', ['fndg'], 0.0)||(',', '', '', '', 0.0)||('including', '', '', '', 0.0)||('dementia', 'noun', 'C0497327', ['dsyn'], 0.0)||(',', '', '', '', 0.0)||('of', '', '', '', 0.0)||('any', '', '', '', 0.0)||('degree', 'noun', 'C0441889', ['qlco'], 0.0)||('of', '', '', '', 0.0)||('severity', 'noun', 'C0439793', ['qlco'], 0.0)||('.', '', '', '', 0.0)||
('data', 'noun', 'C1511726', ['idcn'], 0.0)||('were', '', '', '', 0.0)||('extracted', 'verb', 'C0185115', ['topp'], 0.0)||('from', '', '', '', 0.0)||('the', '', '', '', 0.0)||('published', 'adj', 'C0034037', ['ocac'], 0.0)||('reports', 'noun', 'C0684224', ['inpr'], 0.0)||('of', '', '', '', 0.0)||('the', '', '', '', 0.0)||('included', '', '', '', 0.0)||('studies', '', '', '', 0.0)||(',', '', '', '', 0.0)||('pooled', 'verb', 'C1709595', ['cnce'], 0.0)||('where', '', '', '', 0.0)||('appropriate', 'adj', 'C1548787', ['qlco'], 0.0)||('and', '', '', '', 0.0)||('the', '', '', '', 0.0)||('treatment effects', '', '', '', 0.0)||('or', '', '', '', 0.0)||('the', '', '', '', 0.0)||('risks', 'noun', 'C0035647', ['qlco'], 0.0)||('and', '', '', '', 0.0)||('benefits', 'noun', 'C0814225', ['qnco'], 0.0)||('estimated', 'verb', 'C0750572', ['qnco'], 0.0)||('.', '', '', '', 0.0)||
('clinical', 'adj', 'C0205210', ['qlco'], 0.0)||('global', 'adj', 'C0205246', ['spco'], 0.0)||('improvement', '', '', '', 0.0)||('as', '', '', '', 0.0)||('assessed', 'verb', 'C1516048', ['acty'], 0.0)||('by', '', '', '', 0.0)||('the', '', '', '', 0.0)||('physician', 'noun', 'C0031831', ['prog'], 0.0)||(',', '', '', '', 0.0)||('was', '', '', '', 0.0)||('dichotomized', '', '', '', 0.0)||('between', '', '', '', 0.0)||('participants', '', '', '', 0.0)||('who', '', '', '', 0.0)||('showed', '', '', '', 0.0)||('improvement', '', '', '', 0.0)||('or', '', '', '', 0.0)||('were', '', '', '', 0.0)||('unchanged', 'verb', 'C0442739', ['fndg'], 0.0)||('and', '', '', '', 0.0)||('those', '', '', '', 0.0)||('who', '', '', '', 0.0)||('were', '', '', '', 0.0)||('worse', 'adj', 'C1279889', ['fndg'], 0.0)||('.', '', '', '', 0.0)||
('there', '', '', '', 0.0)||('are', '', '', '', 0.0)||('benefits', 'noun', 'C0814225', ['qnco'], 0.0)||('associated', 'verb', 'C0332281', ['qlco'], 0.0)||('with', '', '', '', 0.0)||('ginkgo', 'noun', 'C0330205', ['plnt'], 0.0)||('(', '', '', '', 0.0)||('dose', 'noun', 'C0178602', ['qnco'], 0.0)||('greater', 'adj', 'C1704243', ['qnco'], 0.0)||('than', '', '', '', 0.0)||('200', '', '', '', 0.0)||('mg', '', '', '', 0.0)||('/', '', '', '', 0.0)||('day', 'noun', 'C0439228', ['tmco'], 0.0)||(')', '', '', '', 0.0)||('at', '', '', '', 0.0)||('24', '', '', '', 0.0)||('weeks', 'noun', 'C0439230', ['tmco'], 0.0)||('(', '', '', '', 0.0)||('207 / 276', '', '', '', 0.0)||('compared', 'verb', 'C1707455', ['acty'], 0.0)||('with', '', '', '', 0.0)||('178 / 273', '', '', '', 0.0)||(',', '', '', '', 0.0)||('or', '', '', '', 0.0)||('1 . 66', '', '', '', 0.0)||(',', '', '', '', 0.0)||('95 %', '', '', '', 0.0)||('ci', 'noun', 'C1417638', ['gngm'], 0.0)||('1 . 12', '', '', '', 0.0)||('to', '', '', '', 0.0)||('2 . 46', '', '', '', 0.0)||(',', '', '', '', 0.0)||('p', '', '', '', 0.0)||('=', '', '', '', 0.0)||('.', '', '', '', 0.0)||('001', '', '', '', 0.0)||(')', '', '', '', 0.0)||('(', '', '', '', 0.0)||('2', '', '', '', 0.0)||('studies', '', '', '', 0.0)||(')', '', '', '', 0.0)||(',', '', '', '', 0.0)||('but', '', '', '', 0.0)||('not', 'adv', 'C1518422', ['ftcn'], 0.0)||('for', '', '', '', 0.0)||('the', '', '', '', 0.0)||('lower dose', '', '', '', 0.0)||('.', '', '', '', 0.0)||
('cognition', 'noun', 'C0009240', ['menp'], 0.0)||('shows', '', '', '', 0.0)||('benefit', 'noun', 'C0814225', ['qnco'], 0.0)||('for', '', '', '', 0.0)||('ginkgo', 'noun', 'C0330205', ['plnt'], 0.0)||('(', '', '', '', 0.0)||('any', '', '', '', 0.0)||('dose', 'noun', 'C0178602', ['qnco'], 0.0)||(')', '', '', '', 0.0)||('at', '', '', '', 0.0)||('12', '', '', '', 0.0)||('weeks', 'noun', 'C0439230', ['tmco'], 0.0)||('(', '', '', '', 0.0)||('smd', 'noun', 'C0700635', ['cgab', 'dsyn'], 0.0)||('-', '', '', '', 0.0)||('0 . 65', '', '', '', 0.0)||(',', '', '', '', 0.0)||('95 %', '', '', '', 0.0)||('ci', 'noun', 'C1417638', ['gngm'], 0.0)||('-', '', '', '', 0.0)||('1 . 22', '', '', '', 0.0)||('to', '', '', '', 0.0)||('-', '', '', '', 0.0)||('0 . 09', '', '', '', 0.0)||('p', '', '', '', 0.0)||('=', '', '', '', 0.0)||('0 . 02', '', '', '', 0.0)||(',', '', '', '', 0.0)||('5', '', '', '', 0.0)||('studies', '', '', '', 0.0)||(')', '', '', '', 0.0)||('but', '', '', '', 0.0)||('not', 'adv', 'C1518422', ['ftcn'], 0.0)||('at', '', '', '', 0.0)||('24', '', '', '', 0.0)||('weeks', 'noun', 'C0439230', ['tmco'], 0.0)||('.', '', '', '', 0.0)||
('five', '', 'C0205451', ['qnco'], 0.0)||('studies', '', '', '', 0.0)||('assessed', 'adj', 'C1516048', ['acty'], 0.0)||('activities', 'noun', 'C0441655', ['acty'], 0.0)||('of', '', '', '', 0.0)||('daily', 'adj', 'C0332173', ['tmco'], 0.0)||('living', 'noun', 'C0376558', ['idcn'], 0.0)||('(', '', '', '', 0.0)||('adls', '', '', '', 0.0)||(')', '', '', '', 0.0)||(',', '', '', '', 0.0)||('using', 'verb', 'C1524063', ['ftcn'], 0.0)||('different', 'adj', 'C1705242', ['qlco'], 0.0)||('scales', 'noun', 'C0175659', ['medd'], 0.0)||('.', '', '', '', 0.0)||
('some', '', '', '', 0.0)||('scales', 'noun', 'C0175659', ['medd'], 0.0)||('are', '', '', '', 0.0)||('more', '', '', '', 0.0)||('comprehensive', 'adj', 'C1880156', ['qlco'], 0.0)||('than', '', '', '', 0.0)||('just', '', '', '', 0.0)||('adls', '', '', '', 0.0)||('.', '', '', '', 0.0)||
('the', '', '', '', 0.0)||('results', 'noun', 'C1274040', ['ftcn'], 0.0)||('show', 'verb', 'C1547282', ['inpr'], 0.0)||('benefit', 'noun', 'C0814225', ['qnco'], 0.0)||('for', '', '', '', 0.0)||('ginkgo', 'noun', 'C0330205', ['plnt'], 0.0)||('(', '', '', '', 0.0)||('dose', 'noun', 'C0178602', ['qnco'], 0.0)||('less', '', '', '', 0.0)||('than', '', '', '', 0.0)||('200', '', '', '', 0.0)||('mg', '', '', '', 0.0)||('/', '', '', '', 0.0)||('day', 'noun', 'C0439228', ['tmco'], 0.0)||(')', '', '', '', 0.0)||('compared', 'verb', 'C1707455', ['acty'], 0.0)||('with', '', '', '', 0.0)||('placebo', 'noun', 'C0032042', ['topp'], 0.0)||('at', '', '', '', 0.0)||('12', '', '', '', 0.0)||('weeks', 'noun', 'C0439230', ['tmco'], 0.0)||('(', '', '', '', 0.0)||('md -', '', '', '', 0.0)||('5 . 0', '', '', '', 0.0)||(',', '', '', '', 0.0)||('95 %', '', '', '', 0.0)||('ci', 'noun', 'C1417638', ['gngm'], 0.0)||('-', '', '', '', 0.0)||('7 . 88', '', '', '', 0.0)||(',', '', '', '', 0.0)||('-', '', '', '', 0.0)||('2 . 12', '', '', '', 0.0)||(',', '', '', '', 0.0)||('p', '', '', '', 0.0)||('=', '', '', '', 0.0)||('0 . 0007', '', '', '', 0.0)||(',', '', '', '', 0.0)||('one', 'noun', 'C0205447', ['qnco'], 0.0)||('study', 'noun', 'C0008976', ['resa'], 0.0)||(')', '', '', '', 0.0)||(',', '', '', '', 0.0)||('and', '', '', '', 0.0)||('at', '', '', '', 0.0)||('24', '', '', '', 0.0)||('weeks', 'noun', 'C0439230', ['tmco'], 0.0)||('(', '', '', '', 0.0)||('smd', 'noun', 'C0700635', ['cgab', 'dsyn'], 0.0)||('-', '', '', '', 0.0)||('0 . 16', '', '', '', 0.0)||(',', '', '', '', 0.0)||('95 %', '', '', '', 0.0)||('ci', 'noun', 'C1417638', ['gngm'], 0.0)||('-', '', '', '', 0.0)||('0 . 31', '', '', '', 0.0)||('to', '', '', '', 0.0)||('-', '', '', '', 0.0)||('0 . 01', '', '', '', 0.0)||(',', '', '', '', 0.0)||('p', '', '', '', 0.0)||('=', '', '', '', 0.0)||('0 . 03', '', '', '', 0.0)||(',', '', '', '', 0.0)||('3', '', '', '', 0.0)||('studies', '', '', '', 0.0)||(')', '', '', '', 0.0)||('but', '', '', '', 0.0)||('there', '', '', '', 0.0)||('are', '', '', '', 0.0)||('no', '', '', '', 0.0)||('differences', '', '', '', 0.0)||('at', '', '', '', 0.0)||('the', '', '', '', 0.0)||('higher', '', '', '', 0.0)||('dose', 'noun', 'C0178602', ['qnco'], 0.0)||('.', '', '', '', 0.0)||
('no', '', '', '', 0.0)||('study', 'noun', 'C0008976', ['resa'], 0.0)||('assessed', 'adj', 'C1516048', ['acty'], 0.0)||('mood', 'noun', 'C0026516', ['menp'], 0.0)||('and', '', '', '', 0.0)||('function', 'verb', 'C0031843', ['phsf'], 0.0)||('separately', '', '', '', 0.0)||(',', '', '', '', 0.0)||('but', '', '', '', 0.0)||('one', 'noun', 'C0205447', ['qnco'], 0.0)||('study', 'noun', 'C0008976', ['resa'], 0.0)||('used', '', '', '', 0.0)||('the', '', '', '', 0.0)||('adas', 'noun', 'C1412284', ['gngm'], 0.0)||('-', '', '', '', 0.0)||('noncog', '', '', '', 0.0)||(',', '', '', '', 0.0)||('which', '', '', '', 0.0)||('assesses', '', '', '', 0.0)||('function', 'noun', 'C0031843', ['phsf'], 0.0)||('over', '', '', '', 0.0)||('several', '', '', '', 0.0)||('domains', '', '', '', 0.0)||(',', '', '', '', 0.0)||('but', '', '', '', 0.0)||('not', 'adv', 'C1518422', ['ftcn'], 0.0)||('cognitive function', 'noun', 'C0392335', ['menp'], 0.0)||('.', '', '', '', 0.0)||
('there', '', '', '', 0.0)||('was', '', '', '', 0.0)||('no', '', '', '', 0.0)||('difference', 'noun', 'C1705242', ['qlco'], 0.0)||('between', '', '', '', 0.0)||('ginkgo', 'noun', 'C0330205', ['plnt'], 0.0)||('and', '', '', '', 0.0)||('placebo', 'noun', 'C0032042', ['topp'], 0.0)||('.', '', '', '', 0.0)||
('there', '', '', '', 0.0)||('are', '', '', '', 0.0)||('no', '', '', '', 0.0)||('significant', 'adj', 'C0750502', ['idcn'], 0.0)||('differences', '', '', '', 0.0)||('between', '', '', '', 0.0)||('ginkgo', 'noun', 'C0330205', ['plnt'], 0.0)||('and', '', '', '', 0.0)||('placebo', 'noun', 'C0032042', ['topp'], 0.0)||('in', '', '', '', 0.0)||('the', '', '', '', 0.0)||('proportion', 'noun', 'C1709707', ['qnco'], 0.0)||('of', '', '', '', 0.0)||('participants', '', '', '', 0.0)||('experiencing', '', '', '', 0.0)||('adverse', '', '', '', 0.0)||('events', 'noun', 'C0441471', ['evnt'], 0.0)||('.', '', '', '', 0.0)||
('there', '', '', '', 0.0)||('are', '', '', '', 0.0)||('no', '', '', '', 0.0)||('data', 'noun', 'C1511726', ['idcn'], 0.0)||('available', 'adj', 'C0470187', ['ftcn'], 0.0)||('on', '', '', '', 0.0)||('quality', 'noun', 'C0332306', ['qlco'], 0.0)||('of', '', '', '', 0.0)||('life', 'noun', 'C0376558', ['idcn'], 0.0)||(',', '', '', '', 0.0)||('measures', 'verb', 'C0079809', ['qnco'], 0.0)||('of', '', '', '', 0.0)||('depression', 'noun', 'C0011570', ['mobd'], 0.0)||('or', '', '', '', 0.0)||('dependency', 'noun', 'C0011546', ['menp'], 0.0)||('.', '', '', '', 0.0)||
('ginkgo biloba', 'noun', 'C0330206', ['plnt'], 0.0)||('appears', '', '', '', 0.0)||('to', '', '', '', 0.0)||('be', '', '', '', 0.0)||('safe', '', '', '', 0.0)||('in use', '', '', '', 0.0)||('with', '', '', '', 0.0)||('no', '', '', '', 0.0)||('excess', 'adj', 'C1979886', ['qlco'], 0.0)||('side effects', 'noun', 'C0001688', ['ftcn'], 0.0)||('compared', 'verb', 'C1707455', ['acty'], 0.0)||('with', '', '', '', 0.0)||('placebo', 'noun', 'C0032042', ['topp'], 0.0)||('.', '', '', '', 0.0)||
('many', '', '', '', 0.0)||('of', '', '', '', 0.0)||('the', '', '', '', 0.0)||('early', 'adj', 'C1279919', ['tmco'], 0.0)||('trials', '', '', '', 0.0)||('used', '', '', '', 0.0)||('unsatisfactory', 'adj', 'C0439856', ['qlco'], 0.0)||('methods', 'noun', 'C0025663', ['inpr'], 0.0)||(',', '', '', '', 0.0)||('were', '', '', '', 0.0)||('small', 'adj', 'C0700321', ['qnco'], 0.0)||(',', '', '', '', 0.0)||('and', '', '', '', 0.0)||('we', '', '', '', 0.0)||('cannot', '', '', '', 0.0)||('exclude', 'verb', 'C0332196', ['ftcn'], 0.0)||('publication', 'noun', 'C0034036', ['inpr', 'mnob'], 0.0)||('bias', 'noun', 'C0242568', ['idcn'], 0.0)||('.', '', '', '', 0.0)||
('the', '', '', '', 0.0)||('evidence', 'noun', 'C0332120', ['ftcn'], 0.0)||('that', '', '', '', 0.0)||('ginkgo', 'noun', 'C0330205', ['plnt'], 0.0)||('has', '', '', '', 0.0)||('predictable', '', '', '', 0.0)||('and', '', '', '', 0.0)||('clinically', '', '', '', 0.0)||('significant', 'adj', 'C0750502', ['idcn'], 0.0)||('benefit', 'noun', 'C0814225', ['qnco'], 0.0)||('for', '', '', '', 0.0)||('people', 'noun', 'C0027361', ['popg'], 0.0)||('with', '', '', '', 0.0)||('dementia', 'noun', 'C0497327', ['dsyn'], 0.0)||('or', '', '', '', 0.0)||('cognitive', 'adj', 'C1516691', ['ftcn'], 0.0)||('impairment', 'noun', 'C0684336', ['fndg'], 0.0)||('is', '', '', '', 0.0)||('inconsistent', 'adj', 'C0442809', ['qlco'], 0.0)||('and', '', '', '', 0.0)||('unconvincing', '', '', '', 0.0)||('.', '', '', '', 0.0)||
