('to', '', '', '', 0.0)||('assess', 'verb', 'C1516048', ['acty'], 0.0)||('associations', 'noun', 'C0004083', ['menp'], 0.0)||('between', '', '', '', 0.0)||('baseline', 'noun', 'C0168634', ['bodm'], 0.0)||('values', 'noun', 'C0042295', ['qlco'], 0.0)||('of', '', '', '', 0.0)||('four', '', 'C0205450', ['qnco'], 0.0)||('different', 'adj', 'C1705242', ['qlco'], 0.0)||('circulating', 'adj', 'C0175630', ['ftcn'], 0.0)||('markers', 'noun', 'C2745888', ['medd'], 0.0)||('of', '', '', '', 0.0)||('inflammation', 'noun', 'C0021368', ['patf'], 0.0)||('and', '', '', '', 0.0)||('future', 'adj', 'C0016884', ['tmco'], 0.0)||('risk', 'noun', 'C0035647', ['qlco'], 0.0)||('of', '', '', '', 0.0)||('coronary heart disease', 'noun', 'C0010068', ['dsyn'], 0.0)||(',', '', '', '', 0.0)||('potential', 'noun', 'C0035647', ['qlco'], 0.0)||('triggers', '', '', '', 0.0)||('of', '', '', '', 0.0)||('systemic', 'adj', 'C0205373', ['ftcn'], 0.0)||('inflammation', 'noun', 'C0021368', ['patf'], 0.0)||('(', '', '', '', 0.0)||('such as', '', '', '', 0.0)||('persistent infection', 'noun', 'C1264606', ['dsyn'], 0.0)||(')', '', '', '', 0.0)||(',', '', '', '', 0.0)||('and', '', '', '', 0.0)||('other', '', '', '', 0.0)||('markers', 'noun', 'C2745888', ['medd'], 0.0)||('of', '', '', '', 0.0)||('inflammation', 'noun', 'C0021368', ['patf'], 0.0)||('.', '', '', '', 0.0)||
('nested', '', '', '', 0.0)||('case', 'noun', 'C0868928', ['ftcn'], 0.0)||('-', '', '', '', 0.0)||('control', 'noun', 'C0243148', ['qlco'], 0.0)||('comparisons', '', '', '', 0.0)||('in', '', '', '', 0.0)||('a', '', '', '', 0.0)||('prospective', 'adj', 'C0023981', ['resa'], 0.0)||(',', '', '', '', 0.0)||('population based', '', '', '', 0.0)||('cohort', 'noun', 'C0599755', ['popg'], 0.0)||('.', '', '', '', 0.0)||
('general practices', 'noun', 'C0086343', ['bmod'], 0.0)||('in', '', '', '', 0.0)||('18', '', '', '', 0.0)||('towns', 'noun', 'C0557750', ['geoa'], 0.0)||('in', '', '', '', 0.0)||('britain', '', '', '', 0.0)||('.', '', '', '', 0.0)||
('506', '', '', '', 0.0)||('men', 'noun', 'C0025266', ['popg'], 0.0)||('who', '', '', '', 0.0)||('died', 'verb', 'C1306577', ['fndg'], 0.0)||('from', '', '', '', 0.0)||('coronary heart disease', 'noun', 'C0010068', ['dsyn'], 0.0)||('or', '', '', '', 0.0)||('had', '', '', '', 0.0)||('a', '', '', '', 0.0)||('non - fatal', '', '', '', 0.0)||('myocardial infarction', 'noun', 'C0027051', ['dsyn'], 0.0)||('and', '', '', '', 0.0)||('1025', '', '', '', 0.0)||('men', 'noun', 'C0025266', ['popg'], 0.0)||('who', '', '', '', 0.0)||('remained', '', '', '', 0.0)||('free', 'adj', 'C1880497', ['qlco'], 0.0)||('of', '', '', '', 0.0)||('such', '', '', '', 0.0)||('disease', 'noun', 'C0012634', ['dsyn'], 0.0)||('until', '', '', '', 0.0)||('1996', '', '', '', 0.0)||('selected', '', '', '', 0.0)||('from', '', '', '', 0.0)||('5661', '', '', '', 0.0)||('men', 'noun', 'C0025266', ['popg'], 0.0)||('aged', 'verb', 'C0001779', ['orga'], 0.0)||('40', '', '', '', 0.0)||('-', '', '', '', 0.0)||('59', '', '', '', 0.0)||('years', 'noun', 'C0439234', ['tmco'], 0.0)||('who', '', '', '', 0.0)||('provided', '', '', '', 0.0)||('blood', 'noun', 'C0005767', ['tisu'], 0.0)||('samples', '', '', '', 0.0)||('in', '', '', '', 0.0)||('1978', '', '', '', 0.0)||('-', '', '', '', 0.0)||('1980', '', '', '', 0.0)||('.', '', '', '', 0.0)||
('plasma', 'noun', 'C0032105', ['bdsu'], 0.0)||('concentrations', 'noun', 'C0086045', ['menp'], 0.0)||('of', '', '', '', 0.0)||('c reactive protein', 'noun', 'C0201657', ['lbpr'], 0.0)||(',', '', '', '', 0.0)||('serum amyloid a protein', 'noun', 'C0002723', ['aapp', 'imft'], 0.0)||(',', '', '', '', 0.0)||('and', '', '', '', 0.0)||('serum albumin', 'noun', 'C0036773', ['aapp'], 0.0)||('and', '', '', '', 0.0)||('leucocyte count', '', '', '', 0.0)||('.', '', '', '', 0.0)||
('information', 'noun', 'C1533716', ['idcn'], 0.0)||('on', '', '', '', 0.0)||('fatal', 'adj', 'C1302234', ['qlco'], 0.0)||('and', '', '', '', 0.0)||('non - fatal', '', '', '', 0.0)||('coronary heart disease', 'noun', 'C0010068', ['dsyn'], 0.0)||('was', '', '', '', 0.0)||('obtained', 'verb', 'C1301820', ['ftcn'], 0.0)||('from', '', '', '', 0.0)||('medical records', 'noun', 'C0025102', ['inpr'], 0.0)||('and', '', '', '', 0.0)||('death certificates', 'noun', 'C0011066', ['mnob'], 0.0)||('.', '', '', '', 0.0)||
('compared', 'verb', 'C1707455', ['acty'], 0.0)||('with', '', '', '', 0.0)||('men', 'noun', 'C0025266', ['popg'], 0.0)||('in', '', '', '', 0.0)||('the', '', '', '', 0.0)||('bottom', 'noun', 'C1511276', ['spco'], 0.0)||('third', 'noun', 'C0205437', ['qnco'], 0.0)||('of', '', '', '', 0.0)||('baseline', 'noun', 'C0168634', ['bodm'], 0.0)||('measurements', '', '', '', 0.0)||('of', '', '', '', 0.0)||('c reactive protein', 'noun', 'C0201657', ['lbpr'], 0.0)||(',', '', '', '', 0.0)||('men', 'noun', 'C0025266', ['popg'], 0.0)||('in', '', '', '', 0.0)||('the', '', '', '', 0.0)||('top', 'noun', 'C1522168', ['ftcn'], 0.0)||('third', 'noun', 'C0205437', ['qnco'], 0.0)||('had', '', '', '', 0.0)||('an', '', '', '', 0.0)||('odds ratio', 'noun', 'C0028873', ['qnco'], 0.0)||('for', '', '', '', 0.0)||('coronary heart disease', 'noun', 'C0010068', ['dsyn'], 0.0)||('of', '', '', '', 0.0)||('2 . 13', '', '', '', 0.0)||('(', '', '', '', 0.0)||('95 %', '', '', '', 0.0)||('confidence interval', 'noun', 'C0009667', ['qnco'], 0.0)||('1 . 38', '', '', '', 0.0)||('to', '', '', '', 0.0)||('3 . 28', '', '', '', 0.0)||(')', '', '', '', 0.0)||('after', '', '', '', 0.0)||('age', 'noun', 'C0001779', ['orga'], 0.0)||(',', '', '', '', 0.0)||('town', 'noun', 'C0557750', ['geoa'], 0.0)||(',', '', '', '', 0.0)||('smoking', 'verb', 'C0037369', ['inbe'], 0.0)||(',', '', '', '', 0.0)||('vascular risk factors', '', '', '', 0.0)||(',', '', '', '', 0.0)||('and', '', '', '', 0.0)||('indicators', 'noun', 'C0021212', ['irda'], 0.0)||('of', '', '', '', 0.0)||('socioeconomic status', 'noun', 'C0086996', ['qlco'], 0.0)||('were', '', '', '', 0.0)||('adjusted', 'verb', 'C0456081', ['ftcn'], 0.0)||('for', '', '', '', 0.0)||('.', '', '', '', 0.0)||
('similar', 'adj', 'C2348205', ['qlco'], 0.0)||('adjusted odds ratios', '', '', '', 0.0)||('were', '', '', '', 0.0)||('1 . 65', '', '', '', 0.0)||('(', '', '', '', 0.0)||('1 . 07', '', '', '', 0.0)||('to', '', '', '', 0.0)||('2 . 55', '', '', '', 0.0)||(')', '', '', '', 0.0)||('for', '', '', '', 0.0)||('serum amyloid a protein', 'noun', 'C0002723', ['aapp', 'imft'], 0.0)||(';', '', '', '', 0.0)||
('1 . 12', '', '', '', 0.0)||('(', '', '', '', 0.0)||('0 . 71', '', '', '', 0.0)||('to', '', '', '', 0.0)||('1 . 77', '', '', '', 0.0)||(')', '', '', '', 0.0)||('for', '', '', '', 0.0)||('leucocyte count', '', '', '', 0.0)||(';', '', '', '', 0.0)||
('and', '', '', '', 0.0)||('0 . 67', '', '', '', 0.0)||('(', '', '', '', 0.0)||('0 . 43', '', '', '', 0.0)||('to', '', '', '', 0.0)||('1 . 04', '', '', '', 0.0)||(')', '', '', '', 0.0)||('for', '', '', '', 0.0)||('albumin', 'noun', 'C0001924', ['aapp', 'bacs'], 0.0)||('.', '', '', '', 0.0)||
('no', '', '', '', 0.0)||('strong', 'adj', 'C0442821', ['qlco'], 0.0)||('associations', 'noun', 'C0004083', ['menp'], 0.0)||('were', '', '', '', 0.0)||('observed', 'verb', 'C1441672', ['ftcn'], 0.0)||('of', '', '', '', 0.0)||('these', '', '', '', 0.0)||('factors', '', '', '', 0.0)||('with', '', '', '', 0.0)||('helicobacter pylori', 'noun', 'C0079488', ['bact'], 0.0)||('seropositivity', '', '', '', 0.0)||(',', '', '', '', 0.0)||('chlamydia pneumoniae', 'noun', 'C0085504', ['bact'], 0.0)||('igg', '', '', '', 0.0)||('titres', '', '', '', 0.0)||(',', '', '', '', 0.0)||('or', '', '', '', 0.0)||('plasma total homocysteine', '', '', '', 0.0)||('concentrations', 'noun', 'C0086045', ['menp'], 0.0)||('.', '', '', '', 0.0)||
('baseline', 'noun', 'C0168634', ['bodm'], 0.0)||('values', 'noun', 'C0042295', ['qlco'], 0.0)||('of', '', '', '', 0.0)||('the', '', '', '', 0.0)||('acute phase reactants', '', '', '', 0.0)||('were', '', '', '', 0.0)||('significantly', '', '', '', 0.0)||('associated', 'verb', 'C0332281', ['qlco'], 0.0)||('with', '', '', '', 0.0)||('one', 'noun', 'C0205447', ['qnco'], 0.0)||('another', '', '', '', 0.0)||('(', '', '', '', 0.0)||('p', '', '', '', 0.0)||('<', '', '', '', 0.0)||('0 . 0001', '', '', '', 0.0)||(')', '', '', '', 0.0)||(',', '', '', '', 0.0)||('although', '', '', '', 0.0)||('the', '', '', '', 0.0)||('association', 'noun', 'C0004083', ['menp'], 0.0)||('between', '', '', '', 0.0)||('low', 'adj', 'C0205251', ['qlco'], 0.0)||('serum albumin', 'noun', 'C0036773', ['aapp'], 0.0)||('concentration', 'noun', 'C0086045', ['menp'], 0.0)||('and', '', '', '', 0.0)||('leucocyte count', '', '', '', 0.0)||('was', '', '', '', 0.0)||('weaker', '', '', '', 0.0)||('(', '', '', '', 0.0)||('p', '', '', '', 0.0)||('=', '', '', '', 0.0)||('0 . 08', '', '', '', 0.0)||(')', '', '', '', 0.0)||('.', '', '', '', 0.0)||
('in', '', '', '', 0.0)||('the', '', '', '', 0.0)||('context', 'noun', 'C0449255', ['fndg'], 0.0)||('of', '', '', '', 0.0)||('results', 'noun', 'C1274040', ['ftcn'], 0.0)||('from', '', '', '', 0.0)||('other', '', '', '', 0.0)||('relevant', 'adj', 'C2347946', ['qlco'], 0.0)||('studies', '', '', '', 0.0)||('these', '', '', '', 0.0)||('findings', 'noun', 'C2607943', ['ftcn'], 0.0)||('suggest', 'verb', 'C1705535', ['idcn'], 0.0)||('that', '', '', '', 0.0)||('some', '', '', '', 0.0)||('inflammatory', 'adj', 'C0333348', ['ftcn'], 0.0)||('processes', '', '', '', 0.0)||(',', '', '', '', 0.0)||('unrelated', 'verb', 'C0445356', ['fndg'], 0.0)||('to', '', '', '', 0.0)||('the', '', '', '', 0.0)||('chronic', 'adj', 'C0205191', ['tmco'], 0.0)||('infections', 'noun', 'C0021311', ['dsyn'], 0.0)||('studied', '', '', '', 0.0)||('here', '', '', '', 0.0)||(',', '', '', '', 0.0)||('are', '', '', '', 0.0)||('likely', 'adv', 'C0332148', ['qlco'], 0.0)||('to', '', '', '', 0.0)||('be', '', '', '', 0.0)||('involved', 'verb', 'C1314939', ['ftcn'], 0.0)||('in', '', '', '', 0.0)||('coronary heart disease', 'noun', 'C0010068', ['dsyn'], 0.0)||('.', '', '', '', 0.0)||
