('c - reactive protein', '', '', '', 0.0)||('is', '', '', '', 0.0)||('an', '', '', '', 0.0)||('inflammatory', 'adj', 'C0333348', ['ftcn'], 0.0)||('marker', 'noun', 'C0005516', ['clna'], 0.0)||('believed', '', '', '', 0.0)||('to', '', '', '', 0.0)||('be', '', '', '', 0.0)||('of', '', '', '', 0.0)||('value', 'noun', 'C0042295', ['qlco'], 0.0)||('in', '', '', '', 0.0)||('the', '', '', '', 0.0)||('prediction', 'noun', 'C0681842', ['idcn'], 0.0)||('of', '', '', '', 0.0)||('coronary', 'adj', 'C0018787', ['bpoc'], 0.0)||('events', 'noun', 'C0441471', ['evnt'], 0.0)||('.', '', '', '', 0.0)||
('we', '', '', '', 0.0)||('report', 'verb', 'C0684224', ['inpr'], 0.0)||('data', 'noun', 'C1511726', ['idcn'], 0.0)||('from', '', '', '', 0.0)||('a', '', '', '', 0.0)||('large', 'adj', 'C0549177', ['qnco'], 0.0)||('study', 'noun', 'C0008976', ['resa'], 0.0)||('of', '', '', '', 0.0)||('c - reactive protein', '', '', '', 0.0)||('and', '', '', '', 0.0)||('other', '', '', '', 0.0)||('circulating', 'noun', 'C0175630', ['ftcn'], 0.0)||('inflammatory', 'adj', 'C0333348', ['ftcn'], 0.0)||('markers', 'noun', 'C2745888', ['medd'], 0.0)||(',', '', '', '', 0.0)||('as well as', '', '', '', 0.0)||('updated', '', '', '', 0.0)||('meta - analyses', '', '', '', 0.0)||(',', '', '', '', 0.0)||('to', '', '', '', 0.0)||('evaluate', 'verb', 'C0220825', ['ftcn'], 0.0)||('their', '', '', '', 0.0)||('relevance', 'noun', 'C2347946', ['qlco'], 0.0)||('to', '', '', '', 0.0)||('the', '', '', '', 0.0)||('prediction', 'noun', 'C0681842', ['idcn'], 0.0)||('of', '', '', '', 0.0)||('coronary heart disease', 'noun', 'C0010068', ['dsyn'], 0.0)||('.', '', '', '', 0.0)||
('measurements', '', '', '', 0.0)||('were', '', '', '', 0.0)||('made', '', '', '', 0.0)||('in', '', '', '', 0.0)||('samples', '', '', '', 0.0)||('obtained', 'verb', 'C1301820', ['ftcn'], 0.0)||('at', '', '', '', 0.0)||('base line', '', '', '', 0.0)||('from', '', '', '', 0.0)||('up to', '', '', '', 0.0)||('2459', '', '', '', 0.0)||('patients', 'noun', 'C0030705', ['podg'], 0.0)||('who', '', '', '', 0.0)||('had', '', '', '', 0.0)||('a', '', '', '', 0.0)||('nonfatal', '', '', '', 0.0)||('myocardial infarction', 'noun', 'C0027051', ['dsyn'], 0.0)||('or', '', '', '', 0.0)||('died', 'verb', 'C1306577', ['fndg'], 0.0)||('of', '', '', '', 0.0)||('coronary heart disease', 'noun', 'C0010068', ['dsyn'], 0.0)||('during', '', '', '', 0.0)||('the', '', '', '', 0.0)||('study', 'noun', 'C0008976', ['resa'], 0.0)||('and', '', '', '', 0.0)||('from', '', '', '', 0.0)||('up to', '', '', '', 0.0)||('3969', '', '', '', 0.0)||('controls', '', '', '', 0.0)||('without', '', '', '', 0.0)||('a', '', '', '', 0.0)||('coronary heart disease', 'noun', 'C0010068', ['dsyn'], 0.0)||('event', 'noun', 'C0441471', ['evnt'], 0.0)||('in', '', '', '', 0.0)||('the', '', '', '', 0.0)||('reykjavik', '', '', '', 0.0)||('prospective study', 'noun', 'C0033522', ['resa'], 0.0)||('of', '', '', '', 0.0)||('18 , 569', '', '', '', 0.0)||('participants', '', '', '', 0.0)||('.', '', '', '', 0.0)||
('measurements', '', '', '', 0.0)||('were', '', '', '', 0.0)||('made', '', '', '', 0.0)||('in', '', '', '', 0.0)||('paired', 'adj', 'C1709450', ['qlco'], 0.0)||('samples', '', '', '', 0.0)||('obtained', 'verb', 'C1301820', ['ftcn'], 0.0)||('an', '', '', '', 0.0)||('average', 'noun', 'C1510992', ['qnco'], 0.0)||('of', '', '', '', 0.0)||('12', '', '', '', 0.0)||('years', 'noun', 'C0439234', ['tmco'], 0.0)||('apart from', '', '', '', 0.0)||('379', '', '', '', 0.0)||('of', '', '', '', 0.0)||('these', '', '', '', 0.0)||('participants', '', '', '', 0.0)||('in', '', '', '', 0.0)||('order', 'noun', 'C1705175', ['inpr'], 0.0)||('to', '', '', '', 0.0)||('quantify', '', '', '', 0.0)||('within', '', '', '', 0.0)||('-', '', '', '', 0.0)||('person', 'noun', 'C0027361', ['popg'], 0.0)||('fluctuations', '', '', '', 0.0)||('in', '', '', '', 0.0)||('inflammatory', 'adj', 'C0333348', ['ftcn'], 0.0)||('marker levels', '', '', '', 0.0)||('.', '', '', '', 0.0)||
('the', '', '', '', 0.0)||('long - term', '', '', '', 0.0)||('stability', 'noun', 'C0205360', ['qlco'], 0.0)||('of', '', '', '', 0.0)||('c - reactive protein', '', '', '', 0.0)||('values', 'noun', 'C0042295', ['qlco'], 0.0)||('(', '', '', '', 0.0)||('within', '', '', '', 0.0)||('-', '', '', '', 0.0)||('person', 'noun', 'C0027361', ['popg'], 0.0)||('correlation coefficient', '', '', '', 0.0)||(',', '', '', '', 0.0)||('0 . 59', '', '', '', 0.0)||(';', '', '', '', 0.0)||('95', '', '', '', 0.0)||('percent', 'noun', 'C0439165', ['qnco'], 0.0)||('confidence interval', 'noun', 'C0009667', ['qnco'], 0.0)||(',', '', '', '', 0.0)||('0 . 52', '', '', '', 0.0)||('to', '', '', '', 0.0)||('0 . 66', '', '', '', 0.0)||(')', '', '', '', 0.0)||('was', '', '', '', 0.0)||('similar', 'adj', 'C2348205', ['qlco'], 0.0)||('to', '', '', '', 0.0)||('that', '', '', '', 0.0)||('of', '', '', '', 0.0)||('both', '', '', '', 0.0)||('blood pressure', 'noun', 'C0005823', ['orgf'], 0.0)||('and', '', '', '', 0.0)||('total', 'adj', 'C0439810', ['qlco'], 0.0)||('serum cholesterol', 'noun', 'C0587184', ['lbpr'], 0.0)||('.', '', '', '', 0.0)||
('after', '', '', '', 0.0)||('adjustment', 'noun', 'C0376209', ['inbe'], 0.0)||('for', '', '', '', 0.0)||('base - line', '', '', '', 0.0)||('values', 'noun', 'C0042295', ['qlco'], 0.0)||('for', '', '', '', 0.0)||('established', 'adj', 'C0443211', ['qlco'], 0.0)||('risk factors', 'noun', 'C0035648', ['qnco'], 0.0)||(',', '', '', '', 0.0)||('the', '', '', '', 0.0)||('odds ratio', 'noun', 'C0028873', ['qnco'], 0.0)||('for', '', '', '', 0.0)||('coronary heart disease', 'noun', 'C0010068', ['dsyn'], 0.0)||('was', '', '', '', 0.0)||('1 . 45', '', '', '', 0.0)||('(', '', '', '', 0.0)||('95', '', '', '', 0.0)||('percent', 'noun', 'C0439165', ['qnco'], 0.0)||('confidence interval', 'noun', 'C0009667', ['qnco'], 0.0)||(',', '', '', '', 0.0)||('1 . 25', '', '', '', 0.0)||('to', '', '', '', 0.0)||('1 . 68', '', '', '', 0.0)||(')', '', '', '', 0.0)||('in', '', '', '', 0.0)||('a', '', '', '', 0.0)||('comparison', 'noun', 'C1707455', ['acty'], 0.0)||('of', '', '', '', 0.0)||('participants', '', '', '', 0.0)||('in', '', '', '', 0.0)||('the', '', '', '', 0.0)||('top', 'noun', 'C1522168', ['ftcn'], 0.0)||('third', 'noun', 'C0205437', ['qnco'], 0.0)||('of', '', '', '', 0.0)||('the', '', '', '', 0.0)||('group', 'noun', 'C0441833', ['idcn'], 0.0)||('with', '', '', '', 0.0)||('respect', 'noun', 'C0679133', ['socb'], 0.0)||('to', '', '', '', 0.0)||('base - line', '', '', '', 0.0)||('c - reactive protein', '', '', '', 0.0)||('values', 'noun', 'C0042295', ['qlco'], 0.0)||('with', '', '', '', 0.0)||('those', '', '', '', 0.0)||('in', '', '', '', 0.0)||('the', '', '', '', 0.0)||('bottom', 'noun', 'C1511276', ['spco'], 0.0)||('third', 'noun', 'C0205437', ['qnco'], 0.0)||(',', '', '', '', 0.0)||('and', '', '', '', 0.0)||('similar', 'adj', 'C2348205', ['qlco'], 0.0)||('overall', 'adj', 'C0282416', ['inpr'], 0.0)||('findings', 'noun', 'C2607943', ['ftcn'], 0.0)||('were', '', '', '', 0.0)||('observed', 'verb', 'C1441672', ['ftcn'], 0.0)||('in', '', '', '', 0.0)||('an', '', '', '', 0.0)||('updated', '', '', '', 0.0)||('meta - analysis', '', '', '', 0.0)||('involving', 'verb', 'C1314939', ['ftcn'], 0.0)||('a', '', '', '', 0.0)||('total', 'noun', 'C0439810', ['qlco'], 0.0)||('of', '', '', '', 0.0)||('7068', '', '', '', 0.0)||('patients', 'noun', 'C0030705', ['podg'], 0.0)||('with', '', '', '', 0.0)||('coronary heart disease', 'noun', 'C0010068', ['dsyn'], 0.0)||('.', '', '', '', 0.0)||
('by', '', '', '', 0.0)||('comparison', 'noun', 'C1707455', ['acty'], 0.0)||(',', '', '', '', 0.0)||('the', '', '', '', 0.0)||('odds ratios', 'noun', 'C0028873', ['qnco'], 0.0)||('in', '', '', '', 0.0)||('the', '', '', '', 0.0)||('reykjavik', '', '', '', 0.0)||('study', 'noun', 'C0008976', ['resa'], 0.0)||('for', '', '', '', 0.0)||('coronary heart disease', 'noun', 'C0010068', ['dsyn'], 0.0)||('were', '', '', '', 0.0)||('somewhat', '', '', '', 0.0)||('weaker', '', '', '', 0.0)||('for', '', '', '', 0.0)||('the', '', '', '', 0.0)||('erythrocyte sedimentation rate', 'noun', 'C0086250', ['lbpr'], 0.0)||('(', '', '', '', 0.0)||('1 . 30', '', '', '', 0.0)||(';', '', '', '', 0.0)||('95', '', '', '', 0.0)||('percent', 'noun', 'C0439165', ['qnco'], 0.0)||('confidence interval', 'noun', 'C0009667', ['qnco'], 0.0)||(',', '', '', '', 0.0)||('1 . 13', '', '', '', 0.0)||('to', '', '', '', 0.0)||('1 . 51', '', '', '', 0.0)||(')', '', '', '', 0.0)||('and', '', '', '', 0.0)||('the', '', '', '', 0.0)||('von willebrand factor', 'noun', 'C0042971', ['aapp', 'bacs', 'phsu'], 0.0)||('concentration', 'noun', 'C0086045', ['menp'], 0.0)||('(', '', '', '', 0.0)||('1 . 11', '', '', '', 0.0)||(';', '', '', '', 0.0)||('95', '', '', '', 0.0)||('percent', 'noun', 'C0439165', ['qnco'], 0.0)||('confidence interval', 'noun', 'C0009667', ['qnco'], 0.0)||(',', '', '', '', 0.0)||('0 . 97', '', '', '', 0.0)||('to', '', '', '', 0.0)||('1 . 27', '', '', '', 0.0)||(')', '', '', '', 0.0)||('but', '', '', '', 0.0)||('generally', '', '', '', 0.0)||('stronger', '', '', '', 0.0)||('for', '', '', '', 0.0)||('established', 'adj', 'C0443211', ['qlco'], 0.0)||('risk factors', 'noun', 'C0035648', ['qnco'], 0.0)||(',', '', '', '', 0.0)||('such as', '', '', '', 0.0)||('an', '', '', '', 0.0)||('increased', 'adj', 'C0205217', ['qnco'], 0.0)||('total cholesterol', 'noun', 'C0543421', ['strd'], 0.0)||('concentration', 'noun', 'C0086045', ['menp'], 0.0)||('(', '', '', '', 0.0)||('2 . 35', '', '', '', 0.0)||(';', '', '', '', 0.0)||('95', '', '', '', 0.0)||('percent', 'noun', 'C0439165', ['qnco'], 0.0)||('confidence interval', 'noun', 'C0009667', ['qnco'], 0.0)||(',', '', '', '', 0.0)||('2 . 03', '', '', '', 0.0)||('to', '', '', '', 0.0)||('2 . 74', '', '', '', 0.0)||(')', '', '', '', 0.0)||('and', '', '', '', 0.0)||('cigarette', 'noun', 'C0677453', ['mnob'], 0.0)||('smoking', 'noun', 'C0037369', ['inbe'], 0.0)||('(', '', '', '', 0.0)||('1 . 87', '', '', '', 0.0)||(';', '', '', '', 0.0)||('95', '', '', '', 0.0)||('percent', 'noun', 'C0439165', ['qnco'], 0.0)||('confidence interval', 'noun', 'C0009667', ['qnco'], 0.0)||(',', '', '', '', 0.0)||('1 . 62', '', '', '', 0.0)||('to', '', '', '', 0.0)||('2 . 16', '', '', '', 0.0)||(')', '', '', '', 0.0)||('.', '', '', '', 0.0)||
('c - reactive protein', '', '', '', 0.0)||('is', '', '', '', 0.0)||('a', '', '', '', 0.0)||('relatively', '', '', '', 0.0)||('moderate', 'verb', 'C0205081', ['qlco'], 0.0)||('predictor', 'noun', 'C2698872', ['idcn'], 0.0)||('of', '', '', '', 0.0)||('coronary heart disease', 'noun', 'C0010068', ['dsyn'], 0.0)||('.', '', '', '', 0.0)||
('recommendations', 'noun', 'C0034866', ['idcn'], 0.0)||('regarding', '', '', '', 0.0)||('its', '', '', '', 0.0)||('use', 'noun', 'C0042153', ['ftcn'], 0.0)||('in', '', '', '', 0.0)||('predicting', '', '', '', 0.0)||('the', '', '', '', 0.0)||('likelihood', 'noun', 'C0033204', ['qnco'], 0.0)||('of', '', '', '', 0.0)||('coronary heart disease', 'noun', 'C0010068', ['dsyn'], 0.0)||('may', '', '', '', 0.0)||('need', 'verb', 'C0027552', ['qlco'], 0.0)||('to', '', '', '', 0.0)||('be', '', '', '', 0.0)||('reviewed', 'verb', 'C1709940', ['qlco'], 0.0)||('.', '', '', '', 0.0)||
