('using', 'verb', 'C1524063', ['ftcn'], 0.0)||('a', '', '', '', 0.0)||('roc', 'noun', 'C0683187', ['aapp', 'bacs'], 0.0)||('curve', 'noun', 'C0205134', ['spco'], 0.0)||('generated', '', '', '', 0.0)||('from', '', '', '', 0.0)||('22', '', '', '', 0.0)||('studies', '', '', '', 0.0)||(',', '', '', '', 0.0)||('the', '', '', '', 0.0)||('authors', 'noun', 'C0341628', ['prog'], 0.0)||('found', '', '', '', 0.0)||('the', '', '', '', 0.0)||('test', 'noun', 'C0022885', ['lbpr'], 0.0)||('characteristics', 'noun', 'C1521970', ['qlco'], 0.0)||('of', '', '', '', 0.0)||('the', '', '', '', 0.0)||('250', '', '', '', 0.0)||('mcg', 'noun', 'C0439211', ['qnco'], 0.0)||('cst', '', '', '', 0.0)||('and', '', '', '', 0.0)||('the', '', '', '', 0.0)||('1', '', '', '', 0.0)||('mcg', 'noun', 'C0439211', ['qnco'], 0.0)||('cst', '', '', '', 0.0)||('to', '', '', '', 0.0)||('be', '', '', '', 0.0)||('similar', 'adj', 'C2348205', ['qlco'], 0.0)||('.', '', '', '', 0.0)||
('only', '', '', '', 0.0)||('7', '', '', '', 0.0)||('of', '', '', '', 0.0)||('these', '', '', '', 0.0)||('studies', '', '', '', 0.0)||('included', '', '', '', 0.0)||('paired', 'adj', 'C1709450', ['qlco'], 0.0)||('data', 'noun', 'C1511726', ['idcn'], 0.0)||('for', '', '', '', 0.0)||('the', '', '', '', 0.0)||('standard', 'noun', 'C1442989', ['ftcn'], 0.0)||('-', '', '', '', 0.0)||('and', '', '', '', 0.0)||('low - dose', '', '', '', 0.0)||('cst', '', '', '', 0.0)||('in', '', '', '', 0.0)||('the', '', '', '', 0.0)||('same', 'adj', 'C0445247', ['qlco'], 0.0)||('patients', 'noun', 'C0030705', ['podg'], 0.0)||(',', '', '', '', 0.0)||('however', '', '', '', 0.0)||('.', '', '', '', 0.0)||
('in', '', '', '', 0.0)||('the', '', '', '', 0.0)||('7', '', '', '', 0.0)||('studies', '', '', '', 0.0)||('with', '', '', '', 0.0)||('paired', 'adj', 'C1709450', ['qlco'], 0.0)||('data', 'noun', 'C1511726', ['idcn'], 0.0)||(',', '', '', '', 0.0)||('the', '', '', '', 0.0)||('1', '', '', '', 0.0)||('mcg', 'noun', 'C0439211', ['qnco'], 0.0)||('cst', '', '', '', 0.0)||('had', '', '', '', 0.0)||('better', 'adj', 'C0332272', ['qlco'], 0.0)||('diagnostic', 'adj', 'C0011900', ['fndg'], 0.0)||('discrimination', 'noun', 'C0012632', ['menp'], 0.0)||(',', '', '', '', 0.0)||('based', 'verb', 'C1527178', ['ftcn'], 0.0)||('on', '', '', '', 0.0)||('a', '', '', '', 0.0)||('larger', 'adj', 'C0549177', ['qnco'], 0.0)||('area', 'noun', 'C0017446', ['geoa'], 0.0)||('under', '', '', '', 0.0)||('the', '', '', '', 0.0)||('roc', 'noun', 'C0683187', ['aapp', 'bacs'], 0.0)||(',', '', '', '', 0.0)||('than', '', '', '', 0.0)||('the', '', '', '', 0.0)||('250', '', '', '', 0.0)||('mcg', 'noun', 'C0439211', ['qnco'], 0.0)||('cst', '', '', '', 0.0)||
