('calls', '', '', '', 0.0)||('are', '', '', '', 0.0)||('increasing', 'verb', 'C0442808', ['ftcn'], 0.0)||('for', '', '', '', 0.0)||('physicians', 'noun', 'C0031831', ['prog'], 0.0)||('to', '', '', '', 0.0)||('disclose', '', '', '', 0.0)||('harmful', '', '', '', 0.0)||('medical', 'adj', 'C0205476', ['ftcn'], 0.0)||('errors', 'noun', 'C0743559', ['qlco'], 0.0)||('to', '', '', '', 0.0)||('patients', 'noun', 'C0030705', ['podg'], 0.0)||(',', '', '', '', 0.0)||('but', '', '', '', 0.0)||('little', 'adj', 'C0700321', ['qnco'], 0.0)||('is', '', '', '', 0.0)||('known', 'verb', 'C0205309', ['qlco'], 0.0)||('about', '', '', '', 0.0)||('how', '', '', '', 0.0)||('physicians', 'noun', 'C0031831', ['prog'], 0.0)||('perform', '', '', '', 0.0)||('this', '', '', '', 0.0)||('challenging', '', '', '', 0.0)||('task', '', '', '', 0.0)||('.', '', '', '', 0.0)||
('for', '', '', '', 0.0)||('surgeons', 'noun', 'C0582175', ['prog'], 0.0)||(',', '', '', '', 0.0)||('communication', 'noun', 'C0009452', ['socb'], 0.0)||('about', '', '', '', 0.0)||('errors', 'noun', 'C0743559', ['qlco'], 0.0)||('is', '', '', '', 0.0)||('particularly', '', '', '', 0.0)||('important', '', '', '', 0.0)||('since', '', '', '', 0.0)||('surgical', 'adj', 'C0543467', ['topp'], 0.0)||('errors', 'noun', 'C0743559', ['qlco'], 0.0)||('can', '', '', '', 0.0)||('have', '', '', '', 0.0)||('devastating', '', '', '', 0.0)||('consequences', '', '', '', 0.0)||('.', '', '', '', 0.0)||
('our', '', '', '', 0.0)||('objective', 'noun', 'C0018017', ['inpr'], 0.0)||('was', '', '', '', 0.0)||('to', '', '', '', 0.0)||('explore', '', '', '', 0.0)||('how', '', '', '', 0.0)||('surgeons', 'noun', 'C0582175', ['prog'], 0.0)||('disclose', '', '', '', 0.0)||('medical', 'adj', 'C0205476', ['ftcn'], 0.0)||('errors', 'noun', 'C0743559', ['qlco'], 0.0)||('using', 'verb', 'C1524063', ['ftcn'], 0.0)||('standardized patients', '', '', '', 0.0)||('.', '', '', '', 0.0)||
('thirty', '', '', '', 0.0)||('academic', 'adj', 'C1510747', ['orgt'], 0.0)||('surgeons', 'noun', 'C0582175', ['prog'], 0.0)||('participated', '', '', '', 0.0)||('in', '', '', '', 0.0)||('the', '', '', '', 0.0)||('study', 'noun', 'C0008976', ['resa'], 0.0)||('.', '', '', '', 0.0)||
('each', '', '', '', 0.0)||('surgeon', 'noun', 'C0582175', ['prog'], 0.0)||('discussed', '', '', '', 0.0)||('2', '', '', '', 0.0)||('of', '', '', '', 0.0)||('3', '', '', '', 0.0)||('error', 'noun', 'C0743559', ['qlco'], 0.0)||('scenarios', '', '', '', 0.0)||('(', '', '', '', 0.0)||('wrong', '', '', '', 0.0)||('-', '', '', '', 0.0)||('side', 'noun', 'C0441987', ['spco'], 0.0)||('lumpectomy', 'noun', 'C0851238', ['topp'], 0.0)||(',', '', '', '', 0.0)||('retained', 'verb', 'C0333118', ['ftcn'], 0.0)||('surgical', 'adj', 'C0543467', ['topp'], 0.0)||('sponge', 'noun', 'C0032699', ['euka'], 0.0)||(',', '', '', '', 0.0)||('and', '', '', '', 0.0)||('hyperkalemia', '', '', '', 0.0)||('-', '', '', '', 0.0)||('induced', 'adj', 'C0205263', ['ftcn'], 0.0)||('arrhythmia', 'noun', 'C0003811', ['patf'], 0.0)||(')', '', '', '', 0.0)||('with', '', '', '', 0.0)||('standardized patients', '', '', '', 0.0)||(',', '', '', '', 0.0)||('yielding', '', '', '', 0.0)||('a', '', '', '', 0.0)||('total', 'noun', 'C0439810', ['qlco'], 0.0)||('of', '', '', '', 0.0)||('60', '', '', '', 0.0)||('encounters', '', '', '', 0.0)||('.', '', '', '', 0.0)||
('each', '', '', '', 0.0)||('encounter', 'noun', 'C0545082', ['bhvr'], 0.0)||('was', '', '', '', 0.0)||('scored', '', '', '', 0.0)||('by', '', '', '', 0.0)||('using', 'verb', 'C1524063', ['ftcn'], 0.0)||('a', '', '', '', 0.0)||('scale', 'noun', 'C0175659', ['medd'], 0.0)||('developed', '', '', '', 0.0)||('to', '', '', '', 0.0)||('rate', 'noun', 'C0871208', ['acty'], 0.0)||('5', '', '', '', 0.0)||('communication', 'noun', 'C0009452', ['socb'], 0.0)||('elements', 'noun', 'C0013879', ['elii'], 0.0)||('of', '', '', '', 0.0)||('effective', 'adj', 'C1704419', ['qlco'], 0.0)||('error', 'noun', 'C0743559', ['qlco'], 0.0)||('disclosure', 'noun', 'C0012625', ['inbe'], 0.0)||('.', '', '', '', 0.0)||
('half', '', '', '', 0.0)||('of', '', '', '', 0.0)||('the', '', '', '', 0.0)||('encounters', '', '', '', 0.0)||('took', '', '', '', 0.0)||('place', 'noun', 'C0442504', ['spco'], 0.0)||('face - to - face', '', '', '', 0.0)||(';', '', '', '', 0.0)||
('the', '', '', '', 0.0)||('remainder', '', '', '', 0.0)||('occurred', 'verb', 'C1709305', ['cnce'], 0.0)||('by', '', '', '', 0.0)||('videoconference', 'noun', 'C1450049', ['hcpp'], 0.0)||('.', '', '', '', 0.0)||
('surgeons', 'noun', 'C0582175', ['prog'], 0.0)||('were', '', '', '', 0.0)||('rated', 'verb', 'C0871208', ['acty'], 0.0)||('highest', 'adj', 'C1522410', ['qlco'], 0.0)||('on', '', '', '', 0.0)||('their', '', '', '', 0.0)||('ability', 'noun', 'C0085732', ['orga'], 0.0)||('to', '', '', '', 0.0)||('explain', '', '', '', 0.0)||('the', '', '', '', 0.0)||('medical', 'adj', 'C0205476', ['ftcn'], 0.0)||('facts', '', '', '', 0.0)||('about', '', '', '', 0.0)||('the', '', '', '', 0.0)||('error', 'noun', 'C0743559', ['qlco'], 0.0)||('(', '', '', '', 0.0)||('mean scores', '', '', '', 0.0)||('for', '', '', '', 0.0)||('the', '', '', '', 0.0)||('3', '', '', '', 0.0)||('scenarios', '', '', '', 0.0)||('ranged', '', '', '', 0.0)||('from', '', '', '', 0.0)||('3 . 93', '', '', '', 0.0)||('to', '', '', '', 0.0)||('4 . 20', '', '', '', 0.0)||(';', '', '', '', 0.0)||('maximum', 'noun', 'C0806909', ['qnco'], 0.0)||('possible', 'adj', 'C0332149', ['qlco'], 0.0)||('score', 'noun', 'C0449820', ['qnco'], 0.0)||(',', '', '', '', 0.0)||('5', '', '', '', 0.0)||(')', '', '', '', 0.0)||('.', '', '', '', 0.0)||
('surgeons', 'noun', 'C0582175', ['prog'], 0.0)||('used', '', '', '', 0.0)||('the', '', '', '', 0.0)||('word', 'noun', 'C1705313', ['idcn'], 0.0)||('error', 'noun', 'C0743559', ['qlco'], 0.0)||('or', '', '', '', 0.0)||('mistake', '', '', '', 0.0)||('in', '', '', '', 0.0)||('only', '', '', '', 0.0)||('57 %', '', '', '', 0.0)||('of', '', '', '', 0.0)||('disclosure', 'noun', 'C0012625', ['inbe'], 0.0)||('conversations', '', '', '', 0.0)||(',', '', '', '', 0.0)||('took', '', '', '', 0.0)||('responsibility', 'noun', 'C0678341', ['inbe'], 0.0)||('for', '', '', '', 0.0)||('the', '', '', '', 0.0)||('error', 'noun', 'C0743559', ['qlco'], 0.0)||('in', '', '', '', 0.0)||('65 %', '', '', '', 0.0)||('of', '', '', '', 0.0)||('encounters', '', '', '', 0.0)||(',', '', '', '', 0.0)||('and', '', '', '', 0.0)||('offered', 'verb', 'C1444648', ['fndg'], 0.0)||('a', '', '', '', 0.0)||('verbal', 'adj', 'C0439824', ['orgf'], 0.0)||('apology', '', '', '', 0.0)||('in', '', '', '', 0.0)||('47 %', '', '', '', 0.0)||('.', '', '', '', 0.0)||
('surgeons', 'noun', 'C0582175', ['prog'], 0.0)||('acknowledged', '', '', '', 0.0)||('or', '', '', '', 0.0)||('validated', '', '', '', 0.0)||('patients', 'noun', 'C0030705', ['podg'], 0.0)||("'", '', '', '', 0.0)||('emotions', 'noun', 'C0013987', ['menp'], 0.0)||('in', '', '', '', 0.0)||('55 %', '', '', '', 0.0)||('of', '', '', '', 0.0)||('scenarios', '', '', '', 0.0)||('.', '', '', '', 0.0)||
('eight', '', 'C0205454', ['qnco'], 0.0)||('percent', 'noun', 'C0439165', ['qnco'], 0.0)||('discussed', '', '', '', 0.0)||('how', '', '', '', 0.0)||('similar', 'adj', 'C2348205', ['qlco'], 0.0)||('errors', 'noun', 'C0743559', ['qlco'], 0.0)||('would', '', '', '', 0.0)||('be', '', '', '', 0.0)||('prevented', '', '', '', 0.0)||(',', '', '', '', 0.0)||('and', '', '', '', 0.0)||('20 %', '', '', '', 0.0)||('offered', 'verb', 'C1444648', ['fndg'], 0.0)||('a', '', '', '', 0.0)||('second', 'adj', 'C0205436', ['qnco'], 0.0)||('opinion', '', '', '', 0.0)||('or', '', '', '', 0.0)||('transfer', 'noun', 'C0040671', ['menp'], 0.0)||('of', '', '', '', 0.0)||('care', 'noun', 'C0580931', ['fndg'], 0.0)||('to', '', '', '', 0.0)||('another', '', '', '', 0.0)||('surgeon', 'noun', 'C0582175', ['prog'], 0.0)||('.', '', '', '', 0.0)||
('the', '', '', '', 0.0)||('patient', '', '', '', 0.0)||('safety', 'noun', 'C0036043', ['hcpp'], 0.0)||('movement', 'noun', 'C0026649', ['orgf'], 0.0)||('calls', '', '', '', 0.0)||('for', '', '', '', 0.0)||('disclosure', 'noun', 'C0012625', ['inbe'], 0.0)||('of', '', '', '', 0.0)||('medical', 'adj', 'C0205476', ['ftcn'], 0.0)||('errors', 'noun', 'C0743559', ['qlco'], 0.0)||(',', '', '', '', 0.0)||('but', '', '', '', 0.0)||('significant', 'adj', 'C0750502', ['idcn'], 0.0)||('gaps', '', '', '', 0.0)||('exist', '', '', '', 0.0)||('between', '', '', '', 0.0)||('how', '', '', '', 0.0)||('surgeons', 'noun', 'C0582175', ['prog'], 0.0)||('disclose', '', '', '', 0.0)||('errors', 'noun', 'C0743559', ['qlco'], 0.0)||('and', '', '', '', 0.0)||('patient', '', '', '', 0.0)||('preferences', 'noun', 'C0558295', ['idcn'], 0.0)||('.', '', '', '', 0.0)||
('programs', 'noun', 'C0376691', ['inpr'], 0.0)||('should', '', '', '', 0.0)||('be', '', '', '', 0.0)||('developed', '', '', '', 0.0)||('to', '', '', '', 0.0)||('teach', '', '', '', 0.0)||('surgeons', 'noun', 'C0582175', ['prog'], 0.0)||('how', '', '', '', 0.0)||('to', '', '', '', 0.0)||('communicate', '', '', '', 0.0)||('more', '', '', '', 0.0)||('effectively', '', '', '', 0.0)||('with', '', '', '', 0.0)||('patients', 'noun', 'C0030705', ['podg'], 0.0)||('about', '', '', '', 0.0)||('errors', 'noun', 'C0743559', ['qlco'], 0.0)||('.', '', '', '', 0.0)||
