('this', '', '', '', 0.0)||('study', 'noun', 'C0008976', ['resa'], 0.0)||('was', '', '', '', 0.0)||('designed', '', '', '', 0.0)||('to', '', '', '', 0.0)||('compare', 'verb', 'C1707455', ['acty'], 0.0)||('two', 'adj', 'C0205448', ['qnco'], 0.0)||('treatment', 'noun', 'C0039798', ['ftcn'], 0.0)||('strategies', 'noun', 'C0679199', ['menp'], 0.0)||('in', '', '', '', 0.0)||('patients', 'noun', 'C0030705', ['podg'], 0.0)||('with', '', '', '', 0.0)||('atrial fibrillation', 'noun', 'C0004238', ['patf'], 0.0)||('(', '', '', '', 0.0)||('af', '', '', '', 0.0)||(')', '', '', '', 0.0)||(':', '', '', '', 0.0)||('rhythm - control', '', '', '', 0.0)||('(', '', '', '', 0.0)||('restoration', 'noun', 'C0449982', ['inpr'], 0.0)||('and', '', '', '', 0.0)||('maintenance', 'noun', 'C0024501', ['acty'], 0.0)||('of', '', '', '', 0.0)||('sinus rhythm', 'noun', 'C0232201', ['fndg'], 0.0)||(')', '', '', '', 0.0)||('and', '', '', '', 0.0)||('rate - control', '', '', '', 0.0)||('(', '', '', '', 0.0)||('pharmacologic', 'adj', 'C0031330', ['bmod'], 0.0)||('or', '', '', '', 0.0)||('invasive', 'adj', 'C0205281', ['qlco'], 0.0)||('rate - control', '', '', '', 0.0)||('and', '', '', '', 0.0)||('anticoagulation', 'noun', 'C0003281', ['topp'], 0.0)||(')', '', '', '', 0.0)||('.', '', '', '', 0.0)||
('atrial fibrillation', 'noun', 'C0004238', ['patf'], 0.0)||('is', '', '', '', 0.0)||('the', '', '', '', 0.0)||('most', '', '', '', 0.0)||('common', 'adj', 'C0205214', ['qnco'], 0.0)||('arrhythmia', 'noun', 'C0003811', ['patf'], 0.0)||('.', '', '', '', 0.0)||
('it', '', '', '', 0.0)||('is', '', '', '', 0.0)||('unclear', '', '', '', 0.0)||('whether', '', '', '', 0.0)||('a', '', '', '', 0.0)||('strategy', 'noun', 'C0679199', ['menp'], 0.0)||('of', '', '', '', 0.0)||('rhythm', 'noun', 'C0871269', ['fndg'], 0.0)||('-', '', '', '', 0.0)||('or', '', '', '', 0.0)||('rate - control', '', '', '', 0.0)||('is', '', '', '', 0.0)||('better', 'adj', 'C0332272', ['qlco'], 0.0)||('in', '', '', '', 0.0)||('terms', '', '', '', 0.0)||('of', '', '', '', 0.0)||('mortality', 'noun', 'C0026565', ['qnco'], 0.0)||(',', '', '', '', 0.0)||('morbidity', 'noun', 'C0026538', ['qnco'], 0.0)||(',', '', '', '', 0.0)||('and', '', '', '', 0.0)||('quality', 'noun', 'C0332306', ['qlco'], 0.0)||('of', '', '', '', 0.0)||('life', 'noun', 'C0376558', ['idcn'], 0.0)||('.', '', '', '', 0.0)||
('the', '', '', '', 0.0)||('strategies', 'noun', 'C0679199', ['menp'], 0.0)||('of', '', '', '', 0.0)||('treatment', 'noun', 'C0039798', ['ftcn'], 0.0)||('of', '', '', '', 0.0)||('atrial fibrillation', 'noun', 'C0004238', ['patf'], 0.0)||('multicenter', '', '', '', 0.0)||('pilot', 'noun', 'C0473169', ['prog'], 0.0)||('trial', 'noun', 'C0008976', ['resa'], 0.0)||('randomized', 'verb', 'C0034656', ['resa'], 0.0)||('200', '', '', '', 0.0)||('patients', 'noun', 'C0030705', ['podg'], 0.0)||('(', '', '', '', 0.0)||('100', '', '', '', 0.0)||('per', '', '', '', 0.0)||('group', 'noun', 'C0441833', ['idcn'], 0.0)||(')', '', '', '', 0.0)||('with', '', '', '', 0.0)||('persistent', 'adj', 'C0205322', ['tmco'], 0.0)||('af', '', '', '', 0.0)||('to', '', '', '', 0.0)||('rhythm', 'noun', 'C0871269', ['fndg'], 0.0)||('-', '', '', '', 0.0)||('or', '', '', '', 0.0)||('rate - control', '', '', '', 0.0)||('.', '', '', '', 0.0)||
('the', '', '', '', 0.0)||('combined', 'adj', 'C0205195', ['qlco'], 0.0)||('primary', 'adj', 'C0205225', ['qlco'], 0.0)||('end point', 'noun', 'C2349179', ['qlco'], 0.0)||('was', '', '', '', 0.0)||('a', '', '', '', 0.0)||('combination', 'noun', 'C0205195', ['qlco'], 0.0)||('of', '', '', '', 0.0)||('death', 'noun', 'C0011065', ['orgf'], 0.0)||(',', '', '', '', 0.0)||('cardiopulmonary resuscitation', 'noun', 'C0007203', ['topp'], 0.0)||(',', '', '', '', 0.0)||('cerebrovascular', 'adj', 'C1880018', ['qlco'], 0.0)||('event', 'noun', 'C0441471', ['evnt'], 0.0)||(',', '', '', '', 0.0)||('and', '', '', '', 0.0)||('systemic', 'adj', 'C0205373', ['ftcn'], 0.0)||('embolism', 'noun', 'C0013922', ['patf'], 0.0)||('.', '', '', '', 0.0)||
('after', '', '', '', 0.0)||('19 . 6', '', '', '', 0.0)||('+', '', '', '', 0.0)||('/', '', '', '', 0.0)||('-', '', '', '', 0.0)||('8 . 9', '', '', '', 0.0)||('months', 'noun', 'C0439231', ['tmco'], 0.0)||('(', '', '', '', 0.0)||('range', 'noun', 'C1514721', ['qnco'], 0.0)||('0', '', '', '', 0.0)||('to', '', '', '', 0.0)||('36', '', '', '', 0.0)||('months', 'noun', 'C0439231', ['tmco'], 0.0)||(')', '', '', '', 0.0)||('there', '', '', '', 0.0)||('was', '', '', '', 0.0)||('no', '', '', '', 0.0)||('difference', 'noun', 'C1705242', ['qlco'], 0.0)||('in', '', '', '', 0.0)||('the', '', '', '', 0.0)||('primary', 'adj', 'C0205225', ['qlco'], 0.0)||('end point', 'noun', 'C2349179', ['qlco'], 0.0)||('between', '', '', '', 0.0)||('rhythm - control', '', '', '', 0.0)||('(', '', '', '', 0.0)||('9 / 100', '', '', '', 0.0)||(';', '', '', '', 0.0)||('5 . 54 %', '', '', '', 0.0)||('/', '', '', '', 0.0)||('year', 'noun', 'C0439234', ['tmco'], 0.0)||(')', '', '', '', 0.0)||('and', '', '', '', 0.0)||('rate - control', '', '', '', 0.0)||('(', '', '', '', 0.0)||('10 / 100', '', '', '', 0.0)||(';', '', '', '', 0.0)||('6 . 09 %', '', '', '', 0.0)||('/', '', '', '', 0.0)||('year', 'noun', 'C0439234', ['tmco'], 0.0)||(';', '', '', '', 0.0)||('p', '', '', '', 0.0)||('=', '', '', '', 0.0)||('0 . 99', '', '', '', 0.0)||(')', '', '', '', 0.0)||('.', '', '', '', 0.0)||
('the', '', '', '', 0.0)||('percentage', 'noun', 'C0439165', ['qnco'], 0.0)||('of', '', '', '', 0.0)||('patients', 'noun', 'C0030705', ['podg'], 0.0)||('in', '', '', '', 0.0)||('sinus rhythm', 'noun', 'C0232201', ['fndg'], 0.0)||('in', '', '', '', 0.0)||('the', '', '', '', 0.0)||('rhythm - control', '', '', '', 0.0)||('group', 'noun', 'C0441833', ['idcn'], 0.0)||('after', '', '', '', 0.0)||('up to', '', '', '', 0.0)||('four', '', 'C0205450', ['qnco'], 0.0)||('cardioversions', 'noun', 'C0013778', ['topp'], 0.0)||('during', '', '', '', 0.0)||('the', '', '', '', 0.0)||('follow - up', '', '', '', 0.0)||('period', 'noun', 'C1948053', ['tmco'], 0.0)||('(', '', '', '', 0.0)||('rate - control', '', '', '', 0.0)||('group', 'noun', 'C0441833', ['idcn'], 0.0)||(')', '', '', '', 0.0)||('was', '', '', '', 0.0)||('23 %', '', '', '', 0.0)||('(', '', '', '', 0.0)||('0 %', '', '', '', 0.0)||(')', '', '', '', 0.0)||('at', '', '', '', 0.0)||('36', '', '', '', 0.0)||('months', 'noun', 'C0439231', ['tmco'], 0.0)||('.', '', '', '', 0.0)||
('eighteen', '', '', '', 0.0)||('primary', 'adj', 'C0205225', ['qlco'], 0.0)||('end points', '', '', '', 0.0)||('occurred', 'verb', 'C1709305', ['cnce'], 0.0)||('in', '', '', '', 0.0)||('atrial fibrillation', 'noun', 'C0004238', ['patf'], 0.0)||(';', '', '', '', 0.0)||
('only', '', '', '', 0.0)||('one', 'adv', 'C0205447', ['qnco'], 0.0)||('occurred', 'verb', 'C1709305', ['cnce'], 0.0)||('in', '', '', '', 0.0)||('sinus rhythm', 'noun', 'C0232201', ['fndg'], 0.0)||('(', '', '', '', 0.0)||('p', '', '', '', 0.0)||('=', '', '', '', 0.0)||('0 . 049', '', '', '', 0.0)||(')', '', '', '', 0.0)||('.', '', '', '', 0.0)||
('the', '', '', '', 0.0)||('strategies', 'noun', 'C0679199', ['menp'], 0.0)||('of', '', '', '', 0.0)||('treatment', 'noun', 'C0039798', ['ftcn'], 0.0)||('of', '', '', '', 0.0)||('atrial fibrillation', 'noun', 'C0004238', ['patf'], 0.0)||('pilot study', 'noun', 'C0031928', ['resa'], 0.0)||('showed', '', '', '', 0.0)||('no', '', '', '', 0.0)||('differences', '', '', '', 0.0)||('between', '', '', '', 0.0)||('the', '', '', '', 0.0)||('two', 'adj', 'C0205448', ['qnco'], 0.0)||('treatment', 'noun', 'C0039798', ['ftcn'], 0.0)||('strategies', 'noun', 'C0679199', ['menp'], 0.0)||('in', '', '', '', 0.0)||('all', '', '', '', 0.0)||('end points', '', '', '', 0.0)||('except', '', '', '', 0.0)||('hospitalizations', 'noun', 'C0019993', ['hlca'], 0.0)||('.', '', '', '', 0.0)||
('these', '', '', '', 0.0)||('data', 'noun', 'C1511726', ['idcn'], 0.0)||('suggest', 'verb', 'C1705535', ['idcn'], 0.0)||('that', '', '', '', 0.0)||('there', '', '', '', 0.0)||('was', '', '', '', 0.0)||('no', '', '', '', 0.0)||('benefit', 'noun', 'C0814225', ['qnco'], 0.0)||('in', '', '', '', 0.0)||('attempting', '', '', '', 0.0)||('rhythm - control', '', '', '', 0.0)||('in', '', '', '', 0.0)||('these', '', '', '', 0.0)||('patients', 'noun', 'C0030705', ['podg'], 0.0)||('with', '', '', '', 0.0)||('a', '', '', '', 0.0)||('high risk', '', '', '', 0.0)||('of', '', '', '', 0.0)||('arrhythmia', 'noun', 'C0003811', ['patf'], 0.0)||('recurrence', 'noun', 'C0034897', ['phpr'], 0.0)||('.', '', '', '', 0.0)||
('it', '', '', '', 0.0)||('remains', '', '', '', 0.0)||('unclear', '', '', '', 0.0)||('whether', '', '', '', 0.0)||('the', '', '', '', 0.0)||('results', 'noun', 'C1274040', ['ftcn'], 0.0)||('in', '', '', '', 0.0)||('the', '', '', '', 0.0)||('rhythm - control', '', '', '', 0.0)||('group', 'noun', 'C0441833', ['idcn'], 0.0)||('would', '', '', '', 0.0)||('have', '', '', '', 0.0)||('been', '', '', '', 0.0)||('better', 'adj', 'C0332272', ['qlco'], 0.0)||('if', '', '', '', 0.0)||('sinus rhythm', 'noun', 'C0232201', ['fndg'], 0.0)||('had', '', '', '', 0.0)||('been', '', '', '', 0.0)||('maintained', 'verb', 'C1314677', ['ftcn'], 0.0)||('in', '', '', '', 0.0)||('a', '', '', '', 0.0)||('higher', '', '', '', 0.0)||('proportion', 'noun', 'C1709707', ['qnco'], 0.0)||('of', '', '', '', 0.0)||('patients', 'noun', 'C0030705', ['podg'], 0.0)||(',', '', '', '', 0.0)||('as', '', '', '', 0.0)||('all', '', '', '', 0.0)||('but', '', '', '', 0.0)||('one', 'noun', 'C0205447', ['qnco'], 0.0)||('end point', 'noun', 'C2349179', ['qlco'], 0.0)||('occurred', 'verb', 'C1709305', ['cnce'], 0.0)||('during', '', '', '', 0.0)||('af', '', '', '', 0.0)||('.', '', '', '', 0.0)||
