('if', '', '', '', 0.0)||('current', 'adj', 'C0521116', ['tmco'], 0.0)||('therapies', 'noun', 'C0087111', ['topp'], 0.0)||('for', '', '', '', 0.0)||('localized', '', '', '', 0.0)||('therapy', 'noun', 'C0039798', ['ftcn'], 0.0)||('do', '', '', '', 0.0)||('not', 'adv', 'C1518422', ['ftcn'], 0.0)||('decrease', 'verb', 'C0392756', ['qlco'], 0.0)||('morbidity', 'noun', 'C0026538', ['qnco'], 0.0)||('or', '', '', '', 0.0)||('mortality', 'noun', 'C0026565', ['qnco'], 0.0)||(',', '', '', '', 0.0)||('screening', 'verb', 'C0220908', ['hlca'], 0.0)||('higher - risk', '', '', '', 0.0)||('groups', 'verb', 'C0441833', ['idcn'], 0.0)||('merely', '', '', '', 0.0)||('puts', '', '', '', 0.0)||('them', '', '', '', 0.0)||('at', '', '', '', 0.0)||('increased risk', '', '', '', 0.0)||('for', '', '', '', 0.0)||('potentially', '', '', '', 0.0)||('harmful', '', '', '', 0.0)||('interventions', '', '', '', 0.0)||('.', '', '', '', 0.0)||
('biopsies', 'noun', 'C0005558', ['diap'], 0.0)||('cannot', '', '', '', 0.0)||('reliably', '', '', '', 0.0)||('predict', '', '', '', 0.0)||('which', '', '', '', 0.0)||('cancers', 'noun', 'C0006826', ['neop'], 0.0)||('will', '', '', '', 0.0)||('progress', 'verb', 'C1280477', ['ftcn'], 0.0)||('and', '', '', '', 0.0)||('which', '', '', '', 0.0)||('will', '', '', '', 0.0)||('lie', '', '', '', 0.0)||('indolent', 'noun', 'C0234227', ['ftcn'], 0.0)||('.', '', '', '', 0.0)||
('the', '', '', '', 0.0)||('30 %', '', '', '', 0.0)||('incidence', 'noun', 'C0021149', ['qnco'], 0.0)||('of', '', '', '', 0.0)||('cap', 'noun', 'C0179586', ['mnob'], 0.0)||('on', '', '', '', 0.0)||('autopsy', 'noun', 'C0004398', ['diap'], 0.0)||('means', 'noun', 'C1704970', ['cnce'], 0.0)||('that', '', '', '', 0.0)||('more', '', '', '', 0.0)||('people', 'noun', 'C0027361', ['popg'], 0.0)||('die', '', '', '', 0.0)||('with', '', '', '', 0.0)||('cap', 'noun', 'C0179586', ['mnob'], 0.0)||('than', '', '', '', 0.0)||('from', '', '', '', 0.0)||('it', '', '', '', 0.0)||('.', '', '', '', 0.0)||
('using', 'verb', 'C1524063', ['ftcn'], 0.0)||('estimates', '', '', '', 0.0)||('of', '', '', '', 0.0)||('the', '', '', '', 0.0)||('prevalence', 'noun', 'C0033105', ['qnco'], 0.0)||('and', '', '', '', 0.0)||('natural history', 'noun', 'C0175860', ['ocdi'], 0.0)||('of', '', '', '', 0.0)||('the', '', '', '', 0.0)||('disease', 'noun', 'C0012634', ['dsyn'], 0.0)||(',', '', '', '', 0.0)||('decision analyses', '', '', '', 0.0)||('report', 'verb', 'C0684224', ['inpr'], 0.0)||('varying', '', '', '', 0.0)||('years', 'noun', 'C0439234', ['tmco'], 0.0)||('saved', '', '', '', 0.0)||('by', '', '', '', 0.0)||('screening', 'noun', 'C0220908', ['hlca'], 0.0)||('compared', 'verb', 'C1707455', ['acty'], 0.0)||('with', '', '', '', 0.0)||('watchful waiting', 'noun', 'C0700325', ['topp'], 0.0)||('(', '', '', '', 0.0)||('ranging', '', '', '', 0.0)||('from', '', '', '', 0.0)||('a', '', '', '', 0.0)||('gain', 'noun', 'C1517378', ['qnco'], 0.0)||('of', '', '', '', 0.0)||('2 . 5', '', '', '', 0.0)||('quality - adjusted life years', '', '', '', 0.0)||('to', '', '', '', 0.0)||('an', '', '', '', 0.0)||('actual', 'adj', 'C0237400', ['qlco'], 0.0)||('decrease', 'noun', 'C0392756', ['qlco'], 0.0)||('in', '', '', '', 0.0)||('quality - adjusted life years', '', '', '', 0.0)||(',', '', '', '', 0.0)||('depending', '', '', '', 0.0)||('primarily', '', '', '', 0.0)||('on', '', '', '', 0.0)||('the', '', '', '', 0.0)||('rate', 'noun', 'C0871208', ['acty'], 0.0)||('of', '', '', '', 0.0)||('progression', 'noun', 'C0242656', ['patf'], 0.0)||('to', '', '', '', 0.0)||('metastatic', 'adj', 'C0036525', ['ftcn'], 0.0)||('disease', 'noun', 'C0012634', ['dsyn'], 0.0)||('and', '', '', '', 0.0)||('efficacy', 'noun', 'C1707887', ['resa'], 0.0)||('of', '', '', '', 0.0)||('treatment', 'noun', 'C0039798', ['ftcn'], 0.0)||('.', '', '', '', 0.0)||
