('renal artery stenosis', 'noun', 'C0035067', ['dsyn'], 0.0)||('is', '', '', '', 0.0)||('increasingly', '', '', '', 0.0)||('being', '', '', '', 0.0)||('treated', 'verb', 'C1522326', ['ftcn'], 0.0)||('with', '', '', '', 0.0)||('the', '', '', '', 0.0)||('percutaneous', 'adj', 'C0522523', ['spco'], 0.0)||('insertion', 'noun', 'C0021107', ['topp'], 0.0)||('of', '', '', '', 0.0)||('stents', 'noun', 'C0038257', ['medd'], 0.0)||('.', '', '', '', 0.0)||
('little', 'adj', 'C0700321', ['qnco'], 0.0)||('data', 'noun', 'C1511726', ['idcn'], 0.0)||('are', '', '', '', 0.0)||('available', 'adj', 'C0470187', ['ftcn'], 0.0)||('to', '', '', '', 0.0)||('help', 'verb', 'C1552861', ['idcn'], 0.0)||('select', 'adj', 'C1707391', ['acty'], 0.0)||('patients', 'noun', 'C0030705', ['podg'], 0.0)||('most', '', '', '', 0.0)||('likely', 'adj', 'C0332148', ['qlco'], 0.0)||('to', '', '', '', 0.0)||('derive', '', '', '', 0.0)||('benefit', 'noun', 'C0814225', ['qnco'], 0.0)||('from', '', '', '', 0.0)||('the', '', '', '', 0.0)||('procedure', 'noun', 'C0184661', ['diap', 'topp'], 0.0)||('.', '', '', '', 0.0)||
('data', 'noun', 'C1511726', ['idcn'], 0.0)||('were', '', '', '', 0.0)||('gathered', '', '', '', 0.0)||('on', '', '', '', 0.0)||('all', '', '', '', 0.0)||('patients', 'noun', 'C0030705', ['podg'], 0.0)||('treated', 'verb', 'C1522326', ['ftcn'], 0.0)||('with', '', '', '', 0.0)||('renal artery', 'noun', 'C0035065', ['bpoc'], 0.0)||('stent', 'noun', 'C0038257', ['medd'], 0.0)||('insertion', 'noun', 'C0021107', ['topp'], 0.0)||('at', '', '', '', 0.0)||('the', '', '', '', 0.0)||('royal', '', '', '', 0.0)||('melbourne', '', '', '', 0.0)||('hospital', 'noun', 'C0019994', ['hcro', 'mnob'], 0.0)||('prior to', '', '', '', 0.0)||('1998', '', '', '', 0.0)||(',', '', '', '', 0.0)||('and', '', '', '', 0.0)||('who', '', '', '', 0.0)||('were', '', '', '', 0.0)||('followed', '', '', '', 0.0)||('-', '', '', '', 0.0)||('up', '', '', '', 0.0)||('for', '', '', '', 0.0)||('at', '', '', '', 0.0)||('least', '', '', '', 0.0)||('6', '', '', '', 0.0)||('months', 'noun', 'C0439231', ['tmco'], 0.0)||('or', '', '', '', 0.0)||('until', '', '', '', 0.0)||('death', 'noun', 'C0011065', ['orgf'], 0.0)||('.', '', '', '', 0.0)||
('multivariate regression analysis', '', '', '', 0.0)||('was', '', '', '', 0.0)||('used', '', '', '', 0.0)||('to', '', '', '', 0.0)||('identify', '', '', '', 0.0)||('factors', '', '', '', 0.0)||('associated', 'verb', 'C0332281', ['qlco'], 0.0)||('with', '', '', '', 0.0)||('patient', '', '', '', 0.0)||('survival', 'noun', 'C0038952', ['acty'], 0.0)||('and', '', '', '', 0.0)||('renal', 'adj', 'C0022646', ['bpoc'], 0.0)||('survival', 'noun', 'C0038952', ['acty'], 0.0)||('(', '', '', '', 0.0)||('survival', 'noun', 'C0038952', ['acty'], 0.0)||('free', 'adj', 'C1880497', ['qlco'], 0.0)||('of', '', '', '', 0.0)||('dialysis', 'noun', 'C0011945', ['npop'], 0.0)||(')', '', '', '', 0.0)||('.', '', '', '', 0.0)||
('adequate', 'adj', 'C0205410', ['qlco'], 0.0)||('data', 'noun', 'C1511726', ['idcn'], 0.0)||('were', '', '', '', 0.0)||('available', 'adj', 'C0470187', ['ftcn'], 0.0)||('on', '', '', '', 0.0)||('148', '', '', '', 0.0)||('of', '', '', '', 0.0)||('198', '', '', '', 0.0)||('patients', 'noun', 'C0030705', ['podg'], 0.0)||('treated', 'verb', 'C1522326', ['ftcn'], 0.0)||('during', '', '', '', 0.0)||('this', '', '', '', 0.0)||('time', 'noun', 'C0040223', ['tmco'], 0.0)||('(', '', '', '', 0.0)||('75 %', '', '', '', 0.0)||(')', '', '', '', 0.0)||('.', '', '', '', 0.0)||
('a', '', '', '', 0.0)||('baseline', 'noun', 'C0168634', ['bodm'], 0.0)||('creatinine', 'noun', 'C0010294', ['bacs', 'orch'], 0.0)||('over', '', '', '', 0.0)||('0 . 15', '', '', '', 0.0)||('mmol', '', '', '', 0.0)||('/', '', '', '', 0.0)||('l', '', '', '', 0.0)||('and', '', '', '', 0.0)||('age', 'noun', 'C0001779', ['orga'], 0.0)||('over', '', '', '', 0.0)||('70', '', '', '', 0.0)||('were', '', '', '', 0.0)||('strongly', '', '', '', 0.0)||('associated', 'verb', 'C0332281', ['qlco'], 0.0)||('with', '', '', '', 0.0)||('worse', 'adj', 'C1279889', ['fndg'], 0.0)||('patient', '', '', '', 0.0)||('survival', 'noun', 'C0038952', ['acty'], 0.0)||('(', '', '', '', 0.0)||('likelihood', 'noun', 'C0033204', ['qnco'], 0.0)||('ratio', 'noun', 'C0456603', ['qnco'], 0.0)||('(', '', '', '', 0.0)||('lr', 'noun', 'C0023617', ['geoa'], 0.0)||(')', '', '', '', 0.0)||('9 . 96', '', '', '', 0.0)||(',', '', '', '', 0.0)||('p', '', '', '', 0.0)||('<', '', '', '', 0.0)||('0 . 0001', '', '', '', 0.0)||('and', '', '', '', 0.0)||('3 . 4', '', '', '', 0.0)||(',', '', '', '', 0.0)||('p', '', '', '', 0.0)||('=', '', '', '', 0.0)||('0 . 001', '', '', '', 0.0)||('respectively', '', '', '', 0.0)||(')', '', '', '', 0.0)||('and', '', '', '', 0.0)||('renal', 'adj', 'C0022646', ['bpoc'], 0.0)||('survival', 'noun', 'C0038952', ['acty'], 0.0)||('(', '', '', '', 0.0)||('lr', 'noun', 'C0023617', ['geoa'], 0.0)||('7 . 8', '', '', '', 0.0)||(',', '', '', '', 0.0)||('p', '', '', '', 0.0)||('<', '', '', '', 0.0)||('0 . 001', '', '', '', 0.0)||('and', '', '', '', 0.0)||('2 . 7', '', '', '', 0.0)||(',', '', '', '', 0.0)||('p', '', '', '', 0.0)||('<', '', '', '', 0.0)||('0 . 01', '', '', '', 0.0)||('respectively', '', '', '', 0.0)||(')', '', '', '', 0.0)||('.', '', '', '', 0.0)||
('the', '', '', '', 0.0)||('presence', 'noun', 'C0392148', ['topp'], 0.0)||('of', '', '', '', 0.0)||('diabetes', 'noun', 'C0011847', ['dsyn'], 0.0)||('was', '', '', '', 0.0)||('also', '', '', '', 0.0)||('associated', 'verb', 'C0332281', ['qlco'], 0.0)||('with', '', '', '', 0.0)||('worse', 'adj', 'C1279889', ['fndg'], 0.0)||('overall', 'adj', 'C0282416', ['inpr'], 0.0)||('survival', 'noun', 'C0038952', ['acty'], 0.0)||('(', '', '', '', 0.0)||('lr', 'noun', 'C0023617', ['geoa'], 0.0)||('2 . 2', '', '', '', 0.0)||(',', '', '', '', 0.0)||('p', '', '', '', 0.0)||('<', '', '', '', 0.0)||('0 . 05', '', '', '', 0.0)||(')', '', '', '', 0.0)||('but', '', '', '', 0.0)||('not', 'adv', 'C1518422', ['ftcn'], 0.0)||('renal', 'adj', 'C0022646', ['bpoc'], 0.0)||('survival', 'noun', 'C0038952', ['acty'], 0.0)||(',', '', '', '', 0.0)||('while', '', '', '', 0.0)||('the', '', '', '', 0.0)||('presence', 'noun', 'C0392148', ['topp'], 0.0)||('of', '', '', '', 0.0)||('another', '', '', '', 0.0)||('nephropathic', '', '', '', 0.0)||('disorder', 'noun', 'C0012634', ['dsyn'], 0.0)||('was', '', '', '', 0.0)||('associated', 'verb', 'C0332281', ['qlco'], 0.0)||('with', '', '', '', 0.0)||('worse', 'adj', 'C1279889', ['fndg'], 0.0)||('renal', 'adj', 'C0022646', ['bpoc'], 0.0)||('survival', 'noun', 'C0038952', ['acty'], 0.0)||('(', '', '', '', 0.0)||('lr', 'noun', 'C0023617', ['geoa'], 0.0)||('2 . 8', '', '', '', 0.0)||(',', '', '', '', 0.0)||('p', '', '', '', 0.0)||('<', '', '', '', 0.0)||('0 . 01', '', '', '', 0.0)||(')', '', '', '', 0.0)||('but', '', '', '', 0.0)||('not', 'adv', 'C1518422', ['ftcn'], 0.0)||('overall', 'adj', 'C0282416', ['inpr'], 0.0)||('survival', 'noun', 'C0038952', ['acty'], 0.0)||('.', '', '', '', 0.0)||
('the', '', '', '', 0.0)||('use', 'noun', 'C0042153', ['ftcn'], 0.0)||('of', '', '', '', 0.0)||('ace inhibitors', 'noun', 'C0003015', ['phsu'], 0.0)||('after', '', '', '', 0.0)||('the', '', '', '', 0.0)||('stenting', 'adj', 'C2348535', ['topp'], 0.0)||('procedure', 'noun', 'C0184661', ['diap', 'topp'], 0.0)||('was', '', '', '', 0.0)||('associated', 'verb', 'C0332281', ['qlco'], 0.0)||('with', '', '', '', 0.0)||('a', '', '', '', 0.0)||('significantly', '', '', '', 0.0)||('better', 'adj', 'C0332272', ['qlco'], 0.0)||('renal', 'adj', 'C0022646', ['bpoc'], 0.0)||('survival', 'noun', 'C0038952', ['acty'], 0.0)||('(', '', '', '', 0.0)||('lr', 'noun', 'C0023617', ['geoa'], 0.0)||('0 . 46', '', '', '', 0.0)||(',', '', '', '', 0.0)||('p', '', '', '', 0.0)||('<', '', '', '', 0.0)||('0 . 05', '', '', '', 0.0)||(')', '', '', '', 0.0)||('.', '', '', '', 0.0)||
('patients', 'noun', 'C0030705', ['podg'], 0.0)||('with', '', '', '', 0.0)||('baseline', 'noun', 'C0168634', ['bodm'], 0.0)||('renal', 'adj', 'C0022646', ['bpoc'], 0.0)||('impairment', 'noun', 'C0684336', ['fndg'], 0.0)||(',', '', '', '', 0.0)||('older', '', '', '', 0.0)||('age', 'noun', 'C0001779', ['orga'], 0.0)||(',', '', '', '', 0.0)||('diabetes', 'noun', 'C0011847', ['dsyn'], 0.0)||('or', '', '', '', 0.0)||('another', '', '', '', 0.0)||('coexistent', '', '', '', 0.0)||('renal disease', 'noun', 'C0022658', ['dsyn'], 0.0)||('have', '', '', '', 0.0)||('poor', 'adj', 'C0032854', ['grpa'], 0.0)||('outcomes', 'noun', 'C0085415', ['qlco'], 0.0)||('after', '', '', '', 0.0)||('renal artery', 'noun', 'C0035065', ['bpoc'], 0.0)||('stent', 'noun', 'C0038257', ['medd'], 0.0)||('insertion', 'noun', 'C0021107', ['topp'], 0.0)||('.', '', '', '', 0.0)||
('a', '', '', '', 0.0)||('relatively', '', '', '', 0.0)||('conservative', '', '', '', 0.0)||('approach', 'noun', 'C0449445', ['spco'], 0.0)||('to', '', '', '', 0.0)||('revascularisation', 'noun', 'C0581603', ['topp'], 0.0)||('may', '', '', '', 0.0)||('be', '', '', '', 0.0)||('preferable', '', '', '', 0.0)||('in', '', '', '', 0.0)||('these', '', '', '', 0.0)||('patient', '', '', '', 0.0)||('groups', 'noun', 'C0441833', ['idcn'], 0.0)||('.', '', '', '', 0.0)||
('the', '', '', '', 0.0)||('use', 'noun', 'C0042153', ['ftcn'], 0.0)||('of', '', '', '', 0.0)||('ace inhibitors', 'noun', 'C0003015', ['phsu'], 0.0)||('after', '', '', '', 0.0)||('stent', 'noun', 'C0038257', ['medd'], 0.0)||('insertion', 'noun', 'C0021107', ['topp'], 0.0)||('is', '', '', '', 0.0)||('associated', 'verb', 'C0332281', ['qlco'], 0.0)||('with', '', '', '', 0.0)||('a', '', '', '', 0.0)||('reduced', 'adj', 'C0392756', ['qlco'], 0.0)||('likelihood', 'noun', 'C0033204', ['qnco'], 0.0)||('of', '', '', '', 0.0)||('death', 'noun', 'C0011065', ['orgf'], 0.0)||('or', '', '', '', 0.0)||('dialysis', 'noun', 'C0011945', ['npop'], 0.0)||('.', '', '', '', 0.0)||
