('the', '', '', '', 0.0)||('development', 'noun', 'C0020119', ['phsf'], 0.0)||('of', '', '', '', 0.0)||('lipid', 'noun', 'C0023779', ['lipd'], 0.0)||('aspiration pneumonia', 'noun', 'C0032290', ['dsyn'], 0.0)||('after', '', '', '', 0.0)||('chronic', 'adj', 'C0205191', ['tmco'], 0.0)||('nasopharyngeal', 'adj', 'C0027442', ['bpoc'], 0.0)||('installation', '', '', '', 0.0)||('of', '', '', '', 0.0)||('mineral oil', 'noun', 'C0026156', ['lipd', 'phsu'], 0.0)||('was', '', '', '', 0.0)||('first', 'adv', 'C0205435', ['qnco'], 0.0)||('described', 'verb', 'C1552738', ['idcn'], 0.0)||('in', '', '', '', 0.0)||('1925', '', '', '', 0.0)||('by', '', '', '', 0.0)||('laughlin', '', '', '', 0.0)||('.', '', '', '', 0.0)||
('since', '', '', '', 0.0)||('that', '', '', '', 0.0)||('time', 'noun', 'C0040223', ['tmco'], 0.0)||('this', '', '', '', 0.0)||('entity', 'noun', 'C1551338', ['enty'], 0.0)||('has', '', '', '', 0.0)||('been', '', '', '', 0.0)||('well recognized', '', '', '', 0.0)||('and', '', '', '', 0.0)||('numerous', 'adj', 'C0439064', ['qnco'], 0.0)||('substances', 'noun', 'C0439861', ['sbst'], 0.0)||('have', '', '', '', 0.0)||('been', '', '', '', 0.0)||('identified', 'verb', 'C0205396', ['qlco'], 0.0)||('or', '', '', '', 0.0)||('implicated', '', '', '', 0.0)||('as', '', '', '', 0.0)||('the', '', '', '', 0.0)||('aspirated', 'adj', 'C0700198', ['patf'], 0.0)||('material', 'noun', 'C0520510', ['sbst'], 0.0)||('.', '', '', '', 0.0)||
('the', '', '', '', 0.0)||('classic', 'adj', 'C0439658', ['qlco'], 0.0)||('radiographic', 'adj', 'C0444708', ['npop'], 0.0)||('appearance', 'noun', 'C0233426', ['orga'], 0.0)||('of', '', '', '', 0.0)||('severe', 'adj', 'C0205082', ['qlco'], 0.0)||('chronic', 'adj', 'C0205191', ['tmco'], 0.0)||('lipid', 'noun', 'C0023779', ['lipd'], 0.0)||('aspiration pneumonia', 'noun', 'C0032290', ['dsyn'], 0.0)||('has', '', '', '', 0.0)||('been', '', '', '', 0.0)||('described', 'verb', 'C1552738', ['idcn'], 0.0)||('as', '', '', '', 0.0)||('consisting', '', '', '', 0.0)||('of', '', '', '', 0.0)||('intense', 'adj', 'C0522510', ['qlco'], 0.0)||('perihilar', '', '', '', 0.0)||('infiltrates', 'noun', 'C0332448', ['patf'], 0.0)||('.', '', '', '', 0.0)||
('however', '', '', '', 0.0)||(',', '', '', '', 0.0)||('the', '', '', '', 0.0)||('radiographic', 'adj', 'C0444708', ['npop'], 0.0)||('findings', 'noun', 'C2607943', ['ftcn'], 0.0)||('are', '', '', '', 0.0)||('more', '', '', '', 0.0)||('often', 'adv', 'C0332183', ['tmco'], 0.0)||('non - specific', '', '', '', 0.0)||('and', '', '', '', 0.0)||('usually', '', '', '', 0.0)||('consist', '', '', '', 0.0)||('of', '', '', '', 0.0)||('varying', '', '', '', 0.0)||('degrees', '', '', '', 0.0)||('of', '', '', '', 0.0)||('diffuse', 'adj', 'C0205219', ['qlco'], 0.0)||('interstitial', 'adj', 'C0596790', ['blor'], 0.0)||('infiltrates', 'noun', 'C0332448', ['patf'], 0.0)||('that', '', '', '', 0.0)||('tend', '', '', '', 0.0)||('to', '', '', '', 0.0)||('be', '', '', '', 0.0)||('more', '', '', '', 0.0)||('prominent', 'adj', 'C0205402', ['qlco'], 0.0)||('in', '', '', '', 0.0)||('the', '', '', '', 0.0)||('perihilar', '', '', '', 0.0)||('regions', '', '', '', 0.0)||('and', '', '', '', 0.0)||('the', '', '', '', 0.0)||('right lung', 'noun', 'C0225706', ['bpoc'], 0.0)||('.', '', '', '', 0.0)||
('we', '', '', '', 0.0)||('are', '', '', '', 0.0)||('reporting', 'verb', 'C0700287', ['hlca'], 0.0)||('a', '', '', '', 0.0)||('case', 'noun', 'C0868928', ['ftcn'], 0.0)||('of', '', '', '', 0.0)||('biopsy', 'noun', 'C0005558', ['diap'], 0.0)||('-', '', '', '', 0.0)||('proven', 'adj', 'C0456369', ['qlco'], 0.0)||('lipid', 'noun', 'C0023779', ['lipd'], 0.0)||('aspiration pneumonia', 'noun', 'C0032290', ['dsyn'], 0.0)||('in', '', '', '', 0.0)||('an', '', '', '', 0.0)||('infant', 'noun', 'C0021270', ['aggp'], 0.0)||('with', '', '', '', 0.0)||('known', 'adj', 'C0205309', ['qlco'], 0.0)||('gastro - esophageal reflux', '', '', '', 0.0)||('who', '', '', '', 0.0)||('had', '', '', '', 0.0)||('medium - chain triglyceride', '', '', '', 0.0)||('oil', 'noun', 'C0028908', ['lipd'], 0.0)||('administered', 'verb', 'C1521801', ['ftcn'], 0.0)||('via', '', '', '', 0.0)||('nasogastric tube', 'noun', 'C0085678', ['medd'], 0.0)||('.', '', '', '', 0.0)||
('serial', 'adj', 'C0031082', ['inpr', 'mnob'], 0.0)||('roentgenograms', '', '', '', 0.0)||('demonstrated', '', '', '', 0.0)||('a', '', '', '', 0.0)||('changing', 'adj', 'C0392747', ['ftcn'], 0.0)||('pulmonary', 'adj', 'C0024109', ['bpoc'], 0.0)||('pattern', 'noun', 'C0449774', ['spco'], 0.0)||('from', '', '', '', 0.0)||('diffuse', 'adj', 'C0205219', ['qlco'], 0.0)||('bilateral', 'adj', 'C0238767', ['spco'], 0.0)||('interstitial', 'adj', 'C0596790', ['blor'], 0.0)||('infiltrates', 'noun', 'C0332448', ['patf'], 0.0)||('initially', 'adv', 'C0205265', ['tmco'], 0.0)||('to', '', '', '', 0.0)||('a', '', '', '', 0.0)||('diffuse', 'adj', 'C0205219', ['qlco'], 0.0)||('alveolar', 'adj', 'C1440080', ['bpoc'], 0.0)||('pattern', 'noun', 'C0449774', ['spco'], 0.0)||('at', '', '', '', 0.0)||('the', '', '', '', 0.0)||('time', 'noun', 'C0040223', ['tmco'], 0.0)||('of', '', '', '', 0.0)||('the', '', '', '', 0.0)||('lung', 'noun', 'C0024109', ['bpoc'], 0.0)||('biopsy', 'noun', 'C0005558', ['diap'], 0.0)||('.', '', '', '', 0.0)||
('modern', '', '', '', 0.0)||('medicine', 'noun', 'C0025118', ['bmod'], 0.0)||('has', '', '', '', 0.0)||('developed', '', '', '', 0.0)||('new', 'adj', 'C0205314', ['tmco'], 0.0)||('methods', 'noun', 'C0025663', ['inpr'], 0.0)||('for', '', '', '', 0.0)||('providing', '', '', '', 0.0)||('nourishment', '', '', '', 0.0)||('to', '', '', '', 0.0)||('sick', '', '', '', 0.0)||('newborns', 'noun', 'C0021289', ['aggp'], 0.0)||('and', '', '', '', 0.0)||('infants', 'noun', 'C0021270', ['aggp'], 0.0)||('to', '', '', '', 0.0)||('improve', 'verb', 'C0332161', ['qlco'], 0.0)||('their', '', '', '', 0.0)||('nutritional status', 'noun', 'C0392209', ['orga'], 0.0)||('and', '', '', '', 0.0)||('help', 'verb', 'C1552861', ['idcn'], 0.0)||('them', '', '', '', 0.0)||('to', '', '', '', 0.0)||('grow', '', '', '', 0.0)||('.', '', '', '', 0.0)||
('one', 'noun', 'C0205447', ['qnco'], 0.0)||('such', '', '', '', 0.0)||('method', 'noun', 'C0025663', ['inpr'], 0.0)||('involves', '', '', '', 0.0)||('the', '', '', '', 0.0)||('administration', 'noun', 'C0001554', ['ocac'], 0.0)||('of medium', '', '', '', 0.0)||('-', '', '', '', 0.0)||('chain', 'noun', 'C0337112', ['mnob'], 0.0)||('triglycerides', 'noun', 'C0041004', ['bacs', 'lipd'], 0.0)||('into', '', '', '', 0.0)||('the', '', '', '', 0.0)||('gi tract', 'noun', 'C0017189', ['bdsy'], 0.0)||('via', '', '', '', 0.0)||('a', '', '', '', 0.0)||('nasogastric', 'adj', 'C0694637', ['ftcn'], 0.0)||('or', '', '', '', 0.0)||('nasoenteral tube', '', '', '', 0.0)||('.', '', '', '', 0.0)||
('the', '', '', '', 0.0)||('purpose', 'noun', 'C1285529', ['ftcn'], 0.0)||('of', '', '', '', 0.0)||('this', '', '', '', 0.0)||('report', 'noun', 'C0684224', ['inpr'], 0.0)||('is', '', '', '', 0.0)||('to', '', '', '', 0.0)||('describe', '', '', '', 0.0)||('a', '', '', '', 0.0)||('significant', 'adj', 'C0750502', ['idcn'], 0.0)||('complication', 'noun', 'C0009566', ['patf'], 0.0)||('of', '', '', '', 0.0)||('this', '', '', '', 0.0)||('method', 'noun', 'C0025663', ['inpr'], 0.0)||('of', '', '', '', 0.0)||('providing', '', '', '', 0.0)||('nutrition', 'noun', 'C0028707', ['bmod'], 0.0)||('to', '', '', '', 0.0)||('an', '', '', '', 0.0)||('infant', 'noun', 'C0021270', ['aggp'], 0.0)||('with', '', '', '', 0.0)||('gastroesophageal reflux', 'noun', 'C0017168', ['dsyn'], 0.0)||('(', '', '', '', 0.0)||('gastro - esophageal reflux', '', '', '', 0.0)||(')', '', '', '', 0.0)||('and', '', '', '', 0.0)||('the', '', '', '', 0.0)||('diagnostic', 'adj', 'C0011900', ['fndg'], 0.0)||('dilemma', '', '', '', 0.0)||('it', '', '', '', 0.0)||('presented', 'verb', 'C0449450', ['idcn'], 0.0)||('.', '', '', '', 0.0)||
