('hypertonic', '', '', '', 0.0)||('sodium phosphate enema', '', '', '', 0.0)||('solutions', 'noun', 'C0037633', ['sbst'], 0.0)||('are', '', '', '', 0.0)||('commonly', '', '', '', 0.0)||('used', '', '', '', 0.0)||('for', '', '', '', 0.0)||('the', '', '', '', 0.0)||('treatment', 'noun', 'C0039798', ['ftcn'], 0.0)||('of', '', '', '', 0.0)||('acute', 'adj', 'C0205178', ['tmco'], 0.0)||('constipation', 'noun', 'C0009806', ['sosy'], 0.0)||('in', '', '', '', 0.0)||('the', '', '', '', 0.0)||('pediatric', 'adj', 'C1521725', ['qlco'], 0.0)||('emergency department', 'noun', 'C0562508', ['hcro', 'mnob'], 0.0)||('.', '', '', '', 0.0)||
('the', '', '', '', 0.0)||('potential', 'noun', 'C0035647', ['qlco'], 0.0)||('for', '', '', '', 0.0)||('severe', 'adj', 'C0205082', ['qlco'], 0.0)||('metabolic', 'adj', 'C0311400', ['ftcn'], 0.0)||('derangement', '', '', '', 0.0)||('and', '', '', '', 0.0)||('death', 'noun', 'C0011065', ['orgf'], 0.0)||('in', '', '', '', 0.0)||('children', 'noun', 'C0008059', ['aggp'], 0.0)||('with', '', '', '', 0.0)||('gastrointestinal', 'adj', 'C0521362', ['spco'], 0.0)||('and / or', '', '', '', 0.0)||('renal', 'adj', 'C0022646', ['bpoc'], 0.0)||('abnormalities', 'noun', 'C0000768', ['cgab'], 0.0)||('and', '', '', '', 0.0)||('these', '', '', '', 0.0)||('reported', 'adj', 'C0684224', ['inpr'], 0.0)||('as', '', '', '', 0.0)||('normal', 'adj', 'C0205307', ['qlco'], 0.0)||('has', '', '', '', 0.0)||('been', '', '', '', 0.0)||('documented', 'verb', 'C1301725', ['hlca'], 0.0)||('in', '', '', '', 0.0)||('the', '', '', '', 0.0)||('literature', 'noun', 'C0023866', ['inpr'], 0.0)||('.', '', '', '', 0.0)||
('to', '', '', '', 0.0)||('develop', '', '', '', 0.0)||('guidelines', 'noun', 'C0162791', ['inpr'], 0.0)||('for', '', '', '', 0.0)||('the', '', '', '', 0.0)||('safe', '', '', '', 0.0)||('and', '', '', '', 0.0)||('effective', 'adj', 'C1704419', ['qlco'], 0.0)||('use', 'noun', 'C0042153', ['ftcn'], 0.0)||('of', '', '', '', 0.0)||('hypertonic', '', '', '', 0.0)||('sodium phosphate enema', '', '', '', 0.0)||('solutions', 'noun', 'C0037633', ['sbst'], 0.0)||('such as', '', '', '', 0.0)||('fleet enema', 'noun', 'C0117857', ['phsu'], 0.0)||(',', '', '', '', 0.0)||('in', '', '', '', 0.0)||('the', '', '', '', 0.0)||('pediatric', 'adj', 'C1521725', ['qlco'], 0.0)||('emergency department', 'noun', 'C0562508', ['hcro', 'mnob'], 0.0)||('setting', 'noun', 'C0542559', ['ftcn'], 0.0)||('.', '', '', '', 0.0)||
('a', '', '', '', 0.0)||('comprehensive review', '', '', '', 0.0)||('of', '', '', '', 0.0)||('the', '', '', '', 0.0)||('literature', 'noun', 'C0023866', ['inpr'], 0.0)||('was', '', '', '', 0.0)||('conducted', '', '', '', 0.0)||('using', 'verb', 'C1524063', ['ftcn'], 0.0)||('the', '', '', '', 0.0)||('medline', 'noun', 'C0025141', ['inpr'], 0.0)||('database', 'noun', 'C0242356', ['inpr'], 0.0)||('for', '', '', '', 0.0)||('the', '', '', '', 0.0)||('time period', '', '', '', 0.0)||('1966', '', '', '', 0.0)||('to', '', '', '', 0.0)||('september', '', '', '', 0.0)||('1995', '', '', '', 0.0)||('.', '', '', '', 0.0)||
('resources', 'noun', 'C0035201', ['idcn'], 0.0)||('used', '', '', '', 0.0)||('within', '', '', '', 0.0)||('our', '', '', '', 0.0)||('institution', 'noun', 'C0018704', ['hcro', 'mnob'], 0.0)||(',', '', '', '', 0.0)||('the', '', '', '', 0.0)||('hospital', 'noun', 'C0019994', ['hcro', 'mnob'], 0.0)||('for', '', '', '', 0.0)||('sick', '', '', '', 0.0)||('children', 'noun', 'C0008059', ['aggp'], 0.0)||(',', '', '', '', 0.0)||('toronto', '', '', '', 0.0)||(',', '', '', '', 0.0)||('ontario', 'noun', 'C0029040', ['geoa'], 0.0)||(',', '', '', '', 0.0)||('included', '', '', '', 0.0)||('staff', 'noun', 'C0851286', ['prog'], 0.0)||('of', '', '', '', 0.0)||('the', '', '', '', 0.0)||('emergency', 'noun', 'C0013956', ['phpr'], 0.0)||('and', '', '', '', 0.0)||('general surgery', 'noun', 'C0038894', ['bmod'], 0.0)||('departments', '', '', '', 0.0)||('.', '', '', '', 0.0)||
('the', '', '', '', 0.0)||('guidelines', 'noun', 'C0162791', ['inpr'], 0.0)||('provided', '', '', '', 0.0)||('will', '', '', '', 0.0)||('promote', 'verb', 'C0033414', ['acty'], 0.0)||('safe', '', '', '', 0.0)||('use', 'noun', 'C0042153', ['ftcn'], 0.0)||('of', '', '', '', 0.0)||('hypertonic', '', '', '', 0.0)||('sodium phosphate enema', '', '', '', 0.0)||('solutions', 'noun', 'C0037633', ['sbst'], 0.0)||('for', '', '', '', 0.0)||('the', '', '', '', 0.0)||('treatment', 'noun', 'C0039798', ['ftcn'], 0.0)||('of', '', '', '', 0.0)||('acute', 'adj', 'C0205178', ['tmco'], 0.0)||('constipation', 'noun', 'C0009806', ['sosy'], 0.0)||('in', '', '', '', 0.0)||('children', 'noun', 'C0008059', ['aggp'], 0.0)||('presenting', 'verb', 'C0449450', ['idcn'], 0.0)||('to', '', '', '', 0.0)||('the', '', '', '', 0.0)||('emergency department', 'noun', 'C0562508', ['hcro', 'mnob'], 0.0)||('.', '', '', '', 0.0)||
