('to', '', '', '', 0.0)||('investigate', '', '', '', 0.0)||('the', '', '', '', 0.0)||('outcomes', 'noun', 'C0085415', ['qlco'], 0.0)||('resulting', '', '', '', 0.0)||('from', '', '', '', 0.0)||('the', '', '', '', 0.0)||('use', 'noun', 'C0042153', ['ftcn'], 0.0)||('of', '', '', '', 0.0)||('fluoroscopically', '', '', '', 0.0)||('guided', '', '', '', 0.0)||('therapeutic', 'adj', 'C0039796', ['topp'], 0.0)||('selective', '', '', '', 0.0)||('nerve root', 'noun', 'C0228084', ['bpoc'], 0.0)||('block', 'noun', 'C0028778', ['patf'], 0.0)||('in', '', '', '', 0.0)||('the', '', '', '', 0.0)||('nonsurgical', '', '', '', 0.0)||('treatment', 'noun', 'C0039798', ['ftcn'], 0.0)||('of', '', '', '', 0.0)||('atraumatic', '', '', '', 0.0)||('cervical', 'adj', 'C0205064', ['spco'], 0.0)||('spondylotic', '', '', '', 0.0)||('radicular pain', 'noun', 'C0278147', ['sosy'], 0.0)||('.', '', '', '', 0.0)||
('retrospective study', 'noun', 'C0035363', ['resa'], 0.0)||('with', '', '', '', 0.0)||('independent', 'adj', 'C0085862', ['idcn'], 0.0)||('clinical', 'adj', 'C0205210', ['qlco'], 0.0)||('review', 'noun', 'C0282443', ['inpr'], 0.0)||('.', '', '', '', 0.0)||
('twenty', '', '', '', 0.0)||('subjects', '', '', '', 0.0)||('(', '', '', '', 0.0)||('10', '', '', '', 0.0)||('men', 'noun', 'C0025266', ['popg'], 0.0)||(',', '', '', '', 0.0)||('10', '', '', '', 0.0)||('women', 'noun', 'C0043210', ['popg'], 0.0)||(')', '', '', '', 0.0)||('with', '', '', '', 0.0)||('mean', 'noun', 'C0444504', ['qnco'], 0.0)||('age', 'noun', 'C0001779', ['orga'], 0.0)||('56 . 6', '', '', '', 0.0)||('years', 'noun', 'C0439234', ['tmco'], 0.0)||('.', '', '', '', 0.0)||
('each', '', '', '', 0.0)||('patient', '', '', '', 0.0)||('met', '', '', '', 0.0)||('specific', 'adj', 'C0205369', ['qlco'], 0.0)||('physical examination', 'noun', 'C0031809', ['hlca'], 0.0)||(',', '', '', '', 0.0)||('radiographic', 'adj', 'C0444708', ['npop'], 0.0)||(',', '', '', '', 0.0)||('and', '', '', '', 0.0)||('electrodiagnostic', '', '', '', 0.0)||('criteria', 'noun', 'C0243161', ['inpr'], 0.0)||('to', '', '', '', 0.0)||('confirm', 'verb', 'C1456348', ['qlco'], 0.0)||('a', '', '', '', 0.0)||('level', 'noun', 'C0441889', ['qlco'], 0.0)||('of', '', '', '', 0.0)||('cervical', 'adj', 'C0205064', ['spco'], 0.0)||('involvement', 'noun', 'C1314939', ['ftcn'], 0.0)||('.', '', '', '', 0.0)||
('those', '', '', '', 0.0)||('patients', 'noun', 'C0030705', ['podg'], 0.0)||('whose', '', '', '', 0.0)||('root', 'noun', 'C0040452', ['bpoc'], 0.0)||('level', 'noun', 'C0441889', ['qlco'], 0.0)||('remained', '', '', '', 0.0)||('indeterminate', 'noun', 'C0205258', ['idcn'], 0.0)||('were', '', '', '', 0.0)||('required', 'verb', 'C1514873', ['ftcn'], 0.0)||('to', '', '', '', 0.0)||('demonstrate', '', '', '', 0.0)||('a', '', '', '', 0.0)||('positive', 'adj', 'C1446409', ['qlco'], 0.0)||('response', 'noun', 'C0871261', ['clna'], 0.0)||('to', '', '', '', 0.0)||('a', '', '', '', 0.0)||('fluoroscopically', '', '', '', 0.0)||('guided', '', '', '', 0.0)||('diagnostic', 'adj', 'C0011900', ['fndg'], 0.0)||('selective', '', '', '', 0.0)||('nerve root', 'noun', 'C0228084', ['bpoc'], 0.0)||('block', 'noun', 'C0028778', ['patf'], 0.0)||('prior to', '', '', '', 0.0)||('the', '', '', '', 0.0)||('initiation', 'noun', 'C0589507', ['menp'], 0.0)||('of', '', '', '', 0.0)||('treatment', 'noun', 'C0039798', ['ftcn'], 0.0)||('.', '', '', '', 0.0)||
('therapeutic', 'adj', 'C0039796', ['topp'], 0.0)||('injections', 'noun', 'C1533685', ['topp'], 0.0)||('were', '', '', '', 0.0)||('administered', 'verb', 'C1521801', ['ftcn'], 0.0)||('in conjunction with', '', '', '', 0.0)||('physical therapy', 'noun', 'C0949766', ['topp'], 0.0)||('.', '', '', '', 0.0)||
('data collection', 'noun', 'C0010995', ['resa'], 0.0)||('and', '', '', '', 0.0)||('analysis', 'noun', 'C0002778', ['lbpr'], 0.0)||('were', '', '', '', 0.0)||('performed', 'verb', 'C0884358', ['ftcn'], 0.0)||('by', '', '', '', 0.0)||('an', '', '', '', 0.0)||('independent', 'adj', 'C0085862', ['idcn'], 0.0)||('clinical', 'adj', 'C0205210', ['qlco'], 0.0)||('reviewer', 'noun', 'C1709941', ['qlco'], 0.0)||('.', '', '', '', 0.0)||
('pain', 'noun', 'C0030193', ['sosy'], 0.0)||('score', 'noun', 'C0449820', ['qnco'], 0.0)||(',', '', '', '', 0.0)||('work', 'noun', 'C0043227', ['ocac'], 0.0)||('status', 'noun', 'C0449438', ['qlco'], 0.0)||(',', '', '', '', 0.0)||('medication', '', '', '', 0.0)||('usage', 'noun', 'C0457083', ['ftcn'], 0.0)||(',', '', '', '', 0.0)||('and', '', '', '', 0.0)||('patient', '', '', '', 0.0)||('satisfaction', 'noun', 'C0242428', ['menp'], 0.0)||('.', '', '', '', 0.0)||
('twenty', '', '', '', 0.0)||('patients', 'noun', 'C0030705', ['podg'], 0.0)||('with', '', '', '', 0.0)||('an', '', '', '', 0.0)||('average', 'adj', 'C1510992', ['qnco'], 0.0)||('symptom', '', '', '', 0.0)||('duration', 'noun', 'C0449238', ['tmco'], 0.0)||('of', '', '', '', 0.0)||('5 . 8', '', '', '', 0.0)||('months', 'noun', 'C0439231', ['tmco'], 0.0)||('were', '', '', '', 0.0)||('included', '', '', '', 0.0)||('.', '', '', '', 0.0)||
('an', '', '', '', 0.0)||('average', 'noun', 'C1510992', ['qnco'], 0.0)||('of', '', '', '', 0.0)||('2 . 2', '', '', '', 0.0)||('therapeutic', 'adj', 'C0039796', ['topp'], 0.0)||('injections', 'noun', 'C1533685', ['topp'], 0.0)||('was', '', '', '', 0.0)||('administered', 'verb', 'C1521801', ['ftcn'], 0.0)||('.', '', '', '', 0.0)||
('follow - up', '', '', '', 0.0)||('data collection', 'noun', 'C0010995', ['resa'], 0.0)||('transpired', '', '', '', 0.0)||('at', '', '', '', 0.0)||('an', '', '', '', 0.0)||('average', 'noun', 'C1510992', ['qnco'], 0.0)||('of', '', '', '', 0.0)||('21 . 2', '', '', '', 0.0)||('months', 'noun', 'C0439231', ['tmco'], 0.0)||('following', '', '', '', 0.0)||('discharge', 'noun', 'C0012621', ['bdsu'], 0.0)||('from', '', '', '', 0.0)||('treatment', 'noun', 'C0039798', ['ftcn'], 0.0)||('.', '', '', '', 0.0)||
('a', '', '', '', 0.0)||('significant', 'adj', 'C0750502', ['idcn'], 0.0)||('reduction', 'noun', 'C0301630', ['npop'], 0.0)||('(', '', '', '', 0.0)||('p', '', '', '', 0.0)||('=', '', '', '', 0.0)||('.', '', '', '', 0.0)||('001', '', '', '', 0.0)||(')', '', '', '', 0.0)||('in', '', '', '', 0.0)||('pain', 'noun', 'C0030193', ['sosy'], 0.0)||('score', 'noun', 'C0449820', ['qnco'], 0.0)||('was', '', '', '', 0.0)||('observed', 'verb', 'C1441672', ['ftcn'], 0.0)||('at', '', '', '', 0.0)||('the', '', '', '', 0.0)||('time', 'noun', 'C0040223', ['tmco'], 0.0)||('of', '', '', '', 0.0)||('follow - up', '', '', '', 0.0)||('.', '', '', '', 0.0)||
('medication', '', '', '', 0.0)||('usage', 'noun', 'C0457083', ['ftcn'], 0.0)||('was', '', '', '', 0.0)||('also', '', '', '', 0.0)||('significantly', '', '', '', 0.0)||('improved', 'verb', 'C0184511', ['qlco'], 0.0)||('(', '', '', '', 0.0)||('p', '', '', '', 0.0)||('=', '', '', '', 0.0)||('.', '', '', '', 0.0)||('005', '', '', '', 0.0)||(')', '', '', '', 0.0)||('at', '', '', '', 0.0)||('the', '', '', '', 0.0)||('time', 'noun', 'C0040223', ['tmco'], 0.0)||('of', '', '', '', 0.0)||('follow - up', '', '', '', 0.0)||('.', '', '', '', 0.0)||
('an', '', '', '', 0.0)||('overall', 'adj', 'C0282416', ['inpr'], 0.0)||('good', 'adj', 'C0205170', ['qlco'], 0.0)||('or', '', '', '', 0.0)||('excellent', 'adj', 'C1548784', ['qlco'], 0.0)||('result', 'noun', 'C1274040', ['ftcn'], 0.0)||('was', '', '', '', 0.0)||('observed', 'verb', 'C1441672', ['ftcn'], 0.0)||('in', '', '', '', 0.0)||('60 %', '', '', '', 0.0)||('.', '', '', '', 0.0)||
('thirty', '', '', '', 0.0)||('percent', 'noun', 'C0439165', ['qnco'], 0.0)||('of', '', '', '', 0.0)||('patients', 'noun', 'C0030705', ['podg'], 0.0)||('required', 'verb', 'C1514873', ['ftcn'], 0.0)||('surgery', 'noun', 'C0038894', ['bmod'], 0.0)||('.', '', '', '', 0.0)||
('younger', '', '', '', 0.0)||('patients', 'noun', 'C0030705', ['podg'], 0.0)||('were', '', '', '', 0.0)||('more', '', '', '', 0.0)||('likely', 'adv', 'C0332148', ['qlco'], 0.0)||('(', '', '', '', 0.0)||('p', '', '', '', 0.0)||('=', '', '', '', 0.0)||('.', '', '', '', 0.0)||('0047', '', '', '', 0.0)||(')', '', '', '', 0.0)||('to', '', '', '', 0.0)||('report', 'verb', 'C0684224', ['inpr'], 0.0)||('the', '', '', '', 0.0)||('highest', 'adj', 'C1522410', ['qlco'], 0.0)||('patient', '', '', '', 0.0)||('satisfaction', 'noun', 'C0242428', ['menp'], 0.0)||('rating', 'noun', 'C0871208', ['acty'], 0.0)||('following', '', '', '', 0.0)||('treatment', 'noun', 'C0039798', ['ftcn'], 0.0)||('.', '', '', '', 0.0)||
('this', '', '', '', 0.0)||('study', 'noun', 'C0008976', ['resa'], 0.0)||('suggests', '', '', '', 0.0)||('that', '', '', '', 0.0)||('fluoroscopically', '', '', '', 0.0)||('guided', '', '', '', 0.0)||('therapeutic', 'adj', 'C0039796', ['topp'], 0.0)||('selective', '', '', '', 0.0)||('nerve root', 'noun', 'C0228084', ['bpoc'], 0.0)||('block', 'noun', 'C0028778', ['patf'], 0.0)||('is', '', '', '', 0.0)||('a', '', '', '', 0.0)||('clinically', '', '', '', 0.0)||('effective', 'adj', 'C1704419', ['qlco'], 0.0)||('intervention', 'noun', 'C1273869', ['hlca'], 0.0)||('in', '', '', '', 0.0)||('the', '', '', '', 0.0)||('treatment', 'noun', 'C0039798', ['ftcn'], 0.0)||('of', '', '', '', 0.0)||('atraumatic', '', '', '', 0.0)||('cervical', 'adj', 'C0205064', ['spco'], 0.0)||('spondylotic', '', '', '', 0.0)||('radicular pain', 'noun', 'C0278147', ['sosy'], 0.0)||('.', '', '', '', 0.0)||
