('a', '', '', '', 0.0)||('series', 'noun', 'C0205549', ['qnco'], 0.0)||('of', '', '', '', 0.0)||('32', '', '', '', 0.0)||('patients', 'noun', 'C0030705', ['podg'], 0.0)||('who', '', '', '', 0.0)||('had', '', '', '', 0.0)||('failed', 'adj', 'C0231175', ['ftcn'], 0.0)||('conventional treatment', '', '', '', 0.0)||('showed', '', '', '', 0.0)||('a', '', '', '', 0.0)||('62 %', '', '', '', 0.0)||('response', 'noun', 'C0871261', ['clna'], 0.0)||('-', '', '', '', 0.0)||('defined', 'verb', 'C1704788', ['cnce'], 0.0)||('as', '', '', '', 0.0)||('"', '', '', '', 0.0)||('good', 'adj', 'C0205170', ['qlco'], 0.0)||('or', '', '', '', 0.0)||('excellent', 'adj', 'C1548784', ['qlco'], 0.0)||('"', '', '', '', 0.0)||('pain relief', 'noun', 'C0451615', ['topp'], 0.0)||('-', '', '', '', 0.0)||('to', '', '', '', 0.0)||('epidural', 'adj', 'C0592511', ['ftcn'], 0.0)||('steroid', 'noun', 'C0038317', ['strd'], 0.0)||('injection', 'noun', 'C1272883', ['bodm'], 0.0)||('at', '', '', '', 0.0)||('14', '', '', '', 0.0)||('days', 'noun', 'C0439228', ['tmco'], 0.0)||('.', '', '', '', 0.0)||
('at', '', '', '', 0.0)||('6', '', '', '', 0.0)||('months', 'noun', 'C0439231', ['tmco'], 0.0)||(',', '', '', '', 0.0)||('53 %', '', '', '', 0.0)||('continued', 'verb', 'C0549178', ['idcn'], 0.0)||('to', '', '', '', 0.0)||('report', 'verb', 'C0684224', ['inpr'], 0.0)||('good', 'adj', 'C0205170', ['qlco'], 0.0)||('or', '', '', '', 0.0)||('excellent', 'adj', 'C1548784', ['qlco'], 0.0)||('pain relief', 'noun', 'C0451615', ['topp'], 0.0)||('.', '', '', '', 0.0)||
('no', '', '', '', 0.0)||('significant', 'adj', 'C0750502', ['idcn'], 0.0)||('side effects', 'noun', 'C0001688', ['ftcn'], 0.0)||('occurred', 'verb', 'C1709305', ['cnce'], 0.0)||('.', '', '', '', 0.0)||
('the', '', '', '', 0.0)||('44 %', '', '', '', 0.0)||('of', '', '', '', 0.0)||('patients', 'noun', 'C0030705', ['podg'], 0.0)||('who', '', '', '', 0.0)||("didn ' t", '', '', '', 0.0)||('report', 'noun', 'C0684224', ['inpr'], 0.0)||('success', 'noun', 'C0597535', ['socb'], 0.0)||('also', '', '', '', 0.0)||("didn ' t", '', '', '', 0.0)||('report', 'verb', 'C0684224', ['inpr'], 0.0)||('any', '', '', '', 0.0)||('further', 'adj', 'C1517331', ['spco'], 0.0)||('deterioration', 'noun', 'C0868945', ['phpr'], 0.0)||('.', '', '', '', 0.0)||
