('initial treatment', '', '', '', 0.0)||('of', '', '', '', 0.0)||('major depressive disorder', 'noun', 'C0041696', ['mobd'], 0.0)||('in', '', '', '', 0.0)||('adolescents', 'noun', 'C0205653', ['aggp'], 0.0)||('may', '', '', '', 0.0)||('include', 'verb', 'C1552866', ['idcn'], 0.0)||('cognitive - behavioral therapy', '', '', '', 0.0)||('or', '', '', '', 0.0)||('a', '', '', '', 0.0)||('selective serotonin reuptake inhibitor', 'noun', 'C2265759', ['celf'], 0.0)||('.', '', '', '', 0.0)||
('however', '', '', '', 0.0)||(',', '', '', '', 0.0)||('little', 'adj', 'C0700321', ['qnco'], 0.0)||('is', '', '', '', 0.0)||('known', 'verb', 'C0205309', ['qlco'], 0.0)||('about', '', '', '', 0.0)||('their', '', '', '', 0.0)||('relative', 'adj', 'C0080103', ['famg'], 0.0)||('or', '', '', '', 0.0)||('combined', 'adj', 'C0205195', ['qlco'], 0.0)||('effectiveness', 'noun', 'C1280519', ['qlco'], 0.0)||('.', '', '', '', 0.0)||
('to', '', '', '', 0.0)||('evaluate', 'verb', 'C0220825', ['ftcn'], 0.0)||('the', '', '', '', 0.0)||('effectiveness', 'noun', 'C1280519', ['qlco'], 0.0)||('of', '', '', '', 0.0)||('4', '', '', '', 0.0)||('treatments', 'noun', 'C0087111', ['topp'], 0.0)||('among', '', '', '', 0.0)||('adolescents', 'noun', 'C0205653', ['aggp'], 0.0)||('with', '', '', '', 0.0)||('major depressive disorder', 'noun', 'C0041696', ['mobd'], 0.0)||('.', '', '', '', 0.0)||
('randomized controlled trial', '', '', '', 0.0)||('of', '', '', '', 0.0)||('a', '', '', '', 0.0)||('volunteer', 'noun', 'C0042960', ['prog'], 0.0)||('sample', 'noun', 'C0370003', ['sbst'], 0.0)||('of', '', '', '', 0.0)||('439', '', '', '', 0.0)||('patients', 'noun', 'C0030705', ['podg'], 0.0)||('between', '', '', '', 0.0)||('the', '', '', '', 0.0)||('ages', '', '', '', 0.0)||('of', '', '', '', 0.0)||('12', '', '', '', 0.0)||('to', '', '', '', 0.0)||('17', '', '', '', 0.0)||('years', 'noun', 'C0439234', ['tmco'], 0.0)||('with', '', '', '', 0.0)||('a', '', '', '', 0.0)||('primary', 'adj', 'C0205225', ['qlco'], 0.0)||('diagnostic and statistical manual of mental disorders', 'noun', 'C1136324', ['inpr'], 0.0)||(',', '', '', '', 0.0)||('fourth', 'adj', 'C0205438', ['qnco'], 0.0)||('edition', 'noun', 'C0441792', ['inpr'], 0.0)||(',', '', '', '', 0.0)||('diagnosis', 'noun', 'C0011900', ['fndg'], 0.0)||('of', '', '', '', 0.0)||('major depressive disorder', 'noun', 'C0041696', ['mobd'], 0.0)||('.', '', '', '', 0.0)||
('the', '', '', '', 0.0)||('trial', 'noun', 'C0008976', ['resa'], 0.0)||('was', '', '', '', 0.0)||('conducted', '', '', '', 0.0)||('at', '', '', '', 0.0)||('13', '', '', '', 0.0)||('us', '', '', '', 0.0)||('academic', 'adj', 'C1510747', ['orgt'], 0.0)||('and', '', '', '', 0.0)||('community', 'noun', 'C0009462', ['geoa'], 0.0)||('clinics', 'noun', 'C0442592', ['hcro', 'mnob'], 0.0)||('between', '', '', '', 0.0)||('spring', 'noun', 'C0241232', ['tmco'], 0.0)||('2000', '', '', '', 0.0)||('and', '', '', '', 0.0)||('summer', 'noun', 'C0241301', ['tmco'], 0.0)||('2003', '', '', '', 0.0)||('.', '', '', '', 0.0)||
('twelve', '', 'C0205458', ['qnco'], 0.0)||('weeks', 'noun', 'C0439230', ['tmco'], 0.0)||('of', '', '', '', 0.0)||('(', '', '', '', 0.0)||('1', '', '', '', 0.0)||(')', '', '', '', 0.0)||('fluoxetine', 'noun', 'C0016365', ['orch', 'phsu'], 0.0)||('alone', 'adj', 'C0439044', ['fndg'], 0.0)||('(', '', '', '', 0.0)||('10', '', '', '', 0.0)||('to', '', '', '', 0.0)||('40', '', '', '', 0.0)||('mg', '', '', '', 0.0)||('/', '', '', '', 0.0)||('d', '', '', '', 0.0)||(')', '', '', '', 0.0)||(',', '', '', '', 0.0)||('(', '', '', '', 0.0)||('2', '', '', '', 0.0)||(')', '', '', '', 0.0)||('cognitive - behavioral therapy', '', '', '', 0.0)||('alone', 'adj', 'C0439044', ['fndg'], 0.0)||(',', '', '', '', 0.0)||('(', '', '', '', 0.0)||('3', '', '', '', 0.0)||(')', '', '', '', 0.0)||('cognitive - behavioral therapy', '', '', '', 0.0)||('with', '', '', '', 0.0)||('fluoxetine', 'noun', 'C0016365', ['orch', 'phsu'], 0.0)||('(', '', '', '', 0.0)||('10', '', '', '', 0.0)||('to', '', '', '', 0.0)||('40', '', '', '', 0.0)||('mg', '', '', '', 0.0)||('/', '', '', '', 0.0)||('d', '', '', '', 0.0)||(')', '', '', '', 0.0)||(',', '', '', '', 0.0)||('or', '', '', '', 0.0)||('(', '', '', '', 0.0)||('4', '', '', '', 0.0)||(')', '', '', '', 0.0)||('placebo', 'noun', 'C0032042', ['topp'], 0.0)||('(', '', '', '', 0.0)||('equivalent', 'noun', 'C0205163', ['qlco'], 0.0)||('to', '', '', '', 0.0)||('10', '', '', '', 0.0)||('to', '', '', '', 0.0)||('40', '', '', '', 0.0)||('mg', '', '', '', 0.0)||('/', '', '', '', 0.0)||('d', '', '', '', 0.0)||(')', '', '', '', 0.0)||('.', '', '', '', 0.0)||
('placebo', 'noun', 'C0032042', ['topp'], 0.0)||('and', '', '', '', 0.0)||('fluoxetine', 'noun', 'C0016365', ['orch', 'phsu'], 0.0)||('alone', 'adj', 'C0439044', ['fndg'], 0.0)||('were', '', '', '', 0.0)||('administered', 'verb', 'C1521801', ['ftcn'], 0.0)||('double - blind', '', '', '', 0.0)||(';', '', '', '', 0.0)||
('cognitive - behavioral therapy', '', '', '', 0.0)||('alone', 'adj', 'C0439044', ['fndg'], 0.0)||('and', '', '', '', 0.0)||('cognitive - behavioral therapy', '', '', '', 0.0)||('with', '', '', '', 0.0)||('fluoxetine', 'noun', 'C0016365', ['orch', 'phsu'], 0.0)||('were', '', '', '', 0.0)||('administered', 'verb', 'C1521801', ['ftcn'], 0.0)||('unblinded', '', '', '', 0.0)||('.', '', '', '', 0.0)||
('children', 'noun', 'C0008059', ['aggp'], 0.0)||("' s", '', '', '', 0.0)||('depression', 'noun', 'C0011570', ['mobd'], 0.0)||('rating', 'adj', 'C0871208', ['acty'], 0.0)||('scale', 'noun', 'C0175659', ['medd'], 0.0)||('-', '', '', '', 0.0)||('revised', 'adj', 'C1527075', ['ftcn'], 0.0)||('total score', '', '', '', 0.0)||('and', '', '', '', 0.0)||(',', '', '', '', 0.0)||('for', '', '', '', 0.0)||('responder', '', '', '', 0.0)||('analysis', 'noun', 'C0002778', ['lbpr'], 0.0)||(',', '', '', '', 0.0)||('a', '', '', '', 0.0)||('(', '', '', '', 0.0)||('dichotomized', '', '', '', 0.0)||(')', '', '', '', 0.0)||('clinical', 'adj', 'C0205210', ['qlco'], 0.0)||('global', 'adj', 'C0205246', ['spco'], 0.0)||('impressions', '', '', '', 0.0)||('improvement', '', '', '', 0.0)||('score', 'noun', 'C0449820', ['qnco'], 0.0)||('.', '', '', '', 0.0)||
('compared', 'verb', 'C1707455', ['acty'], 0.0)||('with', '', '', '', 0.0)||('placebo', 'noun', 'C0032042', ['topp'], 0.0)||(',', '', '', '', 0.0)||('the', '', '', '', 0.0)||('combination', 'noun', 'C0205195', ['qlco'], 0.0)||('of', '', '', '', 0.0)||('fluoxetine', 'noun', 'C0016365', ['orch', 'phsu'], 0.0)||('with', '', '', '', 0.0)||('cognitive - behavioral therapy', '', '', '', 0.0)||('was', '', '', '', 0.0)||('statistically significant', 'adj', 'C0237881', ['qnco'], 0.0)||('(', '', '', '', 0.0)||('p', '', '', '', 0.0)||('=', '', '', '', 0.0)||('.', '', '', '', 0.0)||('001', '', '', '', 0.0)||(')', '', '', '', 0.0)||('on', '', '', '', 0.0)||('the', '', '', '', 0.0)||('children', 'noun', 'C0008059', ['aggp'], 0.0)||("' s", '', '', '', 0.0)||('depression', 'noun', 'C0011570', ['mobd'], 0.0)||('rating', 'adj', 'C0871208', ['acty'], 0.0)||('scale', 'noun', 'C0175659', ['medd'], 0.0)||('-', '', '', '', 0.0)||('revised', 'verb', 'C1527075', ['ftcn'], 0.0)||('.', '', '', '', 0.0)||
('compared', 'verb', 'C1707455', ['acty'], 0.0)||('with', '', '', '', 0.0)||('fluoxetine', 'noun', 'C0016365', ['orch', 'phsu'], 0.0)||('alone', 'adj', 'C0439044', ['fndg'], 0.0)||('(', '', '', '', 0.0)||('p', '', '', '', 0.0)||('=', '', '', '', 0.0)||('.', '', '', '', 0.0)||('02', '', '', '', 0.0)||(')', '', '', '', 0.0)||('and', '', '', '', 0.0)||('cognitive - behavioral therapy', '', '', '', 0.0)||('alone', 'adj', 'C0439044', ['fndg'], 0.0)||('(', '', '', '', 0.0)||('p', '', '', '', 0.0)||('=', '', '', '', 0.0)||('.', '', '', '', 0.0)||('01', '', '', '', 0.0)||(')', '', '', '', 0.0)||(',', '', '', '', 0.0)||('treatment', 'noun', 'C0039798', ['ftcn'], 0.0)||('of', '', '', '', 0.0)||('fluoxetine', 'noun', 'C0016365', ['orch', 'phsu'], 0.0)||('with', '', '', '', 0.0)||('cognitive - behavioral therapy', '', '', '', 0.0)||('was', '', '', '', 0.0)||('superior', 'adj', 'C1282910', ['spco'], 0.0)||('.', '', '', '', 0.0)||
('fluoxetine', 'noun', 'C0016365', ['orch', 'phsu'], 0.0)||('alone', 'adj', 'C0439044', ['fndg'], 0.0)||('is', '', '', '', 0.0)||('a', '', '', '', 0.0)||('superior', 'adj', 'C1282910', ['spco'], 0.0)||('treatment', 'noun', 'C0039798', ['ftcn'], 0.0)||('to', '', '', '', 0.0)||('cognitive - behavioral therapy', '', '', '', 0.0)||('alone', 'adj', 'C0439044', ['fndg'], 0.0)||('(', '', '', '', 0.0)||('p', '', '', '', 0.0)||('=', '', '', '', 0.0)||('.', '', '', '', 0.0)||('01', '', '', '', 0.0)||(')', '', '', '', 0.0)||('.', '', '', '', 0.0)||
('rates', '', '', '', 0.0)||('of', '', '', '', 0.0)||('response', 'noun', 'C0871261', ['clna'], 0.0)||('for', '', '', '', 0.0)||('fluoxetine', 'noun', 'C0016365', ['orch', 'phsu'], 0.0)||('with', '', '', '', 0.0)||('cognitive - behavioral therapy', '', '', '', 0.0)||('were', '', '', '', 0.0)||('71 . 0 %', '', '', '', 0.0)||('(', '', '', '', 0.0)||('95 %', '', '', '', 0.0)||('confidence interval', 'noun', 'C0009667', ['qnco'], 0.0)||(',', '', '', '', 0.0)||('62 %', '', '', '', 0.0)||('-', '', '', '', 0.0)||('80 %', '', '', '', 0.0)||(')', '', '', '', 0.0)||(';', '', '', '', 0.0)||
('fluoxetine', 'noun', 'C0016365', ['orch', 'phsu'], 0.0)||('alone', 'adj', 'C0439044', ['fndg'], 0.0)||(',', '', '', '', 0.0)||('60 . 6 %', '', '', '', 0.0)||('(', '', '', '', 0.0)||('95 %', '', '', '', 0.0)||('confidence interval', 'noun', 'C0009667', ['qnco'], 0.0)||(',', '', '', '', 0.0)||('51 %', '', '', '', 0.0)||('-', '', '', '', 0.0)||('70 %', '', '', '', 0.0)||(')', '', '', '', 0.0)||(';', '', '', '', 0.0)||
('cognitive - behavioral therapy', '', '', '', 0.0)||('alone', 'adj', 'C0439044', ['fndg'], 0.0)||(',', '', '', '', 0.0)||('43 . 2 %', '', '', '', 0.0)||('(', '', '', '', 0.0)||('95 %', '', '', '', 0.0)||('confidence interval', 'noun', 'C0009667', ['qnco'], 0.0)||(',', '', '', '', 0.0)||('34 %', '', '', '', 0.0)||('-', '', '', '', 0.0)||('52 %', '', '', '', 0.0)||(')', '', '', '', 0.0)||(';', '', '', '', 0.0)||
('and', '', '', '', 0.0)||('placebo', 'noun', 'C0032042', ['topp'], 0.0)||(',', '', '', '', 0.0)||('34 . 8 %', '', '', '', 0.0)||('(', '', '', '', 0.0)||('95 %', '', '', '', 0.0)||('confidence interval', 'noun', 'C0009667', ['qnco'], 0.0)||(',', '', '', '', 0.0)||('26 %', '', '', '', 0.0)||('-', '', '', '', 0.0)||('44 %', '', '', '', 0.0)||(')', '', '', '', 0.0)||('.', '', '', '', 0.0)||
('on', '', '', '', 0.0)||('the', '', '', '', 0.0)||('clinical', 'adj', 'C0205210', ['qlco'], 0.0)||('global', 'adj', 'C0205246', ['spco'], 0.0)||('impressions', '', '', '', 0.0)||('improvement', '', '', '', 0.0)||('responder', '', '', '', 0.0)||('analysis', 'noun', 'C0002778', ['lbpr'], 0.0)||(',', '', '', '', 0.0)||('the', '', '', '', 0.0)||('2', '', '', '', 0.0)||('fluoxetine', 'noun', 'C0016365', ['orch', 'phsu'], 0.0)||('-', '', '', '', 0.0)||('containing', 'adj', 'C0332256', ['ftcn'], 0.0)||('conditions', '', '', '', 0.0)||('were', '', '', '', 0.0)||('statistically', 'adv', 'C0038215', ['ocdi'], 0.0)||('superior', 'adj', 'C1282910', ['spco'], 0.0)||('to', '', '', '', 0.0)||('cognitive - behavioral therapy', '', '', '', 0.0)||('and', '', '', '', 0.0)||('to', '', '', '', 0.0)||('placebo', 'noun', 'C0032042', ['topp'], 0.0)||('.', '', '', '', 0.0)||
('clinically', '', '', '', 0.0)||('significant', 'adj', 'C0750502', ['idcn'], 0.0)||('suicidal', 'adj', 'C0438696', ['fndg'], 0.0)||('thinking', 'noun', 'C0039869', ['menp'], 0.0)||(',', '', '', '', 0.0)||('which', '', '', '', 0.0)||('was', '', '', '', 0.0)||('present', 'adj', 'C0150312', ['qnco'], 0.0)||('in', '', '', '', 0.0)||('29 %', '', '', '', 0.0)||('of', '', '', '', 0.0)||('the', '', '', '', 0.0)||('sample', 'noun', 'C0370003', ['sbst'], 0.0)||('at', '', '', '', 0.0)||('baseline', 'noun', 'C0168634', ['bodm'], 0.0)||(',', '', '', '', 0.0)||('improved', 'verb', 'C0184511', ['qlco'], 0.0)||('significantly', '', '', '', 0.0)||('in', '', '', '', 0.0)||('all', '', '', '', 0.0)||('4', '', '', '', 0.0)||('treatment', 'noun', 'C0039798', ['ftcn'], 0.0)||('groups', 'noun', 'C0441833', ['idcn'], 0.0)||('.', '', '', '', 0.0)||
('fluoxetine', 'noun', 'C0016365', ['orch', 'phsu'], 0.0)||('with', '', '', '', 0.0)||('cognitive - behavioral therapy', '', '', '', 0.0)||('showed', '', '', '', 0.0)||('the', '', '', '', 0.0)||('greatest', 'adj', 'C0205393', ['qnco'], 0.0)||('reduction', 'noun', 'C0301630', ['npop'], 0.0)||('(', '', '', '', 0.0)||('p', '', '', '', 0.0)||('=', '', '', '', 0.0)||('.', '', '', '', 0.0)||('02', '', '', '', 0.0)||(')', '', '', '', 0.0)||('.', '', '', '', 0.0)||
('seven', '', 'C0205453', ['qnco'], 0.0)||('(', '', '', '', 0.0)||('1 . 6 %', '', '', '', 0.0)||(')', '', '', '', 0.0)||('of', '', '', '', 0.0)||('439', '', '', '', 0.0)||('patients', 'noun', 'C0030705', ['podg'], 0.0)||('attempted', '', '', '', 0.0)||('suicide', 'noun', 'C0038661', ['fndg'], 0.0)||(';', '', '', '', 0.0)||
('there', '', '', '', 0.0)||('were', '', '', '', 0.0)||('no', '', '', '', 0.0)||('completed', 'adj', 'C0205197', ['qlco'], 0.0)||('suicides', 'noun', 'C0038661', ['fndg'], 0.0)||('.', '', '', '', 0.0)||
('the', '', '', '', 0.0)||('combination', 'noun', 'C0205195', ['qlco'], 0.0)||('of', '', '', '', 0.0)||('fluoxetine', 'noun', 'C0016365', ['orch', 'phsu'], 0.0)||('with', '', '', '', 0.0)||('cognitive - behavioral therapy', '', '', '', 0.0)||('offered', 'verb', 'C1444648', ['fndg'], 0.0)||('the', '', '', '', 0.0)||('most', '', '', '', 0.0)||('favorable', '', '', '', 0.0)||('tradeoff', '', '', '', 0.0)||('between', '', '', '', 0.0)||('benefit', 'noun', 'C0814225', ['qnco'], 0.0)||('and', '', '', '', 0.0)||('risk', 'noun', 'C0035647', ['qlco'], 0.0)||('for', '', '', '', 0.0)||('adolescents', 'noun', 'C0205653', ['aggp'], 0.0)||('with', '', '', '', 0.0)||('major depressive disorder', 'noun', 'C0041696', ['mobd'], 0.0)||('.', '', '', '', 0.0)||
