('it', '', '', '', 0.0)||('is', '', '', '', 0.0)||('uncertain', 'adj', 'C0087130', ['idcn'], 0.0)||('whether', '', '', '', 0.0)||('male', 'noun', 'C0024554', ['orga'], 0.0)||('circumcision', 'noun', 'C0008819', ['topp'], 0.0)||('reduces', '', '', '', 0.0)||('the', '', '', '', 0.0)||('risks', 'noun', 'C0035647', ['qlco'], 0.0)||('of', '', '', '', 0.0)||('penile', 'adj', 'C0030851', ['bpoc'], 0.0)||('human papillomavirus', 'noun', 'C0021344', ['virs'], 0.0)||('infection', 'noun', 'C0021311', ['dsyn'], 0.0)||('in', '', '', '', 0.0)||('the', '', '', '', 0.0)||('man', 'noun', 'C0024554', ['orga'], 0.0)||('and', '', '', '', 0.0)||('of', '', '', '', 0.0)||('cervical cancer', 'noun', 'C0007847', ['neop'], 0.0)||('in', '', '', '', 0.0)||('his', '', '', '', 0.0)||('female', 'noun', 'C0015780', ['orga'], 0.0)||('partner', 'noun', 'C0682323', ['famg'], 0.0)||('.', '', '', '', 0.0)||
('we', '', '', '', 0.0)||('pooled', 'verb', 'C1709595', ['cnce'], 0.0)||('data', 'noun', 'C1511726', ['idcn'], 0.0)||('on', '', '', '', 0.0)||('1913', '', '', '', 0.0)||('couples', 'noun', 'C0010222', ['famg'], 0.0)||('enrolled', '', '', '', 0.0)||('in', '', '', '', 0.0)||('one', 'noun', 'C0205447', ['qnco'], 0.0)||('of', '', '', '', 0.0)||('seven', '', 'C0205453', ['qnco'], 0.0)||('case - control studies', '', '', '', 0.0)||('of', '', '', '', 0.0)||('cervical carcinoma', '', '', '', 0.0)||('in', '', '', '', 0.0)||('situ', '', '', '', 0.0)||('and', '', '', '', 0.0)||('cervical cancer', 'noun', 'C0007847', ['neop'], 0.0)||('in', '', '', '', 0.0)||('five', '', 'C0205451', ['qnco'], 0.0)||('countries', 'noun', 'C0454664', ['geoa'], 0.0)||('.', '', '', '', 0.0)||
('circumcision', 'noun', 'C0008819', ['topp'], 0.0)||('status', 'noun', 'C0449438', ['qlco'], 0.0)||('was', '', '', '', 0.0)||('self - reported', '', '', '', 0.0)||(',', '', '', '', 0.0)||('and', '', '', '', 0.0)||('the', '', '', '', 0.0)||('accuracy', 'noun', 'C0443131', ['qlco'], 0.0)||('of', '', '', '', 0.0)||('the', '', '', '', 0.0)||('data', 'noun', 'C1511726', ['idcn'], 0.0)||('was', '', '', '', 0.0)||('confirmed', 'verb', 'C0750484', ['idcn'], 0.0)||('by', '', '', '', 0.0)||('physical examination', 'noun', 'C0031809', ['hlca'], 0.0)||('at', '', '', '', 0.0)||('three', '', 'C0205449', ['qnco'], 0.0)||('study', 'noun', 'C0008976', ['resa'], 0.0)||('sites', 'noun', 'C0205145', ['spco'], 0.0)||('.', '', '', '', 0.0)||
('the', '', '', '', 0.0)||('presence', 'noun', 'C0392148', ['topp'], 0.0)||('or', '', '', '', 0.0)||('absence', 'noun', 'C1689985', ['anab'], 0.0)||('of', '', '', '', 0.0)||('penile', 'adj', 'C0030851', ['bpoc'], 0.0)||('human papillomavirus', 'noun', 'C0021344', ['virs'], 0.0)||('dna', 'noun', 'C0012854', ['bacs', 'nnon'], 0.0)||('was', '', '', '', 0.0)||('assessed', 'verb', 'C1516048', ['acty'], 0.0)||('by', '', '', '', 0.0)||('a', '', '', '', 0.0)||('polymerase - chain - reaction assay', '', '', '', 0.0)||('in', '', '', '', 0.0)||('1520', '', '', '', 0.0)||('men', 'noun', 'C0025266', ['popg'], 0.0)||('and', '', '', '', 0.0)||('yielded', '', '', '', 0.0)||('a', '', '', '', 0.0)||('valid', 'adj', 'C2349099', ['qlco'], 0.0)||('result', 'noun', 'C1274040', ['ftcn'], 0.0)||('in', '', '', '', 0.0)||('the', '', '', '', 0.0)||('case', 'noun', 'C0868928', ['ftcn'], 0.0)||('of', '', '', '', 0.0)||('1139', '', '', '', 0.0)||('men', 'noun', 'C0025266', ['popg'], 0.0)||('(', '', '', '', 0.0)||('74 . 9', '', '', '', 0.0)||('percent', 'noun', 'C0439165', ['qnco'], 0.0)||(')', '', '', '', 0.0)||('.', '', '', '', 0.0)||
('penile', 'adj', 'C0030851', ['bpoc'], 0.0)||('human papillomavirus', 'noun', 'C0021344', ['virs'], 0.0)||('was', '', '', '', 0.0)||('detected', 'verb', 'C0442726', ['fndg'], 0.0)||('in', '', '', '', 0.0)||('166', '', '', '', 0.0)||('of', '', '', '', 0.0)||('the', '', '', '', 0.0)||('847', '', '', '', 0.0)||('uncircumcised', 'adj', 'C0282021', ['fndg'], 0.0)||('men', 'noun', 'C0025266', ['popg'], 0.0)||('(', '', '', '', 0.0)||('19 . 6', '', '', '', 0.0)||('percent', 'noun', 'C0439165', ['qnco'], 0.0)||(')', '', '', '', 0.0)||('and', '', '', '', 0.0)||('in', '', '', '', 0.0)||('16', '', '', '', 0.0)||('of', '', '', '', 0.0)||('the', '', '', '', 0.0)||('292', '', '', '', 0.0)||('circumcised', 'adj', 'C0920194', ['fndg'], 0.0)||('men', 'noun', 'C0025266', ['popg'], 0.0)||('(', '', '', '', 0.0)||('5 . 5', '', '', '', 0.0)||('percent', 'noun', 'C0439165', ['qnco'], 0.0)||(')', '', '', '', 0.0)||('.', '', '', '', 0.0)||
('after', '', '', '', 0.0)||('adjustment', 'noun', 'C0376209', ['inbe'], 0.0)||('for', '', '', '', 0.0)||('age', 'noun', 'C0001779', ['orga'], 0.0)||('at', '', '', '', 0.0)||('first', 'adj', 'C0205435', ['qnco'], 0.0)||('intercourse', 'noun', 'C0009253', ['orgf'], 0.0)||(',', '', '', '', 0.0)||('lifetime', '', '', '', 0.0)||('number', 'noun', 'C0449788', ['qnco'], 0.0)||('of', '', '', '', 0.0)||('sexual partners', 'noun', 'C0036911', ['popg'], 0.0)||(',', '', '', '', 0.0)||('and', '', '', '', 0.0)||('other', '', '', '', 0.0)||('potential', 'adj', 'C0035647', ['qlco'], 0.0)||('confounders', '', '', '', 0.0)||(',', '', '', '', 0.0)||('circumcised', 'adj', 'C0920194', ['fndg'], 0.0)||('men', 'noun', 'C0025266', ['popg'], 0.0)||('were', '', '', '', 0.0)||('less', '', '', '', 0.0)||('likely', 'adv', 'C0332148', ['qlco'], 0.0)||('than', '', '', '', 0.0)||('uncircumcised', 'adj', 'C0282021', ['fndg'], 0.0)||('men', 'noun', 'C0025266', ['popg'], 0.0)||('to', '', '', '', 0.0)||('have', '', '', '', 0.0)||('human papillomavirus', 'noun', 'C0021344', ['virs'], 0.0)||('infection', 'noun', 'C0021311', ['dsyn'], 0.0)||('(', '', '', '', 0.0)||('odds ratio', 'noun', 'C0028873', ['qnco'], 0.0)||(',', '', '', '', 0.0)||('0 . 37', '', '', '', 0.0)||(';', '', '', '', 0.0)||('95', '', '', '', 0.0)||('percent', 'noun', 'C0439165', ['qnco'], 0.0)||('confidence interval', 'noun', 'C0009667', ['qnco'], 0.0)||(',', '', '', '', 0.0)||('0 . 16', '', '', '', 0.0)||('to', '', '', '', 0.0)||('0 . 85', '', '', '', 0.0)||(')', '', '', '', 0.0)||('.', '', '', '', 0.0)||
('monogamous', 'adj', 'C0558125', ['socb'], 0.0)||('women', 'noun', 'C0043210', ['popg'], 0.0)||('whose', '', '', '', 0.0)||('male', 'noun', 'C0024554', ['orga'], 0.0)||('partners', '', '', '', 0.0)||('had', '', '', '', 0.0)||('six', '', 'C0205452', ['qnco'], 0.0)||('or', '', '', '', 0.0)||('more', '', '', '', 0.0)||('sexual partners', 'noun', 'C0036911', ['popg'], 0.0)||('and', '', '', '', 0.0)||('were', '', '', '', 0.0)||('circumcised', 'verb', 'C0920194', ['fndg'], 0.0)||('had', '', '', '', 0.0)||('a', '', '', '', 0.0)||('lower risk', '', '', '', 0.0)||('of', '', '', '', 0.0)||('cervical cancer', 'noun', 'C0007847', ['neop'], 0.0)||('than', '', '', '', 0.0)||('women', 'noun', 'C0043210', ['popg'], 0.0)||('whose', '', '', '', 0.0)||('partners', '', '', '', 0.0)||('were', '', '', '', 0.0)||('uncircumcised', 'verb', 'C0282021', ['fndg'], 0.0)||('(', '', '', '', 0.0)||('adjusted odds ratio', '', '', '', 0.0)||(',', '', '', '', 0.0)||('0 . 42', '', '', '', 0.0)||(';', '', '', '', 0.0)||('95', '', '', '', 0.0)||('percent', 'noun', 'C0439165', ['qnco'], 0.0)||('confidence interval', 'noun', 'C0009667', ['qnco'], 0.0)||(',', '', '', '', 0.0)||('0 . 23', '', '', '', 0.0)||('to', '', '', '', 0.0)||('0 . 79', '', '', '', 0.0)||(')', '', '', '', 0.0)||('.', '', '', '', 0.0)||
('results', 'noun', 'C1274040', ['ftcn'], 0.0)||('were', '', '', '', 0.0)||('similar', 'adj', 'C2348205', ['qlco'], 0.0)||('in', '', '', '', 0.0)||('the', '', '', '', 0.0)||('subgroup', 'noun', 'C1515021', ['clas'], 0.0)||('of', '', '', '', 0.0)||('men', 'noun', 'C0025266', ['popg'], 0.0)||('in', '', '', '', 0.0)||('whom', '', '', '', 0.0)||('circumcision', 'noun', 'C0008819', ['topp'], 0.0)||('was', '', '', '', 0.0)||('confirmed', 'verb', 'C0750484', ['idcn'], 0.0)||('by', '', '', '', 0.0)||('medical', 'adj', 'C0205476', ['ftcn'], 0.0)||('examination', '', '', '', 0.0)||('.', '', '', '', 0.0)||
('male', 'noun', 'C0024554', ['orga'], 0.0)||('circumcision', 'noun', 'C0008819', ['topp'], 0.0)||('is', '', '', '', 0.0)||('associated', 'verb', 'C0332281', ['qlco'], 0.0)||('with', '', '', '', 0.0)||('a', '', '', '', 0.0)||('reduced', 'adj', 'C0392756', ['qlco'], 0.0)||('risk', 'noun', 'C0035647', ['qlco'], 0.0)||('of', '', '', '', 0.0)||('penile', 'adj', 'C0030851', ['bpoc'], 0.0)||('human papillomavirus', 'noun', 'C0021344', ['virs'], 0.0)||('infection', 'noun', 'C0021311', ['dsyn'], 0.0)||('and', '', '', '', 0.0)||(',', '', '', '', 0.0)||('in', '', '', '', 0.0)||('the', '', '', '', 0.0)||('case', 'noun', 'C0868928', ['ftcn'], 0.0)||('of', '', '', '', 0.0)||('men', 'noun', 'C0025266', ['popg'], 0.0)||('with', '', '', '', 0.0)||('a', '', '', '', 0.0)||('history', 'noun', 'C0019664', ['ocdi'], 0.0)||('of', '', '', '', 0.0)||('multiple', 'adj', 'C0439064', ['qnco'], 0.0)||('sexual partners', 'noun', 'C0036911', ['popg'], 0.0)||(',', '', '', '', 0.0)||('a', '', '', '', 0.0)||('reduced', 'adj', 'C0392756', ['qlco'], 0.0)||('risk', 'noun', 'C0035647', ['qlco'], 0.0)||('of', '', '', '', 0.0)||('cervical cancer', 'noun', 'C0007847', ['neop'], 0.0)||('in', '', '', '', 0.0)||('their', '', '', '', 0.0)||('current', 'adj', 'C0521116', ['tmco'], 0.0)||('female', 'noun', 'C0015780', ['orga'], 0.0)||('partners', '', '', '', 0.0)||('.', '', '', '', 0.0)||
