('to', '', '', '', 0.0)||('assess', 'verb', 'C1516048', ['acty'], 0.0)||('the', '', '', '', 0.0)||('benefits', 'noun', 'C0814225', ['qnco'], 0.0)||('and', '', '', '', 0.0)||('harms', '', '', '', 0.0)||('of', '', '', '', 0.0)||('antimicrobial', '', '', '', 0.0)||('prophylaxis', 'noun', 'C0033107', ['inpr'], 0.0)||('to', '', '', '', 0.0)||('prevent', 'verb', 'C0309872', ['phsu'], 0.0)||('urinary tract infections', '', '', '', 0.0)||('in', '', '', '', 0.0)||('persons', 'noun', 'C0027361', ['popg'], 0.0)||('with', '', '', '', 0.0)||('neurogenic bladders', '', '', '', 0.0)||('caused', '', '', '', 0.0)||('by', '', '', '', 0.0)||('spinal cord', 'noun', 'C0037925', ['bpoc'], 0.0)||('dysfunction', 'noun', 'C0031847', ['ftcn'], 0.0)||('.', '', '', '', 0.0)||
('a', '', '', '', 0.0)||('broad', 'adj', 'C0332464', ['spco'], 0.0)||('search', 'noun', 'C1552603', ['idcn'], 0.0)||('strategy', 'noun', 'C0679199', ['menp'], 0.0)||('with', '', '', '', 0.0)||('no', '', '', '', 0.0)||('language', 'noun', 'C0023008', ['lang'], 0.0)||('restriction', 'noun', 'C0443288', ['ftcn'], 0.0)||('was', '', '', '', 0.0)||('conducted', '', '', '', 0.0)||('of', '', '', '', 0.0)||('medline', 'noun', 'C0025141', ['inpr'], 0.0)||('(', '', '', '', 0.0)||('1966', '', '', '', 0.0)||('-', '', '', '', 0.0)||('january', '', '', '', 0.0)||('1998', '', '', '', 0.0)||(')', '', '', '', 0.0)||(',', '', '', '', 0.0)||('embase', '', '', '', 0.0)||('(', '', '', '', 0.0)||('1974', '', '', '', 0.0)||('-', '', '', '', 0.0)||('january', '', '', '', 0.0)||('1998', '', '', '', 0.0)||(')', '', '', '', 0.0)||(',', '', '', '', 0.0)||('and', '', '', '', 0.0)||('cinahl', '', '', '', 0.0)||('(', '', '', '', 0.0)||('1982', '', '', '', 0.0)||('-', '', '', '', 0.0)||('july', '', '', '', 0.0)||('1998', '', '', '', 0.0)||(')', '', '', '', 0.0)||('using', 'verb', 'C1524063', ['ftcn'], 0.0)||('the', '', '', '', 0.0)||('general', 'adj', 'C0205246', ['spco'], 0.0)||('search', 'noun', 'C1552603', ['idcn'], 0.0)||('terms', '', '', '', 0.0)||('urinary tract', 'noun', 'C0042027', ['bpoc'], 0.0)||(',', '', '', '', 0.0)||('urinary tract infections', '', '', '', 0.0)||(',', '', '', '', 0.0)||('bacteriuria', 'noun', 'C0004659', ['dsyn'], 0.0)||(',', '', '', '', 0.0)||('paraplegia', 'noun', 'C0030486', ['dsyn'], 0.0)||(',', '', '', '', 0.0)||('quadriplegia', 'noun', 'C0034372', ['dsyn'], 0.0)||(',', '', '', '', 0.0)||('spinal cord injuries', 'noun', 'C0037929', ['inpo'], 0.0)||(',', '', '', '', 0.0)||('multiple sclerosis', 'noun', 'C0026769', ['dsyn'], 0.0)||(',', '', '', '', 0.0)||('neurogenic bladder', 'noun', 'C0005697', ['dsyn'], 0.0)||(',', '', '', '', 0.0)||('and', '', '', '', 0.0)||('neuropathic', '', '', '', 0.0)||('bladder', 'noun', 'C0005682', ['bpoc'], 0.0)||('.', '', '', '', 0.0)||
('additional', 'adj', 'C1524062', ['ftcn'], 0.0)||('articles', '', '', '', 0.0)||('were', '', '', '', 0.0)||('identified', 'verb', 'C0205396', ['qlco'], 0.0)||('by', '', '', '', 0.0)||('experts', '', '', '', 0.0)||('and', '', '', '', 0.0)||('by', '', '', '', 0.0)||('reviewing', 'adj', 'C1704362', ['qlco'], 0.0)||('reference', 'noun', 'C1514811', ['idcn'], 0.0)||('lists', '', '', '', 0.0)||('of', '', '', '', 0.0)||('articles', '', '', '', 0.0)||('obtained', 'verb', 'C1301820', ['ftcn'], 0.0)||('from', '', '', '', 0.0)||('searches', '', '', '', 0.0)||('.', '', '', '', 0.0)||
('criteria', 'noun', 'C0243161', ['inpr'], 0.0)||('included', '', '', '', 0.0)||('human', 'noun', 'C0086418', ['humn'], 0.0)||('studies', '', '', '', 0.0)||('of', '', '', '', 0.0)||('adults', 'noun', 'C0001675', ['aggp'], 0.0)||('and', '', '', '', 0.0)||('adolescents', 'noun', 'C0205653', ['aggp'], 0.0)||('who', '', '', '', 0.0)||('had', '', '', '', 0.0)||('neurogenic bladder', 'noun', 'C0005697', ['dsyn'], 0.0)||('due to', '', '', '', 0.0)||('spinal cord', 'noun', 'C0037925', ['bpoc'], 0.0)||('dysfunction', 'noun', 'C0031847', ['ftcn'], 0.0)||(';', '', '', '', 0.0)||
('the', '', '', '', 0.0)||('studies', '', '', '', 0.0)||('had', '', '', '', 0.0)||('to', '', '', '', 0.0)||('address', 'verb', 'C1442065', ['spco'], 0.0)||('antimicrobial', '', '', '', 0.0)||('prophylaxis', 'noun', 'C0033107', ['inpr'], 0.0)||('of', '', '', '', 0.0)||('uti', 'noun', 'C0042029', ['dsyn'], 0.0)||('and', '', '', '', 0.0)||('include', 'verb', 'C1552866', ['idcn'], 0.0)||('bacteriuria', 'noun', 'C0004659', ['dsyn'], 0.0)||('or', '', '', '', 0.0)||('uti', 'noun', 'C0042029', ['dsyn'], 0.0)||('as', '', '', '', 0.0)||('an', '', '', '', 0.0)||('outcome', 'noun', 'C1274040', ['ftcn'], 0.0)||('.', '', '', '', 0.0)||
('we', '', '', '', 0.0)||('excluded', 'verb', 'C1554077', ['idcn'], 0.0)||('any', '', '', '', 0.0)||('study', 'verb', 'C0008976', ['resa'], 0.0)||('that', '', '', '', 0.0)||('was', '', '', '', 0.0)||('clearly', '', '', '', 0.0)||('not', 'adv', 'C1518422', ['ftcn'], 0.0)||('a', '', '', '', 0.0)||('controlled', 'adj', 'C2587213', ['ftcn'], 0.0)||('trial', 'noun', 'C0008976', ['resa'], 0.0)||('or', '', '', '', 0.0)||('that', '', '', '', 0.0)||('only', '', '', '', 0.0)||('included', '', '', '', 0.0)||('children', 'noun', 'C0008059', ['aggp'], 0.0)||('under', '', '', '', 0.0)||('the', '', '', '', 0.0)||('age', 'noun', 'C0001779', ['orga'], 0.0)||('of', '', '', '', 0.0)||('13', '', '', '', 0.0)||('years', 'noun', 'C0439234', ['tmco'], 0.0)||('.', '', '', '', 0.0)||
('two', 'noun', 'C0205448', ['qnco'], 0.0)||('reviewers', '', '', '', 0.0)||('independently', '', '', '', 0.0)||('abstracted', '', '', '', 0.0)||('data', 'noun', 'C1511726', ['idcn'], 0.0)||(',', '', '', '', 0.0)||('and', '', '', '', 0.0)||('disagreements', '', '', '', 0.0)||('were', '', '', '', 0.0)||('resolved', 'verb', 'C1514893', ['idcn'], 0.0)||('by', '', '', '', 0.0)||('consensus', 'noun', 'C0376298', ['socb'], 0.0)||('.', '', '', '', 0.0)||
('two', 'noun', 'C0205448', ['qnco'], 0.0)||('reviewers', '', '', '', 0.0)||('independently', '', '', '', 0.0)||('abstracted', '', '', '', 0.0)||('data', 'noun', 'C1511726', ['idcn'], 0.0)||(',', '', '', '', 0.0)||('and', '', '', '', 0.0)||('disagreements', '', '', '', 0.0)||('were', '', '', '', 0.0)||('resolved', 'verb', 'C1514893', ['idcn'], 0.0)||('by', '', '', '', 0.0)||('consensus', 'noun', 'C0376298', ['socb'], 0.0)||('.', '', '', '', 0.0)||
('studies', '', '', '', 0.0)||('were', '', '', '', 0.0)||('graded', '', '', '', 0.0)||('by', '', '', '', 0.0)||('1', '', '', '', 0.0)||('project', 'noun', 'C1709701', ['cnce'], 0.0)||('investigator', 'noun', 'C0035173', ['prog'], 0.0)||('according to', '', '', '', 0.0)||('quality', 'noun', 'C0332306', ['qlco'], 0.0)||('criteria', 'noun', 'C0243161', ['inpr'], 0.0)||('developed', '', '', '', 0.0)||('by', '', '', '', 0.0)||('jadad', '', '', '', 0.0)||('and', '', '', '', 0.0)||('schulz', '', '', '', 0.0)||('.', '', '', '', 0.0)||
('the', '', '', '', 0.0)||('sizes', 'noun', 'C0456389', ['spco'], 0.0)||('of', '', '', '', 0.0)||('the', '', '', '', 0.0)||('effect', 'noun', 'C1280500', ['qlco'], 0.0)||('of', '', '', '', 0.0)||('antimicrobial', '', '', '', 0.0)||('prophylaxis', 'noun', 'C0033107', ['inpr'], 0.0)||('on', '', '', '', 0.0)||('weekly', 'adv', 'C0332174', ['tmco'], 0.0)||('infection rates', '', '', '', 0.0)||('from', '', '', '', 0.0)||('15', '', '', '', 0.0)||('trials', '', '', '', 0.0)||('that', '', '', '', 0.0)||('met', '', '', '', 0.0)||('the', '', '', '', 0.0)||('inclusion', 'noun', 'C1512693', ['qlco'], 0.0)||('criteria', 'noun', 'C0243161', ['inpr'], 0.0)||('were', '', '', '', 0.0)||('pooled', 'verb', 'C1709595', ['cnce'], 0.0)||('by', '', '', '', 0.0)||('using', 'verb', 'C1524063', ['ftcn'], 0.0)||('a', '', '', '', 0.0)||('random effects model', '', '', '', 0.0)||('.', '', '', '', 0.0)||
('antimicrobial', '', '', '', 0.0)||('prophylaxis', 'noun', 'C0033107', ['inpr'], 0.0)||('did', '', '', '', 0.0)||('not', 'adv', 'C1518422', ['ftcn'], 0.0)||('significantly', '', '', '', 0.0)||('decrease', 'verb', 'C0392756', ['qlco'], 0.0)||('symptomatic', 'adj', 'C0231220', ['ftcn'], 0.0)||('infections', 'noun', 'C0021311', ['dsyn'], 0.0)||('.', '', '', '', 0.0)||
('prophylaxis', 'noun', 'C0033107', ['inpr'], 0.0)||('was', '', '', '', 0.0)||('associated', 'verb', 'C0332281', ['qlco'], 0.0)||('with', '', '', '', 0.0)||('a', '', '', '', 0.0)||('reduction', 'noun', 'C0301630', ['npop'], 0.0)||('in', '', '', '', 0.0)||('asymptomatic bacteriuria', 'noun', 'C0262380', ['dsyn'], 0.0)||('among', '', '', '', 0.0)||('acute', 'adj', 'C0205178', ['tmco'], 0.0)||('patients', 'noun', 'C0030705', ['podg'], 0.0)||('(', '', '', '', 0.0)||('<', '', '', '', 0.0)||('90d', '', '', '', 0.0)||('after', '', '', '', 0.0)||('spinal cord injury', '', '', '', 0.0)||(';', '', '', '', 0.0)||('p', '', '', '', 0.0)||('<', '', '', '', 0.0)||('.', '', '', '', 0.0)||('05', '', '', '', 0.0)||(')', '', '', '', 0.0)||(';', '', '', '', 0.0)||
('1', '', '', '', 0.0)||('patient', '', '', '', 0.0)||('would', '', '', '', 0.0)||('require', '', '', '', 0.0)||('3 . 7', '', '', '', 0.0)||('weeks', 'noun', 'C0439230', ['tmco'], 0.0)||('of', '', '', '', 0.0)||('treatment', 'noun', 'C0039798', ['ftcn'], 0.0)||('on', '', '', '', 0.0)||('average', 'adj', 'C1510992', ['qnco'], 0.0)||('to', '', '', '', 0.0)||('prevent', 'verb', 'C0309872', ['phsu'], 0.0)||('1', '', '', '', 0.0)||('asymptomatic', 'adj', 'C0231221', ['fndg'], 0.0)||('infection', 'noun', 'C0021311', ['dsyn'], 0.0)||('.', '', '', '', 0.0)||
('for', '', '', '', 0.0)||('nonacute', '', '', '', 0.0)||('patients', 'noun', 'C0030705', ['podg'], 0.0)||(',', '', '', '', 0.0)||('the', '', '', '', 0.0)||('reduction', 'noun', 'C0301630', ['npop'], 0.0)||('approached', '', '', '', 0.0)||('statistical significance', 'noun', 'C0237881', ['qnco'], 0.0)||('(', '', '', '', 0.0)||('p', '', '', '', 0.0)||('=', '', '', '', 0.0)||('.', '', '', '', 0.0)||('06', '', '', '', 0.0)||(')', '', '', '', 0.0)||('.', '', '', '', 0.0)||
('prophylaxis', 'noun', 'C0033107', ['inpr'], 0.0)||('resulted', '', '', '', 0.0)||('in', '', '', '', 0.0)||('an', '', '', '', 0.0)||('approximately', 'adv', 'C0332232', ['qlco'], 0.0)||('twofold', '', '', '', 0.0)||('increase', 'noun', 'C0442805', ['ftcn'], 0.0)||('in', '', '', '', 0.0)||('antimicrobial - resistant', '', '', '', 0.0)||('bacteria', 'noun', 'C0004611', ['bact'], 0.0)||('.', '', '', '', 0.0)||
('the', '', '', '', 0.0)||('regular', 'adj', 'C0205272', ['qlco'], 0.0)||('use', 'noun', 'C0042153', ['ftcn'], 0.0)||('of', '', '', '', 0.0)||('antimicrobial', '', '', '', 0.0)||('prophylaxis', 'noun', 'C0033107', ['inpr'], 0.0)||('for', '', '', '', 0.0)||('most', '', '', '', 0.0)||('patients', 'noun', 'C0030705', ['podg'], 0.0)||('who', '', '', '', 0.0)||('have', '', '', '', 0.0)||('neurogenic bladder', 'noun', 'C0005697', ['dsyn'], 0.0)||('caused', '', '', '', 0.0)||('by', '', '', '', 0.0)||('spinal cord', 'noun', 'C0037925', ['bpoc'], 0.0)||('dysfunction', 'noun', 'C0031847', ['ftcn'], 0.0)||('is', '', '', '', 0.0)||('not', 'adv', 'C1518422', ['ftcn'], 0.0)||('supported', 'verb', 'C1521721', ['cnce'], 0.0)||('.', '', '', '', 0.0)||
('a', '', '', '', 0.0)||('clinically', '', '', '', 0.0)||('important', '', '', '', 0.0)||('effect', 'noun', 'C1280500', ['qlco'], 0.0)||(',', '', '', '', 0.0)||('however', '', '', '', 0.0)||(',', '', '', '', 0.0)||('has', '', '', '', 0.0)||('not', 'adv', 'C1518422', ['ftcn'], 0.0)||('been', '', '', '', 0.0)||('excluded', 'verb', 'C1554077', ['idcn'], 0.0)||('.', '', '', '', 0.0)||
('future', 'adj', 'C0016884', ['tmco'], 0.0)||('research', 'noun', 'C0035168', ['resa'], 0.0)||('should', '', '', '', 0.0)||('focus', 'noun', 'C0205234', ['spco'], 0.0)||('on', '', '', '', 0.0)||('randomized', 'adj', 'C0034656', ['resa'], 0.0)||('trials', '', '', '', 0.0)||('in', '', '', '', 0.0)||('those', '', '', '', 0.0)||('patients', 'noun', 'C0030705', ['podg'], 0.0)||('who', '', '', '', 0.0)||('have', '', '', '', 0.0)||('recurrent', 'adj', 'C0034897', ['phpr'], 0.0)||('urinary tract infections', '', '', '', 0.0)||('that', '', '', '', 0.0)||('limit', 'verb', 'C1549649', ['idcn'], 0.0)||('their', '', '', '', 0.0)||('daily', 'adj', 'C0332173', ['tmco'], 0.0)||('functioning', '', '', '', 0.0)||('and', '', '', '', 0.0)||('well - being', '', '', '', 0.0)||('.', '', '', '', 0.0)||
