('we', '', '', '', 0.0)||('have', '', '', '', 0.0)||('demonstrated', '', '', '', 0.0)||('that', '', '', '', 0.0)||('obstructive sleep apnea', '', '', '', 0.0)||('is', '', '', '', 0.0)||('prevalent', '', '', '', 0.0)||('in', '', '', '', 0.0)||('60 %', '', '', '', 0.0)||('of', '', '', '', 0.0)||('patients', 'noun', 'C0030705', ['podg'], 0.0)||('undergoing', '', '', '', 0.0)||('bariatric', '', '', '', 0.0)||('surgery', 'noun', 'C0038894', ['bmod'], 0.0)||('.', '', '', '', 0.0)||
('a', '', '', '', 0.0)||('study', 'noun', 'C0008976', ['resa'], 0.0)||('was', '', '', '', 0.0)||('conducted', '', '', '', 0.0)||('to', '', '', '', 0.0)||('determine', '', '', '', 0.0)||('whether', '', '', '', 0.0)||('weight loss', '', '', '', 0.0)||('following', '', '', '', 0.0)||('bariatric', '', '', '', 0.0)||('surgery', 'noun', 'C0038894', ['bmod'], 0.0)||('ameliorates', '', '', '', 0.0)||('obstructive sleep apnea', '', '', '', 0.0)||('.', '', '', '', 0.0)||
('all', '', '', '', 0.0)||('100', '', '', '', 0.0)||('consecutive', 'adj', 'C1707491', ['qlco'], 0.0)||('patients', 'noun', 'C0030705', ['podg'], 0.0)||('with', '', '', '', 0.0)||('symptoms', 'noun', 'C0683368', ['ftcn'], 0.0)||('of', '', '', '', 0.0)||('obstructive sleep apnea', '', '', '', 0.0)||('were', '', '', '', 0.0)||('prospectively', '', '', '', 0.0)||('evaluated', 'verb', 'C0220825', ['ftcn'], 0.0)||('by', '', '', '', 0.0)||('polysomnography', 'noun', 'C0162701', ['diap'], 0.0)||('before', '', '', '', 0.0)||('gastric bypass', 'noun', 'C0017125', ['topp'], 0.0)||('.', '', '', '', 0.0)||
('preoperative', 'adj', 'C0445204', ['tmco'], 0.0)||('and', '', '', '', 0.0)||('postoperative', 'adj', 'C0032790', ['tmco'], 0.0)||('scores', 'noun', 'C0449820', ['qnco'], 0.0)||('of', '', '', '', 0.0)||('epworth sleepiness scale', '', '', '', 0.0)||(',', '', '', '', 0.0)||('respiratory disturbance index', 'noun', 'C2111853', ['fndg'], 0.0)||(',', '', '', '', 0.0)||('and', '', '', '', 0.0)||('other', '', '', '', 0.0)||('parameters', 'noun', 'C0449381', ['fndg'], 0.0)||('of', '', '', '', 0.0)||('sleep', 'noun', 'C0037313', ['orgf'], 0.0)||('quality', 'noun', 'C0332306', ['qlco'], 0.0)||('were', '', '', '', 0.0)||('compared', 'verb', 'C1707455', ['acty'], 0.0)||('using', 'verb', 'C1524063', ['ftcn'], 0.0)||('t - test', '', '', '', 0.0)||('.', '', '', '', 0.0)||
('preoperative', 'adj', 'C0445204', ['tmco'], 0.0)||('respiratory disturbance index', 'noun', 'C2111853', ['fndg'], 0.0)||('was', '', '', '', 0.0)||('40', '', '', '', 0.0)||('+', '', '', '', 0.0)||('/', '', '', '', 0.0)||('-', '', '', '', 0.0)||('4', '', '', '', 0.0)||('(', '', '', '', 0.0)||('normal', 'adj', 'C0205307', ['qlco'], 0.0)||('5', '', '', '', 0.0)||('events', 'noun', 'C0441471', ['evnt'], 0.0)||('/', '', '', '', 0.0)||('hour', 'noun', 'C0439227', ['tmco'], 0.0)||(',', '', '', '', 0.0)||('n =', '', '', '', 0.0)||('100', '', '', '', 0.0)||(')', '', '', '', 0.0)||('.', '', '', '', 0.0)||
('13', '', '', '', 0.0)||('patients', 'noun', 'C0030705', ['podg'], 0.0)||('had', '', '', '', 0.0)||('no', '', '', '', 0.0)||('obstructive sleep apnea', '', '', '', 0.0)||(',', '', '', '', 0.0)||('29', '', '', '', 0.0)||('had', '', '', '', 0.0)||('mild', 'adj', 'C0547040', ['qlco'], 0.0)||('obstructive sleep apnea', '', '', '', 0.0)||(',', '', '', '', 0.0)||('while', '', '', '', 0.0)||('the', '', '', '', 0.0)||('remaining', 'adj', 'C1527428', ['qlco'], 0.0)||('58', '', '', '', 0.0)||('patients', 'noun', 'C0030705', ['podg'], 0.0)||('were', '', '', '', 0.0)||('treated', 'verb', 'C1522326', ['ftcn'], 0.0)||('preoperatively', '', '', '', 0.0)||('for', '', '', '', 0.0)||('moderate', 'adj', 'C0205081', ['qlco'], 0.0)||('-', '', '', '', 0.0)||('severe', 'adj', 'C0205082', ['qlco'], 0.0)||('obstructive sleep apnea', '', '', '', 0.0)||('.', '', '', '', 0.0)||
('at', '', '', '', 0.0)||('a', '', '', '', 0.0)||('median', 'noun', 'C0549183', ['spco'], 0.0)||('of', '', '', '', 0.0)||('6', '', '', '', 0.0)||('months', 'noun', 'C0439231', ['tmco'], 0.0)||('follow - up', '', '', '', 0.0)||(',', '', '', '', 0.0)||('bmi', 'noun', 'C1305855', ['clna'], 0.0)||('and', '', '', '', 0.0)||('epworth sleepiness scale', '', '', '', 0.0)||('scores', 'noun', 'C0449820', ['qnco'], 0.0)||('improved', 'verb', 'C0184511', ['qlco'], 0.0)||('(', '', '', '', 0.0)||('38', '', '', '', 0.0)||('+', '', '', '', 0.0)||('/', '', '', '', 0.0)||('-', '', '', '', 0.0)||('1', '', '', '', 0.0)||('vs', '', '', '', 0.0)||('54', '', '', '', 0.0)||('+', '', '', '', 0.0)||('/', '', '', '', 0.0)||('-', '', '', '', 0.0)||('1', '', '', '', 0.0)||('kg', 'noun', 'C0022718', ['geoa'], 0.0)||('/', '', '', '', 0.0)||('m2', 'noun', 'C0457242', ['qnco'], 0.0)||(',', '', '', '', 0.0)||('6', '', '', '', 0.0)||('+', '', '', '', 0.0)||('/', '', '', '', 0.0)||('-', '', '', '', 0.0)||('1', '', '', '', 0.0)||('vs', '', '', '', 0.0)||('12', '', '', '', 0.0)||('+', '', '', '', 0.0)||('/', '', '', '', 0.0)||('-', '', '', '', 0.0)||('0 . 1', '', '', '', 0.0)||(',', '', '', '', 0.0)||('p', '', '', '', 0.0)||('<', '', '', '', 0.0)||('0 . 001', '', '', '', 0.0)||(',', '', '', '', 0.0)||('postoperatively', '', '', '', 0.0)||('vs', '', '', '', 0.0)||('preoperatively', '', '', '', 0.0)||(')', '', '', '', 0.0)||('.', '', '', '', 0.0)||
('to', '', '', '', 0.0)||('date', 'noun', 'C0011008', ['tmco'], 0.0)||(',', '', '', '', 0.0)||('11', '', '', '', 0.0)||('patients', 'noun', 'C0030705', ['podg'], 0.0)||('have', '', '', '', 0.0)||('completed', 'adj', 'C0205197', ['qlco'], 0.0)||('postoperative', 'adj', 'C0032790', ['tmco'], 0.0)||('polysomnography', 'noun', 'C0162701', ['diap'], 0.0)||('(', '', '', '', 0.0)||('3', '', '', '', 0.0)||('-', '', '', '', 0.0)||('21', '', '', '', 0.0)||('months', 'noun', 'C0439231', ['tmco'], 0.0)||(')', '', '', '', 0.0)||('after', '', '', '', 0.0)||('losing', '', '', '', 0.0)||('weight', 'noun', 'C0005910', ['orga'], 0.0)||('(', '', '', '', 0.0)||('bmi', 'noun', 'C1305855', ['clna'], 0.0)||('40', '', '', '', 0.0)||('+', '', '', '', 0.0)||('/', '', '', '', 0.0)||('-', '', '', '', 0.0)||('2', '', '', '', 0.0)||('vs', '', '', '', 0.0)||('62', '', '', '', 0.0)||('+', '', '', '', 0.0)||('/', '', '', '', 0.0)||('-', '', '', '', 0.0)||('3', '', '', '', 0.0)||('kg', 'noun', 'C0022718', ['geoa'], 0.0)||('/', '', '', '', 0.0)||('m2', 'noun', 'C0457242', ['qnco'], 0.0)||(',', '', '', '', 0.0)||('p', '', '', '', 0.0)||('<', '', '', '', 0.0)||('0 . 001', '', '', '', 0.0)||(')', '', '', '', 0.0)||('.', '', '', '', 0.0)||
('there', '', '', '', 0.0)||('was', '', '', '', 0.0)||('significant', 'adj', 'C0750502', ['idcn'], 0.0)||('improvement', '', '', '', 0.0)||('in', '', '', '', 0.0)||('epworth sleepiness scale', '', '', '', 0.0)||('(', '', '', '', 0.0)||('3', '', '', '', 0.0)||('+', '', '', '', 0.0)||('/', '', '', '', 0.0)||('-', '', '', '', 0.0)||('1', '', '', '', 0.0)||('vs', '', '', '', 0.0)||('14', '', '', '', 0.0)||('+', '', '', '', 0.0)||('/', '', '', '', 0.0)||('-', '', '', '', 0.0)||('2', '', '', '', 0.0)||(')', '', '', '', 0.0)||(',', '', '', '', 0.0)||('minimum', 'noun', 'C1524031', ['qlco'], 0.0)||('o2', 'noun', 'C0030054', ['elii', 'phsu'], 0.0)||('saturation', 'noun', 'C0522534', ['phpr'], 0.0)||('(', '', '', '', 0.0)||('spo2', '', '', '', 0.0)||('86', '', '', '', 0.0)||('+', '', '', '', 0.0)||('/', '', '', '', 0.0)||('-', '', '', '', 0.0)||('2', '', '', '', 0.0)||('vs', '', '', '', 0.0)||('77', '', '', '', 0.0)||('+', '', '', '', 0.0)||('/', '', '', '', 0.0)||('-', '', '', '', 0.0)||('5', '', '', '', 0.0)||(')', '', '', '', 0.0)||(',', '', '', '', 0.0)||('sleep', 'noun', 'C0037313', ['orgf'], 0.0)||('efficiency', 'noun', 'C0013682', ['qnco'], 0.0)||('(', '', '', '', 0.0)||('85', '', '', '', 0.0)||('+', '', '', '', 0.0)||('/', '', '', '', 0.0)||('-', '', '', '', 0.0)||('2 %', '', '', '', 0.0)||('vs', '', '', '', 0.0)||('65', '', '', '', 0.0)||('+', '', '', '', 0.0)||('/', '', '', '', 0.0)||('-', '', '', '', 0.0)||('5 %', '', '', '', 0.0)||(')', '', '', '', 0.0)||(',', '', '', '', 0.0)||('all', '', '', '', 0.0)||('p', '', '', '', 0.0)||('<', '', '', '', 0.0)||('0 . 001', '', '', '', 0.0)||(',', '', '', '', 0.0)||('postop', 'noun', 'C0445193', ['tmco'], 0.0)||('vs', '', '', '', 0.0)||('preop', 'noun', 'C1547580', ['inpr'], 0.0)||(';', '', '', '', 0.0)||
('and', '', '', '', 0.0)||('respiratory disturbance index', 'noun', 'C2111853', ['fndg'], 0.0)||('(', '', '', '', 0.0)||('56', '', '', '', 0.0)||('+', '', '', '', 0.0)||('/', '', '', '', 0.0)||('-', '', '', '', 0.0)||('13', '', '', '', 0.0)||('vs', '', '', '', 0.0)||('23', '', '', '', 0.0)||('+', '', '', '', 0.0)||('/', '', '', '', 0.0)||('-', '', '', '', 0.0)||('7', '', '', '', 0.0)||(',', '', '', '', 0.0)||('p', '', '', '', 0.0)||('=', '', '', '', 0.0)||('0 . 041', '', '', '', 0.0)||(')', '', '', '', 0.0)||('.', '', '', '', 0.0)||
('regression analysis', 'noun', 'C0034980', ['inpr'], 0.0)||('demonstrated', '', '', '', 0.0)||('no', '', '', '', 0.0)||('correlation', 'noun', 'C1707520', ['qlco'], 0.0)||('between', '', '', '', 0.0)||('preoperative', 'adj', 'C0445204', ['tmco'], 0.0)||('bmi', 'noun', 'C1305855', ['clna'], 0.0)||(',', '', '', '', 0.0)||('epworth sleepiness scale', '', '', '', 0.0)||('score', 'noun', 'C0449820', ['qnco'], 0.0)||('and', '', '', '', 0.0)||('the', '', '', '', 0.0)||('severity', 'noun', 'C0439793', ['qlco'], 0.0)||('of', '', '', '', 0.0)||('obstructive sleep apnea', '', '', '', 0.0)||(';', '', '', '', 0.0)||
('and', '', '', '', 0.0)||('no', '', '', '', 0.0)||('correlation', 'noun', 'C1707520', ['qlco'], 0.0)||('between', '', '', '', 0.0)||('%', '', '', '', 0.0)||('excess', 'noun', 'C1979886', ['qlco'], 0.0)||('body weight', 'noun', 'C0005910', ['orga'], 0.0)||('loss', 'noun', 'C1517945', ['qnco'], 0.0)||('and', '', '', '', 0.0)||('postoperative', 'adj', 'C0032790', ['tmco'], 0.0)||('respiratory disturbance index', 'noun', 'C2111853', ['fndg'], 0.0)||('.', '', '', '', 0.0)||
('weight loss', '', '', '', 0.0)||('following', '', '', '', 0.0)||('gastric bypass', 'noun', 'C0017125', ['topp'], 0.0)||('results', 'verb', 'C1274040', ['ftcn'], 0.0)||('in', '', '', '', 0.0)||('profound', 'adj', 'C0439808', ['qlco'], 0.0)||('improvement', '', '', '', 0.0)||('in', '', '', '', 0.0)||('obstructive sleep apnea', '', '', '', 0.0)||('.', '', '', '', 0.0)||
('the', '', '', '', 0.0)||('severity', 'noun', 'C0439793', ['qlco'], 0.0)||('of', '', '', '', 0.0)||('apnea', 'noun', 'C1963065', ['fndg'], 0.0)||('cannot', '', '', '', 0.0)||('be', '', '', '', 0.0)||('reliably', '', '', '', 0.0)||('predicted', 'verb', 'C0681842', ['idcn'], 0.0)||('by', '', '', '', 0.0)||('preoperative', 'adj', 'C0445204', ['tmco'], 0.0)||('bmi', 'noun', 'C1305855', ['clna'], 0.0)||('and', '', '', '', 0.0)||('epworth sleepiness scale', '', '', '', 0.0)||(';', '', '', '', 0.0)||
('therefore', '', '', '', 0.0)||(',', '', '', '', 0.0)||('patients', 'noun', 'C0030705', ['podg'], 0.0)||('with', '', '', '', 0.0)||('symptoms', 'noun', 'C0683368', ['ftcn'], 0.0)||('of', '', '', '', 0.0)||('obstructive sleep apnea', '', '', '', 0.0)||('should', '', '', '', 0.0)||('undergo', '', '', '', 0.0)||('polysomnography', 'noun', 'C0162701', ['diap'], 0.0)||('.', '', '', '', 0.0)||
