('obesity', 'noun', 'C0028754', ['dsyn'], 0.0)||('is', '', '', '', 0.0)||('associated', 'verb', 'C0332281', ['qlco'], 0.0)||('with', '', '', '', 0.0)||('increased', 'adj', 'C0205217', ['qnco'], 0.0)||('morbidity', 'noun', 'C0026538', ['qnco'], 0.0)||('and', '', '', '', 0.0)||('mortality', 'noun', 'C0026565', ['qnco'], 0.0)||('.', '', '', '', 0.0)||
('surgery', 'noun', 'C0038894', ['bmod'], 0.0)||('for', '', '', '', 0.0)||('morbid obesity', '', '', '', 0.0)||('may', '', '', '', 0.0)||('be', '', '', '', 0.0)||('considered', '', '', '', 0.0)||('when', '', '', '', 0.0)||('other', '', '', '', 0.0)||('conventional', 'adj', 'C0439858', ['qlco'], 0.0)||('measures', 'noun', 'C0079809', ['qnco'], 0.0)||('have', '', '', '', 0.0)||('failed', 'verb', 'C0231175', ['ftcn'], 0.0)||(',', '', '', '', 0.0)||('and', '', '', '', 0.0)||('a', '', '', '', 0.0)||('number', 'noun', 'C0449788', ['qnco'], 0.0)||('of', '', '', '', 0.0)||('procedures', 'noun', 'C0025664', ['inpr'], 0.0)||('are', '', '', '', 0.0)||('available', 'adj', 'C0470187', ['ftcn'], 0.0)||('.', '', '', '', 0.0)||
('however', '', '', '', 0.0)||(',', '', '', '', 0.0)||('the', '', '', '', 0.0)||('effects', '', '', '', 0.0)||('of', '', '', '', 0.0)||('these', '', '', '', 0.0)||('surgical', 'adj', 'C0543467', ['topp'], 0.0)||('procedures', 'noun', 'C0025664', ['inpr'], 0.0)||('compared', 'verb', 'C1707455', ['acty'], 0.0)||('with', '', '', '', 0.0)||('medical', 'adj', 'C0205476', ['ftcn'], 0.0)||('management', 'noun', 'C0001554', ['ocac'], 0.0)||('and', '', '', '', 0.0)||('with', '', '', '', 0.0)||('each other', '', '', '', 0.0)||('are', '', '', '', 0.0)||('uncertain', 'adj', 'C0087130', ['idcn'], 0.0)||('.', '', '', '', 0.0)||
('to', '', '', '', 0.0)||('assess', 'verb', 'C1516048', ['acty'], 0.0)||('the', '', '', '', 0.0)||('effects', '', '', '', 0.0)||('of', '', '', '', 0.0)||('surgery', 'noun', 'C0038894', ['bmod'], 0.0)||('for', '', '', '', 0.0)||('morbid obesity', '', '', '', 0.0)||('on', '', '', '', 0.0)||('weight', 'noun', 'C0005910', ['orga'], 0.0)||(',', '', '', '', 0.0)||('comorbidities', 'noun', 'C0009488', ['idcn'], 0.0)||('and', '', '', '', 0.0)||('quality', 'noun', 'C0332306', ['qlco'], 0.0)||('of', '', '', '', 0.0)||('life', 'noun', 'C0376558', ['idcn'], 0.0)||('.', '', '', '', 0.0)||
('we', '', '', '', 0.0)||('searched', 'verb', 'C1706202', ['acty'], 0.0)||('the', '', '', '', 0.0)||('cochrane', '', '', '', 0.0)||('controlled', 'adj', 'C2587213', ['ftcn'], 0.0)||('trials', '', '', '', 0.0)||('register', '', '', '', 0.0)||('(', '', '', '', 0.0)||('issue', 'noun', 'C0033213', ['fndg'], 0.0)||('4', '', '', '', 0.0)||(',', '', '', '', 0.0)||('2001', '', '', '', 0.0)||(')', '', '', '', 0.0)||(',', '', '', '', 0.0)||('medline', 'noun', 'C0025141', ['inpr'], 0.0)||('(', '', '', '', 0.0)||('silverplatter', '', '', '', 0.0)||(')', '', '', '', 0.0)||('up to', '', '', '', 0.0)||('2001', '', '', '', 0.0)||(',', '', '', '', 0.0)||('pubmed', 'noun', 'C1138432', ['inpr'], 0.0)||('(', '', '', '', 0.0)||('internet', 'noun', 'C0282111', ['mnob'], 0.0)||(')', '', '', '', 0.0)||('01 / 01', '', '', '', 0.0)||('/', '', '', '', 0.0)||('01', '', '', '', 0.0)||('-', '', '', '', 0.0)||('19 / 10', '', '', '', 0.0)||('/', '', '', '', 0.0)||('01', '', '', '', 0.0)||(',', '', '', '', 0.0)||('embase', '', '', '', 0.0)||('(', '', '', '', 0.0)||('silverplatter', '', '', '', 0.0)||(')', '', '', '', 0.0)||('up to', '', '', '', 0.0)||('09 / 2001', '', '', '', 0.0)||(',', '', '', '', 0.0)||('psychinfo', '', '', '', 0.0)||('up to', '', '', '', 0.0)||('10 / 2001', '', '', '', 0.0)||(',', '', '', '', 0.0)||('cinahl', '', '', '', 0.0)||('(', '', '', '', 0.0)||('silverplatter', '', '', '', 0.0)||(')', '', '', '', 0.0)||('up to', '', '', '', 0.0)||('07 / 2001', '', '', '', 0.0)||(',', '', '', '', 0.0)||('science', 'noun', 'C0036397', ['ocdi'], 0.0)||('and', '', '', '', 0.0)||('social sciences', 'noun', 'C0037434', ['ocdi'], 0.0)||('citation', 'noun', 'C0552371', ['inpr'], 0.0)||('index', 'noun', 'C0918012', ['inpr'], 0.0)||('up to', '', '', '', 0.0)||('10 / 12001', '', '', '', 0.0)||(',', '', '', '', 0.0)||('british', 'adj', 'C0596227', ['popg'], 0.0)||('nursing', 'adj', 'C0006147', ['orgf'], 0.0)||('index', 'noun', 'C0918012', ['inpr'], 0.0)||('up to', '', '', '', 0.0)||('07 / 2001', '', '', '', 0.0)||(',', '', '', '', 0.0)||('web', 'noun', 'C0282111', ['mnob'], 0.0)||('of', '', '', '', 0.0)||('science', 'noun', 'C0036397', ['ocdi'], 0.0)||('proceedings', '', '', '', 0.0)||('up to', '', '', '', 0.0)||('06 / 2001', '', '', '', 0.0)||(',', '', '', '', 0.0)||('biosis', '', '', '', 0.0)||('up', '', '', '', 0.0)||('to10', '', '', '', 0.0)||('/', '', '', '', 0.0)||('2001', '', '', '', 0.0)||(',', '', '', '', 0.0)||('amed', '', '', '', 0.0)||('up to', '', '', '', 0.0)||('07 / 2001', '', '', '', 0.0)||(',', '', '', '', 0.0)||('national', '', '', '', 0.0)||('research', 'noun', 'C0035168', ['resa'], 0.0)||('register', '', '', '', 0.0)||('(', '', '', '', 0.0)||('issue', 'noun', 'C0033213', ['fndg'], 0.0)||('2', '', '', '', 0.0)||(',', '', '', '', 0.0)||('2001', '', '', '', 0.0)||(')', '', '', '', 0.0)||(',', '', '', '', 0.0)||('reference', 'noun', 'C1514811', ['idcn'], 0.0)||('lists', '', '', '', 0.0)||('of', '', '', '', 0.0)||('relevant', 'adj', 'C2347946', ['qlco'], 0.0)||('articles', '', '', '', 0.0)||(',', '', '', '', 0.0)||('and', '', '', '', 0.0)||('handsearched', '', '', '', 0.0)||('relevant', 'adj', 'C2347946', ['qlco'], 0.0)||('journals', '', '', '', 0.0)||('.', '', '', '', 0.0)||
('we', '', '', '', 0.0)||('also', '', '', '', 0.0)||('contacted', '', '', '', 0.0)||('experts', '', '', '', 0.0)||('in the field', '', '', '', 0.0)||('.', '', '', '', 0.0)||
('date', 'noun', 'C0011008', ['tmco'], 0.0)||('of', '', '', '', 0.0)||('the', '', '', '', 0.0)||('most', '', '', '', 0.0)||('recent', 'adj', 'C0332185', ['tmco'], 0.0)||('searches', '', '', '', 0.0)||(':', '', '', '', 0.0)||('october', '', '', '', 0.0)||('2001', '', '', '', 0.0)||('.', '', '', '', 0.0)||
('randomised controlled trials', '', '', '', 0.0)||('comparing', '', '', '', 0.0)||('different', 'adj', 'C1705242', ['qlco'], 0.0)||('surgical', 'adj', 'C0543467', ['topp'], 0.0)||('procedures', 'noun', 'C0025664', ['inpr'], 0.0)||(',', '', '', '', 0.0)||('and', '', '', '', 0.0)||('randomised controlled trials', '', '', '', 0.0)||('and', '', '', '', 0.0)||('non - randomised', '', '', '', 0.0)||('controlled', 'adj', 'C2587213', ['ftcn'], 0.0)||('trials', '', '', '', 0.0)||('comparing', '', '', '', 0.0)||('surgery', 'noun', 'C0038894', ['bmod'], 0.0)||('with', '', '', '', 0.0)||('non - surgical', '', '', '', 0.0)||('management', 'noun', 'C0001554', ['ocac'], 0.0)||('for', '', '', '', 0.0)||('morbid obesity', '', '', '', 0.0)||('.', '', '', '', 0.0)||
('data', 'noun', 'C1511726', ['idcn'], 0.0)||('were', '', '', '', 0.0)||('extracted', 'verb', 'C0185115', ['topp'], 0.0)||('by', '', '', '', 0.0)||('one', 'noun', 'C0205447', ['qnco'], 0.0)||('reviewer', 'noun', 'C1709941', ['qlco'], 0.0)||('and', '', '', '', 0.0)||('checked', '', '', '', 0.0)||('independently', '', '', '', 0.0)||('by', '', '', '', 0.0)||('two', 'adj', 'C0205448', ['qnco'], 0.0)||('reviewers', '', '', '', 0.0)||('.', '', '', '', 0.0)||
('two', 'noun', 'C0205448', ['qnco'], 0.0)||('reviewers', '', '', '', 0.0)||('independently', '', '', '', 0.0)||('assessed', 'adj', 'C1516048', ['acty'], 0.0)||('trial', 'noun', 'C0008976', ['resa'], 0.0)||('quality', 'noun', 'C0332306', ['qlco'], 0.0)||('.', '', '', '', 0.0)||
('18', '', '', '', 0.0)||('trials', '', '', '', 0.0)||('involving', 'verb', 'C1314939', ['ftcn'], 0.0)||('1891', '', '', '', 0.0)||('people', 'noun', 'C0027361', ['popg'], 0.0)||('were', '', '', '', 0.0)||('included', '', '', '', 0.0)||('.', '', '', '', 0.0)||
('one', 'noun', 'C0205447', ['qnco'], 0.0)||('randomised controlled trial', '', '', '', 0.0)||('and', '', '', '', 0.0)||('one', 'noun', 'C0205447', ['qnco'], 0.0)||('non - randomised', '', '', '', 0.0)||('controlled', 'adj', 'C2587213', ['ftcn'], 0.0)||('trial', 'noun', 'C0008976', ['resa'], 0.0)||('compared', 'verb', 'C1707455', ['acty'], 0.0)||('surgery', 'noun', 'C0038894', ['bmod'], 0.0)||('with', '', '', '', 0.0)||('non - surgical', '', '', '', 0.0)||('management', 'noun', 'C0001554', ['ocac'], 0.0)||(',', '', '', '', 0.0)||('and', '', '', '', 0.0)||('11', '', '', '', 0.0)||('randomised controlled trials', '', '', '', 0.0)||('compared', 'verb', 'C1707455', ['acty'], 0.0)||('different', 'adj', 'C1705242', ['qlco'], 0.0)||('surgical', 'adj', 'C0543467', ['topp'], 0.0)||('procedures', 'noun', 'C0025664', ['inpr'], 0.0)||('.', '', '', '', 0.0)||
('the', '', '', '', 0.0)||('overall', 'adj', 'C0282416', ['inpr'], 0.0)||('quality', 'noun', 'C0332306', ['qlco'], 0.0)||('of', '', '', '', 0.0)||('the', '', '', '', 0.0)||('trials', '', '', '', 0.0)||('was', '', '', '', 0.0)||('variable', 'adj', 'C0439828', ['qlco'], 0.0)||(',', '', '', '', 0.0)||('with', '', '', '', 0.0)||('just', '', '', '', 0.0)||('one', 'noun', 'C0205447', ['qnco'], 0.0)||('trial', 'noun', 'C0008976', ['resa'], 0.0)||('having', '', '', '', 0.0)||('adequate', 'adj', 'C0205410', ['qlco'], 0.0)||('allocation', 'noun', 'C1706778', ['acty'], 0.0)||('concealment', '', '', '', 0.0)||('.', '', '', '', 0.0)||
('a', '', '', '', 0.0)||('meta - analysis', '', '', '', 0.0)||('was', '', '', '', 0.0)||('not', 'adv', 'C1518422', ['ftcn'], 0.0)||('possible', 'adj', 'C0332149', ['qlco'], 0.0)||('due to', '', '', '', 0.0)||('differences', '', '', '', 0.0)||('in', '', '', '', 0.0)||('the', '', '', '', 0.0)||('surgical', 'adj', 'C0543467', ['topp'], 0.0)||('procedures', 'noun', 'C0025664', ['inpr'], 0.0)||('performed', 'verb', 'C0884358', ['ftcn'], 0.0)||(',', '', '', '', 0.0)||('measures', 'verb', 'C0079809', ['qnco'], 0.0)||('of', '', '', '', 0.0)||('weight', 'noun', 'C0005910', ['orga'], 0.0)||('change', 'noun', 'C0392747', ['ftcn'], 0.0)||('and', '', '', '', 0.0)||('length', 'noun', 'C1444754', ['qnco'], 0.0)||('of', '', '', '', 0.0)||('follow - up', '', '', '', 0.0)||('.', '', '', '', 0.0)||
('compared', 'verb', 'C1707455', ['acty'], 0.0)||('with', '', '', '', 0.0)||('conventional', 'adj', 'C0439858', ['qlco'], 0.0)||('management', 'noun', 'C0001554', ['ocac'], 0.0)||(',', '', '', '', 0.0)||('surgery', 'noun', 'C0038894', ['bmod'], 0.0)||('resulted', '', '', '', 0.0)||('in', '', '', '', 0.0)||('greater', 'adj', 'C1704243', ['qnco'], 0.0)||('weight loss', '', '', '', 0.0)||('(', '', '', '', 0.0)||('23', '', '', '', 0.0)||('-', '', '', '', 0.0)||('28', '', '', '', 0.0)||('kg', 'noun', 'C0022718', ['geoa'], 0.0)||('more', '', '', '', 0.0)||('weight loss', '', '', '', 0.0)||('at', '', '', '', 0.0)||('two', 'adj', 'C0205448', ['qnco'], 0.0)||('years', 'noun', 'C0439234', ['tmco'], 0.0)||(')', '', '', '', 0.0)||(',', '', '', '', 0.0)||('with', '', '', '', 0.0)||('improvements', '', '', '', 0.0)||('in', '', '', '', 0.0)||('quality', 'noun', 'C0332306', ['qlco'], 0.0)||('of', '', '', '', 0.0)||('life', 'noun', 'C0376558', ['idcn'], 0.0)||('and', '', '', '', 0.0)||('comorbidities', 'noun', 'C0009488', ['idcn'], 0.0)||('.', '', '', '', 0.0)||
('some', '', '', '', 0.0)||('complications', 'noun', 'C0009566', ['patf'], 0.0)||('of', '', '', '', 0.0)||('surgery', 'noun', 'C0038894', ['bmod'], 0.0)||('occurred', 'verb', 'C1709305', ['cnce'], 0.0)||(',', '', '', '', 0.0)||('such as', '', '', '', 0.0)||('wound infection', 'noun', 'C0043241', ['patf'], 0.0)||('.', '', '', '', 0.0)||
('gastric bypass', 'noun', 'C0017125', ['topp'], 0.0)||('was', '', '', '', 0.0)||('associated', 'verb', 'C0332281', ['qlco'], 0.0)||('with', '', '', '', 0.0)||('greater', 'adj', 'C1704243', ['qnco'], 0.0)||('weight loss', '', '', '', 0.0)||('and', '', '', '', 0.0)||('fewer', '', '', '', 0.0)||('revisions', 'noun', 'C0439616', ['tmco'], 0.0)||(',', '', '', '', 0.0)||('reoperations', '', '', '', 0.0)||('and / or', '', '', '', 0.0)||('conversions', 'noun', 'C0439836', ['ftcn'], 0.0)||('than', '', '', '', 0.0)||('gastroplasty', 'noun', 'C0017193', ['topp'], 0.0)||(',', '', '', '', 0.0)||('but', '', '', '', 0.0)||('had', '', '', '', 0.0)||('more', '', '', '', 0.0)||('side - effects', '', '', '', 0.0)||('.', '', '', '', 0.0)||
('greater', 'adj', 'C1704243', ['qnco'], 0.0)||('weight loss', '', '', '', 0.0)||('and', '', '', '', 0.0)||('fewer', '', '', '', 0.0)||('side - effects', '', '', '', 0.0)||('and', '', '', '', 0.0)||('reoperations', '', '', '', 0.0)||('occurred', 'verb', 'C1709305', ['cnce'], 0.0)||('with', '', '', '', 0.0)||('adjustable', '', '', '', 0.0)||('gastric', 'adj', 'C0038351', ['bpoc'], 0.0)||('banding', 'noun', 'C0185014', ['topp'], 0.0)||('than', '', '', '', 0.0)||('vertical banded gastroplasty', '', '', '', 0.0)||(',', '', '', '', 0.0)||('while', '', '', '', 0.0)||('vertical banded gastroplasty', '', '', '', 0.0)||('was', '', '', '', 0.0)||('associated', 'verb', 'C0332281', ['qlco'], 0.0)||('with', '', '', '', 0.0)||('greater', 'adj', 'C1704243', ['qnco'], 0.0)||('weight loss', '', '', '', 0.0)||('but', '', '', '', 0.0)||('more', '', '', '', 0.0)||('vomiting', 'noun', 'C0042963', ['sosy'], 0.0)||('than', '', '', '', 0.0)||('horizontal', 'adj', 'C0205126', ['spco'], 0.0)||('gastroplasty', 'noun', 'C0017193', ['topp'], 0.0)||('.', '', '', '', 0.0)||
('some', '', '', '', 0.0)||('postoperative', 'adj', 'C0032790', ['tmco'], 0.0)||('deaths', 'noun', 'C1306577', ['fndg'], 0.0)||('occurred', 'verb', 'C1709305', ['cnce'], 0.0)||('in', '', '', '', 0.0)||('the', '', '', '', 0.0)||('studies', '', '', '', 0.0)||('.', '', '', '', 0.0)||
('weight loss', '', '', '', 0.0)||('was', '', '', '', 0.0)||('similar', 'adj', 'C2348205', ['qlco'], 0.0)||('between', '', '', '', 0.0)||('open', 'adj', 'C0175566', ['spco'], 0.0)||('and', '', '', '', 0.0)||('laparoscopic', 'adj', 'C0031150', ['diap'], 0.0)||('procedures', 'noun', 'C0025664', ['inpr'], 0.0)||('.', '', '', '', 0.0)||
('fewer', '', '', '', 0.0)||('serious', 'adj', 'C0205404', ['qlco'], 0.0)||('complications', 'noun', 'C0009566', ['patf'], 0.0)||('occurred', 'verb', 'C1709305', ['cnce'], 0.0)||('with', '', '', '', 0.0)||('laparoscopic', 'adj', 'C0031150', ['diap'], 0.0)||('surgery', 'noun', 'C0038894', ['bmod'], 0.0)||('.', '', '', '', 0.0)||
('laparoscopic', 'adj', 'C0031150', ['diap'], 0.0)||('surgery', 'noun', 'C0038894', ['bmod'], 0.0)||('had', '', '', '', 0.0)||('a', '', '', '', 0.0)||('longer', '', '', '', 0.0)||('operative time', '', '', '', 0.0)||(',', '', '', '', 0.0)||('but', '', '', '', 0.0)||('resulted', '', '', '', 0.0)||('in', '', '', '', 0.0)||('reduced', 'adj', 'C0392756', ['qlco'], 0.0)||('blood loss', 'noun', 'C0019080', ['fndg'], 0.0)||(',', '', '', '', 0.0)||('reduced', 'adj', 'C0392756', ['qlco'], 0.0)||('proportion', 'noun', 'C1709707', ['qnco'], 0.0)||('of', '', '', '', 0.0)||('patients', 'noun', 'C0030705', ['podg'], 0.0)||('requiring', '', '', '', 0.0)||('intensive care unit', 'noun', 'C0021708', ['hcro', 'mnob'], 0.0)||('stay', '', '', '', 0.0)||(',', '', '', '', 0.0)||('reduced', 'adj', 'C0392756', ['qlco'], 0.0)||('length', 'noun', 'C1444754', ['qnco'], 0.0)||('of', '', '', '', 0.0)||('hospital', 'noun', 'C0019994', ['hcro', 'mnob'], 0.0)||('stay', '', '', '', 0.0)||(',', '', '', '', 0.0)||('reduced', 'adj', 'C0392756', ['qlco'], 0.0)||('days', 'noun', 'C0439228', ['tmco'], 0.0)||('to', '', '', '', 0.0)||('return', 'verb', 'C0332156', ['qlco'], 0.0)||('to', '', '', '', 0.0)||('activities', 'noun', 'C0441655', ['acty'], 0.0)||('of', '', '', '', 0.0)||('daily', 'adj', 'C0332173', ['tmco'], 0.0)||('living', 'noun', 'C0376558', ['idcn'], 0.0)||('and', '', '', '', 0.0)||('reduced', 'adj', 'C0392756', ['qlco'], 0.0)||('days', 'noun', 'C0439228', ['tmco'], 0.0)||('to', '', '', '', 0.0)||('return', 'verb', 'C0332156', ['qlco'], 0.0)||('to', '', '', '', 0.0)||('work', 'verb', 'C0043227', ['ocac'], 0.0)||('.', '', '', '', 0.0)||
('the', '', '', '', 0.0)||('limited', 'adj', 'C0439801', ['ftcn'], 0.0)||('evidence', 'noun', 'C0332120', ['ftcn'], 0.0)||('suggests', '', '', '', 0.0)||('that', '', '', '', 0.0)||('surgery', 'noun', 'C0038894', ['bmod'], 0.0)||('is', '', '', '', 0.0)||('more', '', '', '', 0.0)||('effective', 'adj', 'C1704419', ['qlco'], 0.0)||('than', '', '', '', 0.0)||('conventional', 'adj', 'C0439858', ['qlco'], 0.0)||('management', 'noun', 'C0001554', ['ocac'], 0.0)||('for', '', '', '', 0.0)||('weight loss', '', '', '', 0.0)||('in', '', '', '', 0.0)||('morbid obesity', '', '', '', 0.0)||('.', '', '', '', 0.0)||
('the', '', '', '', 0.0)||('comparative', '', '', '', 0.0)||('safety', 'noun', 'C0036043', ['hcpp'], 0.0)||('and', '', '', '', 0.0)||('effectiveness', 'noun', 'C1280519', ['qlco'], 0.0)||('of', '', '', '', 0.0)||('different', 'adj', 'C1705242', ['qlco'], 0.0)||('surgical', 'adj', 'C0543467', ['topp'], 0.0)||('procedures', 'noun', 'C0025664', ['inpr'], 0.0)||('is', '', '', '', 0.0)||('unclear', '', '', '', 0.0)||('.', '', '', '', 0.0)||
