('hmg - coa reductase', '', '', '', 0.0)||('inhibitors', 'noun', 'C0243077', ['chvf'], 0.0)||('(', '', '', '', 0.0)||('statins', 'noun', 'C0360714', ['orch', 'phsu'], 0.0)||(')', '', '', '', 0.0)||('reduce', '', '', '', 0.0)||('cardiac event rates', '', '', '', 0.0)||('in', '', '', '', 0.0)||('patients', 'noun', 'C0030705', ['podg'], 0.0)||('with', '', '', '', 0.0)||('stable', 'adj', 'C0205360', ['qlco'], 0.0)||('coronary heart disease', 'noun', 'C0010068', ['dsyn'], 0.0)||('.', '', '', '', 0.0)||
('withdrawal', 'noun', 'C0237955', ['menp'], 0.0)||('of', '', '', '', 0.0)||('chronic', 'adj', 'C0205191', ['tmco'], 0.0)||('statin', 'noun', 'C0360714', ['orch', 'phsu'], 0.0)||('treatment', 'noun', 'C0039798', ['ftcn'], 0.0)||('during', '', '', '', 0.0)||('acute', 'adj', 'C0205178', ['tmco'], 0.0)||('coronary', 'adj', 'C0018787', ['bpoc'], 0.0)||('syndromes', 'noun', 'C0039082', ['dsyn'], 0.0)||('may', '', '', '', 0.0)||('impair', '', '', '', 0.0)||('vascular function', 'noun', 'C0232337', ['clna'], 0.0)||('independent of', '', '', '', 0.0)||('lipid', 'noun', 'C0023779', ['lipd'], 0.0)||('-', '', '', '', 0.0)||('lowering', 'adj', 'C2003888', ['ftcn'], 0.0)||('effects', '', '', '', 0.0)||('and', '', '', '', 0.0)||('thus', '', '', '', 0.0)||('increase', 'verb', 'C0442805', ['ftcn'], 0.0)||('cardiac event rate', '', '', '', 0.0)||('.', '', '', '', 0.0)||
('we', '', '', '', 0.0)||('investigated', '', '', '', 0.0)||('the', '', '', '', 0.0)||('effects', '', '', '', 0.0)||('of', '', '', '', 0.0)||('statins', 'noun', 'C0360714', ['orch', 'phsu'], 0.0)||('on', '', '', '', 0.0)||('the', '', '', '', 0.0)||('cardiac event rate', '', '', '', 0.0)||('in', '', '', '', 0.0)||('1616', '', '', '', 0.0)||('patients', 'noun', 'C0030705', ['podg'], 0.0)||('of', '', '', '', 0.0)||('the', '', '', '', 0.0)||('platelet', 'noun', 'C0005821', ['cell'], 0.0)||('receptor', 'noun', 'C0597357', ['aapp', 'rcpt'], 0.0)||('inhibition', 'noun', 'C0021467', ['menp'], 0.0)||('in', '', '', '', 0.0)||('ischemic', '', '', '', 0.0)||('syndrome', 'noun', 'C0039082', ['dsyn'], 0.0)||('management', 'noun', 'C0001554', ['ocac'], 0.0)||('study', 'noun', 'C0008976', ['resa'], 0.0)||('who', '', '', '', 0.0)||('had', '', '', '', 0.0)||('coronary artery disease', 'noun', 'C0010068', ['dsyn'], 0.0)||('and', '', '', '', 0.0)||('chest pain', 'noun', 'C0008031', ['sosy'], 0.0)||('in', '', '', '', 0.0)||('the', '', '', '', 0.0)||('previous', 'adj', 'C0205156', ['tmco'], 0.0)||('24', '', '', '', 0.0)||('hours', 'noun', 'C0439227', ['tmco'], 0.0)||('.', '', '', '', 0.0)||
('we', '', '', '', 0.0)||('recorded', '', '', '', 0.0)||('death', 'noun', 'C0011065', ['orgf'], 0.0)||('and', '', '', '', 0.0)||('nonfatal', '', '', '', 0.0)||('myocardial infarction', 'noun', 'C0027051', ['dsyn'], 0.0)||('during', '', '', '', 0.0)||('the', '', '', '', 0.0)||('30', '', '', '', 0.0)||('-', '', '', '', 0.0)||('day', 'noun', 'C0439228', ['tmco'], 0.0)||('follow - up', '', '', '', 0.0)||('.', '', '', '', 0.0)||
('baseline', 'noun', 'C0168634', ['bodm'], 0.0)||('clinical', 'adj', 'C0205210', ['qlco'], 0.0)||('characteristics', 'noun', 'C1521970', ['qlco'], 0.0)||('did', '', '', '', 0.0)||('not', 'adv', 'C1518422', ['ftcn'], 0.0)||('differ', '', '', '', 0.0)||('among', '', '', '', 0.0)||('1249', '', '', '', 0.0)||('patients', 'noun', 'C0030705', ['podg'], 0.0)||('without', '', '', '', 0.0)||('statin', 'noun', 'C0360714', ['orch', 'phsu'], 0.0)||('therapy', 'noun', 'C0039798', ['ftcn'], 0.0)||(',', '', '', '', 0.0)||('379', '', '', '', 0.0)||('patients', 'noun', 'C0030705', ['podg'], 0.0)||('with', '', '', '', 0.0)||('continued', 'adj', 'C0549178', ['idcn'], 0.0)||('statin', 'noun', 'C0360714', ['orch', 'phsu'], 0.0)||('therapy', 'noun', 'C0039798', ['ftcn'], 0.0)||(',', '', '', '', 0.0)||('and', '', '', '', 0.0)||('86', '', '', '', 0.0)||('patients', 'noun', 'C0030705', ['podg'], 0.0)||('with', '', '', '', 0.0)||('discontinued', 'adj', 'C1444662', ['fndg'], 0.0)||('statin', 'noun', 'C0360714', ['orch', 'phsu'], 0.0)||('therapy', 'noun', 'C0039798', ['ftcn'], 0.0)||('after', '', '', '', 0.0)||('hospitalization', '', '', '', 0.0)||('.', '', '', '', 0.0)||
('statin', 'noun', 'C0360714', ['orch', 'phsu'], 0.0)||('therapy', 'noun', 'C0039798', ['ftcn'], 0.0)||('was', '', '', '', 0.0)||('associated', 'verb', 'C0332281', ['qlco'], 0.0)||('with', '', '', '', 0.0)||('a', '', '', '', 0.0)||('reduced', 'adj', 'C0392756', ['qlco'], 0.0)||('event', 'noun', 'C0441471', ['evnt'], 0.0)||('rate', 'noun', 'C0871208', ['acty'], 0.0)||('at', '', '', '', 0.0)||('30', '', '', '', 0.0)||('-', '', '', '', 0.0)||('day', 'noun', 'C0439228', ['tmco'], 0.0)||('follow - up', '', '', '', 0.0)||('compared', 'verb', 'C1707455', ['acty'], 0.0)||('with', '', '', '', 0.0)||('patients', 'noun', 'C0030705', ['podg'], 0.0)||('without', '', '', '', 0.0)||('statins', 'noun', 'C0360714', ['orch', 'phsu'], 0.0)||('(', '', '', '', 0.0)||('adjusted', 'adj', 'C0456081', ['ftcn'], 0.0)||('hazard ratio', '', '', '', 0.0)||(',', '', '', '', 0.0)||('0 . 49', '', '', '', 0.0)||('[', '', '', '', 0.0)||('95 %', '', '', '', 0.0)||('ci', 'noun', 'C1417638', ['gngm'], 0.0)||(',', '', '', '', 0.0)||('0 . 21', '', '', '', 0.0)||('to', '', '', '', 0.0)||('0 . 86', '', '', '', 0.0)||(']', '', '', '', 0.0)||(';', '', '', '', 0.0)||('p', '', '', '', 0.0)||('=', '', '', '', 0.0)||('0 . 004', '', '', '', 0.0)||(')', '', '', '', 0.0)||('.', '', '', '', 0.0)||
('if', '', '', '', 0.0)||('the', '', '', '', 0.0)||('statin', 'noun', 'C0360714', ['orch', 'phsu'], 0.0)||('therapy', 'noun', 'C0039798', ['ftcn'], 0.0)||('was', '', '', '', 0.0)||('withdrawn', 'verb', 'C0237955', ['menp'], 0.0)||('after', '', '', '', 0.0)||('admission', 'noun', 'C0809949', ['hlca'], 0.0)||(',', '', '', '', 0.0)||('cardiac', 'adj', 'C0018787', ['bpoc'], 0.0)||('risk', 'noun', 'C0035647', ['qlco'], 0.0)||('increased', 'verb', 'C0205217', ['qnco'], 0.0)||('compared', 'verb', 'C1707455', ['acty'], 0.0)||('with', '', '', '', 0.0)||('patients', 'noun', 'C0030705', ['podg'], 0.0)||('who', '', '', '', 0.0)||('continued', 'verb', 'C0549178', ['idcn'], 0.0)||('to', '', '', '', 0.0)||('receive', 'verb', 'C1514756', ['qlco'], 0.0)||('statins', 'noun', 'C0360714', ['orch', 'phsu'], 0.0)||('(', '', '', '', 0.0)||('2 . 93', '', '', '', 0.0)||('[', '', '', '', 0.0)||('95 %', '', '', '', 0.0)||('ci', 'noun', 'C1417638', ['gngm'], 0.0)||(',', '', '', '', 0.0)||('1 . 64', '', '', '', 0.0)||('to', '', '', '', 0.0)||('6 . 27', '', '', '', 0.0)||(']', '', '', '', 0.0)||(';', '', '', '', 0.0)||('p', '', '', '', 0.0)||('=', '', '', '', 0.0)||('0 . 005', '', '', '', 0.0)||(')', '', '', '', 0.0)||('and', '', '', '', 0.0)||('tended', '', '', '', 0.0)||('to', '', '', '', 0.0)||('be', '', '', '', 0.0)||('higher', '', '', '', 0.0)||('compared', 'verb', 'C1707455', ['acty'], 0.0)||('with', '', '', '', 0.0)||('patients', 'noun', 'C0030705', ['podg'], 0.0)||('who', '', '', '', 0.0)||('never', 'adv', 'C2003901', ['tmco'], 0.0)||('received', 'adj', 'C1514756', ['qlco'], 0.0)||('statins', 'noun', 'C0360714', ['orch', 'phsu'], 0.0)||('(', '', '', '', 0.0)||('1 . 69', '', '', '', 0.0)||('[', '', '', '', 0.0)||('95 %', '', '', '', 0.0)||('ci', 'noun', 'C1417638', ['gngm'], 0.0)||(',', '', '', '', 0.0)||('0 . 92', '', '', '', 0.0)||('to', '', '', '', 0.0)||('3 . 56', '', '', '', 0.0)||(']', '', '', '', 0.0)||(';', '', '', '', 0.0)||('p', '', '', '', 0.0)||('=', '', '', '', 0.0)||('0 . 15', '', '', '', 0.0)||(')', '', '', '', 0.0)||('.', '', '', '', 0.0)||
('this', '', '', '', 0.0)||('was', '', '', '', 0.0)||('related', 'verb', 'C0439849', ['qlco'], 0.0)||('to', '', '', '', 0.0)||('an', '', '', '', 0.0)||('increased', 'adj', 'C0205217', ['qnco'], 0.0)||('event', 'noun', 'C0441471', ['evnt'], 0.0)||('rate', 'noun', 'C0871208', ['acty'], 0.0)||('during', '', '', '', 0.0)||('the', '', '', '', 0.0)||('first', 'adj', 'C0205435', ['qnco'], 0.0)||('week', 'noun', 'C0439230', ['tmco'], 0.0)||('after', '', '', '', 0.0)||('onset', 'noun', 'C0332162', ['qlco'], 0.0)||('of', '', '', '', 0.0)||('symptoms', 'noun', 'C0683368', ['ftcn'], 0.0)||('and', '', '', '', 0.0)||('was', '', '', '', 0.0)||('independent of', '', '', '', 0.0)||('cholesterol levels', '', '', '', 0.0)||('.', '', '', '', 0.0)||
('in', '', '', '', 0.0)||('a', '', '', '', 0.0)||('multivariate', '', '', '', 0.0)||('model', '', '', '', 0.0)||(',', '', '', '', 0.0)||('troponin t', 'noun', 'C0077404', ['aapp', 'bacs'], 0.0)||('elevation', 'noun', 'C0439775', ['topp'], 0.0)||('(', '', '', '', 0.0)||('p', '', '', '', 0.0)||('=', '', '', '', 0.0)||('0 . 005', '', '', '', 0.0)||(')', '', '', '', 0.0)||(',', '', '', '', 0.0)||('st', '', '', '', 0.0)||('changes', '', '', '', 0.0)||('(', '', '', '', 0.0)||('p', '', '', '', 0.0)||('=', '', '', '', 0.0)||('0 . 02', '', '', '', 0.0)||(')', '', '', '', 0.0)||(',', '', '', '', 0.0)||('and', '', '', '', 0.0)||('continuation', '', '', '', 0.0)||('of', '', '', '', 0.0)||('statin', 'noun', 'C0360714', ['orch', 'phsu'], 0.0)||('therapy', 'noun', 'C0039798', ['ftcn'], 0.0)||('(', '', '', '', 0.0)||('p', '', '', '', 0.0)||('=', '', '', '', 0.0)||('0 . 008', '', '', '', 0.0)||(')', '', '', '', 0.0)||('were', '', '', '', 0.0)||('the', '', '', '', 0.0)||('only', '', '', '', 0.0)||('independent', 'adj', 'C0085862', ['idcn'], 0.0)||('predictors', '', '', '', 0.0)||('of', '', '', '', 0.0)||('patient', '', '', '', 0.0)||('outcome', 'noun', 'C1274040', ['ftcn'], 0.0)||('.', '', '', '', 0.0)||
('statin', 'noun', 'C0360714', ['orch', 'phsu'], 0.0)||('pretreatment', 'noun', 'C1550147', ['sbst'], 0.0)||('in', '', '', '', 0.0)||('patients', 'noun', 'C0030705', ['podg'], 0.0)||('with', '', '', '', 0.0)||('acute', 'adj', 'C0205178', ['tmco'], 0.0)||('coronary', 'adj', 'C0018787', ['bpoc'], 0.0)||('syndromes', 'noun', 'C0039082', ['dsyn'], 0.0)||('is', '', '', '', 0.0)||('associated', 'verb', 'C0332281', ['qlco'], 0.0)||('with', '', '', '', 0.0)||('improved', 'adj', 'C0184511', ['qlco'], 0.0)||('clinical', 'adj', 'C0205210', ['qlco'], 0.0)||('outcome', 'noun', 'C1274040', ['ftcn'], 0.0)||('.', '', '', '', 0.0)||
('however', '', '', '', 0.0)||(',', '', '', '', 0.0)||('discontinuation', 'noun', 'C0457454', ['hlca'], 0.0)||('of', '', '', '', 0.0)||('statins', 'noun', 'C0360714', ['orch', 'phsu'], 0.0)||('after', '', '', '', 0.0)||('onset', 'noun', 'C0332162', ['qlco'], 0.0)||('of', '', '', '', 0.0)||('symptoms', 'noun', 'C0683368', ['ftcn'], 0.0)||('completely', '', '', '', 0.0)||('abrogates', '', '', '', 0.0)||('this', '', '', '', 0.0)||('beneficial', '', '', '', 0.0)||('effect', 'noun', 'C1280500', ['qlco'], 0.0)||('.', '', '', '', 0.0)||
