('to', '', '', '', 0.0)||('evaluate', 'verb', 'C0220825', ['ftcn'], 0.0)||('endometrial thickness', '', '', '', 0.0)||('and', '', '', '', 0.0)||('uterine', 'adj', 'C0042149', ['bpoc'], 0.0)||('arterial', 'adj', 'C0003842', ['bpoc'], 0.0)||('flow', 'noun', 'C0806140', ['npop'], 0.0)||('measurement', 'noun', 'C0242485', ['ftcn'], 0.0)||('as', '', '', '', 0.0)||('predictors', '', '', '', 0.0)||('of', '', '', '', 0.0)||('endometrial cancer', 'noun', 'C0476089', ['neop'], 0.0)||('.', '', '', '', 0.0)||
('prospective study', 'noun', 'C0033522', ['resa'], 0.0)||('among', '', '', '', 0.0)||('a', '', '', '', 0.0)||('cohort', 'noun', 'C0599755', ['popg'], 0.0)||('of', '', '', '', 0.0)||('women', 'noun', 'C0043210', ['popg'], 0.0)||('invited', '', '', '', 0.0)||('to', '', '', '', 0.0)||('age - adjusted', '', '', '', 0.0)||(',', '', '', '', 0.0)||('population - based', '', '', '', 0.0)||('breast cancer', 'noun', 'C0006142', ['neop'], 0.0)||('screening', 'noun', 'C0220908', ['hlca'], 0.0)||('by', '', '', '', 0.0)||('mammography', 'noun', 'C0024671', ['diap'], 0.0)||('.', '', '', '', 0.0)||
('city', 'noun', 'C0008848', ['geoa'], 0.0)||('of', '', '', '', 0.0)||('turku', '', '', '', 0.0)||(',', '', '', '', 0.0)||('finland', 'noun', 'C0016132', ['geoa'], 0.0)||('.', '', '', '', 0.0)||
('1074', '', '', '', 0.0)||('postmenopausal women', '', '', '', 0.0)||('aged', 'verb', 'C0001779', ['orga'], 0.0)||('57', '', '', '', 0.0)||('-', '', '', '', 0.0)||('61', '', '', '', 0.0)||('years', 'noun', 'C0439234', ['tmco'], 0.0)||('(', '', '', '', 0.0)||('mean', 'noun', 'C0444504', ['qnco'], 0.0)||('59', '', '', '', 0.0)||('years', 'noun', 'C0439234', ['tmco'], 0.0)||(')', '', '', '', 0.0)||('.', '', '', '', 0.0)||
('conventional', 'adj', 'C0439858', ['qlco'], 0.0)||('and', '', '', '', 0.0)||('colour doppler sonography', '', '', '', 0.0)||('.', '', '', '', 0.0)||
('endometrial biopsy', 'noun', 'C1510477', ['diap'], 0.0)||('was', '', '', '', 0.0)||('taken', 'verb', 'C1883727', ['cnce'], 0.0)||('when', '', '', '', 0.0)||('the', '', '', '', 0.0)||('endometrial thickness', '', '', '', 0.0)||('(', '', '', '', 0.0)||('double', 'adj', 'C0205173', ['ftcn'], 0.0)||('layer', 'noun', 'C0934502', ['bpoc'], 0.0)||(')', '', '', '', 0.0)||('was', '', '', '', 0.0)||('>', '', '', '', 0.0)||('or', '', '', '', 0.0)||('=', '', '', '', 0.0)||('4 . 0', '', '', '', 0.0)||('mm', '', '', '', 0.0)||(',', '', '', '', 0.0)||('if', '', '', '', 0.0)||('the', '', '', '', 0.0)||('uterine artery', 'noun', 'C0226378', ['bpoc'], 0.0)||('pulsatility index', 'noun', 'C0429863', ['clna'], 0.0)||('was', '', '', '', 0.0)||('<', '', '', '', 0.0)||('or', '', '', '', 0.0)||('=', '', '', '', 0.0)||('1 . 0', '', '', '', 0.0)||('or', '', '', '', 0.0)||('if', '', '', '', 0.0)||('there', '', '', '', 0.0)||('was', '', '', '', 0.0)||('a', '', '', '', 0.0)||('fluid', 'noun', 'C0005889', ['bdsu'], 0.0)||('accumulation', '', '', '', 0.0)||('in', '', '', '', 0.0)||('the', '', '', '', 0.0)||('endometrial cavity', 'noun', 'C0227844', ['bsoj'], 0.0)||('.', '', '', '', 0.0)||
('detection', 'noun', 'C1511790', ['topp'], 0.0)||('of', '', '', '', 0.0)||('endometrial cancer', 'noun', 'C0476089', ['neop'], 0.0)||('in', '', '', '', 0.0)||('endometrial biopsy', 'noun', 'C1510477', ['diap'], 0.0)||('.', '', '', '', 0.0)||
('record', 'noun', 'C0034869', ['inpr'], 0.0)||('linkage', '', '', '', 0.0)||('with', '', '', '', 0.0)||('the', '', '', '', 0.0)||('files', 'noun', 'C0180853', ['medd'], 0.0)||('of', '', '', '', 0.0)||('the', '', '', '', 0.0)||('finnish', 'adj', 'C1711254', ['popg'], 0.0)||('cancer', 'noun', 'C0006826', ['neop'], 0.0)||('registry', 'noun', 'C0034975', ['inpr'], 0.0)||('three', '', 'C0205449', ['qnco'], 0.0)||('and', '', '', '', 0.0)||('a', '', '', '', 0.0)||('half', '', '', '', 0.0)||('years', 'noun', 'C0439234', ['tmco'], 0.0)||('after', '', '', '', 0.0)||('the', '', '', '', 0.0)||('first', 'adj', 'C0205435', ['qnco'], 0.0)||('ultrasound', 'noun', 'C0041618', ['diap'], 0.0)||('examination', '', '', '', 0.0)||('.', '', '', '', 0.0)||
('major', 'adj', 'C0205164', ['qlco'], 0.0)||('statistical', 'adj', 'C0038215', ['ocdi'], 0.0)||('results', 'noun', 'C1274040', ['ftcn'], 0.0)||('are', '', '', '', 0.0)||('based', 'verb', 'C1527178', ['ftcn'], 0.0)||('on', '', '', '', 0.0)||('the', '', '', '', 0.0)||('analysis', 'noun', 'C0002778', ['lbpr'], 0.0)||('of', '', '', '', 0.0)||('variance', 'noun', 'C1711260', ['qlco'], 0.0)||('and', '', '', '', 0.0)||('logistic regression', 'noun', 'C0206031', ['resa'], 0.0)||('models', '', '', '', 0.0)||('.', '', '', '', 0.0)||
('an', '', '', '', 0.0)||('endometrial biopsy', 'noun', 'C1510477', ['diap'], 0.0)||('was', '', '', '', 0.0)||('taken', 'verb', 'C1883727', ['cnce'], 0.0)||('from', '', '', '', 0.0)||('291', '', '', '', 0.0)||('women', 'noun', 'C0043210', ['popg'], 0.0)||('(', '', '', '', 0.0)||('27 %', '', '', '', 0.0)||(')', '', '', '', 0.0)||('.', '', '', '', 0.0)||
('one', 'noun', 'C0205447', ['qnco'], 0.0)||('woman', 'noun', 'C0043210', ['popg'], 0.0)||('had', '', '', '', 0.0)||('endometrial', 'adj', 'C0227843', ['spco'], 0.0)||('tuberculosis', 'noun', 'C0041296', ['dsyn'], 0.0)||(',', '', '', '', 0.0)||('three', '', 'C0205449', ['qnco'], 0.0)||('an', '', '', '', 0.0)||('endometrial polyp', 'noun', 'C1704273', ['neop'], 0.0)||(',', '', '', '', 0.0)||('16', '', '', '', 0.0)||('endometrial hyperplasia', 'noun', 'C0014173', ['dsyn'], 0.0)||(',', '', '', '', 0.0)||('three', '', 'C0205449', ['qnco'], 0.0)||('endometrial', 'adj', 'C0227843', ['spco'], 0.0)||('carcinoma', 'noun', 'C0007097', ['neop'], 0.0)||('(', '', '', '', 0.0)||('stage', 'noun', 'C0205390', ['tmco'], 0.0)||('ib', '', '', '', 0.0)||(')', '', '', '', 0.0)||(',', '', '', '', 0.0)||('and', '', '', '', 0.0)||('one', 'noun', 'C0205447', ['qnco'], 0.0)||('had', '', '', '', 0.0)||('cervical carcinoma', '', '', '', 0.0)||('(', '', '', '', 0.0)||('stage', 'noun', 'C0205390', ['tmco'], 0.0)||('ib', '', '', '', 0.0)||(')', '', '', '', 0.0)||('.', '', '', '', 0.0)||
('one', 'noun', 'C0205447', ['qnco'], 0.0)||('woman', 'noun', 'C0043210', ['popg'], 0.0)||('was', '', '', '', 0.0)||('diagnosed', 'verb', 'C0011900', ['fndg'], 0.0)||('as', '', '', '', 0.0)||('having', '', '', '', 0.0)||('endometrial cancer', 'noun', 'C0476089', ['neop'], 0.0)||('stage', 'noun', 'C0205390', ['tmco'], 0.0)||('ib', '', '', '', 0.0)||('two', 'noun', 'C0205448', ['qnco'], 0.0)||('and', '', '', '', 0.0)||('a', '', '', '', 0.0)||('half', '', '', '', 0.0)||('years', 'noun', 'C0439234', ['tmco'], 0.0)||('after', '', '', '', 0.0)||('screening', 'noun', 'C0220908', ['hlca'], 0.0)||(';', '', '', '', 0.0)||
('she', '', '', '', 0.0)||('had', '', '', '', 0.0)||('refused', 'verb', 'C1548564', ['idcn'], 0.0)||('further', 'adj', 'C1517331', ['spco'], 0.0)||('examination', '', '', '', 0.0)||('after', '', '', '', 0.0)||('a', '', '', '', 0.0)||('positive', 'adj', 'C1446409', ['qlco'], 0.0)||('screen', 'noun', 'C0430054', ['lbpr'], 0.0)||('.', '', '', '', 0.0)||
('a', '', '', '', 0.0)||('second', 'adj', 'C0205436', ['qnco'], 0.0)||('endometrial cancer', 'noun', 'C0476089', ['neop'], 0.0)||('(', '', '', '', 0.0)||('stage', 'noun', 'C0205390', ['tmco'], 0.0)||('ib )', '', '', '', 0.0)||('was', '', '', '', 0.0)||('diagnosed', 'verb', 'C0011900', ['fndg'], 0.0)||('three', '', 'C0205449', ['qnco'], 0.0)||('years', 'noun', 'C0439234', ['tmco'], 0.0)||('after', '', '', '', 0.0)||('a', '', '', '', 0.0)||('negative', 'adj', 'C0205160', ['qlco'], 0.0)||('screening', 'adj', 'C0220908', ['hlca'], 0.0)||('result', 'noun', 'C1274040', ['ftcn'], 0.0)||('.', '', '', '', 0.0)||
('transvaginal', 'adj', 'C0175672', ['spco'], 0.0)||('sonography', 'noun', 'C0041618', ['diap'], 0.0)||('is', '', '', '', 0.0)||('confirmed', 'verb', 'C0750484', ['idcn'], 0.0)||('to', '', '', '', 0.0)||('have', '', '', '', 0.0)||('a', '', '', '', 0.0)||('very', 'adv', 'C0442824', ['qlco'], 0.0)||('high sensitivity', 'adj', 'C1441604', ['lbpr'], 0.0)||('for', '', '', '', 0.0)||('the', '', '', '', 0.0)||('detection', 'noun', 'C1511790', ['topp'], 0.0)||('of', '', '', '', 0.0)||('early', 'adj', 'C1279919', ['tmco'], 0.0)||('endometrial', 'adj', 'C0227843', ['spco'], 0.0)||('carcinoma', 'noun', 'C0007097', ['neop'], 0.0)||(',', '', '', '', 0.0)||('but', '', '', '', 0.0)||('the', '', '', '', 0.0)||('specificity', 'noun', 'C0037791', ['qnco'], 0.0)||('remains', '', '', '', 0.0)||('low', 'adj', 'C0205251', ['qlco'], 0.0)||('.', '', '', '', 0.0)||
('if', '', '', '', 0.0)||('endometrial cancer', 'noun', 'C0476089', ['neop'], 0.0)||('is', '', '', '', 0.0)||('to', '', '', '', 0.0)||('be', '', '', '', 0.0)||('detected', 'verb', 'C0442726', ['fndg'], 0.0)||('at', '', '', '', 0.0)||('an', '', '', '', 0.0)||('early', 'adj', 'C1279919', ['tmco'], 0.0)||('stage', 'noun', 'C0205390', ['tmco'], 0.0)||(',', '', '', '', 0.0)||('further', 'adj', 'C1517331', ['spco'], 0.0)||('examinations', '', '', '', 0.0)||('should', '', '', '', 0.0)||('be', '', '', '', 0.0)||('carried', '', '', '', 0.0)||('out', '', '', '', 0.0)||('when', '', '', '', 0.0)||('the', '', '', '', 0.0)||('endometrial thickness', '', '', '', 0.0)||('is', '', '', '', 0.0)||('>', '', '', '', 0.0)||('or', '', '', '', 0.0)||('=', '', '', '', 0.0)||('4 . 0', '', '', '', 0.0)||('mm', '', '', '', 0.0)||(',', '', '', '', 0.0)||('especially', '', '', '', 0.0)||('when', '', '', '', 0.0)||('the', '', '', '', 0.0)||('woman', 'noun', 'C0043210', ['popg'], 0.0)||('has', '', '', '', 0.0)||('risk factors', 'noun', 'C0035648', ['qnco'], 0.0)||('such as', '', '', '', 0.0)||('obesity', 'noun', 'C0028754', ['dsyn'], 0.0)||(',', '', '', '', 0.0)||('late', 'adj', 'C0205087', ['tmco'], 0.0)||('menopause', 'noun', 'C0025320', ['phsf'], 0.0)||('or', '', '', '', 0.0)||('current', 'adj', 'C0521116', ['tmco'], 0.0)||('use', 'noun', 'C0042153', ['ftcn'], 0.0)||('of', '', '', '', 0.0)||('hormonal replacement therapy', '', '', '', 0.0)||('.', '', '', '', 0.0)||
('doppler', 'noun', 'C0554756', ['diap'], 0.0)||('sonography', 'noun', 'C0041618', ['diap'], 0.0)||('does', '', '', '', 0.0)||('not', 'adv', 'C1518422', ['ftcn'], 0.0)||('improve', 'verb', 'C0332161', ['qlco'], 0.0)||('the', '', '', '', 0.0)||('detection', 'noun', 'C1511790', ['topp'], 0.0)||('of', '', '', '', 0.0)||('premalignant', 'adj', 'C1514391', ['qlco'], 0.0)||('and', '', '', '', 0.0)||('malignant', 'adj', 'C0205282', ['qlco'], 0.0)||('endometrial', 'adj', 'C0227843', ['spco'], 0.0)||('lesions', 'noun', 'C0221198', ['fndg'], 0.0)||('compared', 'verb', 'C1707455', ['acty'], 0.0)||('with', '', '', '', 0.0)||('normal', 'adj', 'C0205307', ['qlco'], 0.0)||('ultrasound', 'noun', 'C0041618', ['diap'], 0.0)||('.', '', '', '', 0.0)||
