('our', '', '', '', 0.0)||('purpose', 'noun', 'C1285529', ['ftcn'], 0.0)||('was', '', '', '', 0.0)||('to', '', '', '', 0.0)||('evaluate', 'verb', 'C0220825', ['ftcn'], 0.0)||('the', '', '', '', 0.0)||('use', 'noun', 'C0042153', ['ftcn'], 0.0)||('of', '', '', '', 0.0)||('transvaginal ultrasonography', '', '', '', 0.0)||('for', '', '', '', 0.0)||('the', '', '', '', 0.0)||('detection', 'noun', 'C1511790', ['topp'], 0.0)||('of', '', '', '', 0.0)||('endometrial', 'adj', 'C0227843', ['spco'], 0.0)||('disease', 'noun', 'C0012634', ['dsyn'], 0.0)||('in', '', '', '', 0.0)||('a', '', '', '', 0.0)||('population', 'noun', 'C0032659', ['qnco'], 0.0)||('of', '', '', '', 0.0)||('postmenopausal women', '', '', '', 0.0)||('who', '', '', '', 0.0)||('were', '', '', '', 0.0)||('without', '', '', '', 0.0)||('symptoms', 'noun', 'C0683368', ['ftcn'], 0.0)||('.', '', '', '', 0.0)||
('postmenopausal women', '', '', '', 0.0)||('were', '', '', '', 0.0)||('screened', '', '', '', 0.0)||('for', '', '', '', 0.0)||('potential', 'adj', 'C0035647', ['qlco'], 0.0)||('inclusion', 'noun', 'C1512693', ['qlco'], 0.0)||('in', '', '', '', 0.0)||('2', '', '', '', 0.0)||('multicenter', '', '', '', 0.0)||(',', '', '', '', 0.0)||('double - blind', '', '', '', 0.0)||(',', '', '', '', 0.0)||('placebo - controlled studies', '', '', '', 0.0)||('of', '', '', '', 0.0)||('2', '', '', '', 0.0)||('years', 'noun', 'C0439234', ['tmco'], 0.0)||("'", '', '', '', 0.0)||('duration', 'noun', 'C0449238', ['tmco'], 0.0)||('to', '', '', '', 0.0)||('evaluate', 'verb', 'C0220825', ['ftcn'], 0.0)||('the', '', '', '', 0.0)||('safety', 'noun', 'C0036043', ['hcpp'], 0.0)||('and', '', '', '', 0.0)||('efficacy', 'noun', 'C1707887', ['resa'], 0.0)||('of', '', '', '', 0.0)||('idoxifene', 'noun', 'C0139560', ['orch', 'phsu'], 0.0)||('in', '', '', '', 0.0)||('the', '', '', '', 0.0)||('prevention', 'noun', 'C0199176', ['topp'], 0.0)||('of', '', '', '', 0.0)||('osteoporosis', 'noun', 'C0029456', ['dsyn'], 0.0)||('.', '', '', '', 0.0)||
('baseline', 'noun', 'C0168634', ['bodm'], 0.0)||('endometrial', 'adj', 'C0227843', ['spco'], 0.0)||('evaluation', 'noun', 'C0220825', ['ftcn'], 0.0)||('was', '', '', '', 0.0)||('performed', 'verb', 'C0884358', ['ftcn'], 0.0)||('by', '', '', '', 0.0)||('transvaginal ultrasonography', '', '', '', 0.0)||('and', '', '', '', 0.0)||('aspiration biopsy', 'noun', 'C0936232', ['diap'], 0.0)||('of', '', '', '', 0.0)||('the', '', '', '', 0.0)||('endometrium', 'noun', 'C0014180', ['bpoc'], 0.0)||('.', '', '', '', 0.0)||
('a', '', '', '', 0.0)||('total', 'noun', 'C0439810', ['qlco'], 0.0)||('of', '', '', '', 0.0)||('1926', '', '', '', 0.0)||('women', 'noun', 'C0043210', ['popg'], 0.0)||('were', '', '', '', 0.0)||('screened', '', '', '', 0.0)||('by', '', '', '', 0.0)||('transvaginal ultrasonography', '', '', '', 0.0)||(',', '', '', '', 0.0)||('and', '', '', '', 0.0)||('1833', '', '', '', 0.0)||('of', '', '', '', 0.0)||('them', '', '', '', 0.0)||('had', '', '', '', 0.0)||('endometrial thickness', '', '', '', 0.0)||('<', '', '', '', 0.0)||('or', '', '', '', 0.0)||('=', '', '', '', 0.0)||('6', '', '', '', 0.0)||('mm', '', '', '', 0.0)||('.', '', '', '', 0.0)||
('five', '', 'C0205451', ['qnco'], 0.0)||('cases', 'noun', 'C0868928', ['ftcn'], 0.0)||('of', '', '', '', 0.0)||('endometrial', 'adj', 'C0227843', ['spco'], 0.0)||('abnormality', 'noun', 'C0000768', ['cgab'], 0.0)||('(', '', '', '', 0.0)||('adenocarcinoma', 'noun', 'C0001418', ['neop'], 0.0)||('[', '', '', '', 0.0)||('n =', '', '', '', 0.0)||('1', '', '', '', 0.0)||(']', '', '', '', 0.0)||('and', '', '', '', 0.0)||('atypical', 'adj', 'C0205182', ['qlco'], 0.0)||('hyperplasia', 'noun', 'C0020507', ['patf'], 0.0)||('[', '', '', '', 0.0)||('n =', '', '', '', 0.0)||('4', '', '', '', 0.0)||(']', '', '', '', 0.0)||(')', '', '', '', 0.0)||('were', '', '', '', 0.0)||('detected', 'verb', 'C0442726', ['fndg'], 0.0)||('in', '', '', '', 0.0)||('the', '', '', '', 0.0)||('1750', '', '', '', 0.0)||('women', 'noun', 'C0043210', ['popg'], 0.0)||('from', '', '', '', 0.0)||('this', '', '', '', 0.0)||('cohort', 'noun', 'C0599755', ['popg'], 0.0)||('who', '', '', '', 0.0)||('underwent', '', '', '', 0.0)||('biopsy', 'noun', 'C0005558', ['diap'], 0.0)||('.', '', '', '', 0.0)||
('the', '', '', '', 0.0)||('negative predictive value', '', '', '', 0.0)||('was', '', '', '', 0.0)||('>', '', '', '', 0.0)||('99 %', '', '', '', 0.0)||('.', '', '', '', 0.0)||
('one', 'noun', 'C0205447', ['qnco'], 0.0)||('case', 'noun', 'C0868928', ['ftcn'], 0.0)||('of', '', '', '', 0.0)||('adenocarcinoma', 'noun', 'C0001418', ['neop'], 0.0)||('was', '', '', '', 0.0)||('detected', 'verb', 'C0442726', ['fndg'], 0.0)||('in', '', '', '', 0.0)||('the', '', '', '', 0.0)||('42', '', '', '', 0.0)||('women', 'noun', 'C0043210', ['popg'], 0.0)||('who', '', '', '', 0.0)||('had', '', '', '', 0.0)||('endometrial thickness', '', '', '', 0.0)||('>', '', '', '', 0.0)||('6', '', '', '', 0.0)||('mm', '', '', '', 0.0)||('and', '', '', '', 0.0)||('underwent', '', '', '', 0.0)||('biopsy', 'noun', 'C0005558', ['diap'], 0.0)||('.', '', '', '', 0.0)||
('however', '', '', '', 0.0)||(',', '', '', '', 0.0)||('the', '', '', '', 0.0)||('sampling', 'adj', 'C0441621', ['diap'], 0.0)||('rate', 'noun', 'C0871208', ['acty'], 0.0)||('(', '', '', '', 0.0)||('45 %', '', '', '', 0.0)||(')', '', '', '', 0.0)||('of', '', '', '', 0.0)||('women', 'noun', 'C0043210', ['popg'], 0.0)||('with', '', '', '', 0.0)||('endometrial thickness', '', '', '', 0.0)||('>', '', '', '', 0.0)||('6', '', '', '', 0.0)||('mm', '', '', '', 0.0)||('was', '', '', '', 0.0)||('too', '', '', '', 0.0)||('low', 'adj', 'C0205251', ['qlco'], 0.0)||('for', '', '', '', 0.0)||('confidence', 'noun', 'C0237529', ['menp'], 0.0)||('in', '', '', '', 0.0)||('the', '', '', '', 0.0)||('positive predictive value', '', '', '', 0.0)||('of', '', '', '', 0.0)||('2 %', '', '', '', 0.0)||('.', '', '', '', 0.0)||
('despite', '', '', '', 0.0)||('a', '', '', '', 0.0)||('high', 'adj', 'C0205250', ['qlco'], 0.0)||('negative predictive value', '', '', '', 0.0)||(',', '', '', '', 0.0)||('transvaginal ultrasonography', '', '', '', 0.0)||('may', '', '', '', 0.0)||('not', 'adv', 'C1518422', ['ftcn'], 0.0)||('be', '', '', '', 0.0)||('an', '', '', '', 0.0)||('effective', 'adj', 'C1704419', ['qlco'], 0.0)||('screening', 'adj', 'C0220908', ['hlca'], 0.0)||('procedure', 'noun', 'C0184661', ['diap', 'topp'], 0.0)||('for', '', '', '', 0.0)||('detection', 'noun', 'C1511790', ['topp'], 0.0)||('of', '', '', '', 0.0)||('endometrial', 'adj', 'C0227843', ['spco'], 0.0)||('abnormality', 'noun', 'C0000768', ['cgab'], 0.0)||('in', '', '', '', 0.0)||('untreated', '', '', '', 0.0)||('postmenopausal women', '', '', '', 0.0)||('who', '', '', '', 0.0)||('are', '', '', '', 0.0)||('without', '', '', '', 0.0)||('symptoms', 'noun', 'C0683368', ['ftcn'], 0.0)||('.', '', '', '', 0.0)||
