('transvaginal ultrasonography', '', '', '', 0.0)||('is', '', '', '', 0.0)||('a', '', '', '', 0.0)||('noninvasive', '', '', '', 0.0)||('procedure', 'noun', 'C0184661', ['diap', 'topp'], 0.0)||('that', '', '', '', 0.0)||('may', '', '', '', 0.0)||('be', '', '', '', 0.0)||('used', '', '', '', 0.0)||('to', '', '', '', 0.0)||('detect', '', '', '', 0.0)||('endometrial', 'adj', 'C0227843', ['spco'], 0.0)||('disease', 'noun', 'C0012634', ['dsyn'], 0.0)||('.', '', '', '', 0.0)||
('however', '', '', '', 0.0)||(',', '', '', '', 0.0)||('its', '', '', '', 0.0)||('usefulness', '', '', '', 0.0)||('in', '', '', '', 0.0)||('screening', 'noun', 'C0220908', ['hlca'], 0.0)||('for', '', '', '', 0.0)||('asymptomatic', 'adj', 'C0231221', ['fndg'], 0.0)||('disease', 'noun', 'C0012634', ['dsyn'], 0.0)||('in', '', '', '', 0.0)||('postmenopausal women', '', '', '', 0.0)||('before', '', '', '', 0.0)||('or', '', '', '', 0.0)||('during', '', '', '', 0.0)||('treatment', 'noun', 'C0039798', ['ftcn'], 0.0)||('with', '', '', '', 0.0)||('estrogen', 'noun', 'C0014939', ['horm', 'phsu', 'strd'], 0.0)||('or', '', '', '', 0.0)||('estrogen', 'noun', 'C0014939', ['horm', 'phsu', 'strd'], 0.0)||('-', '', '', '', 0.0)||('progesterone', 'noun', 'C0033308', ['horm', 'phsu', 'strd'], 0.0)||('replacement', 'noun', 'C0035139', ['topp'], 0.0)||('is', '', '', '', 0.0)||('not', 'adv', 'C1518422', ['ftcn'], 0.0)||('known', 'verb', 'C0205309', ['qlco'], 0.0)||('.', '', '', '', 0.0)||
('we', '', '', '', 0.0)||('compared', 'verb', 'C1707455', ['acty'], 0.0)||('the', '', '', '', 0.0)||('sensitivity and specificity', 'noun', 'C0036668', ['qnco'], 0.0)||('of', '', '', '', 0.0)||('transvaginal ultrasonography', '', '', '', 0.0)||('and', '', '', '', 0.0)||('endometrial biopsy', 'noun', 'C1510477', ['diap'], 0.0)||('for', '', '', '', 0.0)||('the', '', '', '', 0.0)||('detection', 'noun', 'C1511790', ['topp'], 0.0)||('of', '', '', '', 0.0)||('endometrial', 'adj', 'C0227843', ['spco'], 0.0)||('disease', 'noun', 'C0012634', ['dsyn'], 0.0)||('in', '', '', '', 0.0)||('448', '', '', '', 0.0)||('postmenopausal women', '', '', '', 0.0)||('who', '', '', '', 0.0)||('received', 'verb', 'C1514756', ['qlco'], 0.0)||('estrogen', 'noun', 'C0014939', ['horm', 'phsu', 'strd'], 0.0)||('alone', 'adj', 'C0439044', ['fndg'], 0.0)||(',', '', '', '', 0.0)||('cyclic', 'adj', 'C0439596', ['tmco'], 0.0)||('or', '', '', '', 0.0)||('continuous', 'adj', 'C0549178', ['idcn'], 0.0)||('estrogen', 'noun', 'C0014939', ['horm', 'phsu', 'strd'], 0.0)||('-', '', '', '', 0.0)||('progesterone', 'noun', 'C0033308', ['horm', 'phsu', 'strd'], 0.0)||(',', '', '', '', 0.0)||('or', '', '', '', 0.0)||('placebo', 'noun', 'C0032042', ['topp'], 0.0)||('for', '', '', '', 0.0)||('three', '', 'C0205449', ['qnco'], 0.0)||('years', 'noun', 'C0439234', ['tmco'], 0.0)||('.', '', '', '', 0.0)||
('concurrent', 'adj', 'C0205420', ['tmco'], 0.0)||('ultrasonographic', '', '', '', 0.0)||('and', '', '', '', 0.0)||('biopsy results', '', '', '', 0.0)||('were', '', '', '', 0.0)||('available', 'adj', 'C0470187', ['ftcn'], 0.0)||('for', '', '', '', 0.0)||('577', '', '', '', 0.0)||('examinations', '', '', '', 0.0)||('in', '', '', '', 0.0)||('the', '', '', '', 0.0)||('448', '', '', '', 0.0)||('women', 'noun', 'C0043210', ['popg'], 0.0)||(',', '', '', '', 0.0)||('99', '', '', '', 0.0)||('percent', 'noun', 'C0439165', ['qnco'], 0.0)||('of', '', '', '', 0.0)||('whom', '', '', '', 0.0)||('were', '', '', '', 0.0)||('undergoing', '', '', '', 0.0)||('routine', 'adj', 'C0205547', ['qlco'], 0.0)||('annual', 'adj', 'C0332181', ['tmco'], 0.0)||('follow - up', '', '', '', 0.0)||('.', '', '', '', 0.0)||
('endometrial thickness', '', '', '', 0.0)||('was', '', '', '', 0.0)||('less', '', '', '', 0.0)||('than', '', '', '', 0.0)||('5', '', '', '', 0.0)||('mm', '', '', '', 0.0)||('in', '', '', '', 0.0)||('45', '', '', '', 0.0)||('percent', 'noun', 'C0439165', ['qnco'], 0.0)||('of', '', '', '', 0.0)||('the', '', '', '', 0.0)||('examinations', '', '', '', 0.0)||(',', '', '', '', 0.0)||('5', '', '', '', 0.0)||('to', '', '', '', 0.0)||('10', '', '', '', 0.0)||('mm', '', '', '', 0.0)||('in', '', '', '', 0.0)||('41', '', '', '', 0.0)||('percent', 'noun', 'C0439165', ['qnco'], 0.0)||(',', '', '', '', 0.0)||('more', '', '', '', 0.0)||('than', '', '', '', 0.0)||('10', '', '', '', 0.0)||('mm', '', '', '', 0.0)||('in', '', '', '', 0.0)||('12', '', '', '', 0.0)||('percent', 'noun', 'C0439165', ['qnco'], 0.0)||(',', '', '', '', 0.0)||('and', '', '', '', 0.0)||('not', 'adv', 'C1518422', ['ftcn'], 0.0)||('measured', 'verb', 'C0444706', ['qlco'], 0.0)||('in', '', '', '', 0.0)||('2', '', '', '', 0.0)||('percent', 'noun', 'C0439165', ['qnco'], 0.0)||(',', '', '', '', 0.0)||('and', '', '', '', 0.0)||('it', '', '', '', 0.0)||('was', '', '', '', 0.0)||('higher', '', '', '', 0.0)||('in', '', '', '', 0.0)||('the', '', '', '', 0.0)||('women', 'noun', 'C0043210', ['popg'], 0.0)||('receiving', '', '', '', 0.0)||('estrogen', 'noun', 'C0014939', ['horm', 'phsu', 'strd'], 0.0)||('alone', 'adj', 'C0439044', ['fndg'], 0.0)||('than', '', '', '', 0.0)||('in', '', '', '', 0.0)||('the', '', '', '', 0.0)||('other', '', '', '', 0.0)||('groups', 'noun', 'C0441833', ['idcn'], 0.0)||('.', '', '', '', 0.0)||
('biopsy', 'noun', 'C0005558', ['diap'], 0.0)||('detected', 'verb', 'C0442726', ['fndg'], 0.0)||('11', '', '', '', 0.0)||('cases', 'noun', 'C0868928', ['ftcn'], 0.0)||('of', '', '', '', 0.0)||('serious', 'adj', 'C0205404', ['qlco'], 0.0)||('disease', 'noun', 'C0012634', ['dsyn'], 0.0)||(':', '', '', '', 0.0)||('1', '', '', '', 0.0)||('case', 'noun', 'C0868928', ['ftcn'], 0.0)||('of', '', '', '', 0.0)||('adenocarcinoma', 'noun', 'C0001418', ['neop'], 0.0)||(',', '', '', '', 0.0)||('2', '', '', '', 0.0)||('cases', 'noun', 'C0868928', ['ftcn'], 0.0)||('of', '', '', '', 0.0)||('atypical', 'adj', 'C0205182', ['qlco'], 0.0)||('simple', 'adj', 'C0205352', ['qlco'], 0.0)||('hyperplasia', 'noun', 'C0020507', ['patf'], 0.0)||(',', '', '', '', 0.0)||('and', '', '', '', 0.0)||('8', '', '', '', 0.0)||('cases', 'noun', 'C0868928', ['ftcn'], 0.0)||('of', '', '', '', 0.0)||('complex', 'adj', 'C0439855', ['qlco'], 0.0)||('hyperplasia', 'noun', 'C0020507', ['patf'], 0.0)||('.', '', '', '', 0.0)||
('biopsy', 'noun', 'C0005558', ['diap'], 0.0)||('also', '', '', '', 0.0)||('detected', 'verb', 'C0442726', ['fndg'], 0.0)||('simple', 'adj', 'C0205352', ['qlco'], 0.0)||('hyperplasia', 'noun', 'C0020507', ['patf'], 0.0)||('in', '', '', '', 0.0)||('20', '', '', '', 0.0)||('cases', 'noun', 'C0868928', ['ftcn'], 0.0)||('.', '', '', '', 0.0)||
('at', '', '', '', 0.0)||('a', '', '', '', 0.0)||('threshold value', '', '', '', 0.0)||('of', '', '', '', 0.0)||('5', '', '', '', 0.0)||('mm', '', '', '', 0.0)||('for', '', '', '', 0.0)||('endometrial thickness', '', '', '', 0.0)||(',', '', '', '', 0.0)||('transvaginal ultrasonography', '', '', '', 0.0)||('had', '', '', '', 0.0)||('a', '', '', '', 0.0)||('positive predictive value', '', '', '', 0.0)||('of', '', '', '', 0.0)||('9', '', '', '', 0.0)||('percent', 'noun', 'C0439165', ['qnco'], 0.0)||('for', '', '', '', 0.0)||('detecting', '', '', '', 0.0)||('any', '', '', '', 0.0)||('abnormality', 'noun', 'C0000768', ['cgab'], 0.0)||(',', '', '', '', 0.0)||('with', '', '', '', 0.0)||('90', '', '', '', 0.0)||('percent', 'noun', 'C0439165', ['qnco'], 0.0)||('sensitivity', 'noun', 'C0036667', ['qnco'], 0.0)||(',', '', '', '', 0.0)||('48', '', '', '', 0.0)||('percent', 'noun', 'C0439165', ['qnco'], 0.0)||('specificity', 'noun', 'C0037791', ['qnco'], 0.0)||(',', '', '', '', 0.0)||('and', '', '', '', 0.0)||('a', '', '', '', 0.0)||('negative predictive value', '', '', '', 0.0)||('of', '', '', '', 0.0)||('99', '', '', '', 0.0)||('percent', 'noun', 'C0439165', ['qnco'], 0.0)||('.', '', '', '', 0.0)||
('with', '', '', '', 0.0)||('this', '', '', '', 0.0)||('threshold', 'noun', 'C0449864', ['qlco'], 0.0)||(',', '', '', '', 0.0)||('a', '', '', '', 0.0)||('biopsy', 'noun', 'C0005558', ['diap'], 0.0)||('would', '', '', '', 0.0)||('be', '', '', '', 0.0)||('indicated', 'verb', 'C1444656', ['fndg'], 0.0)||('in', '', '', '', 0.0)||('more', '', '', '', 0.0)||('than', '', '', '', 0.0)||('half', '', '', '', 0.0)||('the', '', '', '', 0.0)||('women', 'noun', 'C0043210', ['popg'], 0.0)||(',', '', '', '', 0.0)||('only', '', '', '', 0.0)||('4', '', '', '', 0.0)||('percent', 'noun', 'C0439165', ['qnco'], 0.0)||('of', '', '', '', 0.0)||('whom', '', '', '', 0.0)||('had', '', '', '', 0.0)||('serious', 'adj', 'C0205404', ['qlco'], 0.0)||('disease', 'noun', 'C0012634', ['dsyn'], 0.0)||('.', '', '', '', 0.0)||
('transvaginal ultrasonography', '', '', '', 0.0)||('has', '', '', '', 0.0)||('a', '', '', '', 0.0)||('poor', 'adj', 'C0032854', ['grpa'], 0.0)||('positive predictive value', '', '', '', 0.0)||('but', '', '', '', 0.0)||('a', '', '', '', 0.0)||('high', 'adj', 'C0205250', ['qlco'], 0.0)||('negative predictive value', '', '', '', 0.0)||('for', '', '', '', 0.0)||('detecting', '', '', '', 0.0)||('serious', 'adj', 'C0205404', ['qlco'], 0.0)||('endometrial', 'adj', 'C0227843', ['spco'], 0.0)||('disease', 'noun', 'C0012634', ['dsyn'], 0.0)||('in', '', '', '', 0.0)||('asymptomatic', 'adj', 'C0231221', ['fndg'], 0.0)||('postmenopausal women', '', '', '', 0.0)||('.', '', '', '', 0.0)||
