('clinical', 'adj', 'C0205210', ['qlco'], 0.0)||('differentiation', 'noun', 'C0007589', ['celf'], 0.0)||('of', '', '', '', 0.0)||('patients', 'noun', 'C0030705', ['podg'], 0.0)||('with', '', '', '', 0.0)||('mild', 'adj', 'C0547040', ['qlco'], 0.0)||('diplegic', '', '', '', 0.0)||('cerebral palsy', 'noun', 'C0007789', ['dsyn'], 0.0)||('and', '', '', '', 0.0)||('idiopathic', 'adj', 'C0332240', ['ftcn'], 0.0)||('toe', 'noun', 'C0040357', ['bpoc'], 0.0)||('walking', 'noun', 'C0080331', ['dora'], 0.0)||('can', '', '', '', 0.0)||('be', '', '', '', 0.0)||('difficult', 'adj', 'C0332218', ['qlco'], 0.0)||('.', '', '', '', 0.0)||
('however', '', '', '', 0.0)||(',', '', '', '', 0.0)||('an', '', '', '', 0.0)||('involuntary', '', '', '', 0.0)||('extensor', 'noun', 'C1184148', ['blor'], 0.0)||('pattern', 'noun', 'C0449774', ['spco'], 0.0)||('may', '', '', '', 0.0)||('be', '', '', '', 0.0)||('a', '', '', '', 0.0)||('distinguishing', '', '', '', 0.0)||('sign', 'noun', 'C0311392', ['fndg'], 0.0)||('.', '', '', '', 0.0)||
('the', '', '', '', 0.0)||('purpose', 'noun', 'C1285529', ['ftcn'], 0.0)||('of', '', '', '', 0.0)||('this', '', '', '', 0.0)||('study', 'noun', 'C0008976', ['resa'], 0.0)||('was', '', '', '', 0.0)||('to', '', '', '', 0.0)||('determine', '', '', '', 0.0)||('if', '', '', '', 0.0)||('selected', '', '', '', 0.0)||('gait', 'noun', 'C0016928', ['fndg'], 0.0)||('parameters', 'noun', 'C0449381', ['fndg'], 0.0)||('or', '', '', '', 0.0)||('patterns', 'noun', 'C0449774', ['spco'], 0.0)||('of', '', '', '', 0.0)||('electromyogram', 'noun', 'C0013839', ['diap'], 0.0)||('timing', 'noun', 'C0449243', ['tmco'], 0.0)||('of', '', '', '', 0.0)||('quadriceps', 'noun', 'C0224440', ['bpoc'], 0.0)||(',', '', '', '', 0.0)||('gastrocnemius', 'noun', 'C0242691', ['bpoc'], 0.0)||(',', '', '', '', 0.0)||('and', '', '', '', 0.0)||('tibialis anterior', 'noun', 'C0242690', ['bpoc'], 0.0)||('during', '', '', '', 0.0)||('knee extension', 'noun', 'C2237139', ['fndg'], 0.0)||('while', '', '', '', 0.0)||('sitting', 'noun', 'C0277814', ['fndg'], 0.0)||('can', '', '', '', 0.0)||('distinguish', '', '', '', 0.0)||('between', '', '', '', 0.0)||('these', '', '', '', 0.0)||('patients', 'noun', 'C0030705', ['podg'], 0.0)||('.', '', '', '', 0.0)||
('the', '', '', '', 0.0)||('hypothesis', 'noun', 'C1512571', ['idcn'], 0.0)||('was', '', '', '', 0.0)||('that', '', '', '', 0.0)||('electromyogram', 'noun', 'C0013839', ['diap'], 0.0)||('testing', 'noun', 'C0039593', ['ftcn'], 0.0)||('for', '', '', '', 0.0)||('selective', '', '', '', 0.0)||('control', 'noun', 'C0243148', ['qlco'], 0.0)||('of', '', '', '', 0.0)||('the', '', '', '', 0.0)||('quadriceps', 'noun', 'C0224440', ['bpoc'], 0.0)||('and', '', '', '', 0.0)||('gastrocnemius', 'noun', 'C0242691', ['bpoc'], 0.0)||('could', '', '', '', 0.0)||('differentiate', '', '', '', 0.0)||('patients', 'noun', 'C0030705', ['podg'], 0.0)||('with', '', '', '', 0.0)||('diplegic', '', '', '', 0.0)||('cerebral palsy', 'noun', 'C0007789', ['dsyn'], 0.0)||('from', '', '', '', 0.0)||('normal controls', '', '', '', 0.0)||('and', '', '', '', 0.0)||('from', '', '', '', 0.0)||('patients', 'noun', 'C0030705', ['podg'], 0.0)||('with', '', '', '', 0.0)||('idiopathic', 'adj', 'C0332240', ['ftcn'], 0.0)||('toe', 'noun', 'C0040357', ['bpoc'], 0.0)||('walking', 'noun', 'C0080331', ['dora'], 0.0)||('.', '', '', '', 0.0)||
('we', '', '', '', 0.0)||('evaluated', 'verb', 'C0220825', ['ftcn'], 0.0)||('10', '', '', '', 0.0)||('control', 'noun', 'C0243148', ['qlco'], 0.0)||(',', '', '', '', 0.0)||('eight', '', 'C0205454', ['qnco'], 0.0)||('cerebral palsy', 'noun', 'C0007789', ['dsyn'], 0.0)||(',', '', '', '', 0.0)||('and', '', '', '', 0.0)||('eight', '', 'C0205454', ['qnco'], 0.0)||('idiopathic', 'adj', 'C0332240', ['ftcn'], 0.0)||('toe', 'noun', 'C0040357', ['bpoc'], 0.0)||('walking', 'adj', 'C0080331', ['dora'], 0.0)||('subjects', '', '', '', 0.0)||('.', '', '', '', 0.0)||
('measurements', '', '', '', 0.0)||('included', '', '', '', 0.0)||('walking', 'adj', 'C0080331', ['dora'], 0.0)||('speed', 'noun', 'C0678536', ['qnco'], 0.0)||(',', '', '', '', 0.0)||('energy expenditure', 'noun', 'C0014272', ['phsf'], 0.0)||('index', 'noun', 'C0918012', ['inpr'], 0.0)||(',', '', '', '', 0.0)||('ankle', 'noun', 'C0003086', ['blor'], 0.0)||('position', 'noun', 'C0733755', ['spco'], 0.0)||('during', '', '', '', 0.0)||('stance', '', '', '', 0.0)||(',', '', '', '', 0.0)||('and', '', '', '', 0.0)||('electromyogram', 'noun', 'C0013839', ['diap'], 0.0)||('of', '', '', '', 0.0)||('the', '', '', '', 0.0)||('quadriceps', 'noun', 'C0224440', ['bpoc'], 0.0)||(',', '', '', '', 0.0)||('gastrocnemius', 'noun', 'C0242691', ['bpoc'], 0.0)||(',', '', '', '', 0.0)||('and', '', '', '', 0.0)||('tibialis anterior', 'noun', 'C0242690', ['bpoc'], 0.0)||('during', '', '', '', 0.0)||('gait', 'noun', 'C0016928', ['fndg'], 0.0)||('and', '', '', '', 0.0)||('during', '', '', '', 0.0)||('knee extension', 'noun', 'C2237139', ['fndg'], 0.0)||('while', '', '', '', 0.0)||('sitting', 'noun', 'C0277814', ['fndg'], 0.0)||('.', '', '', '', 0.0)||
('dynamic', 'adj', 'C0729333', ['ftcn'], 0.0)||('electromyogram', 'noun', 'C0013839', ['diap'], 0.0)||('timing', 'noun', 'C0449243', ['tmco'], 0.0)||('during', '', '', '', 0.0)||('gait', 'noun', 'C0016928', ['fndg'], 0.0)||('showed', '', '', '', 0.0)||('significant', 'adj', 'C0750502', ['idcn'], 0.0)||('differences', '', '', '', 0.0)||('in', '', '', '', 0.0)||('the', '', '', '', 0.0)||('mean', 'noun', 'C0444504', ['qnco'], 0.0)||('onset', 'noun', 'C0332162', ['qlco'], 0.0)||('of', '', '', '', 0.0)||('the', '', '', '', 0.0)||('gastrocnemius', 'noun', 'C0242691', ['bpoc'], 0.0)||('between', '', '', '', 0.0)||('subjects', '', '', '', 0.0)||('with', '', '', '', 0.0)||('cerebral palsy', 'noun', 'C0007789', ['dsyn'], 0.0)||('and', '', '', '', 0.0)||('idiopathic', 'adj', 'C0332240', ['ftcn'], 0.0)||('toe', 'noun', 'C0040357', ['bpoc'], 0.0)||('walking', 'noun', 'C0080331', ['dora'], 0.0)||(',', '', '', '', 0.0)||('but', '', '', '', 0.0)||('there', '', '', '', 0.0)||('was', '', '', '', 0.0)||('considerable', '', '', '', 0.0)||('overlap', 'noun', 'C1948020', ['cnce'], 0.0)||('.', '', '', '', 0.0)||
('more', '', '', '', 0.0)||('consistent', 'adj', 'C0332290', ['idcn'], 0.0)||('differences', '', '', '', 0.0)||('were', '', '', '', 0.0)||('found', '', '', '', 0.0)||('during', '', '', '', 0.0)||('active', 'adj', 'C0205177', ['ftcn'], 0.0)||('and', '', '', '', 0.0)||('active', 'adj', 'C0205177', ['ftcn'], 0.0)||('-', '', '', '', 0.0)||('resisted', '', '', '', 0.0)||('knee extension', 'noun', 'C2237139', ['fndg'], 0.0)||('while', '', '', '', 0.0)||('sitting', 'noun', 'C0277814', ['fndg'], 0.0)||('.', '', '', '', 0.0)||
('mean values', '', '', '', 0.0)||('for', '', '', '', 0.0)||('gastrocnemius', 'noun', 'C0242691', ['bpoc'], 0.0)||('electromyogram', 'noun', 'C0013839', ['diap'], 0.0)||('timing', 'noun', 'C0449243', ['tmco'], 0.0)||('recorded', '', '', '', 0.0)||('as', '', '', '', 0.0)||('a', '', '', '', 0.0)||('percentage', 'noun', 'C0439165', ['qnco'], 0.0)||('of', '', '', '', 0.0)||('duration', 'noun', 'C0449238', ['tmco'], 0.0)||('of', '', '', '', 0.0)||('quadriceps', 'noun', 'C0224440', ['bpoc'], 0.0)||('electromyogram', 'noun', 'C0013839', ['diap'], 0.0)||('while', '', '', '', 0.0)||('sitting', 'noun', 'C0277814', ['fndg'], 0.0)||('were', '', '', '', 0.0)||('0', '', '', '', 0.0)||('and', '', '', '', 0.0)||('0 . 4 %', '', '', '', 0.0)||('for', '', '', '', 0.0)||('controls', '', '', '', 0.0)||(',', '', '', '', 0.0)||('0', '', '', '', 0.0)||('and', '', '', '', 0.0)||('3 . 9 %', '', '', '', 0.0)||('for', '', '', '', 0.0)||('idiopathic', 'adj', 'C0332240', ['ftcn'], 0.0)||('toe', 'noun', 'C0040357', ['bpoc'], 0.0)||('walking', 'adj', 'C0080331', ['dora'], 0.0)||('subjects', '', '', '', 0.0)||(',', '', '', '', 0.0)||('and', '', '', '', 0.0)||('84 . 3 %', '', '', '', 0.0)||('and', '', '', '', 0.0)||('93 . 4 %', '', '', '', 0.0)||('for', '', '', '', 0.0)||('cerebral palsy', 'noun', 'C0007789', ['dsyn'], 0.0)||('subjects', '', '', '', 0.0)||('.', '', '', '', 0.0)||
('patterns', 'noun', 'C0449774', ['spco'], 0.0)||('of', '', '', '', 0.0)||('electromyogram', 'noun', 'C0013839', ['diap'], 0.0)||('timing', 'noun', 'C0449243', ['tmco'], 0.0)||('of', '', '', '', 0.0)||('the', '', '', '', 0.0)||('quadriceps', 'noun', 'C0224440', ['bpoc'], 0.0)||('and', '', '', '', 0.0)||('gastrocnemius', 'noun', 'C0242691', ['bpoc'], 0.0)||('during', '', '', '', 0.0)||('knee extension', 'noun', 'C2237139', ['fndg'], 0.0)||('while', '', '', '', 0.0)||('sitting', 'noun', 'C0277814', ['fndg'], 0.0)||('can', '', '', '', 0.0)||('help', 'verb', 'C1552861', ['idcn'], 0.0)||('to', '', '', '', 0.0)||('differentiate', '', '', '', 0.0)||('patients', 'noun', 'C0030705', ['podg'], 0.0)||('with', '', '', '', 0.0)||('mild', 'adj', 'C0547040', ['qlco'], 0.0)||('diplegic', '', '', '', 0.0)||('cerebral palsy', 'noun', 'C0007789', ['dsyn'], 0.0)||('from', '', '', '', 0.0)||('those', '', '', '', 0.0)||('with', '', '', '', 0.0)||('idiopathic', 'adj', 'C0332240', ['ftcn'], 0.0)||('toe', 'noun', 'C0040357', ['bpoc'], 0.0)||('walking', 'noun', 'C0080331', ['dora'], 0.0)||('.', '', '', '', 0.0)||
