('this', '', '', '', 0.0)||('retrospective cohort study', '', '', '', 0.0)||('evaluated', 'verb', 'C0220825', ['ftcn'], 0.0)||('the', '', '', '', 0.0)||('effectiveness', 'noun', 'C1280519', ['qlco'], 0.0)||('of', '', '', '', 0.0)||('a', '', '', '', 0.0)||('23', '', '', '', 0.0)||('-', '', '', '', 0.0)||('valent', '', '', '', 0.0)||('pneumococcal polysaccharide vaccine', 'noun', 'C0305065', ['imft', 'phsu'], 0.0)||('in', '', '', '', 0.0)||('reducing', 'adj', 'C0392756', ['qlco'], 0.0)||('hospital admission', 'noun', 'C0184666', ['hlca'], 0.0)||('for', '', '', '', 0.0)||('pneumonia', 'noun', 'C0032285', ['dsyn'], 0.0)||(',', '', '', '', 0.0)||('otitis media', 'noun', 'C0029882', ['dsyn'], 0.0)||('and', '', '', '', 0.0)||('exacerbation', '', '', '', 0.0)||('of', '', '', '', 0.0)||('asthma', 'noun', 'C0004096', ['dsyn'], 0.0)||('or', '', '', '', 0.0)||('other', '', '', '', 0.0)||('syndromes', 'noun', 'C0039082', ['dsyn'], 0.0)||('due to', '', '', '', 0.0)||('streptococcus pneumoniae', 'noun', 'C0038410', ['bact'], 0.0)||('in', '', '', '', 0.0)||('9170', '', '', '', 0.0)||('high - risk', '', '', '', 0.0)||('individuals', '', '', '', 0.0)||('.', '', '', '', 0.0)||
('cohort', 'noun', 'C0599755', ['popg'], 0.0)||('members', '', '', '', 0.0)||('were', '', '', '', 0.0)||('followed', '', '', '', 0.0)||('from', '', '', '', 0.0)||('1', '', '', '', 0.0)||('january', '', '', '', 0.0)||('1998', '', '', '', 0.0)||('to', '', '', '', 0.0)||('31', '', '', '', 0.0)||('december', '', '', '', 0.0)||('2002', '', '', '', 0.0)||('.', '', '', '', 0.0)||
('with', '', '', '', 0.0)||('regard', '', '', '', 0.0)||('to', '', '', '', 0.0)||('preventing', 'adj', 'C1292733', ['ftcn'], 0.0)||('hospitalization', '', '', '', 0.0)||('due to', '', '', '', 0.0)||('pneumonia', 'noun', 'C0032285', ['dsyn'], 0.0)||(',', '', '', '', 0.0)||('we', '', '', '', 0.0)||('observed', 'verb', 'C1441672', ['ftcn'], 0.0)||('a', '', '', '', 0.0)||('decrease', 'noun', 'C0392756', ['qlco'], 0.0)||('in', '', '', '', 0.0)||('the', '', '', '', 0.0)||('incidence', 'noun', 'C0021149', ['qnco'], 0.0)||('of', '', '', '', 0.0)||('1 / 10000', '', '', '', 0.0)||('person', 'noun', 'C0027361', ['popg'], 0.0)||('-', '', '', '', 0.0)||('months', 'noun', 'C0439231', ['tmco'], 0.0)||('and', '', '', '', 0.0)||('a', '', '', '', 0.0)||('reduction', 'noun', 'C0301630', ['npop'], 0.0)||('in', '', '', '', 0.0)||('the', '', '', '', 0.0)||('relative risk', 'noun', 'C0242492', ['qnco'], 0.0)||('of', '', '', '', 0.0)||('38 %', '', '', '', 0.0)||('in', '', '', '', 0.0)||('the', '', '', '', 0.0)||('vaccinated', 'adj', 'C1519885', ['fndg'], 0.0)||('cohort', 'noun', 'C0599755', ['popg'], 0.0)||('compared', 'verb', 'C1707455', ['acty'], 0.0)||('with', '', '', '', 0.0)||('the', '', '', '', 0.0)||('non - vaccinated', '', '', '', 0.0)||('subjects', '', '', '', 0.0)||('.', '', '', '', 0.0)||
('a', '', '', '', 0.0)||('decrease', 'noun', 'C0392756', ['qlco'], 0.0)||('in', '', '', '', 0.0)||('the', '', '', '', 0.0)||('risk', 'noun', 'C0035647', ['qlco'], 0.0)||('of', '', '', '', 0.0)||('hospital admission', 'noun', 'C0184666', ['hlca'], 0.0)||('for', '', '', '', 0.0)||('asthma', 'noun', 'C0004096', ['dsyn'], 0.0)||(',', '', '', '', 0.0)||('acute otitis media', 'noun', 'C0271429', ['dsyn'], 0.0)||(',', '', '', '', 0.0)||('chronic obstructive pulmonary disease', '', '', '', 0.0)||('and', '', '', '', 0.0)||('other', '', '', '', 0.0)||('respiratory', 'adj', 'C0521346', ['ftcn'], 0.0)||('infections', 'noun', 'C0021311', ['dsyn'], 0.0)||('was', '', '', '', 0.0)||('also', '', '', '', 0.0)||('observed', 'verb', 'C1441672', ['ftcn'], 0.0)||('in', '', '', '', 0.0)||('vaccinated', 'adj', 'C1519885', ['fndg'], 0.0)||('compared', 'verb', 'C1707455', ['acty'], 0.0)||('with', '', '', '', 0.0)||('non - vaccinated', '', '', '', 0.0)||('subjects', '', '', '', 0.0)||('.', '', '', '', 0.0)||
('the', '', '', '', 0.0)||('specificity', 'noun', 'C0037791', ['qnco'], 0.0)||('of', '', '', '', 0.0)||('these', '', '', '', 0.0)||('findings', 'noun', 'C2607943', ['ftcn'], 0.0)||('was', '', '', '', 0.0)||('confirmed', 'verb', 'C0750484', ['idcn'], 0.0)||('by', '', '', '', 0.0)||('the', '', '', '', 0.0)||('lack', 'noun', 'C0332268', ['qlco'], 0.0)||('of', '', '', '', 0.0)||('a', '', '', '', 0.0)||('protective', '', '', '', 0.0)||('effect', 'noun', 'C1280500', ['qlco'], 0.0)||('from', '', '', '', 0.0)||('vaccination', 'noun', 'C0042196', ['topp'], 0.0)||('for', '', '', '', 0.0)||('those', '', '', '', 0.0)||('outcomes', 'noun', 'C0085415', ['qlco'], 0.0)||(',', '', '', '', 0.0)||('such as', '', '', '', 0.0)||('hospitalization', '', '', '', 0.0)||("'", '', '', '', 0.0)||('for', '', '', '', 0.0)||('all', '', '', '', 0.0)||('causes', 'verb', 'C0015127', ['ftcn'], 0.0)||("'", '', '', '', 0.0)||('and', '', '', '', 0.0)||("'", '', '', '', 0.0)||('other', '', '', '', 0.0)||('otorhinolaryngological', '', '', '', 0.0)||('diagnoses', 'noun', 'C0011900', ['fndg'], 0.0)||("'", '', '', '', 0.0)||(',', '', '', '', 0.0)||('that', '', '', '', 0.0)||('were', '', '', '', 0.0)||('not', 'adv', 'C1518422', ['ftcn'], 0.0)||('directly', 'adv', 'C1947931', ['qlco'], 0.0)||('related', 'verb', 'C0439849', ['qlco'], 0.0)||('to', '', '', '', 0.0)||('pneumococcal', 'adj', 'C0038410', ['bact'], 0.0)||('disease', 'noun', 'C0012634', ['dsyn'], 0.0)||('.', '', '', '', 0.0)||
