('although', '', '', '', 0.0)||('monitoring', 'verb', 'C0150369', ['hlca'], 0.0)||('less', '', '', '', 0.0)||('often', 'adv', 'C0332183', ['tmco'], 0.0)||('than', '', '', '', 0.0)||('once', '', '', '', 0.0)||('a', '', '', '', 0.0)||('year', 'noun', 'C0439234', ['tmco'], 0.0)||('can', '', '', '', 0.0)||('be', '', '', '', 0.0)||('justified', '', '', '', 0.0)||('in', '', '', '', 0.0)||('younger', '', '', '', 0.0)||('adult', 'noun', 'C0001675', ['aggp'], 0.0)||('patients', 'noun', 'C0030705', ['podg'], 0.0)||('whose', '', '', '', 0.0)||('weight', 'noun', 'C0005910', ['orga'], 0.0)||('is', '', '', '', 0.0)||('stable', 'adj', 'C0205360', ['qlco'], 0.0)||(',', '', '', '', 0.0)||('patients', 'noun', 'C0030705', ['podg'], 0.0)||('older', '', '', '', 0.0)||('than', '', '', '', 0.0)||('65', '', '', '', 0.0)||('years', 'noun', 'C0439234', ['tmco'], 0.0)||('must', '', '', '', 0.0)||('be', '', '', '', 0.0)||('monitored', '', '', '', 0.0)||('annually', 'adv', 'C0332181', ['tmco'], 0.0)||('to', '', '', '', 0.0)||('avoid', '', '', '', 0.0)||('overreplacement', '', '', '', 0.0)||('.', '', '', '', 0.0)||
('with', '', '', '', 0.0)||('age', 'noun', 'C0001779', ['orga'], 0.0)||(',', '', '', '', 0.0)||('thyroid', 'noun', 'C0040132', ['bpoc'], 0.0)||('binding', 'noun', 'C0243122', ['ftcn'], 0.0)||('may', '', '', '', 0.0)||('decrease', 'verb', 'C0392756', ['qlco'], 0.0)||(',', '', '', '', 0.0)||('and', '', '', '', 0.0)||('the', '', '', '', 0.0)||('serum albumin level', 'noun', 'C0523465', ['lbpr'], 0.0)||('may', '', '', '', 0.0)||('decline', '', '', '', 0.0)||('.', '', '', '', 0.0)||
('this', '', '', '', 0.0)||('can', '', '', '', 0.0)||('result', 'verb', 'C1274040', ['ftcn'], 0.0)||('in', '', '', '', 0.0)||('a', '', '', '', 0.0)||('20 %', '', '', '', 0.0)||('reduction', 'noun', 'C0301630', ['npop'], 0.0)||('in', '', '', '', 0.0)||('the', '', '', '', 0.0)||('dose', 'noun', 'C0178602', ['qnco'], 0.0)||('of', '', '', '', 0.0)||('levothyroxine', 'noun', 'C0040165', ['aapp', 'horm', 'phsu'], 0.0)||('required', 'verb', 'C1514873', ['ftcn'], 0.0)||('.', '', '', '', 0.0)||
