('a', '', '', '', 0.0)||('review', 'noun', 'C0282443', ['inpr'], 0.0)||('was', '', '', '', 0.0)||('sponsored', '', '', '', 0.0)||('by', '', '', '', 0.0)||('sc', '', '', '', 0.0)||('johnson', '', '', '', 0.0)||('and', '', '', '', 0.0)||('company', 'noun', 'C0683757', ['mnob', 'orgt'], 0.0)||(',', '', '', '', 0.0)||('the', '', '', '', 0.0)||('makers', '', '', '', 0.0)||('of', '', '', '', 0.0)||('off', '', '', '', 0.0)||('!', '', '', '', 0.0)||
('brand', 'noun', 'C0645690', ['phsu', 'strd'], 0.0)||('insect', 'noun', 'C0021585', ['euka'], 0.0)||('repellent', 'noun', 'C0544309', ['hops'], 0.0)||('.', '', '', '', 0.0)||
('it', '', '', '', 0.0)||('assessed', 'verb', 'C1516048', ['acty'], 0.0)||('animal studies', '', '', '', 0.0)||(',', '', '', '', 0.0)||('epidemiologic', 'adj', 'C0014507', ['bmod'], 0.0)||('data', 'noun', 'C1511726', ['idcn'], 0.0)||(',', '', '', '', 0.0)||('and', '', '', '', 0.0)||('case reports', 'noun', 'C0007320', ['inpr'], 0.0)||(',', '', '', '', 0.0)||('and', '', '', '', 0.0)||('supported', 'verb', 'C1521721', ['cnce'], 0.0)||('the', '', '', '', 0.0)||('safety', 'noun', 'C0036043', ['hcpp'], 0.0)||('of', '', '', '', 0.0)||('deet', 'noun', 'C0011134', ['hops', 'orch', 'phsu'], 0.0)||('in', '', '', '', 0.0)||('children', 'noun', 'C0008059', ['aggp'], 0.0)||('.', '', '', '', 0.0)||
