('a', '', '', '', 0.0)||('prospective', 'adj', 'C0023981', ['resa'], 0.0)||('cross - sectional study', '', '', '', 0.0)||('studied', '', '', '', 0.0)||('352', '', '', '', 0.0)||('adolescents', 'noun', 'C0205653', ['aggp'], 0.0)||('from', '', '', '', 0.0)||('3', '', '', '', 0.0)||('suburban', '', '', '', 0.0)||('washington', 'noun', 'C0043038', ['geoa'], 0.0)||('state', 'noun', 'C1301808', ['geoa'], 0.0)||('schools', 'noun', 'C0036375', ['mnob', 'orgt'], 0.0)||('.', '', '', '', 0.0)||
('the', '', '', '', 0.0)||('students', 'noun', 'C0038492', ['prog'], 0.0)||('completed', 'verb', 'C0205197', ['qlco'], 0.0)||('a', '', '', '', 0.0)||('14', '', '', '', 0.0)||('-', '', '', '', 0.0)||('item', 'noun', 'C1551338', ['enty'], 0.0)||('exercise - induced', '', '', '', 0.0)||('bronchospasm', 'noun', 'C0006266', ['dsyn'], 0.0)||('questionnaire', 'noun', 'C0034394', ['inpr'], 0.0)||(',', '', '', '', 0.0)||('had', '', '', '', 0.0)||('a', '', '', '', 0.0)||('physical', 'adj', 'C0031809', ['hlca'], 0.0)||('exam', 'noun', 'C0582103', ['hlca'], 0.0)||(',', '', '', '', 0.0)||('and', '', '', '', 0.0)||('underwent', '', '', '', 0.0)||('a', '', '', '', 0.0)||('7', '', '', '', 0.0)||('-', '', '', '', 0.0)||('minute', 'noun', 'C0439232', ['tmco'], 0.0)||('exercise', 'noun', 'C0015259', ['dora'], 0.0)||('challenge', 'noun', 'C0798503', ['clna'], 0.0)||('spirometry', 'noun', 'C0037981', ['diap'], 0.0)||('.', '', '', '', 0.0)||
('complete', 'adj', 'C0205197', ['qlco'], 0.0)||('data', 'noun', 'C1511726', ['idcn'], 0.0)||('were', '', '', '', 0.0)||('available', 'adj', 'C0470187', ['ftcn'], 0.0)||('for', '', '', '', 0.0)||('256', '', '', '', 0.0)||('of', '', '', '', 0.0)||('the', '', '', '', 0.0)||('students', 'noun', 'C0038492', ['prog'], 0.0)||('.', '', '', '', 0.0)||
('exercise - induced', '', '', '', 0.0)||('bronchospasm', 'noun', 'C0006266', ['dsyn'], 0.0)||('was', '', '', '', 0.0)||('diagnosed', 'verb', 'C0011900', ['fndg'], 0.0)||('by', '', '', '', 0.0)||('spirometry', 'noun', 'C0037981', ['diap'], 0.0)||('in', '', '', '', 0.0)||('9 . 4 %', '', '', '', 0.0)||('of', '', '', '', 0.0)||('the', '', '', '', 0.0)||('athletes', 'noun', 'C0238703', ['prog'], 0.0)||('.', '', '', '', 0.0)||
('no', '', '', '', 0.0)||('student', 'noun', 'C0038492', ['prog'], 0.0)||('had', '', '', '', 0.0)||('exercise - induced', '', '', '', 0.0)||('bronchospasm', 'noun', 'C0006266', ['dsyn'], 0.0)||('detected', 'verb', 'C0442726', ['fndg'], 0.0)||('solely', '', '', '', 0.0)||('by', '', '', '', 0.0)||('physical', 'adj', 'C0031809', ['hlca'], 0.0)||('exam', 'noun', 'C0582103', ['hlca'], 0.0)||('.', '', '', '', 0.0)||
('using', 'verb', 'C1524063', ['ftcn'], 0.0)||('a', '', '', '', 0.0)||('cutoff', 'noun', 'C1442160', ['ftcn'], 0.0)||('of', '', '', '', 0.0)||('2', '', '', '', 0.0)||('positive', 'adj', 'C1446409', ['qlco'], 0.0)||('questions', '', '', '', 0.0)||(',', '', '', '', 0.0)||('the', '', '', '', 0.0)||('questionnaire', 'noun', 'C0034394', ['inpr'], 0.0)||('had', '', '', '', 0.0)||('a', '', '', '', 0.0)||('sensitivity', 'noun', 'C0036667', ['qnco'], 0.0)||('of', '', '', '', 0.0)||('71 %', '', '', '', 0.0)||('and', '', '', '', 0.0)||('a', '', '', '', 0.0)||('specificity', 'noun', 'C0037791', ['qnco'], 0.0)||('of', '', '', '', 0.0)||('47 %', '', '', '', 0.0)||(',', '', '', '', 0.0)||('with', '', '', '', 0.0)||('a', '', '', '', 0.0)||('negative', 'noun', 'C0205160', ['qlco'], 0.0)||('and', '', '', '', 0.0)||('positive predictive value', '', '', '', 0.0)||('of', '', '', '', 0.0)||('6 %', '', '', '', 0.0)||('and', '', '', '', 0.0)||('12 %', '', '', '', 0.0)||(',', '', '', '', 0.0)||('respectively', '', '', '', 0.0)||('.', '', '', '', 0.0)||
('this', '', '', '', 0.0)||('study', 'noun', 'C0008976', ['resa'], 0.0)||('concluded', '', '', '', 0.0)||('that', '', '', '', 0.0)||('exercise - induced', '', '', '', 0.0)||('bronchospasm', 'noun', 'C0006266', ['dsyn'], 0.0)||('occurs', '', '', '', 0.0)||('frequently', 'adv', 'C0332183', ['tmco'], 0.0)||('in', '', '', '', 0.0)||('adolescent', 'adj', 'C0205653', ['aggp'], 0.0)||('athletes', 'noun', 'C0238703', ['prog'], 0.0)||(',', '', '', '', 0.0)||('but', '', '', '', 0.0)||('screening', 'noun', 'C0220908', ['hlca'], 0.0)||('by', '', '', '', 0.0)||('physical', 'adj', 'C0031809', ['hlca'], 0.0)||('exam', 'noun', 'C0582103', ['hlca'], 0.0)||('and', '', '', '', 0.0)||('medical history', 'noun', 'C0262926', ['fndg'], 0.0)||('does', '', '', '', 0.0)||('not', 'adv', 'C1518422', ['ftcn'], 0.0)||('accurately', '', '', '', 0.0)||('detect', '', '', '', 0.0)||('it', '', '', '', 0.0)||('.', '', '', '', 0.0)||
