('a', '', '', '', 0.0)||('british', 'adj', 'C0596227', ['popg'], 0.0)||('study', 'noun', 'C0008976', ['resa'], 0.0)||('compared', 'adj', 'C1707455', ['acty'], 0.0)||('attack rates', '', '', '', 0.0)||('for', '', '', '', 0.0)||('meningococcal', 'adj', 'C0127526', ['carb', 'imft', 'phsu'], 0.0)||('c', '', '', '', 0.0)||('disease', 'noun', 'C0012634', ['dsyn'], 0.0)||('in', '', '', '', 0.0)||('children', 'noun', 'C0008059', ['aggp'], 0.0)||('from', '', '', '', 0.0)||('infancy', 'noun', 'C0231330', ['tmco'], 0.0)||('to', '', '', '', 0.0)||('age', 'noun', 'C0001779', ['orga'], 0.0)||('18', '', '', '', 0.0)||('before', '', '', '', 0.0)||('and', '', '', '', 0.0)||('1', '', '', '', 0.0)||('to', '', '', '', 0.0)||('2', '', '', '', 0.0)||('years', 'noun', 'C0439234', ['tmco'], 0.0)||('after', '', '', '', 0.0)||('the', '', '', '', 0.0)||('institution', 'noun', 'C0018704', ['hcro', 'mnob'], 0.0)||('of', '', '', '', 0.0)||('a', '', '', '', 0.0)||('nationwide', '', '', '', 0.0)||('meningococcal', 'adj', 'C0127526', ['carb', 'imft', 'phsu'], 0.0)||('serogroup', 'noun', 'C0449543', ['inpr'], 0.0)||('c', '', '', '', 0.0)||('conjugate', 'noun', 'C0301869', ['imft'], 0.0)||('vaccination', 'noun', 'C0042196', ['topp'], 0.0)||('.', '', '', '', 0.0)||
('vaccine', 'noun', 'C0042210', ['imft', 'phsu'], 0.0)||('coverage', 'noun', 'C1551362', ['idcn'], 0.0)||('ranged', '', '', '', 0.0)||('from', '', '', '', 0.0)||('66 %', '', '', '', 0.0)||('(', '', '', '', 0.0)||('adolescents', 'noun', 'C0205653', ['aggp'], 0.0)||(')', '', '', '', 0.0)||('to', '', '', '', 0.0)||('87 %', '', '', '', 0.0)||('(', '', '', '', 0.0)||('schoolchildren', '', '', '', 0.0)||(')', '', '', '', 0.0)||(',', '', '', '', 0.0)||('and', '', '', '', 0.0)||('vaccine efficacy', '', '', '', 0.0)||('was', '', '', '', 0.0)||('94 %', '', '', '', 0.0)||('to', '', '', '', 0.0)||('96 %', '', '', '', 0.0)||('.', '', '', '', 0.0)||
('incidence', 'noun', 'C0021149', ['qnco'], 0.0)||('of', '', '', '', 0.0)||('meningococcal', 'adj', 'C0127526', ['carb', 'imft', 'phsu'], 0.0)||('c', '', '', '', 0.0)||('disease', 'noun', 'C0012634', ['dsyn'], 0.0)||('in', '', '', '', 0.0)||('the', '', '', '', 0.0)||('unvaccinated', '', '', '', 0.0)||('children', 'noun', 'C0008059', ['aggp'], 0.0)||('also', '', '', '', 0.0)||('decreased', 'verb', 'C0205216', ['qnco'], 0.0)||('by', '', '', '', 0.0)||('52 %', '', '', '', 0.0)||('to', '', '', '', 0.0)||('67 %', '', '', '', 0.0)||('(', '', '', '', 0.0)||('from', '', '', '', 0.0)||('4 . 08', '', '', '', 0.0)||('/', '', '', '', 0.0)||('100 , 000', '', '', '', 0.0)||('to', '', '', '', 0.0)||('1 . 36', '', '', '', 0.0)||('/', '', '', '', 0.0)||('100 , 000', '', '', '', 0.0)||(')', '', '', '', 0.0)||('.', '', '', '', 0.0)||
