('using', 'verb', 'C1524063', ['ftcn'], 0.0)||('active', 'adj', 'C0205177', ['ftcn'], 0.0)||('community', 'noun', 'C0009462', ['geoa'], 0.0)||('surveillance', 'noun', 'C0220920', ['ftcn'], 0.0)||('from', '', '', '', 0.0)||('1991', '', '', '', 0.0)||('to', '', '', '', 0.0)||('2002', '', '', '', 0.0)||(',', '', '', '', 0.0)||('centers for disease control and prevention', 'noun', 'C0007670', ['hcro'], 0.0)||('(', '', '', '', 0.0)||('cdc', 'noun', 'C0007670', ['hcro'], 0.0)||(')', '', '', '', 0.0)||('data', 'noun', 'C1511726', ['idcn'], 0.0)||('found', '', '', '', 0.0)||('annual rates', '', '', '', 0.0)||('of', '', '', '', 0.0)||('meningococcal', 'adj', 'C0127526', ['carb', 'imft', 'phsu'], 0.0)||('disease', 'noun', 'C0012634', ['dsyn'], 0.0)||('in', '', '', '', 0.0)||('the', '', '', '', 0.0)||('us', '', '', '', 0.0)||('of', '', '', '', 0.0)||('0 . 5', '', '', '', 0.0)||('to', '', '', '', 0.0)||('1 . 1', '', '', '', 0.0)||('per', '', '', '', 0.0)||('100 , 000', '', '', '', 0.0)||('.', '', '', '', 0.0)||
('the', '', '', '', 0.0)||('highest', 'adj', 'C1522410', ['qlco'], 0.0)||('rates', '', '', '', 0.0)||('were', '', '', '', 0.0)||('found', '', '', '', 0.0)||('in', '', '', '', 0.0)||('children', 'noun', 'C0008059', ['aggp'], 0.0)||('under age', '', '', '', 0.0)||('2', '', '', '', 0.0)||('.', '', '', '', 0.0)||
('infants', 'noun', 'C0021270', ['aggp'], 0.0)||('younger', '', '', '', 0.0)||('than', '', '', '', 0.0)||('12', '', '', '', 0.0)||('months', 'noun', 'C0439231', ['tmco'], 0.0)||('of', '', '', '', 0.0)||('age', 'noun', 'C0001779', ['orga'], 0.0)||('were', '', '', '', 0.0)||('especially', '', '', '', 0.0)||('vulnerable', '', '', '', 0.0)||('(', '', '', '', 0.0)||('rate', 'noun', 'C0871208', ['acty'], 0.0)||('9 / 100', '', '', '', 0.0)||(',', '', '', '', 0.0)||('000', '', '', '', 0.0)||(')', '', '', '', 0.0)||(',', '', '', '', 0.0)||('with', '', '', '', 0.0)||('more', '', '', '', 0.0)||('than', '', '', '', 0.0)||('50 %', '', '', '', 0.0)||('of', '', '', '', 0.0)||('cases', 'noun', 'C0868928', ['ftcn'], 0.0)||('caused', '', '', '', 0.0)||('by', '', '', '', 0.0)||('serogroup', 'noun', 'C0449543', ['inpr'], 0.0)||('b', '', '', '', 0.0)||('.', '', '', '', 0.0)||
