('antidepressants', 'noun', 'C0003289', ['phsu'], 0.0)||('and', '', '', '', 0.0)||('lamotrigine', 'noun', 'C0064636', ['orch', 'phsu'], 0.0)||('are', '', '', '', 0.0)||('effective', 'adj', 'C1704419', ['qlco'], 0.0)||('.', '', '', '', 0.0)||
('atypical', 'adj', 'C0205182', ['qlco'], 0.0)||('antipsychotics', 'noun', 'C0040615', ['phsu'], 0.0)||(',', '', '', '', 0.0)||('lithium', 'noun', 'C0023870', ['elii', 'phsu'], 0.0)||(',', '', '', '', 0.0)||('and', '', '', '', 0.0)||('anticonvulsants', 'noun', 'C0003286', ['phsu'], 0.0)||('also', '', '', '', 0.0)||('may', '', '', '', 0.0)||('help', 'verb', 'C1552861', ['idcn'], 0.0)||('.', '', '', '', 0.0)||
('antidepressants', 'noun', 'C0003289', ['phsu'], 0.0)||(',', '', '', '', 0.0)||('including', '', '', '', 0.0)||('tricyclics', 'noun', 'C0003290', ['phsu'], 0.0)||('and', '', '', '', 0.0)||('selective serotonin reuptake inhibitors', 'noun', 'C0162758', ['phsu'], 0.0)||(',', '', '', '', 0.0)||('are', '', '', '', 0.0)||('useful', '', '', '', 0.0)||('adjuncts', '', '', '', 0.0)||('in', '', '', '', 0.0)||('short - term', '', '', '', 0.0)||('treatment', 'noun', 'C0039798', ['ftcn'], 0.0)||('of', '', '', '', 0.0)||('bipolar', 'adj', 'C0443156', ['spco'], 0.0)||('depression', 'noun', 'C0011570', ['mobd'], 0.0)||('and', '', '', '', 0.0)||('have', '', '', '', 0.0)||('low', 'adj', 'C0205251', ['qlco'], 0.0)||('rates', '', '', '', 0.0)||('of', '', '', '', 0.0)||('inducing', 'adj', 'C0205263', ['ftcn'], 0.0)||('mania', 'noun', 'C0338831', ['mobd'], 0.0)||('.', '', '', '', 0.0)||
