('a', '', '', '', 0.0)||('randomized', 'adj', 'C0034656', ['resa'], 0.0)||(',', '', '', '', 0.0)||('prospective study', 'noun', 'C0033522', ['resa'], 0.0)||('was', '', '', '', 0.0)||('conducted', '', '', '', 0.0)||('to', '', '', '', 0.0)||('compare', 'verb', 'C1707455', ['acty'], 0.0)||('the', '', '', '', 0.0)||('effectiveness', 'noun', 'C1280519', ['qlco'], 0.0)||('of', '', '', '', 0.0)||('three', '', 'C0205449', ['qnco'], 0.0)||('individual', 'adj', 'C0027361', ['popg'], 0.0)||('mechanical', 'adj', 'C0443254', ['ftcn'], 0.0)||('modalities', '', '', '', 0.0)||('in', '', '', '', 0.0)||('the', '', '', '', 0.0)||('treatment', 'noun', 'C0039798', ['ftcn'], 0.0)||('of', '', '', '', 0.0)||('plantar', 'noun', 'C0230463', ['blor'], 0.0)||('fasciitis', 'noun', 'C0015645', ['dsyn'], 0.0)||('.', '', '', '', 0.0)||
('two', 'adj', 'C0205448', ['qnco'], 0.0)||('hundred', '', '', '', 0.0)||('fifty - five', '', '', '', 0.0)||('subjects', '', '', '', 0.0)||('were', '', '', '', 0.0)||('randomly', '', '', '', 0.0)||('assigned', 'verb', 'C1516050', ['ftcn'], 0.0)||('to', '', '', '', 0.0)||('one', 'noun', 'C0205447', ['qnco'], 0.0)||('of', '', '', '', 0.0)||('three', '', 'C0205449', ['qnco'], 0.0)||('treatment', 'noun', 'C0039798', ['ftcn'], 0.0)||('groups', 'noun', 'C0441833', ['idcn'], 0.0)||(':', '', '', '', 0.0)||('custom - made', '', '', '', 0.0)||('orthoses', 'noun', 'C0029365', ['medd'], 0.0)||(',', '', '', '', 0.0)||('over - the - counter', '', '', '', 0.0)||('arch supports', '', '', '', 0.0)||(',', '', '', '', 0.0)||('or', '', '', '', 0.0)||('tension', 'noun', 'C0233494', ['mobd'], 0.0)||('night', 'noun', 'C0240526', ['tmco'], 0.0)||('splints', 'noun', 'C0038009', ['medd'], 0.0)||('.', '', '', '', 0.0)||
('subjects', '', '', '', 0.0)||('were', '', '', '', 0.0)||('treated', 'verb', 'C1522326', ['ftcn'], 0.0)||('for', '', '', '', 0.0)||('3', '', '', '', 0.0)||('months', 'noun', 'C0439231', ['tmco'], 0.0)||(',', '', '', '', 0.0)||('with', '', '', '', 0.0)||('follow - up', '', '', '', 0.0)||('visits', 'noun', 'C0545082', ['bhvr'], 0.0)||('at 2', '', '', '', 0.0)||(',', '', '', '', 0.0)||('6', '', '', '', 0.0)||(',', '', '', '', 0.0)||('and', '', '', '', 0.0)||('12', '', '', '', 0.0)||('weeks', 'noun', 'C0439230', ['tmco'], 0.0)||('.', '', '', '', 0.0)||
('no', '', '', '', 0.0)||('statistically significant', 'adj', 'C0237881', ['qnco'], 0.0)||('difference', 'noun', 'C1705242', ['qlco'], 0.0)||('was', '', '', '', 0.0)||('noted', '', '', '', 0.0)||('among', '', '', '', 0.0)||('treatment', 'noun', 'C0039798', ['ftcn'], 0.0)||('groups', 'verb', 'C0441833', ['idcn'], 0.0)||('with', '', '', '', 0.0)||('respect', 'noun', 'C0679133', ['socb'], 0.0)||('to', '', '', '', 0.0)||('final', 'adj', 'C0205088', ['tmco'], 0.0)||('outcomes', 'noun', 'C0085415', ['qlco'], 0.0)||('based', 'verb', 'C1527178', ['ftcn'], 0.0)||('on', '', '', '', 0.0)||('first', 'noun', 'C0205435', ['qnco'], 0.0)||('-', '', '', '', 0.0)||('step', 'noun', 'C1261552', ['cnce'], 0.0)||('pain', 'noun', 'C0030193', ['sosy'], 0.0)||('or', '', '', '', 0.0)||('pain', 'noun', 'C0030193', ['sosy'], 0.0)||('felt', '', '', '', 0.0)||('during', '', '', '', 0.0)||('the', '', '', '', 0.0)||('day', 'noun', 'C0439228', ['tmco'], 0.0)||('.', '', '', '', 0.0)||
('however', '', '', '', 0.0)||(',', '', '', '', 0.0)||('there', '', '', '', 0.0)||('was', '', '', '', 0.0)||('a', '', '', '', 0.0)||('statistically significant', 'adj', 'C0237881', ['qnco'], 0.0)||('difference', 'noun', 'C1705242', ['qlco'], 0.0)||('among', '', '', '', 0.0)||('the', '', '', '', 0.0)||('three', '', 'C0205449', ['qnco'], 0.0)||('groups', 'noun', 'C0441833', ['idcn'], 0.0)||('with', '', '', '', 0.0)||('respect', 'noun', 'C0679133', ['socb'], 0.0)||('to', '', '', '', 0.0)||('early', 'adj', 'C1279919', ['tmco'], 0.0)||('patient', '', '', '', 0.0)||('withdrawal', 'noun', 'C0237955', ['menp'], 0.0)||('from', '', '', '', 0.0)||('the', '', '', '', 0.0)||('study', 'noun', 'C0008976', ['resa'], 0.0)||('due to', '', '', '', 0.0)||('continued', 'adj', 'C0549178', ['idcn'], 0.0)||('severe', 'adj', 'C0205082', ['qlco'], 0.0)||('pain', 'noun', 'C0030193', ['sosy'], 0.0)||(',', '', '', '', 0.0)||('noncompliance', 'noun', 'C0376405', ['fndg'], 0.0)||(',', '', '', '', 0.0)||('or', '', '', '', 0.0)||('inability', '', '', '', 0.0)||('to', '', '', '', 0.0)||('tolerate', '', '', '', 0.0)||('the', '', '', '', 0.0)||('device', 'noun', 'C0025080', ['medd'], 0.0)||('.', '', '', '', 0.0)||
('patient compliance', 'noun', 'C1321605', ['inbe'], 0.0)||('was', '', '', '', 0.0)||('greatest', 'adj', 'C0205393', ['qnco'], 0.0)||('with', '', '', '', 0.0)||('the', '', '', '', 0.0)||('use', 'noun', 'C0042153', ['ftcn'], 0.0)||('of', '', '', '', 0.0)||('custom - made', '', '', '', 0.0)||('orthoses', 'noun', 'C0029365', ['medd'], 0.0)||('.', '', '', '', 0.0)||
