('a', '', '', '', 0.0)||('randomized', 'adj', 'C0034656', ['resa'], 0.0)||(',', '', '', '', 0.0)||('prospective study', 'noun', 'C0033522', ['resa'], 0.0)||('was', '', '', '', 0.0)||('conducted', '', '', '', 0.0)||('to', '', '', '', 0.0)||('compare', 'verb', 'C1707455', ['acty'], 0.0)||('the', '', '', '', 0.0)||('individual', 'adj', 'C0027361', ['popg'], 0.0)||('effectiveness', 'noun', 'C1280519', ['qlco'], 0.0)||('of', '', '', '', 0.0)||('three', '', 'C0205449', ['qnco'], 0.0)||('types', 'noun', 'C0332307', ['qlco'], 0.0)||('of', '', '', '', 0.0)||('conservative', '', '', '', 0.0)||('therapy', 'noun', 'C0039798', ['ftcn'], 0.0)||('in', '', '', '', 0.0)||('the', '', '', '', 0.0)||('treatment', 'noun', 'C0039798', ['ftcn'], 0.0)||('of', '', '', '', 0.0)||('plantar', 'noun', 'C0230463', ['blor'], 0.0)||('fasciitis', 'noun', 'C0015645', ['dsyn'], 0.0)||('.', '', '', '', 0.0)||
('one', 'noun', 'C0205447', ['qnco'], 0.0)||('hundred', '', '', '', 0.0)||('three', '', 'C0205449', ['qnco'], 0.0)||('subjects', '', '', '', 0.0)||('were', '', '', '', 0.0)||('randomly', '', '', '', 0.0)||('assigned', 'verb', 'C1516050', ['ftcn'], 0.0)||('to', '', '', '', 0.0)||('one', 'noun', 'C0205447', ['qnco'], 0.0)||('of', '', '', '', 0.0)||('three', '', 'C0205449', ['qnco'], 0.0)||('treatment', 'noun', 'C0039798', ['ftcn'], 0.0)||('categories', 'noun', 'C0683312', ['inpr'], 0.0)||(':', '', '', '', 0.0)||('anti - inflammatory', '', '', '', 0.0)||(',', '', '', '', 0.0)||('accommodative', '', '', '', 0.0)||(',', '', '', '', 0.0)||('or', '', '', '', 0.0)||('mechanical', 'adj', 'C0443254', ['ftcn'], 0.0)||('.', '', '', '', 0.0)||
('subjects', '', '', '', 0.0)||('were', '', '', '', 0.0)||('treated', 'verb', 'C1522326', ['ftcn'], 0.0)||('for', '', '', '', 0.0)||('3', '', '', '', 0.0)||('months', 'noun', 'C0439231', ['tmco'], 0.0)||(',', '', '', '', 0.0)||('with', '', '', '', 0.0)||('follow - up', '', '', '', 0.0)||('visits', 'noun', 'C0545082', ['bhvr'], 0.0)||('at 2', '', '', '', 0.0)||(',', '', '', '', 0.0)||('4', '', '', '', 0.0)||(',', '', '', '', 0.0)||('6', '', '', '', 0.0)||(',', '', '', '', 0.0)||('and', '', '', '', 0.0)||('12', '', '', '', 0.0)||('weeks', 'noun', 'C0439230', ['tmco'], 0.0)||('.', '', '', '', 0.0)||
('for', '', '', '', 0.0)||('the', '', '', '', 0.0)||('85', '', '', '', 0.0)||('patients', 'noun', 'C0030705', ['podg'], 0.0)||('who', '', '', '', 0.0)||('completed', 'verb', 'C0205197', ['qlco'], 0.0)||('the', '', '', '', 0.0)||('study', 'noun', 'C0008976', ['resa'], 0.0)||(',', '', '', '', 0.0)||('a', '', '', '', 0.0)||('statistically significant', 'adj', 'C0237881', ['qnco'], 0.0)||('difference', 'noun', 'C1705242', ['qlco'], 0.0)||('was', '', '', '', 0.0)||('noted', '', '', '', 0.0)||('between', '', '', '', 0.0)||('groups', 'noun', 'C0441833', ['idcn'], 0.0)||(',', '', '', '', 0.0)||('with', '', '', '', 0.0)||('mechanical', 'adj', 'C0443254', ['ftcn'], 0.0)||('treatment', 'noun', 'C0039798', ['ftcn'], 0.0)||('with', '', '', '', 0.0)||('taping', 'noun', 'C0343138', ['topp'], 0.0)||('and', '', '', '', 0.0)||('orthoses', 'noun', 'C0029365', ['medd'], 0.0)||('proving', '', '', '', 0.0)||('to', '', '', '', 0.0)||('be', '', '', '', 0.0)||('more', '', '', '', 0.0)||('effective', 'adj', 'C1704419', ['qlco'], 0.0)||('than', '', '', '', 0.0)||('either', '', '', '', 0.0)||('anti - inflammatory', '', '', '', 0.0)||('or', '', '', '', 0.0)||('accommodative', '', '', '', 0.0)||('modalities', '', '', '', 0.0)||('.', '', '', '', 0.0)||
