('the', '', '', '', 0.0)||('care', 'noun', 'C0580931', ['fndg'], 0.0)||('of', '', '', '', 0.0)||('patients', 'noun', 'C0030705', ['podg'], 0.0)||('with', '', '', '', 0.0)||('chronic obstructive pulmonary disease', '', '', '', 0.0)||('has', '', '', '', 0.0)||('changed', 'verb', 'C0392747', ['ftcn'], 0.0)||('radically', '', '', '', 0.0)||('over', '', '', '', 0.0)||('the', '', '', '', 0.0)||('past', '', '', '', 0.0)||('2', '', '', '', 0.0)||('decades', '', '', '', 0.0)||(',', '', '', '', 0.0)||('and', '', '', '', 0.0)||('novel', 'adj', 'C0205314', ['tmco'], 0.0)||('therapies', 'noun', 'C0087111', ['topp'], 0.0)||('can', '', '', '', 0.0)||('not', 'adv', 'C1518422', ['ftcn'], 0.0)||('only', '', '', '', 0.0)||('improve', 'verb', 'C0332161', ['qlco'], 0.0)||('the', '', '', '', 0.0)||('health status', 'noun', 'C0018759', ['qlco'], 0.0)||('of', '', '', '', 0.0)||('patients', 'noun', 'C0030705', ['podg'], 0.0)||('with', '', '', '', 0.0)||('chronic obstructive pulmonary disease', '', '', '', 0.0)||('but', '', '', '', 0.0)||('also', '', '', '', 0.0)||('modify', '', '', '', 0.0)||('its', '', '', '', 0.0)||('natural', 'adj', 'C0205296', ['ftcn'], 0.0)||('course', 'noun', 'C0750729', ['tmco'], 0.0)||('.', '', '', '', 0.0)||
('to', '', '', '', 0.0)||('systematically', '', '', '', 0.0)||('review', 'verb', 'C0282443', ['inpr'], 0.0)||('the', '', '', '', 0.0)||('impact', '', '', '', 0.0)||('of', '', '', '', 0.0)||('long - acting', '', '', '', 0.0)||('bronchodilators', 'noun', 'C0006280', ['phsu'], 0.0)||(',', '', '', '', 0.0)||('inhaled corticosteroids', '', '', '', 0.0)||(',', '', '', '', 0.0)||('nocturnal', 'adj', 'C0240526', ['tmco'], 0.0)||('noninvasive mechanical ventilation', 'noun', 'C1868982', ['topp'], 0.0)||(',', '', '', '', 0.0)||('pulmonary rehabilitation', 'noun', 'C0199529', ['topp'], 0.0)||(',', '', '', '', 0.0)||('domiciliary oxygen therapy', '', '', '', 0.0)||(',', '', '', '', 0.0)||('and', '', '', '', 0.0)||('disease management', 'noun', 'C0039798', ['ftcn'], 0.0)||('programs', 'verb', 'C0376691', ['inpr'], 0.0)||('on', '', '', '', 0.0)||('clinical', 'adj', 'C0205210', ['qlco'], 0.0)||('outcomes', 'noun', 'C0085415', ['qlco'], 0.0)||('in', '', '', '', 0.0)||('patients', 'noun', 'C0030705', ['podg'], 0.0)||('with', '', '', '', 0.0)||('chronic obstructive pulmonary disease', '', '', '', 0.0)||('.', '', '', '', 0.0)||
('medline', 'noun', 'C0025141', ['inpr'], 0.0)||('and', '', '', '', 0.0)||('cochrane', '', '', '', 0.0)||('databases', 'noun', 'C0242356', ['inpr'], 0.0)||('were', '', '', '', 0.0)||('searched', 'verb', 'C1706202', ['acty'], 0.0)||('to', '', '', '', 0.0)||('identify', '', '', '', 0.0)||('all', '', '', '', 0.0)||('randomized controlled trials', '', '', '', 0.0)||('and', '', '', '', 0.0)||('systematic reviews', '', '', '', 0.0)||('from', '', '', '', 0.0)||('1980', '', '', '', 0.0)||('to', '', '', '', 0.0)||('may', '', '', '', 0.0)||('2002', '', '', '', 0.0)||('evaluating', 'adj', 'C0220825', ['ftcn'], 0.0)||('interventions', '', '', '', 0.0)||('in', '', '', '', 0.0)||('patients', 'noun', 'C0030705', ['podg'], 0.0)||('with', '', '', '', 0.0)||('chronic obstructive pulmonary disease', '', '', '', 0.0)||('.', '', '', '', 0.0)||
('we', '', '', '', 0.0)||('also', '', '', '', 0.0)||('hand searched', '', '', '', 0.0)||('bibliographies', '', '', '', 0.0)||('of', '', '', '', 0.0)||('relevant', 'adj', 'C2347946', ['qlco'], 0.0)||('articles', '', '', '', 0.0)||('and', '', '', '', 0.0)||('contacted', '', '', '', 0.0)||('experts', '', '', '', 0.0)||('in the field', '', '', '', 0.0)||('.', '', '', '', 0.0)||
('we', '', '', '', 0.0)||('included', '', '', '', 0.0)||('randomized controlled trials', '', '', '', 0.0)||('that', '', '', '', 0.0)||('had', '', '', '', 0.0)||('follow - up', '', '', '', 0.0)||('of', '', '', '', 0.0)||('at', '', '', '', 0.0)||('least', '', '', '', 0.0)||('3', '', '', '', 0.0)||('months', 'noun', 'C0439231', ['tmco'], 0.0)||('and', '', '', '', 0.0)||('contained', 'adj', 'C2700400', ['acty'], 0.0)||('data', 'noun', 'C1511726', ['idcn'], 0.0)||('on', '', '', '', 0.0)||('at', '', '', '', 0.0)||('least', '', '', '', 0.0)||('1', '', '', '', 0.0)||('of', '', '', '', 0.0)||('these', '', '', '', 0.0)||('clinical', 'adj', 'C0205210', ['qlco'], 0.0)||('outcomes', 'noun', 'C0085415', ['qlco'], 0.0)||(':', '', '', '', 0.0)||('health', 'noun', 'C0018684', ['idcn'], 0.0)||('-', '', '', '', 0.0)||('related', 'adj', 'C0439849', ['qlco'], 0.0)||('quality', 'noun', 'C0332306', ['qlco'], 0.0)||('of', '', '', '', 0.0)||('life', 'noun', 'C0376558', ['idcn'], 0.0)||(',', '', '', '', 0.0)||('exacerbations', '', '', '', 0.0)||('associated', 'verb', 'C0332281', ['qlco'], 0.0)||('with', '', '', '', 0.0)||('chronic obstructive pulmonary disease', '', '', '', 0.0)||(',', '', '', '', 0.0)||('or', '', '', '', 0.0)||('death', 'noun', 'C0011065', ['orgf'], 0.0)||('.', '', '', '', 0.0)||
('for', '', '', '', 0.0)||('pulmonary rehabilitation', 'noun', 'C0199529', ['topp'], 0.0)||(',', '', '', '', 0.0)||('we', '', '', '', 0.0)||('included', '', '', '', 0.0)||('studies', '', '', '', 0.0)||('that', '', '', '', 0.0)||('had', '', '', '', 0.0)||('a', '', '', '', 0.0)||('follow - up', '', '', '', 0.0)||('of', '', '', '', 0.0)||('at', '', '', '', 0.0)||('least', '', '', '', 0.0)||('6', '', '', '', 0.0)||('weeks', 'noun', 'C0439230', ['tmco'], 0.0)||('.', '', '', '', 0.0)||
('using', 'verb', 'C1524063', ['ftcn'], 0.0)||('standard', 'adj', 'C1442989', ['ftcn'], 0.0)||('meta - analytic', '', '', '', 0.0)||('techniques', 'noun', 'C0025664', ['inpr'], 0.0)||(',', '', '', '', 0.0)||('the', '', '', '', 0.0)||('effects', '', '', '', 0.0)||('of', '', '', '', 0.0)||('interventions', '', '', '', 0.0)||('were', '', '', '', 0.0)||('compared', 'verb', 'C1707455', ['acty'], 0.0)||('with', '', '', '', 0.0)||('placebo', 'noun', 'C0032042', ['topp'], 0.0)||('or', '', '', '', 0.0)||('with', '', '', '', 0.0)||('usual', '', '', '', 0.0)||('care', 'noun', 'C0580931', ['fndg'], 0.0)||('.', '', '', '', 0.0)||
('in', '', '', '', 0.0)||('secondary', 'adj', 'C0175668', ['tmco'], 0.0)||('analyses', '', '', '', 0.0)||(',', '', '', '', 0.0)||('the', '', '', '', 0.0)||('effects', '', '', '', 0.0)||('of', '', '', '', 0.0)||('interventions', '', '', '', 0.0)||('were', '', '', '', 0.0)||('compared', 'verb', 'C1707455', ['acty'], 0.0)||('against', '', '', '', 0.0)||('each other', '', '', '', 0.0)||(',', '', '', '', 0.0)||('where', '', '', '', 0.0)||('possible', 'adj', 'C0332149', ['qlco'], 0.0)||('.', '', '', '', 0.0)||
('long - acting beta2 - agonists', '', '', '', 0.0)||('and', '', '', '', 0.0)||('anticholinergics', 'noun', 'C0242896', ['phsu'], 0.0)||('(', '', '', '', 0.0)||('tiotropium', 'noun', 'C0213771', ['orch', 'phsu'], 0.0)||(')', '', '', '', 0.0)||('reduced', 'adj', 'C0392756', ['qlco'], 0.0)||('exacerbation', '', '', '', 0.0)||('rates', '', '', '', 0.0)||('by', '', '', '', 0.0)||('approximately', 'adv', 'C0332232', ['qlco'], 0.0)||('20 %', '', '', '', 0.0)||('to', '', '', '', 0.0)||('25 %', '', '', '', 0.0)||('(', '', '', '', 0.0)||('relative risk', 'noun', 'C0242492', ['qnco'], 0.0)||('for', '', '', '', 0.0)||('long - acting beta2 - agonists', '', '', '', 0.0)||(',', '', '', '', 0.0)||('0 . 79', '', '', '', 0.0)||(';', '', '', '', 0.0)||('95 %', '', '', '', 0.0)||('ci', 'noun', 'C1417638', ['gngm'], 0.0)||(',', '', '', '', 0.0)||('0 . 69', '', '', '', 0.0)||('-', '', '', '', 0.0)||('0 . 90', '', '', '', 0.0)||(';', '', '', '', 0.0)||('relative risk', 'noun', 'C0242492', ['qnco'], 0.0)||('for', '', '', '', 0.0)||('tiotropium', 'noun', 'C0213771', ['orch', 'phsu'], 0.0)||(',', '', '', '', 0.0)||('0 . 74', '', '', '', 0.0)||(';', '', '', '', 0.0)||('95 %', '', '', '', 0.0)||('ci', 'noun', 'C1417638', ['gngm'], 0.0)||(',', '', '', '', 0.0)||('0 . 62', '', '', '', 0.0)||('-', '', '', '', 0.0)||('0 . 89', '', '', '', 0.0)||(')', '', '', '', 0.0)||('in', '', '', '', 0.0)||('patients', 'noun', 'C0030705', ['podg'], 0.0)||('with', '', '', '', 0.0)||('moderate', 'adj', 'C0205081', ['qlco'], 0.0)||('to', '', '', '', 0.0)||('severe', 'adj', 'C0205082', ['qlco'], 0.0)||('chronic obstructive pulmonary disease', '', '', '', 0.0)||('.', '', '', '', 0.0)||
('inhaled corticosteroids', '', '', '', 0.0)||('also', '', '', '', 0.0)||('reduced', 'adj', 'C0392756', ['qlco'], 0.0)||('exacerbation', '', '', '', 0.0)||('rates', '', '', '', 0.0)||('by', '', '', '', 0.0)||('a', '', '', '', 0.0)||('similar', 'adj', 'C2348205', ['qlco'], 0.0)||('amount', 'noun', 'C1265611', ['qnco'], 0.0)||('(', '', '', '', 0.0)||('relative risk', 'noun', 'C0242492', ['qnco'], 0.0)||(',', '', '', '', 0.0)||('0 . 76', '', '', '', 0.0)||(';', '', '', '', 0.0)||('95 %', '', '', '', 0.0)||('ci', 'noun', 'C1417638', ['gngm'], 0.0)||(',', '', '', '', 0.0)||('0 . 72', '', '', '', 0.0)||('-', '', '', '', 0.0)||('0 . 80', '', '', '', 0.0)||(')', '', '', '', 0.0)||('.', '', '', '', 0.0)||
('the', '', '', '', 0.0)||('beneficial', '', '', '', 0.0)||('effects', '', '', '', 0.0)||('were', '', '', '', 0.0)||('most', '', '', '', 0.0)||('pronounced', '', '', '', 0.0)||('in', '', '', '', 0.0)||('trials', '', '', '', 0.0)||('enrolling', '', '', '', 0.0)||('patients', 'noun', 'C0030705', ['podg'], 0.0)||('with', '', '', '', 0.0)||('fev1', 'noun', 'C0802965', ['clna'], 0.0)||('between', '', '', '', 0.0)||('1', '', '', '', 0.0)||('l', '', '', '', 0.0)||('and', '', '', '', 0.0)||('2', '', '', '', 0.0)||('l', '', '', '', 0.0)||('.', '', '', '', 0.0)||
('combining', '', '', '', 0.0)||('a long', '', '', '', 0.0)||('-', '', '', '', 0.0)||('acting', '', '', '', 0.0)||('beta2', 'noun', 'C1417683', ['gngm'], 0.0)||('-', '', '', '', 0.0)||('agonist', 'noun', 'C0243192', ['phsu'], 0.0)||('with', '', '', '', 0.0)||('an', '', '', '', 0.0)||('inhaled corticosteroid', '', '', '', 0.0)||('resulted', '', '', '', 0.0)||('in', '', '', '', 0.0)||('an', '', '', '', 0.0)||('approximate', 'adj', 'C0332232', ['qlco'], 0.0)||('30 %', '', '', '', 0.0)||('(', '', '', '', 0.0)||('relative risk', 'noun', 'C0242492', ['qnco'], 0.0)||(',', '', '', '', 0.0)||('0 . 70', '', '', '', 0.0)||(';', '', '', '', 0.0)||('95 %', '', '', '', 0.0)||('ci', 'noun', 'C1417638', ['gngm'], 0.0)||(',', '', '', '', 0.0)||('0 . 62', '', '', '', 0.0)||('-', '', '', '', 0.0)||('0 . 78', '', '', '', 0.0)||(')', '', '', '', 0.0)||('reduction', 'noun', 'C0301630', ['npop'], 0.0)||('in', '', '', '', 0.0)||('exacerbations', '', '', '', 0.0)||('.', '', '', '', 0.0)||
('pulmonary rehabilitation', 'noun', 'C0199529', ['topp'], 0.0)||('improved', 'verb', 'C0184511', ['qlco'], 0.0)||('the', '', '', '', 0.0)||('health status', 'noun', 'C0018759', ['qlco'], 0.0)||('of', '', '', '', 0.0)||('patients', 'noun', 'C0030705', ['podg'], 0.0)||('with', '', '', '', 0.0)||('moderate', 'adj', 'C0205081', ['qlco'], 0.0)||('to', '', '', '', 0.0)||('severe', 'adj', 'C0205082', ['qlco'], 0.0)||('disease', 'noun', 'C0012634', ['dsyn'], 0.0)||(',', '', '', '', 0.0)||('but', '', '', '', 0.0)||('no', '', '', '', 0.0)||('material', 'noun', 'C0520510', ['sbst'], 0.0)||('effect', 'noun', 'C1280500', ['qlco'], 0.0)||('was', '', '', '', 0.0)||('observed', 'verb', 'C1441672', ['ftcn'], 0.0)||('on', '', '', '', 0.0)||('long - term', '', '', '', 0.0)||('survival', 'noun', 'C0038952', ['acty'], 0.0)||('or', '', '', '', 0.0)||('hospitalization rates', '', '', '', 0.0)||('.', '', '', '', 0.0)||
('domiciliary oxygen therapy', '', '', '', 0.0)||('improved', 'verb', 'C0184511', ['qlco'], 0.0)||('survival', 'noun', 'C0038952', ['acty'], 0.0)||('by', '', '', '', 0.0)||('approximately', 'adv', 'C0332232', ['qlco'], 0.0)||('40 %', '', '', '', 0.0)||('in', '', '', '', 0.0)||('patients', 'noun', 'C0030705', ['podg'], 0.0)||('with', '', '', '', 0.0)||('pao2', 'noun', 'C0483414', ['lbpr'], 0.0)||('lower', 'adj', 'C0441994', ['ftcn'], 0.0)||('than', '', '', '', 0.0)||('60', '', '', '', 0.0)||('mm hg', 'noun', 'C0439475', ['qnco'], 0.0)||(',', '', '', '', 0.0)||('but', '', '', '', 0.0)||('not', 'adv', 'C1518422', ['ftcn'], 0.0)||('in', '', '', '', 0.0)||('those', '', '', '', 0.0)||('without', '', '', '', 0.0)||('hypoxia', 'noun', 'C0242184', ['patf'], 0.0)||('at', '', '', '', 0.0)||('rest', 'noun', 'C0035253', ['dora'], 0.0)||('.', '', '', '', 0.0)||
('the', '', '', '', 0.0)||('data', 'noun', 'C1511726', ['idcn'], 0.0)||('on', '', '', '', 0.0)||('disease management', 'noun', 'C0039798', ['ftcn'], 0.0)||('programs', 'noun', 'C0376691', ['inpr'], 0.0)||('were', '', '', '', 0.0)||('heterogeneous', 'adj', 'C0019409', ['qlco'], 0.0)||(',', '', '', '', 0.0)||('but', '', '', '', 0.0)||('overall', 'adv', 'C0282416', ['inpr'], 0.0)||('no', '', '', '', 0.0)||('effect', 'noun', 'C1280500', ['qlco'], 0.0)||('was', '', '', '', 0.0)||('observed', 'verb', 'C1441672', ['ftcn'], 0.0)||('on', '', '', '', 0.0)||('survival', 'noun', 'C0038952', ['acty'], 0.0)||('or', '', '', '', 0.0)||('risk', 'noun', 'C0035647', ['qlco'], 0.0)||('of', '', '', '', 0.0)||('hospitalization', '', '', '', 0.0)||('.', '', '', '', 0.0)||
('noninvasive mechanical ventilation', 'noun', 'C1868982', ['topp'], 0.0)||('was', '', '', '', 0.0)||('not', 'adv', 'C1518422', ['ftcn'], 0.0)||('associated', 'verb', 'C0332281', ['qlco'], 0.0)||('with', '', '', '', 0.0)||('improved', 'adj', 'C0184511', ['qlco'], 0.0)||('outcomes', 'noun', 'C0085415', ['qlco'], 0.0)||('.', '', '', '', 0.0)||
('a', '', '', '', 0.0)||('significant', 'adj', 'C0750502', ['idcn'], 0.0)||('body', 'noun', 'C0460148', ['anst'], 0.0)||('of', '', '', '', 0.0)||('evidence', 'noun', 'C0332120', ['ftcn'], 0.0)||('supports', 'verb', 'C0183683', ['medd'], 0.0)||('the', '', '', '', 0.0)||('use', 'noun', 'C0042153', ['ftcn'], 0.0)||('of', '', '', '', 0.0)||('long - acting', '', '', '', 0.0)||('bronchodilators', 'noun', 'C0006280', ['phsu'], 0.0)||('and', '', '', '', 0.0)||('inhaled corticosteroids', '', '', '', 0.0)||('in', '', '', '', 0.0)||('reducing', 'adj', 'C0392756', ['qlco'], 0.0)||('exacerbations', '', '', '', 0.0)||('in', '', '', '', 0.0)||('patients', 'noun', 'C0030705', ['podg'], 0.0)||('with', '', '', '', 0.0)||('moderate', 'adj', 'C0205081', ['qlco'], 0.0)||('to', '', '', '', 0.0)||('severe', 'adj', 'C0205082', ['qlco'], 0.0)||('chronic obstructive pulmonary disease', '', '', '', 0.0)||('.', '', '', '', 0.0)||
('domiciliary oxygen therapy', '', '', '', 0.0)||('is', '', '', '', 0.0)||('the', '', '', '', 0.0)||('only', '', '', '', 0.0)||('intervention', 'noun', 'C1273869', ['hlca'], 0.0)||('that', '', '', '', 0.0)||('has', '', '', '', 0.0)||('been', '', '', '', 0.0)||('demonstrated', '', '', '', 0.0)||('to', '', '', '', 0.0)||('prolong', '', '', '', 0.0)||('survival', 'noun', 'C0038952', ['acty'], 0.0)||(',', '', '', '', 0.0)||('but', '', '', '', 0.0)||('only', '', '', '', 0.0)||('in', '', '', '', 0.0)||('patients', 'noun', 'C0030705', ['podg'], 0.0)||('with', '', '', '', 0.0)||('resting', 'adj', 'C0035253', ['dora'], 0.0)||('hypoxia', 'noun', 'C0242184', ['patf'], 0.0)||('.', '', '', '', 0.0)||
