('probably', 'adv', 'C0750492', ['idcn'], 0.0)||('not', 'adv', 'C1518422', ['ftcn'], 0.0)||('.', '', '', '', 0.0)||
('only', '', '', '', 0.0)||('1', '', '', '', 0.0)||('appetite', 'noun', 'C0003618', ['orgf'], 0.0)||('stimulate', '', '', '', 0.0)||(',', '', '', '', 0.0)||('megestrol acetate', 'noun', 'C0065879', ['horm', 'phsu', 'strd'], 0.0)||('oral', 'adj', 'C0442027', ['spco'], 0.0)||('suspension', 'noun', 'C0038960', ['bodm'], 0.0)||('(', '', '', '', 0.0)||('megace', 'noun', 'C0700004', ['horm', 'phsu', 'strd'], 0.0)||(')', '', '', '', 0.0)||('at', '', '', '', 0.0)||('400', '', '', '', 0.0)||('mg', '', '', '', 0.0)||('or', '', '', '', 0.0)||('800', '', '', '', 0.0)||('mg', '', '', '', 0.0)||('daily', 'adv', 'C0332173', ['tmco'], 0.0)||(',', '', '', '', 0.0)||('has', '', '', '', 0.0)||('been', '', '', '', 0.0)||('studied', '', '', '', 0.0)||('in', '', '', '', 0.0)||('this', '', '', '', 0.0)||('population', 'noun', 'C0032659', ['qnco'], 0.0)||('.', '', '', '', 0.0)||
('the', '', '', '', 0.0)||('data', 'noun', 'C1511726', ['idcn'], 0.0)||('show', 'verb', 'C1547282', ['inpr'], 0.0)||('only', '', '', '', 0.0)||('limited', 'adj', 'C0439801', ['ftcn'], 0.0)||('benefit', 'noun', 'C0814225', ['qnco'], 0.0)||(',', '', '', '', 0.0)||('mixed', 'adj', 'C0205430', ['ftcn'], 0.0)||('outcomes', 'noun', 'C0085415', ['qlco'], 0.0)||(',', '', '', '', 0.0)||('and', '', '', '', 0.0)||('potential', 'adj', 'C0035647', ['qlco'], 0.0)||('harm', '', '', '', 0.0)||('.', '', '', '', 0.0)||
