('to', '', '', '', 0.0)||('test', 'verb', 'C0022885', ['lbpr'], 0.0)||('the', '', '', '', 0.0)||('hypothesis', 'noun', 'C1512571', ['idcn'], 0.0)||('that', '', '', '', 0.0)||('glucose intolerance', 'noun', 'C0271650', ['dsyn'], 0.0)||('does', '', '', '', 0.0)||('not', 'adv', 'C1518422', ['ftcn'], 0.0)||('occur', 'verb', 'C1709305', ['cnce'], 0.0)||('when', '', '', '', 0.0)||('healthy', '', '', '', 0.0)||('adults', 'noun', 'C0001675', ['aggp'], 0.0)||('consume', '', '', '', 0.0)||('normal', 'adj', 'C0205307', ['qlco'], 0.0)||(',', '', '', '', 0.0)||('recommended', 'adj', 'C0034866', ['idcn'], 0.0)||('dosages', 'noun', 'C0178602', ['qnco'], 0.0)||('of', '', '', '', 0.0)||('glucosamine sulfate', 'noun', 'C0017720', ['carb', 'phsu'], 0.0)||('.', '', '', '', 0.0)||
('healthy', '', '', '', 0.0)||('adults', 'noun', 'C0001675', ['aggp'], 0.0)||('(', '', '', '', 0.0)||('n =', '', '', '', 0.0)||('19', '', '', '', 0.0)||(')', '', '', '', 0.0)||('ingested', 'verb', 'C0232478', ['biof'], 0.0)||('1500', '', '', '', 0.0)||('mg', '', '', '', 0.0)||('of', '', '', '', 0.0)||('glucosamine sulfate', 'noun', 'C0017720', ['carb', 'phsu'], 0.0)||('or', '', '', '', 0.0)||('placebo', 'noun', 'C0032042', ['topp'], 0.0)||('(', '', '', '', 0.0)||('double blind', 'adj', 'C0013072', ['resa'], 0.0)||(')', '', '', '', 0.0)||('each', '', '', '', 0.0)||('day', 'noun', 'C0439228', ['tmco'], 0.0)||('for', '', '', '', 0.0)||('12', '', '', '', 0.0)||('weeks', 'noun', 'C0439230', ['tmco'], 0.0)||('.', '', '', '', 0.0)||
('three', '', 'C0205449', ['qnco'], 0.0)||('-', '', '', '', 0.0)||('hour', 'noun', 'C0439227', ['tmco'], 0.0)||('oral glucose tolerance tests', '', '', '', 0.0)||('were', '', '', '', 0.0)||('performed', 'verb', 'C0884358', ['ftcn'], 0.0)||('using', 'verb', 'C1524063', ['ftcn'], 0.0)||('75', '', '', '', 0.0)||('g', '', '', '', 0.0)||('of', '', '', '', 0.0)||('dextrose', 'noun', 'C0017725', ['bacs', 'carb', 'phsu'], 0.0)||('.', '', '', '', 0.0)||
('these', '', '', '', 0.0)||('occurred', 'verb', 'C1709305', ['cnce'], 0.0)||('before', '', '', '', 0.0)||('the', '', '', '', 0.0)||('start', 'noun', 'C0439659', ['tmco'], 0.0)||('of', '', '', '', 0.0)||('supplementation', 'noun', 'C1515075', ['topp'], 0.0)||(',', '', '', '', 0.0)||('at', '', '', '', 0.0)||('6', '', '', '', 0.0)||('weeks', 'noun', 'C0439230', ['tmco'], 0.0)||(',', '', '', '', 0.0)||('and', '', '', '', 0.0)||('at', '', '', '', 0.0)||('the', '', '', '', 0.0)||('completion', 'noun', 'C0205197', ['qlco'], 0.0)||('of', '', '', '', 0.0)||('supplementation', 'noun', 'C1515075', ['topp'], 0.0)||('(', '', '', '', 0.0)||('12', '', '', '', 0.0)||('weeks', 'noun', 'C0439230', ['tmco'], 0.0)||(')', '', '', '', 0.0)||('.', '', '', '', 0.0)||
('there', '', '', '', 0.0)||('were', '', '', '', 0.0)||('no', '', '', '', 0.0)||('significant', 'adj', 'C0750502', ['idcn'], 0.0)||('differences', '', '', '', 0.0)||('between', '', '', '', 0.0)||('fasted', '', '', '', 0.0)||('levels', 'noun', 'C0441889', ['qlco'], 0.0)||('of', '', '', '', 0.0)||('serum', 'noun', 'C0229671', ['bdsu'], 0.0)||('insulin', 'noun', 'C0021641', ['aapp', 'horm', 'phsu'], 0.0)||('or', '', '', '', 0.0)||('blood glucose', 'noun', 'C0005802', ['carb'], 0.0)||('.', '', '', '', 0.0)||
('glucosamine sulfate', 'noun', 'C0017720', ['carb', 'phsu'], 0.0)||('supplementation', 'noun', 'C1515075', ['topp'], 0.0)||('did', '', '', '', 0.0)||('not', 'adv', 'C1518422', ['ftcn'], 0.0)||('alter', '', '', '', 0.0)||('serum', 'noun', 'C0229671', ['bdsu'], 0.0)||('insulin', 'noun', 'C0021641', ['aapp', 'horm', 'phsu'], 0.0)||('or', '', '', '', 0.0)||('plasma glucose', 'noun', 'C0202042', ['lbpr'], 0.0)||('during', '', '', '', 0.0)||('the', '', '', '', 0.0)||('oral glucose tolerance tests', '', '', '', 0.0)||('.', '', '', '', 0.0)||
('there', '', '', '', 0.0)||('were', '', '', '', 0.0)||('no', '', '', '', 0.0)||('significant', 'adj', 'C0750502', ['idcn'], 0.0)||('differences', '', '', '', 0.0)||('within', '', '', '', 0.0)||('or', '', '', '', 0.0)||('between', '', '', '', 0.0)||('treatments', 'noun', 'C0087111', ['topp'], 0.0)||(',', '', '', '', 0.0)||('ages', '', '', '', 0.0)||('or', '', '', '', 0.0)||('gender', 'noun', 'C0079399', ['orga'], 0.0)||('.', '', '', '', 0.0)||
('glycated hemoglobin', '', '', '', 0.0)||('measurements', '', '', '', 0.0)||('at', '', '', '', 0.0)||('the', '', '', '', 0.0)||('three', '', 'C0205449', ['qnco'], 0.0)||('time points', '', '', '', 0.0)||('showed', '', '', '', 0.0)||('no', '', '', '', 0.0)||('significant', 'adj', 'C0750502', ['idcn'], 0.0)||('change over', '', '', '', 0.0)||('time', 'noun', 'C0040223', ['tmco'], 0.0)||(',', '', '', '', 0.0)||('within', '', '', '', 0.0)||('or', '', '', '', 0.0)||('between', '', '', '', 0.0)||('treatments', 'noun', 'C0087111', ['topp'], 0.0)||(',', '', '', '', 0.0)||('ages', '', '', '', 0.0)||('or', '', '', '', 0.0)||('gender', 'noun', 'C0079399', ['orga'], 0.0)||('.', '', '', '', 0.0)||
('the', '', '', '', 0.0)||('lack', 'noun', 'C0332268', ['qlco'], 0.0)||('of', '', '', '', 0.0)||('significant', 'adj', 'C0750502', ['idcn'], 0.0)||('changes', '', '', '', 0.0)||('may', '', '', '', 0.0)||('have', '', '', '', 0.0)||('been', '', '', '', 0.0)||('due to', '', '', '', 0.0)||('large', 'adj', 'C0549177', ['qnco'], 0.0)||('standard deviations', '', '', '', 0.0)||('in', '', '', '', 0.0)||('the', '', '', '', 0.0)||('data', 'noun', 'C1511726', ['idcn'], 0.0)||('.', '', '', '', 0.0)||
('the', '', '', '', 0.0)||('data', 'noun', 'C1511726', ['idcn'], 0.0)||('suggests', '', '', '', 0.0)||('that', '', '', '', 0.0)||('glucosamine', 'noun', 'C0017718', ['carb', 'phsu'], 0.0)||('supplementation', 'noun', 'C1515075', ['topp'], 0.0)||(',', '', '', '', 0.0)||('with', '', '', '', 0.0)||('normal', 'adj', 'C0205307', ['qlco'], 0.0)||('recommended', 'adj', 'C0034866', ['idcn'], 0.0)||('dosages', 'noun', 'C0178602', ['qnco'], 0.0)||(',', '', '', '', 0.0)||('does', '', '', '', 0.0)||('not', 'adv', 'C1518422', ['ftcn'], 0.0)||('cause', 'verb', 'C1524003', ['cnce'], 0.0)||('glucose intolerance', 'noun', 'C0271650', ['dsyn'], 0.0)||('in', '', '', '', 0.0)||('healthy', '', '', '', 0.0)||('adults', 'noun', 'C0001675', ['aggp'], 0.0)||('.', '', '', '', 0.0)||
('this', '', '', '', 0.0)||('cannot', '', '', '', 0.0)||('be', '', '', '', 0.0)||('determined', '', '', '', 0.0)||('conclusively', '', '', '', 0.0)||(',', '', '', '', 0.0)||('however', '', '', '', 0.0)||(',', '', '', '', 0.0)||('until', '', '', '', 0.0)||('further', 'adj', 'C1517331', ['spco'], 0.0)||('studies', '', '', '', 0.0)||('are', '', '', '', 0.0)||('conducted', '', '', '', 0.0)||('using', 'verb', 'C1524063', ['ftcn'], 0.0)||('alternative', 'adj', 'C1523987', ['cnce'], 0.0)||('types', 'noun', 'C0332307', ['qlco'], 0.0)||('of', '', '', '', 0.0)||('testing', 'noun', 'C0039593', ['ftcn'], 0.0)||('.', '', '', '', 0.0)||
