('previous', 'adj', 'C0205156', ['tmco'], 0.0)||('reports', 'noun', 'C0684224', ['inpr'], 0.0)||('have', '', '', '', 0.0)||('suggested', '', '', '', 0.0)||('that', '', '', '', 0.0)||('disturbances', '', '', '', 0.0)||('in', '', '', '', 0.0)||('calcium', 'noun', 'C0006675', ['bacs', 'elii', 'phsu'], 0.0)||('regulation', 'noun', 'C0851285', ['gora'], 0.0)||('may', '', '', '', 0.0)||('underlie', '', '', '', 0.0)||('the', '', '', '', 0.0)||('pathophysiologic', '', '', '', 0.0)||('characteristics', 'noun', 'C1521970', ['qlco'], 0.0)||('of', '', '', '', 0.0)||('premenstrual syndrome', 'noun', 'C0033046', ['dsyn'], 0.0)||('and', '', '', '', 0.0)||('that', '', '', '', 0.0)||('calcium', 'noun', 'C0006675', ['bacs', 'elii', 'phsu'], 0.0)||('supplementation', 'noun', 'C1515075', ['topp'], 0.0)||('may', '', '', '', 0.0)||('be', '', '', '', 0.0)||('an', '', '', '', 0.0)||('effective', 'adj', 'C1704419', ['qlco'], 0.0)||('therapeutic', 'adj', 'C0039796', ['topp'], 0.0)||('approach', 'noun', 'C0449445', ['spco'], 0.0)||('.', '', '', '', 0.0)||
('to', '', '', '', 0.0)||('evaluate', 'verb', 'C0220825', ['ftcn'], 0.0)||('the', '', '', '', 0.0)||('effect', 'noun', 'C1280500', ['qlco'], 0.0)||('of', '', '', '', 0.0)||('calcium carbonate', 'noun', 'C0006681', ['orch', 'phsu'], 0.0)||('on', '', '', '', 0.0)||('the', '', '', '', 0.0)||('luteal', '', '', '', 0.0)||('and', '', '', '', 0.0)||('menstrual phases', '', '', '', 0.0)||('of', '', '', '', 0.0)||('the', '', '', '', 0.0)||('menstrual cycle', 'noun', 'C0025329', ['orgf'], 0.0)||('in', '', '', '', 0.0)||('premenstrual syndrome', 'noun', 'C0033046', ['dsyn'], 0.0)||(',', '', '', '', 0.0)||('a', '', '', '', 0.0)||('prospective', 'adj', 'C0023981', ['resa'], 0.0)||(',', '', '', '', 0.0)||('randomized', 'verb', 'C0034656', ['resa'], 0.0)||(',', '', '', '', 0.0)||('double - blind', '', '', '', 0.0)||(',', '', '', '', 0.0)||('placebo - controlled', '', '', '', 0.0)||(',', '', '', '', 0.0)||('parallel', 'noun', 'C2348042', ['qlco'], 0.0)||('-', '', '', '', 0.0)||('group', 'noun', 'C0441833', ['idcn'], 0.0)||(',', '', '', '', 0.0)||('multicenter', '', '', '', 0.0)||('clinical trial', 'noun', 'C0008976', ['resa'], 0.0)||('was', '', '', '', 0.0)||('conducted', '', '', '', 0.0)||('.', '', '', '', 0.0)||
('healthy', '', '', '', 0.0)||(',', '', '', '', 0.0)||('premenopausal', 'adj', 'C0279752', ['tmco'], 0.0)||('women', 'noun', 'C0043210', ['popg'], 0.0)||('between', '', '', '', 0.0)||('the', '', '', '', 0.0)||('ages', '', '', '', 0.0)||('of', '', '', '', 0.0)||('18', '', '', '', 0.0)||('and', '', '', '', 0.0)||('45', '', '', '', 0.0)||('years', 'noun', 'C0439234', ['tmco'], 0.0)||('were', '', '', '', 0.0)||('recruited', '', '', '', 0.0)||('nationally', '', '', '', 0.0)||('across', '', '', '', 0.0)||('the', '', '', '', 0.0)||('united states', 'noun', 'C0041703', ['geoa'], 0.0)||('at', '', '', '', 0.0)||('12', '', '', '', 0.0)||('outpatient', 'adj', 'C0029921', ['podg'], 0.0)||('centers', '', '', '', 0.0)||('and', '', '', '', 0.0)||('screened', '', '', '', 0.0)||('for', '', '', '', 0.0)||('moderate', 'adj', 'C0205081', ['qlco'], 0.0)||('-', '', '', '', 0.0)||('to', '', '', '', 0.0)||('-', '', '', '', 0.0)||('severe', 'adj', 'C0205082', ['qlco'], 0.0)||(',', '', '', '', 0.0)||('cyclically', '', '', '', 0.0)||('recurring', 'verb', 'C0034897', ['phpr'], 0.0)||('premenstrual', 'adj', 'C0443282', ['tmco'], 0.0)||('symptoms', 'noun', 'C0683368', ['ftcn'], 0.0)||('.', '', '', '', 0.0)||
('symptoms', 'noun', 'C0683368', ['ftcn'], 0.0)||('were', '', '', '', 0.0)||('prospectively', '', '', '', 0.0)||('documented', 'verb', 'C1301725', ['hlca'], 0.0)||('over', '', '', '', 0.0)||('2', '', '', '', 0.0)||('menstrual cycles', '', '', '', 0.0)||('with', '', '', '', 0.0)||('a', '', '', '', 0.0)||('daily', 'adj', 'C0332173', ['tmco'], 0.0)||('rating', 'adj', 'C0871208', ['acty'], 0.0)||('scale', 'noun', 'C0175659', ['medd'], 0.0)||('that', '', '', '', 0.0)||('had', '', '', '', 0.0)||('17', '', '', '', 0.0)||('core', 'noun', 'C0444669', ['spco'], 0.0)||('symptoms', 'noun', 'C0683368', ['ftcn'], 0.0)||('and', '', '', '', 0.0)||('4', '', '', '', 0.0)||('symptom', '', '', '', 0.0)||('factors', '', '', '', 0.0)||('(', '', '', '', 0.0)||('negative', 'noun', 'C0205160', ['qlco'], 0.0)||('affect', 'verb', 'C0001721', ['menp'], 0.0)||(',', '', '', '', 0.0)||('water', 'noun', 'C0043047', ['inch', 'phsu'], 0.0)||('retention', 'noun', 'C0035280', ['menp'], 0.0)||(',', '', '', '', 0.0)||('food', 'noun', 'C0016452', ['food'], 0.0)||('cravings', 'noun', 'C0870371', ['inbe'], 0.0)||(',', '', '', '', 0.0)||('and', '', '', '', 0.0)||('pain', 'noun', 'C0030193', ['sosy'], 0.0)||(')', '', '', '', 0.0)||('.', '', '', '', 0.0)||
('participants', '', '', '', 0.0)||('were', '', '', '', 0.0)||('randomly', '', '', '', 0.0)||('assigned', 'verb', 'C1516050', ['ftcn'], 0.0)||('to', '', '', '', 0.0)||('receive', 'verb', 'C1514756', ['qlco'], 0.0)||('1200', '', '', '', 0.0)||('mg', '', '', '', 0.0)||('of', '', '', '', 0.0)||('elemental', '', '', '', 0.0)||('calcium', 'noun', 'C0006675', ['bacs', 'elii', 'phsu'], 0.0)||('per', '', '', '', 0.0)||('day', 'noun', 'C0439228', ['tmco'], 0.0)||('in', '', '', '', 0.0)||('the', '', '', '', 0.0)||('form', 'noun', 'C0013058', ['bodm'], 0.0)||('of', '', '', '', 0.0)||('calcium carbonate', 'noun', 'C0006681', ['orch', 'phsu'], 0.0)||('or', '', '', '', 0.0)||('placebo', 'noun', 'C0032042', ['topp'], 0.0)||('for', '', '', '', 0.0)||('3', '', '', '', 0.0)||('menstrual cycles', '', '', '', 0.0)||('.', '', '', '', 0.0)||
('routine', 'adj', 'C0205547', ['qlco'], 0.0)||('chemistry', 'noun', 'C0007996', ['ocdi'], 0.0)||(',', '', '', '', 0.0)||('complete', 'adj', 'C0205197', ['qlco'], 0.0)||('blood cell count', 'noun', 'C0005771', ['lbpr'], 0.0)||(',', '', '', '', 0.0)||('and', '', '', '', 0.0)||('urinalysis', 'noun', 'C0042014', ['lbpr'], 0.0)||('were', '', '', '', 0.0)||('obtained', 'verb', 'C1301820', ['ftcn'], 0.0)||('on', '', '', '', 0.0)||('all', '', '', '', 0.0)||('participants', '', '', '', 0.0)||('.', '', '', '', 0.0)||
('daily', 'adj', 'C0332173', ['tmco'], 0.0)||('documentation', 'noun', 'C0175636', ['hlca'], 0.0)||('of', '', '', '', 0.0)||('symptoms', 'noun', 'C0683368', ['ftcn'], 0.0)||(',', '', '', '', 0.0)||('adverse effects', 'noun', 'C0001688', ['ftcn'], 0.0)||(',', '', '', '', 0.0)||('and', '', '', '', 0.0)||('compliance', 'noun', 'C0009563', ['qnco'], 0.0)||('with', '', '', '', 0.0)||('medications', 'noun', 'C0013227', ['phsu'], 0.0)||('were', '', '', '', 0.0)||('monitored', '', '', '', 0.0)||('.', '', '', '', 0.0)||
('the', '', '', '', 0.0)||('primary', 'adj', 'C0205225', ['qlco'], 0.0)||('outcome', 'noun', 'C1274040', ['ftcn'], 0.0)||('measure', 'noun', 'C0079809', ['qnco'], 0.0)||('was', '', '', '', 0.0)||('the', '', '', '', 0.0)||('17', '', '', '', 0.0)||('-', '', '', '', 0.0)||('parameter', 'noun', 'C0549193', ['spco'], 0.0)||('symptom complex', '', '', '', 0.0)||('score', 'noun', 'C0449820', ['qnco'], 0.0)||('.', '', '', '', 0.0)||
('seven hundred', '', '', '', 0.0)||('twenty', '', '', '', 0.0)||('women', 'noun', 'C0043210', ['popg'], 0.0)||('were', '', '', '', 0.0)||('screened', '', '', '', 0.0)||('for', '', '', '', 0.0)||('this', '', '', '', 0.0)||('trial', 'noun', 'C0008976', ['resa'], 0.0)||(';', '', '', '', 0.0)||
('497', '', '', '', 0.0)||('women', 'noun', 'C0043210', ['popg'], 0.0)||('were', '', '', '', 0.0)||('enrolled', '', '', '', 0.0)||(';', '', '', '', 0.0)||
('466', '', '', '', 0.0)||('were', '', '', '', 0.0)||('valid', 'adj', 'C2349099', ['qlco'], 0.0)||('for', '', '', '', 0.0)||('the', '', '', '', 0.0)||('efficacy', 'noun', 'C1707887', ['resa'], 0.0)||('analysis', 'noun', 'C0002778', ['lbpr'], 0.0)||('.', '', '', '', 0.0)||
('there', '', '', '', 0.0)||('was', '', '', '', 0.0)||('no', '', '', '', 0.0)||('difference', 'noun', 'C1705242', ['qlco'], 0.0)||('in', '', '', '', 0.0)||('age', 'noun', 'C0001779', ['orga'], 0.0)||(',', '', '', '', 0.0)||('weight', 'noun', 'C0005910', ['orga'], 0.0)||(',', '', '', '', 0.0)||('height', 'noun', 'C0489786', ['orga'], 0.0)||(',', '', '', '', 0.0)||('use', 'noun', 'C0042153', ['ftcn'], 0.0)||('of', '', '', '', 0.0)||('oral contraceptives', 'noun', 'C1548892', ['hlca'], 0.0)||(',', '', '', '', 0.0)||('or', '', '', '', 0.0)||('menstrual cycle', 'noun', 'C0025329', ['orgf'], 0.0)||('length', 'noun', 'C1444754', ['qnco'], 0.0)||('between', '', '', '', 0.0)||('treatment', 'noun', 'C0039798', ['ftcn'], 0.0)||('groups', 'noun', 'C0441833', ['idcn'], 0.0)||('.', '', '', '', 0.0)||
('there', '', '', '', 0.0)||('were', '', '', '', 0.0)||('no', '', '', '', 0.0)||('differences', '', '', '', 0.0)||('between', '', '', '', 0.0)||('groups', 'noun', 'C0441833', ['idcn'], 0.0)||('in', '', '', '', 0.0)||('the', '', '', '', 0.0)||('mean', 'noun', 'C0444504', ['qnco'], 0.0)||('screening', 'adj', 'C0220908', ['hlca'], 0.0)||('symptom complex', '', '', '', 0.0)||('score', 'noun', 'C0449820', ['qnco'], 0.0)||('of', '', '', '', 0.0)||('the', '', '', '', 0.0)||('luteal', '', '', '', 0.0)||('(', '', '', '', 0.0)||('p', '', '', '', 0.0)||('=', '', '', '', 0.0)||('.', '', '', '', 0.0)||('659', '', '', '', 0.0)||(')', '', '', '', 0.0)||(',', '', '', '', 0.0)||('menstrual', 'adj', 'C0025344', ['orgf'], 0.0)||('(', '', '', '', 0.0)||('p', '', '', '', 0.0)||('=', '', '', '', 0.0)||('.', '', '', '', 0.0)||('818', '', '', '', 0.0)||(')', '', '', '', 0.0)||(',', '', '', '', 0.0)||('or', '', '', '', 0.0)||('intermenstrual', '', '', '', 0.0)||('phase', 'noun', 'C0205390', ['tmco'], 0.0)||('(', '', '', '', 0.0)||('p', '', '', '', 0.0)||('=', '', '', '', 0.0)||('.', '', '', '', 0.0)||('726', '', '', '', 0.0)||(')', '', '', '', 0.0)||('of', '', '', '', 0.0)||('the', '', '', '', 0.0)||('menstrual cycle', 'noun', 'C0025329', ['orgf'], 0.0)||('.', '', '', '', 0.0)||
('during', '', '', '', 0.0)||('the', '', '', '', 0.0)||('luteal phase', 'noun', 'C0024153', ['ortf'], 0.0)||('of', '', '', '', 0.0)||('the', '', '', '', 0.0)||('treatment', 'noun', 'C0039798', ['ftcn'], 0.0)||('cycle', 'noun', 'C1511572', ['tmco'], 0.0)||(',', '', '', '', 0.0)||('a', '', '', '', 0.0)||('significantly', '', '', '', 0.0)||('lower', 'adj', 'C0441994', ['ftcn'], 0.0)||('mean', 'noun', 'C0444504', ['qnco'], 0.0)||('symptom complex', '', '', '', 0.0)||('score', 'noun', 'C0449820', ['qnco'], 0.0)||('was', '', '', '', 0.0)||('observed', 'verb', 'C1441672', ['ftcn'], 0.0)||('in', '', '', '', 0.0)||('the', '', '', '', 0.0)||('calcium', 'noun', 'C0006675', ['bacs', 'elii', 'phsu'], 0.0)||('-', '', '', '', 0.0)||('treated group', '', '', '', 0.0)||('for', '', '', '', 0.0)||('both', '', '', '', 0.0)||('the', '', '', '', 0.0)||('second', 'noun', 'C0205436', ['qnco'], 0.0)||('(', '', '', '', 0.0)||('p', '', '', '', 0.0)||('=', '', '', '', 0.0)||('.', '', '', '', 0.0)||('007', '', '', '', 0.0)||(')', '', '', '', 0.0)||('and', '', '', '', 0.0)||('third', 'noun', 'C0205437', ['qnco'], 0.0)||('(', '', '', '', 0.0)||('p', '', '', '', 0.0)||('<', '', '', '', 0.0)||('.', '', '', '', 0.0)||('001', '', '', '', 0.0)||(')', '', '', '', 0.0)||('treatment', 'noun', 'C0039798', ['ftcn'], 0.0)||('cycles', '', '', '', 0.0)||('.', '', '', '', 0.0)||
('by', '', '', '', 0.0)||('the', '', '', '', 0.0)||('third', 'adj', 'C0205437', ['qnco'], 0.0)||('treatment', 'noun', 'C0039798', ['ftcn'], 0.0)||('cycle', 'noun', 'C1511572', ['tmco'], 0.0)||('calcium', 'noun', 'C0006675', ['bacs', 'elii', 'phsu'], 0.0)||('effectively', '', '', '', 0.0)||('resulted', '', '', '', 0.0)||('in', '', '', '', 0.0)||('an', '', '', '', 0.0)||('overall', 'adj', 'C0282416', ['inpr'], 0.0)||('48 %', '', '', '', 0.0)||('reduction', 'noun', 'C0301630', ['npop'], 0.0)||('in', '', '', '', 0.0)||('total symptom scores', '', '', '', 0.0)||('from', '', '', '', 0.0)||('baseline', 'noun', 'C0168634', ['bodm'], 0.0)||('compared', 'verb', 'C1707455', ['acty'], 0.0)||('with', '', '', '', 0.0)||('a', '', '', '', 0.0)||('30 %', '', '', '', 0.0)||('reduction', 'noun', 'C0301630', ['npop'], 0.0)||('in', '', '', '', 0.0)||('placebo', 'noun', 'C0032042', ['topp'], 0.0)||('.', '', '', '', 0.0)||
('all', '', '', '', 0.0)||('4', '', '', '', 0.0)||('symptom', '', '', '', 0.0)||('factors', '', '', '', 0.0)||('were', '', '', '', 0.0)||('significantly', '', '', '', 0.0)||('reduced', 'verb', 'C0392756', ['qlco'], 0.0)||('by', '', '', '', 0.0)||('the', '', '', '', 0.0)||('third', 'adj', 'C0205437', ['qnco'], 0.0)||('treatment', 'noun', 'C0039798', ['ftcn'], 0.0)||('cycle', 'noun', 'C1511572', ['tmco'], 0.0)||('.', '', '', '', 0.0)||
('calcium', 'noun', 'C0006675', ['bacs', 'elii', 'phsu'], 0.0)||('supplementation', 'noun', 'C1515075', ['topp'], 0.0)||('is', '', '', '', 0.0)||('a', '', '', '', 0.0)||('simple', 'adj', 'C0205352', ['qlco'], 0.0)||('and', '', '', '', 0.0)||('effective', 'adj', 'C1704419', ['qlco'], 0.0)||('treatment', 'noun', 'C0039798', ['ftcn'], 0.0)||('in', '', '', '', 0.0)||('premenstrual syndrome', 'noun', 'C0033046', ['dsyn'], 0.0)||(',', '', '', '', 0.0)||('resulting', '', '', '', 0.0)||('in', '', '', '', 0.0)||('a', '', '', '', 0.0)||('major', 'adj', 'C0205164', ['qlco'], 0.0)||('reduction', 'noun', 'C0301630', ['npop'], 0.0)||('in', '', '', '', 0.0)||('overall', 'adj', 'C0282416', ['inpr'], 0.0)||('luteal phase', 'noun', 'C0024153', ['ortf'], 0.0)||('symptoms', 'noun', 'C0683368', ['ftcn'], 0.0)||('.', '', '', '', 0.0)||
