('standard', 'adj', 'C1442989', ['ftcn'], 0.0)||('therapy', 'noun', 'C0039798', ['ftcn'], 0.0)||('for', '', '', '', 0.0)||('anemia', 'noun', 'C1000483', ['plnt'], 0.0)||('in', '', '', '', 0.0)||('infants', 'noun', 'C0021270', ['aggp'], 0.0)||('is', '', '', '', 0.0)||('ferrous sulfate', 'noun', 'C0060282', ['inch', 'phsu'], 0.0)||('drops', 'noun', 'C0991568', ['bodm'], 0.0)||('administered', 'verb', 'C1521801', ['ftcn'], 0.0)||('3', '', '', '', 0.0)||('times', 'noun', 'C1632851', ['qnco'], 0.0)||('/', '', '', '', 0.0)||('d', '', '', '', 0.0)||('.', '', '', '', 0.0)||
('adherence', 'noun', 'C1510802', ['ftcn'], 0.0)||('to', '', '', '', 0.0)||('treatment', 'noun', 'C0039798', ['ftcn'], 0.0)||(',', '', '', '', 0.0)||('however', '', '', '', 0.0)||(',', '', '', '', 0.0)||('is', '', '', '', 0.0)||('often', 'adv', 'C0332183', ['tmco'], 0.0)||('poor', 'adj', 'C0032854', ['grpa'], 0.0)||('.', '', '', '', 0.0)||
('one', 'noun', 'C0205447', ['qnco'], 0.0)||('likely', 'adv', 'C0332148', ['qlco'], 0.0)||('reason', 'verb', 'C0392360', ['idcn'], 0.0)||('for', '', '', '', 0.0)||('poor', 'adj', 'C0032854', ['grpa'], 0.0)||('adherence', 'noun', 'C1510802', ['ftcn'], 0.0)||('is', '', '', '', 0.0)||('the', '', '', '', 0.0)||('unpleasant', '', '', '', 0.0)||('side effects', 'noun', 'C0001688', ['ftcn'], 0.0)||('associated', 'verb', 'C0332281', ['qlco'], 0.0)||('with', '', '', '', 0.0)||('drops', 'noun', 'C0991568', ['bodm'], 0.0)||('.', '', '', '', 0.0)||
('the', '', '', '', 0.0)||('objective', 'noun', 'C0018017', ['inpr'], 0.0)||('was', '', '', '', 0.0)||('to', '', '', '', 0.0)||('evaluate', 'verb', 'C0220825', ['ftcn'], 0.0)||('the', '', '', '', 0.0)||('use', 'noun', 'C0042153', ['ftcn'], 0.0)||('of', '', '', '', 0.0)||('a', '', '', '', 0.0)||('new', 'adj', 'C0205314', ['tmco'], 0.0)||('form', 'noun', 'C0013058', ['bodm'], 0.0)||('of', '', '', '', 0.0)||('iron', 'noun', 'C0302583', ['bacs', 'elii', 'phsu'], 0.0)||('and', '', '', '', 0.0)||('a', '', '', '', 0.0)||('delivery', 'noun', 'C0011209', ['topp'], 0.0)||('system', 'noun', 'C0449913', ['ftcn'], 0.0)||('to', '', '', '', 0.0)||('treat', 'verb', 'C1292734', ['ftcn'], 0.0)||('anemia', 'noun', 'C1000483', ['plnt'], 0.0)||('in', '', '', '', 0.0)||('infants', 'noun', 'C0021270', ['aggp'], 0.0)||('that', '', '', '', 0.0)||('is', '', '', '', 0.0)||('likely', 'adv', 'C0332148', ['qlco'], 0.0)||('to', '', '', '', 0.0)||('produce', '', '', '', 0.0)||('better', 'adj', 'C0332272', ['qlco'], 0.0)||('adherence', 'noun', 'C1510802', ['ftcn'], 0.0)||('to', '', '', '', 0.0)||('treatment', 'noun', 'C0039798', ['ftcn'], 0.0)||('.', '', '', '', 0.0)||
('using', 'verb', 'C1524063', ['ftcn'], 0.0)||('a', '', '', '', 0.0)||('prospective', 'adj', 'C0023981', ['resa'], 0.0)||(',', '', '', '', 0.0)||('randomized', 'verb', 'C0034656', ['resa'], 0.0)||(',', '', '', '', 0.0)||('controlled', 'adj', 'C2587213', ['ftcn'], 0.0)||('design', 'noun', 'C1707689', ['acty'], 0.0)||(',', '', '', '', 0.0)||('we', '', '', '', 0.0)||('studied', '', '', '', 0.0)||('557', '', '', '', 0.0)||('anemic', '', '', '', 0.0)||('children', 'noun', 'C0008059', ['aggp'], 0.0)||('aged', 'verb', 'C0001779', ['orga'], 0.0)||('6', '', '', '', 0.0)||('-', '', '', '', 0.0)||('18', '', '', '', 0.0)||('mo', '', '', '', 0.0)||('(', '', '', '', 0.0)||('hemoglobin', 'noun', 'C1561562', ['fndg'], 0.0)||(':', '', '', '', 0.0)||('70', '', '', '', 0.0)||('-', '', '', '', 0.0)||('99', '', '', '', 0.0)||('g', '', '', '', 0.0)||('/', '', '', '', 0.0)||('l )', '', '', '', 0.0)||('in', '', '', '', 0.0)||('rural', 'adj', 'C0240919', ['fndg'], 0.0)||('ghana', 'noun', 'C0017516', ['geoa'], 0.0)||('.', '', '', '', 0.0)||
('one', 'noun', 'C0205447', ['qnco'], 0.0)||('group', 'noun', 'C0441833', ['idcn'], 0.0)||('received', 'verb', 'C1514756', ['qlco'], 0.0)||('a', '', '', '', 0.0)||('daily', 'adj', 'C0332173', ['tmco'], 0.0)||('sachet', 'noun', 'C1319685', ['bodm'], 0.0)||('of', '', '', '', 0.0)||('microencapsulated', '', '', '', 0.0)||('ferrous fumarate', 'noun', 'C0060276', ['orch', 'phsu'], 0.0)||('(', '', '', '', 0.0)||('80', '', '', '', 0.0)||('mg', '', '', '', 0.0)||('elemental', '', '', '', 0.0)||('fe )', '', '', '', 0.0)||('in', '', '', '', 0.0)||('powder', 'noun', 'C0032861', ['bodm'], 0.0)||('form', 'noun', 'C0013058', ['bodm'], 0.0)||('plus', '', '', '', 0.0)||('ascorbic acid', 'noun', 'C0003968', ['orch', 'phsu', 'vita'], 0.0)||('to', '', '', '', 0.0)||('be', '', '', '', 0.0)||('sprinkled', '', '', '', 0.0)||('onto', '', '', '', 0.0)||('any', '', '', '', 0.0)||('complementary', '', '', '', 0.0)||('food', 'noun', 'C0016452', ['food'], 0.0)||('eaten', '', '', '', 0.0)||('(', '', '', '', 0.0)||('sprinkles', '', '', '', 0.0)||('group', 'noun', 'C0441833', ['idcn'], 0.0)||(')', '', '', '', 0.0)||(';', '', '', '', 0.0)||
('a', '', '', '', 0.0)||('control group', 'noun', 'C0009932', ['grup'], 0.0)||('received', 'verb', 'C1514756', ['qlco'], 0.0)||('ferrous sulfate', 'noun', 'C0060282', ['inch', 'phsu'], 0.0)||('drops', 'verb', 'C0991568', ['bodm'], 0.0)||('3', '', '', '', 0.0)||('times', 'noun', 'C1632851', ['qnco'], 0.0)||('/', '', '', '', 0.0)||('d', '', '', '', 0.0)||('for', '', '', '', 0.0)||('2', '', '', '', 0.0)||('mo', '', '', '', 0.0)||('(', '', '', '', 0.0)||('total dose', '', '', '', 0.0)||(':', '', '', '', 0.0)||('40', '', '', '', 0.0)||('mg', '', '', '', 0.0)||('elemental', '', '', '', 0.0)||('fe', '', '', '', 0.0)||(')', '', '', '', 0.0)||('.', '', '', '', 0.0)||
('hemoglobin', 'noun', 'C1561562', ['fndg'], 0.0)||('and', '', '', '', 0.0)||('serum ferritin', 'noun', 'C0696113', ['lbpr'], 0.0)||('concentrations', 'noun', 'C0086045', ['menp'], 0.0)||('were', '', '', '', 0.0)||('measured', 'verb', 'C0444706', ['qlco'], 0.0)||('at', '', '', '', 0.0)||('baseline', 'noun', 'C0168634', ['bodm'], 0.0)||('and', '', '', '', 0.0)||('at', '', '', '', 0.0)||('the', '', '', '', 0.0)||('end', 'noun', 'C0444930', ['spco'], 0.0)||('of', '', '', '', 0.0)||('treatment', 'noun', 'C0039798', ['ftcn'], 0.0)||('.', '', '', '', 0.0)||
('successful', 'adj', 'C1272703', ['qlco'], 0.0)||('treatment', 'noun', 'C0039798', ['ftcn'], 0.0)||('of', '', '', '', 0.0)||('anemia', 'noun', 'C1000483', ['plnt'], 0.0)||('(', '', '', '', 0.0)||('hemoglobin', 'noun', 'C1561562', ['fndg'], 0.0)||('>', '', '', '', 0.0)||('100', '', '', '', 0.0)||('g', '', '', '', 0.0)||('/', '', '', '', 0.0)||('l )', '', '', '', 0.0)||('occurred', 'verb', 'C1709305', ['cnce'], 0.0)||('in', '', '', '', 0.0)||('58 %', '', '', '', 0.0)||('of', '', '', '', 0.0)||('the', '', '', '', 0.0)||('sprinkles', '', '', '', 0.0)||('group', 'noun', 'C0441833', ['idcn'], 0.0)||('and', '', '', '', 0.0)||('in', '', '', '', 0.0)||('56 %', '', '', '', 0.0)||('of', '', '', '', 0.0)||('the', '', '', '', 0.0)||('drops', 'noun', 'C0991568', ['bodm'], 0.0)||('group', 'noun', 'C0441833', ['idcn'], 0.0)||(',', '', '', '', 0.0)||('with', '', '', '', 0.0)||('minimal', 'adj', 'C0547040', ['qlco'], 0.0)||('side effects', 'noun', 'C0001688', ['ftcn'], 0.0)||('in', '', '', '', 0.0)||('both', '', '', '', 0.0)||('groups', 'noun', 'C0441833', ['idcn'], 0.0)||('.', '', '', '', 0.0)||
('geometric mean', '', '', '', 0.0)||('ferritin', 'noun', 'C0015879', ['aapp', 'bacs', 'phsu'], 0.0)||('concentrations', 'noun', 'C0086045', ['menp'], 0.0)||('increased', 'verb', 'C0205217', ['qnco'], 0.0)||('significantly', '', '', '', 0.0)||('in', '', '', '', 0.0)||('each', '', '', '', 0.0)||('group', 'noun', 'C0441833', ['idcn'], 0.0)||('from', '', '', '', 0.0)||('baseline', 'noun', 'C0168634', ['bodm'], 0.0)||('to', '', '', '', 0.0)||('the', '', '', '', 0.0)||('end', 'noun', 'C0444930', ['spco'], 0.0)||('of', '', '', '', 0.0)||('treatment', 'noun', 'C0039798', ['ftcn'], 0.0)||('(', '', '', '', 0.0)||('p', '', '', '', 0.0)||('<', '', '', '', 0.0)||('0 . 001', '', '', '', 0.0)||(')', '', '', '', 0.0)||('.', '', '', '', 0.0)||
('use', 'noun', 'C0042153', ['ftcn'], 0.0)||('of', '', '', '', 0.0)||('ferrous sulfate', 'noun', 'C0060282', ['inch', 'phsu'], 0.0)||('drops', 'noun', 'C0991568', ['bodm'], 0.0)||('or', '', '', '', 0.0)||('a', '', '', '', 0.0)||('single', 'adj', 'C0037179', ['popg'], 0.0)||('daily dose', 'noun', 'C2348070', ['qnco'], 0.0)||('of', '', '', '', 0.0)||('microencapsulated', '', '', '', 0.0)||('ferrous fumarate', 'noun', 'C0060276', ['orch', 'phsu'], 0.0)||('sprinkles', '', '', '', 0.0)||('plus', '', '', '', 0.0)||('ascorbic acid', 'noun', 'C0003968', ['orch', 'phsu', 'vita'], 0.0)||('resulted', '', '', '', 0.0)||('in', '', '', '', 0.0)||('a', '', '', '', 0.0)||('similar', 'adj', 'C2348205', ['qlco'], 0.0)||('rate', 'noun', 'C0871208', ['acty'], 0.0)||('of', '', '', '', 0.0)||('successful', 'adj', 'C1272703', ['qlco'], 0.0)||('treatment', 'noun', 'C0039798', ['ftcn'], 0.0)||('of', '', '', '', 0.0)||('anemia', 'noun', 'C1000483', ['plnt'], 0.0)||('without', '', '', '', 0.0)||('side effects', 'noun', 'C0001688', ['ftcn'], 0.0)||('.', '', '', '', 0.0)||
('to', '', '', '', 0.0)||('our', '', '', '', 0.0)||('knowledge', 'noun', 'C0376554', ['inpr'], 0.0)||(',', '', '', '', 0.0)||('this', '', '', '', 0.0)||('is', '', '', '', 0.0)||('the', '', '', '', 0.0)||('first', 'adj', 'C0205435', ['qnco'], 0.0)||('demonstration', '', '', '', 0.0)||('of', '', '', '', 0.0)||('the', '', '', '', 0.0)||('use', 'noun', 'C0042153', ['ftcn'], 0.0)||('of', '', '', '', 0.0)||('microencapsulated', '', '', '', 0.0)||('iron', 'noun', 'C0302583', ['bacs', 'elii', 'phsu'], 0.0)||('sprinkles', '', '', '', 0.0)||('to', '', '', '', 0.0)||('treat', 'verb', 'C1292734', ['ftcn'], 0.0)||('anemia', 'noun', 'C1000483', ['plnt'], 0.0)||('.', '', '', '', 0.0)||
('improved', 'adj', 'C0184511', ['qlco'], 0.0)||('ease', '', '', '', 0.0)||('of', '', '', '', 0.0)||('use', 'noun', 'C0042153', ['ftcn'], 0.0)||('may', '', '', '', 0.0)||('favor', 'verb', 'C0309049', ['orch', 'phsu', 'vita'], 0.0)||('the', '', '', '', 0.0)||('use', 'noun', 'C0042153', ['ftcn'], 0.0)||('of', '', '', '', 0.0)||('sprinkles', '', '', '', 0.0)||('to', '', '', '', 0.0)||('deliver', 'verb', 'C0308779', ['orch', 'phsu'], 0.0)||('iron', 'noun', 'C0302583', ['bacs', 'elii', 'phsu'], 0.0)||('.', '', '', '', 0.0)||
