('an', '', '', '', 0.0)||('evaluation', 'noun', 'C0220825', ['ftcn'], 0.0)||('was', '', '', '', 0.0)||('made', '', '', '', 0.0)||('of', '', '', '', 0.0)||('278', '', '', '', 0.0)||('healthy', '', '', '', 0.0)||('-', '', '', '', 0.0)||('appearing', '', '', '', 0.0)||('1', '', '', '', 0.0)||('-', '', '', '', 0.0)||('year', 'noun', 'C0439234', ['tmco'], 0.0)||('-', '', '', '', 0.0)||('old', 'adj', 'C0580836', ['tmco'], 0.0)||('infants', 'noun', 'C0021270', ['aggp'], 0.0)||('who', '', '', '', 0.0)||('were', '', '', '', 0.0)||('tested', '', '', '', 0.0)||('for', '', '', '', 0.0)||('iron deficiency', 'noun', 'C0162316', ['dsyn'], 0.0)||('to', '', '', '', 0.0)||('determine', '', '', '', 0.0)||('the', '', '', '', 0.0)||('relative', 'adj', 'C0080103', ['famg'], 0.0)||('frequency', 'noun', 'C0376249', ['qnco'], 0.0)||('of', '', '', '', 0.0)||('adverse', '', '', '', 0.0)||('side effects', 'noun', 'C0001688', ['ftcn'], 0.0)||('attributable', 'adj', 'C0596130', ['menp'], 0.0)||('to', '', '', '', 0.0)||('oral', 'adj', 'C0442027', ['spco'], 0.0)||('iron', 'noun', 'C0302583', ['bacs', 'elii', 'phsu'], 0.0)||('treatment', 'noun', 'C0039798', ['ftcn'], 0.0)||('.', '', '', '', 0.0)||
('after', '', '', '', 0.0)||('obtaining', 'verb', 'C1301820', ['ftcn'], 0.0)||('parental', 'adj', 'C0030551', ['famg'], 0.0)||('informed consent', 'noun', 'C0021430', ['rnlw'], 0.0)||(',', '', '', '', 0.0)||('laboratory tests', 'noun', 'C0022885', ['lbpr'], 0.0)||('of', '', '', '', 0.0)||('iron', 'noun', 'C0302583', ['bacs', 'elii', 'phsu'], 0.0)||('status', 'noun', 'C0449438', ['qlco'], 0.0)||('were', '', '', '', 0.0)||('performed', 'verb', 'C0884358', ['ftcn'], 0.0)||('on', '', '', '', 0.0)||('venous blood', 'noun', 'C0229667', ['tisu'], 0.0)||('and', '', '', '', 0.0)||('infants', 'noun', 'C0021270', ['aggp'], 0.0)||('with', '', '', '', 0.0)||('hemoglobin level', 'noun', 'C0518015', ['lbpr'], 0.0)||('greater', 'adj', 'C1704243', ['qnco'], 0.0)||('than', '', '', '', 0.0)||('10 . 5', '', '', '', 0.0)||('g', '', '', '', 0.0)||('/', '', '', '', 0.0)||('dl', '', '', '', 0.0)||('were', '', '', '', 0.0)||('randomly', '', '', '', 0.0)||('chosen', 'verb', 'C1707391', ['acty'], 0.0)||('to', '', '', '', 0.0)||('receive', 'verb', 'C1514756', ['qlco'], 0.0)||('1 . 2', '', '', '', 0.0)||('ml', '', '', '', 0.0)||('of', '', '', '', 0.0)||('ferrous sulfate', 'noun', 'C0060282', ['inch', 'phsu'], 0.0)||('(', '', '', '', 0.0)||('feso4', '', '', '', 0.0)||(')', '', '', '', 0.0)||('drops', 'noun', 'C0991568', ['bodm'], 0.0)||('(', '', '', '', 0.0)||('about', '', '', '', 0.0)||('3', '', '', '', 0.0)||('mg', '', '', '', 0.0)||('of', '', '', '', 0.0)||('iron', 'noun', 'C0302583', ['bacs', 'elii', 'phsu'], 0.0)||('per', '', '', '', 0.0)||('kilogram', 'noun', 'C0439209', ['qnco'], 0.0)||('per', '', '', '', 0.0)||('day', 'noun', 'C0439228', ['tmco'], 0.0)||(')', '', '', '', 0.0)||('or', '', '', '', 0.0)||('equal', 'adj', 'C0205163', ['qlco'], 0.0)||('volume', 'noun', 'C1705102', ['inpr'], 0.0)||('of', '', '', '', 0.0)||('placebo', 'noun', 'C0032042', ['topp'], 0.0)||('for', '', '', '', 0.0)||('3', '', '', '', 0.0)||('months', 'noun', 'C0439231', ['tmco'], 0.0)||('.', '', '', '', 0.0)||
('after', '', '', '', 0.0)||('3', '', '', '', 0.0)||('months', 'noun', 'C0439231', ['tmco'], 0.0)||('of', '', '', '', 0.0)||('treatment', 'noun', 'C0039798', ['ftcn'], 0.0)||(',', '', '', '', 0.0)||('infants', 'noun', 'C0021270', ['aggp'], 0.0)||('were', '', '', '', 0.0)||('to', '', '', '', 0.0)||('return', 'verb', 'C0332156', ['qlco'], 0.0)||('to', '', '', '', 0.0)||('the', '', '', '', 0.0)||('clinic', 'noun', 'C0002424', ['hcro', 'mnob'], 0.0)||('for', '', '', '', 0.0)||('repeat', 'noun', 'C0205341', ['ftcn'], 0.0)||('blood', 'noun', 'C0005767', ['tisu'], 0.0)||('testing', 'noun', 'C0039593', ['ftcn'], 0.0)||(',', '', '', '', 0.0)||('compliance', 'noun', 'C0009563', ['qnco'], 0.0)||('estimation', 'noun', 'C0680844', ['menp'], 0.0)||(',', '', '', '', 0.0)||('and', '', '', '', 0.0)||('evaluation', 'noun', 'C0220825', ['ftcn'], 0.0)||('for', '', '', '', 0.0)||('possible', 'adj', 'C0332149', ['qlco'], 0.0)||('adverse', '', '', '', 0.0)||('side effects', 'noun', 'C0001688', ['ftcn'], 0.0)||('.', '', '', '', 0.0)||
('there', '', '', '', 0.0)||('was', '', '', '', 0.0)||('no', '', '', '', 0.0)||('significant', 'adj', 'C0750502', ['idcn'], 0.0)||('difference', 'noun', 'C1705242', ['qlco'], 0.0)||('(', '', '', '', 0.0)||('p', '', '', '', 0.0)||('greater', 'adj', 'C1704243', ['qnco'], 0.0)||('than', '', '', '', 0.0)||('.', '', '', '', 0.0)||('50', '', '', '', 0.0)||(')', '', '', '', 0.0)||('in', '', '', '', 0.0)||('the', '', '', '', 0.0)||('frequency', 'noun', 'C0376249', ['qnco'], 0.0)||('of', '', '', '', 0.0)||('vomiting', 'noun', 'C0042963', ['sosy'], 0.0)||(',', '', '', '', 0.0)||('diarrhea', 'noun', 'C1963091', ['fndg'], 0.0)||(',', '', '', '', 0.0)||('or', '', '', '', 0.0)||('fussiness', 'noun', 'C0022107', ['fndg'], 0.0)||('in', '', '', '', 0.0)||('iron', 'noun', 'C0302583', ['bacs', 'elii', 'phsu'], 0.0)||('-', '', '', '', 0.0)||('treated', 'adj', 'C1522326', ['ftcn'], 0.0)||('infants', 'noun', 'C0021270', ['aggp'], 0.0)||('(', '', '', '', 0.0)||('6 %', '', '', '', 0.0)||(')', '', '', '', 0.0)||('compared', 'verb', 'C1707455', ['acty'], 0.0)||('with', '', '', '', 0.0)||('placebo', 'noun', 'C0032042', ['topp'], 0.0)||('-', '', '', '', 0.0)||('treated', 'adj', 'C1522326', ['ftcn'], 0.0)||('infants', 'noun', 'C0021270', ['aggp'], 0.0)||('(', '', '', '', 0.0)||('9 %', '', '', '', 0.0)||(')', '', '', '', 0.0)||('.', '', '', '', 0.0)||
('constipation', 'noun', 'C0009806', ['sosy'], 0.0)||('was', '', '', '', 0.0)||('slightly', 'adv', 'C0750482', ['idcn'], 0.0)||('more', '', '', '', 0.0)||('frequently', 'adv', 'C0332183', ['tmco'], 0.0)||('reported', 'verb', 'C0684224', ['inpr'], 0.0)||('(', '', '', '', 0.0)||('p', '', '', '', 0.0)||('=', '', '', '', 0.0)||('.', '', '', '', 0.0)||('03', '', '', '', 0.0)||(')', '', '', '', 0.0)||('in', '', '', '', 0.0)||('placebo', 'noun', 'C0032042', ['topp'], 0.0)||('-', '', '', '', 0.0)||('treated', 'adj', 'C1522326', ['ftcn'], 0.0)||('infants', 'noun', 'C0021270', ['aggp'], 0.0)||('(', '', '', '', 0.0)||('9 %', '', '', '', 0.0)||(')', '', '', '', 0.0)||('than', '', '', '', 0.0)||('in', '', '', '', 0.0)||('iron', 'noun', 'C0302583', ['bacs', 'elii', 'phsu'], 0.0)||('-', '', '', '', 0.0)||('treated', 'adj', 'C1522326', ['ftcn'], 0.0)||('infants', 'noun', 'C0021270', ['aggp'], 0.0)||('(', '', '', '', 0.0)||('1 %', '', '', '', 0.0)||(')', '', '', '', 0.0)||('.', '', '', '', 0.0)||
('compliance', 'noun', 'C0009563', ['qnco'], 0.0)||('with', '', '', '', 0.0)||('therapy', 'noun', 'C0039798', ['ftcn'], 0.0)||('was', '', '', '', 0.0)||('confirmed', 'verb', 'C0750484', ['idcn'], 0.0)||('in', '', '', '', 0.0)||('179', '', '', '', 0.0)||('completely', '', '', '', 0.0)||('evaluated', 'adj', 'C0220825', ['ftcn'], 0.0)||('infants', 'noun', 'C0021270', ['aggp'], 0.0)||('by', '', '', '', 0.0)||('the', '', '', '', 0.0)||('lack', 'noun', 'C0332268', ['qlco'], 0.0)||('of', '', '', '', 0.0)||('remaining', 'adj', 'C1527428', ['qlco'], 0.0)||('medication', '', '', '', 0.0)||('at', '', '', '', 0.0)||('3', '', '', '', 0.0)||('months', 'noun', 'C0439231', ['tmco'], 0.0)||(',', '', '', '', 0.0)||('the', '', '', '', 0.0)||('higher', '', '', '', 0.0)||('incidence', 'noun', 'C0021149', ['qnco'], 0.0)||('(', '', '', '', 0.0)||('p', '', '', '', 0.0)||('less', '', '', '', 0.0)||('than', '', '', '', 0.0)||('.', '', '', '', 0.0)||('0001', '', '', '', 0.0)||(')', '', '', '', 0.0)||('of', '', '', '', 0.0)||('dark', 'adj', 'C0332582', ['qlco'], 0.0)||('stools', 'noun', 'C0015733', ['bdsu'], 0.0)||('reported', 'verb', 'C0684224', ['inpr'], 0.0)||('among', '', '', '', 0.0)||('iron', 'noun', 'C0302583', ['bacs', 'elii', 'phsu'], 0.0)||('-', '', '', '', 0.0)||('treated', 'adj', 'C1522326', ['ftcn'], 0.0)||('infants', 'noun', 'C0021270', ['aggp'], 0.0)||(',', '', '', '', 0.0)||('and', '', '', '', 0.0)||('the', '', '', '', 0.0)||('changes', '', '', '', 0.0)||('in laboratory', '', '', '', 0.0)||('tests', 'verb', 'C0022885', ['lbpr'], 0.0)||('of', '', '', '', 0.0)||('iron', 'noun', 'C0302583', ['bacs', 'elii', 'phsu'], 0.0)||('status', 'noun', 'C0449438', ['qlco'], 0.0)||('.', '', '', '', 0.0)||
('no', '', '', '', 0.0)||('parents', 'noun', 'C0030551', ['famg'], 0.0)||('reported', 'verb', 'C0684224', ['inpr'], 0.0)||('dark', 'adj', 'C0332582', ['qlco'], 0.0)||('stools', 'noun', 'C0015733', ['bdsu'], 0.0)||('as', '', '', '', 0.0)||('an', '', '', '', 0.0)||('adverse effect', 'noun', 'C0559546', ['fndg'], 0.0)||('of', '', '', '', 0.0)||('therapy', 'noun', 'C0039798', ['ftcn'], 0.0)||('.', '', '', '', 0.0)||
('it', '', '', '', 0.0)||('is', '', '', '', 0.0)||('concluded', '', '', '', 0.0)||('that', '', '', '', 0.0)||('once', '', '', '', 0.0)||('daily', 'adv', 'C0332173', ['tmco'], 0.0)||(',', '', '', '', 0.0)||('moderate', 'verb', 'C0205081', ['qlco'], 0.0)||('-', '', '', '', 0.0)||('dose', 'noun', 'C0178602', ['qnco'], 0.0)||('feso4', '', '', '', 0.0)||('therapy', 'noun', 'C0039798', ['ftcn'], 0.0)||('given', '', '', '', 0.0)||('to', '', '', '', 0.0)||('fasting', 'adj', 'C0015663', ['fndg'], 0.0)||('1', '', '', '', 0.0)||('-', '', '', '', 0.0)||('year', 'noun', 'C0439234', ['tmco'], 0.0)||('-', '', '', '', 0.0)||('old', 'adj', 'C0580836', ['tmco'], 0.0)||('infants', 'noun', 'C0021270', ['aggp'], 0.0)||('results', 'verb', 'C1274040', ['ftcn'], 0.0)||('in', '', '', '', 0.0)||('no', '', '', '', 0.0)||('more', '', '', '', 0.0)||('gastrointestinal', 'adj', 'C0521362', ['spco'], 0.0)||('side effects', 'noun', 'C0001688', ['ftcn'], 0.0)||('than', '', '', '', 0.0)||('placebo', 'noun', 'C0032042', ['topp'], 0.0)||('therapy', 'noun', 'C0039798', ['ftcn'], 0.0)||('.', '', '', '', 0.0)||
