('this', '', '', '', 0.0)||('study', 'noun', 'C0008976', ['resa'], 0.0)||('was', '', '', '', 0.0)||('designed', '', '', '', 0.0)||('to', '', '', '', 0.0)||('compare', 'verb', 'C1707455', ['acty'], 0.0)||('the', '', '', '', 0.0)||('effectiveness', 'noun', 'C1280519', ['qlco'], 0.0)||('of', '', '', '', 0.0)||('laboratory tests', 'noun', 'C0022885', ['lbpr'], 0.0)||('for', '', '', '', 0.0)||('iron deficiency', 'noun', 'C0162316', ['dsyn'], 0.0)||('(', '', '', '', 0.0)||('mean corpuscular volume', 'noun', 'C0524587', ['lbtr'], 0.0)||(',', '', '', '', 0.0)||('erythrocyte protoporphyrin', '', '', '', 0.0)||(',', '', '', '', 0.0)||('transferrin saturation', 'noun', 'C1277709', ['lbpr'], 0.0)||(',', '', '', '', 0.0)||('and', '', '', '', 0.0)||('serum ferritin', 'noun', 'C0696113', ['lbpr'], 0.0)||(')', '', '', '', 0.0)||('in', '', '', '', 0.0)||('predicting', '', '', '', 0.0)||('hemoglobin', 'noun', 'C1561562', ['fndg'], 0.0)||('response', 'noun', 'C0871261', ['clna'], 0.0)||('to', '', '', '', 0.0)||('iron', 'noun', 'C0302583', ['bacs', 'elii', 'phsu'], 0.0)||('therapy', 'noun', 'C0039798', ['ftcn'], 0.0)||('in', '', '', '', 0.0)||('infants', 'noun', 'C0021270', ['aggp'], 0.0)||('found', '', '', '', 0.0)||('to', '', '', '', 0.0)||('have', '', '', '', 0.0)||('low', 'adj', 'C0205251', ['qlco'], 0.0)||('hgb', 'noun', 'C0019029', ['lbtr'], 0.0)||('concentrations', 'noun', 'C0086045', ['menp'], 0.0)||('.', '', '', '', 0.0)||
('screening', 'noun', 'C0220908', ['hlca'], 0.0)||('for', '', '', '', 0.0)||('anemia', 'noun', 'C1000483', ['plnt'], 0.0)||('was', '', '', '', 0.0)||('performed', 'verb', 'C0884358', ['ftcn'], 0.0)||('on', '', '', '', 0.0)||('capillary', 'noun', 'C0006901', ['bpoc'], 0.0)||('blood', 'noun', 'C0005767', ['tisu'], 0.0)||('of', '', '', '', 0.0)||('1 , 128', '', '', '', 0.0)||('healthy', '', '', '', 0.0)||('1', '', '', '', 0.0)||('-', '', '', '', 0.0)||('year', 'noun', 'C0439234', ['tmco'], 0.0)||('-', '', '', '', 0.0)||('old', 'adj', 'C0580836', ['tmco'], 0.0)||('infants', 'noun', 'C0021270', ['aggp'], 0.0)||('of', '', '', '', 0.0)||('united states air force', '', '', '', 0.0)||('personnel', 'noun', 'C0024752', ['ftcn'], 0.0)||('.', '', '', '', 0.0)||
('the', '', '', '', 0.0)||('25 %', '', '', '', 0.0)||('who', '', '', '', 0.0)||('had', '', '', '', 0.0)||('hgb', 'noun', 'C0019029', ['lbtr'], 0.0)||('values', 'noun', 'C0042295', ['qlco'], 0.0)||('less', '', '', '', 0.0)||('than', '', '', '', 0.0)||('11 . 5', '', '', '', 0.0)||('gm /', '', '', '', 0.0)||('dl', '', '', '', 0.0)||('were', '', '', '', 0.0)||('asked', '', '', '', 0.0)||('to', '', '', '', 0.0)||('return', 'verb', 'C0332156', ['qlco'], 0.0)||('for', '', '', '', 0.0)||('tests', 'noun', 'C0022885', ['lbpr'], 0.0)||('on', '', '', '', 0.0)||('venous blood', 'noun', 'C0229667', ['tisu'], 0.0)||('before', '', '', '', 0.0)||('therapy', 'noun', 'C0039798', ['ftcn'], 0.0)||('and', '', '', '', 0.0)||('again', '', '', '', 0.0)||('after', '', '', '', 0.0)||('three', '', 'C0205449', ['qnco'], 0.0)||('months', 'noun', 'C0439231', ['tmco'], 0.0)||('of', '', '', '', 0.0)||('therapy', 'noun', 'C0039798', ['ftcn'], 0.0)||('.', '', '', '', 0.0)||
('of', '', '', '', 0.0)||('the', '', '', '', 0.0)||('188', '', '', '', 0.0)||('infants', 'noun', 'C0021270', ['aggp'], 0.0)||('completing', 'verb', 'C0205197', ['qlco'], 0.0)||('therapy', 'noun', 'C0039798', ['ftcn'], 0.0)||(',', '', '', '', 0.0)||('66', '', '', '', 0.0)||('(', '', '', '', 0.0)||('35 %', '', '', '', 0.0)||(')', '', '', '', 0.0)||('had', '', '', '', 0.0)||('a', '', '', '', 0.0)||('rise', '', '', '', 0.0)||('in', '', '', '', 0.0)||('hgb', 'noun', 'C0019029', ['lbtr'], 0.0)||('concentration', 'noun', 'C0086045', ['menp'], 0.0)||('greater', 'adj', 'C1704243', ['qnco'], 0.0)||('than', '', '', '', 0.0)||('or', '', '', '', 0.0)||('equal', 'adj', 'C0205163', ['qlco'], 0.0)||('to', '', '', '', 0.0)||('1 . 0', '', '', '', 0.0)||('gm /', '', '', '', 0.0)||('dl', '', '', '', 0.0)||('and', '', '', '', 0.0)||('were', '', '', '', 0.0)||('designated', 'verb', 'C1524084', ['ftcn'], 0.0)||('responders', '', '', '', 0.0)||('.', '', '', '', 0.0)||
('none', 'noun', 'C0549184', ['qnco'], 0.0)||('of', '', '', '', 0.0)||('the', '', '', '', 0.0)||('confirmatory', 'adj', 'C0750484', ['idcn'], 0.0)||('tests', 'noun', 'C0022885', ['lbpr'], 0.0)||('on', '', '', '', 0.0)||('venous blood', 'noun', 'C0229667', ['tisu'], 0.0)||('reliably', '', '', '', 0.0)||('distinguished', '', '', '', 0.0)||('responders', '', '', '', 0.0)||('from', '', '', '', 0.0)||('those', '', '', '', 0.0)||('who', '', '', '', 0.0)||('subsequently', '', '', '', 0.0)||('showed', '', '', '', 0.0)||('no', '', '', '', 0.0)||('response', 'noun', 'C0871261', ['clna'], 0.0)||('.', '', '', '', 0.0)||
('by', '', '', '', 0.0)||('using', 'verb', 'C1524063', ['ftcn'], 0.0)||('any', '', '', '', 0.0)||('one', 'noun', 'C0205447', ['qnco'], 0.0)||('of', '', '', '', 0.0)||('the', '', '', '', 0.0)||('tests', 'noun', 'C0022885', ['lbpr'], 0.0)||('in', '', '', '', 0.0)||('combination', 'noun', 'C0205195', ['qlco'], 0.0)||('with', '', '', '', 0.0)||('a', '', '', '', 0.0)||('capillary', 'noun', 'C0006901', ['bpoc'], 0.0)||('hgb', 'noun', 'C0019029', ['lbtr'], 0.0)||('value', 'noun', 'C0042295', ['qlco'], 0.0)||('less', '', '', '', 0.0)||('than', '', '', '', 0.0)||('11 . 5', '', '', '', 0.0)||('gm /', '', '', '', 0.0)||('dl', '', '', '', 0.0)||(',', '', '', '', 0.0)||('more', '', '', '', 0.0)||('than', '', '', '', 0.0)||('half', '', '', '', 0.0)||('of', '', '', '', 0.0)||('the', '', '', '', 0.0)||('infants', 'noun', 'C0021270', ['aggp'], 0.0)||('with', '', '', '', 0.0)||('an', '', '', '', 0.0)||('abnormal', 'adj', 'C0205161', ['ftcn'], 0.0)||('value', 'noun', 'C0042295', ['qlco'], 0.0)||('responded', '', '', '', 0.0)||('.', '', '', '', 0.0)||
('but', '', '', '', 0.0)||('well', 'adv', 'C0205170', ['qlco'], 0.0)||('over', '', '', '', 0.0)||('half', '', '', '', 0.0)||('of', '', '', '', 0.0)||('the', '', '', '', 0.0)||('responders', '', '', '', 0.0)||('would', '', '', '', 0.0)||('have', '', '', '', 0.0)||('been', '', '', '', 0.0)||('missed', 'verb', 'C1705492', ['qlco'], 0.0)||('if', '', '', '', 0.0)||('treatment', 'noun', 'C0039798', ['ftcn'], 0.0)||('had', '', '', '', 0.0)||('been', '', '', '', 0.0)||('restricted', 'verb', 'C0443288', ['ftcn'], 0.0)||('to', '', '', '', 0.0)||('infants', 'noun', 'C0021270', ['aggp'], 0.0)||('with', '', '', '', 0.0)||('abnormal', 'adj', 'C0205161', ['ftcn'], 0.0)||('values', 'noun', 'C0042295', ['qlco'], 0.0)||('.', '', '', '', 0.0)||
('neither', '', '', '', 0.0)||('changes', '', '', '', 0.0)||('in', '', '', '', 0.0)||('the', '', '', '', 0.0)||('criteria', 'noun', 'C0243161', ['inpr'], 0.0)||('for', '', '', '', 0.0)||('normality', 'noun', 'C0949333', ['qlco'], 0.0)||('nor', '', '', '', 0.0)||('combinations', 'noun', 'C0453882', ['mnob'], 0.0)||('of', '', '', '', 0.0)||('tests', 'noun', 'C0022885', ['lbpr'], 0.0)||('substantially', '', '', '', 0.0)||('improved', 'verb', 'C0184511', ['qlco'], 0.0)||('our', '', '', '', 0.0)||('ability', 'noun', 'C0085732', ['orga'], 0.0)||('to', '', '', '', 0.0)||('distinguish', '', '', '', 0.0)||('the', '', '', '', 0.0)||('two', 'adj', 'C0205448', ['qnco'], 0.0)||('groups', 'noun', 'C0441833', ['idcn'], 0.0)||('.', '', '', '', 0.0)||
('because of', '', '', '', 0.0)||('the', '', '', '', 0.0)||('difficulty', 'noun', 'C1299586', ['fndg'], 0.0)||('in', '', '', '', 0.0)||('distinguishing', '', '', '', 0.0)||('responders', '', '', '', 0.0)||('from', '', '', '', 0.0)||('nonresponders', '', '', '', 0.0)||('with', '', '', '', 0.0)||('additional', 'adj', 'C1524062', ['ftcn'], 0.0)||('laboratory tests', 'noun', 'C0022885', ['lbpr'], 0.0)||('and', '', '', '', 0.0)||('because of', '', '', '', 0.0)||('the', '', '', '', 0.0)||('simplicity', '', '', '', 0.0)||(',', '', '', '', 0.0)||('low cost', '', '', '', 0.0)||(',', '', '', '', 0.0)||('and', '', '', '', 0.0)||('relative', 'adj', 'C0080103', ['famg'], 0.0)||('safety', 'noun', 'C0036043', ['hcpp'], 0.0)||('of', '', '', '', 0.0)||('iron', 'noun', 'C0302583', ['bacs', 'elii', 'phsu'], 0.0)||('therapy', 'noun', 'C0039798', ['ftcn'], 0.0)||('in', '', '', '', 0.0)||('infants', 'noun', 'C0021270', ['aggp'], 0.0)||(',', '', '', '', 0.0)||('we', '', '', '', 0.0)||('favor', 'verb', 'C0309049', ['orch', 'phsu', 'vita'], 0.0)||('an', '', '', '', 0.0)||('initial', 'adj', 'C0205265', ['tmco'], 0.0)||('therapeutic', 'adj', 'C0039796', ['topp'], 0.0)||('trial', 'noun', 'C0008976', ['resa'], 0.0)||('of', '', '', '', 0.0)||('iron', 'noun', 'C0302583', ['bacs', 'elii', 'phsu'], 0.0)||('first', 'noun', 'C0205435', ['qnco'], 0.0)||('for', '', '', '', 0.0)||('determining', 'noun', 'C2004162', ['acty'], 0.0)||('the', '', '', '', 0.0)||('cause', 'noun', 'C1524003', ['cnce'], 0.0)||('of', '', '', '', 0.0)||('low', 'adj', 'C0205251', ['qlco'], 0.0)||('hgb', 'noun', 'C0019029', ['lbtr'], 0.0)||('values', 'noun', 'C0042295', ['qlco'], 0.0)||('in', '', '', '', 0.0)||('similar', 'adj', 'C2348205', ['qlco'], 0.0)||('high - risk', '', '', '', 0.0)||('populations', 'noun', 'C0032659', ['qnco'], 0.0)||('.', '', '', '', 0.0)||
('further', 'adj', 'C1517331', ['spco'], 0.0)||('costly', '', '', '', 0.0)||('workup', '', '', '', 0.0)||('can', '', '', '', 0.0)||('then', 'adv', 'C1883708', ['tmco'], 0.0)||('be', '', '', '', 0.0)||('reserved', '', '', '', 0.0)||('for', '', '', '', 0.0)||('the', '', '', '', 0.0)||('small', 'adj', 'C0700321', ['qnco'], 0.0)||('number', 'noun', 'C0449788', ['qnco'], 0.0)||('of', '', '', '', 0.0)||('infants', 'noun', 'C0021270', ['aggp'], 0.0)||('who', '', '', '', 0.0)||('still', '', '', '', 0.0)||('have', '', '', '', 0.0)||('unexplained', '', '', '', 0.0)||('hgb', 'noun', 'C0019029', ['lbtr'], 0.0)||('concentrations', 'noun', 'C0086045', ['menp'], 0.0)||('less', '', '', '', 0.0)||('than', '', '', '', 0.0)||('11 . 0', '', '', '', 0.0)||('gm /', '', '', '', 0.0)||('dl', '', '', '', 0.0)||('after', '', '', '', 0.0)||('a', '', '', '', 0.0)||('therapeutic', 'adj', 'C0039796', ['topp'], 0.0)||('trial', 'noun', 'C0008976', ['resa'], 0.0)||('.', '', '', '', 0.0)||
