('the', '', '', '', 0.0)||('ma14nster', '', '', '', 0.0)||('heart', 'noun', 'C0018787', ['bpoc'], 0.0)||('study', 'noun', 'C0008976', ['resa'], 0.0)||('(', '', '', '', 0.0)||('procam', '', '', '', 0.0)||(')', '', '', '', 0.0)||('was', '', '', '', 0.0)||('initiated', '', '', '', 0.0)||('in', '', '', '', 0.0)||('1979', '', '', '', 0.0)||('in', '', '', '', 0.0)||('order', 'noun', 'C1705175', ['inpr'], 0.0)||('to', '', '', '', 0.0)||('examine', '', '', '', 0.0)||('cardiovascular risk', '', '', '', 0.0)||('factors', '', '', '', 0.0)||(',', '', '', '', 0.0)||('cardiovascular', 'adj', 'C0007226', ['bdsy'], 0.0)||('events', 'noun', 'C0441471', ['evnt'], 0.0)||('including', '', '', '', 0.0)||('myocardial infarction', 'noun', 'C0027051', ['dsyn'], 0.0)||('and', '', '', '', 0.0)||('stroke', 'noun', 'C0038454', ['dsyn'], 0.0)||(',', '', '', '', 0.0)||('and', '', '', '', 0.0)||('mortality', 'noun', 'C0026565', ['qnco'], 0.0)||('in', '', '', '', 0.0)||('people', 'noun', 'C0027361', ['popg'], 0.0)||('at', '', '', '', 0.0)||('work', 'noun', 'C0043227', ['ocac'], 0.0)||('.', '', '', '', 0.0)||
('examination', '', '', '', 0.0)||('at', '', '', '', 0.0)||('entry', 'noun', 'C1550548', ['ftcn'], 0.0)||('comprised', '', '', '', 0.0)||('a', '', '', '', 0.0)||('standardized', '', '', '', 0.0)||('case history', 'noun', 'C0085970', ['inpr'], 0.0)||(',', '', '', '', 0.0)||('measurement', 'noun', 'C0242485', ['ftcn'], 0.0)||('of', '', '', '', 0.0)||('blood pressure', 'noun', 'C0005823', ['orgf'], 0.0)||('and', '', '', '', 0.0)||('anthropometric', '', '', '', 0.0)||('data', 'noun', 'C1511726', ['idcn'], 0.0)||(',', '', '', '', 0.0)||('a', '', '', '', 0.0)||('resting', 'adj', 'C0035253', ['dora'], 0.0)||('electrocardiogram', 'noun', 'C0013798', ['fndg'], 0.0)||(',', '', '', '', 0.0)||('and', '', '', '', 0.0)||('measurement', 'noun', 'C0242485', ['ftcn'], 0.0)||('of', '', '', '', 0.0)||('more', '', '', '', 0.0)||('than', '', '', '', 0.0)||('20', '', '', '', 0.0)||('laboratory', 'noun', 'C0022877', ['mnob', 'orgt'], 0.0)||('parameters', 'noun', 'C0449381', ['fndg'], 0.0)||('in', '', '', '', 0.0)||('a', '', '', '', 0.0)||('fasting blood sample', '', '', '', 0.0)||('.', '', '', '', 0.0)||
('the', '', '', '', 0.0)||('prevalence', 'noun', 'C0033105', ['qnco'], 0.0)||('data', 'noun', 'C1511726', ['idcn'], 0.0)||('in', '', '', '', 0.0)||('this', '', '', '', 0.0)||('report', 'noun', 'C0684224', ['inpr'], 0.0)||('are', '', '', '', 0.0)||('based', 'verb', 'C1527178', ['ftcn'], 0.0)||('upon', '', '', '', 0.0)||('a', '', '', '', 0.0)||('single', 'adj', 'C0037179', ['popg'], 0.0)||('examination', '', '', '', 0.0)||('of', '', '', '', 0.0)||('17 , 437', '', '', '', 0.0)||('men', 'noun', 'C0025266', ['popg'], 0.0)||('aged', 'verb', 'C0001779', ['orga'], 0.0)||('40 . 4', '', '', '', 0.0)||('+', '', '', '', 0.0)||('/', '', '', '', 0.0)||('-', '', '', '', 0.0)||('11 . 3', '', '', '', 0.0)||('years', 'noun', 'C0439234', ['tmco'], 0.0)||('(', '', '', '', 0.0)||('mean', 'noun', 'C0444504', ['qnco'], 0.0)||('+', '', '', '', 0.0)||('/', '', '', '', 0.0)||('-', '', '', '', 0.0)||('sd', '', '', '', 0.0)||(')', '', '', '', 0.0)||('and', '', '', '', 0.0)||('8065', '', '', '', 0.0)||('women', 'noun', 'C0043210', ['popg'], 0.0)||('aged', 'verb', 'C0001779', ['orga'], 0.0)||('35 . 7', '', '', '', 0.0)||('+', '', '', '', 0.0)||('/', '', '', '', 0.0)||('-', '', '', '', 0.0)||('12 . 1', '', '', '', 0.0)||('years', 'noun', 'C0439234', ['tmco'], 0.0)||(',', '', '', '', 0.0)||('which', '', '', '', 0.0)||('took', '', '', '', 0.0)||('place', 'noun', 'C0442504', ['spco'], 0.0)||('between', '', '', '', 0.0)||('1979', '', '', '', 0.0)||('and', '', '', '', 0.0)||('1991', '', '', '', 0.0)||('.', '', '', '', 0.0)||
('severe', 'adj', 'C0205082', ['qlco'], 0.0)||('hypercholesterolaemia', 'noun', 'C0020443', ['dsyn'], 0.0)||('(', '', '', '', 0.0)||('>', '', '', '', 0.0)||('300', '', '', '', 0.0)||('mg', '', '', '', 0.0)||('.', '', '', '', 0.0)||('dl', '', '', '', 0.0)||('-', '', '', '', 0.0)||('1', '', '', '', 0.0)||(')', '', '', '', 0.0)||('was', '', '', '', 0.0)||('seen', 'verb', 'C0205397', ['qlco'], 0.0)||('in', '', '', '', 0.0)||('5 %', '', '', '', 0.0)||('of', '', '', '', 0.0)||('men', 'noun', 'C0025266', ['popg'], 0.0)||('and', '', '', '', 0.0)||('8 %', '', '', '', 0.0)||('of', '', '', '', 0.0)||('women', 'noun', 'C0043210', ['popg'], 0.0)||('aged', 'verb', 'C0001779', ['orga'], 0.0)||('45', '', '', '', 0.0)||('to', '', '', '', 0.0)||('64', '', '', '', 0.0)||('years', 'noun', 'C0439234', ['tmco'], 0.0)||('.', '', '', '', 0.0)||
('in', '', '', '', 0.0)||('men', 'noun', 'C0025266', ['popg'], 0.0)||(',', '', '', '', 0.0)||('the', '', '', '', 0.0)||('prevalence', 'noun', 'C0033105', ['qnco'], 0.0)||('of', '', '', '', 0.0)||('hypertriglyceridaemia', 'noun', 'C0020557', ['fndg'], 0.0)||('(', '', '', '', 0.0)||('>', '', '', '', 0.0)||('200', '', '', '', 0.0)||('mg', '', '', '', 0.0)||('.', '', '', '', 0.0)||('dl', '', '', '', 0.0)||('-', '', '', '', 0.0)||('1', '', '', '', 0.0)||(')', '', '', '', 0.0)||('rose', 'verb', 'C0035853', ['plnt'], 0.0)||('from', '', '', '', 0.0)||('5 %', '', '', '', 0.0)||('at', '', '', '', 0.0)||('age', 'noun', 'C0001779', ['orga'], 0.0)||('20', '', '', '', 0.0)||('to', '', '', '', 0.0)||('20 %', '', '', '', 0.0)||('at', '', '', '', 0.0)||('age', 'noun', 'C0001779', ['orga'], 0.0)||('45', '', '', '', 0.0)||('and', '', '', '', 0.0)||('remained', '', '', '', 0.0)||('constant', 'noun', 'C1948059', ['qlco'], 0.0)||('thereafter', '', '', '', 0.0)||(';', '', '', '', 0.0)||
('in', '', '', '', 0.0)||('women', 'noun', 'C0043210', ['popg'], 0.0)||('the', '', '', '', 0.0)||('prevalence', 'noun', 'C0033105', ['qnco'], 0.0)||('of', '', '', '', 0.0)||('hypertriglyceridaemia', 'noun', 'C0020557', ['fndg'], 0.0)||('increased', 'verb', 'C0205217', ['qnco'], 0.0)||('linearly', '', '', '', 0.0)||('from', '', '', '', 0.0)||('2 %', '', '', '', 0.0)||('at', '', '', '', 0.0)||('age', 'noun', 'C0001779', ['orga'], 0.0)||('20', '', '', '', 0.0)||('to', '', '', '', 0.0)||('7 %', '', '', '', 0.0)||('at', '', '', '', 0.0)||('age', 'noun', 'C0001779', ['orga'], 0.0)||('60', '', '', '', 0.0)||('.', '', '', '', 0.0)||
('the', '', '', '', 0.0)||('ldl', 'noun', 'C0428474', ['lbpr'], 0.0)||('/', '', '', '', 0.0)||('hdl', '', '', '', 0.0)||('ratio', 'noun', 'C0456603', ['qnco'], 0.0)||('was', '', '', '', 0.0)||('higher', '', '', '', 0.0)||('in', '', '', '', 0.0)||('men', 'noun', 'C0025266', ['popg'], 0.0)||('than', '', '', '', 0.0)||('in', '', '', '', 0.0)||('women', 'noun', 'C0043210', ['popg'], 0.0)||('at', '', '', '', 0.0)||('all', '', '', '', 0.0)||('age groups', 'noun', 'C0027362', ['aggp'], 0.0)||(';', '', '', '', 0.0)||
('in', '', '', '', 0.0)||('the', '', '', '', 0.0)||('age group', 'noun', 'C0027362', ['aggp'], 0.0)||('45', '', '', '', 0.0)||('to', '', '', '', 0.0)||('64', '', '', '', 0.0)||('years', 'noun', 'C0439234', ['tmco'], 0.0)||(',', '', '', '', 0.0)||('ldl', 'noun', 'C0428474', ['lbpr'], 0.0)||('/', '', '', '', 0.0)||('hdl', '', '', '', 0.0)||('ratios', 'noun', 'C0456603', ['qnco'], 0.0)||('>', '', '', '', 0.0)||('5', '', '', '', 0.0)||('were', '', '', '', 0.0)||('approximately', 'adv', 'C0332232', ['qlco'], 0.0)||('twice', 'adv', 'C1720725', ['inpr'], 0.0)||('as', '', '', '', 0.0)||('common', 'adj', 'C0205214', ['qnco'], 0.0)||('in', '', '', '', 0.0)||('men', 'noun', 'C0025266', ['popg'], 0.0)||('.', '', '', '', 0.0)||
('lipoprotein ( a ) levels', '', '', '', 0.0)||('were', '', '', '', 0.0)||('distributed', 'verb', 'C1704711', ['ftcn'], 0.0)||('in', '', '', '', 0.0)||('a', '', '', '', 0.0)||('highly', 'adv', 'C0205250', ['qlco'], 0.0)||('skewed', '', '', '', 0.0)||('fashion', '', '', '', 0.0)||('.', '', '', '', 0.0)||
('in', '', '', '', 0.0)||('men', 'noun', 'C0025266', ['popg'], 0.0)||(',', '', '', '', 0.0)||('a', '', '', '', 0.0)||('slight', 'adj', 'C0547040', ['qlco'], 0.0)||('rise', '', '', '', 0.0)||('in', '', '', '', 0.0)||('the', '', '', '', 0.0)||('geometric mean', '', '', '', 0.0)||('lipoprotein ( a )', '', '', '', 0.0)||('concentration', 'noun', 'C0086045', ['menp'], 0.0)||('occurred', 'verb', 'C1709305', ['cnce'], 0.0)||('with', '', '', '', 0.0)||('age', 'noun', 'C0001779', ['orga'], 0.0)||(',', '', '', '', 0.0)||('whereas', '', '', '', 0.0)||('in', '', '', '', 0.0)||('women', 'noun', 'C0043210', ['popg'], 0.0)||('a', '', '', '', 0.0)||('dramatic', '', '', '', 0.0)||('increase', 'noun', 'C0442805', ['ftcn'], 0.0)||('was', '', '', '', 0.0)||('seen', 'verb', 'C0205397', ['qlco'], 0.0)||('after', '', '', '', 0.0)||('age', 'noun', 'C0001779', ['orga'], 0.0)||('40', '', '', '', 0.0)||('.', '', '', '', 0.0)||
('using', 'verb', 'C1524063', ['ftcn'], 0.0)||('multivariate analysis', 'noun', 'C0026777', ['qnco'], 0.0)||('by', '', '', '', 0.0)||('the', '', '', '', 0.0)||('multiple', 'adj', 'C0439064', ['qnco'], 0.0)||('logistic', '', '', '', 0.0)||('function', 'noun', 'C0031843', ['phsf'], 0.0)||('method', 'noun', 'C0025663', ['inpr'], 0.0)||(',', '', '', '', 0.0)||('total cholesterol', 'noun', 'C0543421', ['strd'], 0.0)||(',', '', '', '', 0.0)||('hdl cholesterol', 'noun', 'C0428472', ['lbpr'], 0.0)||(',', '', '', '', 0.0)||('ldl', 'noun', 'C0428474', ['lbpr'], 0.0)||('cholesterol', 'noun', 'C0008377', ['bacs', 'strd'], 0.0)||('and', '', '', '', 0.0)||('log', 'noun', 'C1708728', ['inpr'], 0.0)||('-', '', '', '', 0.0)||('transformed', 'adj', 'C1510411', ['patf'], 0.0)||('triglycerides', 'noun', 'C0041004', ['bacs', 'lipd'], 0.0)||('showed', '', '', '', 0.0)||('a', '', '', '', 0.0)||('significant', 'adj', 'C0750502', ['idcn'], 0.0)||('(', '', '', '', 0.0)||('p', '', '', '', 0.0)||('<', '', '', '', 0.0)||('0 . 001', '', '', '', 0.0)||(')', '', '', '', 0.0)||('age - adjusted', '', '', '', 0.0)||('correlation', 'noun', 'C1707520', ['qlco'], 0.0)||('with', '', '', '', 0.0)||('the', '', '', '', 0.0)||('presence', 'noun', 'C0392148', ['topp'], 0.0)||('of', '', '', '', 0.0)||('major', 'adj', 'C0205164', ['qlco'], 0.0)||('coronary', 'adj', 'C0018787', ['bpoc'], 0.0)||('events', 'noun', 'C0441471', ['evnt'], 0.0)||('.', '', '', '', 0.0)||
('a', '', '', '', 0.0)||('risk', 'noun', 'C0035647', ['qlco'], 0.0)||('algorithm', 'noun', 'C0002045', ['inpr'], 0.0)||('has', '', '', '', 0.0)||('been', '', '', '', 0.0)||('developed', '', '', '', 0.0)||('for', '', '', '', 0.0)||('men', 'noun', 'C0025266', ['popg'], 0.0)||('aged', 'verb', 'C0001779', ['orga'], 0.0)||('40', '', '', '', 0.0)||('to', '', '', '', 0.0)||('65', '', '', '', 0.0)||('years', 'noun', 'C0439234', ['tmco'], 0.0)||('which', '', '', '', 0.0)||('takes', '', '', '', 0.0)||('into', '', '', '', 0.0)||('account', 'verb', 'C1551359', ['idcn'], 0.0)||('the', '', '', '', 0.0)||('independent', 'adj', 'C0085862', ['idcn'], 0.0)||('risk factors', 'noun', 'C0035648', ['qnco'], 0.0)||('of', '', '', '', 0.0)||('hdl cholesterol', 'noun', 'C0428472', ['lbpr'], 0.0)||(',', '', '', '', 0.0)||('ldl', 'noun', 'C0428474', ['lbpr'], 0.0)||('cholesterol', 'noun', 'C0008377', ['bacs', 'strd'], 0.0)||(',', '', '', '', 0.0)||('triglycerides', 'noun', 'C0041004', ['bacs', 'lipd'], 0.0)||(',', '', '', '', 0.0)||('fibrinogen', 'noun', 'C0016006', ['aapp', 'bacs', 'phsu'], 0.0)||(',', '', '', '', 0.0)||('age', 'noun', 'C0001779', ['orga'], 0.0)||(',', '', '', '', 0.0)||('systolic blood pressure', 'noun', 'C0488055', ['clna'], 0.0)||(',', '', '', '', 0.0)||('cigarette', 'noun', 'C0677453', ['mnob'], 0.0)||('smoking', 'noun', 'C0037369', ['inbe'], 0.0)||(',', '', '', '', 0.0)||('presence', 'noun', 'C0392148', ['topp'], 0.0)||('of', '', '', '', 0.0)||('diabetes mellitus', 'noun', 'C0011849', ['dsyn'], 0.0)||('and', '', '', '', 0.0)||('family history', 'noun', 'C0241889', ['fndg'], 0.0)||('of', '', '', '', 0.0)||('myocardial infarction', 'noun', 'C0027051', ['dsyn'], 0.0)||('and', '', '', '', 0.0)||('angina pectoris', 'noun', 'C0002962', ['sosy'], 0.0)||('.', '', '', '', 0.0)||
('this', '', '', '', 0.0)||('algorithm', 'noun', 'C0002045', ['inpr'], 0.0)||('can', '', '', '', 0.0)||('be', '', '', '', 0.0)||('used', '', '', '', 0.0)||('in', '', '', '', 0.0)||('clinical', 'adj', 'C0205210', ['qlco'], 0.0)||('practice', 'noun', 'C0237607', ['menp'], 0.0)||('to', '', '', '', 0.0)||('calculate', 'verb', 'C1441506', ['acty'], 0.0)||('the', '', '', '', 0.0)||('8', '', '', '', 0.0)||('-', '', '', '', 0.0)||('year', 'noun', 'C0439234', ['tmco'], 0.0)||('risk', 'noun', 'C0035647', ['qlco'], 0.0)||('of', '', '', '', 0.0)||('an', '', '', '', 0.0)||('individual', 'adj', 'C0027361', ['popg'], 0.0)||('suffering', 'noun', 'C0683278', ['mobd'], 0.0)||('a', '', '', '', 0.0)||('myocardial infarction', 'noun', 'C0027051', ['dsyn'], 0.0)||('.', '', '', '', 0.0)||
