('four hundred and fifty', '', '', '', 0.0)||('patients', 'noun', 'C0030705', ['podg'], 0.0)||('were', '', '', '', 0.0)||('enrolled', '', '', '', 0.0)||('into', '', '', '', 0.0)||('a', '', '', '', 0.0)||('randomised clinical trial', '', '', '', 0.0)||('in', '', '', '', 0.0)||('a', '', '', '', 0.0)||('public', '', '', '', 0.0)||('sexually transmitted diseases', 'noun', 'C0036916', ['dsyn'], 0.0)||('clinic', 'noun', 'C0002424', ['hcro', 'mnob'], 0.0)||('to', '', '', '', 0.0)||('evaluate', 'verb', 'C0220825', ['ftcn'], 0.0)||('the', '', '', '', 0.0)||('efficacy', 'noun', 'C1707887', ['resa'], 0.0)||('of', '', '', '', 0.0)||('podophyllin', 'noun', 'C0032333', ['orch', 'phsu'], 0.0)||(',', '', '', '', 0.0)||('cryotherapy', 'noun', 'C0010412', ['topp'], 0.0)||(',', '', '', '', 0.0)||('and', '', '', '', 0.0)||('electrodesiccation', 'noun', 'C0185056', ['topp'], 0.0)||('for', '', '', '', 0.0)||('treatment', 'noun', 'C0039798', ['ftcn'], 0.0)||('of', '', '', '', 0.0)||('external', 'adj', 'C0205101', ['spco'], 0.0)||('genital warts', '', '', '', 0.0)||('.', '', '', '', 0.0)||
('complete', 'adj', 'C0205197', ['qlco'], 0.0)||('clearance', 'noun', 'C0449297', ['qlco'], 0.0)||('of', '', '', '', 0.0)||('warts', 'noun', 'C0043037', ['dsyn'], 0.0)||('was', '', '', '', 0.0)||('observed', 'verb', 'C1441672', ['ftcn'], 0.0)||('in', '', '', '', 0.0)||('41 %', '', '', '', 0.0)||(',', '', '', '', 0.0)||('79 %', '', '', '', 0.0)||(',', '', '', '', 0.0)||('and', '', '', '', 0.0)||('94 %', '', '', '', 0.0)||('of', '', '', '', 0.0)||('patients', 'noun', 'C0030705', ['podg'], 0.0)||('who', '', '', '', 0.0)||('received', 'verb', 'C1514756', ['qlco'], 0.0)||('up to', '', '', '', 0.0)||('six', '', 'C0205452', ['qnco'], 0.0)||('weekly', 'adv', 'C0332174', ['tmco'], 0.0)||('treatments', 'noun', 'C0087111', ['topp'], 0.0)||('of', '', '', '', 0.0)||('podophyllin', 'noun', 'C0032333', ['orch', 'phsu'], 0.0)||(',', '', '', '', 0.0)||('cryotherapy', 'noun', 'C0010412', ['topp'], 0.0)||(',', '', '', '', 0.0)||('and', '', '', '', 0.0)||('electrodesiccation', 'noun', 'C0185056', ['topp'], 0.0)||(',', '', '', '', 0.0)||('respectively', '', '', '', 0.0)||('.', '', '', '', 0.0)||
('relapses', 'noun', 'C0035020', ['phpr'], 0.0)||('occurred', 'verb', 'C1709305', ['cnce'], 0.0)||('in', '', '', '', 0.0)||('25 %', '', '', '', 0.0)||('of', '', '', '', 0.0)||('all', '', '', '', 0.0)||('patients', 'noun', 'C0030705', ['podg'], 0.0)||(',', '', '', '', 0.0)||('yielding', '', '', '', 0.0)||('3', '', '', '', 0.0)||('month', 'noun', 'C0439231', ['tmco'], 0.0)||('clearance rates', '', '', '', 0.0)||('of', '', '', '', 0.0)||('17 %', '', '', '', 0.0)||(',', '', '', '', 0.0)||('55 %', '', '', '', 0.0)||(',', '', '', '', 0.0)||('and', '', '', '', 0.0)||('71 %', '', '', '', 0.0)||('for', '', '', '', 0.0)||('podophyllin', 'noun', 'C0032333', ['orch', 'phsu'], 0.0)||(',', '', '', '', 0.0)||('cryotherapy', 'noun', 'C0010412', ['topp'], 0.0)||(',', '', '', '', 0.0)||('and', '', '', '', 0.0)||('electrodesiccation', 'noun', 'C0185056', ['topp'], 0.0)||(',', '', '', '', 0.0)||('respectively', '', '', '', 0.0)||('.', '', '', '', 0.0)||
('wart', 'noun', 'C0043037', ['dsyn'], 0.0)||('volume', 'noun', 'C1705102', ['inpr'], 0.0)||('and', '', '', '', 0.0)||('duration', 'noun', 'C0449238', ['tmco'], 0.0)||('did', '', '', '', 0.0)||('not', 'adv', 'C1518422', ['ftcn'], 0.0)||('influence', '', '', '', 0.0)||('treatment', 'noun', 'C0039798', ['ftcn'], 0.0)||('outcome', 'noun', 'C1274040', ['ftcn'], 0.0)||('.', '', '', '', 0.0)||
('response', 'noun', 'C0871261', ['clna'], 0.0)||('to', '', '', '', 0.0)||('therapy', 'noun', 'C0039798', ['ftcn'], 0.0)||('was', '', '', '', 0.0)||('greater', 'adj', 'C1704243', ['qnco'], 0.0)||('in', '', '', '', 0.0)||('women', 'noun', 'C0043210', ['popg'], 0.0)||('than', '', '', '', 0.0)||('in', '', '', '', 0.0)||('men', 'noun', 'C0025266', ['popg'], 0.0)||(',', '', '', '', 0.0)||('and', '', '', '', 0.0)||('did', '', '', '', 0.0)||('not', 'adv', 'C1518422', ['ftcn'], 0.0)||('differ', '', '', '', 0.0)||('by', '', '', '', 0.0)||('treatment', 'noun', 'C0039798', ['ftcn'], 0.0)||('modality', 'noun', 'C0695347', ['idcn'], 0.0)||('.', '', '', '', 0.0)||
('electrodesiccation', 'noun', 'C0185056', ['topp'], 0.0)||('and', '', '', '', 0.0)||('cryotherapy', 'noun', 'C0010412', ['topp'], 0.0)||('were', '', '', '', 0.0)||('more', '', '', '', 0.0)||('effective', 'adj', 'C1704419', ['qlco'], 0.0)||('than', '', '', '', 0.0)||('podophyllin', 'noun', 'C0032333', ['orch', 'phsu'], 0.0)||('for', '', '', '', 0.0)||('the', '', '', '', 0.0)||('treatment', 'noun', 'C0039798', ['ftcn'], 0.0)||('of', '', '', '', 0.0)||('external', 'adj', 'C0205101', ['spco'], 0.0)||('genital warts', '', '', '', 0.0)||(',', '', '', '', 0.0)||('but', '', '', '', 0.0)||('none', 'noun', 'C0549184', ['qnco'], 0.0)||('of', '', '', '', 0.0)||('these', '', '', '', 0.0)||('three', '', 'C0205449', ['qnco'], 0.0)||('treatments', 'noun', 'C0087111', ['topp'], 0.0)||('were', '', '', '', 0.0)||('highly', 'adv', 'C0205250', ['qlco'], 0.0)||('successful', 'adj', 'C1272703', ['qlco'], 0.0)||('.', '', '', '', 0.0)||
