('to', '', '', '', 0.0)||('evaluate', 'verb', 'C0220825', ['ftcn'], 0.0)||('and', '', '', '', 0.0)||('compare', 'verb', 'C1707455', ['acty'], 0.0)||('the', '', '', '', 0.0)||('efficacy', 'noun', 'C1707887', ['resa'], 0.0)||('and', '', '', '', 0.0)||('adverse effects', 'noun', 'C0001688', ['ftcn'], 0.0)||('of', '', '', '', 0.0)||('trichloracetic', '', '', '', 0.0)||('acid', 'noun', 'C0001128', ['chem'], 0.0)||('and', '', '', '', 0.0)||('cryotherapy', 'noun', 'C0010412', ['topp'], 0.0)||('(', '', '', '', 0.0)||('using', 'verb', 'C1524063', ['ftcn'], 0.0)||('liquid nitrogen', 'noun', 'C0260055', ['elii'], 0.0)||(')', '', '', '', 0.0)||('in', '', '', '', 0.0)||('the', '', '', '', 0.0)||('treatment', 'noun', 'C0039798', ['ftcn'], 0.0)||('of', '', '', '', 0.0)||('external', 'adj', 'C0205101', ['spco'], 0.0)||('genital warts', '', '', '', 0.0)||('.', '', '', '', 0.0)||
('eighty', '', '', '', 0.0)||('-', '', '', '', 0.0)||('six', '', 'C0205452', ['qnco'], 0.0)||('patients', 'noun', 'C0030705', ['podg'], 0.0)||('were', '', '', '', 0.0)||('enrolled', '', '', '', 0.0)||('into', '', '', '', 0.0)||('a', '', '', '', 0.0)||('randomized clinical trial', 'noun', 'C0206034', ['inpr', 'resa'], 0.0)||('in', '', '', '', 0.0)||('the', '', '', '', 0.0)||('genitourinary', 'noun', 'C0042066', ['bdsy'], 0.0)||('medicine', 'noun', 'C0025118', ['bmod'], 0.0)||('department', 'noun', 'C1704729', ['orgt'], 0.0)||('of', '', '', '', 0.0)||('the', '', '', '', 0.0)||('coventry', '', '', '', 0.0)||('and', '', '', '', 0.0)||('warwickshire', 'noun', 'C0454881', ['geoa'], 0.0)||('hospital', 'noun', 'C0019994', ['hcro', 'mnob'], 0.0)||('(', '', '', '', 0.0)||('coventry', '', '', '', 0.0)||(')', '', '', '', 0.0)||('between', '', '', '', 0.0)||('november', '', '', '', 0.0)||('1990', '', '', '', 0.0)||('and', '', '', '', 0.0)||('june', '', '', '', 0.0)||('1991', '', '', '', 0.0)||('.', '', '', '', 0.0)||
('external', 'adj', 'C0205101', ['spco'], 0.0)||('genital warts', '', '', '', 0.0)||('were', '', '', '', 0.0)||('treated', 'verb', 'C1522326', ['ftcn'], 0.0)||('with', '', '', '', 0.0)||('either', '', '', '', 0.0)||('trichloracetic', '', '', '', 0.0)||('acid', 'noun', 'C0001128', ['chem'], 0.0)||('or', '', '', '', 0.0)||('cryotherapy', 'noun', 'C0010412', ['topp'], 0.0)||('(', '', '', '', 0.0)||('using', 'verb', 'C1524063', ['ftcn'], 0.0)||('liquid nitrogen', 'noun', 'C0260055', ['elii'], 0.0)||(')', '', '', '', 0.0)||('on', '', '', '', 0.0)||('a', '', '', '', 0.0)||('once weekly', 'adj', 'C0558293', ['tmco'], 0.0)||('basis', 'noun', 'C1527178', ['ftcn'], 0.0)||('.', '', '', '', 0.0)||
('they', '', '', '', 0.0)||('received', 'verb', 'C1514756', ['qlco'], 0.0)||('up to', '', '', '', 0.0)||('six', '', 'C0205452', ['qnco'], 0.0)||('treatments', 'noun', 'C0087111', ['topp'], 0.0)||('of', '', '', '', 0.0)||('either', '', '', '', 0.0)||('therapy', 'noun', 'C0039798', ['ftcn'], 0.0)||('.', '', '', '', 0.0)||
('complete', 'adj', 'C0205197', ['qlco'], 0.0)||('clearance', 'noun', 'C0449297', ['qlco'], 0.0)||('of', '', '', '', 0.0)||('warts', 'noun', 'C0043037', ['dsyn'], 0.0)||('in', '', '', '', 0.0)||('patients', 'noun', 'C0030705', ['podg'], 0.0)||('who', '', '', '', 0.0)||('received', 'verb', 'C1514756', ['qlco'], 0.0)||('up to', '', '', '', 0.0)||('six', '', 'C0205452', ['qnco'], 0.0)||('treatments', 'noun', 'C0087111', ['topp'], 0.0)||('of', '', '', '', 0.0)||('cryotherapy', 'noun', 'C0010412', ['topp'], 0.0)||('were', '', '', '', 0.0)||('observed', 'verb', 'C1441672', ['ftcn'], 0.0)||('in', '', '', '', 0.0)||('86 %', '', '', '', 0.0)||('of', '', '', '', 0.0)||('cases', 'noun', 'C0868928', ['ftcn'], 0.0)||('and', '', '', '', 0.0)||('in', '', '', '', 0.0)||('70 %', '', '', '', 0.0)||('of', '', '', '', 0.0)||('patients', 'noun', 'C0030705', ['podg'], 0.0)||('who', '', '', '', 0.0)||('received', 'verb', 'C1514756', ['qlco'], 0.0)||('up to', '', '', '', 0.0)||('six', '', 'C0205452', ['qnco'], 0.0)||('treatments', 'noun', 'C0087111', ['topp'], 0.0)||('of', '', '', '', 0.0)||('trichloracetic', '', '', '', 0.0)||('acid', 'noun', 'C0001128', ['chem'], 0.0)||('.', '', '', '', 0.0)||
('thirty', '', '', '', 0.0)||('percent', 'noun', 'C0439165', ['qnco'], 0.0)||('of', '', '', '', 0.0)||('patients', 'noun', 'C0030705', ['podg'], 0.0)||('who', '', '', '', 0.0)||('were', '', '', '', 0.0)||('treated', 'verb', 'C1522326', ['ftcn'], 0.0)||('with', '', '', '', 0.0)||('trichloracetic', '', '', '', 0.0)||('acid', 'noun', 'C0001128', ['chem'], 0.0)||('developed', '', '', '', 0.0)||('ulcerations', '', '', '', 0.0)||('at', '', '', '', 0.0)||('the', '', '', '', 0.0)||('site', 'noun', 'C0205145', ['spco'], 0.0)||('of', '', '', '', 0.0)||('its', '', '', '', 0.0)||('application', 'noun', 'C0185125', ['hlca'], 0.0)||('.', '', '', '', 0.0)||
('in', '', '', '', 0.0)||('this', '', '', '', 0.0)||('study', 'noun', 'C0008976', ['resa'], 0.0)||('we', '', '', '', 0.0)||('found', '', '', '', 0.0)||('that', '', '', '', 0.0)||('cryotherapy', 'noun', 'C0010412', ['topp'], 0.0)||('(', '', '', '', 0.0)||('using', 'verb', 'C1524063', ['ftcn'], 0.0)||('liquid nitrogen', 'noun', 'C0260055', ['elii'], 0.0)||(')', '', '', '', 0.0)||('is', '', '', '', 0.0)||('more', '', '', '', 0.0)||('effective', 'adj', 'C1704419', ['qlco'], 0.0)||('than', '', '', '', 0.0)||('that', '', '', '', 0.0)||('of', '', '', '', 0.0)||('trichloracetic', '', '', '', 0.0)||('acid', 'noun', 'C0001128', ['chem'], 0.0)||('for', '', '', '', 0.0)||('the', '', '', '', 0.0)||('treatment', 'noun', 'C0039798', ['ftcn'], 0.0)||('of', '', '', '', 0.0)||('external', 'adj', 'C0205101', ['spco'], 0.0)||('genital warts', '', '', '', 0.0)||('.', '', '', '', 0.0)||
('it', '', '', '', 0.0)||('is', '', '', '', 0.0)||('also', '', '', '', 0.0)||('less', '', '', '', 0.0)||('likely', 'adv', 'C0332148', ['qlco'], 0.0)||('to', '', '', '', 0.0)||('cause', 'verb', 'C1524003', ['cnce'], 0.0)||('ulceration', 'noun', 'C0041582', ['patf'], 0.0)||('.', '', '', '', 0.0)||
