('cryotherapy', 'noun', 'C0010412', ['topp'], 0.0)||('is', '', '', '', 0.0)||('equivalent', 'adj', 'C0205163', ['qlco'], 0.0)||('to', '', '', '', 0.0)||('trichloroacetic acid', 'noun', 'C0040900', ['orch', 'phsu'], 0.0)||('.', '', '', '', 0.0)||
('this', '', '', '', 0.0)||('trial', 'noun', 'C0008976', ['resa'], 0.0)||('showed', '', '', '', 0.0)||('recurrence', 'noun', 'C0034897', ['phpr'], 0.0)||('in', '', '', '', 0.0)||('22 %', '', '', '', 0.0)||('of', '', '', '', 0.0)||('participants', '', '', '', 0.0)||('receiving', '', '', '', 0.0)||('electrosurgery', 'noun', 'C0012002', ['topp'], 0.0)||(',', '', '', '', 0.0)||('in', '', '', '', 0.0)||('21 %', '', '', '', 0.0)||('of', '', '', '', 0.0)||('those', '', '', '', 0.0)||('receiving', '', '', '', 0.0)||('cryotherapy', 'noun', 'C0010412', ['topp'], 0.0)||(',', '', '', '', 0.0)||('and', '', '', '', 0.0)||('in', '', '', '', 0.0)||('44 %', '', '', '', 0.0)||('of', '', '', '', 0.0)||('those', '', '', '', 0.0)||('receiving', '', '', '', 0.0)||('podophyllin', 'noun', 'C0032333', ['orch', 'phsu'], 0.0)||('treatment', 'noun', 'C0039798', ['ftcn'], 0.0)||('.', '', '', '', 0.0)||
('data', 'noun', 'C1511726', ['idcn'], 0.0)||('are', '', '', '', 0.0)||('lacking', 'verb', 'C0332268', ['qlco'], 0.0)||('on', '', '', '', 0.0)||('recurrence rates', '', '', '', 0.0)||('with', '', '', '', 0.0)||('imiquimod', 'noun', 'C0165032', ['orch', 'phsu'], 0.0)||(',', '', '', '', 0.0)||('podofilox', 'noun', 'C0032334', ['orch', 'phsu'], 0.0)||(',', '', '', '', 0.0)||('and', '', '', '', 0.0)||('intralesional', 'adj', 'C1512954', ['spco'], 0.0)||('interferon', 'noun', 'C0021747', ['aapp', 'imft', 'phsu'], 0.0)||('.', '', '', '', 0.0)||
