('in', '', '', '', 0.0)||('a', '', '', '', 0.0)||('large', 'adj', 'C0549177', ['qnco'], 0.0)||('retrospective cohort study', '', '', '', 0.0)||(',', '', '', '', 0.0)||('5 %', '', '', '', 0.0)||('of', '', '', '', 0.0)||('tia', 'noun', 'C0007787', ['dsyn'], 0.0)||('patients', 'noun', 'C0030705', ['podg'], 0.0)||('returned', '', '', '', 0.0)||('to', '', '', '', 0.0)||('the', '', '', '', 0.0)||('emergency department', 'noun', 'C0562508', ['hcro', 'mnob'], 0.0)||('with', '', '', '', 0.0)||('a', '', '', '', 0.0)||('stroke', 'noun', 'C0038454', ['dsyn'], 0.0)||('within', '', '', '', 0.0)||('the', '', '', '', 0.0)||('first', 'noun', 'C0205435', ['qnco'], 0.0)||('2', '', '', '', 0.0)||('days', 'noun', 'C0439228', ['tmco'], 0.0)||('after', '', '', '', 0.0)||('tia', 'noun', 'C0007787', ['dsyn'], 0.0)||('.', '', '', '', 0.0)||
('another', '', '', '', 0.0)||('6 %', '', '', '', 0.0)||('returned', '', '', '', 0.0)||('with', '', '', '', 0.0)||('a', '', '', '', 0.0)||('stroke', 'noun', 'C0038454', ['dsyn'], 0.0)||('within', '', '', '', 0.0)||('90', '', '', '', 0.0)||('days', 'noun', 'C0439228', ['tmco'], 0.0)||('.', '', '', '', 0.0)||
('five', '', 'C0205451', ['qnco'], 0.0)||('independent', 'adj', 'C0085862', ['idcn'], 0.0)||('risk factors', 'noun', 'C0035648', ['qnco'], 0.0)||('were', '', '', '', 0.0)||('identified', 'verb', 'C0205396', ['qlco'], 0.0)||(':', '', '', '', 0.0)||('age', 'noun', 'C0001779', ['orga'], 0.0)||('>', '', '', '', 0.0)||('60', '', '', '', 0.0)||('years', 'noun', 'C0439234', ['tmco'], 0.0)||(',', '', '', '', 0.0)||('diabetes mellitus', 'noun', 'C0011849', ['dsyn'], 0.0)||(',', '', '', '', 0.0)||('duration', 'noun', 'C0449238', ['tmco'], 0.0)||('of', '', '', '', 0.0)||('tia', 'noun', 'C0007787', ['dsyn'], 0.0)||('longer', '', '', '', 0.0)||('than', '', '', '', 0.0)||('10', '', '', '', 0.0)||('minutes', 'noun', 'C0439232', ['tmco'], 0.0)||(',', '', '', '', 0.0)||('signs', 'noun', 'C0220912', ['ftcn'], 0.0)||('or', '', '', '', 0.0)||('symptoms', 'noun', 'C0683368', ['ftcn'], 0.0)||('of', '', '', '', 0.0)||('weakness', 'noun', 'C0004093', ['sosy'], 0.0)||(',', '', '', '', 0.0)||('and', '', '', '', 0.0)||('speech', 'noun', 'C0037817', ['orgf'], 0.0)||('impairment', 'noun', 'C0684336', ['fndg'], 0.0)||('.', '', '', '', 0.0)||
('thirty - four', '', '', '', 0.0)||('percent', 'noun', 'C0439165', ['qnco'], 0.0)||('of', '', '', '', 0.0)||('patients', 'noun', 'C0030705', ['podg'], 0.0)||('with', '', '', '', 0.0)||('all', '', '', '', 0.0)||('5', '', '', '', 0.0)||('risk factors', 'noun', 'C0035648', ['qnco'], 0.0)||(',', '', '', '', 0.0)||('and', '', '', '', 0.0)||('none', 'noun', 'C0549184', ['qnco'], 0.0)||('of', '', '', '', 0.0)||('the', '', '', '', 0.0)||('patients', 'noun', 'C0030705', ['podg'], 0.0)||('without', '', '', '', 0.0)||('any', '', '', '', 0.0)||('risk factors', 'noun', 'C0035648', ['qnco'], 0.0)||(',', '', '', '', 0.0)||('had', '', '', '', 0.0)||('a', '', '', '', 0.0)||('stroke', 'noun', 'C0038454', ['dsyn'], 0.0)||('within', '', '', '', 0.0)||('90', '', '', '', 0.0)||('days', 'noun', 'C0439228', ['tmco'], 0.0)||('.', '', '', '', 0.0)||
('of', '', '', '', 0.0)||('note', 'noun', 'C1317574', ['inpr'], 0.0)||(',', '', '', '', 0.0)||('13 %', '', '', '', 0.0)||('of', '', '', '', 0.0)||('the', '', '', '', 0.0)||('tia', 'noun', 'C0007787', ['dsyn'], 0.0)||('patients', 'noun', 'C0030705', ['podg'], 0.0)||('had', '', '', '', 0.0)||('an', '', '', '', 0.0)||('arrhythmia', 'noun', 'C0003811', ['patf'], 0.0)||(',', '', '', '', 0.0)||('congestive heart failure', 'noun', 'C0018802', ['dsyn'], 0.0)||(',', '', '', '', 0.0)||('unstable angina', '', '', '', 0.0)||(',', '', '', '', 0.0)||('myocardial infarction', 'noun', 'C0027051', ['dsyn'], 0.0)||(',', '', '', '', 0.0)||('stroke', 'noun', 'C0038454', ['dsyn'], 0.0)||(',', '', '', '', 0.0)||('or', '', '', '', 0.0)||('recurrent', 'adj', 'C0034897', ['phpr'], 0.0)||('tia', 'noun', 'C0007787', ['dsyn'], 0.0)||('within', '', '', '', 0.0)||('4', '', '', '', 0.0)||('days', 'noun', 'C0439228', ['tmco'], 0.0)||('of', '', '', '', 0.0)||('initial', 'adj', 'C0205265', ['tmco'], 0.0)||('presenting', 'noun', 'C0449450', ['idcn'], 0.0)||('with', '', '', '', 0.0)||('a', '', '', '', 0.0)||('tia', 'noun', 'C0007787', ['dsyn'], 0.0)||('.', '', '', '', 0.0)||
('twenty - five', '', '', '', 0.0)||('percent', 'noun', 'C0439165', ['qnco'], 0.0)||('of', '', '', '', 0.0)||('the', '', '', '', 0.0)||('patients', 'noun', 'C0030705', ['podg'], 0.0)||('experienced', '', '', '', 0.0)||('1', '', '', '', 0.0)||('of', '', '', '', 0.0)||('these', '', '', '', 0.0)||('cardiovascular', 'adj', 'C0007226', ['bdsy'], 0.0)||('events', 'noun', 'C0441471', ['evnt'], 0.0)||('during', '', '', '', 0.0)||('the', '', '', '', 0.0)||('3', '', '', '', 0.0)||('months', 'noun', 'C0439231', ['tmco'], 0.0)||('of', '', '', '', 0.0)||('follow - up', '', '', '', 0.0)||('.', '', '', '', 0.0)||
