('the', '', '', '', 0.0)||('objectives', 'noun', 'C0018017', ['inpr'], 0.0)||('of', '', '', '', 0.0)||('this', '', '', '', 0.0)||('study', 'noun', 'C0008976', ['resa'], 0.0)||('were', '', '', '', 0.0)||('to', '', '', '', 0.0)||(':', '', '', '', 0.0)||('(', '', '', '', 0.0)||('1', '', '', '', 0.0)||(')', '', '', '', 0.0)||('establish', '', '', '', 0.0)||('the', '', '', '', 0.0)||('causes', 'noun', 'C0015127', ['ftcn'], 0.0)||('of', '', '', '', 0.0)||('scrotal swelling', 'noun', 'C0282005', ['sosy'], 0.0)||('in', '', '', '', 0.0)||('the', '', '', '', 0.0)||('hospital', 'noun', 'C0019994', ['hcro', 'mnob'], 0.0)||('catchment', '', '', '', 0.0)||('population', 'noun', 'C0032659', ['qnco'], 0.0)||(';', '', '', '', 0.0)||
('(', '', '', '', 0.0)||('2', '', '', '', 0.0)||(')', '', '', '', 0.0)||('define', '', '', '', 0.0)||('the', '', '', '', 0.0)||('role', 'noun', 'C0035820', ['socb'], 0.0)||('of', '', '', '', 0.0)||('high frequency', 'adj', 'C0205212', ['tmco'], 0.0)||('ultrasound', 'noun', 'C0041618', ['diap'], 0.0)||('examination', '', '', '', 0.0)||('in', '', '', '', 0.0)||('the', '', '', '', 0.0)||('management', 'noun', 'C0001554', ['ocac'], 0.0)||('of', '', '', '', 0.0)||('scrotal swelling', 'noun', 'C0282005', ['sosy'], 0.0)||('.', '', '', '', 0.0)||
('a', '', '', '', 0.0)||('retrospective study', 'noun', 'C0035363', ['resa'], 0.0)||('of', '', '', '', 0.0)||('582', '', '', '', 0.0)||('patients', 'noun', 'C0030705', ['podg'], 0.0)||('who', '', '', '', 0.0)||('had', '', '', '', 0.0)||('high frequency', 'adj', 'C0205212', ['tmco'], 0.0)||('ultrasound', 'noun', 'C0041618', ['diap'], 0.0)||('examination', '', '', '', 0.0)||('was', '', '', '', 0.0)||('carried', '', '', '', 0.0)||('out', '', '', '', 0.0)||('.', '', '', '', 0.0)||
('those', '', '', '', 0.0)||('requiring', '', '', '', 0.0)||('more', '', '', '', 0.0)||('information', 'noun', 'C1533716', ['idcn'], 0.0)||('on', '', '', '', 0.0)||('perfusion', 'noun', 'C0031001', ['topp'], 0.0)||('had', '', '', '', 0.0)||('colour doppler', '', '', '', 0.0)||('examination', '', '', '', 0.0)||('.', '', '', '', 0.0)||
('forty', '', '', '', 0.0)||('-', '', '', '', 0.0)||('four', '', 'C0205450', ['qnco'], 0.0)||('per cent', '', '', '', 0.0)||('of', '', '', '', 0.0)||('examinations', '', '', '', 0.0)||('were', '', '', '', 0.0)||('performed', 'verb', 'C0884358', ['ftcn'], 0.0)||('for', '', '', '', 0.0)||('scrotal swelling', 'noun', 'C0282005', ['sosy'], 0.0)||('.', '', '', '', 0.0)||
('the', '', '', '', 0.0)||('cause', 'noun', 'C1524003', ['cnce'], 0.0)||('of', '', '', '', 0.0)||('the', '', '', '', 0.0)||('scrotal swelling', 'noun', 'C0282005', ['sosy'], 0.0)||('was', '', '', '', 0.0)||('mainly', '', '', '', 0.0)||('extratesticular', '', '', '', 0.0)||('(', '', '', '', 0.0)||('75 %', '', '', '', 0.0)||('of', '', '', '', 0.0)||('all', '', '', '', 0.0)||('scrotal swellings', '', '', '', 0.0)||(')', '', '', '', 0.0)||(',', '', '', '', 0.0)||('hydrocele', 'noun', 'C1720771', ['dsyn'], 0.0)||('being', '', '', '', 0.0)||('the', '', '', '', 0.0)||('commonest', '', '', '', 0.0)||('.', '', '', '', 0.0)||
('of', '', '', '', 0.0)||('the', '', '', '', 0.0)||('intratesticular', 'adj', 'C1627356', ['spco'], 0.0)||('causes', 'noun', 'C0015127', ['ftcn'], 0.0)||(',', '', '', '', 0.0)||('infection', 'noun', 'C0021311', ['dsyn'], 0.0)||('(', '', '', '', 0.0)||('50 . 8 %', '', '', '', 0.0)||(')', '', '', '', 0.0)||('and', '', '', '', 0.0)||('tumour', '', '', '', 0.0)||('(', '', '', '', 0.0)||('20 . 6 %', '', '', '', 0.0)||(')', '', '', '', 0.0)||('were', '', '', '', 0.0)||('the', '', '', '', 0.0)||('commonest', '', '', '', 0.0)||('.', '', '', '', 0.0)||
('in', '', '', '', 0.0)||('conclusion', 'noun', 'C1707478', ['idcn'], 0.0)||('ultrasound', 'noun', 'C0041618', ['diap'], 0.0)||('examination', '', '', '', 0.0)||('distinguishes', '', '', '', 0.0)||('extratesticular', '', '', '', 0.0)||('(', '', '', '', 0.0)||('almost', '', '', '', 0.0)||('always', 'adv', 'C2003902', ['tmco'], 0.0)||('benign', 'adj', 'C0205183', ['qlco'], 0.0)||(')', '', '', '', 0.0)||('from', '', '', '', 0.0)||('intratesticular', 'adj', 'C1627356', ['spco'], 0.0)||('(', '', '', '', 0.0)||('potentially', '', '', '', 0.0)||('malignant', 'adj', 'C0205282', ['qlco'], 0.0)||(')', '', '', '', 0.0)||('causes', 'verb', 'C0015127', ['ftcn'], 0.0)||('of', '', '', '', 0.0)||('scrotal swelling', 'noun', 'C0282005', ['sosy'], 0.0)||('.', '', '', '', 0.0)||
('infection', 'noun', 'C0021311', ['dsyn'], 0.0)||(',', '', '', '', 0.0)||('trauma', 'noun', 'C0043251', ['inpo'], 0.0)||('and', '', '', '', 0.0)||('torsion', 'noun', 'C0040480', ['phsf'], 0.0)||('mimic', '', '', '', 0.0)||('the', '', '', '', 0.0)||('ultrasound', 'noun', 'C0041618', ['diap'], 0.0)||('appearance', 'noun', 'C0233426', ['orga'], 0.0)||('of', '', '', '', 0.0)||('tumour', '', '', '', 0.0)||('as', '', '', '', 0.0)||('do', '', '', '', 0.0)||('rare', 'adj', 'C0521114', ['tmco'], 0.0)||('benign', 'adj', 'C0205183', ['qlco'], 0.0)||('entities', '', '', '', 0.0)||('.', '', '', '', 0.0)||
