('to', '', '', '', 0.0)||('investigate', '', '', '', 0.0)||('the', '', '', '', 0.0)||('utility', '', '', '', 0.0)||('of', '', '', '', 0.0)||('magnetic resonance imaging', 'noun', 'C0024485', ['diap'], 0.0)||('after', '', '', '', 0.0)||('inconclusive', 'adj', 'C1629507', ['qlco'], 0.0)||('sonography', 'noun', 'C0041618', ['diap'], 0.0)||('in', '', '', '', 0.0)||('the', '', '', '', 0.0)||('evaluation', 'noun', 'C0220825', ['ftcn'], 0.0)||('of', '', '', '', 0.0)||('scrotal', 'adj', 'C0036471', ['bpoc'], 0.0)||('disease', 'noun', 'C0012634', ['dsyn'], 0.0)||('.', '', '', '', 0.0)||
('from', '', '', '', 0.0)||('1993', '', '', '', 0.0)||('to', '', '', '', 0.0)||('1999', '', '', '', 0.0)||(',', '', '', '', 0.0)||('622', '', '', '', 0.0)||('patients', 'noun', 'C0030705', ['podg'], 0.0)||('underwent', '', '', '', 0.0)||('ultrasonography', 'noun', 'C0041618', ['diap'], 0.0)||('with', '', '', '', 0.0)||('state - of - the - art', '', '', '', 0.0)||('equipment', 'noun', 'C0014672', ['mnob'], 0.0)||('to', '', '', '', 0.0)||('evaluate', 'verb', 'C0220825', ['ftcn'], 0.0)||('scrotal', 'adj', 'C0036471', ['bpoc'], 0.0)||('diseases', 'noun', 'C0012634', ['dsyn'], 0.0)||('.', '', '', '', 0.0)||
('twenty - six', '', '', '', 0.0)||('patients', 'noun', 'C0030705', ['podg'], 0.0)||(',', '', '', '', 0.0)||('two', 'noun', 'C0205448', ['qnco'], 0.0)||('with', '', '', '', 0.0)||('bilateral', 'adj', 'C0238767', ['spco'], 0.0)||('and', '', '', '', 0.0)||('distinct', '', '', '', 0.0)||('diseases', 'noun', 'C0012634', ['dsyn'], 0.0)||('(', '', '', '', 0.0)||('age', 'noun', 'C0001779', ['orga'], 0.0)||('range', 'noun', 'C1514721', ['qnco'], 0.0)||('1', '', '', '', 0.0)||('-', '', '', '', 0.0)||('-', '', '', '', 0.0)||('63', '', '', '', 0.0)||('years', 'noun', 'C0439234', ['tmco'], 0.0)||(',', '', '', '', 0.0)||('mean', 'noun', 'C0444504', ['qnco'], 0.0)||('33', '', '', '', 0.0)||(')', '', '', '', 0.0)||(',', '', '', '', 0.0)||('had', '', '', '', 0.0)||('an', '', '', '', 0.0)||('inconclusive', 'adj', 'C1629507', ['qlco'], 0.0)||('sonogram', 'noun', 'C0041618', ['diap'], 0.0)||('and', '', '', '', 0.0)||('were', '', '', '', 0.0)||('sent', 'verb', 'C1519246', ['ftcn'], 0.0)||('for', '', '', '', 0.0)||('magnetic resonance imaging', 'noun', 'C0024485', ['diap'], 0.0)||('.', '', '', '', 0.0)||
('the', '', '', '', 0.0)||('magnetic resonance imaging', 'noun', 'C0024485', ['diap'], 0.0)||('results', 'noun', 'C1274040', ['ftcn'], 0.0)||('were', '', '', '', 0.0)||('compared', 'verb', 'C1707455', ['acty'], 0.0)||('with', '', '', '', 0.0)||('previous', 'adj', 'C0205156', ['tmco'], 0.0)||('ultrasonography', 'noun', 'C0041618', ['diap'], 0.0)||('reports', 'noun', 'C0684224', ['inpr'], 0.0)||('and', '', '', '', 0.0)||('with', '', '', '', 0.0)||('the', '', '', '', 0.0)||('final', 'adj', 'C0205088', ['tmco'], 0.0)||('diagnosis', 'noun', 'C0011900', ['fndg'], 0.0)||('.', '', '', '', 0.0)||
('magnetic resonance imaging', 'noun', 'C0024485', ['diap'], 0.0)||('yielded', '', '', '', 0.0)||('additional', 'adj', 'C1524062', ['ftcn'], 0.0)||('and', '', '', '', 0.0)||('correct', 'adj', 'C1548444', ['inpr'], 0.0)||('information', 'noun', 'C1533716', ['idcn'], 0.0)||('(', '', '', '', 0.0)||('compared', 'verb', 'C1707455', ['acty'], 0.0)||('with', '', '', '', 0.0)||('ultrasonography', 'noun', 'C0041618', ['diap'], 0.0)||(')', '', '', '', 0.0)||(',', '', '', '', 0.0)||('coincident', '', '', '', 0.0)||('with', '', '', '', 0.0)||('the', '', '', '', 0.0)||('final', 'adj', 'C0205088', ['tmco'], 0.0)||('diagnosis', 'noun', 'C0011900', ['fndg'], 0.0)||('in', '', '', '', 0.0)||('23', '', '', '', 0.0)||('cases', 'noun', 'C0868928', ['ftcn'], 0.0)||('(', '', '', '', 0.0)||('82 . 1 %', '', '', '', 0.0)||(')', '', '', '', 0.0)||('.', '', '', '', 0.0)||
('in', '', '', '', 0.0)||('regard', '', '', '', 0.0)||('to', '', '', '', 0.0)||('lesions', 'noun', 'C0221198', ['fndg'], 0.0)||('suspected', 'verb', 'C0332147', ['qlco'], 0.0)||('of', '', '', '', 0.0)||('malignancy', 'noun', 'C0006826', ['neop'], 0.0)||('at', '', '', '', 0.0)||('ultrasonography', 'noun', 'C0041618', ['diap'], 0.0)||('(', '', '', '', 0.0)||('17', '', '', '', 0.0)||('cases', 'noun', 'C0868928', ['ftcn'], 0.0)||(')', '', '', '', 0.0)||(',', '', '', '', 0.0)||('magnetic resonance imaging', 'noun', 'C0024485', ['diap'], 0.0)||('had', '', '', '', 0.0)||('a', '', '', '', 0.0)||('great', 'adj', 'C0549177', ['qnco'], 0.0)||('concordance', 'noun', 'C0680240', ['socb'], 0.0)||('with', '', '', '', 0.0)||('the', '', '', '', 0.0)||('final', 'adj', 'C0205088', ['tmco'], 0.0)||('diagnosis', 'noun', 'C0011900', ['fndg'], 0.0)||('and', '', '', '', 0.0)||('was', '', '', '', 0.0)||('statistically significant', 'adj', 'C0237881', ['qnco'], 0.0)||('(', '', '', '', 0.0)||('p', '', '', '', 0.0)||('<', '', '', '', 0.0)||('0 . 002', '', '', '', 0.0)||(',', '', '', '', 0.0)||('kappa', 'noun', 'C0439099', ['inpr'], 0.0)||('test', 'noun', 'C0022885', ['lbpr'], 0.0)||(')', '', '', '', 0.0)||('.', '', '', '', 0.0)||
('the', '', '', '', 0.0)||('results', 'noun', 'C1274040', ['ftcn'], 0.0)||('of', '', '', '', 0.0)||('our', '', '', '', 0.0)||('study', 'noun', 'C0008976', ['resa'], 0.0)||('indicate', '', '', '', 0.0)||('that', '', '', '', 0.0)||('magnetic resonance imaging', 'noun', 'C0024485', ['diap'], 0.0)||('could', '', '', '', 0.0)||('help', 'verb', 'C1552861', ['idcn'], 0.0)||('elucidate', '', '', '', 0.0)||('scrotal', 'adj', 'C0036471', ['bpoc'], 0.0)||('dilemmas', '', '', '', 0.0)||('found', '', '', '', 0.0)||('at', '', '', '', 0.0)||('ultrasonography', 'noun', 'C0041618', ['diap'], 0.0)||(',', '', '', '', 0.0)||('although', '', '', '', 0.0)||('the', '', '', '', 0.0)||('small', 'adj', 'C0700321', ['qnco'], 0.0)||('percentage', 'noun', 'C0439165', ['qnco'], 0.0)||('of', '', '', '', 0.0)||('inconclusive', 'adj', 'C1629507', ['qlco'], 0.0)||('sonograms', '', '', '', 0.0)||('confirms', '', '', '', 0.0)||('this', '', '', '', 0.0)||('technique', 'noun', 'C0449851', ['ftcn'], 0.0)||('as', '', '', '', 0.0)||('the', '', '', '', 0.0)||('first', 'adj', 'C0205435', ['qnco'], 0.0)||('choice', 'noun', 'C0008300', ['inbe'], 0.0)||('when', '', '', '', 0.0)||('imaging', 'verb', 'C0011923', ['diap'], 0.0)||('is', '', '', '', 0.0)||('required', 'verb', 'C1514873', ['ftcn'], 0.0)||('in', '', '', '', 0.0)||('scrotal', 'adj', 'C0036471', ['bpoc'], 0.0)||('diseases', 'noun', 'C0012634', ['dsyn'], 0.0)||('.', '', '', '', 0.0)||
