('in', '', '', '', 0.0)||('an', '', '', '', 0.0)||('rct', '', '', '', 0.0)||('(', '', '', '', 0.0)||('n =', '', '', '', 0.0)||('87', '', '', '', 0.0)||(')', '', '', '', 0.0)||(',', '', '', '', 0.0)||('fluoxetine', 'noun', 'C0016365', ['orch', 'phsu'], 0.0)||('and', '', '', '', 0.0)||('placebo', 'noun', 'C0032042', ['topp'], 0.0)||('were', '', '', '', 0.0)||('each', '', '', '', 0.0)||('paired', 'verb', 'C1709450', ['qlco'], 0.0)||('with', '', '', '', 0.0)||('1', '', '', '', 0.0)||('or', '', '', '', 0.0)||('6', '', '', '', 0.0)||('cbt', 'noun', 'C0009244', ['topp'], 0.0)||('sessions', '', '', '', 0.0)||('.', '', '', '', 0.0)||
('after', '', '', '', 0.0)||('12', '', '', '', 0.0)||('weeks', 'noun', 'C0439230', ['tmco'], 0.0)||('of', '', '', '', 0.0)||('treatment', 'noun', 'C0039798', ['ftcn'], 0.0)||(',', '', '', '', 0.0)||('fluoxetine', 'noun', 'C0016365', ['orch', 'phsu'], 0.0)||('was', '', '', '', 0.0)||('superior', 'adj', 'C1282910', ['spco'], 0.0)||('to', '', '', '', 0.0)||('placebo', 'noun', 'C0032042', ['topp'], 0.0)||('as', '', '', '', 0.0)||('measured', 'verb', 'C0444706', ['qlco'], 0.0)||('by', '', '', '', 0.0)||('mean', 'noun', 'C0444504', ['qnco'], 0.0)||('symptom score', '', '', '', 0.0)||('reduction', 'noun', 'C0301630', ['npop'], 0.0)||('on', '', '', '', 0.0)||('the', '', '', '', 0.0)||('ham - d', '', '', '', 0.0)||(',', '', '', '', 0.0)||('epds', '', '', '', 0.0)||(',', '', '', '', 0.0)||('and', '', '', '', 0.0)||('clinical', 'adj', 'C0205210', ['qlco'], 0.0)||('interview', 'noun', 'C0021822', ['acty'], 0.0)||('schedule', 'noun', 'C0086960', ['inpr'], 0.0)||(';', '', '', '', 0.0)||
('6', '', '', '', 0.0)||('cbt', 'noun', 'C0009244', ['topp'], 0.0)||('sessions', '', '', '', 0.0)||('were', '', '', '', 0.0)||('superior', 'adj', 'C1282910', ['spco'], 0.0)||('to', '', '', '', 0.0)||('a', '', '', '', 0.0)||('single', 'adj', 'C0037179', ['popg'], 0.0)||('session', 'noun', 'C1883016', ['evnt'], 0.0)||('as', '', '', '', 0.0)||('measured', 'verb', 'C0444706', ['qlco'], 0.0)||('by', '', '', '', 0.0)||('mean', 'noun', 'C0444504', ['qnco'], 0.0)||('symptom score', '', '', '', 0.0)||('reduction', 'noun', 'C0301630', ['npop'], 0.0)||('on', '', '', '', 0.0)||('the', '', '', '', 0.0)||('hamilton', '', '', '', 0.0)||('depression', 'noun', 'C0011570', ['mobd'], 0.0)||('scale', 'noun', 'C0175659', ['medd'], 0.0)||('and', '', '', '', 0.0)||('clinical', 'adj', 'C0205210', ['qlco'], 0.0)||('interview', 'noun', 'C0021822', ['acty'], 0.0)||('schedule', 'noun', 'C0086960', ['inpr'], 0.0)||('.', '', '', '', 0.0)||
('no', '', '', '', 0.0)||('significant', 'adj', 'C0750502', ['idcn'], 0.0)||('interaction effect', '', '', '', 0.0)||('was', '', '', '', 0.0)||('found', '', '', '', 0.0)||('.', '', '', '', 0.0)||
