('household', 'noun', 'C0020052', ['famg'], 0.0)||('contacts', '', '', '', 0.0)||('<', '', '', '', 0.0)||('15', '', '', '', 0.0)||('years', 'noun', 'C0439234', ['tmco'], 0.0)||('of', '', '', '', 0.0)||('age', 'noun', 'C0001779', ['orga'], 0.0)||('of', '', '', '', 0.0)||('adults', 'noun', 'C0001675', ['aggp'], 0.0)||('with', '', '', '', 0.0)||('tuberculosis', 'noun', 'C0041296', ['dsyn'], 0.0)||('attending', 'verb', 'C1547429', ['prog'], 0.0)||('a', '', '', '', 0.0)||('reference', 'noun', 'C1514811', ['idcn'], 0.0)||('center', 'noun', 'C0205099', ['spco'], 0.0)||('in', '', '', '', 0.0)||('aracaju', '', '', '', 0.0)||(',', '', '', '', 0.0)||('sergipe', '', '', '', 0.0)||(',', '', '', '', 0.0)||('northeast', 'noun', 'C1709272', ['spco'], 0.0)||('brazil', 'noun', 'C0006137', ['geoa'], 0.0)||('.', '', '', '', 0.0)||
('to', '', '', '', 0.0)||('assess', 'verb', 'C1516048', ['acty'], 0.0)||('the', '', '', '', 0.0)||('use', 'noun', 'C0042153', ['ftcn'], 0.0)||('of', '', '', '', 0.0)||('purified protein derivative', 'noun', 'C0034131', ['aapp', 'imft', 'irda'], 0.0)||('and', '', '', '', 0.0)||('frequency', 'noun', 'C0376249', ['qnco'], 0.0)||('of', '', '', '', 0.0)||('infection', 'noun', 'C0021311', ['dsyn'], 0.0)||('in', '', '', '', 0.0)||('children', 'noun', 'C0008059', ['aggp'], 0.0)||('with', '', '', '', 0.0)||('high', 'adj', 'C0205250', ['qlco'], 0.0)||('calmette', '', '', '', 0.0)||('-', '', '', '', 0.0)||('guarin', '', '', '', 0.0)||('bacillus', 'noun', 'C0004587', ['bact'], 0.0)||('(', '', '', '', 0.0)||('bcg', 'noun', 'C0004886', ['imft', 'phsu'], 0.0)||(')', '', '', '', 0.0)||('coverage', 'noun', 'C1551362', ['idcn'], 0.0)||('who', '', '', '', 0.0)||('were', '', '', '', 0.0)||('recently', 'adv', 'C0332185', ['tmco'], 0.0)||('exposed', 'verb', 'C0332157', ['clna'], 0.0)||('to', '', '', '', 0.0)||('tuberculosis', 'noun', 'C0041296', ['dsyn'], 0.0)||('.', '', '', '', 0.0)||
('cross - sectional study', '', '', '', 0.0)||('of', '', '', '', 0.0)||('141', '', '', '', 0.0)||('exposed', 'adj', 'C0332157', ['clna'], 0.0)||('household', 'noun', 'C0020052', ['famg'], 0.0)||('contacts', '', '', '', 0.0)||('<', '', '', '', 0.0)||('15', '', '', '', 0.0)||('years', 'noun', 'C0439234', ['tmco'], 0.0)||('of', '', '', '', 0.0)||('age', 'noun', 'C0001779', ['orga'], 0.0)||('and', '', '', '', 0.0)||('506', '', '', '', 0.0)||('nonexposed', '', '', '', 0.0)||('neighborhood controls', '', '', '', 0.0)||('.', '', '', '', 0.0)||
('children', 'noun', 'C0008059', ['aggp'], 0.0)||('were', '', '', '', 0.0)||('examined', 'verb', 'C0332128', ['fndg'], 0.0)||('and', '', '', '', 0.0)||('assessed', 'verb', 'C1516048', ['acty'], 0.0)||('for', '', '', '', 0.0)||('degree', 'noun', 'C0441889', ['qlco'], 0.0)||('of', '', '', '', 0.0)||('exposure', 'noun', 'C0332157', ['clna'], 0.0)||('to', '', '', '', 0.0)||('index cases', '', '', '', 0.0)||(',', '', '', '', 0.0)||('bcg vaccination', 'noun', 'C0199804', ['topp'], 0.0)||('and', '', '', '', 0.0)||('scar', 'noun', 'C1419736', ['gngm'], 0.0)||('and', '', '', '', 0.0)||('were', '', '', '', 0.0)||('tested', '', '', '', 0.0)||('with', '', '', '', 0.0)||('purified protein derivative', 'noun', 'C0034131', ['aapp', 'imft', 'irda'], 0.0)||('.', '', '', '', 0.0)||
('exposed', 'adj', 'C0332157', ['clna'], 0.0)||('children', 'noun', 'C0008059', ['aggp'], 0.0)||('were', '', '', '', 0.0)||('younger', '', '', '', 0.0)||('and', '', '', '', 0.0)||('less', '', '', '', 0.0)||('up to date', '', '', '', 0.0)||('in', '', '', '', 0.0)||('their', '', '', '', 0.0)||('vaccination', 'noun', 'C0042196', ['topp'], 0.0)||('schedule', 'noun', 'C0086960', ['inpr'], 0.0)||('than', '', '', '', 0.0)||('controls', '', '', '', 0.0)||('(', '', '', '', 0.0)||('p', '', '', '', 0.0)||('<', '', '', '', 0.0)||('0 . 05', '', '', '', 0.0)||(')', '', '', '', 0.0)||('.', '', '', '', 0.0)||
('bcg', 'noun', 'C0004886', ['imft', 'phsu'], 0.0)||('had', '', '', '', 0.0)||('been', '', '', '', 0.0)||('given', '', '', '', 0.0)||('to', '', '', '', 0.0)||('95 . 6 %', '', '', '', 0.0)||('of', '', '', '', 0.0)||('exposed', 'adj', 'C0332157', ['clna'], 0.0)||('children', 'noun', 'C0008059', ['aggp'], 0.0)||('and', '', '', '', 0.0)||('97 . 4 %', '', '', '', 0.0)||('of', '', '', '', 0.0)||('controls', '', '', '', 0.0)||(',', '', '', '', 0.0)||('but', '', '', '', 0.0)||('only', '', '', '', 0.0)||('80 . 9 %', '', '', '', 0.0)||('of', '', '', '', 0.0)||('exposed', 'adj', 'C0332157', ['clna'], 0.0)||('vs', '', '', '', 0.0)||('.', '', '', '', 0.0)||
('88 . 5 %', '', '', '', 0.0)||('of', '', '', '', 0.0)||('controls', '', '', '', 0.0)||('had', '', '', '', 0.0)||('a', '', '', '', 0.0)||('scar', 'noun', 'C1419736', ['gngm'], 0.0)||('(', '', '', '', 0.0)||('p', '', '', '', 0.0)||('<', '', '', '', 0.0)||('0 . 05', '', '', '', 0.0)||(')', '', '', '', 0.0)||('.', '', '', '', 0.0)||
('scar', 'noun', 'C1419736', ['gngm'], 0.0)||('sizes', 'noun', 'C0456389', ['spco'], 0.0)||('of', '', '', '', 0.0)||('exposed', 'adj', 'C0332157', ['clna'], 0.0)||('children', 'noun', 'C0008059', ['aggp'], 0.0)||('were', '', '', '', 0.0)||('smaller', 'adj', 'C0547044', ['qlco'], 0.0)||('(', '', '', '', 0.0)||('medians', '', '', '', 0.0)||(',', '', '', '', 0.0)||('4 . 5', '', '', '', 0.0)||('and', '', '', '', 0.0)||('7', '', '', '', 0.0)||('mm', '', '', '', 0.0)||(',', '', '', '', 0.0)||('respectively', '', '', '', 0.0)||(';', '', '', '', 0.0)||('p', '', '', '', 0.0)||('<', '', '', '', 0.0)||('0 . 05', '', '', '', 0.0)||(')', '', '', '', 0.0)||('.', '', '', '', 0.0)||
('children', 'noun', 'C0008059', ['aggp'], 0.0)||('had', '', '', '', 0.0)||('lower', 'adj', 'C0441994', ['ftcn'], 0.0)||('weight for age z scores', '', '', '', 0.0)||('and', '', '', '', 0.0)||('height', 'noun', 'C0489786', ['orga'], 0.0)||('than', '', '', '', 0.0)||('the', '', '', '', 0.0)||('national center for health statistics', 'noun', 'C0027450', ['hcro'], 0.0)||('standards', 'noun', 'C0038137', ['inpr'], 0.0)||('.', '', '', '', 0.0)||
('exposed', 'adj', 'C0332157', ['clna'], 0.0)||('children', 'noun', 'C0008059', ['aggp'], 0.0)||('had', '', '', '', 0.0)||('lower', 'adj', 'C0441994', ['ftcn'], 0.0)||('weight for age z scores', '', '', '', 0.0)||('than', '', '', '', 0.0)||('controls', '', '', '', 0.0)||('(', '', '', '', 0.0)||('p', '', '', '', 0.0)||('<', '', '', '', 0.0)||('0 . 05', '', '', '', 0.0)||(')', '', '', '', 0.0)||('.', '', '', '', 0.0)||
('sixty', '', '', '', 0.0)||('-', '', '', '', 0.0)||('seven', '', 'C0205453', ['qnco'], 0.0)||('(', '', '', '', 0.0)||('47 . 5 %', '', '', '', 0.0)||(')', '', '', '', 0.0)||('exposed', 'adj', 'C0332157', ['clna'], 0.0)||('children', 'noun', 'C0008059', ['aggp'], 0.0)||('and', '', '', '', 0.0)||('18', '', '', '', 0.0)||('(', '', '', '', 0.0)||('3 . 6 %', '', '', '', 0.0)||(')', '', '', '', 0.0)||('controls', '', '', '', 0.0)||('had', '', '', '', 0.0)||('purified protein derivative', 'noun', 'C0034131', ['aapp', 'imft', 'irda'], 0.0)||('readings', 'noun', 'C0034754', ['dora'], 0.0)||('of', '', '', '', 0.0)||('>', '', '', '', 0.0)||('10', '', '', '', 0.0)||('mm', '', '', '', 0.0)||('.', '', '', '', 0.0)||
('positivity', '', '', '', 0.0)||('and', '', '', '', 0.0)||('induration', 'noun', 'C0332534', ['patf'], 0.0)||('sizes', 'noun', 'C0456389', ['spco'], 0.0)||('increased', 'verb', 'C0205217', ['qnco'], 0.0)||('with', '', '', '', 0.0)||('age', 'noun', 'C0001779', ['orga'], 0.0)||(',', '', '', '', 0.0)||('although', '', '', '', 0.0)||('this', '', '', '', 0.0)||('was', '', '', '', 0.0)||('significant', 'adj', 'C0750502', ['idcn'], 0.0)||('only', '', '', '', 0.0)||('in', '', '', '', 0.0)||('the', '', '', '', 0.0)||('controls', '', '', '', 0.0)||('.', '', '', '', 0.0)||
('the', '', '', '', 0.0)||('presence', 'noun', 'C0392148', ['topp'], 0.0)||('of', '', '', '', 0.0)||('a', '', '', '', 0.0)||('bcg', 'noun', 'C0004886', ['imft', 'phsu'], 0.0)||('scar', 'noun', 'C1419736', ['gngm'], 0.0)||('was', '', '', '', 0.0)||('not', 'adv', 'C1518422', ['ftcn'], 0.0)||('associated', 'verb', 'C0332281', ['qlco'], 0.0)||('with', '', '', '', 0.0)||('having', '', '', '', 0.0)||('a', '', '', '', 0.0)||('positive', 'adj', 'C1446409', ['qlco'], 0.0)||('purified protein derivative', 'noun', 'C0034131', ['aapp', 'imft', 'irda'], 0.0)||('.', '', '', '', 0.0)||
('the', '', '', '', 0.0)||('degree', 'noun', 'C0441889', ['qlco'], 0.0)||('of', '', '', '', 0.0)||('exposure', 'noun', 'C0332157', ['clna'], 0.0)||('was', '', '', '', 0.0)||('an', '', '', '', 0.0)||('important', '', '', '', 0.0)||('factor', 'noun', 'C1521761', ['ftcn'], 0.0)||('for', '', '', '', 0.0)||('purified protein derivative', 'noun', 'C0034131', ['aapp', 'imft', 'irda'], 0.0)||('positivity', '', '', '', 0.0)||(';', '', '', '', 0.0)||
('66', '', '', '', 0.0)||('(', '', '', '', 0.0)||('60 . 6 %', '', '', '', 0.0)||(')', '', '', '', 0.0)||('of', '', '', '', 0.0)||('the', '', '', '', 0.0)||('109', '', '', '', 0.0)||('children', 'noun', 'C0008059', ['aggp'], 0.0)||('with', '', '', '', 0.0)||('close', 'adj', 'C0587267', ['ftcn'], 0.0)||('exposure', 'noun', 'C0332157', ['clna'], 0.0)||('were', '', '', '', 0.0)||('positive', 'noun', 'C1446409', ['qlco'], 0.0)||('compared', 'verb', 'C1707455', ['acty'], 0.0)||('with', '', '', '', 0.0)||('1', '', '', '', 0.0)||('(', '', '', '', 0.0)||('3 . 1 %', '', '', '', 0.0)||(')', '', '', '', 0.0)||('of', '', '', '', 0.0)||('32', '', '', '', 0.0)||('with', '', '', '', 0.0)||('less', '', '', '', 0.0)||('intimate', 'verb', 'C0699756', ['qlco'], 0.0)||('exposure', 'noun', 'C0332157', ['clna'], 0.0)||('.', '', '', '', 0.0)||
('purified protein derivative', 'noun', 'C0034131', ['aapp', 'imft', 'irda'], 0.0)||('indurations', '', '', '', 0.0)||('among', '', '', '', 0.0)||('close', 'adj', 'C0587267', ['ftcn'], 0.0)||('contacts', '', '', '', 0.0)||('were', '', '', '', 0.0)||('also', '', '', '', 0.0)||('larger', 'adj', 'C0549177', ['qnco'], 0.0)||('than', '', '', '', 0.0)||('those', '', '', '', 0.0)||('with', '', '', '', 0.0)||('restricted', 'adj', 'C0443288', ['ftcn'], 0.0)||('exposure', 'noun', 'C0332157', ['clna'], 0.0)||('and', '', '', '', 0.0)||('controls', '', '', '', 0.0)||('(', '', '', '', 0.0)||('16 . 3', '', '', '', 0.0)||(',', '', '', '', 0.0)||('11', '', '', '', 0.0)||('and', '', '', '', 0.0)||('9 . 4', '', '', '', 0.0)||('mm', '', '', '', 0.0)||(',', '', '', '', 0.0)||('respectively', '', '', '', 0.0)||(';', '', '', '', 0.0)||('p', '', '', '', 0.0)||('<', '', '', '', 0.0)||('0 . 05', '', '', '', 0.0)||(')', '', '', '', 0.0)||('.', '', '', '', 0.0)||
('purified protein derivative', 'noun', 'C0034131', ['aapp', 'imft', 'irda'], 0.0)||('positivity', '', '', '', 0.0)||('was', '', '', '', 0.0)||('associated', 'verb', 'C0332281', ['qlco'], 0.0)||('with', '', '', '', 0.0)||('the', '', '', '', 0.0)||('quantification', '', '', '', 0.0)||('of', '', '', '', 0.0)||('acid - fast bacilli', '', '', '', 0.0)||('in', '', '', '', 0.0)||('the', '', '', '', 0.0)||('adult', 'noun', 'C0001675', ['aggp'], 0.0)||(';', '', '', '', 0.0)||
('38 . 5 %', '', '', '', 0.0)||('of', '', '', '', 0.0)||('contacts', '', '', '', 0.0)||('with', '', '', '', 0.0)||('adults', 'noun', 'C0001675', ['aggp'], 0.0)||('with', '', '', '', 0.0)||('sputum', 'noun', 'C0038056', ['bdsu'], 0.0)||('with', '', '', '', 0.0)||('(', '', '', '', 0.0)||('+', '', '', '', 0.0)||(')', '', '', '', 0.0)||('were', '', '', '', 0.0)||('positive', 'adj', 'C1446409', ['qlco'], 0.0)||(',', '', '', '', 0.0)||('compared', 'verb', 'C1707455', ['acty'], 0.0)||('with', '', '', '', 0.0)||('42 . 3 %', '', '', '', 0.0)||('of', '', '', '', 0.0)||('those', '', '', '', 0.0)||('with', '', '', '', 0.0)||('(', '', '', '', 0.0)||('+', '', '', '', 0.0)||('+', '', '', '', 0.0)||(')', '', '', '', 0.0)||('and', '', '', '', 0.0)||('58 . 4 %', '', '', '', 0.0)||('with', '', '', '', 0.0)||('(', '', '', '', 0.0)||('+', '', '', '', 0.0)||('+', '', '', '', 0.0)||('+', '', '', '', 0.0)||(')', '', '', '', 0.0)||('(', '', '', '', 0.0)||('p', '', '', '', 0.0)||('<', '', '', '', 0.0)||('0 . 05', '', '', '', 0.0)||(')', '', '', '', 0.0)||('.', '', '', '', 0.0)||
('purified protein derivative', 'noun', 'C0034131', ['aapp', 'imft', 'irda'], 0.0)||('is', '', '', '', 0.0)||('a', '', '', '', 0.0)||('useful', '', '', '', 0.0)||('test', 'noun', 'C0022885', ['lbpr'], 0.0)||('to', '', '', '', 0.0)||('identify', '', '', '', 0.0)||('children', 'noun', 'C0008059', ['aggp'], 0.0)||('infected', 'verb', 'C0439663', ['ftcn'], 0.0)||('with', '', '', '', 0.0)||('tuberculosis', 'noun', 'C0041296', ['dsyn'], 0.0)||('independently of', '', '', '', 0.0)||('whether', '', '', '', 0.0)||('they', '', '', '', 0.0)||('had', '', '', '', 0.0)||('received', 'adj', 'C1514756', ['qlco'], 0.0)||('bcg', 'noun', 'C0004886', ['imft', 'phsu'], 0.0)||('or', '', '', '', 0.0)||('not', 'adv', 'C1518422', ['ftcn'], 0.0)||('.', '', '', '', 0.0)||
('children', 'noun', 'C0008059', ['aggp'], 0.0)||('exposed', 'verb', 'C0332157', ['clna'], 0.0)||('to', '', '', '', 0.0)||('adults', 'noun', 'C0001675', ['aggp'], 0.0)||('with', '', '', '', 0.0)||('tuberculosis', 'noun', 'C0041296', ['dsyn'], 0.0)||('are', '', '', '', 0.0)||('at', '', '', '', 0.0)||('high risk', '', '', '', 0.0)||('of', '', '', '', 0.0)||('infection', 'noun', 'C0021311', ['dsyn'], 0.0)||('.', '', '', '', 0.0)||
('the', '', '', '', 0.0)||('risk', 'noun', 'C0035647', ['qlco'], 0.0)||('of', '', '', '', 0.0)||('infection', 'noun', 'C0021311', ['dsyn'], 0.0)||('is', '', '', '', 0.0)||('associated', 'verb', 'C0332281', ['qlco'], 0.0)||('with', '', '', '', 0.0)||('the', '', '', '', 0.0)||('intimacy', 'noun', 'C0679995', ['inbe'], 0.0)||('of', '', '', '', 0.0)||('contact', 'noun', 'C0337611', ['popg'], 0.0)||('and', '', '', '', 0.0)||('the', '', '', '', 0.0)||('number', 'noun', 'C0449788', ['qnco'], 0.0)||('of', '', '', '', 0.0)||('bacilli', 'noun', 'C0004587', ['bact'], 0.0)||('expectorated', '', '', '', 0.0)||('in', '', '', '', 0.0)||('sputum', 'noun', 'C0038056', ['bdsu'], 0.0)||('.', '', '', '', 0.0)||
