('blood pressure measurement', '', '', '', 0.0)||('in', '', '', '', 0.0)||('clinicians', 'noun', 'C0871685', ['prog'], 0.0)||("'", '', '', '', 0.0)||('offices', '', '', '', 0.0)||('with', '', '', '', 0.0)||('a', '', '', '', 0.0)||('mercury', 'noun', 'C0025424', ['elii', 'hops'], 0.0)||('sphygmomanometer', 'noun', 'C0183427', ['medd'], 0.0)||('has', '', '', '', 0.0)||('numerous', 'adj', 'C0439064', ['qnco'], 0.0)||('drawbacks', '', '', '', 0.0)||('.', '', '', '', 0.0)||
('in', '', '', '', 0.0)||('contrast', 'noun', 'C1979874', ['irda'], 0.0)||(',', '', '', '', 0.0)||('the', '', '', '', 0.0)||('use', 'noun', 'C0042153', ['ftcn'], 0.0)||('of', '', '', '', 0.0)||('home blood pressure measurement', '', '', '', 0.0)||('improves', '', '', '', 0.0)||('measurement', 'noun', 'C0242485', ['ftcn'], 0.0)||('precision', 'noun', 'C1547902', ['tmco'], 0.0)||('and', '', '', '', 0.0)||('reproducibility', 'noun', 'C1514863', ['qlco'], 0.0)||('.', '', '', '', 0.0)||
('however', '', '', '', 0.0)||(',', '', '', '', 0.0)||('data', 'noun', 'C1511726', ['idcn'], 0.0)||('about', '', '', '', 0.0)||('its', '', '', '', 0.0)||('prognostic', 'adj', 'C0220901', ['inpr'], 0.0)||('value', 'noun', 'C0042295', ['qlco'], 0.0)||('are', '', '', '', 0.0)||('lacking', 'noun', 'C0332268', ['qlco'], 0.0)||('.', '', '', '', 0.0)||
('to', '', '', '', 0.0)||('assess', 'verb', 'C1516048', ['acty'], 0.0)||('the', '', '', '', 0.0)||('prognostic', 'adj', 'C0220901', ['inpr'], 0.0)||('value', 'noun', 'C0042295', ['qlco'], 0.0)||('of', '', '', '', 0.0)||('home', 'noun', 'C0442519', ['cnce'], 0.0)||('vs', '', '', '', 0.0)||('office', 'noun', 'C0442603', ['mnob'], 0.0)||('blood pressure measurement', '', '', '', 0.0)||('by', '', '', '', 0.0)||('general practitioners', 'noun', 'C0017319', ['prog'], 0.0)||('in', '', '', '', 0.0)||('a', '', '', '', 0.0)||('european', 'adj', 'C0239307', ['popg'], 0.0)||('population', 'noun', 'C0032659', ['qnco'], 0.0)||('of', '', '', '', 0.0)||('elderly', 'adj', 'C0001792', ['popg'], 0.0)||('patients', 'noun', 'C0030705', ['podg'], 0.0)||('being', '', '', '', 0.0)||('treated', 'verb', 'C1522326', ['ftcn'], 0.0)||('for', '', '', '', 0.0)||('hypertension', 'noun', 'C0020538', ['dsyn'], 0.0)||('.', '', '', '', 0.0)||
('office', 'noun', 'C0442603', ['mnob'], 0.0)||('and', '', '', '', 0.0)||('home', 'noun', 'C0442519', ['cnce'], 0.0)||('blood pressure', 'noun', 'C0005823', ['orgf'], 0.0)||('and', '', '', '', 0.0)||('cardiac', 'adj', 'C0018787', ['bpoc'], 0.0)||('risk factors', 'noun', 'C0035648', ['qnco'], 0.0)||('were', '', '', '', 0.0)||('measured', 'verb', 'C0444706', ['qlco'], 0.0)||('at', '', '', '', 0.0)||('baseline', 'noun', 'C0168634', ['bodm'], 0.0)||('in', '', '', '', 0.0)||('a', '', '', '', 0.0)||('cohort', 'noun', 'C0599755', ['popg'], 0.0)||('of', '', '', '', 0.0)||('4939', '', '', '', 0.0)||('treated', 'adj', 'C1522326', ['ftcn'], 0.0)||('hypertensive', 'adj', 'C0857121', ['fndg'], 0.0)||('patients', 'noun', 'C0030705', ['podg'], 0.0)||('(', '', '', '', 0.0)||('mean', 'noun', 'C0444504', ['qnco'], 0.0)||('age', 'noun', 'C0001779', ['orga'], 0.0)||(',', '', '', '', 0.0)||('70', '', '', '', 0.0)||('[', '', '', '', 0.0)||('sd', '', '', '', 0.0)||(',', '', '', '', 0.0)||('6 . 5', '', '', '', 0.0)||(']', '', '', '', 0.0)||('years', 'noun', 'C0439234', ['tmco'], 0.0)||(';', '', '', '', 0.0)||('48 . 9 %', '', '', '', 0.0)||('men', 'noun', 'C0025266', ['popg'], 0.0)||(')', '', '', '', 0.0)||('who', '', '', '', 0.0)||('were', '', '', '', 0.0)||('recruited', '', '', '', 0.0)||('and', '', '', '', 0.0)||('followed', '', '', '', 0.0)||('up', '', '', '', 0.0)||('by', '', '', '', 0.0)||('their', '', '', '', 0.0)||('usual', '', '', '', 0.0)||('general practitioners', 'noun', 'C0017319', ['prog'], 0.0)||('without', '', '', '', 0.0)||('specific', 'adj', 'C0205369', ['qlco'], 0.0)||('recommendations', 'noun', 'C0034866', ['idcn'], 0.0)||('about', '', '', '', 0.0)||('their', '', '', '', 0.0)||('management', 'noun', 'C0001554', ['ocac'], 0.0)||('.', '', '', '', 0.0)||
('the', '', '', '', 0.0)||('cohort', 'noun', 'C0599755', ['popg'], 0.0)||('was', '', '', '', 0.0)||('then', 'adv', 'C1883708', ['tmco'], 0.0)||('followed', '', '', '', 0.0)||('up', '', '', '', 0.0)||('for', '', '', '', 0.0)||('a', '', '', '', 0.0)||('mean', 'noun', 'C0444504', ['qnco'], 0.0)||('of', '', '', '', 0.0)||('3 . 2', '', '', '', 0.0)||('(', '', '', '', 0.0)||('sd', '', '', '', 0.0)||(',', '', '', '', 0.0)||('0 . 5', '', '', '', 0.0)||(')', '', '', '', 0.0)||('years', 'noun', 'C0439234', ['tmco'], 0.0)||('.', '', '', '', 0.0)||
('the', '', '', '', 0.0)||('thresholds', 'noun', 'C0449864', ['qlco'], 0.0)||('defining', '', '', '', 0.0)||('uncontrolled', 'adj', 'C0205318', ['qlco'], 0.0)||('hypertension', 'noun', 'C0020538', ['dsyn'], 0.0)||('were', '', '', '', 0.0)||('at', '', '', '', 0.0)||('least', '', '', '', 0.0)||('140 / 90', '', '', '', 0.0)||('mm hg', 'noun', 'C0439475', ['qnco'], 0.0)||('for', '', '', '', 0.0)||('office', 'noun', 'C0442603', ['mnob'], 0.0)||('blood pressure', 'noun', 'C0005823', ['orgf'], 0.0)||('and', '', '', '', 0.0)||('135 / 85', '', '', '', 0.0)||('mm hg', 'noun', 'C0439475', ['qnco'], 0.0)||('for', '', '', '', 0.0)||('home', 'noun', 'C0442519', ['cnce'], 0.0)||('blood pressure', 'noun', 'C0005823', ['orgf'], 0.0)||('.', '', '', '', 0.0)||
('the', '', '', '', 0.0)||('primary', 'adj', 'C0205225', ['qlco'], 0.0)||('end point', 'noun', 'C2349179', ['qlco'], 0.0)||('was', '', '', '', 0.0)||('cardiovascular', 'adj', 'C0007226', ['bdsy'], 0.0)||('mortality', 'noun', 'C0026565', ['qnco'], 0.0)||('.', '', '', '', 0.0)||
('secondary', 'adj', 'C0175668', ['tmco'], 0.0)||('end points', '', '', '', 0.0)||('were', '', '', '', 0.0)||('total', 'adj', 'C0439810', ['qlco'], 0.0)||('mortality', 'noun', 'C0026565', ['qnco'], 0.0)||('and', '', '', '', 0.0)||('the', '', '', '', 0.0)||('combination', 'noun', 'C0205195', ['qlco'], 0.0)||('of', '', '', '', 0.0)||('cardiovascular', 'adj', 'C0007226', ['bdsy'], 0.0)||('mortality', 'noun', 'C0026565', ['qnco'], 0.0)||(',', '', '', '', 0.0)||('nonfatal', '', '', '', 0.0)||('myocardial infarction', 'noun', 'C0027051', ['dsyn'], 0.0)||(',', '', '', '', 0.0)||('nonfatal', '', '', '', 0.0)||('stroke', 'noun', 'C0038454', ['dsyn'], 0.0)||(',', '', '', '', 0.0)||('transient ischemic attack', 'noun', 'C0007787', ['dsyn'], 0.0)||(',', '', '', '', 0.0)||('hospitalization', '', '', '', 0.0)||('for', '', '', '', 0.0)||('angina', 'noun', 'C0002962', ['sosy'], 0.0)||('or', '', '', '', 0.0)||('heart failure', 'noun', 'C0018801', ['dsyn'], 0.0)||(',', '', '', '', 0.0)||('percutaneous transluminal coronary angioplasty', 'noun', 'C0002997', ['topp'], 0.0)||(',', '', '', '', 0.0)||('or', '', '', '', 0.0)||('coronary artery bypass graft', 'noun', 'C0010055', ['topp'], 0.0)||('surgery', 'noun', 'C0038894', ['bmod'], 0.0)||('.', '', '', '', 0.0)||
('at', '', '', '', 0.0)||('the', '', '', '', 0.0)||('end', 'noun', 'C0444930', ['spco'], 0.0)||('of', '', '', '', 0.0)||('follow - up', '', '', '', 0.0)||(',', '', '', '', 0.0)||('clinical', 'adj', 'C0205210', ['qlco'], 0.0)||('status', 'noun', 'C0449438', ['qlco'], 0.0)||('was', '', '', '', 0.0)||('known', 'verb', 'C0205309', ['qlco'], 0.0)||('for', '', '', '', 0.0)||('99 . 9 %', '', '', '', 0.0)||('of', '', '', '', 0.0)||('patients', 'noun', 'C0030705', ['podg'], 0.0)||('.', '', '', '', 0.0)||
('at', '', '', '', 0.0)||('least', '', '', '', 0.0)||('1', '', '', '', 0.0)||('cardiovascular', 'adj', 'C0007226', ['bdsy'], 0.0)||('event', 'noun', 'C0441471', ['evnt'], 0.0)||('had', '', '', '', 0.0)||('occurred', 'verb', 'C1709305', ['cnce'], 0.0)||('in', '', '', '', 0.0)||('324', '', '', '', 0.0)||('(', '', '', '', 0.0)||('incidence', 'noun', 'C0021149', ['qnco'], 0.0)||(',', '', '', '', 0.0)||('22 . 2', '', '', '', 0.0)||('/', '', '', '', 0.0)||('1000', '', '', '', 0.0)||('patient - years', '', '', '', 0.0)||(')', '', '', '', 0.0)||('.', '', '', '', 0.0)||
('for', '', '', '', 0.0)||('blood pressure', 'noun', 'C0005823', ['orgf'], 0.0)||('self - measurement', '', '', '', 0.0)||('at', '', '', '', 0.0)||('home', 'noun', 'C0442519', ['cnce'], 0.0)||(',', '', '', '', 0.0)||('each', '', '', '', 0.0)||('10', '', '', '', 0.0)||('-', '', '', '', 0.0)||('mm hg', 'noun', 'C0439475', ['qnco'], 0.0)||('increase', 'noun', 'C0442805', ['ftcn'], 0.0)||('in', '', '', '', 0.0)||('systolic blood pressure', 'noun', 'C0488055', ['clna'], 0.0)||('increased', 'verb', 'C0205217', ['qnco'], 0.0)||('the', '', '', '', 0.0)||('risk', 'noun', 'C0035647', ['qlco'], 0.0)||('of', '', '', '', 0.0)||('a', '', '', '', 0.0)||('cardiovascular', 'adj', 'C0007226', ['bdsy'], 0.0)||('event', 'noun', 'C0441471', ['evnt'], 0.0)||('by', '', '', '', 0.0)||('17 . 2 %', '', '', '', 0.0)||('(', '', '', '', 0.0)||('95 %', '', '', '', 0.0)||('confidence interval', 'noun', 'C0009667', ['qnco'], 0.0)||(',', '', '', '', 0.0)||('11 . 0 %', '', '', '', 0.0)||('-', '', '', '', 0.0)||('23 . 8 %', '', '', '', 0.0)||(')', '', '', '', 0.0)||('and', '', '', '', 0.0)||('each', '', '', '', 0.0)||('5', '', '', '', 0.0)||('-', '', '', '', 0.0)||('mm hg', 'noun', 'C0439475', ['qnco'], 0.0)||('increase', 'noun', 'C0442805', ['ftcn'], 0.0)||('in', '', '', '', 0.0)||('diastolic blood pressure', 'noun', 'C0428883', ['clna'], 0.0)||('increased', 'verb', 'C0205217', ['qnco'], 0.0)||('that', '', '', '', 0.0)||('risk', 'noun', 'C0035647', ['qlco'], 0.0)||('by', '', '', '', 0.0)||('11 . 7 %', '', '', '', 0.0)||('(', '', '', '', 0.0)||('95 %', '', '', '', 0.0)||('confidence interval', 'noun', 'C0009667', ['qnco'], 0.0)||(',', '', '', '', 0.0)||('5 . 7 %', '', '', '', 0.0)||('-', '', '', '', 0.0)||('18 . 1 %', '', '', '', 0.0)||(')', '', '', '', 0.0)||('.', '', '', '', 0.0)||
('conversely', '', '', '', 0.0)||(',', '', '', '', 0.0)||('for', '', '', '', 0.0)||('the', '', '', '', 0.0)||('same', 'adj', 'C0445247', ['qlco'], 0.0)||('increase', 'noun', 'C0442805', ['ftcn'], 0.0)||('in', '', '', '', 0.0)||('blood pressure', 'noun', 'C0005823', ['orgf'], 0.0)||('observed', 'verb', 'C1441672', ['ftcn'], 0.0)||('using', 'verb', 'C1524063', ['ftcn'], 0.0)||('office', 'noun', 'C0442603', ['mnob'], 0.0)||('measurement', 'noun', 'C0242485', ['ftcn'], 0.0)||(',', '', '', '', 0.0)||('there', '', '', '', 0.0)||('was', '', '', '', 0.0)||('no', '', '', '', 0.0)||('significant', 'adj', 'C0750502', ['idcn'], 0.0)||('increase', 'noun', 'C0442805', ['ftcn'], 0.0)||('in', '', '', '', 0.0)||('the', '', '', '', 0.0)||('risk', 'noun', 'C0035647', ['qlco'], 0.0)||('of', '', '', '', 0.0)||('a', '', '', '', 0.0)||('cardiovascular', 'adj', 'C0007226', ['bdsy'], 0.0)||('event', 'noun', 'C0441471', ['evnt'], 0.0)||('.', '', '', '', 0.0)||
('in', '', '', '', 0.0)||('a', '', '', '', 0.0)||('multivariable', '', '', '', 0.0)||('model', '', '', '', 0.0)||('with', '', '', '', 0.0)||('patients', 'noun', 'C0030705', ['podg'], 0.0)||('having', '', '', '', 0.0)||('controlled', 'adj', 'C2587213', ['ftcn'], 0.0)||('hypertension', 'noun', 'C0020538', ['dsyn'], 0.0)||('(', '', '', '', 0.0)||('normal', 'adj', 'C0205307', ['qlco'], 0.0)||('home', 'noun', 'C0442519', ['cnce'], 0.0)||('and', '', '', '', 0.0)||('office', 'noun', 'C0442603', ['mnob'], 0.0)||('blood pressure', 'noun', 'C0005823', ['orgf'], 0.0)||(')', '', '', '', 0.0)||('as', '', '', '', 0.0)||('the', '', '', '', 0.0)||('referent', 'adj', 'C1706462', ['cnce'], 0.0)||(',', '', '', '', 0.0)||('the', '', '', '', 0.0)||('hazard ratio', '', '', '', 0.0)||('of', '', '', '', 0.0)||('cardiovascular', 'adj', 'C0007226', ['bdsy'], 0.0)||('events', 'noun', 'C0441471', ['evnt'], 0.0)||('was', '', '', '', 0.0)||('1 . 96', '', '', '', 0.0)||('(', '', '', '', 0.0)||('95 %', '', '', '', 0.0)||('confidence interval', 'noun', 'C0009667', ['qnco'], 0.0)||(',', '', '', '', 0.0)||('1 . 27', '', '', '', 0.0)||('-', '', '', '', 0.0)||('3 . 02', '', '', '', 0.0)||(')', '', '', '', 0.0)||('in', '', '', '', 0.0)||('patients', 'noun', 'C0030705', ['podg'], 0.0)||('with', '', '', '', 0.0)||('uncontrolled', 'adj', 'C0205318', ['qlco'], 0.0)||('hypertension', 'noun', 'C0020538', ['dsyn'], 0.0)||('(', '', '', '', 0.0)||('high blood pressure', '', '', '', 0.0)||('with', '', '', '', 0.0)||('both', '', '', '', 0.0)||('measurement', 'noun', 'C0242485', ['ftcn'], 0.0)||('methods', 'noun', 'C0025663', ['inpr'], 0.0)||(')', '', '', '', 0.0)||(',', '', '', '', 0.0)||('2 . 06', '', '', '', 0.0)||('(', '', '', '', 0.0)||('95 %', '', '', '', 0.0)||('confidence interval', 'noun', 'C0009667', ['qnco'], 0.0)||(',', '', '', '', 0.0)||('1 . 22', '', '', '', 0.0)||('-', '', '', '', 0.0)||('3 . 47', '', '', '', 0.0)||(')', '', '', '', 0.0)||('in', '', '', '', 0.0)||('patients', 'noun', 'C0030705', ['podg'], 0.0)||('with', '', '', '', 0.0)||('normal', 'adj', 'C0205307', ['qlco'], 0.0)||('office', 'noun', 'C0442603', ['mnob'], 0.0)||('blood pressure', 'noun', 'C0005823', ['orgf'], 0.0)||('and', '', '', '', 0.0)||('elevated', 'adj', 'C0205250', ['qlco'], 0.0)||('home', 'noun', 'C0442519', ['cnce'], 0.0)||('blood pressure', 'noun', 'C0005823', ['orgf'], 0.0)||(',', '', '', '', 0.0)||('and', '', '', '', 0.0)||('1 . 18', '', '', '', 0.0)||('(', '', '', '', 0.0)||('95 %', '', '', '', 0.0)||('confidence interval', 'noun', 'C0009667', ['qnco'], 0.0)||(',', '', '', '', 0.0)||('0 . 67', '', '', '', 0.0)||('-', '', '', '', 0.0)||('2 . 10', '', '', '', 0.0)||(')', '', '', '', 0.0)||('in', '', '', '', 0.0)||('patients', 'noun', 'C0030705', ['podg'], 0.0)||('with', '', '', '', 0.0)||('elevated', 'adj', 'C0205250', ['qlco'], 0.0)||('office', 'noun', 'C0442603', ['mnob'], 0.0)||('blood pressure', 'noun', 'C0005823', ['orgf'], 0.0)||('and', '', '', '', 0.0)||('normal', 'adj', 'C0205307', ['qlco'], 0.0)||('home', 'noun', 'C0442519', ['cnce'], 0.0)||('blood pressure', 'noun', 'C0005823', ['orgf'], 0.0)||('.', '', '', '', 0.0)||
('our', '', '', '', 0.0)||('findings', 'noun', 'C2607943', ['ftcn'], 0.0)||('suggest', 'verb', 'C1705535', ['idcn'], 0.0)||('that', '', '', '', 0.0)||('home blood pressure measurement', '', '', '', 0.0)||('has', '', '', '', 0.0)||('a', '', '', '', 0.0)||('better', 'adj', 'C0332272', ['qlco'], 0.0)||('prognostic', 'adj', 'C0220901', ['inpr'], 0.0)||('accuracy', 'noun', 'C0443131', ['qlco'], 0.0)||('than', '', '', '', 0.0)||('office', 'noun', 'C0442603', ['mnob'], 0.0)||('blood pressure measurement', '', '', '', 0.0)||('.', '', '', '', 0.0)||
('blood pressure', 'noun', 'C0005823', ['orgf'], 0.0)||('should', '', '', '', 0.0)||('systematically', '', '', '', 0.0)||('be', '', '', '', 0.0)||('measured', 'verb', 'C0444706', ['qlco'], 0.0)||('at', '', '', '', 0.0)||('home', 'noun', 'C0442519', ['cnce'], 0.0)||('in', '', '', '', 0.0)||('patients', 'noun', 'C0030705', ['podg'], 0.0)||('receiving', '', '', '', 0.0)||('treatment', 'noun', 'C0039798', ['ftcn'], 0.0)||('for', '', '', '', 0.0)||('hypertension', 'noun', 'C0020538', ['dsyn'], 0.0)||('.', '', '', '', 0.0)||
