('the', '', '', '', 0.0)||('minimal', 'adj', 'C0547040', ['qlco'], 0.0)||('incision', 'noun', 'C0184898', ['topp'], 0.0)||('technique', 'noun', 'C0449851', ['ftcn'], 0.0)||('involves', '', '', '', 0.0)||('kneading', 'verb', 'C0556837', ['topp'], 0.0)||('the', '', '', '', 0.0)||('lesion', 'noun', 'C0221198', ['fndg'], 0.0)||('following', '', '', '', 0.0)||('injection', 'noun', 'C1272883', ['bodm'], 0.0)||('of', '', '', '', 0.0)||('anesthetic', '', '', '', 0.0)||('and', '', '', '', 0.0)||('expressing', '', '', '', 0.0)||('the', '', '', '', 0.0)||('cyst', 'noun', 'C0010709', ['anab'], 0.0)||('contents', 'noun', 'C0456205', ['cnce'], 0.0)||('through', '', '', '', 0.0)||('a', '', '', '', 0.0)||('2', '', '', '', 0.0)||('-', '', '', '', 0.0)||('to', '', '', '', 0.0)||('3', '', '', '', 0.0)||('-', '', '', '', 0.0)||('mm', '', '', '', 0.0)||('incision', 'noun', 'C0184898', ['topp'], 0.0)||('.', '', '', '', 0.0)||
('following', '', '', '', 0.0)||('expulsion', 'noun', 'C1293107', ['topp'], 0.0)||('of', '', '', '', 0.0)||('the', '', '', '', 0.0)||('cyst', 'noun', 'C0010709', ['anab'], 0.0)||('contents', 'noun', 'C0456205', ['cnce'], 0.0)||(',', '', '', '', 0.0)||('the', '', '', '', 0.0)||('loosened', '', '', '', 0.0)||('capsule', 'noun', 'C0006935', ['bodm'], 0.0)||('is', '', '', '', 0.0)||('delivered', 'verb', 'C1705822', ['acty'], 0.0)||('through', '', '', '', 0.0)||('the', '', '', '', 0.0)||('small', 'adj', 'C0700321', ['qnco'], 0.0)||('opening', 'noun', 'C0175566', ['spco'], 0.0)||('.', '', '', '', 0.0)||
('closure', 'noun', 'C0185003', ['topp'], 0.0)||('with', '', '', '', 0.0)||('suture', 'noun', 'C0009068', ['topp'], 0.0)||('is', '', '', '', 0.0)||('optional', 'adj', 'C1518600', ['qlco'], 0.0)||('.', '', '', '', 0.0)||
