('the', '', '', '', 0.0)||('aim', 'noun', 'C1947946', ['idcn'], 0.0)||('of', '', '', '', 0.0)||('this', '', '', '', 0.0)||('systematic review', '', '', '', 0.0)||('and', '', '', '', 0.0)||('meta - analysis', '', '', '', 0.0)||('is', '', '', '', 0.0)||('to', '', '', '', 0.0)||('evaluate', 'verb', 'C0220825', ['ftcn'], 0.0)||('whether', '', '', '', 0.0)||('the', '', '', '', 0.0)||('design', 'noun', 'C1707689', ['acty'], 0.0)||('and', '', '', '', 0.0)||('methodology', 'noun', 'C0025664', ['inpr'], 0.0)||('of', '', '', '', 0.0)||('drug - treatment', '', '', '', 0.0)||('studies', '', '', '', 0.0)||('of', '', '', '', 0.0)||('premature ejaculation', 'noun', 'C0033038', ['mobd'], 0.0)||('affect', 'verb', 'C0001721', ['menp'], 0.0)||('the', '', '', '', 0.0)||('efficacy', 'noun', 'C1707887', ['resa'], 0.0)||('outcome', 'noun', 'C1274040', ['ftcn'], 0.0)||('differently', '', '', '', 0.0)||('.', '', '', '', 0.0)||
('therefore', '', '', '', 0.0)||(',', '', '', '', 0.0)||('methodological', '', '', '', 0.0)||(',', '', '', '', 0.0)||('design', 'noun', 'C1707689', ['acty'], 0.0)||('and', '', '', '', 0.0)||('efficacy', 'noun', 'C1707887', ['resa'], 0.0)||('data', 'noun', 'C1511726', ['idcn'], 0.0)||('from', '', '', '', 0.0)||('79', '', '', '', 0.0)||('studies', '', '', '', 0.0)||('(', '', '', '', 0.0)||('3034', '', '', '', 0.0)||('males', 'noun', 'C0024554', ['orga'], 0.0)||(')', '', '', '', 0.0)||(',', '', '', '', 0.0)||('published', 'verb', 'C0034037', ['ocac'], 0.0)||('between', '', '', '', 0.0)||('1943', '', '', '', 0.0)||('and', '', '', '', 0.0)||('2003', '', '', '', 0.0)||(',', '', '', '', 0.0)||('are', '', '', '', 0.0)||('reviewed', 'verb', 'C1709940', ['qlco'], 0.0)||('.', '', '', '', 0.0)||
('a', '', '', '', 0.0)||('meta - analysis', '', '', '', 0.0)||('is', '', '', '', 0.0)||('performed', 'verb', 'C0884358', ['ftcn'], 0.0)||('on', '', '', '', 0.0)||('43', '', '', '', 0.0)||('selective serotonin reuptake inhibitors', 'noun', 'C0162758', ['phsu'], 0.0)||('and', '', '', '', 0.0)||('clomipramine', '', '', '', 0.0)||('studies', '', '', '', 0.0)||('(', '', '', '', 0.0)||('1514', '', '', '', 0.0)||('males', 'noun', 'C0024554', ['orga'], 0.0)||(')', '', '', '', 0.0)||(',', '', '', '', 0.0)||('published', 'verb', 'C0034037', ['ocac'], 0.0)||('between', '', '', '', 0.0)||('1973', '', '', '', 0.0)||('and', '', '', '', 0.0)||('2003', '', '', '', 0.0)||(';', '', '', '', 0.0)||
('these', '', '', '', 0.0)||('studies', '', '', '', 0.0)||('were', '', '', '', 0.0)||('pooled', 'verb', 'C1709595', ['cnce'], 0.0)||('to', '', '', '', 0.0)||('provide', 'verb', 'C0359589', ['food'], 0.0)||('a', '', '', '', 0.0)||('summary', 'noun', 'C1552616', ['inpr'], 0.0)||('variance', 'noun', 'C1711260', ['qlco'], 0.0)||('-', '', '', '', 0.0)||('weighted', '', '', '', 0.0)||('effect', 'noun', 'C1280500', ['qlco'], 0.0)||('size', 'noun', 'C0456389', ['spco'], 0.0)||('.', '', '', '', 0.0)||
('the', '', '', '', 0.0)||('antidepressant', 'noun', 'C0003289', ['phsu'], 0.0)||('-', '', '', '', 0.0)||('induced', 'adj', 'C0205263', ['ftcn'], 0.0)||('percentage', 'noun', 'C0439165', ['qnco'], 0.0)||('increase', 'noun', 'C0442805', ['ftcn'], 0.0)||('of', '', '', '', 0.0)||('the', '', '', '', 0.0)||('intravaginal', 'adj', 'C0442122', ['spco'], 0.0)||('ejaculation', 'noun', 'C0013746', ['orgf'], 0.0)||('latency', '', '', '', 0.0)||('time', 'noun', 'C0040223', ['tmco'], 0.0)||('was', '', '', '', 0.0)||('calculated', 'verb', 'C0444686', ['ftcn'], 0.0)||('and', '', '', '', 0.0)||('examined', 'verb', 'C0332128', ['fndg'], 0.0)||('against', '', '', '', 0.0)||('various', 'adj', 'C0440102', ['irda'], 0.0)||('methodological', '', '', '', 0.0)||('items', '', '', '', 0.0)||('.', '', '', '', 0.0)||
('a', '', '', '', 0.0)||('significant', 'adj', 'C0750502', ['idcn'], 0.0)||('difference', 'noun', 'C1705242', ['qlco'], 0.0)||('in', '', '', '', 0.0)||('efficacy', 'noun', 'C1707887', ['resa'], 0.0)||('between', '', '', '', 0.0)||('selective serotonin reuptake inhibitors', 'noun', 'C0162758', ['phsu'], 0.0)||('was', '', '', '', 0.0)||('observed', 'verb', 'C1441672', ['ftcn'], 0.0)||('.', '', '', '', 0.0)||
('using', 'verb', 'C1524063', ['ftcn'], 0.0)||('daily', 'adj', 'C0332173', ['tmco'], 0.0)||('treatment', 'noun', 'C0039798', ['ftcn'], 0.0)||(',', '', '', '', 0.0)||('paroxetine', 'noun', 'C0070122', ['orch', 'phsu'], 0.0)||('appeared', '', '', '', 0.0)||('more', '', '', '', 0.0)||('effective', 'adj', 'C1704419', ['qlco'], 0.0)||('than', '', '', '', 0.0)||('the', '', '', '', 0.0)||('other', '', '', '', 0.0)||('selective serotonin reuptake inhibitors', 'noun', 'C0162758', ['phsu'], 0.0)||('.', '', '', '', 0.0)||
('retrospective', 'adj', 'C1514923', ['qlco'], 0.0)||('use', 'noun', 'C0042153', ['ftcn'], 0.0)||('of', '', '', '', 0.0)||('a', '', '', '', 0.0)||('questionnaire', 'noun', 'C0034394', ['inpr'], 0.0)||(',', '', '', '', 0.0)||('subjective', 'adj', 'C0439655', ['qlco'], 0.0)||('reports', 'noun', 'C0684224', ['inpr'], 0.0)||(',', '', '', '', 0.0)||('single - blind', '', '', '', 0.0)||('and', '', '', '', 0.0)||('open', 'adj', 'C0175566', ['spco'], 0.0)||('study designs', '', '', '', 0.0)||('generate', '', '', '', 0.0)||('far', '', '', '', 0.0)||('greater', 'adj', 'C1704243', ['qnco'], 0.0)||('variability', '', '', '', 0.0)||('of', '', '', '', 0.0)||('ejaculation', 'noun', 'C0013746', ['orgf'], 0.0)||('time', 'noun', 'C0040223', ['tmco'], 0.0)||('both', '', '', '', 0.0)||('at', '', '', '', 0.0)||('baseline', 'noun', 'C0168634', ['bodm'], 0.0)||('and', '', '', '', 0.0)||('during', '', '', '', 0.0)||('active', 'adj', 'C0205177', ['ftcn'], 0.0)||('drug treatment', '', '', '', 0.0)||('than', '', '', '', 0.0)||('real time', 'noun', 'C1550177', ['idcn'], 0.0)||('assessment', 'noun', 'C1261322', ['hlca'], 0.0)||('by', '', '', '', 0.0)||('stopwatch', '', '', '', 0.0)||('.', '', '', '', 0.0)||
('in', '', '', '', 0.0)||('conclusion', 'noun', 'C1707478', ['idcn'], 0.0)||(',', '', '', '', 0.0)||('at', '', '', '', 0.0)||('daily', 'adj', 'C0332173', ['tmco'], 0.0)||('treatment', 'noun', 'C0039798', ['ftcn'], 0.0)||(',', '', '', '', 0.0)||('the', '', '', '', 0.0)||('overall', 'adj', 'C0282416', ['inpr'], 0.0)||('efficacy', 'noun', 'C1707887', ['resa'], 0.0)||('of', '', '', '', 0.0)||('paroxetine', 'noun', 'C0070122', ['orch', 'phsu'], 0.0)||(',', '', '', '', 0.0)||('clomipramine', '', '', '', 0.0)||(',', '', '', '', 0.0)||('sertraline', 'noun', 'C0074393', ['orch', 'phsu'], 0.0)||('and', '', '', '', 0.0)||('fluoxetine', 'noun', 'C0016365', ['orch', 'phsu'], 0.0)||('is', '', '', '', 0.0)||('comparable', '', '', '', 0.0)||(',', '', '', '', 0.0)||('but', '', '', '', 0.0)||('paroxetine', 'noun', 'C0070122', ['orch', 'phsu'], 0.0)||('exerts', '', '', '', 0.0)||('the', '', '', '', 0.0)||('strongest', '', '', '', 0.0)||('ejaculation', 'noun', 'C0013746', ['orgf'], 0.0)||('delay', 'noun', 'C0205421', ['tmco'], 0.0)||('.', '', '', '', 0.0)||
('only', '', '', '', 0.0)||('eight', '', 'C0205454', ['qnco'], 0.0)||('(', '', '', '', 0.0)||('18 . 5 %', '', '', '', 0.0)||(')', '', '', '', 0.0)||('studies', '', '', '', 0.0)||('on', '', '', '', 0.0)||('antidepressant', 'noun', 'C0003289', ['phsu'], 0.0)||('treatment', 'noun', 'C0039798', ['ftcn'], 0.0)||('fulfilled', '', '', '', 0.0)||('all', '', '', '', 0.0)||('criteria', 'noun', 'C0243161', ['inpr'], 0.0)||('used', '', '', '', 0.0)||('in', '', '', '', 0.0)||('evidence - based medicine', '', '', '', 0.0)||(',', '', '', '', 0.0)||('for', '', '', '', 0.0)||('example', 'noun', 'C1707959', ['cnce'], 0.0)||(',', '', '', '', 0.0)||('randomised', '', '', '', 0.0)||(',', '', '', '', 0.0)||('double - blind studies', '', '', '', 0.0)||('with', '', '', '', 0.0)||('prospective', 'adj', 'C0023981', ['resa'], 0.0)||('real time', 'noun', 'C1550177', ['idcn'], 0.0)||('(', '', '', '', 0.0)||('stopwatch', '', '', '', 0.0)||(')', '', '', '', 0.0)||('assessment', 'noun', 'C1261322', ['hlca'], 0.0)||('of', '', '', '', 0.0)||('the', '', '', '', 0.0)||('increase', 'noun', 'C0442805', ['ftcn'], 0.0)||('of', '', '', '', 0.0)||('the', '', '', '', 0.0)||('intravaginal', 'adj', 'C0442122', ['spco'], 0.0)||('ejaculation', 'noun', 'C0013746', ['orgf'], 0.0)||('latency', '', '', '', 0.0)||('time', 'noun', 'C0040223', ['tmco'], 0.0)||('at', '', '', '', 0.0)||('each', '', '', '', 0.0)||('intercourse', 'noun', 'C0009253', ['orgf'], 0.0)||('.', '', '', '', 0.0)||
('single - blind', '', '', '', 0.0)||('studies', '', '', '', 0.0)||(',', '', '', '', 0.0)||('open', 'adj', 'C0175566', ['spco'], 0.0)||('designs', '', '', '', 0.0)||(',', '', '', '', 0.0)||('retrospective', 'adj', 'C1514923', ['qlco'], 0.0)||('reporting', 'noun', 'C0700287', ['hlca'], 0.0)||(',', '', '', '', 0.0)||('or', '', '', '', 0.0)||('the', '', '', '', 0.0)||('use', 'noun', 'C0042153', ['ftcn'], 0.0)||('of', '', '', '', 0.0)||('a', '', '', '', 0.0)||('questionnaire', 'noun', 'C0034394', ['inpr'], 0.0)||('to', '', '', '', 0.0)||('assess', 'verb', 'C1516048', ['acty'], 0.0)||('ejaculation', 'noun', 'C0013746', ['orgf'], 0.0)||('time', 'noun', 'C0040223', ['tmco'], 0.0)||('should', '', '', '', 0.0)||('be', '', '', '', 0.0)||('avoided', '', '', '', 0.0)||('.', '', '', '', 0.0)||
