('this', '', '', '', 0.0)||('review', 'noun', 'C0282443', ['inpr'], 0.0)||('examines', '', '', '', 0.0)||('the', '', '', '', 0.0)||('role', 'noun', 'C0035820', ['socb'], 0.0)||('of', '', '', '', 0.0)||('nitric oxide', 'noun', 'C0028128', ['bacs', 'inch', 'phsu'], 0.0)||('as', '', '', '', 0.0)||('a', '', '', '', 0.0)||('neurotransmitter', 'noun', 'C0027908', ['nsba'], 0.0)||('involved', 'verb', 'C1314939', ['ftcn'], 0.0)||('in', '', '', '', 0.0)||('the', '', '', '', 0.0)||('central', 'adj', 'C0205099', ['spco'], 0.0)||('and', '', '', '', 0.0)||('peripheral', 'adj', 'C0205100', ['spco'], 0.0)||('control', 'noun', 'C0243148', ['qlco'], 0.0)||('of', '', '', '', 0.0)||('ejaculation', 'noun', 'C0013746', ['orgf'], 0.0)||(',', '', '', '', 0.0)||('the', '', '', '', 0.0)||('methods', 'noun', 'C0025663', ['inpr'], 0.0)||('of', '', '', '', 0.0)||('phosphodiesterase', 'noun', 'C0031640', ['aapp', 'enzy'], 0.0)||('type', 'noun', 'C0332307', ['qlco'], 0.0)||('5', '', '', '', 0.0)||('inhibitor', 'noun', 'C1999216', ['qlco'], 0.0)||('drug treatment', '', '', '', 0.0)||('studies', '', '', '', 0.0)||('for', '', '', '', 0.0)||('premature ejaculation', 'noun', 'C0033038', ['mobd'], 0.0)||(',', '', '', '', 0.0)||('the', '', '', '', 0.0)||('adherence', 'noun', 'C1510802', ['ftcn'], 0.0)||('of', '', '', '', 0.0)||('methods', 'noun', 'C0025663', ['inpr'], 0.0)||('to', '', '', '', 0.0)||('the', '', '', '', 0.0)||('contemporary', '', '', '', 0.0)||('consensus', 'noun', 'C0376298', ['socb'], 0.0)||('of', '', '', '', 0.0)||('ideal', 'adj', 'C1512612', ['qlco'], 0.0)||('premature ejaculation', 'noun', 'C0033038', ['mobd'], 0.0)||('drug trial', '', '', '', 0.0)||('design', 'noun', 'C1707689', ['acty'], 0.0)||(',', '', '', '', 0.0)||('the', '', '', '', 0.0)||('impact', '', '', '', 0.0)||('of', '', '', '', 0.0)||('methods', 'noun', 'C0025663', ['inpr'], 0.0)||('on', '', '', '', 0.0)||('treatment', 'noun', 'C0039798', ['ftcn'], 0.0)||('outcomes', 'noun', 'C0085415', ['qlco'], 0.0)||('and', '', '', '', 0.0)||('the', '', '', '', 0.0)||('role', 'noun', 'C0035820', ['socb'], 0.0)||('of', '', '', '', 0.0)||('pde5is', '', '', '', 0.0)||('in', '', '', '', 0.0)||('the', '', '', '', 0.0)||('treatment', 'noun', 'C0039798', ['ftcn'], 0.0)||('of', '', '', '', 0.0)||('premature ejaculation', 'noun', 'C0033038', ['mobd'], 0.0)||('.', '', '', '', 0.0)||
('nitric oxide', 'noun', 'C0028128', ['bacs', 'inch', 'phsu'], 0.0)||('/', '', '', '', 0.0)||('cgmp', 'noun', 'C0018338', ['bacs', 'nnon'], 0.0)||('transduction', 'noun', 'C1160185', ['orgf'], 0.0)||('is', '', '', '', 0.0)||('involved', 'verb', 'C1314939', ['ftcn'], 0.0)||('in', '', '', '', 0.0)||('both', '', '', '', 0.0)||('the', '', '', '', 0.0)||('central', 'adj', 'C0205099', ['spco'], 0.0)||('and', '', '', '', 0.0)||('peripheral', 'adj', 'C0205100', ['spco'], 0.0)||('control', 'noun', 'C0243148', ['qlco'], 0.0)||('of', '', '', '', 0.0)||('emission', 'noun', 'C0233929', ['bdsu'], 0.0)||(',', '', '', '', 0.0)||('but', '', '', '', 0.0)||('evidence', 'noun', 'C0332120', ['ftcn'], 0.0)||('for', '', '', '', 0.0)||('a', '', '', '', 0.0)||('direct', 'adj', 'C0439851', ['qlco'], 0.0)||('central', 'adj', 'C0205099', ['spco'], 0.0)||('or', '', '', '', 0.0)||('peripheral', 'adj', 'C0205100', ['spco'], 0.0)||('effect', 'noun', 'C1280500', ['qlco'], 0.0)||('of', '', '', '', 0.0)||('pde5is', '', '', '', 0.0)||('on', '', '', '', 0.0)||('ejaculation', 'noun', 'C0013746', ['orgf'], 0.0)||('is', '', '', '', 0.0)||('speculative', '', '', '', 0.0)||('.', '', '', '', 0.0)||
('thirteen', '', '', '', 0.0)||('of', '', '', '', 0.0)||('the', '', '', '', 0.0)||('14', '', '', '', 0.0)||('studies', '', '', '', 0.0)||('reviewed', 'verb', 'C1709940', ['qlco'], 0.0)||('failed', 'verb', 'C0231175', ['ftcn'], 0.0)||('to', '', '', '', 0.0)||('fulfil', '', '', '', 0.0)||('the', '', '', '', 0.0)||('evidence - based medicine', '', '', '', 0.0)||('criteria', 'noun', 'C0243161', ['inpr'], 0.0)||('for', '', '', '', 0.0)||('ideal', 'adj', 'C1512612', ['qlco'], 0.0)||('premature ejaculation', 'noun', 'C0033038', ['mobd'], 0.0)||('drug trial', '', '', '', 0.0)||('design', 'noun', 'C1707689', ['acty'], 0.0)||('.', '', '', '', 0.0)||
('limitations', '', '', '', 0.0)||('of', '', '', '', 0.0)||('the', '', '', '', 0.0)||('studies', '', '', '', 0.0)||('include', 'verb', 'C1552866', ['idcn'], 0.0)||('inadequately', '', '', '', 0.0)||('defined', 'adj', 'C1704788', ['cnce'], 0.0)||('study populations', '', '', '', 0.0)||(',', '', '', '', 0.0)||('the', '', '', '', 0.0)||('lack', 'noun', 'C0332268', ['qlco'], 0.0)||('of', '', '', '', 0.0)||('a', '', '', '', 0.0)||('double - blind', '', '', '', 0.0)||('placebo - controlled study', '', '', '', 0.0)||('design', 'noun', 'C1707689', ['acty'], 0.0)||(',', '', '', '', 0.0)||('and', '', '', '', 0.0)||('the', '', '', '', 0.0)||('absence', 'noun', 'C1689985', ['anab'], 0.0)||('of', '', '', '', 0.0)||('consistent', 'adj', 'C0332290', ['idcn'], 0.0)||('objective', 'adj', 'C0018017', ['inpr'], 0.0)||('physiological', 'adj', 'C0205463', ['ftcn'], 0.0)||('measures', 'noun', 'C0079809', ['qnco'], 0.0)||('or', '', '', '', 0.0)||('sensitive', 'adj', 'C0332324', ['ftcn'], 0.0)||(',', '', '', '', 0.0)||('validated', '', '', '', 0.0)||('outcome', 'noun', 'C1274040', ['ftcn'], 0.0)||('assessment', 'noun', 'C1261322', ['hlca'], 0.0)||('instruments', 'noun', 'C0348000', ['medd'], 0.0)||('as', '', '', '', 0.0)||('study endpoints', '', '', '', 0.0)||('.', '', '', '', 0.0)||
('the', '', '', '', 0.0)||('broad', 'adj', 'C0332464', ['spco'], 0.0)||('range', 'noun', 'C1514721', ['qnco'], 0.0)||('of', '', '', '', 0.0)||('intravaginal', 'adj', 'C0442122', ['spco'], 0.0)||('ejaculatory', 'adj', 'C0013746', ['orgf'], 0.0)||('latency', '', '', '', 0.0)||('time', 'noun', 'C0040223', ['tmco'], 0.0)||('fold', 'noun', 'C0332462', ['spco'], 0.0)||('-', '', '', '', 0.0)||('increases', '', '', '', 0.0)||('reported', 'verb', 'C0684224', ['inpr'], 0.0)||('with', '', '', '', 0.0)||('pde5is', '', '', '', 0.0)||(',', '', '', '', 0.0)||('on', '', '', '', 0.0)||('-', '', '', '', 0.0)||('demand', 'verb', 'C0441516', ['topp'], 0.0)||('selective', '', '', '', 0.0)||('serotonin', 'noun', 'C0036751', ['nsba', 'orch'], 0.0)||('re - uptake', '', '', '', 0.0)||('inhibitor', 'noun', 'C1999216', ['qlco'], 0.0)||('drugs', 'noun', 'C0013227', ['phsu'], 0.0)||(',', '', '', '', 0.0)||('and', '', '', '', 0.0)||('combined', 'adj', 'C0205195', ['qlco'], 0.0)||('phosphodiesterase', 'noun', 'C0031640', ['aapp', 'enzy'], 0.0)||('type', 'noun', 'C0332307', ['qlco'], 0.0)||('5', '', '', '', 0.0)||('inhibitor', 'noun', 'C1999216', ['qlco'], 0.0)||('/', '', '', '', 0.0)||('on', '', '', '', 0.0)||('-', '', '', '', 0.0)||('demand', 'noun', 'C0441516', ['topp'], 0.0)||('ssris', 'noun', 'C0162758', ['phsu'], 0.0)||('is', '', '', '', 0.0)||('testament', '', '', '', 0.0)||('to', '', '', '', 0.0)||('the', '', '', '', 0.0)||('unreliability', '', '', '', 0.0)||('of', '', '', '', 0.0)||('data', 'noun', 'C1511726', ['idcn'], 0.0)||('and', '', '', '', 0.0)||('conclusions', 'noun', 'C1707478', ['idcn'], 0.0)||('from', '', '', '', 0.0)||('methodologically', '', '', '', 0.0)||('flawed', '', '', '', 0.0)||('studies', '', '', '', 0.0)||('.', '', '', '', 0.0)||
('the', '', '', '', 0.0)||('one', 'noun', 'C0205447', ['qnco'], 0.0)||('study', 'verb', 'C0008976', ['resa'], 0.0)||('that', '', '', '', 0.0)||('fulfilled', '', '', '', 0.0)||('the', '', '', '', 0.0)||('evidence - based medicine', '', '', '', 0.0)||('criteria', 'noun', 'C0243161', ['inpr'], 0.0)||('of', '', '', '', 0.0)||('an', '', '', '', 0.0)||('ideal', 'adj', 'C1512612', ['qlco'], 0.0)||('clinical trial', 'noun', 'C0008976', ['resa'], 0.0)||('design', 'noun', 'C1707689', ['acty'], 0.0)||('reported', 'verb', 'C0684224', ['inpr'], 0.0)||('that', '', '', '', 0.0)||('treatment', 'noun', 'C0039798', ['ftcn'], 0.0)||('with', '', '', '', 0.0)||('sildenafil', 'noun', 'C0529793', ['orch', 'phsu'], 0.0)||('failed', 'verb', 'C0231175', ['ftcn'], 0.0)||('to', '', '', '', 0.0)||('significantly', '', '', '', 0.0)||('increase', 'verb', 'C0442805', ['ftcn'], 0.0)||('baseline', 'noun', 'C0168634', ['bodm'], 0.0)||('intravaginal', 'adj', 'C0442122', ['spco'], 0.0)||('ejaculatory', 'adj', 'C0013746', ['orgf'], 0.0)||('latency', '', '', '', 0.0)||('time', 'noun', 'C0040223', ['tmco'], 0.0)||(',', '', '', '', 0.0)||('supporting', '', '', '', 0.0)||('our', '', '', '', 0.0)||('conclusion', 'noun', 'C1707478', ['idcn'], 0.0)||('that', '', '', '', 0.0)||('there', '', '', '', 0.0)||('is', '', '', '', 0.0)||('no', '', '', '', 0.0)||('convincing', '', '', '', 0.0)||('evidence', 'noun', 'C0332120', ['ftcn'], 0.0)||('to', '', '', '', 0.0)||('support', 'verb', 'C0183683', ['medd'], 0.0)||('any', '', '', '', 0.0)||('role', 'noun', 'C0035820', ['socb'], 0.0)||('for', '', '', '', 0.0)||('pde5is', '', '', '', 0.0)||('in', '', '', '', 0.0)||('the', '', '', '', 0.0)||('treatment', 'noun', 'C0039798', ['ftcn'], 0.0)||('of', '', '', '', 0.0)||('men', 'noun', 'C0025266', ['popg'], 0.0)||('with', '', '', '', 0.0)||('lifelong', '', '', '', 0.0)||('premature ejaculation', 'noun', 'C0033038', ['mobd'], 0.0)||('and', '', '', '', 0.0)||('normal', 'adj', 'C0205307', ['qlco'], 0.0)||('erectile function', '', '', '', 0.0)||('.', '', '', '', 0.0)||
('however', '', '', '', 0.0)||(',', '', '', '', 0.0)||('there', '', '', '', 0.0)||('is', '', '', '', 0.0)||('limited', 'verb', 'C0439801', ['ftcn'], 0.0)||('evidence', 'noun', 'C0332120', ['ftcn'], 0.0)||('to', '', '', '', 0.0)||('support', 'verb', 'C0183683', ['medd'], 0.0)||('a', '', '', '', 0.0)||('potential', 'adj', 'C0035647', ['qlco'], 0.0)||('role', 'noun', 'C0035820', ['socb'], 0.0)||('for', '', '', '', 0.0)||('pde5is', '', '', '', 0.0)||('alone', 'adj', 'C0439044', ['fndg'], 0.0)||('or', '', '', '', 0.0)||('combined', 'verb', 'C0205195', ['qlco'], 0.0)||('with', '', '', '', 0.0)||('daily', 'adj', 'C0332173', ['tmco'], 0.0)||('or', '', '', '', 0.0)||('on', '', '', '', 0.0)||('-', '', '', '', 0.0)||('demand', 'noun', 'C0441516', ['topp'], 0.0)||('ssris', 'noun', 'C0162758', ['phsu'], 0.0)||('in', '', '', '', 0.0)||('the', '', '', '', 0.0)||('treatment', 'noun', 'C0039798', ['ftcn'], 0.0)||('of', '', '', '', 0.0)||('acquired', 'adj', 'C0439661', ['tmco'], 0.0)||('premature ejaculation', 'noun', 'C0033038', ['mobd'], 0.0)||('in', '', '', '', 0.0)||('men', 'noun', 'C0025266', ['popg'], 0.0)||('with', '', '', '', 0.0)||('comorbid', '', '', '', 0.0)||('erectile dysfunction', 'noun', 'C0242350', ['dsyn'], 0.0)||('.', '', '', '', 0.0)||
('further', 'adv', 'C1517331', ['spco'], 0.0)||('controlled', 'adj', 'C2587213', ['ftcn'], 0.0)||('studies', '', '', '', 0.0)||('adhering', '', '', '', 0.0)||('to', '', '', '', 0.0)||('the', '', '', '', 0.0)||('contemporary', '', '', '', 0.0)||('consensus', 'noun', 'C0376298', ['socb'], 0.0)||('of', '', '', '', 0.0)||('ideal', 'adj', 'C1512612', ['qlco'], 0.0)||('clinical trial', 'noun', 'C0008976', ['resa'], 0.0)||('design', 'noun', 'C1707689', ['acty'], 0.0)||('are', '', '', '', 0.0)||('required', 'verb', 'C1514873', ['ftcn'], 0.0)||('to', '', '', '', 0.0)||('clarify', '', '', '', 0.0)||('the', '', '', '', 0.0)||('role', 'noun', 'C0035820', ['socb'], 0.0)||('of', '', '', '', 0.0)||('pde5is', '', '', '', 0.0)||('in', '', '', '', 0.0)||('this', '', '', '', 0.0)||('subgroup', 'noun', 'C1515021', ['clas'], 0.0)||('of', '', '', '', 0.0)||('men', 'noun', 'C0025266', ['popg'], 0.0)||('with', '', '', '', 0.0)||('acquired', 'adj', 'C0439661', ['tmco'], 0.0)||('premature ejaculation', 'noun', 'C0033038', ['mobd'], 0.0)||('.', '', '', '', 0.0)||
