('a', '', '', '', 0.0)||('meta - analysis', '', '', '', 0.0)||('of', '', '', '', 0.0)||('29', '', '', '', 0.0)||('cohort studies', 'noun', 'C0009247', ['qnco'], 0.0)||('of', '', '', '', 0.0)||('mri', 'noun', 'C0024485', ['diap'], 0.0)||('for', '', '', '', 0.0)||('the', '', '', '', 0.0)||('diagnosis', 'noun', 'C0011900', ['fndg'], 0.0)||('of', '', '', '', 0.0)||('full - thickness', '', '', '', 0.0)||('tears', 'noun', 'C0039409', ['bdsu'], 0.0)||('found', '', '', '', 0.0)||('a', '', '', '', 0.0)||('pooled', 'adj', 'C1709595', ['cnce'], 0.0)||('sensitivity', 'noun', 'C0036667', ['qnco'], 0.0)||('of', '', '', '', 0.0)||('0 . 89', '', '', '', 0.0)||('(', '', '', '', 0.0)||('95 %', '', '', '', 0.0)||('ci', 'noun', 'C1417638', ['gngm'], 0.0)||(',', '', '', '', 0.0)||('0 . 86', '', '', '', 0.0)||('-', '', '', '', 0.0)||('0 . 92', '', '', '', 0.0)||(')', '', '', '', 0.0)||('and', '', '', '', 0.0)||('a', '', '', '', 0.0)||('pooled', 'adj', 'C1709595', ['cnce'], 0.0)||('specificity', 'noun', 'C0037791', ['qnco'], 0.0)||('of', '', '', '', 0.0)||('0 . 93', '', '', '', 0.0)||('(', '', '', '', 0.0)||('95 %', '', '', '', 0.0)||('ci', 'noun', 'C1417638', ['gngm'], 0.0)||(',', '', '', '', 0.0)||('0 . 91', '', '', '', 0.0)||('-', '', '', '', 0.0)||('0 . 95', '', '', '', 0.0)||(')', '', '', '', 0.0)||(',', '', '', '', 0.0)||('respectively', '', '', '', 0.0)||('.', '', '', '', 0.0)||
('for', '', '', '', 0.0)||('partial', 'adj', 'C0728938', ['qnco'], 0.0)||('-', '', '', '', 0.0)||('thickness', 'noun', 'C1280412', ['qlco'], 0.0)||('tears', 'noun', 'C0039409', ['bdsu'], 0.0)||(',', '', '', '', 0.0)||('the', '', '', '', 0.0)||('pooled', 'adj', 'C1709595', ['cnce'], 0.0)||('mri', 'noun', 'C0024485', ['diap'], 0.0)||('sensitivity', 'noun', 'C0036667', ['qnco'], 0.0)||('was', '', '', '', 0.0)||('lower', 'adj', 'C0441994', ['ftcn'], 0.0)||('at', '', '', '', 0.0)||('0 . 44', '', '', '', 0.0)||('(', '', '', '', 0.0)||('95 %', '', '', '', 0.0)||('ci', 'noun', 'C1417638', ['gngm'], 0.0)||(',', '', '', '', 0.0)||('0 . 36', '', '', '', 0.0)||('-', '', '', '', 0.0)||('0 . 51', '', '', '', 0.0)||(')', '', '', '', 0.0)||(',', '', '', '', 0.0)||('but', '', '', '', 0.0)||('with', '', '', '', 0.0)||('a', '', '', '', 0.0)||('high', 'adj', 'C0205250', ['qlco'], 0.0)||('specificity', 'noun', 'C0037791', ['qnco'], 0.0)||('of', '', '', '', 0.0)||('0 . 90', '', '', '', 0.0)||('(', '', '', '', 0.0)||('95 %', '', '', '', 0.0)||('ci', 'noun', 'C1417638', ['gngm'], 0.0)||(',', '', '', '', 0.0)||('0 . 87', '', '', '', 0.0)||('-', '', '', '', 0.0)||('0 . 92', '', '', '', 0.0)||(')', '', '', '', 0.0)||('.', '', '', '', 0.0)||('1', '', '', '', 0.0)||('this', '', '', '', 0.0)||('implies', '', '', '', 0.0)||('that', '', '', '', 0.0)||('mri', 'noun', 'C0024485', ['diap'], 0.0)||('is', '', '', '', 0.0)||('the', '', '', '', 0.0)||('most', '', '', '', 0.0)||('valuable', '', '', '', 0.0)||('test', 'noun', 'C0022885', ['lbpr'], 0.0)||('to', '', '', '', 0.0)||('rule', 'verb', 'C0805874', ['idcn'], 0.0)||('out', '', '', '', 0.0)||('a', '', '', '', 0.0)||('partial', 'adj', 'C0728938', ['qnco'], 0.0)||('-', '', '', '', 0.0)||('thickness', 'noun', 'C1280412', ['qlco'], 0.0)||('tear', 'noun', 'C0039409', ['bdsu'], 0.0)||('.', '', '', '', 0.0)||
('however', '', '', '', 0.0)||(',', '', '', '', 0.0)||('we', '', '', '', 0.0)||('found', '', '', '', 0.0)||('no', '', '', '', 0.0)||('studies', '', '', '', 0.0)||('that', '', '', '', 0.0)||('directly', 'adv', 'C1947931', ['qlco'], 0.0)||('compared', 'verb', 'C1707455', ['acty'], 0.0)||('the', '', '', '', 0.0)||('test', 'noun', 'C0022885', ['lbpr'], 0.0)||('characteristics', 'noun', 'C1521970', ['qlco'], 0.0)||('of', '', '', '', 0.0)||('ultrasound', 'noun', 'C0041618', ['diap'], 0.0)||('and', '', '', '', 0.0)||('mri', 'noun', 'C0024485', ['diap'], 0.0)||('.', '', '', '', 0.0)||
