('in', '', '', '', 0.0)||('a', '', '', '', 0.0)||('systematic review', '', '', '', 0.0)||('of', '', '', '', 0.0)||('38', '', '', '', 0.0)||('cohort studies', 'noun', 'C0009247', ['qnco'], 0.0)||(',', '', '', '', 0.0)||('the', '', '', '', 0.0)||('overall', 'adj', 'C0282416', ['inpr'], 0.0)||('sensitivity and specificity', 'noun', 'C0036668', ['qnco'], 0.0)||('of', '', '', '', 0.0)||('ultrasound', 'noun', 'C0041618', ['diap'], 0.0)||('for', '', '', '', 0.0)||('full - thickness', '', '', '', 0.0)||('rotator cuff tears', '', '', '', 0.0)||('was', '', '', '', 0.0)||('0 . 87', '', '', '', 0.0)||('(', '', '', '', 0.0)||('95 %', '', '', '', 0.0)||('ci', 'noun', 'C1417638', ['gngm'], 0.0)||(',', '', '', '', 0.0)||('0 . 84', '', '', '', 0.0)||('-', '', '', '', 0.0)||('0 . 89', '', '', '', 0.0)||(')', '', '', '', 0.0)||('and', '', '', '', 0.0)||('0 . 96', '', '', '', 0.0)||('(', '', '', '', 0.0)||('95 %', '', '', '', 0.0)||('ci', 'noun', 'C1417638', ['gngm'], 0.0)||(',', '', '', '', 0.0)||('0 . 94', '', '', '', 0.0)||('-', '', '', '', 0.0)||('0 . 97', '', '', '', 0.0)||(')', '', '', '', 0.0)||('.', '', '', '', 0.0)||
('for', '', '', '', 0.0)||('partial', 'adj', 'C0728938', ['qnco'], 0.0)||('-', '', '', '', 0.0)||('thickness', 'noun', 'C1280412', ['qlco'], 0.0)||('tears', 'noun', 'C0039409', ['bdsu'], 0.0)||(',', '', '', '', 0.0)||('ultrasound', 'noun', 'C0041618', ['diap'], 0.0)||('sensitivity', 'noun', 'C0036667', ['qnco'], 0.0)||('was', '', '', '', 0.0)||('0 . 67', '', '', '', 0.0)||('(', '', '', '', 0.0)||('95 %', '', '', '', 0.0)||('ci', 'noun', 'C1417638', ['gngm'], 0.0)||(',', '', '', '', 0.0)||('0 . 61', '', '', '', 0.0)||('-', '', '', '', 0.0)||('0 . 73', '', '', '', 0.0)||(')', '', '', '', 0.0)||('.', '', '', '', 0.0)||
('positive', 'noun', 'C1446409', ['qlco'], 0.0)||('and', '', '', '', 0.0)||('negative predictive values', '', '', '', 0.0)||('of', '', '', '', 0.0)||('a', '', '', '', 0.0)||('test', 'noun', 'C0022885', ['lbpr'], 0.0)||('depend', 'verb', 'C0725813', ['medd'], 0.0)||('on', '', '', '', 0.0)||('the', '', '', '', 0.0)||('prevalence', 'noun', 'C0033105', ['qnco'], 0.0)||('of', '', '', '', 0.0)||('the', '', '', '', 0.0)||('condition', 'noun', 'C0348080', ['qlco'], 0.0)||('in', '', '', '', 0.0)||('the', '', '', '', 0.0)||('study population', 'noun', 'C2348561', ['popg'], 0.0)||('.', '', '', '', 0.0)||
('in', '', '', '', 0.0)||('the', '', '', '', 0.0)||('case', 'noun', 'C0868928', ['ftcn'], 0.0)||('of', '', '', '', 0.0)||('rotator cuff tears', '', '', '', 0.0)||(',', '', '', '', 0.0)||('such', '', '', '', 0.0)||('differences', '', '', '', 0.0)||('in', '', '', '', 0.0)||('prevalence', 'noun', 'C0033105', ['qnco'], 0.0)||('of', '', '', '', 0.0)||('rotator cuff tears', '', '', '', 0.0)||('in', '', '', '', 0.0)||('the', '', '', '', 0.0)||('38', '', '', '', 0.0)||('cohort studies', 'noun', 'C0009247', ['qnco'], 0.0)||('left', 'verb', 'C0205091', ['spco'], 0.0)||('it', '', '', '', 0.0)||('unclear', '', '', '', 0.0)||('whether', '', '', '', 0.0)||('a', '', '', '', 0.0)||('negative', 'adj', 'C0205160', ['qlco'], 0.0)||('ultrasound', 'noun', 'C0041618', ['diap'], 0.0)||('could', '', '', '', 0.0)||('reliably', '', '', '', 0.0)||('rule', 'verb', 'C0805874', ['idcn'], 0.0)||('out', '', '', '', 0.0)||('a', '', '', '', 0.0)||('tear', 'noun', 'C0039409', ['bdsu'], 0.0)||('.', '', '', '', 0.0)||
