('only', '', '', '', 0.0)||('5 %', '', '', '', 0.0)||('to', '', '', '', 0.0)||('10 %', '', '', '', 0.0)||('of', '', '', '', 0.0)||('adults', 'noun', 'C0001675', ['aggp'], 0.0)||('and', '', '', '', 0.0)||('20 %', '', '', '', 0.0)||('to', '', '', '', 0.0)||('25 %', '', '', '', 0.0)||('of', '', '', '', 0.0)||('children', 'noun', 'C0008059', ['aggp'], 0.0)||('presenting', 'verb', 'C0449450', ['idcn'], 0.0)||('in', '', '', '', 0.0)||('an', '', '', '', 0.0)||('office', 'noun', 'C0442603', ['mnob'], 0.0)||('setting', 'noun', 'C0542559', ['ftcn'], 0.0)||('with', '', '', '', 0.0)||('acute pharyngitis', 'noun', 'C0001344', ['dsyn'], 0.0)||('actually', '', '', '', 0.0)||('have', '', '', '', 0.0)||('gabhs', '', '', '', 0.0)||('pharyngitis', 'noun', 'C0031350', ['dsyn'], 0.0)||('.', '', '', '', 0.0)||
('the', '', '', '', 0.0)||('prevalence', 'noun', 'C0033105', ['qnco'], 0.0)||('of', '', '', '', 0.0)||('gabhs', '', '', '', 0.0)||('pharyngitis', 'noun', 'C0031350', ['dsyn'], 0.0)||('is', '', '', '', 0.0)||('higher', '', '', '', 0.0)||('for', '', '', '', 0.0)||('patients', 'noun', 'C0030705', ['podg'], 0.0)||('presenting', 'verb', 'C0449450', ['idcn'], 0.0)||('to', '', '', '', 0.0)||('urgent', 'adj', 'C0439609', ['tmco'], 0.0)||('care', 'noun', 'C0580931', ['fndg'], 0.0)||('centers', '', '', '', 0.0)||('or', '', '', '', 0.0)||('emergency rooms', 'noun', 'C0562508', ['hcro', 'mnob'], 0.0)||('than', '', '', '', 0.0)||('office', 'noun', 'C0442603', ['mnob'], 0.0)||('practices', '', '', '', 0.0)||('.', '', '', '', 0.0)||
('of', '', '', '', 0.0)||('the', '', '', '', 0.0)||('primary', 'adj', 'C0205225', ['qlco'], 0.0)||('clinical', 'adj', 'C0205210', ['qlco'], 0.0)||('prediction', 'noun', 'C0681842', ['idcn'], 0.0)||('rules', 'verb', 'C0870077', ['inpr'], 0.0)||('for', '', '', '', 0.0)||('pharyngitis', 'noun', 'C0031350', ['dsyn'], 0.0)||(',', '', '', '', 0.0)||('only', '', '', '', 0.0)||('the', '', '', '', 0.0)||('walsh', '', '', '', 0.0)||('diagnostic', 'adj', 'C0011900', ['fndg'], 0.0)||('algorithm', 'noun', 'C0002045', ['inpr'], 0.0)||('explicitly', '', '', '', 0.0)||('includes', 'verb', 'C0332257', ['ftcn'], 0.0)||('a', '', '', '', 0.0)||('history', 'noun', 'C0019664', ['ocdi'], 0.0)||('of', '', '', '', 0.0)||('streptococcal', 'adj', 'C0038402', ['bact'], 0.0)||('exposure', 'noun', 'C0332157', ['clna'], 0.0)||('.', '', '', '', 0.0)||
('in', '', '', '', 0.0)||('that', '', '', '', 0.0)||('algorithm', 'noun', 'C0002045', ['inpr'], 0.0)||(',', '', '', '', 0.0)||('only', '', '', '', 0.0)||('patients', 'noun', 'C0030705', ['podg'], 0.0)||('with', '', '', '', 0.0)||('tender', 'noun', 'C0234234', ['qlco'], 0.0)||('or', '', '', '', 0.0)||('enlarged', 'adj', 'C0442800', ['qlco'], 0.0)||('cervical lymph nodes', 'noun', 'C0588054', ['bpoc'], 0.0)||('who', '', '', '', 0.0)||('either', '', '', '', 0.0)||('had', '', '', '', 0.0)||('exudative', 'adj', 'C0311438', ['ftcn'], 0.0)||('pharyngitis', 'noun', 'C0031350', ['dsyn'], 0.0)||('or', '', '', '', 0.0)||('a', '', '', '', 0.0)||('recent', 'adj', 'C0332185', ['tmco'], 0.0)||('exposure', 'noun', 'C0332157', ['clna'], 0.0)||('were', '', '', '', 0.0)||('in', '', '', '', 0.0)||('the', '', '', '', 0.0)||('highest risk', '', '', '', 0.0)||('category', 'noun', 'C0683312', ['inpr'], 0.0)||('(', '', '', '', 0.0)||('23 %', '', '', '', 0.0)||('prevalence', 'noun', 'C0033105', ['qnco'], 0.0)||('of', '', '', '', 0.0)||('gabhs', '', '', '', 0.0)||(')', '', '', '', 0.0)||('.', '', '', '', 0.0)||
