('papanicolaou smears', '', '', '', 0.0)||('obtained', 'verb', 'C1301820', ['ftcn'], 0.0)||('using', 'verb', 'C1524063', ['ftcn'], 0.0)||('cytobrush', '', '', '', 0.0)||('or', '', '', '', 0.0)||('cotton', 'noun', 'C0010196', ['plnt'], 0.0)||('swabs', 'noun', 'C1261188', ['medd'], 0.0)||('were', '', '', '', 0.0)||('compared', 'verb', 'C1707455', ['acty'], 0.0)||('in', '', '', '', 0.0)||('222', '', '', '', 0.0)||('pregnant', 'adj', 'C0549206', ['fndg'], 0.0)||('women', 'noun', 'C0043210', ['popg'], 0.0)||('.', '', '', '', 0.0)||
('there', '', '', '', 0.0)||('were', '', '', '', 0.0)||('no', '', '', '', 0.0)||('complications', 'noun', 'C0009566', ['patf'], 0.0)||('attributable', 'adj', 'C0596130', ['menp'], 0.0)||('to', '', '', '', 0.0)||('the', '', '', '', 0.0)||('cytobrush', '', '', '', 0.0)||('.', '', '', '', 0.0)||
('endocervical', 'adj', 'C0227837', ['bpoc'], 0.0)||('cell', 'noun', 'C0007634', ['cell'], 0.0)||('yields', '', '', '', 0.0)||('obtained', 'verb', 'C1301820', ['ftcn'], 0.0)||('with', '', '', '', 0.0)||('the', '', '', '', 0.0)||('brush', 'noun', 'C0179445', ['mnob'], 0.0)||('were', '', '', '', 0.0)||('70 . 9 %', '', '', '', 0.0)||('compared', 'verb', 'C1707455', ['acty'], 0.0)||('to', '', '', '', 0.0)||('41 . 9 %', '', '', '', 0.0)||('with', '', '', '', 0.0)||('the', '', '', '', 0.0)||('swab', 'noun', 'C0183753', ['sbst'], 0.0)||('(', '', '', '', 0.0)||('p', '', '', '', 0.0)||('=', '', '', '', 0.0)||('.', '', '', '', 0.0)||('0001', '', '', '', 0.0)||(')', '', '', '', 0.0)||('.', '', '', '', 0.0)||
('there', '', '', '', 0.0)||('was', '', '', '', 0.0)||('no', '', '', '', 0.0)||('difference', 'noun', 'C1705242', ['qlco'], 0.0)||('between', '', '', '', 0.0)||('use', 'noun', 'C0042153', ['ftcn'], 0.0)||('of', '', '', '', 0.0)||('the', '', '', '', 0.0)||('swab', 'noun', 'C0183753', ['sbst'], 0.0)||('and', '', '', '', 0.0)||('the', '', '', '', 0.0)||('brush', 'noun', 'C0179445', ['mnob'], 0.0)||('in', '', '', '', 0.0)||('the', '', '', '', 0.0)||('prevalence', 'noun', 'C0033105', ['qnco'], 0.0)||('of', '', '', '', 0.0)||('dysplasia', 'noun', 'C0334044', ['neop'], 0.0)||('(', '', '', '', 0.0)||('19', '', '', '', 0.0)||('cases', 'noun', 'C0868928', ['ftcn'], 0.0)||(')', '', '', '', 0.0)||('nor', '', '', '', 0.0)||('was', '', '', '', 0.0)||('there', '', '', '', 0.0)||('any', '', '', '', 0.0)||('difference', 'noun', 'C1705242', ['qlco'], 0.0)||('in', '', '', '', 0.0)||('the', '', '', '', 0.0)||('prevalence', 'noun', 'C0033105', ['qnco'], 0.0)||('of', '', '', '', 0.0)||('dysplasia', 'noun', 'C0334044', ['neop'], 0.0)||('in', '', '', '', 0.0)||('the', '', '', '', 0.0)||('smears', '', '', '', 0.0)||('that', '', '', '', 0.0)||('contained', 'adj', 'C2700400', ['acty'], 0.0)||('endocervical', 'adj', 'C0227837', ['bpoc'], 0.0)||('and / or', '', '', '', 0.0)||('metaplastic', 'adj', 'C0334023', ['ftcn'], 0.0)||('cells', 'noun', 'C0007634', ['cell'], 0.0)||('(', '', '', '', 0.0)||('17 / 181', '', '', '', 0.0)||('=', '', '', '', 0.0)||('8 . 6 %', '', '', '', 0.0)||(')', '', '', '', 0.0)||('compared', 'verb', 'C1707455', ['acty'], 0.0)||('to', '', '', '', 0.0)||('those', '', '', '', 0.0)||('not', 'adv', 'C1518422', ['ftcn'], 0.0)||('containing', 'verb', 'C0332256', ['ftcn'], 0.0)||('these', '', '', '', 0.0)||('cell types', 'noun', 'C0007634', ['cell'], 0.0)||('(', '', '', '', 0.0)||('2 / 24', '', '', '', 0.0)||('=', '', '', '', 0.0)||('8 . 3 %', '', '', '', 0.0)||(')', '', '', '', 0.0)||('.', '', '', '', 0.0)||
('this', '', '', '', 0.0)||('study', 'noun', 'C0008976', ['resa'], 0.0)||('suggests', '', '', '', 0.0)||('that', '', '', '', 0.0)||('use', 'noun', 'C0042153', ['ftcn'], 0.0)||('of', '', '', '', 0.0)||('the', '', '', '', 0.0)||('cytobrush', '', '', '', 0.0)||('in', '', '', '', 0.0)||('pregnancy', 'noun', 'C0032961', ['orgf'], 0.0)||('warrants', '', '', '', 0.0)||('further', 'adv', 'C1517331', ['spco'], 0.0)||('study', 'verb', 'C0008976', ['resa'], 0.0)||('because of', '', '', '', 0.0)||('the', '', '', '', 0.0)||('frequency', 'noun', 'C0376249', ['qnco'], 0.0)||('with', '', '', '', 0.0)||('which', '', '', '', 0.0)||('smears', '', '', '', 0.0)||('are', '', '', '', 0.0)||('reported', 'verb', 'C0684224', ['inpr'], 0.0)||('as', '', '', '', 0.0)||('inadequate', 'adj', 'C0205412', ['qlco'], 0.0)||('because', '', '', '', 0.0)||('they', '', '', '', 0.0)||('lack', 'verb', 'C0332268', ['qlco'], 0.0)||('endocervical', 'adj', 'C0227837', ['bpoc'], 0.0)||('and / or', '', '', '', 0.0)||('metaplastic', 'adj', 'C0334023', ['ftcn'], 0.0)||('cells', 'noun', 'C0007634', ['cell'], 0.0)||('.', '', '', '', 0.0)||
