('to', '', '', '', 0.0)||('evaluate', 'verb', 'C0220825', ['ftcn'], 0.0)||('and', '', '', '', 0.0)||('compare', 'verb', 'C1707455', ['acty'], 0.0)||('the', '', '', '', 0.0)||('safety', 'noun', 'C0036043', ['hcpp'], 0.0)||(',', '', '', '', 0.0)||('efficacy', 'noun', 'C1707887', ['resa'], 0.0)||('and', '', '', '', 0.0)||('cost', 'noun', 'C0010186', ['qnco'], 0.0)||('of', '', '', '', 0.0)||('three', '', 'C0205449', ['qnco'], 0.0)||('cervical', 'adj', 'C0205064', ['spco'], 0.0)||('cytology', 'noun', 'C0010818', ['lbpr'], 0.0)||('sampling', 'adj', 'C0441621', ['diap'], 0.0)||('devices', 'noun', 'C0025080', ['medd'], 0.0)||('in', '', '', '', 0.0)||('pregnant', 'adj', 'C0549206', ['fndg'], 0.0)||('women', 'noun', 'C0043210', ['popg'], 0.0)||('presenting', 'verb', 'C0449450', ['idcn'], 0.0)||('for', '', '', '', 0.0)||('prenatal care', 'noun', 'C0033052', ['hlca'], 0.0)||('to', '', '', '', 0.0)||('the', '', '', '', 0.0)||('obstetrics', 'noun', 'C0028773', ['bmod'], 0.0)||('clinic', 'noun', 'C0002424', ['hcro', 'mnob'], 0.0)||(',', '', '', '', 0.0)||('at', '', '', '', 0.0)||('medical', 'adj', 'C0205476', ['ftcn'], 0.0)||('college', 'noun', 'C0557806', ['mnob'], 0.0)||('of', '', '', '', 0.0)||('pennsylvania', 'noun', 'C0030853', ['geoa'], 0.0)||('hospital', 'noun', 'C0019994', ['hcro', 'mnob'], 0.0)||('.', '', '', '', 0.0)||
('from', '', '', '', 0.0)||('september', '', '', '', 0.0)||('7', '', '', '', 0.0)||(',', '', '', '', 0.0)||('1993', '', '', '', 0.0)||(',', '', '', '', 0.0)||('to', '', '', '', 0.0)||('november', '', '', '', 0.0)||('5', '', '', '', 0.0)||(',', '', '', '', 0.0)||('1993', '', '', '', 0.0)||(',', '', '', '', 0.0)||('61', '', '', '', 0.0)||('cervical', 'adj', 'C0205064', ['spco'], 0.0)||('cytologic', 'adj', 'C0205471', ['ftcn'], 0.0)||('smears', '', '', '', 0.0)||('were', '', '', '', 0.0)||('obtained', 'verb', 'C1301820', ['ftcn'], 0.0)||('using', 'verb', 'C1524063', ['ftcn'], 0.0)||('the', '', '', '', 0.0)||('cell', 'noun', 'C0007634', ['cell'], 0.0)||('-', '', '', '', 0.0)||('sweep', 'noun', 'C2348625', ['acty'], 0.0)||('.', '', '', '', 0.0)||
('from', '', '', '', 0.0)||('november', '', '', '', 0.0)||('8', '', '', '', 0.0)||(',', '', '', '', 0.0)||('1993', '', '', '', 0.0)||(',', '', '', '', 0.0)||('to', '', '', '', 0.0)||('january', '', '', '', 0.0)||('7', '', '', '', 0.0)||(',', '', '', '', 0.0)||('1994', '', '', '', 0.0)||(',', '', '', '', 0.0)||('66', '', '', '', 0.0)||('smears', '', '', '', 0.0)||('were', '', '', '', 0.0)||('obtained', 'verb', 'C1301820', ['ftcn'], 0.0)||('using', 'verb', 'C1524063', ['ftcn'], 0.0)||('the', '', '', '', 0.0)||('ayre spatula', '', '', '', 0.0)||('/', '', '', '', 0.0)||('cytobrush', '', '', '', 0.0)||(',', '', '', '', 0.0)||('and', '', '', '', 0.0)||('from', '', '', '', 0.0)||('january', '', '', '', 0.0)||('10', '', '', '', 0.0)||(',', '', '', '', 0.0)||('1994', '', '', '', 0.0)||(',', '', '', '', 0.0)||('to', '', '', '', 0.0)||('february', '', '', '', 0.0)||('18', '', '', '', 0.0)||(',', '', '', '', 0.0)||('1994', '', '', '', 0.0)||(',', '', '', '', 0.0)||('55', '', '', '', 0.0)||('smears', '', '', '', 0.0)||('were', '', '', '', 0.0)||('obtained', 'verb', 'C1301820', ['ftcn'], 0.0)||('using', 'verb', 'C1524063', ['ftcn'], 0.0)||('the', '', '', '', 0.0)||('ayre spatula', '', '', '', 0.0)||('/', '', '', '', 0.0)||('cotton', 'noun', 'C0010196', ['plnt'], 0.0)||('swab', 'noun', 'C0183753', ['sbst'], 0.0)||('.', '', '', '', 0.0)||
('the', '', '', '', 0.0)||('rate', 'noun', 'C0871208', ['acty'], 0.0)||('of', '', '', '', 0.0)||('smears', '', '', '', 0.0)||('with', '', '', '', 0.0)||('no', '', '', '', 0.0)||('endocervical', 'adj', 'C0227837', ['bpoc'], 0.0)||('component', 'noun', 'C0449432', ['mnob'], 0.0)||('or', '', '', '', 0.0)||('with', '', '', '', 0.0)||('epithelial cell', '', '', '', 0.0)||('abnormality', 'noun', 'C0000768', ['cgab'], 0.0)||('was', '', '', '', 0.0)||('determined', '', '', '', 0.0)||('for', '', '', '', 0.0)||('each', '', '', '', 0.0)||('group', 'noun', 'C0441833', ['idcn'], 0.0)||('.', '', '', '', 0.0)||
('the', '', '', '', 0.0)||('patients', 'noun', 'C0030705', ['podg'], 0.0)||("'", '', '', '', 0.0)||('medical records', 'noun', 'C0025102', ['inpr'], 0.0)||('were', '', '', '', 0.0)||('reviewed', 'verb', 'C1709940', ['qlco'], 0.0)||('retrospectively', '', '', '', 0.0)||('to', '', '', '', 0.0)||('determine', '', '', '', 0.0)||('complications', 'noun', 'C0009566', ['patf'], 0.0)||('occurring', '', '', '', 0.0)||('within', '', '', '', 0.0)||('two', 'adj', 'C0205448', ['qnco'], 0.0)||('weeks', 'noun', 'C0439230', ['tmco'], 0.0)||('of', '', '', '', 0.0)||('smear', 'noun', 'C0444186', ['diap'], 0.0)||('collection', 'noun', 'C1516698', ['ftcn'], 0.0)||('.', '', '', '', 0.0)||
('fifteen', '', '', '', 0.0)||('(', '', '', '', 0.0)||('25 %', '', '', '', 0.0)||(')', '', '', '', 0.0)||('smears', '', '', '', 0.0)||('in', '', '', '', 0.0)||('the', '', '', '', 0.0)||('cell', 'noun', 'C0007634', ['cell'], 0.0)||('-', '', '', '', 0.0)||('sweep', 'noun', 'C2348625', ['acty'], 0.0)||('group', 'noun', 'C0441833', ['idcn'], 0.0)||(',', '', '', '', 0.0)||('one', 'noun', 'C0205447', ['qnco'], 0.0)||('(', '', '', '', 0.0)||('1 . 5 %', '', '', '', 0.0)||(')', '', '', '', 0.0)||('in', '', '', '', 0.0)||('the', '', '', '', 0.0)||('cytobrush', '', '', '', 0.0)||('group', 'noun', 'C0441833', ['idcn'], 0.0)||('and', '', '', '', 0.0)||('nine', '', 'C0205455', ['qnco'], 0.0)||('(', '', '', '', 0.0)||('16 %', '', '', '', 0.0)||(')', '', '', '', 0.0)||('in', '', '', '', 0.0)||('the', '', '', '', 0.0)||('cotton', 'noun', 'C0010196', ['plnt'], 0.0)||('swab', 'noun', 'C0183753', ['sbst'], 0.0)||('group', 'noun', 'C0441833', ['idcn'], 0.0)||('were', '', '', '', 0.0)||('satisfactory', 'adj', 'C1547307', ['inpr'], 0.0)||('but', '', '', '', 0.0)||('limited', 'verb', 'C0439801', ['ftcn'], 0.0)||('by', '', '', '', 0.0)||('absence', 'noun', 'C1689985', ['anab'], 0.0)||('of', '', '', '', 0.0)||('an', '', '', '', 0.0)||('endocervical', 'adj', 'C0227837', ['bpoc'], 0.0)||('component', 'noun', 'C0449432', ['mnob'], 0.0)||('(', '', '', '', 0.0)||('p', '', '', '', 0.0)||('<', '', '', '', 0.0)||('.', '', '', '', 0.0)||('0006', '', '', '', 0.0)||(')', '', '', '', 0.0)||('.', '', '', '', 0.0)||
('none', 'noun', 'C0549184', ['qnco'], 0.0)||('of', '', '', '', 0.0)||('the', '', '', '', 0.0)||('smears', '', '', '', 0.0)||('were', '', '', '', 0.0)||('unsatisfactory', 'adj', 'C0439856', ['qlco'], 0.0)||('.', '', '', '', 0.0)||
('eleven', '', 'C0205457', ['inpr', 'qnco'], 0.0)||('(', '', '', '', 0.0)||('18 %', '', '', '', 0.0)||(')', '', '', '', 0.0)||('smears', '', '', '', 0.0)||('in', '', '', '', 0.0)||('the', '', '', '', 0.0)||('cell', 'noun', 'C0007634', ['cell'], 0.0)||('-', '', '', '', 0.0)||('sweep', 'noun', 'C2348625', ['acty'], 0.0)||('group', 'noun', 'C0441833', ['idcn'], 0.0)||(',', '', '', '', 0.0)||('eight', '', 'C0205454', ['qnco'], 0.0)||('(', '', '', '', 0.0)||('12 %', '', '', '', 0.0)||(')', '', '', '', 0.0)||('in', '', '', '', 0.0)||('the', '', '', '', 0.0)||('cytobrush', '', '', '', 0.0)||('group', 'noun', 'C0441833', ['idcn'], 0.0)||('and', '', '', '', 0.0)||('nine', '', 'C0205455', ['qnco'], 0.0)||('(', '', '', '', 0.0)||('16 %', '', '', '', 0.0)||(')', '', '', '', 0.0)||('in', '', '', '', 0.0)||('the', '', '', '', 0.0)||('cotton', 'noun', 'C0010196', ['plnt'], 0.0)||('swab', 'noun', 'C0183753', ['sbst'], 0.0)||('group', 'noun', 'C0441833', ['idcn'], 0.0)||('revealed', 'verb', 'C0443289', ['qlco'], 0.0)||('an', '', '', '', 0.0)||('epithelial cell', '', '', '', 0.0)||('abnormality', 'noun', 'C0000768', ['cgab'], 0.0)||('(', '', '', '', 0.0)||('p', '', '', '', 0.0)||('=', '', '', '', 0.0)||('.', '', '', '', 0.0)||('643', '', '', '', 0.0)||(')', '', '', '', 0.0)||('.', '', '', '', 0.0)||
('for', '', '', '', 0.0)||('all', '', '', '', 0.0)||('three', '', 'C0205449', ['qnco'], 0.0)||('groups', 'noun', 'C0441833', ['idcn'], 0.0)||('there', '', '', '', 0.0)||('was', '', '', '', 0.0)||('a', '', '', '', 0.0)||('low', 'adj', 'C0205251', ['qlco'], 0.0)||('rate', 'noun', 'C0871208', ['acty'], 0.0)||('of', '', '', '', 0.0)||('spontaneous abortion', 'noun', 'C0000786', ['dsyn'], 0.0)||(',', '', '', '', 0.0)||('preterm', '', '', '', 0.0)||('spontaneous rupture', '', '', '', 0.0)||('of', '', '', '', 0.0)||('membranes', 'noun', 'C0025255', ['tisu'], 0.0)||('or', '', '', '', 0.0)||('preterm', '', '', '', 0.0)||('labor', 'noun', 'C0022864', ['orgf'], 0.0)||('occurring', '', '', '', 0.0)||('within', '', '', '', 0.0)||('two', 'adj', 'C0205448', ['qnco'], 0.0)||('weeks', 'noun', 'C0439230', ['tmco'], 0.0)||('of', '', '', '', 0.0)||('collection', 'noun', 'C1516698', ['ftcn'], 0.0)||('.', '', '', '', 0.0)||
('there', '', '', '', 0.0)||('was', '', '', '', 0.0)||('no', '', '', '', 0.0)||('statistically significant', 'adj', 'C0237881', ['qnco'], 0.0)||('difference', 'noun', 'C1705242', ['qlco'], 0.0)||('in', '', '', '', 0.0)||('these', '', '', '', 0.0)||('complications', 'noun', 'C0009566', ['patf'], 0.0)||('between', '', '', '', 0.0)||('the', '', '', '', 0.0)||('three', '', 'C0205449', ['qnco'], 0.0)||('groups', 'noun', 'C0441833', ['idcn'], 0.0)||('(', '', '', '', 0.0)||('p', '', '', '', 0.0)||('=', '', '', '', 0.0)||('.', '', '', '', 0.0)||('7', '', '', '', 0.0)||(')', '', '', '', 0.0)||('.', '', '', '', 0.0)||
('the', '', '', '', 0.0)||('ayre spatula', '', '', '', 0.0)||('/', '', '', '', 0.0)||('cotton', 'noun', 'C0010196', ['plnt'], 0.0)||('swab', 'noun', 'C0183753', ['sbst'], 0.0)||('is', '', '', '', 0.0)||('the', '', '', '', 0.0)||('least', '', '', '', 0.0)||('expensive', '', '', '', 0.0)||('device', 'noun', 'C0025080', ['medd'], 0.0)||('.', '', '', '', 0.0)||
('the', '', '', '', 0.0)||('ayre spatula', '', '', '', 0.0)||('/', '', '', '', 0.0)||('cotton', 'noun', 'C0010196', ['plnt'], 0.0)||('swab', 'noun', 'C0183753', ['sbst'], 0.0)||('was', '', '', '', 0.0)||('the', '', '', '', 0.0)||('most', '', '', '', 0.0)||('satisfactory', 'adj', 'C1547307', ['inpr'], 0.0)||('of', '', '', '', 0.0)||('the', '', '', '', 0.0)||('three', '', 'C0205449', ['qnco'], 0.0)||('methods', 'noun', 'C0025663', ['inpr'], 0.0)||('tested', '', '', '', 0.0)||('for', '', '', '', 0.0)||('obtaining', 'noun', 'C1301820', ['ftcn'], 0.0)||('cervical', 'adj', 'C0205064', ['spco'], 0.0)||('cytology', 'noun', 'C0010818', ['lbpr'], 0.0)||('during', '', '', '', 0.0)||('pregnancy', 'noun', 'C0032961', ['orgf'], 0.0)||('.', '', '', '', 0.0)||
('it', '', '', '', 0.0)||('is', '', '', '', 0.0)||('safe', '', '', '', 0.0)||('and', '', '', '', 0.0)||('cost - effective', '', '', '', 0.0)||('and', '', '', '', 0.0)||('identifies', '', '', '', 0.0)||('the', '', '', '', 0.0)||('same', 'adj', 'C0445247', ['qlco'], 0.0)||('proportion', 'noun', 'C1709707', ['qnco'], 0.0)||('of', '', '', '', 0.0)||('epithelial cell', '', '', '', 0.0)||('abnormalities', 'noun', 'C0000768', ['cgab'], 0.0)||('as', '', '', '', 0.0)||('the', '', '', '', 0.0)||('ayre spatula', '', '', '', 0.0)||('/', '', '', '', 0.0)||('cytobrush', '', '', '', 0.0)||('and', '', '', '', 0.0)||('the', '', '', '', 0.0)||('cell', 'noun', 'C0007634', ['cell'], 0.0)||('-', '', '', '', 0.0)||('sweep', 'noun', 'C2348625', ['acty'], 0.0)||('.', '', '', '', 0.0)||
