('in', '', '', '', 0.0)||('severe', 'adj', 'C0205082', ['qlco'], 0.0)||('heart failure', 'noun', 'C0018801', ['dsyn'], 0.0)||('many', '', '', '', 0.0)||('deaths', 'noun', 'C1306577', ['fndg'], 0.0)||('are', '', '', '', 0.0)||('sudden', 'adj', 'C1276802', ['qlco'], 0.0)||('and', '', '', '', 0.0)||('are', '', '', '', 0.0)||('presumed', '', '', '', 0.0)||('to', '', '', '', 0.0)||('be', '', '', '', 0.0)||('due to', '', '', '', 0.0)||('ventricular', 'adj', 'C0018827', ['bpoc'], 0.0)||('arrhythmias', 'noun', 'C0003811', ['patf'], 0.0)||('.', '', '', '', 0.0)||
('the', '', '', '', 0.0)||('gesica', '', '', '', 0.0)||('trial', 'noun', 'C0008976', ['resa'], 0.0)||('evaluated', 'verb', 'C0220825', ['ftcn'], 0.0)||('the', '', '', '', 0.0)||('effect', 'noun', 'C1280500', ['qlco'], 0.0)||('of', '', '', '', 0.0)||('low - dose', '', '', '', 0.0)||('amiodarone', 'noun', 'C0002598', ['orch', 'phsu'], 0.0)||('on', '', '', '', 0.0)||('two - year', '', '', '', 0.0)||('mortality', 'noun', 'C0026565', ['qnco'], 0.0)||('in', '', '', '', 0.0)||('patients', 'noun', 'C0030705', ['podg'], 0.0)||('with', '', '', '', 0.0)||('severe', 'adj', 'C0205082', ['qlco'], 0.0)||('heart failure', 'noun', 'C0018801', ['dsyn'], 0.0)||('.', '', '', '', 0.0)||
('our', '', '', '', 0.0)||('prospective', 'adj', 'C0023981', ['resa'], 0.0)||('multicentre', '', '', '', 0.0)||('trial', 'noun', 'C0008976', ['resa'], 0.0)||('included', '', '', '', 0.0)||('516', '', '', '', 0.0)||('patients', 'noun', 'C0030705', ['podg'], 0.0)||('on', '', '', '', 0.0)||('optimal', 'adj', 'C2698651', ['qlco'], 0.0)||('standard', 'adj', 'C1442989', ['ftcn'], 0.0)||('treatment', 'noun', 'C0039798', ['ftcn'], 0.0)||('for', '', '', '', 0.0)||('heart failure', 'noun', 'C0018801', ['dsyn'], 0.0)||('.', '', '', '', 0.0)||
('patients', 'noun', 'C0030705', ['podg'], 0.0)||('were', '', '', '', 0.0)||('randomised', '', '', '', 0.0)||('to', '', '', '', 0.0)||('300', '', '', '', 0.0)||('mg', '', '', '', 0.0)||('/', '', '', '', 0.0)||('day', 'noun', 'C0439228', ['tmco'], 0.0)||('amiodarone', 'noun', 'C0002598', ['orch', 'phsu'], 0.0)||('(', '', '', '', 0.0)||('260', '', '', '', 0.0)||(')', '', '', '', 0.0)||('or', '', '', '', 0.0)||('to', '', '', '', 0.0)||('standard', 'adj', 'C1442989', ['ftcn'], 0.0)||('treatment', 'noun', 'C0039798', ['ftcn'], 0.0)||('(', '', '', '', 0.0)||('256', '', '', '', 0.0)||(')', '', '', '', 0.0)||('.', '', '', '', 0.0)||
('intention', 'noun', 'C0162425', ['menp'], 0.0)||('-', '', '', '', 0.0)||('to', '', '', '', 0.0)||('-', '', '', '', 0.0)||('treat', 'verb', 'C1292734', ['ftcn'], 0.0)||('analysis', 'noun', 'C0002778', ['lbpr'], 0.0)||('showed', '', '', '', 0.0)||('87', '', '', '', 0.0)||('deaths', 'noun', 'C1306577', ['fndg'], 0.0)||('in', '', '', '', 0.0)||('the', '', '', '', 0.0)||('amiodarone', 'noun', 'C0002598', ['orch', 'phsu'], 0.0)||('group', 'noun', 'C0441833', ['idcn'], 0.0)||('(', '', '', '', 0.0)||('33 . 5 %', '', '', '', 0.0)||(')', '', '', '', 0.0)||('compared', 'verb', 'C1707455', ['acty'], 0.0)||('with', '', '', '', 0.0)||('106', '', '', '', 0.0)||('in', '', '', '', 0.0)||('the', '', '', '', 0.0)||('control group', 'noun', 'C0009932', ['grup'], 0.0)||('(', '', '', '', 0.0)||('41 . 4 %', '', '', '', 0.0)||(')', '', '', '', 0.0)||('(', '', '', '', 0.0)||('risk', 'noun', 'C0035647', ['qlco'], 0.0)||('reduction', 'noun', 'C0301630', ['npop'], 0.0)||('28 %', '', '', '', 0.0)||(';', '', '', '', 0.0)||('95 %', '', '', '', 0.0)||('ci', 'noun', 'C1417638', ['gngm'], 0.0)||('4 %', '', '', '', 0.0)||('-', '', '', '', 0.0)||('45 %', '', '', '', 0.0)||(';', '', '', '', 0.0)||('log rank test', '', '', '', 0.0)||('p', '', '', '', 0.0)||('=', '', '', '', 0.0)||('0 . 024', '', '', '', 0.0)||(')', '', '', '', 0.0)||('.', '', '', '', 0.0)||
('there', '', '', '', 0.0)||('were', '', '', '', 0.0)||('reductions', '', '', '', 0.0)||('in', '', '', '', 0.0)||('both', '', '', '', 0.0)||('sudden death', 'noun', 'C0011071', ['patf'], 0.0)||('(', '', '', '', 0.0)||('risk', 'noun', 'C0035647', ['qlco'], 0.0)||('reduction', 'noun', 'C0301630', ['npop'], 0.0)||('27 %', '', '', '', 0.0)||(';', '', '', '', 0.0)||('p', '', '', '', 0.0)||('=', '', '', '', 0.0)||('0 . 16', '', '', '', 0.0)||(')', '', '', '', 0.0)||('and', '', '', '', 0.0)||('death', 'noun', 'C0011065', ['orgf'], 0.0)||('due to', '', '', '', 0.0)||('progressive', 'adj', 'C0205329', ['ftcn'], 0.0)||('heart failure', 'noun', 'C0018801', ['dsyn'], 0.0)||('(', '', '', '', 0.0)||('risk', 'noun', 'C0035647', ['qlco'], 0.0)||('reduction', 'noun', 'C0301630', ['npop'], 0.0)||('23 %', '', '', '', 0.0)||(';', '', '', '', 0.0)||('p', '', '', '', 0.0)||('=', '', '', '', 0.0)||('0 . 16', '', '', '', 0.0)||(')', '', '', '', 0.0)||('.', '', '', '', 0.0)||
('fewer', '', '', '', 0.0)||('patients', 'noun', 'C0030705', ['podg'], 0.0)||('in', '', '', '', 0.0)||('the', '', '', '', 0.0)||('amiodarone', 'noun', 'C0002598', ['orch', 'phsu'], 0.0)||('group', 'noun', 'C0441833', ['idcn'], 0.0)||('died', 'verb', 'C1306577', ['fndg'], 0.0)||('or', '', '', '', 0.0)||('were', '', '', '', 0.0)||('admitted', '', '', '', 0.0)||('to', '', '', '', 0.0)||('hospital', 'noun', 'C0019994', ['hcro', 'mnob'], 0.0)||('due to', '', '', '', 0.0)||('worsening', 'adj', 'C0332271', ['qlco'], 0.0)||('heart failure', 'noun', 'C0018801', ['dsyn'], 0.0)||('(', '', '', '', 0.0)||('119', '', '', '', 0.0)||('versus', '', '', '', 0.0)||('149', '', '', '', 0.0)||('in', '', '', '', 0.0)||('the', '', '', '', 0.0)||('control group', 'noun', 'C0009932', ['grup'], 0.0)||(';', '', '', '', 0.0)||('risk', 'noun', 'C0035647', ['qlco'], 0.0)||('reduction', 'noun', 'C0301630', ['npop'], 0.0)||('31 %', '', '', '', 0.0)||(';', '', '', '', 0.0)||('95 %', '', '', '', 0.0)||('ci', 'noun', 'C1417638', ['gngm'], 0.0)||('13', '', '', '', 0.0)||('-', '', '', '', 0.0)||('46 %', '', '', '', 0.0)||(';', '', '', '', 0.0)||('p', '', '', '', 0.0)||('=', '', '', '', 0.0)||('0 . 0024', '', '', '', 0.0)||(')', '', '', '', 0.0)||('.', '', '', '', 0.0)||
('the', '', '', '', 0.0)||('decrease', 'noun', 'C0392756', ['qlco'], 0.0)||('in', '', '', '', 0.0)||('mortality', 'noun', 'C0026565', ['qnco'], 0.0)||('and', '', '', '', 0.0)||('hospital admission', 'noun', 'C0184666', ['hlca'], 0.0)||('was', '', '', '', 0.0)||('present', 'adj', 'C0150312', ['qnco'], 0.0)||('in', '', '', '', 0.0)||('all', '', '', '', 0.0)||('subgroups', '', '', '', 0.0)||('examined', 'verb', 'C0332128', ['fndg'], 0.0)||('and', '', '', '', 0.0)||('independent of', '', '', '', 0.0)||('the', '', '', '', 0.0)||('presence', 'noun', 'C0392148', ['topp'], 0.0)||('of', '', '', '', 0.0)||('non - sustained ventricular tachycardia', '', '', '', 0.0)||('.', '', '', '', 0.0)||
('side - effects', '', '', '', 0.0)||('were', '', '', '', 0.0)||('reported', 'verb', 'C0684224', ['inpr'], 0.0)||('in', '', '', '', 0.0)||('17', '', '', '', 0.0)||('patients', 'noun', 'C0030705', ['podg'], 0.0)||('(', '', '', '', 0.0)||('6 . 1 %', '', '', '', 0.0)||(')', '', '', '', 0.0)||(';', '', '', '', 0.0)||
('amiodarone', 'noun', 'C0002598', ['orch', 'phsu'], 0.0)||('was', '', '', '', 0.0)||('withdrawn', 'verb', 'C0237955', ['menp'], 0.0)||('in', '', '', '', 0.0)||('12', '', '', '', 0.0)||('.', '', '', '', 0.0)||
('low - dose', '', '', '', 0.0)||('amiodarone', 'noun', 'C0002598', ['orch', 'phsu'], 0.0)||('proved', '', '', '', 0.0)||('to', '', '', '', 0.0)||('be', '', '', '', 0.0)||('an', '', '', '', 0.0)||('effective', 'adj', 'C1704419', ['qlco'], 0.0)||('and', '', '', '', 0.0)||('reliable', '', '', '', 0.0)||('treatment', 'noun', 'C0039798', ['ftcn'], 0.0)||(',', '', '', '', 0.0)||('reducing', 'verb', 'C0392756', ['qlco'], 0.0)||('mortality', 'noun', 'C0026565', ['qnco'], 0.0)||('and', '', '', '', 0.0)||('hospital admission', 'noun', 'C0184666', ['hlca'], 0.0)||('in', '', '', '', 0.0)||('patients', 'noun', 'C0030705', ['podg'], 0.0)||('with', '', '', '', 0.0)||('severe', 'adj', 'C0205082', ['qlco'], 0.0)||('heart failure', 'noun', 'C0018801', ['dsyn'], 0.0)||('independently of', '', '', '', 0.0)||('the', '', '', '', 0.0)||('presence', 'noun', 'C0392148', ['topp'], 0.0)||('of', '', '', '', 0.0)||('complex', 'adj', 'C0439855', ['qlco'], 0.0)||('ventricular', 'adj', 'C0018827', ['bpoc'], 0.0)||('arrhythmias', 'noun', 'C0003811', ['patf'], 0.0)||('.', '', '', '', 0.0)||
