('the', '', '', '', 0.0)||('national institute of mental health', 'noun', 'C0027466', ['hcro'], 0.0)||('collaborative', 'adj', 'C0282116', ['acty'], 0.0)||('multisite', '', '', '', 0.0)||('multimodal', '', '', '', 0.0)||('treatment', 'noun', 'C0039798', ['ftcn'], 0.0)||('study', 'noun', 'C0008976', ['resa'], 0.0)||('of', '', '', '', 0.0)||('children', 'noun', 'C0008059', ['aggp'], 0.0)||('with', '', '', '', 0.0)||('attention deficit / hyperactivity disorder', '', '', '', 0.0)||('(', '', '', '', 0.0)||('known', 'verb', 'C0205309', ['qlco'], 0.0)||('as', '', '', '', 0.0)||('the', '', '', '', 0.0)||('mta', 'noun', 'C0210657', ['orch', 'phsu'], 0.0)||('study', 'noun', 'C0008976', ['resa'], 0.0)||(')', '', '', '', 0.0)||('is', '', '', '', 0.0)||('the', '', '', '', 0.0)||('longest', 'adj', 'C1522425', ['qlco'], 0.0)||('treatment', 'noun', 'C0039798', ['ftcn'], 0.0)||('study', 'noun', 'C0008976', ['resa'], 0.0)||('of', '', '', '', 0.0)||('children', 'noun', 'C0008059', ['aggp'], 0.0)||('to', '', '', '', 0.0)||('date', 'noun', 'C0011008', ['tmco'], 0.0)||('.', '', '', '', 0.0)||
('this', '', '', '', 0.0)||('study', 'noun', 'C0008976', ['resa'], 0.0)||('-', '', '', '', 0.0)||('a', '', '', '', 0.0)||('28', '', '', '', 0.0)||('-', '', '', '', 0.0)||('day', 'noun', 'C0439228', ['tmco'], 0.0)||(',', '', '', '', 0.0)||('double - blind', '', '', '', 0.0)||('placebo - controlled', '', '', '', 0.0)||('trial', 'noun', 'C0008976', ['resa'], 0.0)||('-', '', '', '', 0.0)||('enrolled', '', '', '', 0.0)||('children', 'noun', 'C0008059', ['aggp'], 0.0)||('aged', 'verb', 'C0001779', ['orga'], 0.0)||('7', '', '', '', 0.0)||('to', '', '', '', 0.0)||('9', '', '', '', 0.0)||('years', 'noun', 'C0439234', ['tmco'], 0.0)||('with', '', '', '', 0.0)||('adhd', 'noun', 'C1263846', ['mobd'], 0.0)||('and', '', '', '', 0.0)||('compared', 'verb', 'C1707455', ['acty'], 0.0)||('4', '', '', '', 0.0)||('treatment', 'noun', 'C0039798', ['ftcn'], 0.0)||('strategies', 'noun', 'C0679199', ['menp'], 0.0)||('(', '', '', '', 0.0)||('including', '', '', '', 0.0)||('medication', '', '', '', 0.0)||('and', '', '', '', 0.0)||('behavioral', 'adj', 'C0004927', ['inbe'], 0.0)||('interventions', '', '', '', 0.0)||(')', '', '', '', 0.0)||('over', '', '', '', 0.0)||('14', '', '', '', 0.0)||('months', 'noun', 'C0439231', ['tmco'], 0.0)||('.', '', '', '', 0.0)||
('of', '', '', '', 0.0)||('particular', '', '', '', 0.0)||('interest', 'noun', 'C0543488', ['menp'], 0.0)||('was', '', '', '', 0.0)||('the', '', '', '', 0.0)||('dose', 'noun', 'C0178602', ['qnco'], 0.0)||('-', '', '', '', 0.0)||('titration', 'noun', 'C0162621', ['lbpr'], 0.0)||('evaluation', 'noun', 'C0220825', ['ftcn'], 0.0)||('at', '', '', '', 0.0)||('the', '', '', '', 0.0)||('beginning', 'noun', 'C0439659', ['tmco'], 0.0)||('of', '', '', '', 0.0)||('the', '', '', '', 0.0)||('study', 'noun', 'C0008976', ['resa'], 0.0)||('.', '', '', '', 0.0)||
('daily dose', 'noun', 'C2348070', ['qnco'], 0.0)||('-', '', '', '', 0.0)||('switching', '', '', '', 0.0)||('titration', 'noun', 'C0162621', ['lbpr'], 0.0)||('of', '', '', '', 0.0)||('methylphenidate', 'noun', 'C0025810', ['orch', 'phsu'], 0.0)||('was', '', '', '', 0.0)||('used', '', '', '', 0.0)||('to', '', '', '', 0.0)||('identify', '', '', '', 0.0)||('the', '', '', '', 0.0)||('optimal', 'adj', 'C2698651', ['qlco'], 0.0)||('starting dose', '', '', '', 0.0)||('for', '', '', '', 0.0)||('each', '', '', '', 0.0)||('child', 'noun', 'C0008059', ['aggp'], 0.0)||('assigned', 'verb', 'C1516050', ['ftcn'], 0.0)||('to', '', '', '', 0.0)||('receive', 'verb', 'C1514756', ['qlco'], 0.0)||('medication', '', '', '', 0.0)||('.', '', '', '', 0.0)||
('in', '', '', '', 0.0)||('all', '', '', '', 0.0)||(',', '', '', '', 0.0)||('289', '', '', '', 0.0)||('children', 'noun', 'C0008059', ['aggp'], 0.0)||('were', '', '', '', 0.0)||('randomized', 'verb', 'C0034656', ['resa'], 0.0)||('to', '', '', '', 0.0)||('receive', 'verb', 'C1514756', ['qlco'], 0.0)||('methylphenidate', 'noun', 'C0025810', ['orch', 'phsu'], 0.0)||(',', '', '', '', 0.0)||('and', '', '', '', 0.0)||('256', '', '', '', 0.0)||('completed', 'verb', 'C0205197', ['qlco'], 0.0)||('the', '', '', '', 0.0)||('titration', 'noun', 'C0162621', ['lbpr'], 0.0)||('(', '', '', '', 0.0)||('17', '', '', '', 0.0)||('children', 'noun', 'C0008059', ['aggp'], 0.0)||('refused', 'verb', 'C1548564', ['idcn'], 0.0)||('to', '', '', '', 0.0)||('take', 'verb', 'C1515187', ['acty'], 0.0)||('medication', '', '', '', 0.0)||(',', '', '', '', 0.0)||('1', '', '', '', 0.0)||('moved', 'adj', 'C2699029', ['acty'], 0.0)||(',', '', '', '', 0.0)||('4', '', '', '', 0.0)||('had', '', '', '', 0.0)||('side effects', 'noun', 'C0001688', ['ftcn'], 0.0)||(',', '', '', '', 0.0)||('4', '', '', '', 0.0)||('had', '', '', '', 0.0)||('missing', 'adj', 'C1551393', ['idcn'], 0.0)||('data', 'noun', 'C1511726', ['idcn'], 0.0)||(',', '', '', '', 0.0)||('and', '', '', '', 0.0)||('7', '', '', '', 0.0)||('stopped', '', '', '', 0.0)||('mid', '', '', '', 0.0)||('-', '', '', '', 0.0)||('titration', 'noun', 'C0162621', ['lbpr'], 0.0)||('because of', '', '', '', 0.0)||('inability', '', '', '', 0.0)||('to', '', '', '', 0.0)||('follow', 'verb', 'C1719822', ['inpr'], 0.0)||('the', '', '', '', 0.0)||('titration', 'noun', 'C0162621', ['lbpr'], 0.0)||('protocol', 'noun', 'C0442711', ['inpr'], 0.0)||(')', '', '', '', 0.0)||('.', '', '', '', 0.0)||
('of', '', '', '', 0.0)||('the', '', '', '', 0.0)||('256', '', '', '', 0.0)||('children', 'noun', 'C0008059', ['aggp'], 0.0)||('who', '', '', '', 0.0)||('completed', 'verb', 'C0205197', ['qlco'], 0.0)||('titration', 'noun', 'C0162621', ['lbpr'], 0.0)||(',', '', '', '', 0.0)||('198', '', '', '', 0.0)||('(', '', '', '', 0.0)||('77 %', '', '', '', 0.0)||(')', '', '', '', 0.0)||('responded', '', '', '', 0.0)||('favorably', '', '', '', 0.0)||('to', '', '', '', 0.0)||('1', '', '', '', 0.0)||('of', '', '', '', 0.0)||('the', '', '', '', 0.0)||('following', '', '', '', 0.0)||('doses', 'noun', 'C0178602', ['qnco'], 0.0)||(':', '', '', '', 0.0)||('low', 'adj', 'C0205251', ['qlco'], 0.0)||('(', '', '', '', 0.0)||('15', '', '', '', 0.0)||('mg', '', '', '', 0.0)||('/', '', '', '', 0.0)||('day', 'noun', 'C0439228', ['tmco'], 0.0)||(')', '', '', '', 0.0)||(',', '', '', '', 0.0)||('intermediate', 'adj', 'C0205103', ['spco'], 0.0)||('(', '', '', '', 0.0)||('25', '', '', '', 0.0)||('mg', '', '', '', 0.0)||('/', '', '', '', 0.0)||('day', 'noun', 'C0439228', ['tmco'], 0.0)||(')', '', '', '', 0.0)||(',', '', '', '', 0.0)||('or', '', '', '', 0.0)||('high', 'adj', 'C0205250', ['qlco'], 0.0)||('(', '', '', '', 0.0)||('35', '', '', '', 0.0)||('mg', '', '', '', 0.0)||('/', '', '', '', 0.0)||('day', 'noun', 'C0439228', ['tmco'], 0.0)||('for', '', '', '', 0.0)||('children', 'noun', 'C0008059', ['aggp'], 0.0)||('weighing', 'verb', 'C1305866', ['diap'], 0.0)||('less', '', '', '', 0.0)||('than', '', '', '', 0.0)||('25', '', '', '', 0.0)||('kg', 'noun', 'C0022718', ['geoa'], 0.0)||(';', '', '', '', 0.0)||('or', '', '', '', 0.0)||('50', '', '', '', 0.0)||('mg', '', '', '', 0.0)||('/', '', '', '', 0.0)||('day', 'noun', 'C0439228', ['tmco'], 0.0)||('for', '', '', '', 0.0)||('children', 'noun', 'C0008059', ['aggp'], 0.0)||('weighing', 'verb', 'C1305866', ['diap'], 0.0)||('25', '', '', '', 0.0)||('kg', 'noun', 'C0022718', ['geoa'], 0.0)||('or', '', '', '', 0.0)||('more', '', '', '', 0.0)||(')', '', '', '', 0.0)||('.', '', '', '', 0.0)||
('of', '', '', '', 0.0)||('the', '', '', '', 0.0)||('remaining', 'adj', 'C1527428', ['qlco'], 0.0)||('23 %', '', '', '', 0.0)||(',', '', '', '', 0.0)||('32', '', '', '', 0.0)||('children', 'noun', 'C0008059', ['aggp'], 0.0)||('responded', '', '', '', 0.0)||('best', 'adj', 'C1522427', ['qlco'], 0.0)||('to', '', '', '', 0.0)||('placebo', 'noun', 'C0032042', ['topp'], 0.0)||('and', '', '', '', 0.0)||('26', '', '', '', 0.0)||('were', '', '', '', 0.0)||('methylphenidate', 'adj', 'C0025810', ['orch', 'phsu'], 0.0)||('nonresponders', '', '', '', 0.0)||('and', '', '', '', 0.0)||('were', '', '', '', 0.0)||('subsequently', '', '', '', 0.0)||('placed', '', '', '', 0.0)||('on', '', '', '', 0.0)||('dextroamphetamine', 'noun', 'C0011812', ['orch', 'phsu'], 0.0)||('.', '', '', '', 0.0)||
('children', 'noun', 'C0008059', ['aggp'], 0.0)||('who', '', '', '', 0.0)||('responded', '', '', '', 0.0)||('to', '', '', '', 0.0)||('methylphenidate', 'verb', 'C0025810', ['orch', 'phsu'], 0.0)||('entered', 'verb', 'C1521975', ['qlco'], 0.0)||('the', '', '', '', 0.0)||('13', '', '', '', 0.0)||('-', '', '', '', 0.0)||('month', 'noun', 'C0439231', ['tmco'], 0.0)||('maintenance', 'noun', 'C0024501', ['acty'], 0.0)||('phase', 'noun', 'C0205390', ['tmco'], 0.0)||('on', '', '', '', 0.0)||('the', '', '', '', 0.0)||('optimal dose', '', '', '', 0.0)||('identified', 'verb', 'C0205396', ['qlco'], 0.0)||('in', '', '', '', 0.0)||('the', '', '', '', 0.0)||('titration', 'noun', 'C0162621', ['lbpr'], 0.0)||('trial', 'noun', 'C0008976', ['resa'], 0.0)||('.', '', '', '', 0.0)||
('they', '', '', '', 0.0)||('were', '', '', '', 0.0)||('monitored', '', '', '', 0.0)||('by', '', '', '', 0.0)||('monthly', 'adv', 'C0332177', ['tmco'], 0.0)||('re - examination', '', '', '', 0.0)||('and', '', '', '', 0.0)||('review', 'noun', 'C0282443', ['inpr'], 0.0)||('of', '', '', '', 0.0)||('information', 'noun', 'C1533716', ['idcn'], 0.0)||('from', '', '', '', 0.0)||('parents', 'noun', 'C0030551', ['famg'], 0.0)||('and', '', '', '', 0.0)||('teachers', 'noun', 'C0221457', ['prog'], 0.0)||('regarding', '', '', '', 0.0)||('adhd', 'noun', 'C1263846', ['mobd'], 0.0)||('symptoms', 'noun', 'C0683368', ['ftcn'], 0.0)||('and', '', '', '', 0.0)||('potential', 'adj', 'C0035647', ['qlco'], 0.0)||('drug', 'noun', 'C0013227', ['phsu'], 0.0)||('side effects', 'noun', 'C0001688', ['ftcn'], 0.0)||('.', '', '', '', 0.0)||
('the', '', '', '', 0.0)||('dose', 'noun', 'C0178602', ['qnco'], 0.0)||('was', '', '', '', 0.0)||('changed', 'verb', 'C0392747', ['ftcn'], 0.0)||('if', '', '', '', 0.0)||('symptoms', 'noun', 'C0683368', ['ftcn'], 0.0)||('were', '', '', '', 0.0)||('not', 'adv', 'C1518422', ['ftcn'], 0.0)||('well controlled', '', '', '', 0.0)||('or', '', '', '', 0.0)||('if', '', '', '', 0.0)||('side effects', 'noun', 'C0001688', ['ftcn'], 0.0)||('were', '', '', '', 0.0)||('present', 'adj', 'C0150312', ['qnco'], 0.0)||('.', '', '', '', 0.0)||
('subsequently', '', '', '', 0.0)||(',', '', '', '', 0.0)||('if', '', '', '', 0.0)||('no', '', '', '', 0.0)||('effective', 'adj', 'C1704419', ['qlco'], 0.0)||('and', '', '', '', 0.0)||('well - tolerated', '', '', '', 0.0)||('dose', 'noun', 'C0178602', ['qnco'], 0.0)||('of', '', '', '', 0.0)||('methylphenidate', 'noun', 'C0025810', ['orch', 'phsu'], 0.0)||('could', '', '', '', 0.0)||('be', '', '', '', 0.0)||('identified', 'verb', 'C0205396', ['qlco'], 0.0)||(',', '', '', '', 0.0)||('the', '', '', '', 0.0)||('drug', 'noun', 'C0013227', ['phsu'], 0.0)||('was', '', '', '', 0.0)||('deemed', '', '', '', 0.0)||('ineffective', '', '', '', 0.0)||('for', '', '', '', 0.0)||('that', '', '', '', 0.0)||('child', 'noun', 'C0008059', ['aggp'], 0.0)||('and', '', '', '', 0.0)||('was', '', '', '', 0.0)||('replaced', 'verb', 'C0559956', ['ftcn'], 0.0)||('by', '', '', '', 0.0)||('another', '', '', '', 0.0)||('medication', '', '', '', 0.0)||('.', '', '', '', 0.0)||
