('a', '', '', '', 0.0)||('cochrane', '', '', '', 0.0)||('review', 'noun', 'C0282443', ['inpr'], 0.0)||('found', '', '', '', 0.0)||('dm', '', '', '', 0.0)||('to', '', '', '', 0.0)||('be', '', '', '', 0.0)||('modestly', '', '', '', 0.0)||('effective', 'adj', 'C1704419', ['qlco'], 0.0)||('in', '', '', '', 0.0)||('2', '', '', '', 0.0)||('of', '', '', '', 0.0)||('3', '', '', '', 0.0)||('studies', '', '', '', 0.0)||('.', '', '', '', 0.0)||
('in', '', '', '', 0.0)||('the', '', '', '', 0.0)||('first', 'adj', 'C0205435', ['qnco'], 0.0)||('study', 'noun', 'C0008976', ['resa'], 0.0)||('-', '', '', '', 0.0)||('a', '', '', '', 0.0)||('meta - analysis', '', '', '', 0.0)||('of', '', '', '', 0.0)||('6', '', '', '', 0.0)||('industry', 'noun', 'C0021267', ['ocac'], 0.0)||('-', '', '', '', 0.0)||('sponsored', '', '', '', 0.0)||('rcts', '', '', '', 0.0)||('of', '', '', '', 0.0)||('710', '', '', '', 0.0)||('adults', 'noun', 'C0001675', ['aggp'], 0.0)||('-', '', '', '', 0.0)||('a', '', '', '', 0.0)||('single', 'adj', 'C0037179', ['popg'], 0.0)||('30', '', '', '', 0.0)||('-', '', '', '', 0.0)||('mg', '', '', '', 0.0)||('dose', 'noun', 'C0178602', ['qnco'], 0.0)||('of', '', '', '', 0.0)||('dm', '', '', '', 0.0)||('decreased', 'verb', 'C0205216', ['qnco'], 0.0)||('coughing', 'adj', 'C0010200', ['sosy'], 0.0)||('bouts', '', '', '', 0.0)||('by', '', '', '', 0.0)||('12 %', '', '', '', 0.0)||('(', '', '', '', 0.0)||('p', '', '', '', 0.0)||('=', '', '', '', 0.0)||('.', '', '', '', 0.0)||('004', '', '', '', 0.0)||(')', '', '', '', 0.0)||('and', '', '', '', 0.0)||('increased', 'verb', 'C0205217', ['qnco'], 0.0)||('the', '', '', '', 0.0)||('time', 'noun', 'C0040223', ['tmco'], 0.0)||('between', '', '', '', 0.0)||('bouts', '', '', '', 0.0)||('by', '', '', '', 0.0)||('17 %', '', '', '', 0.0)||('(', '', '', '', 0.0)||('p', '', '', '', 0.0)||('=', '', '', '', 0.0)||('.', '', '', '', 0.0)||('002', '', '', '', 0.0)||(')', '', '', '', 0.0)||('in', '', '', '', 0.0)||('the', '', '', '', 0.0)||('3', '', '', '', 0.0)||('hours', 'noun', 'C0439227', ['tmco'], 0.0)||('after', '', '', '', 0.0)||('treatment', 'noun', 'C0039798', ['ftcn'], 0.0)||('.', '', '', '', 0.0)||
('a', '', '', '', 0.0)||('second', 'adj', 'C0205436', ['qnco'], 0.0)||('study', 'noun', 'C0008976', ['resa'], 0.0)||('of', '', '', '', 0.0)||('3', '', '', '', 0.0)||('successive', '', '', '', 0.0)||('industry', 'noun', 'C0021267', ['ocac'], 0.0)||('-', '', '', '', 0.0)||('sponsored', '', '', '', 0.0)||(',', '', '', '', 0.0)||('blinded', 'adj', 'C0150108', ['resa'], 0.0)||('rcts', '', '', '', 0.0)||('enrolling', '', '', '', 0.0)||('a', '', '', '', 0.0)||('total', 'noun', 'C0439810', ['qlco'], 0.0)||('of', '', '', '', 0.0)||('451', '', '', '', 0.0)||('adults', 'noun', 'C0001675', ['aggp'], 0.0)||('found', '', '', '', 0.0)||('that', '', '', '', 0.0)||('30', '', '', '', 0.0)||('mg', '', '', '', 0.0)||('of', '', '', '', 0.0)||('dm', '', '', '', 0.0)||('decreased', 'verb', 'C0205216', ['qnco'], 0.0)||('cough', 'noun', 'C0010200', ['sosy'], 0.0)||('counts', 'noun', 'C0439157', ['qnco'], 0.0)||('between', '', '', '', 0.0)||('19 %', '', '', '', 0.0)||('and', '', '', '', 0.0)||('36 %', '', '', '', 0.0)||('(', '', '', '', 0.0)||('p', '', '', '', 0.0)||('<', '', '', '', 0.0)||('.', '', '', '', 0.0)||('05', '', '', '', 0.0)||(')', '', '', '', 0.0)||('over', '', '', '', 0.0)||('a', '', '', '', 0.0)||('3', '', '', '', 0.0)||('-', '', '', '', 0.0)||('hour', 'noun', 'C0439227', ['tmco'], 0.0)||('follow - up', '', '', '', 0.0)||('period', 'noun', 'C1948053', ['tmco'], 0.0)||('.', '', '', '', 0.0)||
('neither', '', '', '', 0.0)||('of', '', '', '', 0.0)||('the', '', '', '', 0.0)||('2', '', '', '', 0.0)||('studies', '', '', '', 0.0)||('specified', 'verb', 'C0205369', ['qlco'], 0.0)||('whether', '', '', '', 0.0)||('the', '', '', '', 0.0)||('outcome', 'noun', 'C1274040', ['ftcn'], 0.0)||('assessors', '', '', '', 0.0)||('were', '', '', '', 0.0)||('blinded', 'verb', 'C0150108', ['resa'], 0.0)||('to', '', '', '', 0.0)||('treatment', 'noun', 'C0039798', ['ftcn'], 0.0)||('groups', 'noun', 'C0441833', ['idcn'], 0.0)||('.', '', '', '', 0.0)||
('a', '', '', '', 0.0)||('third', 'adv', 'C0205437', ['qnco'], 0.0)||('double', 'verb', 'C0205173', ['ftcn'], 0.0)||('-', '', '', '', 0.0)||('blinded', 'adj', 'C0150108', ['resa'], 0.0)||('rct', '', '', '', 0.0)||('evaluating', 'verb', 'C0220825', ['ftcn'], 0.0)||('a', '', '', '', 0.0)||('single', 'adj', 'C0037179', ['popg'], 0.0)||('30', '', '', '', 0.0)||('-', '', '', '', 0.0)||('mg', '', '', '', 0.0)||('dose', 'noun', 'C0178602', ['qnco'], 0.0)||('of', '', '', '', 0.0)||('dm', '', '', '', 0.0)||('in', '', '', '', 0.0)||('43', '', '', '', 0.0)||('adults', 'noun', 'C0001675', ['aggp'], 0.0)||('during', '', '', '', 0.0)||('a', '', '', '', 0.0)||('3', '', '', '', 0.0)||('-', '', '', '', 0.0)||('hour', 'noun', 'C0439227', ['tmco'], 0.0)||('follow - up', '', '', '', 0.0)||('period', 'noun', 'C1948053', ['tmco'], 0.0)||('showed', '', '', '', 0.0)||('no', '', '', '', 0.0)||('statistically significant', 'adj', 'C0237881', ['qnco'], 0.0)||('improvement', '', '', '', 0.0)||('in', '', '', '', 0.0)||('cough', 'noun', 'C0010200', ['sosy'], 0.0)||('outcomes', 'noun', 'C0085415', ['qlco'], 0.0)||('compared', 'verb', 'C1707455', ['acty'], 0.0)||('with', '', '', '', 0.0)||('placebo', 'noun', 'C0032042', ['topp'], 0.0)||('.', '', '', '', 0.0)||
