('breast cancer', 'noun', 'C0006142', ['neop'], 0.0)||('accounts', '', '', '', 0.0)||('for', '', '', '', 0.0)||('over', 'adv', 'C0205136', ['spco'], 0.0)||('one', 'noun', 'C0205447', ['qnco'], 0.0)||('third', 'noun', 'C0205437', ['qnco'], 0.0)||('of', '', '', '', 0.0)||('invasive', 'adj', 'C0205281', ['qlco'], 0.0)||('cancers', 'noun', 'C0006826', ['neop'], 0.0)||('in', '', '', '', 0.0)||('women', 'noun', 'C0043210', ['popg'], 0.0)||('.', '', '', '', 0.0)||
('earlier', '', '', '', 0.0)||('detection', 'noun', 'C1511790', ['topp'], 0.0)||('and', '', '', '', 0.0)||('improved', 'adj', 'C0184511', ['qlco'], 0.0)||('initial treatments', '', '', '', 0.0)||('have', '', '', '', 0.0)||('resulted', '', '', '', 0.0)||('in', '', '', '', 0.0)||('an', '', '', '', 0.0)||('increasing', 'adj', 'C0442808', ['ftcn'], 0.0)||('number', 'noun', 'C0449788', ['qnco'], 0.0)||('of', '', '', '', 0.0)||('women', 'noun', 'C0043210', ['popg'], 0.0)||('who', '', '', '', 0.0)||('have', '', '', '', 0.0)||('completed', 'adj', 'C0205197', ['qlco'], 0.0)||('standard', 'adj', 'C1442989', ['ftcn'], 0.0)||('treatments', 'noun', 'C0087111', ['topp'], 0.0)||('but', '', '', '', 0.0)||('who', '', '', '', 0.0)||('remain', '', '', '', 0.0)||('at risk', '', '', '', 0.0)||('for', '', '', '', 0.0)||('breast cancer', 'noun', 'C0006142', ['neop'], 0.0)||('recurrence', 'noun', 'C0034897', ['phpr'], 0.0)||('or', '', '', '', 0.0)||('early', 'adj', 'C1279919', ['tmco'], 0.0)||('death', 'noun', 'C0011065', ['orgf'], 0.0)||('.', '', '', '', 0.0)||
('epidemiological studies', 'noun', 'C0002783', ['resa'], 0.0)||('have', '', '', '', 0.0)||('linked', '', '', '', 0.0)||('diet', 'noun', 'C0012155', ['food'], 0.0)||('composition', 'noun', 'C0486616', ['clna'], 0.0)||('with', '', '', '', 0.0)||('prognosis', 'noun', 'C0033325', ['hlca'], 0.0)||(',', '', '', '', 0.0)||('and', '', '', '', 0.0)||('many', '', '', '', 0.0)||('women', 'noun', 'C0043210', ['popg'], 0.0)||('attempt', 'verb', 'C1516084', ['evnt'], 0.0)||('to', '', '', '', 0.0)||('modify', '', '', '', 0.0)||('their', '', '', '', 0.0)||('diets', 'noun', 'C0012155', ['food'], 0.0)||('and', '', '', '', 0.0)||('improve', 'verb', 'C0332161', ['qlco'], 0.0)||('nutritional status', 'noun', 'C0392209', ['orga'], 0.0)||('following', '', '', '', 0.0)||('diagnosis', 'noun', 'C0011900', ['fndg'], 0.0)||('the', '', '', '', 0.0)||('hypothesis', 'noun', 'C1512571', ['idcn'], 0.0)||('that', '', '', '', 0.0)||('dietary factors', 'noun', 'C1511903', ['ftcn'], 0.0)||('may', '', '', '', 0.0)||('reduce', '', '', '', 0.0)||('risk', 'noun', 'C0035647', ['qlco'], 0.0)||('for', '', '', '', 0.0)||('secondary', 'adj', 'C0175668', ['tmco'], 0.0)||('cancer', 'noun', 'C0006826', ['neop'], 0.0)||('events', 'noun', 'C0441471', ['evnt'], 0.0)||('and', '', '', '', 0.0)||('increase', 'noun', 'C0442805', ['ftcn'], 0.0)||('survival', 'noun', 'C0038952', ['acty'], 0.0)||('in', '', '', '', 0.0)||('this', '', '', '', 0.0)||('population', 'noun', 'C0032659', ['qnco'], 0.0)||('is', '', '', '', 0.0)||('currently', 'adv', 'C0521116', ['tmco'], 0.0)||('under', '', '', '', 0.0)||('study', 'noun', 'C0008976', ['resa'], 0.0)||('in', '', '', '', 0.0)||('two', 'adj', 'C0205448', ['qnco'], 0.0)||('large', 'adj', 'C0549177', ['qnco'], 0.0)||('randomized clinical trials', '', '', '', 0.0)||(':', '', '', '', 0.0)||('the', '', '', '', 0.0)||('women', 'noun', 'C0043210', ['popg'], 0.0)||("' s", '', '', '', 0.0)||('intervention', 'noun', 'C1273869', ['hlca'], 0.0)||('nutrition', 'noun', 'C0028707', ['bmod'], 0.0)||('study', 'noun', 'C0008976', ['resa'], 0.0)||('and', '', '', '', 0.0)||('the', '', '', '', 0.0)||('women', 'noun', 'C0043210', ['popg'], 0.0)||("' s", '', '', '', 0.0)||('healthy', '', '', '', 0.0)||('eating', 'noun', 'C0013470', ['orgf'], 0.0)||('and', '', '', '', 0.0)||('living', 'adj', 'C0376558', ['idcn'], 0.0)||('study', 'noun', 'C0008976', ['resa'], 0.0)||('.', '', '', '', 0.0)||
('the', '', '', '', 0.0)||('women', 'noun', 'C0043210', ['popg'], 0.0)||("' s", '', '', '', 0.0)||('healthy', '', '', '', 0.0)||('eating', 'noun', 'C0013470', ['orgf'], 0.0)||('and', '', '', '', 0.0)||('living', 'adj', 'C0376558', ['idcn'], 0.0)||('study', 'noun', 'C0008976', ['resa'], 0.0)||('is', '', '', '', 0.0)||('testing', 'verb', 'C0039593', ['ftcn'], 0.0)||('the', '', '', '', 0.0)||('effect', 'noun', 'C1280500', ['qlco'], 0.0)||('of', '', '', '', 0.0)||('a', '', '', '', 0.0)||('diet', 'noun', 'C0012155', ['food'], 0.0)||('high', 'adj', 'C0205250', ['qlco'], 0.0)||('in', '', '', '', 0.0)||('vegetables', 'noun', 'C0042440', ['food'], 0.0)||(',', '', '', '', 0.0)||('fruit', 'noun', 'C0016767', ['food'], 0.0)||(',', '', '', '', 0.0)||('and', '', '', '', 0.0)||('fiber', 'noun', 'C0012173', ['food'], 0.0)||(',', '', '', '', 0.0)||('and', '', '', '', 0.0)||('low', 'adj', 'C0205251', ['qlco'], 0.0)||('in', '', '', '', 0.0)||('fat', 'noun', 'C0424612', ['orga'], 0.0)||(',', '', '', '', 0.0)||('on', '', '', '', 0.0)||('disease - free survival', '', '', '', 0.0)||('in', '', '', '', 0.0)||('women', 'noun', 'C0043210', ['popg'], 0.0)||('with', '', '', '', 0.0)||('early stage breast cancer', '', '', '', 0.0)||('.', '', '', '', 0.0)||
('hypothesized', '', '', '', 0.0)||('mechanisms', 'noun', 'C0441712', ['ftcn'], 0.0)||('include', 'verb', 'C1552866', ['idcn'], 0.0)||('effects', '', '', '', 0.0)||('of', '', '', '', 0.0)||('diet', 'noun', 'C0012155', ['food'], 0.0)||('modification', 'noun', 'C0392747', ['ftcn'], 0.0)||('on', '', '', '', 0.0)||('gonadal', 'adj', 'C0018067', ['bpoc'], 0.0)||('hormones', 'noun', 'C0019932', ['horm'], 0.0)||(',', '', '', '', 0.0)||('retinoid', 'adj', 'C0035339', ['bacs', 'orch', 'phsu'], 0.0)||('-', '', '', '', 0.0)||('like', '', '', '', 0.0)||('activities', 'noun', 'C0441655', ['acty'], 0.0)||('of', '', '', '', 0.0)||('carotenoids', 'noun', 'C0007271', ['bacs', 'orch', 'phsu'], 0.0)||(',', '', '', '', 0.0)||('and', '', '', '', 0.0)||('other', '', '', '', 0.0)||('protective', '', '', '', 0.0)||('effects', '', '', '', 0.0)||('of', '', '', '', 0.0)||('biologically', 'adv', 'C0205460', ['ftcn'], 0.0)||('active', 'adj', 'C0205177', ['ftcn'], 0.0)||('dietary', 'adj', 'C0012155', ['food'], 0.0)||('constituents', 'noun', 'C0729650', ['sbst'], 0.0)||('.', '', '', '', 0.0)||
