('rosiglitazone', 'noun', 'C0289313', ['orch', 'phsu'], 0.0)||('maleate', 'noun', 'C0024572', ['orch'], 0.0)||('(', '', '', '', 0.0)||('avandia', 'noun', 'C0875967', ['orch', 'phsu'], 0.0)||(',', '', '', '', 0.0)||('smithkline beecham', 'noun', 'C1552903', ['hcro'], 0.0)||(',', '', '', '', 0.0)||('philadelphia', 'noun', 'C0031525', ['geoa'], 0.0)||(',', '', '', '', 0.0)||('pennsylvania', 'noun', 'C0030853', ['geoa'], 0.0)||(')', '', '', '', 0.0)||('is', '', '', '', 0.0)||('a', '', '', '', 0.0)||('new', 'adj', 'C0205314', ['tmco'], 0.0)||('oral hypoglycemic agent', '', '', '', 0.0)||('approved', 'verb', 'C0205540', ['qlco'], 0.0)||('for', '', '', '', 0.0)||('the', '', '', '', 0.0)||('treatment', 'noun', 'C0039798', ['ftcn'], 0.0)||('of', '', '', '', 0.0)||('type 2 diabetes', 'noun', 'C0011860', ['dsyn'], 0.0)||('.', '', '', '', 0.0)||
('it', '', '', '', 0.0)||('acts', '', '', '', 0.0)||('primarily', '', '', '', 0.0)||('by', '', '', '', 0.0)||('increasing', 'adj', 'C0442808', ['ftcn'], 0.0)||('insulin sensitivity', 'noun', 'C0920563', ['patf'], 0.0)||('.', '', '', '', 0.0)||
('in', '', '', '', 0.0)||('controlled', 'adj', 'C2587213', ['ftcn'], 0.0)||('trials', '', '', '', 0.0)||(',', '', '', '', 0.0)||('there', '', '', '', 0.0)||('has', '', '', '', 0.0)||('been', '', '', '', 0.0)||('no', '', '', '', 0.0)||('evidence', 'noun', 'C0332120', ['ftcn'], 0.0)||('of', '', '', '', 0.0)||('rosiglitazone', 'noun', 'C0289313', ['orch', 'phsu'], 0.0)||('-', '', '', '', 0.0)||('induced', 'adj', 'C0205263', ['ftcn'], 0.0)||('hepatocellular', 'adj', 'C2697585', ['qlco'], 0.0)||('injury', 'noun', 'C0175677', ['inpo'], 0.0)||('.', '', '', '', 0.0)||
('to', '', '', '', 0.0)||('report', 'verb', 'C0684224', ['inpr'], 0.0)||('a', '', '', '', 0.0)||('case', 'noun', 'C0868928', ['ftcn'], 0.0)||('of', '', '', '', 0.0)||('hepatocellular', 'adj', 'C2697585', ['qlco'], 0.0)||('injury', 'noun', 'C0175677', ['inpo'], 0.0)||('in', '', '', '', 0.0)||('a', '', '', '', 0.0)||('patient', '', '', '', 0.0)||('receiving', '', '', '', 0.0)||('rosiglitazone', 'noun', 'C0289313', ['orch', 'phsu'], 0.0)||('.', '', '', '', 0.0)||
('case report', 'noun', 'C0007320', ['inpr'], 0.0)||('.', '', '', '', 0.0)||
('community', 'noun', 'C0009462', ['geoa'], 0.0)||('teaching hospital', 'noun', 'C0000872', ['hcro', 'mnob'], 0.0)||('.', '', '', '', 0.0)||
('61', '', '', '', 0.0)||('-', '', '', '', 0.0)||('year', 'noun', 'C0439234', ['tmco'], 0.0)||('-', '', '', '', 0.0)||('old', 'noun', 'C0580836', ['tmco'], 0.0)||('man', 'noun', 'C0024554', ['orga'], 0.0)||('receiving', '', '', '', 0.0)||('rosiglitazone', 'noun', 'C0289313', ['orch', 'phsu'], 0.0)||(',', '', '', '', 0.0)||('4', '', '', '', 0.0)||('mg', '', '', '', 0.0)||('/', '', '', '', 0.0)||('d', '', '', '', 0.0)||('for', '', '', '', 0.0)||('2', '', '', '', 0.0)||('weeks', 'noun', 'C0439230', ['tmco'], 0.0)||('.', '', '', '', 0.0)||
('discontinuation', 'noun', 'C0457454', ['hlca'], 0.0)||('of', '', '', '', 0.0)||('rosiglitazone', 'noun', 'C0289313', ['orch', 'phsu'], 0.0)||('therapy', 'noun', 'C0039798', ['ftcn'], 0.0)||('.', '', '', '', 0.0)||
('clinical', 'adj', 'C0205210', ['qlco'], 0.0)||('evaluation', 'noun', 'C0220825', ['ftcn'], 0.0)||('and', '', '', '', 0.0)||('assessment', 'noun', 'C1261322', ['hlca'], 0.0)||('of', '', '', '', 0.0)||('liver function test', '', '', '', 0.0)||('results', 'noun', 'C1274040', ['ftcn'], 0.0)||('were', '', '', '', 0.0)||('done', '', '', '', 0.0)||('daily', 'adv', 'C0332173', ['tmco'], 0.0)||('during', '', '', '', 0.0)||('hospitalization', '', '', '', 0.0)||('and', '', '', '', 0.0)||('periodically', 'adv', 'C0332182', ['tmco'], 0.0)||('after discharge', '', '', '', 0.0)||('.', '', '', '', 0.0)||
('the', '', '', '', 0.0)||('outpatient', 'adj', 'C0029921', ['podg'], 0.0)||('record', 'noun', 'C0034869', ['inpr'], 0.0)||('was', '', '', '', 0.0)||('also', '', '', '', 0.0)||('reviewed', 'verb', 'C1709940', ['qlco'], 0.0)||('.', '', '', '', 0.0)||
('after', '', '', '', 0.0)||('receiving', '', '', '', 0.0)||('rosiglitazone', 'noun', 'C0289313', ['orch', 'phsu'], 0.0)||('for', '', '', '', 0.0)||('2', '', '', '', 0.0)||('weeks', 'noun', 'C0439230', ['tmco'], 0.0)||(',', '', '', '', 0.0)||('the', '', '', '', 0.0)||('patient', '', '', '', 0.0)||('presented', 'verb', 'C0449450', ['idcn'], 0.0)||('with', '', '', '', 0.0)||('anorexia', 'noun', 'C0003123', ['sosy'], 0.0)||(',', '', '', '', 0.0)||('vomiting', 'verb', 'C0042963', ['sosy'], 0.0)||(',', '', '', '', 0.0)||('and', '', '', '', 0.0)||('abdominal pain', 'noun', 'C0000737', ['sosy'], 0.0)||('.', '', '', '', 0.0)||
('liver function tests', 'noun', 'C0023901', ['lbpr'], 0.0)||('revealed', 'adj', 'C0443289', ['qlco'], 0.0)||('severe', 'adj', 'C0205082', ['qlco'], 0.0)||('hepatocellular', 'adj', 'C2697585', ['qlco'], 0.0)||('injury', 'noun', 'C0175677', ['inpo'], 0.0)||('.', '', '', '', 0.0)||
('discontinuation', 'noun', 'C0457454', ['hlca'], 0.0)||('of', '', '', '', 0.0)||('rosiglitazone', 'noun', 'C0289313', ['orch', 'phsu'], 0.0)||('therapy', 'noun', 'C0039798', ['ftcn'], 0.0)||('led', '', '', '', 0.0)||('to', '', '', '', 0.0)||('rapid', 'adj', 'C0439831', ['qlco'], 0.0)||('improvement', '', '', '', 0.0)||('of', '', '', '', 0.0)||('liver function', 'noun', 'C0232741', ['ortf'], 0.0)||('and', '', '', '', 0.0)||('resolution', 'noun', 'C1514893', ['idcn'], 0.0)||('of', '', '', '', 0.0)||('symptoms', 'noun', 'C0683368', ['ftcn'], 0.0)||('.', '', '', '', 0.0)||
('rosiglitazone', 'noun', 'C0289313', ['orch', 'phsu'], 0.0)||('may', '', '', '', 0.0)||('be', '', '', '', 0.0)||('associated', 'verb', 'C0332281', ['qlco'], 0.0)||('with', '', '', '', 0.0)||('hepatocellular', 'adj', 'C2697585', ['qlco'], 0.0)||('injury', 'noun', 'C0175677', ['inpo'], 0.0)||('.', '', '', '', 0.0)||
('we', '', '', '', 0.0)||('believe', '', '', '', 0.0)||('that', '', '', '', 0.0)||('patients', 'noun', 'C0030705', ['podg'], 0.0)||('receiving', '', '', '', 0.0)||('rosiglitazone', 'noun', 'C0289313', ['orch', 'phsu'], 0.0)||('should', '', '', '', 0.0)||('have', '', '', '', 0.0)||('liver enzyme levels', 'noun', 'C0428321', ['lbpr'], 0.0)||('monitored', '', '', '', 0.0)||('earlier', '', '', '', 0.0)||('and', '', '', '', 0.0)||('more', '', '', '', 0.0)||('frequently', 'adv', 'C0332183', ['tmco'], 0.0)||('than', '', '', '', 0.0)||('initially', 'adv', 'C0205265', ['tmco'], 0.0)||('recommended', 'verb', 'C0034866', ['idcn'], 0.0)||('.', '', '', '', 0.0)||
