('oral', 'adj', 'C0442027', ['spco'], 0.0)||('agents', '', '', '', 0.0)||('are', '', '', '', 0.0)||('the', '', '', '', 0.0)||('mainstay', '', '', '', 0.0)||('of', '', '', '', 0.0)||('pharmacologic', 'adj', 'C0031330', ['bmod'], 0.0)||('treatment', 'noun', 'C0039798', ['ftcn'], 0.0)||('for', '', '', '', 0.0)||('type 2 diabetes', 'noun', 'C0011860', ['dsyn'], 0.0)||(',', '', '', '', 0.0)||('and', '', '', '', 0.0)||('physicians', 'noun', 'C0031831', ['prog'], 0.0)||('now', 'adv', 'C1948052', ['tmco'], 0.0)||('have', '', '', '', 0.0)||('a', '', '', '', 0.0)||('number', 'noun', 'C0449788', ['qnco'], 0.0)||('of', '', '', '', 0.0)||('agents', '', '', '', 0.0)||('to', '', '', '', 0.0)||('choose', 'verb', 'C1707391', ['acty'], 0.0)||('from', '', '', '', 0.0)||('.', '', '', '', 0.0)||
('however', '', '', '', 0.0)||(',', '', '', '', 0.0)||('more', '', '', '', 0.0)||('choices', '', '', '', 0.0)||('translate', '', '', '', 0.0)||('into', '', '', '', 0.0)||('more', '', '', '', 0.0)||('complex', 'adj', 'C0439855', ['qlco'], 0.0)||('decision making', 'noun', 'C0011109', ['menp'], 0.0)||('.', '', '', '', 0.0)||
('many', '', '', '', 0.0)||('patients', 'noun', 'C0030705', ['podg'], 0.0)||('with', '', '', '', 0.0)||('diabetes', 'noun', 'C0011847', ['dsyn'], 0.0)||('have', '', '', '', 0.0)||('associated', 'adj', 'C0332281', ['qlco'], 0.0)||('comorbidities', 'noun', 'C0009488', ['idcn'], 0.0)||(',', '', '', '', 0.0)||('and', '', '', '', 0.0)||('most', '', '', '', 0.0)||('diabetic', 'adj', 'C0241863', ['fndg'], 0.0)||('patients', 'noun', 'C0030705', ['podg'], 0.0)||('will', '', '', '', 0.0)||('require', '', '', '', 0.0)||('more', '', '', '', 0.0)||('than', '', '', '', 0.0)||('1', '', '', '', 0.0)||('agent', 'noun', 'C0450442', ['chvf'], 0.0)||('to', '', '', '', 0.0)||('achieve', '', '', '', 0.0)||('good', 'adj', 'C0205170', ['qlco'], 0.0)||('glycemic control', '', '', '', 0.0)||('.', '', '', '', 0.0)||
('this', '', '', '', 0.0)||('article', 'noun', 'C1706852', ['inpr'], 0.0)||('illustrates', '', '', '', 0.0)||('several', '', '', '', 0.0)||('of', '', '', '', 0.0)||('the', '', '', '', 0.0)||('pharmacologic', 'adj', 'C0031330', ['bmod'], 0.0)||('approaches', 'noun', 'C0449445', ['spco'], 0.0)||('to', '', '', '', 0.0)||('type 2 diabetes', 'noun', 'C0011860', ['dsyn'], 0.0)||('through', '', '', '', 0.0)||('4', '', '', '', 0.0)||('situations', '', '', '', 0.0)||('that', '', '', '', 0.0)||('use', 'verb', 'C0042153', ['ftcn'], 0.0)||('principles', '', '', '', 0.0)||('of', '', '', '', 0.0)||('evidence - based medicine', '', '', '', 0.0)||('.', '', '', '', 0.0)||
('the', '', '', '', 0.0)||('scenarios', '', '', '', 0.0)||('also', '', '', '', 0.0)||('highlight', '', '', '', 0.0)||('some', '', '', '', 0.0)||('of', '', '', '', 0.0)||('the', '', '', '', 0.0)||('difficulties', '', '', '', 0.0)||('in', '', '', '', 0.0)||('choosing', '', '', '', 0.0)||('the', '', '', '', 0.0)||('optimal', 'adj', 'C2698651', ['qlco'], 0.0)||('pharmacologic', 'adj', 'C0031330', ['bmod'], 0.0)||('treatment', 'noun', 'C0039798', ['ftcn'], 0.0)||('regimen', 'noun', 'C0040808', ['topp'], 0.0)||('for', '', '', '', 0.0)||('individual', 'adj', 'C0027361', ['popg'], 0.0)||('patients', 'noun', 'C0030705', ['podg'], 0.0)||('.', '', '', '', 0.0)||
('physicians', 'noun', 'C0031831', ['prog'], 0.0)||('should', '', '', '', 0.0)||('also', '', '', '', 0.0)||('recognize', '', '', '', 0.0)||('that', '', '', '', 0.0)||('type 2 diabetes', 'noun', 'C0011860', ['dsyn'], 0.0)||('is', '', '', '', 0.0)||('a', '', '', '', 0.0)||('multisystem', '', '', '', 0.0)||('disorder', 'noun', 'C0012634', ['dsyn'], 0.0)||('that', '', '', '', 0.0)||('requires', '', '', '', 0.0)||('multidisciplinary', 'adj', 'C0242479', ['ocac'], 0.0)||('care', 'noun', 'C0580931', ['fndg'], 0.0)||(',', '', '', '', 0.0)||('including', '', '', '', 0.0)||('education', 'noun', 'C0013621', ['edac'], 0.0)||('and', '', '', '', 0.0)||('ongoing', 'noun', 'C0549178', ['idcn'], 0.0)||('counseling', 'noun', 'C0010210', ['hlca'], 0.0)||('for', '', '', '', 0.0)||('effective', 'adj', 'C1704419', ['qlco'], 0.0)||('patient', '', '', '', 0.0)||('self', '', '', '', 0.0)||('-', '', '', '', 0.0)||('management', 'noun', 'C0001554', ['ocac'], 0.0)||('of', '', '', '', 0.0)||('the', '', '', '', 0.0)||('disease', 'noun', 'C0012634', ['dsyn'], 0.0)||('.', '', '', '', 0.0)||
('finally', '', '', '', 0.0)||(',', '', '', '', 0.0)||('patient', '', '', '', 0.0)||('preferences', 'noun', 'C0558295', ['idcn'], 0.0)||('are', '', '', '', 0.0)||('a', '', '', '', 0.0)||('vital', 'adj', 'C0442732', ['qlco'], 0.0)||('component', 'noun', 'C0449432', ['mnob'], 0.0)||('of', '', '', '', 0.0)||('informed', 'adj', 'C1522154', ['qlco'], 0.0)||('decision making', 'noun', 'C0011109', ['menp'], 0.0)||('for', '', '', '', 0.0)||('pharmacologic', 'adj', 'C0031330', ['bmod'], 0.0)||('treatment', 'noun', 'C0039798', ['ftcn'], 0.0)||('of', '', '', '', 0.0)||('diabetes', 'noun', 'C0011847', ['dsyn'], 0.0)||('.', '', '', '', 0.0)||
