('the', '', '', '', 0.0)||('thiazolidinediones', 'noun', 'C1257987', ['orch', 'phsu'], 0.0)||('pioglitazone', 'noun', 'C0071097', ['orch', 'phsu'], 0.0)||('(', '', '', '', 0.0)||('actos', 'noun', 'C0875954', ['orch', 'phsu'], 0.0)||(')', '', '', '', 0.0)||('and', '', '', '', 0.0)||('rosiglitazone', 'noun', 'C0289313', ['orch', 'phsu'], 0.0)||('(', '', '', '', 0.0)||('avandia', 'noun', 'C0875967', ['orch', 'phsu'], 0.0)||(')', '', '', '', 0.0)||('are', '', '', '', 0.0)||('effective', 'adj', 'C1704419', ['qlco'], 0.0)||('at', '', '', '', 0.0)||('lowering', 'noun', 'C2003888', ['ftcn'], 0.0)||('fasting', 'adj', 'C0015663', ['fndg'], 0.0)||('plasma glucose', 'noun', 'C0202042', ['lbpr'], 0.0)||('and', '', '', '', 0.0)||('glycosylated hemoglobin', 'noun', 'C0202054', ['lbpr'], 0.0)||('(', '', '', '', 0.0)||('hb', 'noun', 'C0019046', ['aapp', 'bacs'], 0.0)||('a1c', '', '', '', 0.0)||(')', '', '', '', 0.0)||('in', '', '', '', 0.0)||('patients', 'noun', 'C0030705', ['podg'], 0.0)||('with', '', '', '', 0.0)||('type 2 diabetes', 'noun', 'C0011860', ['dsyn'], 0.0)||('when', '', '', '', 0.0)||('used', '', '', '', 0.0)||('either', '', '', '', 0.0)||('as', '', '', '', 0.0)||('monotherapy', '', '', '', 0.0)||('or', '', '', '', 0.0)||('in', '', '', '', 0.0)||('combination', 'noun', 'C0205195', ['qlco'], 0.0)||('with', '', '', '', 0.0)||('sulfonylureas', 'noun', 'C0038766', ['orch', 'phsu'], 0.0)||(',', '', '', '', 0.0)||('metformin', 'noun', 'C0025598', ['orch', 'phsu'], 0.0)||(',', '', '', '', 0.0)||('or', '', '', '', 0.0)||('insulin', 'noun', 'C0021641', ['aapp', 'horm', 'phsu'], 0.0)||('.', '', '', '', 0.0)||
('the', '', '', '', 0.0)||('glucose', 'noun', 'C0017725', ['bacs', 'carb', 'phsu'], 0.0)||('-', '', '', '', 0.0)||('lowering', 'adj', 'C2003888', ['ftcn'], 0.0)||('effects', '', '', '', 0.0)||('appear', '', '', '', 0.0)||('comparable', '', '', '', 0.0)||('with', '', '', '', 0.0)||('those', '', '', '', 0.0)||('of', '', '', '', 0.0)||('sulfonylureas', 'noun', 'C0038766', ['orch', 'phsu'], 0.0)||('and', '', '', '', 0.0)||('metformin', 'noun', 'C0025598', ['orch', 'phsu'], 0.0)||('alone', 'adj', 'C0439044', ['fndg'], 0.0)||('.', '', '', '', 0.0)||
('currently', 'adv', 'C0521116', ['tmco'], 0.0)||(',', '', '', '', 0.0)||('there', '', '', '', 0.0)||('are', '', '', '', 0.0)||('no', '', '', '', 0.0)||('randomized', 'adj', 'C0034656', ['resa'], 0.0)||('trials', '', '', '', 0.0)||('directly', 'adv', 'C1947931', ['qlco'], 0.0)||('comparing', '', '', '', 0.0)||('patient', '', '', '', 0.0)||('-', '', '', '', 0.0)||('oriented', 'adj', 'C1704322', ['spco'], 0.0)||('outcomes', 'noun', 'C0085415', ['qlco'], 0.0)||('of', '', '', '', 0.0)||('the', '', '', '', 0.0)||('thiazolidinediones', 'noun', 'C1257987', ['orch', 'phsu'], 0.0)||('with', '', '', '', 0.0)||('those', '', '', '', 0.0)||('of', '', '', '', 0.0)||('sulfonylureas', 'noun', 'C0038766', ['orch', 'phsu'], 0.0)||('and', '', '', '', 0.0)||('metformin', 'noun', 'C0025598', ['orch', 'phsu'], 0.0)||('.', '', '', '', 0.0)||
