('the', '', '', '', 0.0)||('national', '', '', '', 0.0)||('institute', 'noun', 'C1272753', ['idcn'], 0.0)||('of', '', '', '', 0.0)||('aging', '', '', '', 0.0)||('conducted', '', '', '', 0.0)||('a', '', '', '', 0.0)||('double - blind', '', '', '', 0.0)||('rct', '', '', '', 0.0)||('multicenter', '', '', '', 0.0)||('study', 'noun', 'C0008976', ['resa'], 0.0)||(',', '', '', '', 0.0)||('which', '', '', '', 0.0)||('enrolled', '', '', '', 0.0)||('a', '', '', '', 0.0)||('total', 'noun', 'C0439810', ['qlco'], 0.0)||('of', '', '', '', 0.0)||('769', '', '', '', 0.0)||('subjects', '', '', '', 0.0)||('with', '', '', '', 0.0)||('mild', 'adj', 'C0547040', ['qlco'], 0.0)||('cognitive', 'adj', 'C1516691', ['ftcn'], 0.0)||('impairment', 'noun', 'C0684336', ['fndg'], 0.0)||('.', '', '', '', 0.0)||
('the', '', '', '', 0.0)||('primary', 'adj', 'C0205225', ['qlco'], 0.0)||('outcome', 'noun', 'C1274040', ['ftcn'], 0.0)||('was', '', '', '', 0.0)||('the', '', '', '', 0.0)||('development', 'noun', 'C0020119', ['phsf'], 0.0)||('of', '', '', '', 0.0)||('possible', 'adj', 'C0332149', ['qlco'], 0.0)||('or', '', '', '', 0.0)||('probable', 'adj', 'C0332148', ['qlco'], 0.0)||("alzheimer ' s disease", '', '', '', 0.0)||(',', '', '', '', 0.0)||('and', '', '', '', 0.0)||('secondary', 'adj', 'C0175668', ['tmco'], 0.0)||('outcomes', 'noun', 'C0085415', ['qlco'], 0.0)||('included', '', '', '', 0.0)||('cognition', 'noun', 'C0009240', ['menp'], 0.0)||('and', '', '', '', 0.0)||('function', 'noun', 'C0031843', ['phsf'], 0.0)||('.', '', '', '', 0.0)||
('subjects', '', '', '', 0.0)||('were', '', '', '', 0.0)||('randomly', '', '', '', 0.0)||('assigned', 'verb', 'C1516050', ['ftcn'], 0.0)||('to', '', '', '', 0.0)||('receive', 'verb', 'C1514756', ['qlco'], 0.0)||('2000', '', '', '', 0.0)||('iu', 'noun', 'C0439453', ['qnco'], 0.0)||('of', '', '', '', 0.0)||('vitamin e', 'noun', 'C0042874', ['lipd', 'phsu', 'vita'], 0.0)||(',', '', '', '', 0.0)||('10', '', '', '', 0.0)||('mg', '', '', '', 0.0)||('of', '', '', '', 0.0)||('donepezil', 'noun', 'C0527316', ['orch', 'phsu'], 0.0)||(',', '', '', '', 0.0)||('or', '', '', '', 0.0)||('placebo', 'noun', 'C0032042', ['topp'], 0.0)||('daily', 'adv', 'C0332173', ['tmco'], 0.0)||('for', '', '', '', 0.0)||('3', '', '', '', 0.0)||('years', 'noun', 'C0439234', ['tmco'], 0.0)||('.', '', '', '', 0.0)||
('of', '', '', '', 0.0)||('the', '', '', '', 0.0)||('total', 'noun', 'C0439810', ['qlco'], 0.0)||(',', '', '', '', 0.0)||('214', '', '', '', 0.0)||('(', '', '', '', 0.0)||('28 %', '', '', '', 0.0)||(')', '', '', '', 0.0)||('of', '', '', '', 0.0)||('the', '', '', '', 0.0)||('study', 'noun', 'C0008976', ['resa'], 0.0)||('subjects', '', '', '', 0.0)||('progressed', '', '', '', 0.0)||('to', '', '', '', 0.0)||('dementia', 'noun', 'C0497327', ['dsyn'], 0.0)||(',', '', '', '', 0.0)||('with', '', '', '', 0.0)||('212', '', '', '', 0.0)||('classified', 'verb', 'C0008902', ['clas'], 0.0)||('as', '', '', '', 0.0)||('possible', 'adj', 'C0332149', ['qlco'], 0.0)||('or', '', '', '', 0.0)||('probable', 'adj', 'C0332148', ['qlco'], 0.0)||("alzheimer ' s disease", '', '', '', 0.0)||('.', '', '', '', 0.0)||
('analysis', 'noun', 'C0002778', ['lbpr'], 0.0)||('of', '', '', '', 0.0)||('the', '', '', '', 0.0)||('treatment effects', '', '', '', 0.0)||('at', '', '', '', 0.0)||('6', '', '', '', 0.0)||('-', '', '', '', 0.0)||('month', 'noun', 'C0439231', ['tmco'], 0.0)||('intervals', '', '', '', 0.0)||('showed', '', '', '', 0.0)||('a', '', '', '', 0.0)||('decreased', 'adj', 'C0205216', ['qnco'], 0.0)||('probability', 'noun', 'C0033204', ['qnco'], 0.0)||('of', '', '', '', 0.0)||('progression', 'noun', 'C0242656', ['patf'], 0.0)||('to', '', '', '', 0.0)||("alzheimer ' s disease", '', '', '', 0.0)||('in', '', '', '', 0.0)||('the', '', '', '', 0.0)||('donepezil', 'noun', 'C0527316', ['orch', 'phsu'], 0.0)||('group', 'noun', 'C0441833', ['idcn'], 0.0)||('during', '', '', '', 0.0)||('the', '', '', '', 0.0)||('first', 'noun', 'C0205435', ['qnco'], 0.0)||('12', '', '', '', 0.0)||('months', 'noun', 'C0439231', ['tmco'], 0.0)||('of', '', '', '', 0.0)||('the', '', '', '', 0.0)||('study', 'noun', 'C0008976', ['resa'], 0.0)||(',', '', '', '', 0.0)||('compared', 'verb', 'C1707455', ['acty'], 0.0)||('with', '', '', '', 0.0)||('placebo', 'noun', 'C0032042', ['topp'], 0.0)||('(', '', '', '', 0.0)||('14 . 7 %', '', '', '', 0.0)||('vs', '', '', '', 0.0)||('6 . 3 %', '', '', '', 0.0)||(';', '', '', '', 0.0)||('p', '', '', '', 0.0)||('=', '', '', '', 0.0)||('.', '', '', '', 0.0)||('04', '', '', '', 0.0)||(';', '', '', '', 0.0)||('number', 'noun', 'C0449788', ['qnco'], 0.0)||('needed', 'verb', 'C0027552', ['qlco'], 0.0)||('to', '', '', '', 0.0)||('treat', 'verb', 'C1292734', ['ftcn'], 0.0)||('=', '', '', '', 0.0)||('12', '', '', '', 0.0)||(')', '', '', '', 0.0)||(',', '', '', '', 0.0)||('but', '', '', '', 0.0)||('this', '', '', '', 0.0)||('change', 'noun', 'C0392747', ['ftcn'], 0.0)||('did', '', '', '', 0.0)||('not', 'adv', 'C1518422', ['ftcn'], 0.0)||('persist', '', '', '', 0.0)||('to', '', '', '', 0.0)||('3', '', '', '', 0.0)||('years', 'noun', 'C0439234', ['tmco'], 0.0)||('.', '', '', '', 0.0)||
('several', '', '', '', 0.0)||('of', '', '', '', 0.0)||('the', '', '', '', 0.0)||('psychometric', 'adj', 'C0033920', ['diap'], 0.0)||('tests', 'noun', 'C0022885', ['lbpr'], 0.0)||('showed', '', '', '', 0.0)||('statistically significant', 'adj', 'C0237881', ['qnco'], 0.0)||('differences', '', '', '', 0.0)||('(', '', '', '', 0.0)||('scores', 'noun', 'C0449820', ['qnco'], 0.0)||('for', '', '', '', 0.0)||('mini - mental state examination', '', '', '', 0.0)||('[', '', '', '', 0.0)||('mmse', 'noun', 'C1697972', ['diap'], 0.0)||(']', '', '', '', 0.0)||(',', '', '', '', 0.0)||('clinical', 'adj', 'C0205210', ['qlco'], 0.0)||('dementia', 'noun', 'C0497327', ['dsyn'], 0.0)||('rating', 'adj', 'C0871208', ['acty'], 0.0)||('sum', 'noun', 'C1515051', ['qnco'], 0.0)||('of', '', '', '', 0.0)||('boxes', 'noun', 'C0179400', ['mnob'], 0.0)||(',', '', '', '', 0.0)||('global', 'adj', 'C0205246', ['spco'], 0.0)||('deterioration', 'noun', 'C0868945', ['phpr'], 0.0)||('scale', 'noun', 'C0175659', ['medd'], 0.0)||(',', '', '', '', 0.0)||('and', '', '', '', 0.0)||('modified', 'adj', 'C0205349', ['ftcn'], 0.0)||("alzheimer ' s disease", '', '', '', 0.0)||('assessment', 'noun', 'C1261322', ['hlca'], 0.0)||('scale', 'noun', 'C0175659', ['medd'], 0.0)||('-', '', '', '', 0.0)||('cognitive', 'adj', 'C1516691', ['ftcn'], 0.0)||('subscale', '', '', '', 0.0)||(')', '', '', '', 0.0)||('early', 'adv', 'C1279919', ['tmco'], 0.0)||('in', '', '', '', 0.0)||('the', '', '', '', 0.0)||('study', 'noun', 'C0008976', ['resa'], 0.0)||(',', '', '', '', 0.0)||('but', '', '', '', 0.0)||('the', '', '', '', 0.0)||('effect', 'noun', 'C1280500', ['qlco'], 0.0)||('was', '', '', '', 0.0)||('only', '', '', '', 0.0)||('detected', 'verb', 'C0442726', ['fndg'], 0.0)||('in', '', '', '', 0.0)||('the', '', '', '', 0.0)||('first', 'noun', 'C0205435', ['qnco'], 0.0)||('12', '', '', '', 0.0)||('months', 'noun', 'C0439231', ['tmco'], 0.0)||('of', '', '', '', 0.0)||('the', '', '', '', 0.0)||('study', 'noun', 'C0008976', ['resa'], 0.0)||('.', '', '', '', 0.0)||
