('pilot studies', 'noun', 'C0031928', ['resa'], 0.0)||('suggested', '', '', '', 0.0)||('that', '', '', '', 0.0)||('more', '', '', '', 0.0)||('patients', 'noun', 'C0030705', ['podg'], 0.0)||('with', '', '', '', 0.0)||('chronic hepatitis c virus', '', '', '', 0.0)||('infection', 'noun', 'C0021311', ['dsyn'], 0.0)||('had', '', '', '', 0.0)||('a', '', '', '', 0.0)||('sustained', 'adj', 'C0443318', ['ftcn'], 0.0)||('virological', 'adj', 'C0205466', ['ftcn'], 0.0)||('response', 'noun', 'C0871261', ['clna'], 0.0)||('when', '', '', '', 0.0)||('treated', 'verb', 'C1522326', ['ftcn'], 0.0)||('with', '', '', '', 0.0)||('the', '', '', '', 0.0)||('combination', 'noun', 'C0205195', ['qlco'], 0.0)||('of', '', '', '', 0.0)||('interferon alpha - 2b', '', '', '', 0.0)||('and', '', '', '', 0.0)||('ribavirin', 'noun', 'C0035525', ['nnon', 'phsu'], 0.0)||('than', '', '', '', 0.0)||('with', '', '', '', 0.0)||('interferon alpha - 2b', '', '', '', 0.0)||('alone', 'adj', 'C0439044', ['fndg'], 0.0)||('.', '', '', '', 0.0)||
('we', '', '', '', 0.0)||('investigated', '', '', '', 0.0)||('the', '', '', '', 0.0)||('biochemical', 'adj', 'C0205474', ['ftcn'], 0.0)||('and', '', '', '', 0.0)||('virological', 'adj', 'C0205466', ['ftcn'], 0.0)||('responses', 'noun', 'C0871261', ['clna'], 0.0)||('and', '', '', '', 0.0)||('safety', 'noun', 'C0036043', ['hcpp'], 0.0)||('of', '', '', '', 0.0)||('treatment', 'noun', 'C0039798', ['ftcn'], 0.0)||('with', '', '', '', 0.0)||('interferon alpha - 2b', '', '', '', 0.0)||('and', '', '', '', 0.0)||('ribavirin', 'noun', 'C0035525', ['nnon', 'phsu'], 0.0)||('compared', 'verb', 'C1707455', ['acty'], 0.0)||('with', '', '', '', 0.0)||('interferon alpha - 2b', '', '', '', 0.0)||('alone', 'adj', 'C0439044', ['fndg'], 0.0)||('.', '', '', '', 0.0)||
('in', '', '', '', 0.0)||('this', '', '', '', 0.0)||('double - blind', '', '', '', 0.0)||('trial', 'noun', 'C0008976', ['resa'], 0.0)||('100', '', '', '', 0.0)||('patients', 'noun', 'C0030705', ['podg'], 0.0)||('were', '', '', '', 0.0)||('randomly', '', '', '', 0.0)||('assigned', 'verb', 'C1516050', ['ftcn'], 0.0)||('to', '', '', '', 0.0)||('treatment', 'noun', 'C0039798', ['ftcn'], 0.0)||('with', '', '', '', 0.0)||('interferon alpha - 2b', '', '', '', 0.0)||('(', '', '', '', 0.0)||('3', '', '', '', 0.0)||('mu', 'noun', 'C0347978', ['inpr'], 0.0)||('three', '', 'C0205449', ['qnco'], 0.0)||('times', '', '', '', 0.0)||('a', '', '', '', 0.0)||('week', 'noun', 'C0439230', ['tmco'], 0.0)||(')', '', '', '', 0.0)||('in', '', '', '', 0.0)||('combination', 'noun', 'C0205195', ['qlco'], 0.0)||('with', '', '', '', 0.0)||('ribavirin', 'noun', 'C0035525', ['nnon', 'phsu'], 0.0)||('(', '', '', '', 0.0)||('1000', '', '', '', 0.0)||('or', '', '', '', 0.0)||('1200', '', '', '', 0.0)||('mg', '', '', '', 0.0)||('per', '', '', '', 0.0)||('day', 'noun', 'C0439228', ['tmco'], 0.0)||(')', '', '', '', 0.0)||('or', '', '', '', 0.0)||('placebo', 'noun', 'C0032042', ['topp'], 0.0)||('for', '', '', '', 0.0)||('24', '', '', '', 0.0)||('weeks', 'noun', 'C0439230', ['tmco'], 0.0)||('and', '', '', '', 0.0)||('then', 'adv', 'C1883708', ['tmco'], 0.0)||('followed', '', '', '', 0.0)||('up', '', '', '', 0.0)||('for', '', '', '', 0.0)||('a', '', '', '', 0.0)||('further', 'adj', 'C1517331', ['spco'], 0.0)||('24', '', '', '', 0.0)||('weeks', 'noun', 'C0439230', ['tmco'], 0.0)||('.', '', '', '', 0.0)||
('a', '', '', '', 0.0)||('further', 'adv', 'C1517331', ['spco'], 0.0)||('follow - up', '', '', '', 0.0)||('was', '', '', '', 0.0)||('done', '', '', '', 0.0)||('1', '', '', '', 0.0)||('year', 'noun', 'C0439234', ['tmco'], 0.0)||('after', '', '', '', 0.0)||('active treatment', 'noun', 'C1704532', ['topp'], 0.0)||('stopped', '', '', '', 0.0)||('.', '', '', '', 0.0)||
('the', '', '', '', 0.0)||('primary', 'adj', 'C0205225', ['qlco'], 0.0)||('endpoint', 'noun', 'C2349179', ['qlco'], 0.0)||('was', '', '', '', 0.0)||('the', '', '', '', 0.0)||('sustained', 'adj', 'C0443318', ['ftcn'], 0.0)||('virological', 'adj', 'C0205466', ['ftcn'], 0.0)||('response', 'noun', 'C0871261', ['clna'], 0.0)||(',', '', '', '', 0.0)||('defined', 'verb', 'C1704788', ['cnce'], 0.0)||('as', '', '', '', 0.0)||('no', '', '', '', 0.0)||('detectable', '', '', '', 0.0)||('hepatitis c virus rna', 'noun', 'C0369335', ['bacs', 'nnon'], 0.0)||('by', '', '', '', 0.0)||('pcr', 'noun', 'C0032520', ['lbpr', 'mbrt'], 0.0)||('at', '', '', '', 0.0)||('both', '', '', '', 0.0)||('week', 'noun', 'C0439230', ['tmco'], 0.0)||('24', '', '', '', 0.0)||('and', '', '', '', 0.0)||('week', 'noun', 'C0439230', ['tmco'], 0.0)||('48', '', '', '', 0.0)||('.', '', '', '', 0.0)||
('retrospectively', '', '', '', 0.0)||(',', '', '', '', 0.0)||('the', '', '', '', 0.0)||('baseline', 'noun', 'C0168634', ['bodm'], 0.0)||('hepatitis c virus - rna', '', '', '', 0.0)||('load', 'noun', 'C1550025', ['idcn'], 0.0)||('was', '', '', '', 0.0)||('analysed', '', '', '', 0.0)||('as', '', '', '', 0.0)||('a', '', '', '', 0.0)||('predictor', 'noun', 'C2698872', ['idcn'], 0.0)||('of', '', '', '', 0.0)||('a', '', '', '', 0.0)||('sustained', 'adj', 'C0443318', ['ftcn'], 0.0)||('virological', 'adj', 'C0205466', ['ftcn'], 0.0)||('response', 'noun', 'C0871261', ['clna'], 0.0)||('.', '', '', '', 0.0)||
('data', 'noun', 'C1511726', ['idcn'], 0.0)||('were', '', '', '', 0.0)||('analysed', '', '', '', 0.0)||('by', '', '', '', 0.0)||('intention', 'noun', 'C0162425', ['menp'], 0.0)||('to', '', '', '', 0.0)||('treat', 'verb', 'C1292734', ['ftcn'], 0.0)||('.', '', '', '', 0.0)||
('18', '', '', '', 0.0)||('(', '', '', '', 0.0)||('36 %', '', '', '', 0.0)||(')', '', '', '', 0.0)||('of', '', '', '', 0.0)||('the', '', '', '', 0.0)||('50', '', '', '', 0.0)||('patients', 'noun', 'C0030705', ['podg'], 0.0)||('in', '', '', '', 0.0)||('the', '', '', '', 0.0)||('interferon alpha - 2b', '', '', '', 0.0)||('and', '', '', '', 0.0)||('ribavirin', 'noun', 'C0035525', ['nnon', 'phsu'], 0.0)||('group', 'noun', 'C0441833', ['idcn'], 0.0)||('had', '', '', '', 0.0)||('a', '', '', '', 0.0)||('sustained', 'adj', 'C0443318', ['ftcn'], 0.0)||('virological', 'adj', 'C0205466', ['ftcn'], 0.0)||('response', 'noun', 'C0871261', ['clna'], 0.0)||('compared', 'verb', 'C1707455', ['acty'], 0.0)||('with', '', '', '', 0.0)||('nine', '', 'C0205455', ['qnco'], 0.0)||('(', '', '', '', 0.0)||('18 %', '', '', '', 0.0)||(')', '', '', '', 0.0)||('of', '', '', '', 0.0)||('the', '', '', '', 0.0)||('50', '', '', '', 0.0)||('patients', 'noun', 'C0030705', ['podg'], 0.0)||('in', '', '', '', 0.0)||('the', '', '', '', 0.0)||('interferon alpha - 2b', '', '', '', 0.0)||('and', '', '', '', 0.0)||('placebo', 'noun', 'C0032042', ['topp'], 0.0)||('group', 'noun', 'C0441833', ['idcn'], 0.0)||('(', '', '', '', 0.0)||('p', '', '', '', 0.0)||('=', '', '', '', 0.0)||('0 . 047', '', '', '', 0.0)||(')', '', '', '', 0.0)||('.', '', '', '', 0.0)||
('at', '', '', '', 0.0)||('the', '', '', '', 0.0)||('1', '', '', '', 0.0)||('year', 'noun', 'C0439234', ['tmco'], 0.0)||('follow - up', '', '', '', 0.0)||('the', '', '', '', 0.0)||('proportion', 'noun', 'C1709707', ['qnco'], 0.0)||('of', '', '', '', 0.0)||('patients', 'noun', 'C0030705', ['podg'], 0.0)||('with', '', '', '', 0.0)||('a', '', '', '', 0.0)||('virological', 'adj', 'C0205466', ['ftcn'], 0.0)||('response', 'noun', 'C0871261', ['clna'], 0.0)||('was', '', '', '', 0.0)||('greater', 'adj', 'C1704243', ['qnco'], 0.0)||('in', '', '', '', 0.0)||('the', '', '', '', 0.0)||('interferon alpha - 2b', '', '', '', 0.0)||('and', '', '', '', 0.0)||('ribavirin', 'noun', 'C0035525', ['nnon', 'phsu'], 0.0)||('group', 'noun', 'C0441833', ['idcn'], 0.0)||('than', '', '', '', 0.0)||('the', '', '', '', 0.0)||('interferon alpha - 2b', '', '', '', 0.0)||('and', '', '', '', 0.0)||('placebo', 'noun', 'C0032042', ['topp'], 0.0)||('group', 'noun', 'C0441833', ['idcn'], 0.0)||('(', '', '', '', 0.0)||('42', '', '', '', 0.0)||('vs', '', '', '', 0.0)||('20 %', '', '', '', 0.0)||(',', '', '', '', 0.0)||('p', '', '', '', 0.0)||('=', '', '', '', 0.0)||('0 . 03', '', '', '', 0.0)||(')', '', '', '', 0.0)||(',', '', '', '', 0.0)||('respectively', '', '', '', 0.0)||('.', '', '', '', 0.0)||
('more', '', '', '', 0.0)||('patients', 'noun', 'C0030705', ['podg'], 0.0)||('with', '', '', '', 0.0)||('baseline', 'noun', 'C0168634', ['bodm'], 0.0)||('hepatitis c virus - rna', '', '', '', 0.0)||('concentrations', 'noun', 'C0086045', ['menp'], 0.0)||('greater', 'adj', 'C1704243', ['qnco'], 0.0)||('than', '', '', '', 0.0)||('3', '', '', '', 0.0)||('x', '', '', '', 0.0)||('10', '', '', '', 0.0)||('(', '', '', '', 0.0)||('6', '', '', '', 0.0)||(')', '', '', '', 0.0)||('genome', 'noun', 'C0017428', ['gngm'], 0.0)||('equivalents', 'noun', 'C0439185', ['qnco'], 0.0)||('per', '', '', '', 0.0)||('ml', '', '', '', 0.0)||('had', '', '', '', 0.0)||('a', '', '', '', 0.0)||('sustained response', '', '', '', 0.0)||('with', '', '', '', 0.0)||('interferon alpha - 2b', '', '', '', 0.0)||('and', '', '', '', 0.0)||('ribavirin', 'noun', 'C0035525', ['nnon', 'phsu'], 0.0)||('than', '', '', '', 0.0)||('with', '', '', '', 0.0)||('interferon alpha - 2b', '', '', '', 0.0)||('and', '', '', '', 0.0)||('placebo', 'noun', 'C0032042', ['topp'], 0.0)||('(', '', '', '', 0.0)||('12 / 29', '', '', '', 0.0)||('vs', '', '', '', 0.0)||('1 / 26', '', '', '', 0.0)||(',', '', '', '', 0.0)||('p', '', '', '', 0.0)||('=', '', '', '', 0.0)||('0 . 009', '', '', '', 0.0)||(')', '', '', '', 0.0)||(',', '', '', '', 0.0)||('whereas', '', '', '', 0.0)||('the', '', '', '', 0.0)||('sustained response', '', '', '', 0.0)||('did', '', '', '', 0.0)||('not', 'adv', 'C1518422', ['ftcn'], 0.0)||('differ', '', '', '', 0.0)||('between', '', '', '', 0.0)||('the', '', '', '', 0.0)||('two', 'adj', 'C0205448', ['qnco'], 0.0)||('treatment', 'noun', 'C0039798', ['ftcn'], 0.0)||('groups', 'verb', 'C0441833', ['idcn'], 0.0)||('for', '', '', '', 0.0)||('hepatitis c virus - rna', '', '', '', 0.0)||('amounts', '', '', '', 0.0)||('less', '', '', '', 0.0)||('than', '', '', '', 0.0)||('3', '', '', '', 0.0)||('x', '', '', '', 0.0)||('10', '', '', '', 0.0)||('(', '', '', '', 0.0)||('6', '', '', '', 0.0)||(')', '', '', '', 0.0)||('equivalents', 'noun', 'C0439185', ['qnco'], 0.0)||('per', '', '', '', 0.0)||('ml', '', '', '', 0.0)||('(', '', '', '', 0.0)||('6 / 21', '', '', '', 0.0)||('vs', '', '', '', 0.0)||('8 / 24', '', '', '', 0.0)||(',', '', '', '', 0.0)||('p', '', '', '', 0.0)||('=', '', '', '', 0.0)||('0 . 67', '', '', '', 0.0)||(')', '', '', '', 0.0)||(',', '', '', '', 0.0)||('respectively', '', '', '', 0.0)||('.', '', '', '', 0.0)||
('more', '', '', '', 0.0)||('patients', 'noun', 'C0030705', ['podg'], 0.0)||('with', '', '', '', 0.0)||('chronic hepatitis c', '', '', '', 0.0)||('have', '', '', '', 0.0)||('a', '', '', '', 0.0)||('sustained', 'adj', 'C0443318', ['ftcn'], 0.0)||('virological', 'adj', 'C0205466', ['ftcn'], 0.0)||('response', 'noun', 'C0871261', ['clna'], 0.0)||('with', '', '', '', 0.0)||('interferon alpha - 2b', '', '', '', 0.0)||('and', '', '', '', 0.0)||('ribavirin', 'noun', 'C0035525', ['nnon', 'phsu'], 0.0)||('than', '', '', '', 0.0)||('with', '', '', '', 0.0)||('only', '', '', '', 0.0)||('interferon alpha - 2b', '', '', '', 0.0)||('treatment', 'noun', 'C0039798', ['ftcn'], 0.0)||('.', '', '', '', 0.0)||
('we', '', '', '', 0.0)||('suggest', 'verb', 'C1705535', ['idcn'], 0.0)||('that', '', '', '', 0.0)||('patients', 'noun', 'C0030705', ['podg'], 0.0)||('with', '', '', '', 0.0)||('high', 'adj', 'C0205250', ['qlco'], 0.0)||('hepatitis c virus - rna', '', '', '', 0.0)||('loads', '', '', '', 0.0)||('should', '', '', '', 0.0)||('be', '', '', '', 0.0)||('treated', 'verb', 'C1522326', ['ftcn'], 0.0)||('with', '', '', '', 0.0)||('interferon alpha - 2b', '', '', '', 0.0)||('and', '', '', '', 0.0)||('ribavirin', 'noun', 'C0035525', ['nnon', 'phsu'], 0.0)||('.', '', '', '', 0.0)||
