('sore throat', '', '', '', 0.0)||(',', '', '', '', 0.0)||('earache', 'noun', 'C0013456', ['sosy'], 0.0)||(',', '', '', '', 0.0)||('and', '', '', '', 0.0)||('sinusitis', 'noun', 'C0037199', ['dsyn'], 0.0)||('are', '', '', '', 0.0)||('common', 'adj', 'C0205214', ['qnco'], 0.0)||('presenting', 'adj', 'C0449450', ['idcn'], 0.0)||('complaints', '', '', '', 0.0)||('in', '', '', '', 0.0)||('the', '', '', '', 0.0)||('emergency department', 'noun', 'C0562508', ['hcro', 'mnob'], 0.0)||(',', '', '', '', 0.0)||('and', '', '', '', 0.0)||('all', '', '', '', 0.0)||('fall', 'verb', 'C0085639', ['fndg'], 0.0)||('within', '', '', '', 0.0)||('the', '', '', '', 0.0)||('top', 'noun', 'C1522168', ['ftcn'], 0.0)||('ten', 'noun', 'C0014518', ['dsyn'], 0.0)||('in', '', '', '', 0.0)||('the', '', '', '', 0.0)||('united states', 'noun', 'C0041703', ['geoa'], 0.0)||('.', '', '', '', 0.0)||
('these', '', '', '', 0.0)||('complaints', '', '', '', 0.0)||('usually', '', '', '', 0.0)||('have', '', '', '', 0.0)||('a', '', '', '', 0.0)||('benign', 'adj', 'C0205183', ['qlco'], 0.0)||('course', 'noun', 'C0750729', ['tmco'], 0.0)||('but', '', '', '', 0.0)||('rarely', 'adv', 'C0522498', ['qlco'], 0.0)||('can', '', '', '', 0.0)||('be', '', '', '', 0.0)||('a', '', '', '', 0.0)||('symptom', '', '', '', 0.0)||('of', '', '', '', 0.0)||('a', '', '', '', 0.0)||('serious', 'adj', 'C0205404', ['qlco'], 0.0)||('disease', 'noun', 'C0012634', ['dsyn'], 0.0)||('process', 'noun', 'C1184743', ['bpoc'], 0.0)||('.', '', '', '', 0.0)||
('this', '', '', '', 0.0)||('article', 'noun', 'C1706852', ['inpr'], 0.0)||('provides', '', '', '', 0.0)||('an', '', '', '', 0.0)||('evidence', 'noun', 'C0332120', ['ftcn'], 0.0)||('-', '', '', '', 0.0)||('based', 'adj', 'C1527178', ['ftcn'], 0.0)||('review', 'noun', 'C0282443', ['inpr'], 0.0)||('of', '', '', '', 0.0)||('the', '', '', '', 0.0)||('literature', 'noun', 'C0023866', ['inpr'], 0.0)||('regarding', '', '', '', 0.0)||('the', '', '', '', 0.0)||('diagnosis', 'noun', 'C0011900', ['fndg'], 0.0)||('of', '', '', '', 0.0)||('pharyngitis', 'noun', 'C0031350', ['dsyn'], 0.0)||(',', '', '', '', 0.0)||('otitis media', 'noun', 'C0029882', ['dsyn'], 0.0)||(',', '', '', '', 0.0)||('and', '', '', '', 0.0)||('sinusitis', 'noun', 'C0037199', ['dsyn'], 0.0)||('.', '', '', '', 0.0)||
