('the', '', '', '', 0.0)||('centers for disease control and prevention', 'noun', 'C0007670', ['hcro'], 0.0)||('(', '', '', '', 0.0)||('cdc', 'noun', 'C0007670', ['hcro'], 0.0)||(')', '', '', '', 0.0)||('convened', '', '', '', 0.0)||('a', '', '', '', 0.0)||('working', 'adj', 'C0043227', ['ocac'], 0.0)||('group', 'noun', 'C0441833', ['idcn'], 0.0)||('in', '', '', '', 0.0)||('october', '', '', '', 0.0)||('1995', '', '', '', 0.0)||('to', '', '', '', 0.0)||('summarize', '', '', '', 0.0)||('the', '', '', '', 0.0)||('data', 'noun', 'C1511726', ['idcn'], 0.0)||('regarding', '', '', '', 0.0)||('the', '', '', '', 0.0)||('risk', 'noun', 'C0035647', ['qlco'], 0.0)||('of', '', '', '', 0.0)||('invasive', 'adj', 'C0205281', ['qlco'], 0.0)||('group a', 'noun', 'C0441835', ['clas'], 0.0)||('streptococcal', 'adj', 'C0038402', ['bact'], 0.0)||('disease', 'noun', 'C0012634', ['dsyn'], 0.0)||('among', '', '', '', 0.0)||('household', 'noun', 'C0020052', ['famg'], 0.0)||('contacts', '', '', '', 0.0)||('of', '', '', '', 0.0)||('an', '', '', '', 0.0)||('index', 'noun', 'C0918012', ['inpr'], 0.0)||('patient', '', '', '', 0.0)||('and', '', '', '', 0.0)||('the', '', '', '', 0.0)||('potential', 'adj', 'C0035647', ['qlco'], 0.0)||('efficacy', 'noun', 'C1707887', ['resa'], 0.0)||('of', '', '', '', 0.0)||('chemoprophylaxis', 'noun', 'C0282515', ['topp'], 0.0)||('.', '', '', '', 0.0)||
('this', '', '', '', 0.0)||('statement', 'noun', 'C1710187', ['idcn'], 0.0)||('on', '', '', '', 0.0)||('chemoprophylaxis', 'noun', 'C0282515', ['topp'], 0.0)||('for', '', '', '', 0.0)||('prevention', 'noun', 'C0199176', ['topp'], 0.0)||('of', '', '', '', 0.0)||('subsequent', 'adj', 'C0332282', ['tmco'], 0.0)||('cases', 'noun', 'C0868928', ['ftcn'], 0.0)||('among', '', '', '', 0.0)||('household', 'noun', 'C0020052', ['famg'], 0.0)||('contacts', '', '', '', 0.0)||('is', '', '', '', 0.0)||('intended', 'verb', 'C1283828', ['qlco'], 0.0)||('for', '', '', '', 0.0)||('use', 'noun', 'C0042153', ['ftcn'], 0.0)||('by', '', '', '', 0.0)||('public health', 'noun', 'C0034019', ['bmod'], 0.0)||('professionals', '', '', '', 0.0)||('and', '', '', '', 0.0)||('clinicians', 'noun', 'C0871685', ['prog'], 0.0)||('.', '', '', '', 0.0)||
('the', '', '', '', 0.0)||('cdc', 'noun', 'C0007670', ['hcro'], 0.0)||('invited', '', '', '', 0.0)||('representatives', '', '', '', 0.0)||('of', '', '', '', 0.0)||('the', '', '', '', 0.0)||('american academy of pediatrics', '', '', '', 0.0)||(',', '', '', '', 0.0)||('the', '', '', '', 0.0)||('council', 'noun', 'C1551807', ['popg'], 0.0)||('of', '', '', '', 0.0)||('state', 'noun', 'C1301808', ['geoa'], 0.0)||('and', '', '', '', 0.0)||('territorial', '', '', '', 0.0)||('epidemiologists', '', '', '', 0.0)||(',', '', '', '', 0.0)||('the', '', '', '', 0.0)||('hospital', 'noun', 'C0019994', ['hcro', 'mnob'], 0.0)||('infection control', 'noun', 'C0085557', ['hlca'], 0.0)||('practice', 'noun', 'C0237607', ['menp'], 0.0)||('advisory', '', '', '', 0.0)||('committee', 'noun', 'C2699414', ['grup'], 0.0)||(',', '', '', '', 0.0)||('the', '', '', '', 0.0)||('infectious diseases', 'noun', 'C0009450', ['dsyn'], 0.0)||('society', 'noun', 'C0037455', ['orgt'], 0.0)||('of', '', '', '', 0.0)||('america', 'noun', 'C0002454', ['geoa'], 0.0)||(',', '', '', '', 0.0)||('and', '', '', '', 0.0)||('experts', '', '', '', 0.0)||('from', '', '', '', 0.0)||('academia', 'noun', 'C1510747', ['orgt'], 0.0)||('to', '', '', '', 0.0)||('participate', '', '', '', 0.0)||('.', '', '', '', 0.0)||
('data', 'noun', 'C1511726', ['idcn'], 0.0)||('on', '', '', '', 0.0)||('the', '', '', '', 0.0)||('transmission', 'noun', 'C0040722', ['idcn'], 0.0)||('of', '', '', '', 0.0)||('group a', 'noun', 'C0441835', ['clas'], 0.0)||('streptococcal', 'adj', 'C0038402', ['bact'], 0.0)||('and', '', '', '', 0.0)||('risk factors', 'noun', 'C0035648', ['qnco'], 0.0)||('for', '', '', '', 0.0)||('severe', 'adj', 'C0205082', ['qlco'], 0.0)||('infection', 'noun', 'C0021311', ['dsyn'], 0.0)||('were', '', '', '', 0.0)||('considered', '', '', '', 0.0)||('.', '', '', '', 0.0)||
('population - based', '', '', '', 0.0)||('surveillance', 'noun', 'C0220920', ['ftcn'], 0.0)||('data', 'noun', 'C1511726', ['idcn'], 0.0)||('were', '', '', '', 0.0)||('used', '', '', '', 0.0)||('to', '', '', '', 0.0)||('estimate', 'verb', 'C0750572', ['qnco'], 0.0)||('the', '', '', '', 0.0)||('risk', 'noun', 'C0035647', ['qlco'], 0.0)||('of', '', '', '', 0.0)||('invasive', 'adj', 'C0205281', ['qlco'], 0.0)||('group a', 'noun', 'C0441835', ['clas'], 0.0)||('streptococcal', 'adj', 'C0038402', ['bact'], 0.0)||('disease', 'noun', 'C0012634', ['dsyn'], 0.0)||('among', '', '', '', 0.0)||('household', 'noun', 'C0020052', ['famg'], 0.0)||('contacts', '', '', '', 0.0)||('of', '', '', '', 0.0)||('a', '', '', '', 0.0)||('case', 'noun', 'C0868928', ['ftcn'], 0.0)||('patient', '', '', '', 0.0)||('.', '', '', '', 0.0)||
('the', '', '', '', 0.0)||('potential', 'adj', 'C0035647', ['qlco'], 0.0)||('efficacy', 'noun', 'C1707887', ['resa'], 0.0)||('of', '', '', '', 0.0)||('chemoprophylaxis', 'noun', 'C0282515', ['topp'], 0.0)||('was', '', '', '', 0.0)||('considered', '', '', '', 0.0)||('using', 'verb', 'C1524063', ['ftcn'], 0.0)||('estimates', '', '', '', 0.0)||('of', '', '', '', 0.0)||('the', '', '', '', 0.0)||('efficacy', 'noun', 'C1707887', ['resa'], 0.0)||('of', '', '', '', 0.0)||('various', 'adj', 'C0440102', ['irda'], 0.0)||('regimens', '', '', '', 0.0)||('in', '', '', '', 0.0)||('eradicating', '', '', '', 0.0)||('pharyngeal', 'adj', 'C0031354', ['bpoc'], 0.0)||('carriage', '', '', '', 0.0)||('.', '', '', '', 0.0)||
('this', '', '', '', 0.0)||('document', 'noun', 'C1547673', ['clas'], 0.0)||('summarizes', '', '', '', 0.0)||('the', '', '', '', 0.0)||('data', 'noun', 'C1511726', ['idcn'], 0.0)||('considered', '', '', '', 0.0)||('by', '', '', '', 0.0)||('the', '', '', '', 0.0)||('working', 'adj', 'C0043227', ['ocac'], 0.0)||('group', 'noun', 'C0441833', ['idcn'], 0.0)||('to', '', '', '', 0.0)||('develop', '', '', '', 0.0)||('its', '', '', '', 0.0)||('position', 'noun', 'C0733755', ['spco'], 0.0)||('.', '', '', '', 0.0)||
('the', '', '', '', 0.0)||('consensus', 'noun', 'C0376298', ['socb'], 0.0)||('achieved', '', '', '', 0.0)||('by', '', '', '', 0.0)||('group', 'noun', 'C0441833', ['idcn'], 0.0)||('discussion', 'noun', 'C0557061', ['topp'], 0.0)||('at', '', '', '', 0.0)||('the', '', '', '', 0.0)||('meeting', 'noun', 'C0556656', ['hlca'], 0.0)||('was', '', '', '', 0.0)||('incorporated', '', '', '', 0.0)||('in', '', '', '', 0.0)||('a', '', '', '', 0.0)||('draft', 'adj', 'C1547277', ['inpr'], 0.0)||('document', 'noun', 'C1547673', ['clas'], 0.0)||(',', '', '', '', 0.0)||('which', '', '', '', 0.0)||('was', '', '', '', 0.0)||('reviewed', 'verb', 'C1709940', ['qlco'], 0.0)||('by', '', '', '', 0.0)||('all', '', '', '', 0.0)||('members', '', '', '', 0.0)||('and', '', '', '', 0.0)||('revised', 'verb', 'C1527075', ['ftcn'], 0.0)||('to', '', '', '', 0.0)||('include', 'verb', 'C1552866', ['idcn'], 0.0)||('suggested', '', '', '', 0.0)||('changes', '', '', '', 0.0)||('.', '', '', '', 0.0)||
('the', '', '', '', 0.0)||('working', 'adj', 'C0043227', ['ocac'], 0.0)||('group', 'noun', 'C0441833', ['idcn'], 0.0)||('concluded', '', '', '', 0.0)||('that', '', '', '', 0.0)||('no', '', '', '', 0.0)||('definite', 'adj', 'C0439544', ['qlco'], 0.0)||('recommendations', 'noun', 'C0034866', ['idcn'], 0.0)||('can', '', '', '', 0.0)||('be', '', '', '', 0.0)||('made', '', '', '', 0.0)||('at', '', '', '', 0.0)||('this', '', '', '', 0.0)||('time', 'noun', 'C0040223', ['tmco'], 0.0)||('regarding', '', '', '', 0.0)||('chemoprophylaxis', 'noun', 'C0282515', ['topp'], 0.0)||('for', '', '', '', 0.0)||('household', 'noun', 'C0020052', ['famg'], 0.0)||('contacts', '', '', '', 0.0)||('of', '', '', '', 0.0)||('persons', 'noun', 'C0027361', ['popg'], 0.0)||('with', '', '', '', 0.0)||('invasive', 'adj', 'C0205281', ['qlco'], 0.0)||('group a', 'noun', 'C0441835', ['clas'], 0.0)||('streptococcal', 'adj', 'C0038402', ['bact'], 0.0)||('infection', 'noun', 'C0021311', ['dsyn'], 0.0)||('.', '', '', '', 0.0)||
('more', '', '', '', 0.0)||('data', 'noun', 'C1511726', ['idcn'], 0.0)||('are', '', '', '', 0.0)||('needed', 'verb', 'C0027552', ['qlco'], 0.0)||('to', '', '', '', 0.0)||('assess', 'verb', 'C1516048', ['acty'], 0.0)||('the', '', '', '', 0.0)||('risk', 'noun', 'C0035647', ['qlco'], 0.0)||('of', '', '', '', 0.0)||('subsequent', 'adj', 'C0332282', ['tmco'], 0.0)||('cases', 'noun', 'C0868928', ['ftcn'], 0.0)||('and', '', '', '', 0.0)||('to', '', '', '', 0.0)||('determine', '', '', '', 0.0)||('an', '', '', '', 0.0)||('optimal', 'adj', 'C2698651', ['qlco'], 0.0)||('regimen', 'noun', 'C0040808', ['topp'], 0.0)||('for', '', '', '', 0.0)||('chemoprophylaxis', 'noun', 'C0282515', ['topp'], 0.0)||('.', '', '', '', 0.0)||
('until', '', '', '', 0.0)||('such', '', '', '', 0.0)||('data', 'noun', 'C1511726', ['idcn'], 0.0)||('are', '', '', '', 0.0)||('available', 'adj', 'C0470187', ['ftcn'], 0.0)||(',', '', '', '', 0.0)||('physicians', 'noun', 'C0031831', ['prog'], 0.0)||('and', '', '', '', 0.0)||('health', 'noun', 'C0018684', ['idcn'], 0.0)||('departments', '', '', '', 0.0)||('should', '', '', '', 0.0)||('base', 'noun', 'C0178499', ['chvf'], 0.0)||('decisions', '', '', '', 0.0)||('regarding', '', '', '', 0.0)||('chemoprophylaxis', 'noun', 'C0282515', ['topp'], 0.0)||('on', '', '', '', 0.0)||('their', '', '', '', 0.0)||('assessment', 'noun', 'C1261322', ['hlca'], 0.0)||('of', '', '', '', 0.0)||('the', '', '', '', 0.0)||('risk', 'noun', 'C0035647', ['qlco'], 0.0)||('associated', 'verb', 'C0332281', ['qlco'], 0.0)||('with', '', '', '', 0.0)||('each', '', '', '', 0.0)||('individual', 'adj', 'C0027361', ['popg'], 0.0)||('case', 'noun', 'C0868928', ['ftcn'], 0.0)||('.', '', '', '', 0.0)||
