('recently', 'adv', 'C0332185', ['tmco'], 0.0)||(',', '', '', '', 0.0)||('two', 'adv', 'C0205448', ['qnco'], 0.0)||('commercial', 'adj', 'C0680536', ['inpr'], 0.0)||('oral', 'adj', 'C0442027', ['spco'], 0.0)||('nystatin', 'noun', 'C0028741', ['antb', 'orch'], 0.0)||('gels', 'noun', 'C0017243', ['bodm'], 0.0)||('have', '', '', '', 0.0)||('been', '', '', '', 0.0)||('marketed', '', '', '', 0.0)||('in', '', '', '', 0.0)||('germany', 'noun', 'C0017480', ['geoa'], 0.0)||('(', '', '', '', 0.0)||('candio', '', '', '', 0.0)||('-', '', '', '', 0.0)||('hermal', '', '', '', 0.0)||(',', '', '', '', 0.0)||('hermal', '', '', '', 0.0)||(';', '', '', '', 0.0)||('lederlind', '', '', '', 0.0)||(',', '', '', '', 0.0)||('lederle', 'noun', 'C0331850', ['hcro'], 0.0)||(')', '', '', '', 0.0)||('.', '', '', '', 0.0)||
('in', '', '', '', 0.0)||('a', '', '', '', 0.0)||('prospective', 'adj', 'C0023981', ['resa'], 0.0)||('open', 'adj', 'C0175566', ['spco'], 0.0)||('randomized', 'adj', 'C0034656', ['resa'], 0.0)||('multicentre', '', '', '', 0.0)||('study', 'noun', 'C0008976', ['resa'], 0.0)||('involving', 'verb', 'C1314939', ['ftcn'], 0.0)||('12', '', '', '', 0.0)||('paediatricians', '', '', '', 0.0)||('in', '', '', '', 0.0)||('private practice', 'noun', 'C0033174', ['bmod'], 0.0)||(',', '', '', '', 0.0)||('candio', '', '', '', 0.0)||('-', '', '', '', 0.0)||('hermal', '', '', '', 0.0)||('and', '', '', '', 0.0)||('lederlind', '', '', '', 0.0)||('were', '', '', '', 0.0)||('compared', 'verb', 'C1707455', ['acty'], 0.0)||('with', '', '', '', 0.0)||('miconazole', 'adj', 'C0025942', ['orch', 'phsu'], 0.0)||('oral', 'adj', 'C0442027', ['spco'], 0.0)||('gel', 'noun', 'C0017243', ['bodm'], 0.0)||('(', '', '', '', 0.0)||('daktar', '', '', '', 0.0)||(',', '', '', '', 0.0)||('janssen', 'noun', 'C0331842', ['hcro'], 0.0)||(')', '', '', '', 0.0)||('in', '', '', '', 0.0)||('95', '', '', '', 0.0)||('infants', 'noun', 'C0021270', ['aggp'], 0.0)||('with', '', '', '', 0.0)||('oral thrush', 'noun', 'C0006849', ['dsyn'], 0.0)||('(', '', '', '', 0.0)||('candidosis', 'noun', 'C0006840', ['dsyn'], 0.0)||(')', '', '', '', 0.0)||('.', '', '', '', 0.0)||
('oral', 'adj', 'C0442027', ['spco'], 0.0)||('and', '', '', '', 0.0)||('rectal swabs', '', '', '', 0.0)||('were', '', '', '', 0.0)||('taken', 'verb', 'C1883727', ['cnce'], 0.0)||('on', '', '', '', 0.0)||('days', 'noun', 'C0439228', ['tmco'], 0.0)||('0', '', '', '', 0.0)||('and', '', '', '', 0.0)||('14', '', '', '', 0.0)||('.', '', '', '', 0.0)||
('treatment', 'noun', 'C0039798', ['ftcn'], 0.0)||('duration', 'noun', 'C0449238', ['tmco'], 0.0)||('varied', '', '', '', 0.0)||('according to', '', '', '', 0.0)||('the', '', '', '', 0.0)||('amount', 'noun', 'C1265611', ['qnco'], 0.0)||('of', '', '', '', 0.0)||('drug', 'noun', 'C0013227', ['phsu'], 0.0)||('contained', 'verb', 'C2700400', ['acty'], 0.0)||('in', '', '', '', 0.0)||('one', 'noun', 'C0205447', ['qnco'], 0.0)||('tube', 'noun', 'C0175730', ['medd'], 0.0)||('(', '', '', '', 0.0)||('candio', '', '', '', 0.0)||('-', '', '', '', 0.0)||('hermal', '', '', '', 0.0)||('10', '', '', '', 0.0)||('days', 'noun', 'C0439228', ['tmco'], 0.0)||(';', '', '', '', 0.0)||('lederlind', '', '', '', 0.0)||('14', '', '', '', 0.0)||('days', 'noun', 'C0439228', ['tmco'], 0.0)||(';', '', '', '', 0.0)||('daktar', '', '', '', 0.0)||('8', '', '', '', 0.0)||('days', 'noun', 'C0439228', ['tmco'], 0.0)||(')', '', '', '', 0.0)||('.', '', '', '', 0.0)||
('on', '', '', '', 0.0)||('day', 'noun', 'C0439228', ['tmco'], 0.0)||('14', '', '', '', 0.0)||(',', '', '', '', 0.0)||('clinical', 'adj', 'C0205210', ['qlco'], 0.0)||('cure', 'noun', 'C1511495', ['gora'], 0.0)||('was', '', '', '', 0.0)||('observed', 'verb', 'C1441672', ['ftcn'], 0.0)||('in', '', '', '', 0.0)||('23', '', '', '', 0.0)||('of', '', '', '', 0.0)||('27', '', '', '', 0.0)||('infants', 'noun', 'C0021270', ['aggp'], 0.0)||('treated', 'verb', 'C1522326', ['ftcn'], 0.0)||('with', '', '', '', 0.0)||('daktar', '', '', '', 0.0)||('(', '', '', '', 0.0)||('85 . 1 %', '', '', '', 0.0)||(')', '', '', '', 0.0)||(',', '', '', '', 0.0)||('in', '', '', '', 0.0)||('15', '', '', '', 0.0)||('of', '', '', '', 0.0)||('35', '', '', '', 0.0)||('infants', 'noun', 'C0021270', ['aggp'], 0.0)||('treated', 'verb', 'C1522326', ['ftcn'], 0.0)||('with', '', '', '', 0.0)||('candio', '', '', '', 0.0)||('-', '', '', '', 0.0)||('hermal', '', '', '', 0.0)||('(', '', '', '', 0.0)||('42 . 8 %', '', '', '', 0.0)||(';', '', '', '', 0.0)||('p', '', '', '', 0.0)||('<', '', '', '', 0.0)||('0 . 0007', '', '', '', 0.0)||(')', '', '', '', 0.0)||(';', '', '', '', 0.0)||
('and', '', '', '', 0.0)||('in', '', '', '', 0.0)||('16', '', '', '', 0.0)||('of', '', '', '', 0.0)||('33', '', '', '', 0.0)||('infants', 'noun', 'C0021270', ['aggp'], 0.0)||('treated', 'verb', 'C1522326', ['ftcn'], 0.0)||('with', '', '', '', 0.0)||('lederlind', '', '', '', 0.0)||('(', '', '', '', 0.0)||('48 . 5 %', '', '', '', 0.0)||(';', '', '', '', 0.0)||('p', '', '', '', 0.0)||('<', '', '', '', 0.0)||('0 . 004', '', '', '', 0.0)||(')', '', '', '', 0.0)||('.', '', '', '', 0.0)||
('clinical', 'adj', 'C0205210', ['qlco'], 0.0)||('relapses', 'noun', 'C0035020', ['phpr'], 0.0)||('were', '', '', '', 0.0)||('observed', 'verb', 'C1441672', ['ftcn'], 0.0)||('in', '', '', '', 0.0)||('15', '', '', '', 0.0)||('patients', 'noun', 'C0030705', ['podg'], 0.0)||('(', '', '', '', 0.0)||('candio', '', '', '', 0.0)||('-', '', '', '', 0.0)||('hermal', '', '', '', 0.0)||(':', '', '', '', 0.0)||('n =', '', '', '', 0.0)||('9', '', '', '', 0.0)||(';', '', '', '', 0.0)||('lederlind', '', '', '', 0.0)||(':', '', '', '', 0.0)||('n =', '', '', '', 0.0)||('6', '', '', '', 0.0)||(')', '', '', '', 0.0)||('.', '', '', '', 0.0)||
('the', '', '', '', 0.0)||('overall', 'adj', 'C0282416', ['inpr'], 0.0)||('oral', 'adj', 'C0442027', ['spco'], 0.0)||('mycologic', 'adj', 'C0205467', ['qlco'], 0.0)||('cure', 'noun', 'C1511495', ['gora'], 0.0)||('rate', 'noun', 'C0871208', ['acty'], 0.0)||('was', '', '', '', 0.0)||('significantly', '', '', '', 0.0)||('higher', '', '', '', 0.0)||('with', '', '', '', 0.0)||('daktar', '', '', '', 0.0)||('(', '', '', '', 0.0)||('29 . 6 %', '', '', '', 0.0)||(')', '', '', '', 0.0)||('and', '', '', '', 0.0)||('candio', '', '', '', 0.0)||('-', '', '', '', 0.0)||('hermal', '', '', '', 0.0)||('(', '', '', '', 0.0)||('20 . 0 %', '', '', '', 0.0)||(')', '', '', '', 0.0)||('than', '', '', '', 0.0)||('with', '', '', '', 0.0)||('lederlind', '', '', '', 0.0)||('(', '', '', '', 0.0)||('3 . 0 %', '', '', '', 0.0)||(';', '', '', '', 0.0)||('p', '', '', '', 0.0)||('<', '', '', '', 0.0)||('0 . 005', '', '', '', 0.0)||('and', '', '', '', 0.0)||('<', '', '', '', 0.0)||('0 . 03', '', '', '', 0.0)||(',', '', '', '', 0.0)||('respectively', '', '', '', 0.0)||(')', '', '', '', 0.0)||('.', '', '', '', 0.0)||
('it', '', '', '', 0.0)||('can', '', '', '', 0.0)||('be', '', '', '', 0.0)||('concluded', '', '', '', 0.0)||('that', '', '', '', 0.0)||('daktar', '', '', '', 0.0)||('oral', 'adj', 'C0442027', ['spco'], 0.0)||('gel', 'noun', 'C0017243', ['bodm'], 0.0)||('is', '', '', '', 0.0)||('significantly', '', '', '', 0.0)||('more', '', '', '', 0.0)||('effective', 'adj', 'C1704419', ['qlco'], 0.0)||('than', '', '', '', 0.0)||('candio', '', '', '', 0.0)||('-', '', '', '', 0.0)||('hermal', '', '', '', 0.0)||('and', '', '', '', 0.0)||('lederlind', '', '', '', 0.0)||('in', '', '', '', 0.0)||('curing', '', '', '', 0.0)||('oral thrush', 'noun', 'C0006849', ['dsyn'], 0.0)||('in', '', '', '', 0.0)||('infants', 'noun', 'C0021270', ['aggp'], 0.0)||('.', '', '', '', 0.0)||
