('magnetic resonance imaging', 'noun', 'C0024485', ['diap'], 0.0)||('has', '', '', '', 0.0)||('proved', '', '', '', 0.0)||('to', '', '', '', 0.0)||('be', '', '', '', 0.0)||('an', '', '', '', 0.0)||('excellent', 'adj', 'C1548784', ['qlco'], 0.0)||('tool', 'noun', 'C0336791', ['mnob'], 0.0)||('in', '', '', '', 0.0)||('diagnosing', '', '', '', 0.0)||('injuries', 'noun', 'C0175677', ['inpo'], 0.0)||('of', '', '', '', 0.0)||('the', '', '', '', 0.0)||('cruciate ligaments', '', '', '', 0.0)||('and', '', '', '', 0.0)||('menisci', '', '', '', 0.0)||('.', '', '', '', 0.0)||
('however', '', '', '', 0.0)||(',', '', '', '', 0.0)||('multiple', 'adj', 'C0439064', ['qnco'], 0.0)||('planes', 'noun', 'C1049866', ['euka'], 0.0)||('and', '', '', '', 0.0)||('sometimes', 'noun', 'C1998882', ['tmco'], 0.0)||('optimal', 'adj', 'C2698651', ['qlco'], 0.0)||('oblique', 'adj', 'C0205315', ['spco'], 0.0)||('or', '', '', '', 0.0)||('double', 'verb', 'C0205173', ['ftcn'], 0.0)||('-', '', '', '', 0.0)||('oblique', 'adj', 'C0205315', ['spco'], 0.0)||('scan', 'noun', 'C0034606', ['diap'], 0.0)||('planes', 'noun', 'C1049866', ['euka'], 0.0)||('are', '', '', '', 0.0)||('needed', 'verb', 'C0027552', ['qlco'], 0.0)||('due to', '', '', '', 0.0)||('the', '', '', '', 0.0)||('variability', '', '', '', 0.0)||('in', '', '', '', 0.0)||('the', '', '', '', 0.0)||('positioning', 'noun', 'C0150305', ['topp'], 0.0)||('of', '', '', '', 0.0)||('important', '', '', '', 0.0)||('structures', '', '', '', 0.0)||(',', '', '', '', 0.0)||('which', '', '', '', 0.0)||('means', 'noun', 'C1704970', ['cnce'], 0.0)||('there', '', '', '', 0.0)||('is', '', '', '', 0.0)||('a', '', '', '', 0.0)||('lower', 'adj', 'C0441994', ['ftcn'], 0.0)||('throughput', '', '', '', 0.0)||('and', '', '', '', 0.0)||('longer', '', '', '', 0.0)||('scanning', 'adj', 'C0034606', ['diap'], 0.0)||('time', 'noun', 'C0040223', ['tmco'], 0.0)||('.', '', '', '', 0.0)||
('to', '', '', '', 0.0)||('compare', 'verb', 'C1707455', ['acty'], 0.0)||('the', '', '', '', 0.0)||('performance', 'noun', 'C0597198', ['inbe'], 0.0)||('of', '', '', '', 0.0)||('a 1', '', '', '', 0.0)||('-', '', '', '', 0.0)||('mm', '', '', '', 0.0)||('-', '', '', '', 0.0)||('thickness', 'noun', 'C1280412', ['qlco'], 0.0)||('fast', 'adj', 'C0015663', ['fndg'], 0.0)||('spin - echo', '', '', '', 0.0)||('proton', 'noun', 'C0033727', ['elii'], 0.0)||('-', '', '', '', 0.0)||('density', 'noun', 'C0178587', ['qnco'], 0.0)||('-', '', '', '', 0.0)||('weighted', '', '', '', 0.0)||('magnetic resonance imaging', 'noun', 'C0024485', ['diap'], 0.0)||('technique', 'noun', 'C0449851', ['ftcn'], 0.0)||('with', '', '', '', 0.0)||('multiplanar', '', '', '', 0.0)||('reconstruction', 'noun', 'C0020912', ['mcha'], 0.0)||('in', '', '', '', 0.0)||('diagnosing', '', '', '', 0.0)||('tears', 'noun', 'C0039409', ['bdsu'], 0.0)||('of', '', '', '', 0.0)||('the', '', '', '', 0.0)||('menisci', '', '', '', 0.0)||('and', '', '', '', 0.0)||('cruciate ligaments', '', '', '', 0.0)||('with', '', '', '', 0.0)||('that', '', '', '', 0.0)||('of', '', '', '', 0.0)||('conventional', 'adj', 'C0439858', ['qlco'], 0.0)||('magnetic resonance imaging', 'noun', 'C0024485', ['diap'], 0.0)||('.', '', '', '', 0.0)||
('twenty - five', '', '', '', 0.0)||('consecutive', 'adj', 'C1707491', ['qlco'], 0.0)||('patients', 'noun', 'C0030705', ['podg'], 0.0)||('underwent', '', '', '', 0.0)||('preoperative', 'adj', 'C0445204', ['tmco'], 0.0)||('conventional', 'adj', 'C0439858', ['qlco'], 0.0)||('and', '', '', '', 0.0)||('1', '', '', '', 0.0)||('-', '', '', '', 0.0)||('mm', '', '', '', 0.0)||('-', '', '', '', 0.0)||('thickness', 'noun', 'C1280412', ['qlco'], 0.0)||('fast', 'adj', 'C0015663', ['fndg'], 0.0)||('spin - echo', '', '', '', 0.0)||('proton', 'noun', 'C0033727', ['elii'], 0.0)||('-', '', '', '', 0.0)||('density', 'noun', 'C0178587', ['qnco'], 0.0)||('-', '', '', '', 0.0)||('weighted', '', '', '', 0.0)||('magnetic resonance imaging', 'noun', 'C0024485', ['diap'], 0.0)||('with', '', '', '', 0.0)||('subsequent', 'adj', 'C0332282', ['tmco'], 0.0)||('knee', 'noun', 'C0022742', ['bpoc'], 0.0)||('arthroscopic', '', '', '', 0.0)||('surgery', 'noun', 'C0038894', ['bmod'], 0.0)||('.', '', '', '', 0.0)||
('two', 'adj', 'C0205448', ['qnco'], 0.0)||('musculoskeletal', 'adj', 'C0497254', ['ftcn'], 0.0)||('radiologists', 'noun', 'C0260194', ['prog'], 0.0)||('evaluated', 'verb', 'C0220825', ['ftcn'], 0.0)||('the', '', '', '', 0.0)||('status', 'noun', 'C0449438', ['qlco'], 0.0)||('of', '', '', '', 0.0)||('the', '', '', '', 0.0)||('cruciate ligaments', '', '', '', 0.0)||('and', '', '', '', 0.0)||('menisci', '', '', '', 0.0)||('using', 'verb', 'C1524063', ['ftcn'], 0.0)||('two', 'noun', 'C0205448', ['qnco'], 0.0)||('sets', '', '', '', 0.0)||('of', '', '', '', 0.0)||('magnetic resonance', 'noun', 'C0028580', ['npop'], 0.0)||('images', '', '', '', 0.0)||('(', '', '', '', 0.0)||('method', 'noun', 'C0025663', ['inpr'], 0.0)||('a', '', '', '', 0.0)||(':', '', '', '', 0.0)||('conventional', 'adj', 'C0439858', ['qlco'], 0.0)||('images', '', '', '', 0.0)||('including', '', '', '', 0.0)||('seven', '', 'C0205453', ['qnco'], 0.0)||('sequences', 'noun', 'C0162326', ['nusq'], 0.0)||(',', '', '', '', 0.0)||('taking', '', '', '', 0.0)||('26', '', '', '', 0.0)||('min', '', '', '', 0.0)||(';', '', '', '', 0.0)||('method', 'noun', 'C0025663', ['inpr'], 0.0)||('b', '', '', '', 0.0)||(':', '', '', '', 0.0)||('1', '', '', '', 0.0)||('-', '', '', '', 0.0)||('mm', '', '', '', 0.0)||('-', '', '', '', 0.0)||('thickness', 'noun', 'C1280412', ['qlco'], 0.0)||('fast', 'adj', 'C0015663', ['fndg'], 0.0)||('spin - echo', '', '', '', 0.0)||('proton', 'noun', 'C0033727', ['elii'], 0.0)||('-', '', '', '', 0.0)||('density', 'noun', 'C0178587', ['qnco'], 0.0)||('-', '', '', '', 0.0)||('weighted', '', '', '', 0.0)||('images', '', '', '', 0.0)||('with', '', '', '', 0.0)||('multiplanar', '', '', '', 0.0)||('reconstruction', 'noun', 'C0020912', ['mcha'], 0.0)||(',', '', '', '', 0.0)||('taking', '', '', '', 0.0)||('7', '', '', '', 0.0)||('min', '', '', '', 0.0)||('20', '', '', '', 0.0)||('s', '', '', '', 0.0)||(')', '', '', '', 0.0)||('.', '', '', '', 0.0)||
('the', '', '', '', 0.0)||('diagnostic', 'adj', 'C0011900', ['fndg'], 0.0)||('efficacies', '', '', '', 0.0)||('of', '', '', '', 0.0)||('both', '', '', '', 0.0)||('methods', 'noun', 'C0025663', ['inpr'], 0.0)||('for', '', '', '', 0.0)||('tears', 'noun', 'C0039409', ['bdsu'], 0.0)||('of', '', '', '', 0.0)||('the', '', '', '', 0.0)||('cruciate ligament', 'noun', 'C0835268', ['bpoc'], 0.0)||('and', '', '', '', 0.0)||('menisci', '', '', '', 0.0)||('were', '', '', '', 0.0)||('calculated', 'verb', 'C0444686', ['ftcn'], 0.0)||('and', '', '', '', 0.0)||('compared', 'verb', 'C1707455', ['acty'], 0.0)||('.', '', '', '', 0.0)||
('arthroscopic', '', '', '', 0.0)||('surgery', 'noun', 'C0038894', ['bmod'], 0.0)||('revealed', 'verb', 'C0443289', ['qlco'], 0.0)||('10', '', '', '', 0.0)||('anterior cruciate ligament', 'noun', 'C0078960', ['bpoc'], 0.0)||('tears', 'noun', 'C0039409', ['bdsu'], 0.0)||(',', '', '', '', 0.0)||('one', 'noun', 'C0205447', ['qnco'], 0.0)||('posterior cruciate ligament', 'noun', 'C0080039', ['bpoc'], 0.0)||('tear', 'noun', 'C0039409', ['bdsu'], 0.0)||(',', '', '', '', 0.0)||('and', '', '', '', 0.0)||('26', '', '', '', 0.0)||('meniscal', '', '', '', 0.0)||('tears', 'noun', 'C0039409', ['bdsu'], 0.0)||('.', '', '', '', 0.0)||
('the', '', '', '', 0.0)||('diagnostic', 'adj', 'C0011900', ['fndg'], 0.0)||('values', 'noun', 'C0042295', ['qlco'], 0.0)||('of', '', '', '', 0.0)||('both', '', '', '', 0.0)||('methods', 'noun', 'C0025663', ['inpr'], 0.0)||('were', '', '', '', 0.0)||('100 %', '', '', '', 0.0)||('for', '', '', '', 0.0)||('a', '', '', '', 0.0)||('cruciate ligament', 'noun', 'C0835268', ['bpoc'], 0.0)||('tear', 'noun', 'C0039409', ['bdsu'], 0.0)||('.', '', '', '', 0.0)||
('the', '', '', '', 0.0)||('diagnostic', 'adj', 'C0011900', ['fndg'], 0.0)||('values', 'noun', 'C0042295', ['qlco'], 0.0)||('(', '', '', '', 0.0)||('sensitivity', 'noun', 'C0036667', ['qnco'], 0.0)||(',', '', '', '', 0.0)||('specificity', 'noun', 'C0037791', ['qnco'], 0.0)||(',', '', '', '', 0.0)||('accuracy', 'noun', 'C0443131', ['qlco'], 0.0)||(',', '', '', '', 0.0)||('positive predictive value', '', '', '', 0.0)||(',', '', '', '', 0.0)||('and', '', '', '', 0.0)||('negative predictive value', '', '', '', 0.0)||(')', '', '', '', 0.0)||('for', '', '', '', 0.0)||('meniscal', '', '', '', 0.0)||('tears', 'noun', 'C0039409', ['bdsu'], 0.0)||('were', '', '', '', 0.0)||('90 %', '', '', '', 0.0)||(',', '', '', '', 0.0)||('100 %', '', '', '', 0.0)||(',', '', '', '', 0.0)||('96 %', '', '', '', 0.0)||(',', '', '', '', 0.0)||('100 %', '', '', '', 0.0)||(',', '', '', '', 0.0)||('and', '', '', '', 0.0)||('94 %', '', '', '', 0.0)||('for', '', '', '', 0.0)||('method', 'noun', 'C0025663', ['inpr'], 0.0)||('a', '', '', '', 0.0)||(',', '', '', '', 0.0)||('and', '', '', '', 0.0)||('95 %', '', '', '', 0.0)||(',', '', '', '', 0.0)||('100 %', '', '', '', 0.0)||(',', '', '', '', 0.0)||('98 %', '', '', '', 0.0)||(',', '', '', '', 0.0)||('100 %', '', '', '', 0.0)||(',', '', '', '', 0.0)||('and', '', '', '', 0.0)||('97 %', '', '', '', 0.0)||('for', '', '', '', 0.0)||('method', 'noun', 'C0025663', ['inpr'], 0.0)||('b', '', '', '', 0.0)||(',', '', '', '', 0.0)||('respectively', '', '', '', 0.0)||('.', '', '', '', 0.0)||
('there', '', '', '', 0.0)||('were', '', '', '', 0.0)||('no', '', '', '', 0.0)||('significant', 'adj', 'C0750502', ['idcn'], 0.0)||('differences', '', '', '', 0.0)||('in', '', '', '', 0.0)||('the', '', '', '', 0.0)||('diagnostic', 'adj', 'C0011900', ['fndg'], 0.0)||('values', 'noun', 'C0042295', ['qlco'], 0.0)||('between', '', '', '', 0.0)||('methods', 'noun', 'C0025663', ['inpr'], 0.0)||('a', '', '', '', 0.0)||('and', '', '', '', 0.0)||('b', '', '', '', 0.0)||('.', '', '', '', 0.0)||
('1', '', '', '', 0.0)||('-', '', '', '', 0.0)||('mm', '', '', '', 0.0)||('-', '', '', '', 0.0)||('slice', 'noun', 'C1519355', ['sbst'], 0.0)||('-', '', '', '', 0.0)||('thickness', 'noun', 'C1280412', ['qlco'], 0.0)||('fast', 'adj', 'C0015663', ['fndg'], 0.0)||('spin - echo', '', '', '', 0.0)||('proton', 'noun', 'C0033727', ['elii'], 0.0)||('-', '', '', '', 0.0)||('density', 'noun', 'C0178587', ['qnco'], 0.0)||('-', '', '', '', 0.0)||('weighted', '', '', '', 0.0)||('imaging', 'verb', 'C0011923', ['diap'], 0.0)||('with', '', '', '', 0.0)||('multiplanar', '', '', '', 0.0)||('reconstruction', 'noun', 'C0020912', ['mcha'], 0.0)||('showed', '', '', '', 0.0)||('comparable', '', '', '', 0.0)||('performance', 'noun', 'C0597198', ['inbe'], 0.0)||('in', '', '', '', 0.0)||('diagnosing', '', '', '', 0.0)||('tears', 'noun', 'C0039409', ['bdsu'], 0.0)||('of', '', '', '', 0.0)||('the', '', '', '', 0.0)||('cruciate ligaments', '', '', '', 0.0)||('and', '', '', '', 0.0)||('menisci', '', '', '', 0.0)||('to', '', '', '', 0.0)||('conventional', 'adj', 'C0439858', ['qlco'], 0.0)||('sequences', 'noun', 'C0162326', ['nusq'], 0.0)||('but', '', '', '', 0.0)||('the', '', '', '', 0.0)||('scan', 'noun', 'C0034606', ['diap'], 0.0)||('time', 'noun', 'C0040223', ['tmco'], 0.0)||('was', '', '', '', 0.0)||('much', '', '', '', 0.0)||('shorter', '', '', '', 0.0)||('.', '', '', '', 0.0)||
('therefore', '', '', '', 0.0)||(',', '', '', '', 0.0)||('this', '', '', '', 0.0)||('technique', 'noun', 'C0449851', ['ftcn'], 0.0)||('(', '', '', '', 0.0)||('method', 'noun', 'C0025663', ['inpr'], 0.0)||('b', '', '', '', 0.0)||(')', '', '', '', 0.0)||('might', '', '', '', 0.0)||('improve', 'verb', 'C0332161', ['qlco'], 0.0)||('the', '', '', '', 0.0)||('throughput', '', '', '', 0.0)||('of', '', '', '', 0.0)||('a', '', '', '', 0.0)||('3t magnetic resonance imaging', '', '', '', 0.0)||('system', 'noun', 'C0449913', ['ftcn'], 0.0)||('.', '', '', '', 0.0)||
