tagged_abstract_sents/10022110.txt,1,0.0954875100725,-0.0504273504274,0.0616692308323,0.247294108221,0.0803626561529,0.0,0.0,0.171327385855
tagged_abstract_sents/10022110.txt,3,0.0253827558421,-0.0491452991453,0.0616692308323,0.247294108221,0.0803626561529,0.0,0.0,0.115499992727
tagged_abstract_sents/10022110.txt,4,0.0805801772764,0.0534188034188,0.0616692308323,0.247294108221,0.0803626561529,0.191240413687,0.106595149958,0.668178260385
tagged_abstract_sents/10022110.txt,5,0.0805801772764,-0.0510683760684,0.0616692308323,0.247294108221,0.0803626561529,0.0,0.0,0.15927331449
tagged_abstract_sents/10022110.txt,6,0.123690572119,0.0559829059829,0.210342442448,0.141687475369,0.0803626561529,0.184424590901,0.0972238485558,0.734502900795
tagged_abstract_sents/10022110.txt,7,0.123690572119,-0.0472222222222,0.0616692308323,0.247294108221,0.0803626561529,0.0,0.0,0.194530861133
tagged_abstract_sents/10022110.txt,8,0.140209508461,0.0104700854701,0.210342442448,0.141687475369,0.0803626561529,0.11179971062,0.0741630295934,0.590594332125
tagged_abstract_sents/10022110.txt,9,0.149073327961,-0.041452991453,0.0616692308323,0.247294108221,0.0803626561529,0.0,0.0,0.215990911961
tagged_abstract_sents/10022110.txt,10,0.149879129734,-0.00363247863248,0.0616692308323,0.247294108221,0.0803626561529,0.0914211070667,0.0477898126464,0.363427898498
tagged_abstract_sents/10022110.txt,11,0.176470588235,-0.0504273504274,0.0616692308323,0.247294108221,0.0803626561529,0.0,0.0,0.236113848385
tagged_abstract_sents/10022110.txt,12,0.176470588235,0.0527777777778,0.139250797795,0.194462959676,0.0803626561529,0.208534278063,0.134150487271,0.904856757977
tagged_abstract_sents/10022110.txt,13,0.166800966962,-0.00042735042735,0.139250797795,0.194462959676,0.0803626561529,0.131306592649,0.06972304246,0.587144261972
tagged_abstract_sents/10022110.txt,14,0.166800966962,-0.00683760683761,0.139250797795,0.194462959676,0.0803626561529,0.0866105126203,0.0512620348686,0.570492114457
tagged_abstract_sents/10022110.txt,15,0.0954875100725,0.0136752136752,0.139250797795,0.194462959676,0.0803626561529,0.136754844683,0.056721566032,0.613475460041
tagged_abstract_sents/10022110.txt,16,0.0954875100725,0.0232905982906,0.139250797795,0.194462959676,0.0803626561529,0.163588009802,0.0753387420542,0.599665273008
tagged_abstract_sents/10022110.txt,17,0.0342465753425,-0.0478632478632,0.139250797795,0.194462959676,0.0803626561529,0.0,0.0,0.145788897502
tagged_abstract_sents/10022110.txt,18,0.0342465753425,0.0476495726496,0.139250797795,0.194462959676,0.0803626561529,0.153516387724,0.0610889929742,0.459859498456
