tagged_abstract_sents/10030325.txt,1,0.206355591311,-0.0569640161047,0.0616692308323,0.106008497564,0.433624075583,0.0,0.0,0.216328834513
tagged_abstract_sents/10030325.txt,3,0.206355591311,0.0452000503271,0.188769469584,0.129715814208,0.433624075583,0.476561484911,0.0777868119746,1.18453685001
tagged_abstract_sents/10030325.txt,4,0.0048270313757,-0.0584738298943,0.0616692308323,0.106008497564,0.433624075583,0.0,0.0,0.054804023807
tagged_abstract_sents/10030325.txt,5,0.0108608205953,-0.0217350276799,0.0616692308323,0.106008497564,0.433624075583,0.259705932868,0.067567074949,0.546008260808
tagged_abstract_sents/10030325.txt,6,0.0108608205953,-0.0252579265224,0.210342442448,0.0253702522065,0.433624075583,0.155031261485,0.0554511651953,0.761875923133
tagged_abstract_sents/10030325.txt,8,0.0353982300885,-0.0448855057876,0.0616692308323,0.106008497564,0.433624075583,0.134071252315,0.0402777777778,0.567849600192
tagged_abstract_sents/10030325.txt,9,0.0518905872888,-0.000597634625063,0.0616692308323,0.106008497564,0.433624075583,0.371388794155,0.0625382764654,0.672557248779
tagged_abstract_sents/10030325.txt,10,0.0993563958166,-0.0579705586311,0.0616692308323,0.106008497564,0.433624075583,0.0,0.0,0.130528169612
tagged_abstract_sents/10030325.txt,11,0.0993563958166,-9.4363361852e-05,0.139250797795,0.521468892835,0.433624075583,0.363355269228,0.0638641386932,1.01949254073
tagged_abstract_sents/10030325.txt,12,0.172566371681,0.049729491696,0.139250797795,0.521468892835,0.433624075583,0.457562832693,0.0863830231448,1.30102982914
tagged_abstract_sents/10030325.txt,13,0.206355591311,0.101063160544,0.139250797795,0.521468892835,0.433624075583,0.468657537333,0.0751954239416,1.11977132037
tagged_abstract_sents/10030325.txt,14,0.206355591311,-0.0549509310518,0.139250797795,0.521468892835,0.433624075583,0.0,0.0,0.380160353587
tagged_abstract_sents/10030325.txt,15,0.262268704747,-0.00361726220433,0.139250797795,0.521468892835,0.433624075583,0.300242415304,0.070968667979,1.15005632429
tagged_abstract_sents/10030325.txt,16,0.262268704747,0.0225528434826,0.139250797795,0.521468892835,0.433624075583,0.41752526571,0.0564044077824,1.34794534832
