tagged_abstract_sents/10048678.txt,1,0.125905068383,-0.0686710139073,0.0616692308323,0.142474783506,0.0,0.0,0.0,0.160566902393
tagged_abstract_sents/10048678.txt,2,0.239742558327,0.00259680304692,0.188769469584,0.202456734834,0.390845892823,0.265825713235,0.0186849023327,1.0227916709
tagged_abstract_sents/10048678.txt,3,0.218020917136,0.0798661203762,0.188769469584,0.202456734834,0.253684418115,0.420984210161,0.0148535950423,1.03503393635
tagged_abstract_sents/10048678.txt,4,0.162510056315,-0.0296612614692,0.0616692308323,0.142474783506,0.288661110046,0.292260737607,0.00376125292884,0.782335943808
tagged_abstract_sents/10048678.txt,5,0.162510056315,-0.0356627618443,0.0616692308323,0.142474783506,0.272629767884,0.207662608361,0.00653531852993,0.683280237926
tagged_abstract_sents/10048678.txt,6,0.101769911504,-0.070921576548,0.139250797795,0.0356431803763,0.0,0.0,0.0,0.147549966904
tagged_abstract_sents/10048678.txt,7,0.0711987127916,0.0198511166253,0.139250797795,0.0356431803763,0.169810817235,0.307459855352,0.00457472297095,0.623092942126
tagged_abstract_sents/10048678.txt,8,0.0458567980692,-0.00565525996884,0.139250797795,0.0356431803763,0.221836972368,0.226805075519,0.024584676638,0.589099463996
tagged_abstract_sents/10048678.txt,9,0.0458567980692,-0.0259103237348,0.139250797795,0.0356431803763,0.2256780011,0.174959918075,0.00600133619002,0.518460982084
tagged_abstract_sents/10048678.txt,10,0.0245374094932,-0.0371631369381,0.139250797795,0.0356431803763,0.247211959011,0.11006252244,0.0,0.449790134668
tagged_abstract_sents/10048678.txt,11,0.00844730490748,0.12712793583,0.139250797795,0.0356431803763,0.0487613403154,0.29635651403,0.0239143456125,0.48153398406
tagged_abstract_sents/10048678.txt,12,0.00120675784393,-0.0679208263604,0.0616692308323,0.142474783506,0.0,0.0,0.0,0.0609582914709
tagged_abstract_sents/10048678.txt,13,0.00120675784393,0.112124184892,0.139250797795,0.0356431803763,0.167014547554,0.356889003762,0.00740170281949,0.635013850399
