tagged_abstract_sents/10048679.txt,1,0.125905068383,-0.0482543405868,0.0616692308323,0.142474783506,0.0,0.0,0.0,0.164650237057
tagged_abstract_sents/10048679.txt,2,0.239742558327,0.0217814731816,0.188769469584,0.202456734834,0.42793600512,0.47417441641,0.0339025113644,1.28728502943
tagged_abstract_sents/10048679.txt,3,0.239742558327,-0.049448132867,0.0616692308323,0.142474783506,0.0,0.0,0.0,0.255481470556
tagged_abstract_sents/10048679.txt,4,0.218020917136,-0.0136343644627,0.0616692308323,0.142474783506,0.428834820651,0.280414866644,0.031702700389,0.986219298969
tagged_abstract_sents/10048679.txt,5,0.218020917136,0.067145579827,0.210342442448,0.226435992083,0.35170005608,0.672000805566,0.055453896329,1.4401026265
tagged_abstract_sents/10048679.txt,6,0.162510056315,0.0575952415859,0.194899689933,0.13295610691,0.453760915004,0.862404998971,0.0642538498854,1.65928353427
tagged_abstract_sents/10048679.txt,7,0.162510056315,-0.0020943724213,0.210342442448,0.226435992083,0.626743244995,0.455171772673,0.0668835348241,1.45148974191
tagged_abstract_sents/10048679.txt,8,0.101769911504,-0.00885919534212,0.0616692308323,0.142474783506,0.207936940582,0.345153041973,0.0378735954066,0.744184718565
tagged_abstract_sents/10048679.txt,9,0.101769911504,0.0221794039416,0.0616692308323,0.142474783506,0.522471952316,0.563249792768,0.0347443962285,1.27989500177
tagged_abstract_sents/10048679.txt,10,0.0711987127916,-0.0028902339414,0.210342442448,0.226435992083,0.110645167851,0.40558466227,0.0452724794208,0.790985251836
tagged_abstract_sents/10048679.txt,11,0.0711987127916,-0.0315412486648,0.0616692308323,0.142474783506,0.0,0.110106871257,0.0280810972768,0.262415739502
tagged_abstract_sents/10048679.txt,12,0.0458567980692,0.00307872745932,0.139250797795,0.0356431803763,0.352230542139,0.476511187693,0.0426520346954,0.989013301484
tagged_abstract_sents/10048679.txt,13,0.0458567980692,-0.0283578025845,0.139250797795,0.0356431803763,0.223781462756,0.231472283073,0.0492043411679,0.615790317946
tagged_abstract_sents/10048679.txt,14,0.0245374094932,0.0102414811402,0.139250797795,0.0356431803763,0.329625408981,0.275233459563,0.0356215460417,0.742476991419
tagged_abstract_sents/10048679.txt,15,0.0245374094932,-0.00965505686221,0.139250797795,0.0356431803763,0.570221189387,0.472929949445,0.0408582462215,1.18202665429
tagged_abstract_sents/10048679.txt,16,0.00844730490748,0.0062621735397,0.139250797795,0.0356431803763,0.176823952689,0.667769468608,0.0534816818237,0.986403734765
tagged_abstract_sents/10048679.txt,17,0.00844730490748,-0.0482543405868,0.139250797795,0.0356431803763,0.0,0.0,0.0,0.0774253288189
tagged_abstract_sents/10048679.txt,18,0.00120675784393,0.066747649067,0.139250797795,0.0356431803763,0.266006321136,0.882903330386,0.0427877069997,1.28633064762
tagged_abstract_sents/10048679.txt,19,0.00120675784393,-0.0120426414225,0.139250797795,0.0356431803763,0.186533390898,0.503026811162,0.0368684514766,0.805303884538
