tagged_abstract_sents/10048703.txt,1,0.206355591311,-0.0298701298701,0.188769469584,0.129715814208,0.247998972695,0.055962570088,0.0176176282734,0.503022522926
tagged_abstract_sents/10048703.txt,2,0.206355591311,0.0584415584416,0.188769469584,0.129715814208,0.247998972695,0.198868404244,0.0612051882544,0.835663716044
tagged_abstract_sents/10048703.txt,4,0.0048270313757,-0.0220779220779,0.188769469584,0.129715814208,0.247998972695,0.100760630786,0.0561603483607,0.474569802097
tagged_abstract_sents/10048703.txt,5,0.0108608205953,-0.0428571428571,0.188769469584,0.129715814208,0.247998972695,0.0567622609308,0.0274776453055,0.27312739836
tagged_abstract_sents/10048703.txt,7,0.0353982300885,-0.0101298701299,0.188769469584,0.129715814208,0.247998972695,0.0883347071128,0.0427191368351,0.53968967041
tagged_abstract_sents/10048703.txt,8,0.0518905872888,-0.0225974025974,0.188769469584,0.129715814208,0.247998972695,0.180381941229,0.0601780391739,0.776574270643
tagged_abstract_sents/10048703.txt,9,0.0993563958166,-0.000779220779221,0.188769469584,0.129715814208,0.247998972695,0.114575147512,0.0616949648712,0.668491401987
tagged_abstract_sents/10048703.txt,10,0.172566371681,-0.0038961038961,0.188769469584,0.129715814208,0.247998972695,0.167501455096,0.060438091844,0.764249998848
tagged_abstract_sents/10048703.txt,11,0.172566371681,0.00181818181818,0.188769469584,0.129715814208,0.247998972695,0.216242077802,0.0822205458476,0.88307839107
tagged_abstract_sents/10048703.txt,12,0.206355591311,0.0335064935065,0.188769469584,0.129715814208,0.247998972695,0.1494589764,0.0326544552247,0.815062116696
tagged_abstract_sents/10048703.txt,13,0.262268704747,-0.018961038961,0.188769469584,0.129715814208,0.247998972695,0.15642363675,0.0491803278689,0.90641071568
tagged_abstract_sents/10048703.txt,14,0.262268704747,0.0522077922078,0.139250797795,0.521468892835,0.247998972695,0.184663760169,0.05,0.928985321851
