tagged_abstract_sents/10048703.txt,1,0.125905068383,-0.0298701298701,0.188769469584,0.202456734834,0.137032398435,0.055962570088,0.0176176282734,0.460484380772
tagged_abstract_sents/10048703.txt,2,0.239742558327,0.0584415584416,0.188769469584,0.202456734834,0.265517859753,0.198868404244,0.0612051882544,0.884195565844
tagged_abstract_sents/10048703.txt,3,0.218020917136,0.0184415584416,0.188769469584,0.202456734834,0.40050519049,0.1889717057,0.043936462682,0.966640159512
tagged_abstract_sents/10048703.txt,4,0.218020917136,-0.0220779220779,0.188769469584,0.202456734834,0.18490330321,0.100760630786,0.0561603483607,0.666947186893
tagged_abstract_sents/10048703.txt,5,0.162510056315,-0.0428571428571,0.188769469584,0.202456734834,0.0554707851638,0.0567622609308,0.0274776453055,0.416269063124
tagged_abstract_sents/10048703.txt,6,0.101769911504,-0.0132467532468,0.188769469584,0.202456734834,0.557629827732,0.144970482305,0.0262211441954,0.962709788029
tagged_abstract_sents/10048703.txt,7,0.0852775543041,-0.0101298701299,0.188769469584,0.202456734834,0.249043737363,0.0883347071128,0.0427191368351,0.60141540597
tagged_abstract_sents/10048703.txt,8,0.0711987127916,-0.0225974025974,0.188769469584,0.202456734834,0.365721821874,0.180381941229,0.0601780391739,0.813843047233
tagged_abstract_sents/10048703.txt,9,0.0458567980692,-0.000779220779221,0.188769469584,0.202456734834,0.279592538051,0.114575147512,0.0616949648712,0.647513999977
tagged_abstract_sents/10048703.txt,10,0.0245374094932,-0.0038961038961,0.188769469584,0.202456734834,0.265737096287,0.167501455096,0.060438091844,0.667649105286
tagged_abstract_sents/10048703.txt,11,0.0245374094932,0.00181818181818,0.188769469584,0.202456734834,0.312899554656,0.216242077802,0.0822205458476,0.786477497507
tagged_abstract_sents/10048703.txt,12,0.00844730490748,0.0335064935065,0.188769469584,0.202456734834,0.327863434266,0.1494589764,0.0326544552247,0.678557763761
tagged_abstract_sents/10048703.txt,13,0.00120675784393,-0.018961038961,0.188769469584,0.202456734834,0.361484516002,0.15642363675,0.0491803278689,0.719383434346
tagged_abstract_sents/10048703.txt,14,0.00120675784393,0.0522077922078,0.139250797795,0.0356431803763,0.247998972695,0.184663760169,0.05,0.574388050591
