tagged_abstract_sents/10050644.txt,1,0.206355591311,-0.0508405962757,0.0616692308323,0.106008497564,0.177977599491,0.0,0.0,0.217553518479
tagged_abstract_sents/10050644.txt,3,0.206355591311,-0.0045482688003,0.188769469584,0.129715814208,0.177977599491,0.27687578678,0.0793432781517,0.846541884645
tagged_abstract_sents/10050644.txt,4,0.0048270313757,-0.0139781873601,0.188769469584,0.129715814208,0.177977599491,0.416763471803,0.0526078197535,0.809083343206
tagged_abstract_sents/10050644.txt,5,0.0048270313757,0.0233128542173,0.188769469584,0.129715814208,0.177977599491,0.358748246687,0.0742057651281,0.812952708601
tagged_abstract_sents/10050644.txt,6,0.0108608205953,-0.0521264942611,0.0616692308323,0.106008497564,0.177977599491,0.0,0.0,0.0609005223093
tagged_abstract_sents/10050644.txt,7,0.0108608205953,0.00873934371577,0.0616692308323,0.106008497564,0.177977599491,0.415482329732,0.0332454065854,0.789682133462
tagged_abstract_sents/10050644.txt,8,0.0261464199517,-0.0272657998762,0.0616692308323,0.106008497564,0.177977599491,0.202618790274,0.0809168637439,0.671370110594
tagged_abstract_sents/10050644.txt,9,0.0353982300885,0.0245987522027,0.0616692308323,0.106008497564,0.177977599491,0.4693758463,0.0685893604304,0.796247353806
tagged_abstract_sents/10050644.txt,10,0.0518905872888,0.0168833642901,0.0616692308323,0.106008497564,0.177977599491,0.36262681176,0.0732889876692,0.759361347903
tagged_abstract_sents/10050644.txt,11,0.0993563958166,-0.000690574844025,0.0616692308323,0.106008497564,0.177977599491,0.384246031754,0.100168273604,0.904570728406
tagged_abstract_sents/10050644.txt,12,0.0993563958166,-0.0521264942611,0.0616692308323,0.106008497564,0.177977599491,0.0,0.0,0.131696982486
tagged_abstract_sents/10050644.txt,13,0.172566371681,0.0618897937801,0.139250797795,0.521468892835,0.177977599491,0.47649062234,0.0774740767691,1.05250130586
tagged_abstract_sents/10050644.txt,14,0.172566371681,0.0280278134972,0.139250797795,0.521468892835,0.177977599491,0.255397580895,0.0358175166252,0.873206841533
tagged_abstract_sents/10050644.txt,15,0.206355591311,-0.0504119636138,0.0616692308323,0.106008497564,0.177977599491,0.0,0.0,0.217639245012
tagged_abstract_sents/10050644.txt,17,0.262268704747,0.0280278134972,0.139250797795,0.521468892835,0.177977599491,0.485616840301,0.0687119660577,1.25021746447
tagged_abstract_sents/10050644.txt,18,0.262268704747,0.0211696909082,0.139250797795,0.521468892835,0.177977599491,0.485661932282,0.0610489734212,1.16480347392
