tagged_abstract_sents/10078488.txt,1,0.125905068383,-0.0483443335026,0.0616692308323,0.142474783506,0.0,0.0,0.0,0.164632238474
tagged_abstract_sents/10078488.txt,2,0.239742558327,0.0432955378801,0.188769469584,0.202456734834,0.112713535839,0.166462232098,0.0579880147903,0.692738692207
tagged_abstract_sents/10078488.txt,3,0.239742558327,-0.0472725221414,0.188769469584,0.202456734834,0.0,0.0,0.0,0.337461297476
tagged_abstract_sents/10078488.txt,4,0.218020917136,-0.00654369041575,0.188769469584,0.202456734834,0.327965833284,0.129329494098,0.0648338220919,0.850358900342
tagged_abstract_sents/10078488.txt,5,0.218020917136,-0.042449371016,0.0616692308323,0.142474783506,0.0,0.0,0.0,0.239503909973
tagged_abstract_sents/10078488.txt,6,0.162510056315,-0.00707959609635,0.0616692308323,0.142474783506,0.0,0.0679546376521,0.0562116768862,0.326335490839
tagged_abstract_sents/10078488.txt,7,0.162510056315,-0.0456648050996,0.0616692308323,0.142474783506,0.0,0.0,0.0,0.1944521345
tagged_abstract_sents/10078488.txt,8,0.101769911504,-0.0124386529024,0.210342442448,0.226435992083,0.154842092444,0.0741302470358,0.0636730205279,0.54467557748
tagged_abstract_sents/10078488.txt,9,0.101769911504,-0.0413775596548,0.0616692308323,0.142474783506,0.0,0.0,0.0,0.14671746774
tagged_abstract_sents/10078488.txt,10,0.0711987127916,0.0341851413099,0.139250797795,0.0356431803763,0.15659034771,0.161704121664,0.053985603839,0.516394424718
tagged_abstract_sents/10078488.txt,11,0.0711987127916,-0.0483443335026,0.139250797795,0.0356431803763,0.0,0.0,0.0,0.127608456543
tagged_abstract_sents/10078488.txt,12,0.0458567980692,-0.0199413324308,0.139250797795,0.0356431803763,0.272516932757,0.084204825247,0.0589128613322,0.528650144315
tagged_abstract_sents/10078488.txt,13,0.0458567980692,0.0438314435607,0.139250797795,0.0356431803763,0.197752896345,0.144757854734,0.0520318391286,0.520312670386
tagged_abstract_sents/10078488.txt,14,0.0245374094932,0.10599650251,0.139250797795,0.0356431803763,0.00640794199135,0.192983679854,0.0502580645161,0.370797267468
tagged_abstract_sents/10078488.txt,15,0.0245374094932,0.0465109719637,0.139250797795,0.0356431803763,0.0282131827217,0.125524644785,0.0428152492669,0.305803551771
tagged_abstract_sents/10078488.txt,16,0.00844730490748,0.0738421616743,0.139250797795,0.0356431803763,0.053125874154,0.163307657786,0.0592794302472,0.377557591458
tagged_abstract_sents/10078488.txt,17,0.00844730490748,-0.00225644497095,0.139250797795,0.0356431803763,0.0960593694218,0.138738170252,0.0532566754129,0.374679123029
tagged_abstract_sents/10078488.txt,18,0.00120675784393,-0.0467366164608,0.0616692308323,0.142474783506,0.0,0.0,0.0,0.0651951334508
tagged_abstract_sents/10078488.txt,19,0.00120675784393,0.0207874992949,0.139250797795,0.0356431803763,0.208321438202,0.110542186506,0.052831744868,0.457136628721
