tagged_abstract_sents/10182646.txt,1,0.206355591311,-0.0551075268817,0.0616692308323,0.106008497564,0.210893368325,0.0,0.0,0.216700132358
tagged_abstract_sents/10182646.txt,2,0.206355591311,0.00201612903226,0.188769469584,0.129715814208,0.210893368325,0.309067384385,0.0420570877996,0.848166699749
tagged_abstract_sents/10182646.txt,4,0.0048270313757,-0.057123655914,0.0616692308323,0.106008497564,0.210893368325,0.0,0.0,0.0550740586031
tagged_abstract_sents/10182646.txt,5,0.0108608205953,0.0120967741935,0.0616692308323,0.106008497564,0.210893368325,0.203057185674,0.0354023646072,0.490130453782
tagged_abstract_sents/10182646.txt,6,0.0108608205953,0.0450268817204,0.0616692308323,0.106008497564,0.210893368325,0.363655121901,0.0423849478769,0.802615761423
tagged_abstract_sents/10182646.txt,7,0.0261464199517,0.0100806451613,0.0616692308323,0.106008497564,0.210893368325,0.392669535312,0.0382250522336,0.516465017224
tagged_abstract_sents/10182646.txt,8,0.0353982300885,-0.0268817204301,0.0616692308323,0.106008497564,0.210893368325,0.114589505943,0.0459191456903,0.246088056303
tagged_abstract_sents/10182646.txt,9,0.0518905872888,-0.057123655914,0.0616692308323,0.106008497564,0.210893368325,0.0,0.0,0.0927249033335
tagged_abstract_sents/10182646.txt,10,0.0993563958166,0.0322580645161,0.139250797795,0.521468892835,0.210893368325,0.32741627736,0.0460411899314,0.920650207198
tagged_abstract_sents/10182646.txt,11,0.0993563958166,0.0295698924731,0.139250797795,0.521468892835,0.210893368325,0.259531904908,0.0474870751759,0.911479344864
tagged_abstract_sents/10182646.txt,13,0.206355591311,0.0349462365591,0.139250797795,0.521468892835,0.210893368325,0.3849462872,0.0579975458495,1.09522805169
tagged_abstract_sents/10182646.txt,14,0.206355591311,0.0302419354839,0.139250797795,0.521468892835,0.210893368325,0.286552207972,0.0440804528484,1.11549798515
tagged_abstract_sents/10182646.txt,15,0.262268704747,0.00672043010753,0.139250797795,0.521468892835,0.210893368325,0.246679054408,0.0554980127665,1.01545206605
tagged_abstract_sents/10182646.txt,16,0.262268704747,-0.0201612903226,0.139250797795,0.521468892835,0.210893368325,0.226057561013,0.0428770135056,0.911676715324
