tagged_abstract_sents/10189847.txt,1,0.206355591311,-0.0593430980914,0.0616692308323,0.106008497564,5.51069369907e-06,0.0,0.0,0.215853018116
tagged_abstract_sents/10189847.txt,2,0.206355591311,0.0265423879272,0.188769469584,0.129715814208,5.51069369907e-06,0.440567570499,0.05302596054,0.797291922847
tagged_abstract_sents/10189847.txt,3,0.0048270313757,-0.0633377718597,0.0616692308323,0.106008497564,5.51069369907e-06,0.0,0.0,0.0538312354139
tagged_abstract_sents/10189847.txt,4,0.0048270313757,0.0172214824678,0.0616692308323,0.106008497564,5.51069369907e-06,0.519031715171,0.0337078209543,0.622682622404
tagged_abstract_sents/10189847.txt,5,0.0108608205953,-0.0613404349756,0.0616692308323,0.106008497564,5.51069369907e-06,0.0,0.0,0.0590577341664
tagged_abstract_sents/10189847.txt,7,0.0261464199517,-0.0613404349756,0.0616692308323,0.106008497564,5.51069369907e-06,0.0,0.0,0.0712862136516
tagged_abstract_sents/10189847.txt,8,0.0518905872888,0.010563692854,0.139250797795,0.521468892835,5.51069369907e-06,0.378707742262,0.0228644859813,1.14485468169
tagged_abstract_sents/10189847.txt,9,0.0683829444891,0.0265423879272,0.139250797795,0.521468892835,5.51069369907e-06,0.393291660751,0.0405632398754,1.18196993019
tagged_abstract_sents/10189847.txt,10,0.0993563958166,0.0145583666223,0.139250797795,0.521468892835,5.51069369907e-06,0.400580818301,0.0286495327103,1.261791703
tagged_abstract_sents/10189847.txt,12,0.214802896219,-0.000754549489569,0.139250797795,0.521468892835,5.51069369907e-06,0.312378041806,0.0260186915888,1.2516368989
tagged_abstract_sents/10189847.txt,13,0.206355591311,-0.05867731913,0.0616692308323,0.106008497564,5.51069369907e-06,0.0,0.0,0.215986173908
tagged_abstract_sents/10189847.txt,14,0.262268704747,0.0644917887261,0.139250797795,0.521468892835,5.51069369907e-06,0.555701493395,0.0411677792612,1.18714452848
tagged_abstract_sents/10189847.txt,15,0.262268704747,0.0591655570351,0.139250797795,0.521468892835,5.51069369907e-06,0.549973374187,0.0472353440952,1.04492837093
