tagged_abstract_sents/10201721.txt,1,0.0954875100725,-0.0641186299081,0.0616692308323,0.247294108221,0.40979333818,0.0,0.0,0.168589129959
tagged_abstract_sents/10201721.txt,2,0.0253827558421,0.0360275689223,0.188769469584,0.123191979006,0.40979333818,0.701177096115,0.0255824011556,1.27217965183
tagged_abstract_sents/10201721.txt,3,0.0805801772764,-0.061925647452,0.0616692308323,0.247294108221,0.40979333818,0.0,0.0,0.157101860213
tagged_abstract_sents/10201721.txt,4,0.0805801772764,0.141290726817,0.0616692308323,0.247294108221,0.40979333818,0.862948434916,0.0373930992782,1.39373588976
tagged_abstract_sents/10201721.txt,5,0.123690572119,-0.0604636591479,0.0616692308323,0.247294108221,0.40979333818,0.0,0.0,0.191882573748
tagged_abstract_sents/10201721.txt,6,0.140209508461,-0.0429197994987,0.0616692308323,0.247294108221,0.40979333818,0.199693063992,0.0307719439686,0.664441474273
tagged_abstract_sents/10201721.txt,7,0.149073327961,-0.0597326649958,0.0616692308323,0.247294108221,0.40979333818,0.0,0.0,0.212334977252
tagged_abstract_sents/10201721.txt,8,0.149879129734,0.0791562238931,0.0616692308323,0.247294108221,0.40979333818,0.564788699023,0.0231640776839,1.04939091439
tagged_abstract_sents/10201721.txt,9,0.176470588235,-0.031223893066,0.0616692308323,0.247294108221,0.40979333818,0.436814047707,0.017970515829,0.694739103394
tagged_abstract_sents/10201721.txt,10,0.166800966962,-0.0604636591479,0.0616692308323,0.247294108221,0.40979333818,0.0,0.0,0.226370889623
tagged_abstract_sents/10201721.txt,11,0.166800966962,0.00532581453634,0.0616692308323,0.247294108221,0.40979333818,0.606491835335,0.0393553086035,1.17245549666
tagged_abstract_sents/10201721.txt,13,0.0342465753425,-0.0633876357561,0.139250797795,0.194462959676,0.40979333818,0.0,0.0,0.142684019923
tagged_abstract_sents/10201721.txt,14,0.0342465753425,0.0206766917293,0.139250797795,0.194462959676,0.40979333818,0.625937684676,0.037328337288,1.23255624556
