tagged_abstract_sents/10319055.txt,1,0.125905068383,-0.0652453224123,0.0616692308323,0.142474783506,0.0,0.0,0.0,0.161252040692
tagged_abstract_sents/10319055.txt,2,0.239742558327,0.0067052115956,0.188769469584,0.202456734834,0.234385197496,0.381826751422,0.0392025426177,1.00367133576
tagged_abstract_sents/10319055.txt,3,0.218020917136,0.0140126877058,0.188769469584,0.202456734834,0.405417373584,0.322344117002,0.0196168562248,1.0797193733
tagged_abstract_sents/10319055.txt,4,0.218020917136,-0.0669316630531,0.0616692308323,0.142474783506,0.0,0.0,0.0,0.234607451566
tagged_abstract_sents/10319055.txt,5,0.162510056315,0.120814261624,0.194899689933,0.13295610691,0.14922165147,0.538499188817,0.0262561540074,1.00548456871
tagged_abstract_sents/10319055.txt,6,0.101769911504,-0.023648919939,0.0616692308323,0.142474783506,0.335474383556,0.362431456497,0.0242062345501,0.872375270287
tagged_abstract_sents/10319055.txt,7,0.0852775543041,-0.0669316630531,0.0616692308323,0.142474783506,0.0,0.0,0.0,0.128412761301
tagged_abstract_sents/10319055.txt,8,0.0711987127916,0.00277041676704,0.0616692308323,0.142474783506,0.222618628786,0.259825355232,0.00834359808797,0.62187768616
tagged_abstract_sents/10319055.txt,9,0.0458567980692,0.0539227495383,0.139250797795,0.0356431803763,0.137279502725,0.316740388204,0.0334245997349,0.615232832037
tagged_abstract_sents/10319055.txt,10,0.0245374094932,-0.0281458283145,0.139250797795,0.0356431803763,0.107789368684,0.264371157814,0.0265362916103,0.49301593305
tagged_abstract_sents/10319055.txt,11,0.0245374094932,0.0685377017586,0.139250797795,0.0356431803763,0.212962051565,0.482860564781,0.0203666249318,0.829845062234
tagged_abstract_sents/10319055.txt,12,0.00844730490748,0.00895366578335,0.139250797795,0.0356431803763,0.291059392517,0.348584798367,0.0317659719692,0.760277092946
tagged_abstract_sents/10319055.txt,13,0.00120675784393,-0.0652453224123,0.0616692308323,0.142474783506,0.0,0.0,0.0,0.0614933922605
tagged_abstract_sents/10319055.txt,14,0.00120675784393,0.0404320244118,0.139250797795,0.0356431803763,0.279633582996,0.425492036835,0.0313190007883,0.825814784787
