tagged_abstract_sents/10319055.txt,1,0.0954875100725,-0.0652453224123,0.0616692308323,0.247294108221,0.279633582996,0.0,0.0,0.168363791458
tagged_abstract_sents/10319055.txt,2,0.0253827558421,0.0067052115956,0.188769469584,0.123191979006,0.279633582996,0.381826751422,0.0392025426177,0.808404067024
tagged_abstract_sents/10319055.txt,4,0.0805801772764,-0.0669316630531,0.0616692308323,0.247294108221,0.279633582996,0.0,0.0,0.156100657093
tagged_abstract_sents/10319055.txt,5,0.123690572119,0.120814261624,0.194899689933,0.293363477728,0.279633582996,0.538499188817,0.0262561540074,1.0225511926
tagged_abstract_sents/10319055.txt,6,0.140209508461,-0.023648919939,0.0616692308323,0.247294108221,0.279633582996,0.362431456497,0.0242062345501,0.934572745267
tagged_abstract_sents/10319055.txt,7,0.149073327961,-0.0669316630531,0.0616692308323,0.247294108221,0.279633582996,0.0,0.0,0.210895177641
tagged_abstract_sents/10319055.txt,8,0.149879129734,0.00277041676704,0.0616692308323,0.247294108221,0.279633582996,0.259825355232,0.00834359808797,0.716267817129
tagged_abstract_sents/10319055.txt,9,0.176470588235,0.0539227495383,0.139250797795,0.194462959676,0.279633582996,0.316740388204,0.0334245997349,0.76736979796
tagged_abstract_sents/10319055.txt,10,0.166800966962,-0.0281458283145,0.139250797795,0.194462959676,0.279633582996,0.264371157814,0.0265362916103,0.654472712815
tagged_abstract_sents/10319055.txt,11,0.166800966962,0.0685377017586,0.139250797795,0.194462959676,0.279633582996,0.482860564781,0.0203666249318,0.991301841999
tagged_abstract_sents/10319055.txt,12,0.0954875100725,0.00895366578335,0.139250797795,0.194462959676,0.279633582996,0.348584798367,0.0317659719692,0.877555190868
tagged_abstract_sents/10319055.txt,13,0.0342465753425,-0.0652453224123,0.0616692308323,0.247294108221,0.279633582996,0.0,0.0,0.119371043674
tagged_abstract_sents/10319055.txt,14,0.0342465753425,0.0404320244118,0.139250797795,0.194462959676,0.279633582996,0.425492036835,0.0313190007883,0.899892572576
