tagged_abstract_sents/10334745.txt,1,0.206355591311,-0.0576413959085,0.0616692308323,0.106008497564,0.578074274359,0.0,0.0,0.216193358553
tagged_abstract_sents/10334745.txt,2,0.206355591311,0.00734055354994,0.188769469584,0.129715814208,0.578074274359,0.253565138434,0.0606159838679,1.1144107472
tagged_abstract_sents/10334745.txt,3,0.0048270313757,-0.060348977136,0.0616692308323,0.106008497564,0.578074274359,0.0,0.0,0.0544289943587
tagged_abstract_sents/10334745.txt,5,0.0108608205953,-0.0585439229844,0.0616692308323,0.106008497564,0.578074274359,0.0,0.0,0.0596170365647
tagged_abstract_sents/10334745.txt,6,0.016894609815,0.00102286401925,0.210342442448,0.0253702522065,0.578074274359,0.255701354041,0.0416403226055,0.831521646311
tagged_abstract_sents/10334745.txt,7,0.0261464199517,-0.0468110709988,0.0616692308323,0.106008497564,0.578074274359,0.0,0.0,0.0741920864469
tagged_abstract_sents/10334745.txt,8,0.0518905872888,0.0154632972323,0.210342442448,0.0253702522065,0.578074274359,0.194765426733,0.0239818341635,0.897426796667
tagged_abstract_sents/10334745.txt,9,0.0683829444891,0.0560770156438,0.0616692308323,0.106008497564,0.578074274359,0.259564912805,0.0363393834719,0.903382952318
tagged_abstract_sents/10334745.txt,10,0.0993563958166,-0.0594464500602,0.0616692308323,0.106008497564,0.578074274359,0.0,0.0,0.130232991327
tagged_abstract_sents/10334745.txt,11,0.172566371681,0.0515643802647,0.139250797795,0.521468892835,0.578074274359,0.237955810856,0.0208889884697,1.10155219731
tagged_abstract_sents/10334745.txt,12,0.214802896219,0.0596871239471,0.139250797795,0.521468892835,0.578074274359,0.270192742006,0.0399363116258,1.0913515185
tagged_abstract_sents/10334745.txt,13,0.206355591311,-0.0567388688327,0.139250797795,0.521468892835,0.578074274359,0.0,0.0,0.37980276603
tagged_abstract_sents/10334745.txt,14,0.262268704747,0.000120336943442,0.139250797795,0.521468892835,0.578074274359,0.13511598974,0.0423606572156,1.07126640588
