tagged_abstract_sents/10350034.txt,2,0.0805801772764,0.0227576974565,0.194899689933,0.293363477728,0.437683706333,0.442809874345,0.0239891590976,1.0096629177
tagged_abstract_sents/10350034.txt,3,0.123690572119,-0.00669344042838,0.0616692308323,0.247294108221,0.437683706333,0.30166269923,0.0166202754175,0.734426662662
tagged_abstract_sents/10350034.txt,4,0.140209508461,-0.0696117804552,0.0616692308323,0.247294108221,0.437683706333,0.230690006151,0.018501921718,0.708458220488
tagged_abstract_sents/10350034.txt,5,0.149879129734,0.0127175368139,0.0616692308323,0.247294108221,0.437683706333,0.416017116303,0.0148414433501,1.05961352757
tagged_abstract_sents/10350034.txt,6,0.176470588235,0.016733601071,0.139250797795,0.194462959676,0.437683706333,0.461363816802,0.0236696404215,1.13240203416
tagged_abstract_sents/10350034.txt,7,0.166800966962,-0.045515394913,0.139250797795,0.194462959676,0.437683706333,0.236132921479,0.0324322228159,0.81800426393
tagged_abstract_sents/10350034.txt,8,0.0954875100725,-0.0394912985274,0.139250797795,0.194462959676,0.437683706333,0.209658377126,0.0184725681219,0.638775648244
tagged_abstract_sents/10350034.txt,9,0.0342465753425,0.0100401606426,0.139250797795,0.194462959676,0.437683706333,0.332985899089,0.0258903124417,0.953929497066
