tagged_abstract_sents/10357690.txt,1,0.125905068383,-0.0274587625964,0.0616692308323,0.142474783506,0.0,0.0,0.0,0.168809352655
tagged_abstract_sents/10357690.txt,2,0.125905068383,0.0052637504926,0.188769469584,0.202456734834,0.472699727553,0.116200023394,0.0848201756145,0.930618486609
tagged_abstract_sents/10357690.txt,3,0.125905068383,-0.0278950627709,0.0616692308323,0.142474783506,0.0,0.0,0.0,0.16872209262
tagged_abstract_sents/10357690.txt,4,0.239742558327,0.00875415188876,0.0616692308323,0.142474783506,0.549520527181,0.111696900162,0.0684067733184,0.996746128168
tagged_abstract_sents/10357690.txt,5,0.239742558327,-0.0292039632945,0.0616692308323,0.142474783506,0.0,0.0,0.0,0.25953030447
tagged_abstract_sents/10357690.txt,6,0.239742558327,0.0659094747509,0.188769469584,0.202456734834,0.36614141732,0.188437522862,0.0750644247697,0.989741061806
tagged_abstract_sents/10357690.txt,7,0.218020917136,-0.0265861622474,0.0616692308323,0.142474783506,0.0,0.0,0.0,0.242676551727
tagged_abstract_sents/10357690.txt,8,0.218020917136,0.0227157574734,0.0616692308323,0.142474783506,0.452264426399,0.195437224139,0.0609403409438,0.961178927153
tagged_abstract_sents/10357690.txt,9,0.218020917136,-0.0244046613748,0.0616692308323,0.142474783506,0.0,0.0,0.0,0.243112851902
tagged_abstract_sents/10357690.txt,10,0.162510056315,0.00875415188876,0.210342442448,0.226435992083,0.166404128526,0.0940248539464,0.0849975172176,0.650287393969
tagged_abstract_sents/10357690.txt,11,0.162510056315,-0.0265861622474,0.0616692308323,0.142474783506,0.0,0.0,0.0,0.198267863071
tagged_abstract_sents/10357690.txt,12,0.162510056315,-0.0283313629454,0.0616692308323,0.142474783506,0.0,0.00814594519397,0.00993544765647,0.216000215782
tagged_abstract_sents/10357690.txt,13,0.101769911504,-0.0270224624219,0.0616692308323,0.142474783506,0.0,0.0,0.0,0.149588487187
tagged_abstract_sents/10357690.txt,14,0.101769911504,-0.0283313629454,0.0616692308323,0.142474783506,0.0,0.00708353413766,0.0133595284872,0.169769769707
tagged_abstract_sents/10357690.txt,15,0.101769911504,-0.0261498620728,0.0616692308323,0.142474783506,0.0,0.0,0.0,0.149763007257
tagged_abstract_sents/10357690.txt,16,0.0711987127916,0.119574396217,0.194899689933,0.13295610691,0.199883061193,0.18573204785,0.0677982647744,0.671623900334
tagged_abstract_sents/10357690.txt,17,0.0711987127916,0.00133704892192,0.194899689933,0.13295610691,0.42694594272,0.0707789376231,0.0531153522313,0.745403289632
tagged_abstract_sents/10357690.txt,18,0.0711987127916,-0.0248409615493,0.0616692308323,0.142474783506,0.0,0.0,0.0,0.125567828391
tagged_abstract_sents/10357690.txt,19,0.0458567980692,0.000464448572876,0.0616692308323,0.142474783506,0.121579820884,0.0542297068921,0.0495088408644,0.335673747278
tagged_abstract_sents/10357690.txt,20,0.0458567980692,-0.0191690592805,0.0616692308323,0.142474783506,0.0,0.0,0.0,0.106428677067
tagged_abstract_sents/10357690.txt,21,0.0458567980692,0.0480211675956,0.139250797795,0.0356431803763,0.270507126232,0.161733302908,0.0764243614931,0.635272815618
tagged_abstract_sents/10357690.txt,22,0.0245374094932,-0.0139334571863,0.139250797795,0.0356431803763,5.97568393344e-05,0.0658703700032,0.0710075778838,0.234099293894
tagged_abstract_sents/10357690.txt,23,0.0245374094932,0.0179164555537,0.139250797795,0.0356431803763,0.497575685825,0.130780871814,0.065815324165,0.79770345352
tagged_abstract_sents/10357690.txt,24,0.0245374094932,0.0344958621854,0.139250797795,0.0356431803763,0.201347831678,0.0878463221401,0.0475398864397,0.443581493299
tagged_abstract_sents/10357690.txt,25,0.00844730490748,0.0126808534594,0.139250797795,0.0356431803763,0.233793002941,0.105492354445,0.0666773585662,0.49557508358
tagged_abstract_sents/10357690.txt,26,0.00844730490748,-0.0182964589315,0.139250797795,0.0356431803763,0.0,0.0,0.0,0.08341690515
tagged_abstract_sents/10357690.txt,27,0.00844730490748,0.0174801553792,0.139250797795,0.0356431803763,0.188166121951,0.147419317173,0.0811114229582,0.507269090094
tagged_abstract_sents/10357690.txt,28,0.00120675784393,-0.00433485334684,0.139250797795,0.0356431803763,0.226188365492,0.0701114167788,0.0647309468528,0.44144751774
tagged_abstract_sents/10357690.txt,29,0.00120675784393,-0.0270224624219,0.139250797795,0.0356431803763,0.0,0.0,0.0,0.075879266801
tagged_abstract_sents/10357690.txt,30,0.00120675784393,0.0209705567753,0.139250797795,0.0356431803763,0.38120921359,0.111542749223,0.0775630487952,0.655792882249
tagged_abstract_sents/10357690.txt,31,0.00120675784393,-0.00477115352136,0.139250797795,0.0356431803763,0.248117920556,0.0440643716983,0.039666947329,0.412178768165
