tagged_abstract_sents/10366118.txt,1,0.125905068383,-0.0651550457071,0.0616692308323,0.142474783506,0.0,0.0,0.0,0.161270096033
tagged_abstract_sents/10366118.txt,2,0.239742558327,0.0270657823983,0.188769469584,0.202456734834,0.368931235231,0.308998816927,0.0560547069981,1.08631371754
tagged_abstract_sents/10366118.txt,3,0.218020917136,-0.0664097508514,0.0616692308323,0.142474783506,0.0,0.0,0.0,0.234711834006
tagged_abstract_sents/10366118.txt,4,0.218020917136,-0.0381788851049,0.0616692308323,0.142474783506,0.0,0.106009621473,0.0583871055569,0.404754734186
tagged_abstract_sents/10366118.txt,5,0.162510056315,0.0364760709805,0.0616692308323,0.142474783506,0.393447216005,0.264245372106,0.0515912422566,0.920164140083
tagged_abstract_sents/10366118.txt,6,0.101769911504,0.0371034235526,0.0616692308323,0.142474783506,0.237399712948,0.267300240254,0.0676999101527,0.734813527736
tagged_abstract_sents/10366118.txt,7,0.0852775543041,-0.0664097508514,0.0616692308323,0.142474783506,0.0,0.0,0.0,0.128517143741
tagged_abstract_sents/10366118.txt,8,0.0711987127916,0.0320846029754,0.0616692308323,0.142474783506,0.252970974262,0.240470080061,0.0447386501771,0.675132645797
tagged_abstract_sents/10366118.txt,9,0.0458567980692,0.0276931349704,0.139250797795,0.0356431803763,0.250935927171,0.237722789485,0.0593907024725,0.670591837588
tagged_abstract_sents/10366118.txt,10,0.0245374094932,0.0941925076179,0.139250797795,0.0356431803763,0.137226256981,0.272107946631,0.0608191075172,0.588940093258
tagged_abstract_sents/10366118.txt,11,0.0245374094932,-0.00179243592042,0.139250797795,0.0356431803763,0.320519670739,0.133848109753,0.0445367874613,0.598494361374
tagged_abstract_sents/10366118.txt,12,0.00844730490748,-0.064527693135,0.0616692308323,0.142474783506,0.0,0.0,0.0,0.0674293557669
tagged_abstract_sents/10366118.txt,13,0.00120675784393,0.0226743143933,0.139250797795,0.0356431803763,0.332516222037,0.271107169021,0.0469964218723,0.736438435095
tagged_abstract_sents/10366118.txt,14,0.00120675784393,0.0251837246818,0.139250797795,0.0356431803763,0.225566823188,0.301739995746,0.0727014076071,0.686328730762
