tagged_abstract_sents/10367023.txt,2,0.0048270313757,-0.0538461538462,0.188769469584,0.129715814208,0.511850691077,0.117658921329,0.0523383238154,0.590892168602
tagged_abstract_sents/10367023.txt,3,0.0048270313757,0.130769230769,0.188769469584,0.129715814208,0.511850691077,0.223402580103,0.05012770788,0.697469852101
tagged_abstract_sents/10367023.txt,4,0.016894609815,-0.0464615384615,0.0616692308323,0.106008497564,0.511850691077,0.0844196851223,0.052758431085,0.204059630256
tagged_abstract_sents/10367023.txt,5,0.0353982300885,-0.0113846153846,0.139250797795,0.521468892835,0.511850691077,0.15927876187,0.0530325246601,0.852735939769
tagged_abstract_sents/10367023.txt,6,0.0683829444891,-0.00892307692308,0.139250797795,0.521468892835,0.511850691077,0.141421609722,0.0474873367102,0.818236824077
tagged_abstract_sents/10367023.txt,7,0.130329847144,-0.0372307692308,0.139250797795,0.521468892835,0.511850691077,0.13149166092,0.0369710934227,0.922806404697
tagged_abstract_sents/10367023.txt,8,0.214802896219,0.0243076923077,0.139250797795,0.521468892835,0.511850691077,0.191084784979,0.0618416422287,0.991238851716
tagged_abstract_sents/10367023.txt,9,0.262268704747,-0.0415384615385,0.139250797795,0.521468892835,0.511850691077,0.125853932,0.0572825024438,0.803554079759
