tagged_abstract_sents/10398626.txt,1,0.125905068383,-0.0465746437566,0.0616692308323,0.142474783506,0.0,0.0,0.0,0.164986176423
tagged_abstract_sents/10398626.txt,2,0.239742558327,0.0479135452198,0.188769469584,0.202456734834,0.386666694977,0.140331600284,0.0330529402686,0.916549746478
tagged_abstract_sents/10398626.txt,3,0.239742558327,-0.0483917243138,0.0616692308323,0.142474783506,0.0,0.0,0.0,0.255692752266
tagged_abstract_sents/10398626.txt,4,0.218020917136,-0.0417290956039,0.0616692308323,0.142474783506,0.0,0.00918816553518,0.0,0.248836130591
tagged_abstract_sents/10398626.txt,5,0.218020917136,-0.0441518696803,0.0616692308323,0.142474783506,0.0,0.0,0.0,0.239163410241
tagged_abstract_sents/10398626.txt,6,0.162510056315,-0.0205298224362,0.194899689933,0.13295610691,0.109967822108,0.0927822014048,0.0330400782014,0.499028859319
tagged_abstract_sents/10398626.txt,7,0.162510056315,-0.0393063215276,0.0616692308323,0.142474783506,0.0,0.0,0.0,0.195723831215
tagged_abstract_sents/10398626.txt,8,0.101769911504,0.026714272052,0.210342442448,0.226435992083,0.240057449936,0.13069938677,0.0289507983056,0.659568437474
tagged_abstract_sents/10398626.txt,9,0.101769911504,-0.0477860307947,0.0616692308323,0.142474783506,0.0,0.0,0.0,0.145435773512
tagged_abstract_sents/10398626.txt,10,0.0711987127916,-0.00538748445918,0.139250797795,0.0356431803763,0.31790035216,0.0514014149405,0.0227109807755,0.528212574228
tagged_abstract_sents/10398626.txt,11,0.0711987127916,0.101214574899,0.139250797795,0.0356431803763,0.0888773112083,0.169588538294,0.0442117022762,0.460197790002
tagged_abstract_sents/10398626.txt,12,0.0458567980692,0.0660843507922,0.139250797795,0.0356431803763,0.163559958929,0.138176305405,0.0390801049545,0.471037030912
tagged_abstract_sents/10398626.txt,13,0.0458567980692,0.0509420128152,0.139250797795,0.0356431803763,0.158627052075,0.0773658725258,0.0241446725318,0.387329791161
tagged_abstract_sents/10398626.txt,14,0.0245374094932,0.0097548535178,0.139250797795,0.0356431803763,0.329330863133,0.131319351609,0.0442489410231,0.606798407073
tagged_abstract_sents/10398626.txt,15,0.0245374094932,-0.0453632567184,0.0616692308323,0.142474783506,0.0,0.0,0.0,0.0841343267187
tagged_abstract_sents/10398626.txt,16,0.00844730490748,6.37572125347e-05,0.139250797795,0.0356431803763,0.207924140725,0.117414821906,0.04403714565,0.45646505666
tagged_abstract_sents/10398626.txt,17,0.00844730490748,0.0097548535178,0.139250797795,0.0356431803763,0.268751969402,0.072318693486,0.0521260997067,0.482223930234
tagged_abstract_sents/10398626.txt,18,0.00120675784393,0.00430361184609,0.139250797795,0.0356431803763,4.21806961528e-05,0.0639243402379,0.0420234604106,0.188134462999
tagged_abstract_sents/10398626.txt,19,0.00120675784393,0.0224744174185,0.139250797795,0.0356431803763,0.305509436236,0.123533386907,0.0315890762463,0.546410542158
