tagged_abstract_sents/10426254.txt,1,0.206355591311,-0.0366161616162,0.0616692308323,0.106008497564,0.595465337104,0.0,0.0,0.220398405411
tagged_abstract_sents/10426254.txt,3,0.206355591311,-0.0381313131313,0.0616692308323,0.106008497564,0.595465337104,0.0,0.0,0.220095375108
tagged_abstract_sents/10426254.txt,4,0.206355591311,0.0204545454545,0.210342442448,0.0253702522065,0.595465337104,0.335318248414,0.0897260371654,0.845751403624
tagged_abstract_sents/10426254.txt,5,0.0048270313757,-0.0376262626263,0.0616692308323,0.106008497564,0.595465337104,0.0,0.0,0.0589735372606
tagged_abstract_sents/10426254.txt,6,0.0048270313757,-0.0300505050505,0.0616692308323,0.106008497564,0.595465337104,0.0,0.0,0.0604886887758
tagged_abstract_sents/10426254.txt,7,0.0048270313757,-0.0361111111111,0.0616692308323,0.106008497564,0.595465337104,0.0,0.0,0.0592765675636
tagged_abstract_sents/10426254.txt,8,0.0108608205953,-0.0118686868687,0.0616692308323,0.106008497564,0.595465337104,0.168048060816,0.0431266846361,0.446964025059
tagged_abstract_sents/10426254.txt,9,0.0108608205953,-0.0376262626263,0.0616692308323,0.106008497564,0.595465337104,0.0,0.0,0.0638005686363
tagged_abstract_sents/10426254.txt,10,0.0261464199517,-0.0199494949495,0.0616692308323,0.106008497564,0.595465337104,0.0895877152224,0.0415793151642,0.210731432043
tagged_abstract_sents/10426254.txt,11,0.0261464199517,0.0684343434343,0.194899689933,0.0581677376677,0.595465337104,0.350892144097,0.0681273652972,0.938330056372
tagged_abstract_sents/10426254.txt,12,0.0353982300885,-0.0305555555556,0.0616692308323,0.106008497564,0.595465337104,0.0,0.0,0.084844637645
tagged_abstract_sents/10426254.txt,13,0.0518905872888,-0.0143939393939,0.0616692308323,0.106008497564,0.595465337104,0.201663921731,0.068048603089,0.866753689345
tagged_abstract_sents/10426254.txt,14,0.0518905872888,0.0204545454545,0.139250797795,0.521468892835,0.595465337104,0.198758298466,0.053049815314,0.572403843522
tagged_abstract_sents/10426254.txt,15,0.0993563958166,0.00631313131313,0.139250797795,0.521468892835,0.595465337104,0.284982732653,0.0624280827856,0.788949440242
tagged_abstract_sents/10426254.txt,16,0.0993563958166,-0.0376262626263,0.139250797795,0.521468892835,0.595465337104,0.0,0.0,0.298025930876
tagged_abstract_sents/10426254.txt,17,0.172566371681,-0.014898989899,0.139250797795,0.521468892835,0.595465337104,0.157897888058,0.0774299076186,0.987886532119
tagged_abstract_sents/10426254.txt,18,0.172566371681,0.0482323232323,0.139250797795,0.521468892835,0.595465337104,0.301312999609,0.0591494459419,1.23579310318
tagged_abstract_sents/10426254.txt,20,0.206355591311,0.00833333333333,0.139250797795,0.521468892835,0.595465337104,0.356189492748,0.0754036320074,1.26602158506
tagged_abstract_sents/10426254.txt,21,0.206355591311,-0.0361111111111,0.0616692308323,0.106008497564,0.595465337104,0.0,0.0,0.220499415512
tagged_abstract_sents/10426254.txt,22,0.262268704747,0.034595959596,0.139250797795,0.521468892835,0.595465337104,0.41617866993,0.0784366576819,1.43630184004
tagged_abstract_sents/10426254.txt,23,0.262268704747,0.0977272727273,0.139250797795,0.521468892835,0.595465337104,0.420657731833,0.0582991058058,1.39388520842
tagged_abstract_sents/10426254.txt,24,0.262268704747,0.025,0.139250797795,0.521468892835,0.595465337104,0.302213354492,0.0623796688487,1.40093939099
