tagged_abstract_sents/10428520.txt,1,0.0954875100725,-0.0436346276257,0.0616692308323,0.247294108221,0.222976351966,0.0,0.0,0.172685930415
tagged_abstract_sents/10428520.txt,3,0.0253827558421,-0.045544239338,0.0616692308323,0.247294108221,0.222976351966,0.0,0.0,0.116220204689
tagged_abstract_sents/10428520.txt,4,0.0451248992748,-0.0073520050923,0.0616692308323,0.247294108221,0.222976351966,0.0780482106326,0.0545162059104,0.45000227709
tagged_abstract_sents/10428520.txt,5,0.0805801772764,-0.0449077021006,0.0616692308323,0.247294108221,0.222976351966,0.0,0.0,0.160505449284
tagged_abstract_sents/10428520.txt,6,0.116035455278,-0.0239019732654,0.0616692308323,0.247294108221,0.222976351966,0.0741982955237,0.0117118344001,0.351574228285
tagged_abstract_sents/10428520.txt,7,0.123690572119,-0.0417250159134,0.0616692308323,0.247294108221,0.222976351966,0.0,0.0,0.195630302395
tagged_abstract_sents/10428520.txt,8,0.131345688961,0.0365690642903,0.210342442448,0.141687475369,0.222976351966,0.219447289818,0.0529710835717,0.925096788222
tagged_abstract_sents/10428520.txt,9,0.140209508461,-0.041088478676,0.0616692308323,0.247294108221,0.222976351966,0.0,0.0,0.208972758916
tagged_abstract_sents/10428520.txt,10,0.149073327961,0.0225652450668,0.194899689933,0.293363477728,0.222976351966,0.144031349369,0.0443477915475,0.670985939519
tagged_abstract_sents/10428520.txt,11,0.149879129734,-0.0359961807766,0.0616692308323,0.247294108221,0.222976351966,0.0,0.0,0.217726915514
tagged_abstract_sents/10428520.txt,12,0.150684931507,0.0232017823043,0.139250797795,0.194462959676,0.222976351966,0.184201893839,0.084624245313,0.951299757831
tagged_abstract_sents/10428520.txt,13,0.176470588235,-0.0449077021006,0.139250797795,0.194462959676,0.222976351966,0.0,0.0,0.260159216968
tagged_abstract_sents/10428520.txt,14,0.202256244964,0.0410248249523,0.139250797795,0.194462959676,0.222976351966,0.338763619778,0.0550398876123,1.06010616971
tagged_abstract_sents/10428520.txt,15,0.166800966962,0.079217059198,0.139250797795,0.194462959676,0.222976351966,0.294141005539,0.0502065459167,0.791600861944
tagged_abstract_sents/10428520.txt,16,0.131345688961,-0.00544239338001,0.139250797795,0.194462959676,0.222976351966,0.119239816011,0.0578063764432,0.873252374426
tagged_abstract_sents/10428520.txt,17,0.0954875100725,0.0117441120306,0.139250797795,0.194462959676,0.222976351966,0.20668940691,0.0480127594046,0.493186725503
tagged_abstract_sents/10428520.txt,18,0.0342465753425,-0.0429980903883,0.0616692308323,0.247294108221,0.222976351966,0.0,0.0,0.123820490079
tagged_abstract_sents/10428520.txt,19,0.0342465753425,0.0894016549968,0.139250797795,0.194462959676,0.222976351966,0.303144938175,0.0739593263425,1.03657250329
tagged_abstract_sents/10428520.txt,20,0.0342465753425,0.0244748567791,0.139250797795,0.194462959676,0.222976351966,0.233553326682,0.0515967588179,0.668382955896
