tagged_abstract_sents/10443654.txt,1,0.206355591311,-0.00679711637487,0.188769469584,0.129715814208,0.301658052442,0.210090449236,0.0795119740122,0.858173564453
tagged_abstract_sents/10443654.txt,4,0.016894609815,-0.0340885684861,0.0616692308323,0.106008497564,0.301658052442,0.155821362637,0.0557398733628,0.493047777512
tagged_abstract_sents/10443654.txt,5,0.0353982300885,-0.0721936148301,0.0616692308323,0.106008497564,0.301658052442,0.0795574380034,0.0588149194104,0.43815556493
tagged_abstract_sents/10443654.txt,6,0.0683829444891,0.0076210092688,0.139250797795,0.521468892835,0.301658052442,0.162169248693,0.0934543325527,0.778933972471
tagged_abstract_sents/10443654.txt,7,0.130329847144,-0.0129763130793,0.139250797795,0.521468892835,0.301658052442,0.153424898235,0.09375,0.883294828774
tagged_abstract_sents/10443654.txt,8,0.214802896219,0.0405767250257,0.139250797795,0.521468892835,0.301658052442,0.167392649311,0.0923088182309,0.882102815628
tagged_abstract_sents/10443654.txt,9,0.262268704747,-0.00628218331617,0.139250797795,0.521468892835,0.301658052442,0.160339946885,0.129537470726,0.953945501929
tagged_abstract_sents/10443654.txt,10,0.262268704747,0.0709577754892,0.139250797795,0.521468892835,0.301658052442,0.251951239284,0.134113686458,1.13779556383
