tagged_abstract_sents/10458342.txt,1,0.0954875100725,-0.0579827780915,0.0616692308323,0.247294108221,0.43414373919,0.0,0.0,0.169816300322
tagged_abstract_sents/10458342.txt,2,0.0253827558421,0.0284090909091,0.188769469584,0.123191979006,0.43414373919,0.443979713394,0.0419787315203,1.11400273201
tagged_abstract_sents/10458342.txt,4,0.0805801772764,0.00299971767363,0.188769469584,0.123191979006,0.43414373919,0.443879746591,0.0298000614051,0.989762243716
tagged_abstract_sents/10458342.txt,5,0.123690572119,-0.0500776397516,0.0616692308323,0.247294108221,0.43414373919,0.0,0.0,0.193959777628
tagged_abstract_sents/10458342.txt,6,0.123690572119,0.0035643704122,0.210342442448,0.141687475369,0.43414373919,0.368275109029,0.0310529727182,0.973573073712
tagged_abstract_sents/10458342.txt,7,0.140209508461,-0.0224096555618,0.0616692308323,0.247294108221,0.43414373919,0.310716276938,0.0387572918508,1.05802104935
tagged_abstract_sents/10458342.txt,8,0.149073327961,0.0267151326934,0.139250797795,0.194462959676,0.43414373919,0.588049229644,0.0306027929998,1.16451348853
tagged_abstract_sents/10458342.txt,9,0.149879129734,-0.0579827780915,0.139250797795,0.194462959676,0.43414373919,0.0,0.0,0.236271034969
tagged_abstract_sents/10458342.txt,10,0.176470588235,0.0131634669678,0.139250797795,0.194462959676,0.43414373919,0.384747380838,0.0365346421404,1.00702578093
tagged_abstract_sents/10458342.txt,11,0.176470588235,0.00299971767363,0.139250797795,0.194462959676,0.43414373919,0.272406272356,0.0401146493598,0.859449694808
tagged_abstract_sents/10458342.txt,12,0.166800966962,-0.000388198757764,0.139250797795,0.194462959676,0.43414373919,0.33981228519,0.0365346421404,1.09323207859
tagged_abstract_sents/10458342.txt,13,0.0954875100725,0.027279785432,0.139250797795,0.194462959676,0.43414373919,0.513542424769,0.0440162630369,1.09075098394
tagged_abstract_sents/10458342.txt,14,0.0954875100725,-0.0557241671372,0.0616692308323,0.247294108221,0.43414373919,0.0,0.0,0.170268022513
tagged_abstract_sents/10458342.txt,15,0.0342465753425,0.0227625635234,0.139250797795,0.194462959676,0.43414373919,0.495344139613,0.0297907576082,1.00009094193
tagged_abstract_sents/10458342.txt,16,0.0342465753425,0.0696287408244,0.139250797795,0.194462959676,0.43414373919,0.527893478113,0.0327711443586,1.1640956569
