tagged_abstract_sents/10457047.txt,1,0.206355591311,-0.015269491354,0.188769469584,0.129715814208,0.168657064681,0.59763413068,0.0107014487746,1.21846767745
tagged_abstract_sents/10457047.txt,2,0.206355591311,-0.026949135403,0.188769469584,0.129715814208,0.168657064681,0.613325789688,0.0224386869807,1.24177705417
tagged_abstract_sents/10457047.txt,3,0.0048270313757,-0.0647689351805,0.188769469584,0.129715814208,0.168657064681,0.233434879339,0.0290555458851,0.599975020703
tagged_abstract_sents/10457047.txt,4,0.0108608205953,0.00364040853474,0.188769469584,0.129715814208,0.168657064681,0.541288569992,0.0273052504283,1.06838737733
tagged_abstract_sents/10457047.txt,6,0.0518905872888,-0.0419658206088,0.188769469584,0.129715814208,0.168657064681,0.393331632461,0.0242744129799,0.918348027972
tagged_abstract_sents/10457047.txt,7,0.0993563958166,-0.00192132672667,0.188769469584,0.129715814208,0.168657064681,0.811253051673,0.020576438577,1.15371452295
tagged_abstract_sents/10457047.txt,8,0.172566371681,-0.00915158256649,0.139250797795,0.521468892835,0.168657064681,0.529450894153,0.021375114699,1.16374700397
tagged_abstract_sents/10457047.txt,10,0.262268704747,0.0247750025281,0.139250797795,0.521468892835,0.168657064681,0.602504493231,0.0397969124161,1.28642809724
tagged_abstract_sents/10457047.txt,11,0.262268704747,-0.0169380119325,0.139250797795,0.521468892835,0.168657064681,0.605901271259,0.0236039728129,1.23065573691
