tagged_abstract_sents/10475183.txt,1,0.125905068383,-0.0482525980556,0.0616692308323,0.142474783506,0.0,0.0,0.0,0.164650585563
tagged_abstract_sents/10475183.txt,2,0.239742558327,-0.00605514582635,0.188769469584,0.202456734834,0.525791472362,0.128339181737,0.0204755399428,1.02031096678
tagged_abstract_sents/10475183.txt,3,0.239742558327,0.0110626885686,0.188769469584,0.202456734834,0.232470309379,0.198196141487,0.0270960187354,0.806890809219
tagged_abstract_sents/10475183.txt,4,0.218020917136,-0.0494468655716,0.0616692308323,0.142474783506,0.0,0.0,0.0,0.238104411062
tagged_abstract_sents/10475183.txt,5,0.218020917136,0.08192256118,0.194899689933,0.13295610691,0.210509886045,0.274813137517,0.0244666642272,0.837927610773
tagged_abstract_sents/10475183.txt,6,0.162510056315,-0.0211825343614,0.0616692308323,0.142474783506,0.0,0.0339553797644,0.0234557962529,0.256759764665
tagged_abstract_sents/10475183.txt,7,0.162510056315,0.0341518605431,0.194899689933,0.13295610691,0.316795986377,0.123586310336,0.0295744484161,0.744131839329
tagged_abstract_sents/10475183.txt,8,0.101769911504,-0.00804559168622,0.194899689933,0.13295610691,0.456418329755,0.129577936572,0.0207552693208,0.823895023554
tagged_abstract_sents/10475183.txt,9,0.101769911504,-0.0367080120684,0.0616692308323,0.142474783506,0.303021908133,0.0371031193824,0.0128988583138,0.500675263086
tagged_abstract_sents/10475183.txt,10,0.0711987127916,-0.0490487763996,0.0616692308323,0.142474783506,0.0,0.0,0.0,0.120726265421
tagged_abstract_sents/10475183.txt,11,0.0711987127916,-0.0156092859537,0.139250797795,0.0356431803763,0.23956463473,0.0764981126869,0.032888218339,0.483106431809
tagged_abstract_sents/10475183.txt,12,0.0458567980692,-0.0243672477372,0.139250797795,0.0356431803763,0.232410803049,0.0636248230782,0.0187475604996,0.426913528545
tagged_abstract_sents/10475183.txt,13,0.0458567980692,0.0723684210526,0.139250797795,0.0356431803763,0.323884798915,0.145406537929,0.020206033233,0.620974845753
tagged_abstract_sents/10475183.txt,14,0.0245374094932,0.0488811599061,0.139250797795,0.0356431803763,0.106871845883,0.150836321464,0.0225491152745,0.389981795207
tagged_abstract_sents/10475183.txt,15,0.0245374094932,0.0675913509889,0.139250797795,0.0356431803763,0.5028343006,0.194138415561,0.0176471336931,0.828086400656
tagged_abstract_sents/10475183.txt,16,0.00844730490748,-0.0466602413678,0.139250797795,0.0356431803763,0.0,0.0,0.0,0.0777441486627
tagged_abstract_sents/10475183.txt,17,0.00844730490748,-0.0207844451894,0.139250797795,0.0356431803763,0.53874886618,0.135187656429,0.0141593738444,0.771015204352
tagged_abstract_sents/10475183.txt,18,0.00120675784393,0.0110626885686,0.139250797795,0.0356431803763,0.448990598994,0.17097442746,0.026607524692,0.730068848145
tagged_abstract_sents/10475183.txt,19,0.00120675784393,-0.000879986590681,0.139250797795,0.0356431803763,0.29239645588,0.174126264249,0.0322571651611,0.579887647258
