tagged_abstract_sents/10500513.txt,1,0.125905068383,-0.0645016192875,0.0616692308323,0.142474783506,0.0,0.0,0.0,0.161400781317
tagged_abstract_sents/10500513.txt,2,0.239742558327,-0.00152932709608,0.188769469584,0.202456734834,0.299022425857,0.208704008114,0.025512419663,0.879848790119
tagged_abstract_sents/10500513.txt,3,0.218020917136,-0.0651313422094,0.0616692308323,0.142474783506,0.0,0.0,0.0,0.234967515735
tagged_abstract_sents/10500513.txt,4,0.218020917136,-0.00152932709608,0.188769469584,0.202456734834,0.158997365465,0.127405197584,0.023417144346,0.639052330927
tagged_abstract_sents/10500513.txt,5,0.162510056315,-0.0575746671465,0.0616692308323,0.142474783506,0.0,0.0,0.0,0.192070162091
tagged_abstract_sents/10500513.txt,6,0.101769911504,0.0967074487226,0.139250797795,0.0356431803763,0.26549201024,0.300304419067,0.0413093940973,0.788181595363
tagged_abstract_sents/10500513.txt,7,0.0852775543041,-0.0663907880533,0.139250797795,0.0356431803763,0.0,0.0,0.0,0.135262238843
tagged_abstract_sents/10500513.txt,8,0.0711987127916,0.0526268441886,0.139250797795,0.0356431803763,0.105326294027,0.187675183467,0.0212301931948,0.46203436277
tagged_abstract_sents/10500513.txt,9,0.0458567980692,0.0910399424253,0.139250797795,0.0356431803763,0.259906784517,0.303993739498,0.039385432601,0.738497736566
tagged_abstract_sents/10500513.txt,10,0.0245374094932,0.0116948542641,0.139250797795,0.0356431803763,0.353549194865,0.176497027119,0.0223423658155,0.654675839257
tagged_abstract_sents/10500513.txt,11,0.0245374094932,0.0110651313422,0.139250797795,0.0356431803763,0.213204466009,0.199650466274,0.0285356956748,0.543551934831
tagged_abstract_sents/10500513.txt,12,0.00844730490748,-0.0638718963656,0.0616692308323,0.142474783506,0.0,0.0,0.0,0.0675605151207
tagged_abstract_sents/10500513.txt,13,0.00120675784393,0.0135840230299,0.139250797795,0.0356431803763,0.309356330165,0.163155500939,0.0171443460135,0.573656741009
tagged_abstract_sents/10500513.txt,14,0.00120675784393,0.0438107232818,0.139250797795,0.0356431803763,0.203922562397,0.20688985995,0.0221469515373,0.523005277826
