tagged_abstract_sents/10509605.txt,1,0.206355591311,-0.0703397984504,0.0616692308323,0.106008497564,0.29110403334,0.0,0.0,0.213653678044
tagged_abstract_sents/10509605.txt,3,0.0048270313757,-0.0558565858105,0.0616692308323,0.106008497564,0.29110403334,0.0,0.0,0.0553274726238
tagged_abstract_sents/10509605.txt,4,0.0108608205953,0.0376259685015,0.0616692308323,0.106008497564,0.29110403334,0.160951019295,0.0285510545514,0.450329162745
tagged_abstract_sents/10509605.txt,5,0.0108608205953,0.0211677723198,0.0616692308323,0.106008497564,0.29110403334,0.14680493872,0.0204602177669,0.399772436859
tagged_abstract_sents/10509605.txt,6,0.0261464199517,-0.0716564541449,0.0616692308323,0.106008497564,0.29110403334,0.0,0.0,0.0692230098177
tagged_abstract_sents/10509605.txt,7,0.0518905872888,-0.0216235377526,0.139250797795,0.521468892835,0.29110403334,0.084190825999,0.0297977166138,0.597563505582
tagged_abstract_sents/10509605.txt,8,0.0993563958166,0.00734288752722,0.139250797795,0.521468892835,0.29110403334,0.170158347144,0.0249478895258,0.626349700585
tagged_abstract_sents/10509605.txt,9,0.0993563958166,0.137033473439,0.139250797795,0.521468892835,0.29110403334,0.228452079028,0.0184183572622,0.618969194348
tagged_abstract_sents/10509605.txt,10,0.172566371681,0.0349926571125,0.139250797795,0.521468892835,0.29110403334,0.164494507701,0.0268132076366,0.666014000766
tagged_abstract_sents/10509605.txt,11,0.206355591311,-0.0696814706031,0.139250797795,0.521468892835,0.29110403334,0.0,0.0,0.377214245676
tagged_abstract_sents/10509605.txt,13,0.262268704747,-0.0334734390034,0.139250797795,0.521468892835,0.29110403334,0.0593609964728,0.0291167274622,0.80876810002
