tagged_abstract_sents/10518812.txt,1,0.0253827558421,-0.0380434782609,0.188769469584,0.123191979006,0.331372704851,0.111387271681,0.110911885246,0.477892461897
tagged_abstract_sents/10518812.txt,3,0.123690572119,-0.010618729097,0.188769469584,0.123191979006,0.331372704851,0.164903970975,0.0846140710383,0.733237506585
tagged_abstract_sents/10518812.txt,4,0.149073327961,0.0402173913043,0.188769469584,0.123191979006,0.331372704851,0.204582598589,0.113144028103,0.704335725738
tagged_abstract_sents/10518812.txt,5,0.176470588235,-0.0246655518395,0.188769469584,0.123191979006,0.331372704851,0.104557167839,0.0732399004684,0.711725762459
tagged_abstract_sents/10518812.txt,6,0.166800966962,0.0208193979933,0.188769469584,0.123191979006,0.331372704851,0.153738721021,0.0925476748076,0.778073564798
tagged_abstract_sents/10518812.txt,7,0.0954875100725,0.00476588628763,0.188769469584,0.123191979006,0.331372704851,0.13761010177,0.0591962194714,0.610813373959
tagged_abstract_sents/10518812.txt,8,0.0342465753425,-0.020652173913,0.188769469584,0.123191979006,0.331372704851,0.145279183253,0.13325064711,0.764511689199
