tagged_abstract_sents/10543657.txt,2,0.123690572119,0.00677830940989,0.188769469584,0.123191979006,0.546042162803,0.319496967713,0.0403806842934,1.0630508773
tagged_abstract_sents/10543657.txt,3,0.149073327961,-0.1086523126,0.188769469584,0.123191979006,0.546042162803,0.225878332668,0.021058275527,0.834159708121
tagged_abstract_sents/10543657.txt,4,0.176470588235,-0.0440590111643,0.188769469584,0.123191979006,0.546042162803,0.284426906378,0.0389908620954,1.03745189928
tagged_abstract_sents/10543657.txt,5,0.0954875100725,0.260366826156,0.188769469584,0.123191979006,0.546042162803,0.387554277765,0.0399673826838,1.02644694176
tagged_abstract_sents/10543657.txt,6,0.0342465753425,-0.0141547049442,0.188769469584,0.123191979006,0.546042162803,0.319324672371,0.0370966120438,1.058372095
