tagged_abstract_sents/10540698.txt,1,0.206355591311,-0.0760869565217,0.0616692308323,0.106008497564,0.108864911601,0.0,0.0,0.21250424643
tagged_abstract_sents/10540698.txt,2,0.206355591311,-0.0369565217391,0.188769469584,0.129715814208,0.108864911601,0.246086636617,0.0215091268457,1.06526146824
tagged_abstract_sents/10540698.txt,3,0.0048270313757,-0.0739130434783,0.0616692308323,0.106008497564,0.108864911601,0.0,0.0,0.0517161810902
tagged_abstract_sents/10540698.txt,4,0.0108608205953,0.0536231884058,0.0616692308323,0.106008497564,0.108864911601,0.41879157561,0.0514911056854,0.616750919896
tagged_abstract_sents/10540698.txt,5,0.0261464199517,-0.0717391304348,0.0616692308323,0.106008497564,0.108864911601,0.0,0.0,0.0692064745597
tagged_abstract_sents/10540698.txt,7,0.0518905872888,-0.0760869565217,0.0616692308323,0.106008497564,0.108864911601,0.0,0.0,0.088932243212
tagged_abstract_sents/10540698.txt,8,0.0993563958166,0.0565217391304,0.0616692308323,0.106008497564,0.108864911601,0.453620314022,0.0457592140449,0.78984169396
tagged_abstract_sents/10540698.txt,9,0.172566371681,0.0159420289855,0.0616692308323,0.106008497564,0.108864911601,0.311341379973,0.0378861406409,0.747141498889
tagged_abstract_sents/10540698.txt,10,0.206355591311,-0.0746376811594,0.139250797795,0.521468892835,0.108864911601,0.0,0.0,0.376223003565
tagged_abstract_sents/10540698.txt,12,0.262268704747,0.0123188405797,0.139250797795,0.521468892835,0.108864911601,0.3003655752,0.0345848489378,0.882160134401
