tagged_abstract_sents/10582925.txt,1,0.206355591311,-0.0527885263943,0.0616692308323,0.106008497564,0.250160397867,0.0,0.0,0.217163932456
tagged_abstract_sents/10582925.txt,3,0.206355591311,-0.0545990272995,0.0616692308323,0.106008497564,0.250160397867,0.0,0.0,0.216801832274
tagged_abstract_sents/10582925.txt,4,0.0048270313757,-0.0298555149278,0.0616692308323,0.106008497564,0.250160397867,0.0615223513366,0.0366264020708,0.158676440208
tagged_abstract_sents/10582925.txt,5,0.0048270313757,0.0202350101175,0.0616692308323,0.106008497564,0.250160397867,0.130803591738,0.0289761288467,0.647405586469
tagged_abstract_sents/10582925.txt,6,0.0108608205953,-0.0539955269978,0.0616692308323,0.106008497564,0.250160397867,0.0,0.0,0.060526715762
tagged_abstract_sents/10582925.txt,7,0.0261464199517,-0.0141645070823,0.139250797795,0.521468892835,0.250160397867,0.0479130387634,0.00485332182916,0.296916661885
tagged_abstract_sents/10582925.txt,8,0.0261464199517,-0.053392026696,0.139250797795,0.521468892835,0.250160397867,0.0,0.0,0.23630479737
tagged_abstract_sents/10582925.txt,9,0.0518905872888,-0.031666015833,0.139250797795,0.521468892835,0.250160397867,0.0722744519727,0.0213276531493,0.705400974686
tagged_abstract_sents/10582925.txt,10,0.0518905872888,-0.0539955269978,0.139250797795,0.521468892835,0.250160397867,0.0,0.0,0.256779431179
tagged_abstract_sents/10582925.txt,11,0.0993563958166,0.052824026412,0.139250797795,0.521468892835,0.250160397867,0.163381678093,0.0285755372037,0.715556208119
tagged_abstract_sents/10582925.txt,12,0.172566371681,0.111967055984,0.139250797795,0.521468892835,0.250160397867,0.132534716056,0.0321996932221,0.952991089951
tagged_abstract_sents/10582925.txt,13,0.172566371681,0.20732010366,0.139250797795,0.521468892835,0.250160397867,0.235222004734,0.0252305327869,0.940171771901
tagged_abstract_sents/10582925.txt,14,0.206355591311,-0.0515815257908,0.139250797795,0.521468892835,0.250160397867,0.0,0.0,0.380834234639
tagged_abstract_sents/10582925.txt,15,0.206355591311,0.0105790052895,0.139250797795,0.521468892835,0.250160397867,0.0908566785366,0.0193801022101,0.76611666484
tagged_abstract_sents/10582925.txt,17,0.262268704747,-0.0039050019525,0.139250797795,0.521468892835,0.250160397867,0.114497915174,0.0200350200477,0.819793363244
