tagged_abstract_sents/10591338.txt,1,0.0954875100725,-0.0490696911468,0.0616692308323,0.247294108221,0.550011853184,0.0,0.0,0.171598917711
tagged_abstract_sents/10591338.txt,2,0.0253827558421,0.0194966490135,0.188769469584,0.123191979006,0.550011853184,0.185599729336,0.0926931397864,0.763244609591
tagged_abstract_sents/10591338.txt,3,0.0253827558421,0.0114824014622,0.188769469584,0.123191979006,0.550011853184,0.175420229937,0.0853202976798,0.783161649446
tagged_abstract_sents/10591338.txt,4,0.0805801772764,-0.0481792191967,0.0616692308323,0.247294108221,0.550011853184,0.0,0.0,0.159851145864
tagged_abstract_sents/10591338.txt,6,0.123690572119,-0.0495149271219,0.0616692308323,0.247294108221,0.550011853184,0.0,0.0,0.194072320154
tagged_abstract_sents/10591338.txt,7,0.123690572119,-0.0210198247176,0.0616692308323,0.247294108221,0.550011853184,0.0889595059068,0.0718642513185,0.36059509786
tagged_abstract_sents/10591338.txt,8,0.140209508461,-0.0486244551718,0.0616692308323,0.247294108221,0.550011853184,0.0,0.0,0.207465563617
tagged_abstract_sents/10591338.txt,9,0.140209508461,-0.029924544219,0.210342442448,0.141687475369,0.550011853184,0.0654666922425,0.0887105403959,0.550488705608
tagged_abstract_sents/10591338.txt,10,0.149879129734,-0.0463982752964,0.0616692308323,0.247294108221,0.550011853184,0.0,0.0,0.21564649661
tagged_abstract_sents/10591338.txt,11,0.149879129734,0.153512677509,0.139250797795,0.194462959676,0.550011853184,0.216887845231,0.0913382081921,0.826864262551
tagged_abstract_sents/10591338.txt,12,0.176470588235,-0.0428363874959,0.139250797795,0.194462959676,0.550011853184,0.0,0.0,0.260573479889
tagged_abstract_sents/10591338.txt,13,0.176470588235,-0.00988892534096,0.139250797795,0.194462959676,0.550011853184,0.135020609916,0.0788544394695,0.588718799122
tagged_abstract_sents/10591338.txt,14,0.166800966962,-0.0490696911468,0.139250797795,0.194462959676,0.550011853184,0.0,0.0,0.251591122141
tagged_abstract_sents/10591338.txt,15,0.166800966962,0.0947415287997,0.139250797795,0.194462959676,0.550011853184,0.226636072433,0.0896441025073,0.91885774869
tagged_abstract_sents/10591338.txt,16,0.0954875100725,0.0871725172236,0.139250797795,0.194462959676,0.550011853184,0.206772419847,0.0916532905297,0.903929071321
tagged_abstract_sents/10591338.txt,17,0.0954875100725,-0.0472887472466,0.139250797795,0.194462959676,0.550011853184,0.0,0.0,0.194896545409
tagged_abstract_sents/10591338.txt,18,0.0342465753425,0.0439846276421,0.139250797795,0.194462959676,0.550011853184,0.174165176245,0.0752180891898,0.745112950952
tagged_abstract_sents/10591338.txt,19,0.0342465753425,0.0288466044899,0.139250797795,0.194462959676,0.550011853184,0.176365486075,0.08727929374,0.974787500972
