tagged_abstract_sents/10591433.txt,2,0.206355591311,0.0379545125308,0.205068369407,0.159268805519,0.381697224144,0.390756467117,0.0606326552931,0.985109482136
tagged_abstract_sents/10591433.txt,3,0.0048270313757,-0.0310975904196,0.0616692308323,0.106008497564,0.381697224144,0.180908588597,0.0233121901429,0.264566763955
tagged_abstract_sents/10591433.txt,4,0.0108608205953,-0.0392582934956,0.210342442448,0.0253702522065,0.381697224144,0.122858269146,0.0259951881015,0.262512765787
tagged_abstract_sents/10591433.txt,5,0.0108608205953,0.0291660630644,0.194899689933,0.0581677376677,0.381697224144,0.376886046023,0.0657722061058,0.651362118983
tagged_abstract_sents/10591433.txt,6,0.0261464199517,-0.0405137862765,0.0616692308323,0.106008497564,0.381697224144,0.12854964131,0.0501585739283,0.254201227729
tagged_abstract_sents/10591433.txt,7,0.0518905872888,0.035443526969,0.139250797795,0.521468892835,0.381697224144,0.181333572512,0.0417988116069,0.497821228543
tagged_abstract_sents/10591433.txt,8,0.0993563958166,-0.0267033656864,0.139250797795,0.521468892835,0.381697224144,0.214680528893,0.00538814859681,0.520290793071
tagged_abstract_sents/10591433.txt,9,0.0993563958166,-0.0317253368101,0.139250797795,0.521468892835,0.381697224144,0.152812367608,0.00923606140142,0.461314821989
tagged_abstract_sents/10591433.txt,10,0.172566371681,0.0436042300449,0.139250797795,0.521468892835,0.381697224144,0.25394648186,0.0334354039078,0.660234985658
tagged_abstract_sents/10591433.txt,11,0.206355591311,-0.0568351924284,0.139250797795,0.521468892835,0.381697224144,0.104204779719,0.028883542335,0.512939961076
tagged_abstract_sents/10591433.txt,12,0.262268704747,-0.00849872036313,0.139250797795,0.521468892835,0.381697224144,0.272508211622,0.0493584135316,0.929287977792
