tagged_abstract_sents/10617731.txt,1,0.125905068383,-0.0560597189696,0.0616692308323,0.142474783506,0.0,0.0,0.0,0.16308916138
tagged_abstract_sents/10617731.txt,2,0.239742558327,-0.00278103044496,0.188769469584,0.202456734834,0.669672256966,0.109741115699,0.00862798947248,1.13440095795
tagged_abstract_sents/10617731.txt,3,0.239742558327,-0.0560597189696,0.0616692308323,0.142474783506,0.0,0.0,0.0,0.254159153335
tagged_abstract_sents/10617731.txt,4,0.218020917136,0.167593676815,0.0616692308323,0.142474783506,0.473211436105,0.300393230362,0.0541552989924,1.109272485
tagged_abstract_sents/10617731.txt,5,0.162510056315,-0.0578161592506,0.0616692308323,0.142474783506,0.0,0.0,0.0,0.19202186367
tagged_abstract_sents/10617731.txt,6,0.162510056315,0.0393735362998,0.0616692308323,0.142474783506,0.529425128918,0.129714721291,0.0277543717297,0.898354024719
tagged_abstract_sents/10617731.txt,7,0.101769911504,0.0803571428571,0.139250797795,0.0356431803763,0.353886095933,0.191110045286,0.034606770961,0.757408622965
tagged_abstract_sents/10617731.txt,8,0.0852775543041,-0.0578161592506,0.139250797795,0.0356431803763,0.0,0.0,0.0,0.136977164603
tagged_abstract_sents/10617731.txt,9,0.0711987127916,0.0030737704918,0.139250797795,0.0356431803763,0.28332054509,0.0979730391289,0.0168720041703,0.536057665731
tagged_abstract_sents/10617731.txt,10,0.0458567980692,0.0382025761124,0.139250797795,0.0356431803763,0.527780470172,0.117121624696,0.0310905137888,0.800636915346
tagged_abstract_sents/10617731.txt,11,0.0458567980692,-0.0115632318501,0.139250797795,0.0356431803763,0.405905367159,0.0826559630634,0.0508639432429,0.654116418561
tagged_abstract_sents/10617731.txt,12,0.0245374094932,0.0323477751756,0.139250797795,0.0356431803763,0.0,0.148290891026,0.0673990159057,0.322107742572
tagged_abstract_sents/10617731.txt,13,0.00844730490748,-0.0554742388759,0.0616692308323,0.142474783506,0.0,0.0,0.0,0.0692400466187
tagged_abstract_sents/10617731.txt,14,0.00844730490748,-0.0338114754098,0.139250797795,0.0356431803763,0.000110184187559,0.0629065622463,0.0351298775604,0.178460525849
tagged_abstract_sents/10617731.txt,15,0.00120675784393,-0.0139051522248,0.139250797795,0.0356431803763,0.191650586943,0.0720754410494,0.0123440897128,0.354572846545
tagged_abstract_sents/10617731.txt,16,0.00120675784393,-0.0156615925059,0.139250797795,0.0356431803763,0.262129399284,0.125448231064,0.0431503500505,0.508879421183
