tagged_abstract_sents/10629474.txt,1,0.0954875100725,-0.0765936534681,0.0616692308323,0.247294108221,0.0860582746671,0.0,0.0,0.166094125247
tagged_abstract_sents/10629474.txt,3,0.0805801772764,-0.0765936534681,0.0616692308323,0.247294108221,0.0860582746671,0.0,0.0,0.15416825901
tagged_abstract_sents/10629474.txt,4,0.123690572119,0.0194467846111,0.0616692308323,0.247294108221,0.0860582746671,0.255642491714,0.0686306962374,0.75974206576
tagged_abstract_sents/10629474.txt,5,0.140209508461,-0.0302583543948,0.0616692308323,0.247294108221,0.0860582746671,0.200112202272,0.0576919237297,0.468964824988
tagged_abstract_sents/10629474.txt,6,0.149073327961,-0.0765936534681,0.0616692308323,0.247294108221,0.0860582746671,0.0,0.0,0.208962779558
tagged_abstract_sents/10629474.txt,7,0.149879129734,0.0396658242067,0.139250797795,0.194462959676,0.0860582746671,0.280012860599,0.0493935309973,0.882750941502
tagged_abstract_sents/10629474.txt,8,0.176470588235,0.0851586632968,0.139250797795,0.194462959676,0.0860582746671,0.297818046779,0.0447673737255,0.84240781754
tagged_abstract_sents/10629474.txt,9,0.166800966962,0.0127071047459,0.139250797795,0.194462959676,0.0860582746671,0.133589134247,0.0502223143733,0.447783235516
tagged_abstract_sents/10629474.txt,10,0.0954875100725,0.0337686043246,0.139250797795,0.194462959676,0.0860582746671,0.16055791196,0.0295262759192,0.558830593895
tagged_abstract_sents/10629474.txt,11,0.0342465753425,-0.0732238135355,0.139250797795,0.194462959676,0.0860582746671,0.0,0.0,0.140716784367
tagged_abstract_sents/10629474.txt,12,0.0342465753425,0.0598848638023,0.139250797795,0.194462959676,0.0860582746671,0.296015490923,0.0421782968953,0.59159058232
