tagged_abstract_sents/10634823.txt,1,0.125905068383,0.0251772731353,0.188769469584,0.202456734834,0.202985239771,0.477944983838,0.0552075876879,0.997019075873
tagged_abstract_sents/10634823.txt,2,0.239742558327,-0.0319989228974,0.188769469584,0.202456734834,0.0699895724881,0.530717978616,0.0757469854312,1.01697055386
tagged_abstract_sents/10634823.txt,3,0.218020917136,0.0537653711516,0.188769469584,0.202456734834,0.367887637527,0.569177208463,0.0647419072616,1.34209831643
tagged_abstract_sents/10634823.txt,4,0.162510056315,-0.023247464321,0.0616692308323,0.142474783506,0.499890963718,0.560487484063,0.0711327099738,1.33044676041
tagged_abstract_sents/10634823.txt,5,0.162510056315,-0.0565030069114,0.0616692308323,0.142474783506,3.8197426936e-05,0.205041308344,0.0246199693788,0.421983969288
tagged_abstract_sents/10634823.txt,6,0.101769911504,0.0228435508482,0.139250797795,0.0356431803763,0.544034914514,0.354530630065,0.0562694420142,1.12113797898
tagged_abstract_sents/10634823.txt,7,0.0711987127916,-0.0244143254645,0.139250797795,0.0356431803763,0.622588328112,0.222273375362,0.030915606703,1.00817176833
tagged_abstract_sents/10634823.txt,8,0.0458567980692,0.101606678036,0.139250797795,0.0356431803763,0.201591777675,0.510263175938,0.0684910989387,0.917671179625
tagged_abstract_sents/10634823.txt,9,0.0458567980692,-0.00457768602459,0.139250797795,0.0356431803763,0.128939701376,0.359276759056,0.0605466851366,0.664851399829
tagged_abstract_sents/10634823.txt,10,0.0245374094932,-0.0074948388834,0.139250797795,0.0356431803763,0.103815502366,0.450053727492,0.0550321834771,0.707350726164
tagged_abstract_sents/10634823.txt,11,0.00844730490748,-0.0104119917422,0.139250797795,0.0356431803763,0.166188189339,0.498494952451,0.0659734109323,0.81565035131
tagged_abstract_sents/10634823.txt,12,0.00120675784393,-0.035499506328,0.139250797795,0.0356431803763,0.0791191530087,0.417875894228,0.0619695975503,0.633148502806
tagged_abstract_sents/10634823.txt,13,0.00120675784393,-0.00924513059869,0.139250797795,0.0356431803763,0.197383655801,0.475006379537,0.0587494034837,0.810574171987
