tagged_abstract_sents/10649820.txt,2,0.0108608205953,-0.0176233635448,0.188769469584,0.129715814208,0.410084086929,0.392847546759,0.0498892420302,0.938272087587
tagged_abstract_sents/10649820.txt,4,0.0993563958166,-0.0407854984894,0.188769469584,0.129715814208,0.410084086929,0.326139643022,0.0384590195512,1.0432882507
tagged_abstract_sents/10649820.txt,5,0.206355591311,-0.0146022155086,0.188769469584,0.129715814208,0.410084086929,0.41975462511,0.0469324857941,1.07505226163
tagged_abstract_sents/10649820.txt,6,0.262268704747,0.0327291037261,0.188769469584,0.129715814208,0.410084086929,0.441322971583,0.0383815977109,1.23944891982
