tagged_abstract_sents/10644272.txt,1,0.0954875100725,-0.0366545454545,0.0616692308323,0.247294108221,5.20954719923e-05,0.0,0.0,0.17408194685
tagged_abstract_sents/10644272.txt,2,0.0954875100725,0.0345454545455,0.188769469584,0.123191979006,5.20954719923e-05,0.157014077988,0.102422423888,0.850401355213
tagged_abstract_sents/10644272.txt,3,0.0253827558421,0.0521454545455,0.188769469584,0.123191979006,5.20954719923e-05,0.196030429453,0.0937366936342,0.660231379211
tagged_abstract_sents/10644272.txt,5,0.0805801772764,-0.0374545454545,0.0616692308323,0.247294108221,5.20954719923e-05,0.0,0.0,0.161996080613
tagged_abstract_sents/10644272.txt,6,0.0805801772764,0.0377454545455,0.0616692308323,0.247294108221,5.20954719923e-05,0.192036090347,0.0546851135322,0.732608245568
tagged_abstract_sents/10644272.txt,7,0.123690572119,-0.0398545454545,0.0616692308323,0.247294108221,5.20954719923e-05,0.0,0.0,0.196004396487
tagged_abstract_sents/10644272.txt,8,0.123690572119,-0.0358545454545,0.0616692308323,0.247294108221,5.20954719923e-05,0.0287584035867,0.00512295081967,0.230685750893
tagged_abstract_sents/10644272.txt,9,0.140209508461,-0.0390545454545,0.0616692308323,0.247294108221,5.20954719923e-05,0.0,0.0,0.20937954556
tagged_abstract_sents/10644272.txt,10,0.140209508461,-0.0294545454545,0.0616692308323,0.247294108221,5.20954719923e-05,0.0314396455556,0.00397290063566,0.246712091752
tagged_abstract_sents/10644272.txt,11,0.149073327961,-0.0390545454545,0.0616692308323,0.247294108221,5.20954719923e-05,0.0,0.0,0.216470601161
tagged_abstract_sents/10644272.txt,12,0.149879129734,-0.00945454545455,0.0616692308323,0.247294108221,5.20954719923e-05,0.0859989364209,0.0577551717408,0.766013750204
tagged_abstract_sents/10644272.txt,13,0.149879129734,-0.0350545454545,0.0616692308323,0.247294108221,5.20954719923e-05,0.0,0.0,0.217915242579
tagged_abstract_sents/10644272.txt,14,0.176470588235,0.0817454545455,0.139250797795,0.194462959676,5.20954719923e-05,0.272408486601,0.0783582772248,0.806828896241
tagged_abstract_sents/10644272.txt,15,0.176470588235,-0.0350545454545,0.139250797795,0.194462959676,5.20954719923e-05,0.0,0.0,0.262129848298
tagged_abstract_sents/10644272.txt,16,0.166800966962,0.0689454545455,0.139250797795,0.194462959676,5.20954719923e-05,0.182013776096,0.0426729605777,0.499899255216
tagged_abstract_sents/10644272.txt,17,0.166800966962,-0.0390545454545,0.139250797795,0.194462959676,5.20954719923e-05,0.0,0.0,0.253594151279
tagged_abstract_sents/10644272.txt,18,0.0954875100725,0.00734545454545,0.139250797795,0.194462959676,5.20954719923e-05,0.109609582889,0.080743977919,0.755764307556
tagged_abstract_sents/10644272.txt,19,0.0954875100725,0.0809454545455,0.139250797795,0.194462959676,5.20954719923e-05,0.167731195676,0.0639304343198,0.45223067852
tagged_abstract_sents/10644272.txt,20,0.0342465753425,-0.00625454545455,0.139250797795,0.194462959676,5.20954719923e-05,0.112671787305,0.0295758928571,0.29641002327
tagged_abstract_sents/10644272.txt,21,0.0342465753425,-0.0366545454545,0.0616692308323,0.247294108221,5.20954719923e-05,0.0,0.0,0.125089199066
tagged_abstract_sents/10644272.txt,22,0.0342465753425,-0.00305454545455,0.139250797795,0.194462959676,5.20954719923e-05,0.0931116368653,0.0466711274674,0.294585497788
