tagged_abstract_sents/10644273.txt,1,0.0954875100725,-0.0330594679186,0.0616692308323,0.247294108221,0.319814649512,0.0,0.0,0.174800962357
tagged_abstract_sents/10644273.txt,2,0.0954875100725,0.0827464788732,0.188769469584,0.123191979006,0.319814649512,0.162614525658,0.0683481477539,0.620794318061
tagged_abstract_sents/10644273.txt,3,0.0253827558421,-0.000978090766823,0.188769469584,0.123191979006,0.319814649512,0.127876007338,0.09556240529,0.576532029425
tagged_abstract_sents/10644273.txt,5,0.0805801772764,-0.0338419405321,0.0616692308323,0.247294108221,0.319814649512,0.0,0.0,0.162718601597
tagged_abstract_sents/10644273.txt,6,0.0805801772764,0.0201486697966,0.0616692308323,0.247294108221,0.319814649512,0.128952493226,0.0530978784957,0.712418605983
tagged_abstract_sents/10644273.txt,7,0.0805801772764,-0.0361893583725,0.0616692308323,0.247294108221,0.319814649512,0.0,0.0,0.162249118029
tagged_abstract_sents/10644273.txt,8,0.123690572119,-0.0322769953052,0.0616692308323,0.247294108221,0.319814649512,0.0287584035867,0.00512295081967,0.231401260923
tagged_abstract_sents/10644273.txt,9,0.123690572119,-0.035406885759,0.0616692308323,0.247294108221,0.319814649512,0.0,0.0,0.196893928426
tagged_abstract_sents/10644273.txt,10,0.140209508461,-0.0197574334898,0.0616692308323,0.247294108221,0.319814649512,0.0671220516063,0.0180401053864,0.298401124946
tagged_abstract_sents/10644273.txt,11,0.140209508461,-0.035406885759,0.0616692308323,0.247294108221,0.319814649512,0.0,0.0,0.210109077499
tagged_abstract_sents/10644273.txt,12,0.149073327961,0.00528169014085,0.0616692308323,0.247294108221,0.319814649512,0.0983438057296,0.0541906863628,0.788636913639
tagged_abstract_sents/10644273.txt,13,0.149879129734,-0.0314945226917,0.0616692308323,0.247294108221,0.319814649512,0.0,0.0,0.218627247131
tagged_abstract_sents/10644273.txt,14,0.149879129734,-0.00958528951487,0.0616692308323,0.247294108221,0.319814649512,0.108066246014,0.08479328049,0.834559494359
tagged_abstract_sents/10644273.txt,15,0.176470588235,-0.0314945226917,0.0616692308323,0.247294108221,0.319814649512,0.0,0.0,0.239900413932
tagged_abstract_sents/10644273.txt,16,0.176470588235,0.0663145539906,0.139250797795,0.194462959676,0.319814649512,0.21650446222,0.0368747909,0.535817347064
tagged_abstract_sents/10644273.txt,17,0.166800966962,-0.0103677621283,0.139250797795,0.194462959676,0.319814649512,0.0697982212285,0.0334388971684,0.362625214221
tagged_abstract_sents/10644273.txt,18,0.166800966962,-0.035406885759,0.139250797795,0.194462959676,0.319814649512,0.0,0.0,0.254323683218
tagged_abstract_sents/10644273.txt,19,0.166800966962,0.0436228482003,0.139250797795,0.194462959676,0.319814649512,0.14057166498,0.0500970664366,0.728782716221
tagged_abstract_sents/10644273.txt,20,0.0954875100725,0.00449921752739,0.0616692308323,0.247294108221,0.319814649512,0.106160102197,0.0682358752927,0.356748480966
tagged_abstract_sents/10644273.txt,21,0.0954875100725,0.0451877934272,0.139250797795,0.194462959676,0.319814649512,0.186029620728,0.0716680860123,0.795863236
tagged_abstract_sents/10644273.txt,22,0.0342465753425,-0.0330594679186,0.0616692308323,0.247294108221,0.319814649512,0.0,0.0,0.125808214573
tagged_abstract_sents/10644273.txt,23,0.0342465753425,0.00449921752739,0.0616692308323,0.247294108221,0.319814649512,0.0924288568095,0.0356850117096,0.261478031546
tagged_abstract_sents/10644273.txt,24,0.0342465753425,0.0725743348983,0.139250797795,0.194462959676,0.319814649512,0.190199294758,0.0635611826698,0.743451540993
