tagged_abstract_sents/10641588.txt,1,0.125905068383,-0.0296998654882,0.0616692308323,0.142474783506,0.0,0.0,0.0,0.168361132077
tagged_abstract_sents/10641588.txt,2,0.125905068383,-0.00795517375123,0.188769469584,0.202456734834,0.371112438104,0.444055422924,0.0236085169966,1.09303115322
tagged_abstract_sents/10641588.txt,3,0.125905068383,-0.0294440455855,0.188769469584,0.202456734834,0.0,0.0,0.0,0.249957000832
tagged_abstract_sents/10641588.txt,4,0.239742558327,-0.00565279462613,0.188769469584,0.202456734834,0.304322629195,0.395488844492,0.0306935624455,1.07629027911
tagged_abstract_sents/10641588.txt,5,0.239742558327,-0.00335041550104,0.188769469584,0.202456734834,0.209244896728,0.504653918472,0.0377999537506,1.09794448775
tagged_abstract_sents/10641588.txt,6,0.239742558327,0.0143011577914,0.188769469584,0.202456734834,0.126520039962,0.675595689792,0.0393047254389,1.19119648865
tagged_abstract_sents/10641588.txt,7,0.218020917136,0.00637074080492,0.188769469584,0.202456734834,0.388111648399,0.596014679087,0.0390937042039,1.3540326688
tagged_abstract_sents/10641588.txt,8,0.218020917136,-0.0281649460715,0.0616692308323,0.142474783506,0.0,0.0,0.0,0.242360794962
tagged_abstract_sents/10641588.txt,9,0.218020917136,0.0145569776942,0.0616692308323,0.142474783506,0.157398197632,0.386639740761,0.0214881619439,0.816431280052
tagged_abstract_sents/10641588.txt,10,0.162510056315,0.00330090197146,0.0616692308323,0.142474783506,0.161876876546,0.487302774337,0.0411685966878,0.894593523485
tagged_abstract_sents/10641588.txt,11,0.162510056315,-0.00718771404286,0.0616692308323,0.142474783506,0.244713029166,0.30494302528,0.0247643323299,0.776567939487
tagged_abstract_sents/10641588.txt,12,0.162510056315,-0.0273974863631,0.139250797795,0.0356431803763,0.0,0.0,0.0,0.20484690079
tagged_abstract_sents/10641588.txt,13,0.101769911504,0.00944057963839,0.139250797795,0.0356431803763,0.291385025624,0.447538696854,0.0416599960866,0.944206116706
tagged_abstract_sents/10641588.txt,14,0.101769911504,-0.0120482921958,0.139250797795,0.0356431803763,0.193714714696,0.271019966872,0.0421047014248,0.666164006767
tagged_abstract_sents/10641588.txt,15,0.101769911504,-0.0202345290851,0.139250797795,0.0356431803763,5.48007787403e-05,0.218118612831,0.0301332337193,0.405994023726
tagged_abstract_sents/10641588.txt,16,0.0711987127916,0.0153244374025,0.139250797795,0.0356431803763,0.142641212577,0.647565369763,0.0398026612394,0.970351454303
tagged_abstract_sents/10641588.txt,17,0.0711987127916,-0.029955685391,0.139250797795,0.0356431803763,0.0,0.0,0.0,0.131286186165
tagged_abstract_sents/10641588.txt,18,0.0711987127916,0.0173709966248,0.139250797795,0.0356431803763,0.23773569816,0.589446351118,0.0368852952872,1.00481886713
tagged_abstract_sents/10641588.txt,19,0.0458567980692,0.0173709966248,0.139250797795,0.0356431803763,0.2389403404,0.495965292669,0.0335709993341,0.888954623194
tagged_abstract_sents/10641588.txt,20,0.0458567980692,0.00125434274916,0.139250797795,0.0356431803763,0.320832434541,0.548427743943,0.034339157985,1.02085399648
tagged_abstract_sents/10641588.txt,21,0.0458567980692,-0.00514115482055,0.139250797795,0.0356431803763,0.19159467305,0.493426557989,0.0453866268211,0.846383418361
tagged_abstract_sents/10641588.txt,22,0.0245374094932,-0.00181549608431,0.139250797795,0.0356431803763,0.231396273672,0.408774047448,0.0341426970489,0.773898199557
tagged_abstract_sents/10641588.txt,23,0.0245374094932,-0.00590861452892,0.139250797795,0.0356431803763,0.229750520607,0.287904373503,0.0408417382642,0.657263190073
tagged_abstract_sents/10641588.txt,24,0.0245374094932,0.00509164129098,0.139250797795,0.0356431803763,0.28814177802,0.370411910918,0.027249670684,0.786769968485
tagged_abstract_sents/10641588.txt,25,0.00844730490748,0.000231063138002,0.139250797795,0.0356431803763,0.27328078296,0.601120167672,0.05072309088,1.01224645108
tagged_abstract_sents/10641588.txt,26,0.00844730490748,0.0465344655427,0.139250797795,0.0356431803763,0.145346077663,0.667510956222,0.0362843979579,0.945524521888
tagged_abstract_sents/10641588.txt,27,0.00844730490748,0.00534746119377,0.139250797795,0.0356431803763,0.182673039473,0.482203065086,0.0294483874984,0.782470181232
tagged_abstract_sents/10641588.txt,28,0.00120675784393,0.0306736315698,0.139250797795,0.0356431803763,0.112380971511,0.555774295494,0.0298011870668,0.785374939672
tagged_abstract_sents/10641588.txt,29,0.00120675784393,0.000742702943579,0.139250797795,0.0356431803763,0.359171654246,0.424230035081,0.0336000629141,0.898434052115
tagged_abstract_sents/10641588.txt,30,0.00120675784393,0.0173709966248,0.139250797795,0.0356431803763,0.177532791885,0.421712419896,0.0304258498319,0.714429020223
tagged_abstract_sents/10641588.txt,31,0.00120675784393,0.00867311993002,0.139250797795,0.0356431803763,0.169995570967,0.472431399446,0.0325168543323,0.757962208017
