tagged_abstract_sents/10654964.txt,1,0.0954875100725,-0.045,0.0616692308323,0.247294108221,0.237044786598,0.0,0.0,0.172412855941
tagged_abstract_sents/10654964.txt,2,0.00564061240935,0.001,0.188769469584,0.123191979006,0.237044786598,0.161029436118,0.00277360453022,0.62230423385
tagged_abstract_sents/10654964.txt,3,0.0253827558421,-0.046,0.0616692308323,0.247294108221,0.237044786598,0.0,0.0,0.116129052556
tagged_abstract_sents/10654964.txt,5,0.0805801772764,0.0115,0.0616692308323,0.247294108221,0.237044786598,0.142376185388,0.0163345495369,0.522579232232
tagged_abstract_sents/10654964.txt,6,0.116035455278,0.013,0.0616692308323,0.247294108221,0.237044786598,0.250875013139,0.00834128543362,0.702691388671
tagged_abstract_sents/10654964.txt,7,0.123690572119,0.013,0.0616692308323,0.247294108221,0.237044786598,0.151755428978,0.00930195260816,0.583034727211
tagged_abstract_sents/10654964.txt,8,0.131345688961,-0.046,0.139250797795,0.194462959676,0.237044786598,0.0,0.0,0.223840837969
tagged_abstract_sents/10654964.txt,9,0.140209508461,-0.0165,0.139250797795,0.194462959676,0.237044786598,0.0736292052392,0.0207970811114,0.33125817992
tagged_abstract_sents/10654964.txt,10,0.149073327961,0.0045,0.139250797795,0.194462959676,0.237044786598,0.128046373755,0.00166526335485,0.37783458628
tagged_abstract_sents/10654964.txt,11,0.149879129734,-0.011,0.139250797795,0.194462959676,0.237044786598,0.132976320214,0.0104967723828,0.582983513265
tagged_abstract_sents/10654964.txt,12,0.150684931507,0.0105,0.139250797795,0.194462959676,0.237044786598,0.158147754894,0.00162784170643,0.652777799157
tagged_abstract_sents/10654964.txt,13,0.176470588235,-0.009,0.139250797795,0.194462959676,0.237044786598,0.159842049888,0.00808967987981,0.680240931089
tagged_abstract_sents/10654964.txt,14,0.202256244964,0.041,0.139250797795,0.194462959676,0.237044786598,0.227474559694,0.00732060997287,0.775801369354
tagged_abstract_sents/10654964.txt,15,0.166800966962,0.015,0.139250797795,0.194462959676,0.237044786598,0.1196922013,0.0106396550404,0.657808103891
tagged_abstract_sents/10654964.txt,16,0.131345688961,-0.006,0.139250797795,0.194462959676,0.237044786598,0.142428423543,0.00358384248365,0.377853103995
tagged_abstract_sents/10654964.txt,17,0.0954875100725,-0.044,0.139250797795,0.194462959676,0.237044786598,0.0,0.0,0.195554294858
tagged_abstract_sents/10654964.txt,18,0.0342465753425,0.019,0.139250797795,0.194462959676,0.237044786598,0.202159896824,0.00719959975106,0.711698137865
tagged_abstract_sents/10654964.txt,19,0.0342465753425,0.1105,0.139250797795,0.194462959676,0.237044786598,0.304089550999,0.00680606230704,0.694689170144
tagged_abstract_sents/10654964.txt,20,0.0342465753425,-0.021,0.139250797795,0.194462959676,0.237044786598,0.0789610195274,0.014220226401,0.4813875796
