tagged_abstract_sents/10659912.txt,1,0.125905068383,-0.0769148480958,0.0616692308323,0.142474783506,0.0,0.0,0.0,0.158918135555
tagged_abstract_sents/10659912.txt,2,0.239742558327,-0.0377620881472,0.188769469584,0.202456734834,0.633964436881,0.110112500065,0.0411931818182,1.12463350304
tagged_abstract_sents/10659912.txt,3,0.218020917136,-0.0749893025246,0.0616692308323,0.142474783506,0.0,0.0,0.0,0.232995923672
tagged_abstract_sents/10659912.txt,4,0.162510056315,-0.0262088147197,0.0616692308323,0.142474783506,0.306043616889,0.107165118666,0.0389425564947,0.650494624625
tagged_abstract_sents/10659912.txt,5,0.101769911504,-0.0781985451433,0.0616692308323,0.142474783506,0.0,0.0,0.0,0.139353270643
tagged_abstract_sents/10659912.txt,6,0.0852775543041,-0.0217158750535,0.139250797795,0.0356431803763,0.50432231584,0.100860869376,0.0393328445748,0.788713251233
tagged_abstract_sents/10659912.txt,7,0.0711987127916,0.0649336756525,0.139250797795,0.0356431803763,0.234167610416,0.178106207943,0.0501527370479,0.612690613781
tagged_abstract_sents/10659912.txt,8,0.0458567980692,0.202931108258,0.139250797795,0.0356431803763,0.128692609048,0.20849699993,0.0438090583252,0.53858868042
tagged_abstract_sents/10659912.txt,9,0.0245374094932,-0.0448224219084,0.139250797795,0.0356431803763,0.29967236606,0.0821454236058,0.0560342882924,0.528835874181
tagged_abstract_sents/10659912.txt,10,0.00844730490748,0.0591570389388,0.0616692308323,0.142474783506,0.199069994058,0.141233678864,0.0540706605223,0.486540635626
tagged_abstract_sents/10659912.txt,11,0.00120675784393,0.0482456140351,0.139250797795,0.0356431803763,0.454640889705,0.161348719577,0.038996267662,0.745918759036
tagged_abstract_sents/10659912.txt,12,0.00120675784393,-0.0146555412923,0.139250797795,0.0356431803763,0.424590282062,0.124784257398,0.0433940422905,0.671121232778
