tagged_abstract_sents/10671393.txt,1,0.0954875100725,-0.0700737618546,0.0616692308323,0.247294108221,0.328623758394,0.0,0.0,0.16739810357
tagged_abstract_sents/10671393.txt,3,0.0805801772764,0.0217070600632,0.188769469584,0.123191979006,0.328623758394,0.391062661819,0.0219865221213,1.14409518401
tagged_abstract_sents/10671393.txt,4,0.123690572119,-0.0721285563751,0.0616692308323,0.247294108221,0.328623758394,0.0,0.0,0.189549594303
tagged_abstract_sents/10671393.txt,5,0.123690572119,0.0710221285564,0.210342442448,0.141687475369,0.328623758394,0.469291415412,0.0217867955855,1.02905203561
tagged_abstract_sents/10671393.txt,6,0.140209508461,0.0148577449947,0.194899689933,0.293363477728,0.328623758394,0.398358547505,0.0198815614506,0.960886921099
tagged_abstract_sents/10671393.txt,7,0.149879129734,-0.0063751317176,0.0616692308323,0.247294108221,0.328623758394,0.289410967136,0.0229758765504,0.691936008577
tagged_abstract_sents/10671393.txt,8,0.176470588235,-0.0714436248683,0.0616692308323,0.247294108221,0.328623758394,0.0,0.0,0.231910593497
tagged_abstract_sents/10671393.txt,9,0.176470588235,0.0888303477345,0.139250797795,0.194462959676,0.328623758394,0.453581878212,0.0187568829122,1.1541608204
tagged_abstract_sents/10671393.txt,10,0.166800966962,-0.0255532139094,0.139250797795,0.194462959676,0.328623758394,0.196346980461,0.0304717257545,0.684535459795
tagged_abstract_sents/10671393.txt,11,0.0954875100725,-0.0687038988409,0.139250797795,0.194462959676,0.328623758394,0.0,0.0,0.19061351509
tagged_abstract_sents/10671393.txt,12,0.0342465753425,0.00937829293994,0.139250797795,0.194462959676,0.328623758394,0.354333445724,0.0185830392744,0.978482502738
tagged_abstract_sents/10671393.txt,13,0.0342465753425,0.0258166491043,0.139250797795,0.194462959676,0.328623758394,0.293454724929,0.019236672108,0.801840032327
