tagged_abstract_sents/10687833.txt,1,0.206355591311,-0.070115724983,0.0616692308323,0.106008497564,0.243631942954,0.0,0.0,0.213698492738
tagged_abstract_sents/10687833.txt,3,0.0048270313757,-0.072157930565,0.0616692308323,0.106008497564,0.243631942954,0.0,0.0,0.0520672036729
tagged_abstract_sents/10687833.txt,5,0.0108608205953,0.0170183798502,0.0616692308323,0.106008497564,0.243631942954,0.198070880575,0.0313511458673,0.57584490789
tagged_abstract_sents/10687833.txt,6,0.0261464199517,-0.072157930565,0.0616692308323,0.106008497564,0.243631942954,0.0,0.0,0.0691227145337
tagged_abstract_sents/10687833.txt,7,0.0518905872888,0.0823689584752,0.139250797795,0.521468892835,0.243631942954,0.175457479238,0.0292949657869,0.721519612706
tagged_abstract_sents/10687833.txt,8,0.0993563958166,0.0653505786249,0.139250797795,0.521468892835,0.243631942954,0.155784741017,0.0328845641162,0.553238039199
tagged_abstract_sents/10687833.txt,9,0.0993563958166,-0.0299523485364,0.139250797795,0.521468892835,0.243631942954,0.136705158171,0.0295698924731,0.791374015275
tagged_abstract_sents/10687833.txt,10,0.172566371681,-0.0490129339687,0.139250797795,0.521468892835,0.243631942954,0.0523634974674,0.022743564679,0.429423639446
tagged_abstract_sents/10687833.txt,11,0.206355591311,0.0599046970728,0.139250797795,0.521468892835,0.243631942954,0.130969407783,0.0180278592375,0.814071579104
tagged_abstract_sents/10687833.txt,12,0.262268704747,-0.068754254595,0.0616692308323,0.106008497564,0.243631942954,0.0,0.0,0.258701277564
tagged_abstract_sents/10687833.txt,13,0.262268704747,0.068073519401,0.139250797795,0.521468892835,0.243631942954,0.181979911608,0.0273313782991,0.902438967286
