tagged_abstract_sents/10691158.txt,1,0.0954875100725,-0.0802005012531,0.0616692308323,0.247294108221,0.238899691931,0.0,0.0,0.16537275569
tagged_abstract_sents/10691158.txt,3,0.0805801772764,-0.078320802005,0.0616692308323,0.247294108221,0.238899691931,0.0,0.0,0.153822829303
tagged_abstract_sents/10691158.txt,4,0.123690572119,0.169172932331,0.210342442448,0.141687475369,0.238899691931,0.242912282924,0.101585843495,0.682017571218
tagged_abstract_sents/10691158.txt,5,0.140209508461,0.016290726817,0.0616692308323,0.247294108221,0.238899691931,0.21545537294,0.137307279469,0.651901514305
tagged_abstract_sents/10691158.txt,6,0.149073327961,-0.078320802005,0.0616692308323,0.247294108221,0.238899691931,0.0,0.0,0.208617349851
tagged_abstract_sents/10691158.txt,7,0.149879129734,-0.0501253132832,0.139250797795,0.194462959676,0.238899691931,0.0290454675746,0.158835870414,0.425723865919
tagged_abstract_sents/10691158.txt,8,0.176470588235,0.0833333333333,0.139250797795,0.194462959676,0.238899691931,0.152106275396,0.0782232219894,0.621622953214
tagged_abstract_sents/10691158.txt,9,0.166800966962,0.0407268170426,0.139250797795,0.194462959676,0.238899691931,0.197648793802,0.117728337237,0.889491611908
tagged_abstract_sents/10691158.txt,10,0.0954875100725,0.0144110275689,0.139250797795,0.194462959676,0.238899691931,0.190026608013,0.0652078454333,0.462485446749
tagged_abstract_sents/10691158.txt,11,0.0342465753425,-0.0758145363409,0.0616692308323,0.247294108221,0.238899691931,0.0,0.0,0.117257200888
tagged_abstract_sents/10691158.txt,12,0.0342465753425,0.00062656641604,0.139250797795,0.194462959676,0.238899691931,0.181332803091,0.0829599837084,0.658679339088
