tagged_abstract_sents/10706194.txt,1,0.125905068383,0.000624739691795,0.188769469584,0.202456734834,0.416636378678,0.169334300926,0.0336082600196,0.87554969751
tagged_abstract_sents/10706194.txt,2,0.239742558327,-0.00437317784257,0.188769469584,0.202456734834,0.37996771791,0.184944734398,0.0369557861493,0.947909404793
tagged_abstract_sents/10706194.txt,3,0.218020917136,0.00645564348188,0.188769469584,0.202456734834,0.525198480671,0.157753166517,0.0393161823514,1.05309744719
tagged_abstract_sents/10706194.txt,4,0.218020917136,0.00187421907539,0.188769469584,0.202456734834,0.416364908131,0.117777482956,0.025789201311,0.889844925165
tagged_abstract_sents/10706194.txt,5,0.162510056315,0.0281132861308,0.188769469584,0.202456734834,0.554373632586,0.156306953201,0.0389662756598,1.04039931897
tagged_abstract_sents/10706194.txt,6,0.101769911504,-0.0210329029571,0.188769469584,0.202456734834,0.507188354243,0.130451381282,0.022866568915,0.892837408295
tagged_abstract_sents/10706194.txt,7,0.0852775543041,-0.02436484798,0.188769469584,0.202456734834,0.290496324598,0.179837132529,0.0364613880743,0.725265674291
tagged_abstract_sents/10706194.txt,8,0.0711987127916,-0.0189504373178,0.188769469584,0.202456734834,0.383297013364,0.0957785105466,0.0233528836755,0.710719045598
tagged_abstract_sents/10706194.txt,9,0.0458567980692,0.0531028738026,0.188769469584,0.202456734834,0.224200828458,0.217501262253,0.0333137829912,0.677443642161
tagged_abstract_sents/10706194.txt,10,0.0245374094932,-0.00562265722616,0.188769469584,0.202456734834,0.560877792713,0.138705162354,0.0291275659824,0.902337672441
tagged_abstract_sents/10706194.txt,11,0.0245374094932,0.0181174510621,0.188769469584,0.202456734834,0.505656334084,0.197450045027,0.0401590345139,0.921640586674
tagged_abstract_sents/10706194.txt,12,0.00844730490748,-0.0272802998751,0.188769469584,0.202456734834,0.522096544121,0.117944207155,0.0182766948422,0.814740985312
tagged_abstract_sents/10706194.txt,13,0.00120675784393,0.0177009579342,0.139250797795,0.0356431803763,0.413151363402,0.182111050275,0.0389747349425,0.719061099492
tagged_abstract_sents/10706194.txt,14,0.00120675784393,-0.02436484798,0.139250797795,0.0356431803763,0.384042685411,0.128764135968,0.0305294026856,0.619747013754
