tagged_abstract_sents/10709835.txt,1,0.206355591311,-0.0262467191601,0.188769469584,0.129715814208,0.354804329958,0.233909260349,0.0216900560593,0.956978463104
tagged_abstract_sents/10709835.txt,3,0.0108608205953,0.00349956255468,0.194899689933,0.0581677376677,0.354804329958,0.263254187531,0.0217509179073,0.825753929439
tagged_abstract_sents/10709835.txt,4,0.0261464199517,-0.0586176727909,0.0616692308323,0.106008497564,0.354804329958,0.226718022393,0.0171375898266,0.754316296661
tagged_abstract_sents/10709835.txt,5,0.0518905872888,0.0201224846894,0.139250797795,0.521468892835,0.354804329958,0.316328205098,0.0205425335791,1.08356501822
tagged_abstract_sents/10709835.txt,6,0.0993563958166,0.0419947506562,0.139250797795,0.521468892835,0.354804329958,0.300333694991,0.0206449536184,1.03995839633
tagged_abstract_sents/10709835.txt,7,0.172566371681,-0.0367454068241,0.139250797795,0.521468892835,0.354804329958,0.277596066269,0.00931186274879,0.990117224954
tagged_abstract_sents/10709835.txt,9,0.262268704747,0.0341207349081,0.139250797795,0.521468892835,0.354804329958,0.381983595907,0.0237372754234,1.20323037882
