tagged_abstract_sents/10706194.txt,1,0.206355591311,0.000624739691795,0.188769469584,0.129715814208,0.384042685411,0.169334300926,0.0336082600196,0.918087839665
tagged_abstract_sents/10706194.txt,2,0.206355591311,-0.00437317784257,0.188769469584,0.129715814208,0.384042685411,0.184944734398,0.0369557861493,0.899377554993
tagged_abstract_sents/10706194.txt,4,0.0048270313757,0.00187421907539,0.188769469584,0.129715814208,0.384042685411,0.117777482956,0.025789201311,0.697467540369
tagged_abstract_sents/10706194.txt,5,0.0108608205953,0.0281132861308,0.188769469584,0.129715814208,0.384042685411,0.156306953201,0.0389662756598,0.897257654204
tagged_abstract_sents/10706194.txt,6,0.0261464199517,-0.0210329029571,0.188769469584,0.129715814208,0.384042685411,0.130451381282,0.022866568915,0.810516338865
tagged_abstract_sents/10706194.txt,7,0.0353982300885,-0.02436484798,0.188769469584,0.129715814208,0.384042685411,0.179837132529,0.0364613880743,0.663539938731
tagged_abstract_sents/10706194.txt,8,0.0518905872888,-0.0189504373178,0.188769469584,0.129715814208,0.384042685411,0.0957785105466,0.0233528836755,0.673450269008
tagged_abstract_sents/10706194.txt,9,0.0993563958166,0.0531028738026,0.188769469584,0.129715814208,0.384042685411,0.217501262253,0.0333137829912,0.698421044171
tagged_abstract_sents/10706194.txt,10,0.172566371681,-0.00562265722616,0.188769469584,0.129715814208,0.384042685411,0.138705162354,0.0291275659824,0.998938566004
tagged_abstract_sents/10706194.txt,12,0.206355591311,-0.0272802998751,0.188769469584,0.129715814208,0.384042685411,0.117944207155,0.0182766948422,0.951245338247
tagged_abstract_sents/10706194.txt,13,0.262268704747,0.0177009579342,0.139250797795,0.521468892835,0.384042685411,0.182111050275,0.0389747349425,1.07365837075
tagged_abstract_sents/10706194.txt,14,0.262268704747,-0.02436484798,0.139250797795,0.521468892835,0.384042685411,0.128764135968,0.0305294026856,0.974344285014
