tagged_abstract_sents/10711548.txt,1,0.0954875100725,-0.0607599921244,0.0616692308323,0.247294108221,0.469236611877,0.0,0.0,0.169260857516
tagged_abstract_sents/10711548.txt,3,0.0451248992748,-0.0619413270329,0.0616692308323,0.247294108221,0.469236611877,0.0,0.0,0.128734501896
tagged_abstract_sents/10711548.txt,4,0.0805801772764,0.0455601496358,0.139250797795,0.194462959676,0.469236611877,0.209503428895,0.045823986195,0.874706661619
tagged_abstract_sents/10711548.txt,5,0.123690572119,0.00244142547746,0.139250797795,0.194462959676,0.469236611877,0.11275549429,0.0423317515099,0.896187447101
tagged_abstract_sents/10711548.txt,6,0.131345688961,0.0113014372908,0.139250797795,0.194462959676,0.469236611877,0.120920234762,0.0436798964625,0.529668336759
tagged_abstract_sents/10711548.txt,7,0.140209508461,-0.0235479425084,0.139250797795,0.194462959676,0.469236611877,0.0819470830247,0.0414481980487,0.358847977265
tagged_abstract_sents/10711548.txt,8,0.149879129734,0.000669423114786,0.139250797795,0.194462959676,0.469236611877,0.200223349168,0.0505608283003,0.949724371278
tagged_abstract_sents/10711548.txt,9,0.150684931507,-0.0619413270329,0.139250797795,0.194462959676,0.469236611877,0.0,0.0,0.236123966599
tagged_abstract_sents/10711548.txt,10,0.176470588235,0.00126009056901,0.139250797795,0.194462959676,0.469236611877,0.157124342683,0.0388984756974,0.861814228905
tagged_abstract_sents/10711548.txt,11,0.166800966962,0.0183894467415,0.139250797795,0.194462959676,0.469236611877,0.101552013496,0.024623349041,0.391282402375
tagged_abstract_sents/10711548.txt,12,0.131345688961,0.0473321519984,0.139250797795,0.194462959676,0.469236611877,0.214084027305,0.0490108467891,0.63898249863
tagged_abstract_sents/10711548.txt,13,0.0954875100725,0.040834810002,0.139250797795,0.194462959676,0.469236611877,0.185595129835,0.0381231946581,1.06802044379
tagged_abstract_sents/10711548.txt,14,0.0342465753425,-0.0601693246702,0.0616692308323,0.247294108221,0.469236611877,0.0,0.0,0.120386243222
tagged_abstract_sents/10711548.txt,15,0.0342465753425,0.0059854302028,0.139250797795,0.194462959676,0.469236611877,0.18665265516,0.0527006039689,0.86514850412
