tagged_abstract_sents/10714657.txt,1,0.125905068383,-0.0539389823425,0.0616692308323,0.142474783506,0.0,0.0,0.0,0.163513308706
tagged_abstract_sents/10714657.txt,2,0.239742558327,0.0246578204994,0.188769469584,0.202456734834,0.11599643836,0.357470272813,0.0612137767452,0.886527853923
tagged_abstract_sents/10714657.txt,3,0.239742558327,-0.0543830320761,0.0616692308323,0.142474783506,0.0,0.0,0.0,0.254494490714
tagged_abstract_sents/10714657.txt,4,0.218020917136,0.0166649252952,0.210342442448,0.226435992083,0.250439318951,0.344768427271,0.0618286364211,1.00788812026
tagged_abstract_sents/10714657.txt,5,0.218020917136,-0.0463901368718,0.0616692308323,0.142474783506,0.0,0.0,0.0,0.238715756802
tagged_abstract_sents/10714657.txt,6,0.162510056315,0.0237697210323,0.0616692308323,0.142474783506,0.344053966583,0.370396610521,0.0641301072238,0.986919724054
tagged_abstract_sents/10714657.txt,7,0.101769911504,-0.0215233517919,0.0616692308323,0.142474783506,0.0945704477693,0.252003010264,0.0222950906902,0.519556858037
tagged_abstract_sents/10714657.txt,8,0.101769911504,-0.0521627834082,0.0616692308323,0.142474783506,0.0,0.0,0.0,0.14456042299
tagged_abstract_sents/10714657.txt,9,0.0711987127916,0.0384233622401,0.139250797795,0.0356431803763,0.323935192955,0.385083409246,0.0599469227853,0.913927520678
tagged_abstract_sents/10714657.txt,10,0.0711987127916,0.0415317103751,0.139250797795,0.0356431803763,0.0,0.293136233238,0.0676926796301,0.506412578187
tagged_abstract_sents/10714657.txt,11,0.0458567980692,0.0206613728973,0.139250797795,0.0356431803763,0.257480123798,0.321911429651,0.0574198959135,0.757947515407
tagged_abstract_sents/10714657.txt,12,0.0245374094932,0.00911607982447,0.139250797795,0.0356431803763,0.272205249687,0.268486386411,0.0566536079869,0.699116740655
tagged_abstract_sents/10714657.txt,13,0.0245374094932,-0.00598161111692,0.139250797795,0.0356431803763,0.369503225888,0.256916975033,0.0620055604701,0.787177719773
tagged_abstract_sents/10714657.txt,14,0.00844730490748,-0.0534949326089,0.139250797795,0.0356431803763,0.0,0.0,0.0,0.0763772104145
tagged_abstract_sents/10714657.txt,15,0.00844730490748,0.0486365061122,0.139250797795,0.0356431803763,0.339316395233,0.423014113614,0.0874707759383,0.946604782944
tagged_abstract_sents/10714657.txt,16,0.00120675784393,0.0752794901264,0.139250797795,0.0356431803763,0.296186773309,0.419791738976,0.0702177850794,0.882535954675
tagged_abstract_sents/10714657.txt,17,0.00120675784393,-0.0108661581862,0.139250797795,0.0356431803763,0.296445983175,0.276344325653,0.0337599971114,0.685660833587
