tagged_abstract_sents/10720605.txt,1,0.206355591311,-0.0264069264069,0.188769469584,0.129715814208,0.324107744655,0.249620899375,0.0129960154453,0.796462611547
tagged_abstract_sents/10720605.txt,2,0.0048270313757,-0.0004329004329,0.188769469584,0.129715814208,0.324107744655,0.364824559729,0.0199386056797,0.704574702314
tagged_abstract_sents/10720605.txt,4,0.016894609815,-0.0406307977737,0.139250797795,0.521468892835,0.324107744655,0.253466337881,0.0237430167598,0.711945188311
tagged_abstract_sents/10720605.txt,5,0.0353982300885,0.0212121212121,0.139250797795,0.521468892835,0.324107744655,0.347794752262,0.0226386021375,0.797843544006
tagged_abstract_sents/10720605.txt,6,0.0683829444891,-0.0128014842301,0.139250797795,0.521468892835,0.324107744655,0.246894603771,0.0295349983569,0.766822453294
tagged_abstract_sents/10720605.txt,8,0.214802896219,0.0397649969079,0.139250797795,0.521468892835,0.324107744655,0.378034349309,0.0300643040037,0.984192148561
tagged_abstract_sents/10720605.txt,9,0.262268704747,0.0298701298701,0.139250797795,0.521468892835,0.324107744655,0.396947664697,0.0352164804469,1.22892234387
tagged_abstract_sents/10720605.txt,10,0.262268704747,-0.0678416821274,0.139250797795,0.521468892835,0.324107744655,0.105489361754,0.00935948168839,0.861269282217
