tagged_abstract_sents/10723977.txt,2,0.123690572119,-0.0595628415301,0.188769469584,0.123191979006,0.277301379352,0.186474724665,0.0182201405152,0.566683319868
tagged_abstract_sents/10723977.txt,3,0.149073327961,-0.0289617486339,0.210342442448,0.141687475369,0.277301379352,0.175509603878,0.0318577537929,0.759237949479
tagged_abstract_sents/10723977.txt,4,0.176470588235,0.0158469945355,0.194899689933,0.293363477728,0.277301379352,0.263933737825,0.0304848839685,0.872436047074
tagged_abstract_sents/10723977.txt,5,0.0954875100725,0.051912568306,0.139250797795,0.194462959676,0.277301379352,0.262857327428,0.0272431206089,0.888500647005
tagged_abstract_sents/10723977.txt,6,0.0342465753425,0.00273224043716,0.139250797795,0.194462959676,0.277301379352,0.204054068387,0.0305210772834,0.667784520184
