tagged_abstract_sents/10739286.txt,1,0.239742558327,0.0480418943534,0.188769469584,0.202456734834,0.222292099041,0.29672671375,0.0105264410868,0.886069434652
tagged_abstract_sents/10739286.txt,2,0.218020917136,0.0152550091075,0.210342442448,0.226435992083,0.0675878580062,0.207720595246,0.0104697255997,0.636347933231
tagged_abstract_sents/10739286.txt,3,0.162510056315,0.107240437158,0.139250797795,0.0356431803763,0.0929240802248,0.407844559923,0.018299830407,0.750842956049
tagged_abstract_sents/10739286.txt,4,0.0852775543041,0.0626138433515,0.139250797795,0.0356431803763,0.0465708920837,0.267310431938,0.021626222067,0.496570711213
tagged_abstract_sents/10739286.txt,5,0.0458567980692,-0.0794626593807,0.139250797795,0.0356431803763,0.122669778597,0.120781374882,0.0134354632216,0.357997876291
tagged_abstract_sents/10739286.txt,6,0.0245374094932,-0.0257285974499,0.139250797795,0.0356431803763,0.18861316115,0.203765967019,0.0215350805127,0.508716769796
tagged_abstract_sents/10739286.txt,7,0.00844730490748,-0.0712659380692,0.139250797795,0.0356431803763,2.86257917921e-05,0.0672448609575,6.78926132837e-05,0.140164388685
tagged_abstract_sents/10739286.txt,8,0.00120675784393,-0.056693989071,0.139250797795,0.0356431803763,0.195427500807,0.0799103288162,0.0126222067039,0.357904997798
