tagged_abstract_sents/10749962.txt,1,0.0954875100725,-0.0668755912961,0.0616692308323,0.247294108221,0.337337520264,0.0,0.0,0.168037737681
tagged_abstract_sents/10749962.txt,3,0.0805801772764,-0.0337630085147,0.0616692308323,0.247294108221,0.337337520264,0.183336328898,0.033275261324,0.725097987767
tagged_abstract_sents/10749962.txt,4,0.0805801772764,-0.0681173131504,0.0616692308323,0.247294108221,0.337337520264,0.0,0.0,0.155863527074
tagged_abstract_sents/10749962.txt,5,0.123690572119,0.0692999053926,0.210342442448,0.141687475369,0.337337520264,0.289473163068,0.0447354719853,0.875686604549
tagged_abstract_sents/10749962.txt,6,0.140209508461,0.0593661305582,0.194899689933,0.293363477728,0.337337520264,0.29341483827,0.0330073807651,0.796280784289
tagged_abstract_sents/10749962.txt,7,0.149073327961,-0.00520340586566,0.0616692308323,0.247294108221,0.337337520264,0.249713791513,0.0420643336868,0.515046190464
tagged_abstract_sents/10749962.txt,8,0.149879129734,-0.0681173131504,0.139250797795,0.194462959676,0.337337520264,0.0,0.0,0.234244127957
tagged_abstract_sents/10749962.txt,9,0.176470588235,0.0175614947966,0.139250797795,0.194462959676,0.337337520264,0.223219701124,0.0303558230387,0.661057128948
tagged_abstract_sents/10749962.txt,10,0.166800966962,0.159531693472,0.139250797795,0.194462959676,0.337337520264,0.318080325704,0.0509431695302,0.751983385823
tagged_abstract_sents/10749962.txt,11,0.166800966962,0.0171475875118,0.139250797795,0.194462959676,0.337337520264,0.289332714769,0.0576253015277,0.899939156596
tagged_abstract_sents/10749962.txt,12,0.0954875100725,0.0200449385052,0.139250797795,0.194462959676,0.337337520264,0.270980294404,0.039661031531,0.677648569658
tagged_abstract_sents/10749962.txt,13,0.0342465753425,-0.0664616840114,0.0616692308323,0.247294108221,0.337337520264,0.0,0.0,0.119127771354
tagged_abstract_sents/10749962.txt,14,0.0342465753425,-0.0126537369915,0.139250797795,0.194462959676,0.337337520264,0.232058125963,0.0336817653891,0.755908211292
