tagged_abstract_sents/10784478.txt,1,0.0954875100725,-0.0811339198436,0.0616692308323,0.247294108221,0.276506685105,0.0,0.0,0.165186071972
tagged_abstract_sents/10784478.txt,2,0.0253827558421,0.117302052786,0.188769469584,0.123191979006,0.276506685105,0.179108152584,0.0243570945184,0.558929036346
tagged_abstract_sents/10784478.txt,3,0.0805801772764,-0.0840664711632,0.0616692308323,0.247294108221,0.276506685105,0.0,0.0,0.152673695471
tagged_abstract_sents/10784478.txt,5,0.140209508461,-0.00293255131965,0.194899689933,0.293363477728,0.276506685105,0.122274424818,0.0378950798306,0.700719858583
tagged_abstract_sents/10784478.txt,6,0.149879129734,-0.000977517106549,0.0616692308323,0.247294108221,0.276506685105,0.176581255728,0.0504516129032,0.585005077159
tagged_abstract_sents/10784478.txt,7,0.176470588235,-0.0830889540567,0.139250797795,0.194462959676,0.276506685105,0.0,0.0,0.252522966577
tagged_abstract_sents/10784478.txt,8,0.166800966962,0.0156402737048,0.139250797795,0.194462959676,0.276506685105,0.114818500347,0.0559686044506,0.489552507774
tagged_abstract_sents/10784478.txt,9,0.0954875100725,-0.0039100684262,0.139250797795,0.194462959676,0.276506685105,0.112858864035,0.0543988269795,0.51371593201
tagged_abstract_sents/10784478.txt,10,0.0342465753425,-0.0791788856305,0.0616692308323,0.247294108221,0.276506685105,0.0,0.0,0.11658433103
tagged_abstract_sents/10784478.txt,11,0.0342465753425,0.088954056696,0.139250797795,0.194462959676,0.276506685105,0.189303591712,0.0431410883024,0.682103723533
