tagged_abstract_sents/10796221.txt,1,0.0954875100725,-0.0500375869198,0.0616692308323,0.247294108221,0.165679779805,0.0,0.0,0.171405338557
tagged_abstract_sents/10796221.txt,2,0.0253827558421,0.0282371734636,0.188769469584,0.123191979006,0.165679779805,0.121265546376,0.0292108158184,0.357026374579
tagged_abstract_sents/10796221.txt,3,0.0253827558421,-0.0500375869198,0.0616692308323,0.247294108221,0.165679779805,0.0,0.0,0.115321535172
tagged_abstract_sents/10796221.txt,4,0.0805801772764,0.0817515504604,0.0616692308323,0.247294108221,0.165679779805,0.17505402686,0.0293555671357,0.483753101971
tagged_abstract_sents/10796221.txt,5,0.0805801772764,-0.0460439766961,0.0616692308323,0.247294108221,0.165679779805,0.0,0.0,0.160278194364
tagged_abstract_sents/10796221.txt,6,0.123690572119,0.0338282277767,0.0616692308323,0.247294108221,0.165679779805,0.0941575357684,0.0500694806323,0.412462011766
tagged_abstract_sents/10796221.txt,7,0.140209508461,-0.0436478105619,0.0616692308323,0.247294108221,0.165679779805,0.0,0.0,0.208460892539
tagged_abstract_sents/10796221.txt,9,0.149879129734,-0.0356605901146,0.0616692308323,0.247294108221,0.165679779805,0.0,0.0,0.217794033647
tagged_abstract_sents/10796221.txt,10,0.149879129734,0.00986656643488,0.0616692308323,0.247294108221,0.165679779805,0.142922766856,0.0436356655056,0.606590748456
tagged_abstract_sents/10796221.txt,11,0.176470588235,-0.014095094907,0.0616692308323,0.247294108221,0.165679779805,0.147669315442,0.0304064616988,0.647380206094
tagged_abstract_sents/10796221.txt,12,0.166800966962,-0.0484401428303,0.0616692308323,0.247294108221,0.165679779805,0.0,0.0,0.228775592886
tagged_abstract_sents/10796221.txt,13,0.166800966962,-0.022881037399,0.0616692308323,0.247294108221,0.165679779805,0.0887667575924,0.0363169920231,0.582941081922
tagged_abstract_sents/10796221.txt,14,0.0954875100725,0.149642924262,0.139250797795,0.194462959676,0.165679779805,0.2041864545,0.0291016955947,0.654015335979
tagged_abstract_sents/10796221.txt,15,0.0954875100725,-0.0212835933095,0.139250797795,0.194462959676,0.165679779805,0.040843784142,0.0119275085403,0.529542203941
tagged_abstract_sents/10796221.txt,16,0.0342465753425,-0.040452922383,0.139250797795,0.194462959676,0.165679779805,0.0,0.0,0.147270962598
tagged_abstract_sents/10796221.txt,17,0.0342465753425,0.0529975568502,0.139250797795,0.194462959676,0.165679779805,0.131869529685,0.0161542470036,0.479664614937
