tagged_abstract_sents/10796356.txt,1,0.0954875100725,-0.0375282167043,0.0616692308323,0.247294108221,0.529984295085,0.0,0.0,0.1739072126
tagged_abstract_sents/10796356.txt,2,0.0954875100725,0.0170240782543,0.188769469584,0.123191979006,0.529984295085,0.195219267468,0.0102470110535,0.823092185307
tagged_abstract_sents/10796356.txt,3,0.0253827558421,-0.0375282167043,0.0616692308323,0.247294108221,0.529984295085,0.0,0.0,0.117823409215
tagged_abstract_sents/10796356.txt,5,0.0805801772764,-0.035647103085,0.0616692308323,0.247294108221,0.529984295085,0.0,0.0,0.162357569087
tagged_abstract_sents/10796356.txt,6,0.0805801772764,0.0226674191121,0.0616692308323,0.247294108221,0.529984295085,0.128825736078,0.0199633431085,0.382600631419
tagged_abstract_sents/10796356.txt,7,0.0805801772764,-0.0130737396539,0.0616692308323,0.247294108221,0.529984295085,0.108142602761,0.0258064516129,0.468261387942
tagged_abstract_sents/10796356.txt,8,0.123690572119,-0.0345184349135,0.0616692308323,0.247294108221,0.529984295085,0.0,0.0,0.197071618595
tagged_abstract_sents/10796356.txt,9,0.123690572119,0.00837095560572,0.0616692308323,0.247294108221,0.529984295085,0.11728976115,0.0242342782665,0.760760298531
tagged_abstract_sents/10796356.txt,10,0.140209508461,-0.0307562076749,0.0616692308323,0.247294108221,0.529984295085,0.0,0.0,0.211039213116
tagged_abstract_sents/10796356.txt,11,0.140209508461,0.00949962377728,0.0616692308323,0.247294108221,0.529984295085,0.213204191005,0.016935483871,0.582584973713
tagged_abstract_sents/10796356.txt,12,0.149073327961,0.0106282919488,0.0616692308323,0.247294108221,0.529984295085,0.0910343305287,0.0239980449658,0.341476367474
tagged_abstract_sents/10796356.txt,13,0.149879129734,0.0392212189616,0.0616692308323,0.247294108221,0.529984295085,0.206021017978,0.0251832844575,0.73699225366
tagged_abstract_sents/10796356.txt,14,0.149879129734,0.0222911963883,0.0616692308323,0.247294108221,0.529984295085,0.172303924339,0.0189384164223,0.505022371537
tagged_abstract_sents/10796356.txt,15,0.176470588235,-0.0367757712566,0.0616692308323,0.247294108221,0.529984295085,0.0,0.0,0.238844164219
tagged_abstract_sents/10796356.txt,16,0.176470588235,0.0117569601204,0.0616692308323,0.247294108221,0.529984295085,0.117003353503,0.0201368523949,0.385724470351
tagged_abstract_sents/10796356.txt,17,0.166800966962,-0.0258653122649,0.0616692308323,0.247294108221,0.529984295085,0.0425127109605,0.00847181492343,0.284330726687
tagged_abstract_sents/10796356.txt,18,0.166800966962,0.0474981188864,0.139250797795,0.194462959676,0.529984295085,0.181689409596,0.032923998045,0.640148098958
tagged_abstract_sents/10796356.txt,19,0.166800966962,0.066309255079,0.139250797795,0.194462959676,0.529984295085,0.191302195782,0.0182100157907,1.09253533546
tagged_abstract_sents/10796356.txt,20,0.0954875100725,-0.000282167042889,0.139250797795,0.194462959676,0.529984295085,0.111918769211,0.00433845092289,0.888296857989
tagged_abstract_sents/10796356.txt,21,0.0954875100725,-0.0330135440181,0.139250797795,0.194462959676,0.529984295085,0.0,0.0,0.197751586055
tagged_abstract_sents/10796356.txt,22,0.0342465753425,0.0249247554552,0.139250797795,0.194462959676,0.529984295085,0.176243122425,0.0235894428152,0.881290741863
tagged_abstract_sents/10796356.txt,23,0.0342465753425,-0.00103461249059,0.139250797795,0.194462959676,0.529984295085,0.0933873780716,0.0099706744868,0.544874348133
tagged_abstract_sents/10796356.txt,24,0.0342465753425,-0.0183408577878,0.139250797795,0.194462959676,0.529984295085,0.0866803510639,0.0052681189778,0.773626140644
