tagged_abstract_sents/10796673.txt,1,0.125905068383,-0.0362876935615,0.0616692308323,0.142474783506,0.0,0.0,0.0,0.167043566462
tagged_abstract_sents/10796673.txt,2,0.125905068383,0.0165240423798,0.188769469584,0.202456734834,1.52464479427e-05,0.109786776282,0.014699732352,0.383652373507
tagged_abstract_sents/10796673.txt,3,0.239742558327,0.00234311328443,0.188769469584,0.202456734834,0.118105794213,0.0651743074316,0.0348653395785,0.565529865784
tagged_abstract_sents/10796673.txt,4,0.239742558327,0.0140790546047,0.188769469584,0.202456734834,0.392228193563,0.138514651472,0.0150842440801,0.89555870194
tagged_abstract_sents/10796673.txt,5,0.218020917136,-0.0362876935615,0.0616692308323,0.142474783506,0.0,0.0,0.0,0.240736245464
tagged_abstract_sents/10796673.txt,6,0.218020917136,0.0566218418908,0.188769469584,0.202456734834,0.500156963386,0.162770152911,0.0321320719832,1.03592204561
tagged_abstract_sents/10796673.txt,7,0.218020917136,-0.0338427057865,0.0616692308323,0.142474783506,0.0,0.0,0.0,0.241225243019
tagged_abstract_sents/10796673.txt,8,0.162510056315,-0.00939282803586,0.0616692308323,0.142474783506,0.0,0.0420130493229,0.0259702241552,0.269689803391
tagged_abstract_sents/10796673.txt,9,0.162510056315,0.0673797881011,0.0616692308323,0.142474783506,1.43426019139e-05,0.158573471286,0.023843676815,0.399492543843
tagged_abstract_sents/10796673.txt,10,0.101769911504,-0.0323757131214,0.0616692308323,0.142474783506,0.0,0.0,0.0,0.148517837047
tagged_abstract_sents/10796673.txt,11,0.101769911504,0.0297269763651,0.0616692308323,0.142474783506,0.327324846243,0.183624721576,0.0236321055993,0.695520048363
tagged_abstract_sents/10796673.txt,12,0.0852775543041,-0.0274857375713,0.0616692308323,0.142474783506,0.0,0.0,0.0,0.136301946397
tagged_abstract_sents/10796673.txt,13,0.0711987127916,-0.0108598207009,0.0616692308323,0.142474783506,0.0,0.0931306592183,0.0191069176725,0.240601633452
tagged_abstract_sents/10796673.txt,14,0.0711987127916,-0.0225957620212,0.0616692308323,0.142474783506,2.69524748748e-05,0.0336019520837,0.00622072599532,0.165866498851
tagged_abstract_sents/10796673.txt,15,0.0458567980692,0.0101670741646,0.0616692308323,0.142474783506,1.61612549137e-05,0.0728894127087,0.0131333830104,0.19833486073
tagged_abstract_sents/10796673.txt,16,0.0458567980692,-0.0030358598207,0.0616692308323,0.142474783506,1.74887005471e-05,0.0796618480288,0.0131333830104,0.202468036699
tagged_abstract_sents/10796673.txt,17,0.0245374094932,-0.0353096984515,0.0616692308323,0.142474783506,0.0,0.0,0.0,0.0861450383721
tagged_abstract_sents/10796673.txt,18,0.0245374094932,-0.00450285248574,0.139250797795,0.0356431803763,1.68368932555e-05,0.054636887085,0.0180584016393,0.171759835725
tagged_abstract_sents/10796673.txt,19,0.0245374094932,0.00772208638957,0.139250797795,0.0356431803763,0.222379853903,0.101963206045,0.0177421378387,0.44357789567
tagged_abstract_sents/10796673.txt,20,0.00844730490748,-0.00596984515077,0.139250797795,0.0356431803763,0.226329052145,0.0768093535963,0.0243373429849,0.413357976632
tagged_abstract_sents/10796673.txt,21,0.00844730490748,0.0179910350448,0.139250797795,0.0356431803763,0.621488831065,0.109303249921,0.0280612244898,0.849527709421
tagged_abstract_sents/10796673.txt,22,0.00120675784393,-0.0304197229014,0.139250797795,0.0356431803763,0.0,0.0,0.0,0.0751998147051
tagged_abstract_sents/10796673.txt,23,0.00120675784393,0.065912795436,0.139250797795,0.0356431803763,0.318000023587,0.158020314728,0.0157713700234,0.586258026711
tagged_abstract_sents/10796673.txt,24,0.00120675784393,-0.000101874490628,0.139250797795,0.0356431803763,0.133444779896,0.123573332355,0.0138856362217,0.35216713286
