tagged_abstract_sents/10796394.txt,1,0.0954875100725,-0.0555861093652,0.0616692308323,0.247294108221,0.306278072321,0.0,0.0,0.170295634067
tagged_abstract_sents/10796394.txt,2,0.0253827558421,0.0374371464488,0.188769469584,0.123191979006,0.306278072321,0.626813064645,0.0705511685411,1.16367836844
tagged_abstract_sents/10796394.txt,3,0.0253827558421,-0.0524434318039,0.0616692308323,0.247294108221,0.306278072321,0.0,0.0,0.114840366195
tagged_abstract_sents/10796394.txt,4,0.0805801772764,0.0160669390321,0.0616692308323,0.247294108221,0.306278072321,0.290571522455,0.0517526943776,0.839736980268
tagged_abstract_sents/10796394.txt,5,0.123690572119,0.011038654934,0.0616692308323,0.247294108221,0.306278072321,0.489343281004,0.058310733562,1.06737464661
tagged_abstract_sents/10796394.txt,6,0.123690572119,-0.0505578252671,0.0616692308323,0.247294108221,0.306278072321,0.0,0.0,0.193863740524
tagged_abstract_sents/10796394.txt,7,0.140209508461,0.0166954745443,0.0616692308323,0.247294108221,0.306278072321,0.537877345832,0.0683133480453,1.11822862979
tagged_abstract_sents/10796394.txt,8,0.149073327961,-0.0442724701446,0.0616692308323,0.247294108221,0.306278072321,0.0,0.0,0.215427016223
tagged_abstract_sents/10796394.txt,9,0.149879129734,-0.0291876178504,0.0616692308323,0.247294108221,0.306278072321,0.329819118772,0.0484831565234,0.597410191738
tagged_abstract_sents/10796394.txt,10,0.176470588235,-0.0273020113136,0.0616692308323,0.247294108221,0.306278072321,0.158618554763,0.0230155104527,0.960226021588
tagged_abstract_sents/10796394.txt,11,0.176470588235,-0.0310732243872,0.0616692308323,0.247294108221,0.306278072321,0.194133476104,0.0395813008878,1.06056004334
tagged_abstract_sents/10796394.txt,12,0.166800966962,-0.0543290383407,0.0616692308323,0.247294108221,0.306278072321,0.0,0.0,0.227597813784
tagged_abstract_sents/10796394.txt,13,0.0954875100725,-0.0342159019485,0.0616692308323,0.247294108221,0.306278072321,0.260917665627,0.0489856690862,0.829616251655
tagged_abstract_sents/10796394.txt,14,0.0954875100725,-0.0141027655563,0.0616692308323,0.247294108221,0.306278072321,0.357874731007,0.0659727207466,0.664018913567
tagged_abstract_sents/10796394.txt,16,0.0342465753425,0.0267520427404,0.139250797795,0.194462959676,0.306278072321,0.57312203797,0.0751375927255,1.11524965864
