tagged_abstract_sents/10796221.txt,1,0.206355591311,-0.0500375869198,0.0616692308323,0.106008497564,0.165679779805,0.0,0.0,0.21771412035
tagged_abstract_sents/10796221.txt,2,0.206355591311,0.0282371734636,0.188769469584,0.129715814208,0.165679779805,0.121265546376,0.0292108158184,0.503761793515
tagged_abstract_sents/10796221.txt,3,0.206355591311,-0.0500375869198,0.0616692308323,0.106008497564,0.165679779805,0.0,0.0,0.21771412035
tagged_abstract_sents/10796221.txt,4,0.0048270313757,0.0817515504604,0.0616692308323,0.106008497564,0.165679779805,0.17505402686,0.0293555671357,0.380764902053
tagged_abstract_sents/10796221.txt,5,0.0048270313757,-0.0460439766961,0.0616692308323,0.106008497564,0.165679779805,0.0,0.0,0.0572899944466
tagged_abstract_sents/10796221.txt,6,0.0108608205953,0.0338282277767,0.0616692308323,0.106008497564,0.165679779805,0.0941575357684,0.0500694806323,0.27981252735
tagged_abstract_sents/10796221.txt,7,0.0261464199517,-0.0436478105619,0.0616692308323,0.106008497564,0.165679779805,0.0,0.0,0.0748247385343
tagged_abstract_sents/10796221.txt,9,0.0518905872888,-0.0356605901146,0.0616692308323,0.106008497564,0.165679779805,0.0,0.0,0.0970175164934
tagged_abstract_sents/10796221.txt,10,0.0518905872888,0.00986656643488,0.0616692308323,0.106008497564,0.165679779805,0.142922766856,0.0436356655056,0.485814231303
tagged_abstract_sents/10796221.txt,11,0.0993563958166,-0.014095094907,0.0616692308323,0.106008497564,0.165679779805,0.147669315442,0.0304064616988,0.543303168962
tagged_abstract_sents/10796221.txt,12,0.172566371681,-0.0484401428303,0.0616692308323,0.106008497564,0.165679779805,0.0,0.0,0.191002233464
tagged_abstract_sents/10796221.txt,13,0.172566371681,-0.022881037399,0.0616692308323,0.106008497564,0.165679779805,0.0887667575924,0.0363169920231,0.545167722501
tagged_abstract_sents/10796221.txt,15,0.206355591311,-0.0212835933095,0.139250797795,0.521468892835,0.165679779805,0.040843784142,0.0119275085403,0.71633844888
tagged_abstract_sents/10796221.txt,16,0.262268704747,-0.040452922383,0.139250797795,0.521468892835,0.165679779805,0.0,0.0,0.427790446069
tagged_abstract_sents/10796221.txt,17,0.262268704747,0.0529975568502,0.139250797795,0.521468892835,0.165679779805,0.131869529685,0.0161542470036,0.760184098408
