tagged_abstract_sents/10792566.txt,1,0.206355591311,-0.0519317306523,0.0616692308323,0.106008497564,0.0709770923106,0.0,0.0,0.217335291604
tagged_abstract_sents/10792566.txt,3,0.206355591311,-0.0539992702801,0.0616692308323,0.106008497564,0.0709770923106,0.0,0.0,0.216921783678
tagged_abstract_sents/10792566.txt,4,0.0048270313757,-0.016094377103,0.0616692308323,0.106008497564,0.0709770923106,0.378917183091,0.00793650793651,0.64632675615
tagged_abstract_sents/10792566.txt,5,0.0048270313757,-0.0533100904042,0.0616692308323,0.106008497564,0.0709770923106,0.0,0.0,0.055836771705
tagged_abstract_sents/10792566.txt,6,0.0108608205953,-0.0340130538777,0.0616692308323,0.106008497564,0.0709770923106,0.0332729737657,0.0,0.0982254066961
tagged_abstract_sents/10792566.txt,7,0.0261464199517,0.0548911501196,0.0616692308323,0.106008497564,0.0709770923106,0.341805254693,0.0119524081788,0.557013441873
tagged_abstract_sents/10792566.txt,9,0.0518905872888,-0.0436615721409,0.0616692308323,0.106008497564,0.0709770923106,0.0,0.0,0.0954173200882
tagged_abstract_sents/10792566.txt,10,0.0518905872888,0.0128511776868,0.0616692308323,0.106008497564,0.0709770923106,0.401349680154,0.00574892248395,0.513886954764
tagged_abstract_sents/10792566.txt,11,0.0993563958166,-0.0533100904042,0.0616692308323,0.106008497564,0.0709770923106,0.0,0.0,0.131460263258
tagged_abstract_sents/10792566.txt,12,0.172566371681,0.0287023148336,0.139250797795,0.521468892835,0.0709770923106,0.301039949941,0.00482513061129,0.675814224731
tagged_abstract_sents/10792566.txt,13,0.172566371681,-0.016094377103,0.139250797795,0.521468892835,0.0709770923106,0.287702829344,0.00938991948981,0.658153030113
tagged_abstract_sents/10792566.txt,14,0.206355591311,0.0831475250334,0.139250797795,0.521468892835,0.0709770923106,0.314754604429,0.00442105563399,0.750245094825
tagged_abstract_sents/10792566.txt,15,0.206355591311,-0.0057566789638,0.139250797795,0.521468892835,0.0709770923106,0.240901983125,0.00619571728062,0.791462636366
tagged_abstract_sents/10792566.txt,16,0.262268704747,-0.0505533709004,0.139250797795,0.521468892835,0.0709770923106,0.0,0.0,0.425770356365
tagged_abstract_sents/10792566.txt,17,0.262268704747,0.0934852231727,0.139250797795,0.521468892835,0.0709770923106,0.385305592318,0.0153239492862,0.926184709094
