tagged_abstract_sents/10796127.txt,1,0.206355591311,-0.0478362573099,0.0616692308323,0.106008497564,0.558120966212,0.0,0.0,0.218154386272
tagged_abstract_sents/10796127.txt,3,0.206355591311,-0.00432748538012,0.188769469584,0.129715814208,0.558120966212,0.117386377981,0.056960950764,0.896405071824
tagged_abstract_sents/10796127.txt,4,0.0048270313757,-0.0478362573099,0.0616692308323,0.106008497564,0.558120966212,0.0,0.0,0.0569315383239
tagged_abstract_sents/10796127.txt,5,0.0048270313757,0.0861988304094,0.0616692308323,0.106008497564,0.558120966212,0.16163355311,0.0385856079404,0.750361694229
tagged_abstract_sents/10796127.txt,6,0.0108608205953,-0.0443274853801,0.0616692308323,0.106008497564,0.558120966212,0.0,0.0,0.0624603240855
tagged_abstract_sents/10796127.txt,7,0.0108608205953,-0.00432748538012,0.0616692308323,0.106008497564,0.558120966212,0.0761055960614,0.0755865102639,0.607037294427
tagged_abstract_sents/10796127.txt,8,0.0261464199517,-0.0162573099415,0.0616692308323,0.106008497564,0.558120966212,0.020957082491,0.0237210817856,0.124981002935
tagged_abstract_sents/10796127.txt,9,0.0353982300885,0.0398830409357,0.210342442448,0.0253702522065,0.558120966212,0.135539681448,0.0607238069848,0.703850254032
tagged_abstract_sents/10796127.txt,10,0.0518905872888,-0.0352046783626,0.0616692308323,0.106008497564,0.558120966212,0.0,0.0,0.0971086988438
tagged_abstract_sents/10796127.txt,11,0.0993563958166,-0.0134502923977,0.0616692308323,0.106008497564,0.558120966212,0.0687477120237,0.0516862170088,0.486794551845
tagged_abstract_sents/10796127.txt,12,0.0993563958166,-0.046432748538,0.0616692308323,0.106008497564,0.558120966212,0.0,0.0,0.132835731631
tagged_abstract_sents/10796127.txt,13,0.172566371681,-0.0232748538012,0.0616692308323,0.106008497564,0.558120966212,0.0739732500586,0.0582991202346,0.529131224269
tagged_abstract_sents/10796127.txt,14,0.172566371681,-0.0302923976608,0.0616692308323,0.106008497564,0.558120966212,0.0323562233743,0.0441748866969,0.271162892569
tagged_abstract_sents/10796127.txt,15,0.206355591311,0.0749707602339,0.139250797795,0.521468892835,0.558120966212,0.155512865146,0.0549534616856,1.12290599245
tagged_abstract_sents/10796127.txt,16,0.206355591311,0.0412865497076,0.139250797795,0.521468892835,0.558120966212,0.120152008324,0.0463034418892,0.732661033075
tagged_abstract_sents/10796127.txt,17,0.262268704747,-0.0394152046784,0.139250797795,0.521468892835,0.558120966212,0.0,0.0,0.42799798961
