tagged_abstract_sents/10796686.txt,1,0.125905068383,-0.0390676754646,0.0616692308323,0.142474783506,0.0,0.0,0.0,0.166487570081
tagged_abstract_sents/10796686.txt,2,0.125905068383,-0.0390676754646,0.188769469584,0.202456734834,0.0,0.0,0.0,0.248032274856
tagged_abstract_sents/10796686.txt,3,0.239742558327,0.0142603117046,0.188769469584,0.202456734834,0.552414495969,0.332195597332,0.0168252860963,1.25120324364
tagged_abstract_sents/10796686.txt,4,0.239742558327,-0.0390676754646,0.0616692308323,0.142474783506,0.0,0.0,0.0,0.257557562036
tagged_abstract_sents/10796686.txt,5,0.218020917136,-0.0394686377741,0.0616692308323,0.142474783506,0.0,0.0,0.0,0.240100056622
tagged_abstract_sents/10796686.txt,6,0.218020917136,0.0499459572539,0.0616692308323,0.142474783506,0.40913825147,0.411511196222,0.0158668938317,1.09449931715
tagged_abstract_sents/10796686.txt,7,0.162510056315,-0.0370628639169,0.0616692308323,0.142474783506,0.0,0.0,0.0,0.196172522737
tagged_abstract_sents/10796686.txt,8,0.162510056315,0.0683902234929,0.0616692308323,0.142474783506,0.170211042287,0.419267595672,0.024546564353,0.83128834253
tagged_abstract_sents/10796686.txt,9,0.162510056315,-0.0358599769883,0.0616692308323,0.142474783506,0.0,0.0,0.0,0.196413100123
tagged_abstract_sents/10796686.txt,10,0.101769911504,0.0936508489941,0.0616692308323,0.142474783506,0.342628866396,0.445974410577,0.0188973043002,0.981223730743
tagged_abstract_sents/10796686.txt,11,0.101769911504,-0.0318503538928,0.0616692308323,0.142474783506,0.0,0.0,0.0,0.148622908893
tagged_abstract_sents/10796686.txt,12,0.0711987127916,0.0302988040863,0.0616692308323,0.142474783506,0.190895880532,0.378104287263,0.0183536798047,0.723949629118
tagged_abstract_sents/10796686.txt,13,0.0711987127916,-0.0210243715352,0.0616692308323,0.142474783506,0.213994738147,0.153423773348,0.0194722438357,0.513221901725
tagged_abstract_sents/10796686.txt,14,0.0458567980692,-0.0382657508455,0.0616692308323,0.142474783506,0.0,0.0,0.0,0.102609338754
tagged_abstract_sents/10796686.txt,15,0.0458567980692,0.00824587706147,0.139250797795,0.0356431803763,0.235453955136,0.436376272349,0.0200977922464,0.810580986609
tagged_abstract_sents/10796686.txt,16,0.0458567980692,0.031501691015,0.139250797795,0.0356431803763,0.433191145977,0.275486599183,0.0148819904662,0.846863865295
tagged_abstract_sents/10796686.txt,17,0.0245374094932,0.0659844496356,0.139250797795,0.0356431803763,0.0800152113097,0.523538667458,0.0191940745604,0.735893123861
tagged_abstract_sents/10796686.txt,18,0.0245374094932,0.000226630870611,0.139250797795,0.0356431803763,0.472155507984,0.206761552053,0.010004650622,0.788915317438
tagged_abstract_sents/10796686.txt,19,0.00844730490748,-0.000575293748475,0.139250797795,0.0356431803763,0.458275321185,0.252004074933,0.0152239479677,0.812464482272
tagged_abstract_sents/10796686.txt,20,0.00844730490748,-0.0342561277501,0.0616692308323,0.142474783506,0.0,0.0,0.0,0.0734836688438
tagged_abstract_sents/10796686.txt,21,0.00120675784393,-0.00498587915345,0.139250797795,0.0356431803763,0.507391937996,0.260700567331,0.00454974455775,0.85292883334
tagged_abstract_sents/10796686.txt,22,0.00120675784393,0.000226630870611,0.139250797795,0.0356431803763,0.54359917264,0.187079532472,0.012469480293,0.824477270865
tagged_abstract_sents/10796686.txt,23,0.00120675784393,-0.00217914298665,0.139250797795,0.0356431803763,0.330190670862,0.231079922655,0.00937935995814,0.651497884163
