tagged_abstract_sents/10813010.txt,1,0.0954875100725,-0.0572793070717,0.0616692308323,0.247294108221,0.345406120487,0.0,0.0,0.169956994526
tagged_abstract_sents/10813010.txt,3,0.0253827558421,0.0414392501187,0.188769469584,0.123191979006,0.345406120487,0.397516654236,0.0495042897998,0.896443234796
tagged_abstract_sents/10813010.txt,4,0.0805801772764,-0.0587031324158,0.0616692308323,0.247294108221,0.345406120487,0.0,0.0,0.15774636322
tagged_abstract_sents/10813010.txt,5,0.123690572119,0.0642204556241,0.210342442448,0.141687475369,0.345406120487,0.342326185406,0.0383003654274,0.786633381476
tagged_abstract_sents/10813010.txt,6,0.123690572119,0.00299596582819,0.0616692308323,0.247294108221,0.345406120487,0.262286147791,0.0314320516894,0.625999183262
tagged_abstract_sents/10813010.txt,7,0.140209508461,0.0248279544376,0.0616692308323,0.247294108221,0.345406120487,0.277974765109,0.0240329135518,0.687648503908
tagged_abstract_sents/10813010.txt,8,0.149073327961,0.0324216896061,0.0616692308323,0.247294108221,0.345406120487,0.322362116007,0.0520563802261,0.772851570186
tagged_abstract_sents/10813010.txt,9,0.149879129734,-0.0587031324158,0.0616692308323,0.247294108221,0.345406120487,0.0,0.0,0.213185525187
tagged_abstract_sents/10813010.txt,10,0.176470588235,-0.00222472710014,0.139250797795,0.194462959676,0.345406120487,0.17966416841,0.0502126567427,0.740732363334
tagged_abstract_sents/10813010.txt,11,0.176470588235,-0.0193106312292,0.139250797795,0.194462959676,0.345406120487,0.243694031481,0.0332327083995,0.542275289709
tagged_abstract_sents/10813010.txt,12,0.166800966962,0.061847413384,0.139250797795,0.194462959676,0.345406120487,0.312114356183,0.0360433973399,0.690769099826
tagged_abstract_sents/10813010.txt,13,0.0954875100725,-0.0136153298529,0.139250797795,0.194462959676,0.345406120487,0.2382686343,0.036567564347,0.674831046866
tagged_abstract_sents/10813010.txt,14,0.0954875100725,-0.0112422876127,0.139250797795,0.194462959676,0.345406120487,0.311574015647,0.05361114894,0.866616551384
tagged_abstract_sents/10813010.txt,15,0.0342465753425,-0.0553808732795,0.139250797795,0.194462959676,0.345406120487,0.0,0.0,0.144285372418
tagged_abstract_sents/10813010.txt,16,0.0342465753425,0.0272009966777,0.139250797795,0.194462959676,0.345406120487,0.346104870014,0.0538608198284,0.906173556739
