tagged_abstract_sents/10818057.txt,1,0.239742558327,-0.0342581238504,0.188769469584,0.202456734834,0.268480482475,0.590172902767,0.0326038221533,1.23132138453
tagged_abstract_sents/10818057.txt,2,0.218020917136,-0.0667535254445,0.188769469584,0.202456734834,0.228899102373,0.516602547339,0.0393072338548,1.10099666743
tagged_abstract_sents/10818057.txt,3,0.162510056315,0.101854690374,0.188769469584,0.202456734834,0.133017384845,0.896776877757,0.052311929292,1.38760693026
tagged_abstract_sents/10818057.txt,4,0.0852775543041,-0.00728080931944,0.210342442448,0.226435992083,0.167402243091,0.536605587344,0.0447572963158,0.988633027179
tagged_abstract_sents/10818057.txt,5,0.0458567980692,-0.0189301042305,0.0616692308323,0.142474783506,0.0766011867048,0.478899996987,0.0314325551931,0.693410206962
tagged_abstract_sents/10818057.txt,6,0.0245374094932,0.0246014714899,0.139250797795,0.0356431803763,0.085290015732,0.775520536052,0.0452601941826,1.01093932087
tagged_abstract_sents/10818057.txt,7,0.00844730490748,0.00559472716125,0.139250797795,0.0356431803763,0.130303480046,0.662319968013,0.0385233295128,0.91934191994
tagged_abstract_sents/10818057.txt,8,0.00120675784393,-0.00482832618026,0.139250797795,0.0356431803763,0.180263213952,0.717021049293,0.0322727376626,1.00987509496
