tagged_abstract_sents/10825056.txt,2,0.0108608205953,-0.0297805642633,0.139250797795,0.521468892835,0.406971963101,0.250924234974,0.0899919573741,0.704437719974
tagged_abstract_sents/10825056.txt,3,0.0353982300885,0.0193312434692,0.139250797795,0.521468892835,0.406971963101,0.380317806414,0.0687321374715,1.01225250338
tagged_abstract_sents/10825056.txt,4,0.0993563958166,-0.0663531870428,0.139250797795,0.521468892835,0.406971963101,0.223037629393,0.0337843200542,0.644067820445
tagged_abstract_sents/10825056.txt,5,0.206355591311,0.0182863113898,0.139250797795,0.521468892835,0.406971963101,0.313518592758,0.0656940115948,0.856406931711
