tagged_abstract_sents/10865306.txt,1,0.125905068383,-0.043956043956,0.0616692308323,0.142474783506,0.0,0.0,0.0,0.165509896383
tagged_abstract_sents/10865306.txt,2,0.125905068383,0.0215201465201,0.188769469584,0.202456734834,0.174876370558,0.145891062231,0.0366338242463,0.617551096288
tagged_abstract_sents/10865306.txt,3,0.239742558327,-0.0430402930403,0.0616692308323,0.142474783506,0.0,0.0,0.0,0.256763038521
tagged_abstract_sents/10865306.txt,4,0.239742558327,0.00869963369963,0.0616692308323,0.142474783506,0.303562262062,0.158925434279,0.0270839180466,0.756682638257
tagged_abstract_sents/10865306.txt,5,0.218020917136,-0.0416666666667,0.0616692308323,0.142474783506,0.0,0.0,0.0,0.239660450843
tagged_abstract_sents/10865306.txt,6,0.218020917136,0.0123626373626,0.0616692308323,0.142474783506,0.172571596202,0.126693846284,0.0293759940125,0.579107748148
tagged_abstract_sents/10865306.txt,7,0.162510056315,-0.040293040293,0.0616692308323,0.142474783506,0.0,0.0,0.0,0.195526487462
tagged_abstract_sents/10865306.txt,8,0.162510056315,0.047619047619,0.139250797795,0.0356431803763,0.377857168079,0.28857715537,0.0258998737019,0.912184404738
tagged_abstract_sents/10865306.txt,9,0.101769911504,-0.00457875457875,0.139250797795,0.0356431803763,0.327075635623,0.0997578071073,0.0348582655066,0.622510239535
tagged_abstract_sents/10865306.txt,10,0.101769911504,-0.040293040293,0.139250797795,0.0356431803763,0.0,0.0,0.0,0.153675674155
tagged_abstract_sents/10865306.txt,11,0.0711987127916,0.0100732600733,0.139250797795,0.0356431803763,0.284501061241,0.191663983597,0.0240881523875,0.639545172483
tagged_abstract_sents/10865306.txt,12,0.0711987127916,-0.0407509157509,0.139250797795,0.0356431803763,0.0,0.0,0.0,0.129127140093
tagged_abstract_sents/10865306.txt,13,0.0458567980692,0.141025641026,0.139250797795,0.0356431803763,0.134898468556,0.215366926119,0.0347670502386,0.530241364584
tagged_abstract_sents/10865306.txt,14,0.0458567980692,0.0425824175824,0.139250797795,0.0356431803763,0.149236315122,0.180111908714,0.031714847039,0.486583345857
tagged_abstract_sents/10865306.txt,15,0.0245374094932,0.0453296703297,0.139250797795,0.0356431803763,0.200157349368,0.186165578702,0.0348143357454,0.530151478487
tagged_abstract_sents/10865306.txt,16,0.0245374094932,0.0302197802198,0.139250797795,0.0356431803763,0.179431193458,0.131927866306,0.0444849845636,0.461836280977
tagged_abstract_sents/10865306.txt,17,0.00844730490748,-0.0421245421245,0.139250797795,0.0356431803763,0.0,0.0,0.0,0.0786512885114
tagged_abstract_sents/10865306.txt,18,0.00844730490748,0.0164835164835,0.139250797795,0.0356431803763,0.251696545828,0.221545482557,0.0354122686061,0.599027197223
tagged_abstract_sents/10865306.txt,19,0.00120675784393,0.0114468864469,0.139250797795,0.0356431803763,0.200955346948,0.128812216656,0.0406221841441,0.453962884323
tagged_abstract_sents/10865306.txt,20,0.00120675784393,-0.0453296703297,0.139250797795,0.0356431803763,0.0,0.0,0.0,0.0722178252195
tagged_abstract_sents/10865306.txt,21,0.00120675784393,-0.0453296703297,0.139250797795,0.0356431803763,0.0,0.0,0.0,0.0722178252195
