tagged_abstract_sents/10867092.txt,1,0.0954875100725,0.00388396650079,0.188769469584,0.123191979006,0.291361184185,0.207155496682,0.0528547201809,0.752803617842
tagged_abstract_sents/10867092.txt,2,0.0253827558421,-0.000788930695473,0.188769469584,0.123191979006,0.291361184185,0.158079210786,0.0509264965693,0.569773376192
tagged_abstract_sents/10867092.txt,4,0.123690572119,-0.0154751790266,0.139250797795,0.194462959676,0.291361184185,0.129874750681,0.0256275935741,0.546584681818
tagged_abstract_sents/10867092.txt,5,0.140209508461,0.0319213496784,0.139250797795,0.194462959676,0.291361184185,0.210276363655,0.0555220017256,0.648314304538
tagged_abstract_sents/10867092.txt,6,0.149879129734,-0.0455152324311,0.139250797795,0.194462959676,0.291361184185,0.0651962356945,0.0806010928962,0.602364817101
tagged_abstract_sents/10867092.txt,7,0.176470588235,-0.0381721082656,0.139250797795,0.194462959676,0.291361184185,0.0751695650016,0.0479323308271,0.575330219257
tagged_abstract_sents/10867092.txt,8,0.166800966962,-0.0381721082656,0.139250797795,0.194462959676,0.291361184185,0.183821213184,0.039213042853,0.79579768449
tagged_abstract_sents/10867092.txt,9,0.0954875100725,0.0933365699721,0.139250797795,0.194462959676,0.291361184185,0.185871251488,0.0544262295082,0.614865085171
tagged_abstract_sents/10867092.txt,10,0.0342465753425,0.0158999878626,0.139250797795,0.194462959676,0.291361184185,0.210074631336,0.0511588468061,0.761543149836
tagged_abstract_sents/10867092.txt,11,0.0342465753425,-0.0134725087996,0.139250797795,0.194462959676,0.291361184185,0.210560257005,0.0543880192284,0.708976505732
