tagged_abstract_sents/10875955.txt,1,0.206355591311,-0.0414078674948,0.0616692308323,0.106008497564,0.146943564535,0.0,0.0,0.219440064235
tagged_abstract_sents/10875955.txt,2,0.206355591311,0.0542443064182,0.188769469584,0.129715814208,0.146943564535,0.0,0.0,0.411315251759
tagged_abstract_sents/10875955.txt,4,0.206355591311,-0.0426501035197,0.0616692308323,0.106008497564,0.146943564535,0.0,0.0,0.21919161703
tagged_abstract_sents/10875955.txt,5,0.0048270313757,-0.00600414078675,0.0616692308323,0.106008497564,0.146943564535,0.0,0.0,0.0652979616285
tagged_abstract_sents/10875955.txt,6,0.0048270313757,-0.0407867494824,0.0616692308323,0.106008497564,0.146943564535,0.0,0.0,0.0583414398894
tagged_abstract_sents/10875955.txt,7,0.0108608205953,-0.00724637681159,0.0616692308323,0.106008497564,0.146943564535,0.0,0.0,0.0698765457992
tagged_abstract_sents/10875955.txt,8,0.0108608205953,-0.0426501035197,0.139250797795,0.521468892835,0.146943564535,0.0,0.0,0.22622470252
tagged_abstract_sents/10875955.txt,9,0.0261464199517,0.0579710144928,0.139250797795,0.521468892835,0.146943564535,0.0,0.0,0.374585986191
tagged_abstract_sents/10875955.txt,10,0.0261464199517,-0.024016563147,0.139250797795,0.521468892835,0.146943564535,0.0,0.0,0.24217989008
tagged_abstract_sents/10875955.txt,12,0.0518905872888,-0.00538302277433,0.139250797795,0.521468892835,0.146943564535,0.0,0.0,0.266501932024
tagged_abstract_sents/10875955.txt,13,0.0993563958166,0.0169772256729,0.139250797795,0.521468892835,0.146943564535,0.0,0.0,0.400313518346
tagged_abstract_sents/10875955.txt,14,0.0993563958166,-0.00538302277433,0.139250797795,0.521468892835,0.146943564535,0.0,0.0,0.304516120917
tagged_abstract_sents/10875955.txt,15,0.172566371681,0.0151138716356,0.139250797795,0.521468892835,0.146943564535,0.0,0.0,0.508381732701
tagged_abstract_sents/10875955.txt,16,0.172566371681,0.00207039337474,0.139250797795,0.521468892835,0.146943564535,0.0,0.0,0.537217616268
tagged_abstract_sents/10875955.txt,17,0.206355591311,0.0461697722567,0.139250797795,0.521468892835,0.146943564535,0.0,0.0,0.653225486307
tagged_abstract_sents/10875955.txt,18,0.206355591311,0.0113871635611,0.139250797795,0.521468892835,0.146943564535,0.0,0.0,0.703937911722
tagged_abstract_sents/10875955.txt,19,0.262268704747,-0.04016563147,0.0616692308323,0.106008497564,0.146943564535,0.0,0.0,0.264419002189
tagged_abstract_sents/10875955.txt,20,0.262268704747,0.00393374741201,0.139250797795,0.521468892835,0.146943564535,0.0,0.0,0.491506230235
tagged_abstract_sents/10875955.txt,21,0.262268704747,0.0281573498965,0.139250797795,0.521468892835,0.146943564535,0.0,0.0,0.58845606506
