tagged_abstract_sents/10888968.txt,1,0.206355591311,-0.0502974293605,0.0616692308323,0.106008497564,0.32667788027,0.0,0.0,0.217662151862
tagged_abstract_sents/10888968.txt,3,0.206355591311,-0.0507754408328,0.0616692308323,0.106008497564,0.32667788027,0.0,0.0,0.217566549568
tagged_abstract_sents/10888968.txt,4,0.0048270313757,0.0108880390907,0.188769469584,0.129715814208,0.32667788027,0.183497491445,0.0399648093842,0.701180043526
tagged_abstract_sents/10888968.txt,5,0.0048270313757,-0.049341406416,0.0616692308323,0.106008497564,0.32667788027,0.0,0.0,0.0566305085027
tagged_abstract_sents/10888968.txt,6,0.0108608205953,-0.0273528786913,0.0616692308323,0.106008497564,0.32667788027,0.0689261296585,0.0144916911046,0.149273066186
tagged_abstract_sents/10888968.txt,7,0.0108608205953,-0.0517314637774,0.0616692308323,0.106008497564,0.32667788027,0.0,0.0,0.0609795284061
tagged_abstract_sents/10888968.txt,8,0.0261464199517,0.0515190142341,0.0616692308323,0.106008497564,0.32667788027,0.144758109911,0.0228866505164,0.534124018666
tagged_abstract_sents/10888968.txt,9,0.0353982300885,0.0763756107924,0.0616692308323,0.106008497564,0.32667788027,0.291752315123,0.0318336162988,0.646244804171
tagged_abstract_sents/10888968.txt,10,0.0518905872888,0.0333545782877,0.0616692308323,0.106008497564,0.32667788027,0.16740368544,0.0250541884483,0.564455479004
tagged_abstract_sents/10888968.txt,11,0.0993563958166,-0.0450393031655,0.0616692308323,0.106008497564,0.32667788027,0.0,0.0,0.133114420705
tagged_abstract_sents/10888968.txt,12,0.0993563958166,-0.0244848098577,0.0616692308323,0.106008497564,0.32667788027,0.116378931284,0.0155131964809,0.634332432641
tagged_abstract_sents/10888968.txt,13,0.172566371681,-0.0517314637774,0.139250797795,0.521468892835,0.32667788027,0.0,0.0,0.353772871338
tagged_abstract_sents/10888968.txt,15,0.206355591311,0.00993201614617,0.139250797795,0.521468892835,0.32667788027,0.159899663688,0.0215675819781,0.968997719331
tagged_abstract_sents/10888968.txt,16,0.206355591311,0.0467388995114,0.139250797795,0.521468892835,0.32667788027,0.226943635371,0.032713115583,1.01910555594
tagged_abstract_sents/10888968.txt,17,0.262268704747,-0.0502974293605,0.139250797795,0.521468892835,0.32667788027,0.0,0.0,0.425821544673
tagged_abstract_sents/10888968.txt,18,0.262268704747,0.0486509454005,0.139250797795,0.521468892835,0.32667788027,0.256248595384,0.0350230414747,1.06356073675
