tagged_abstract_sents/10888968.txt,1,0.125905068383,-0.0502974293605,0.0616692308323,0.142474783506,0.0,0.0,0.0,0.164241619302
tagged_abstract_sents/10888968.txt,2,0.239742558327,0.0347886127045,0.188769469584,0.202456734834,0.366872295302,0.22960938766,0.0404007820137,0.99075598942
tagged_abstract_sents/10888968.txt,3,0.239742558327,-0.0507754408328,0.0616692308323,0.142474783506,0.0,0.0,0.0,0.255216008963
tagged_abstract_sents/10888968.txt,4,0.218020917136,0.0108880390907,0.188769469584,0.202456734834,0.338379030724,0.183497491445,0.0399648093842,0.893557428323
tagged_abstract_sents/10888968.txt,5,0.218020917136,-0.049341406416,0.0616692308323,0.142474783506,0.0,0.0,0.0,0.238125502893
tagged_abstract_sents/10888968.txt,6,0.162510056315,-0.0273528786913,0.0616692308323,0.142474783506,0.0,0.0689261296585,0.0144916911046,0.281532340545
tagged_abstract_sents/10888968.txt,7,0.162510056315,-0.0517314637774,0.0616692308323,0.142474783506,0.0,0.0,0.0,0.193238802765
tagged_abstract_sents/10888968.txt,8,0.101769911504,0.0515190142341,0.0616692308323,0.142474783506,0.272621154745,0.144758109911,0.0228866505164,0.605562697691
tagged_abstract_sents/10888968.txt,9,0.0852775543041,0.0763756107924,0.0616692308323,0.142474783506,0.216428001834,0.291752315123,0.0318336162988,0.697088149326
tagged_abstract_sents/10888968.txt,10,0.0711987127916,0.0333545782877,0.0616692308323,0.142474783506,0.261177054941,0.16740368544,0.0250541884483,0.590841865188
tagged_abstract_sents/10888968.txt,11,0.0458567980692,-0.0450393031655,0.0616692308323,0.142474783506,0.0,0.0,0.0,0.10125462829
tagged_abstract_sents/10888968.txt,12,0.0458567980692,-0.0244848098577,0.0616692308323,0.142474783506,0.365214985509,0.116378931284,0.0155131964809,0.602472640225
tagged_abstract_sents/10888968.txt,13,0.0245374094932,-0.0517314637774,0.139250797795,0.0356431803763,0.0,0.0,0.0,0.0896019878493
tagged_abstract_sents/10888968.txt,14,0.0245374094932,0.0888039090716,0.139250797795,0.0356431803763,0.400433536518,0.27962114481,0.0250607457059,0.822824489453
tagged_abstract_sents/10888968.txt,15,0.00844730490748,0.00993201614617,0.139250797795,0.0356431803763,0.394393530638,0.159899663688,0.0215675819781,0.66492337647
tagged_abstract_sents/10888968.txt,16,0.00844730490748,0.0467388995114,0.139250797795,0.0356431803763,0.358950485286,0.226943635371,0.032713115583,0.715031213079
tagged_abstract_sents/10888968.txt,17,0.00120675784393,-0.0502974293605,0.139250797795,0.0356431803763,0.0,0.0,0.0,0.0712242734133
tagged_abstract_sents/10888968.txt,18,0.00120675784393,0.0486509454005,0.139250797795,0.0356431803763,0.32667788027,0.256248595384,0.0350230414747,0.708963465494
