tagged_abstract_sents/10907384.txt,1,0.206355591311,-0.0739082626453,0.0616692308323,0.106008497564,0.398747883801,0.0,0.0,0.212939985205
tagged_abstract_sents/10907384.txt,3,0.0048270313757,-0.0635406848885,0.0616692308323,0.106008497564,0.398747883801,0.0,0.0,0.0537906528082
tagged_abstract_sents/10907384.txt,5,0.0261464199517,-0.00793276782909,0.0616692308323,0.106008497564,0.398747883801,0.0832573238214,0.0330191809916,0.362038180782
tagged_abstract_sents/10907384.txt,6,0.0353982300885,0.00997486647817,0.0616692308323,0.106008497564,0.398747883801,0.165381109249,0.0352459016393,0.655867877401
tagged_abstract_sents/10907384.txt,7,0.0518905872888,-0.0757932767829,0.0616692308323,0.106008497564,0.398747883801,0.0,0.0,0.0889909791598
tagged_abstract_sents/10907384.txt,8,0.0993563958166,-0.027725416274,0.139250797795,0.521468892835,0.398747883801,0.0936740941559,0.0246261144665,0.625341096283
tagged_abstract_sents/10907384.txt,9,0.172566371681,0.0542726987119,0.139250797795,0.521468892835,0.398747883801,0.157609279184,0.028494391717,0.739010319395
tagged_abstract_sents/10907384.txt,10,0.206355591311,0.0900879673264,0.139250797795,0.521468892835,0.398747883801,0.164304621048,0.0367479802337,0.819424336567
tagged_abstract_sents/10907384.txt,11,0.262268704747,-0.0729657555765,0.0616692308323,0.106008497564,0.398747883801,0.0,0.0,0.257858977367
tagged_abstract_sents/10907384.txt,12,0.262268704747,0.0712378259504,0.139250797795,0.521468892835,0.398747883801,0.23441151295,0.0359108625152,1.119198855
