tagged_abstract_sents/10917577.txt,2,0.0253827558421,-0.0338237987667,0.0616692308323,0.247294108221,0.318035923623,0.0948307930215,0.0324828934506,0.531663559848
tagged_abstract_sents/10917577.txt,3,0.0805801772764,0.0098296599304,0.194899689933,0.293363477728,0.318035923623,0.121866783571,0.0478609625668,0.580070491055
tagged_abstract_sents/10917577.txt,4,0.123690572119,-0.0109896819098,0.139250797795,0.194462959676,0.318035923623,0.125333237428,0.0312886933855,0.707387355853
tagged_abstract_sents/10917577.txt,5,0.140209508461,0.00714329324135,0.139250797795,0.194462959676,0.318035923623,0.152657090315,0.0515175953079,0.561901732516
tagged_abstract_sents/10917577.txt,6,0.149879129734,-0.0633738323463,0.139250797795,0.194462959676,0.318035923623,0.0327851999067,0.0360703812317,0.304066258042
tagged_abstract_sents/10917577.txt,7,0.176470588235,-0.0311374320777,0.139250797795,0.194462959676,0.318035923623,0.113222661356,0.0498991935484,0.575524386112
tagged_abstract_sents/10917577.txt,8,0.166800966962,0.0991513523414,0.139250797795,0.194462959676,0.318035923623,0.116787965661,0.0317319303088,0.55591312403
tagged_abstract_sents/10917577.txt,9,0.0954875100725,0.00311374320777,0.139250797795,0.194462959676,0.318035923623,0.139338375103,0.0423059114061,0.652555122508
tagged_abstract_sents/10917577.txt,10,0.0342465753425,-0.021735148666,0.139250797795,0.194462959676,0.318035923623,0.0597024022151,0.0276686217009,0.346263617983
tagged_abstract_sents/10917577.txt,11,0.0342465753425,-0.0177055986324,0.139250797795,0.194462959676,0.318035923623,0.123804082886,0.032412838058,0.626073271914
