tagged_abstract_sents/10920726.txt,1,0.206355591311,-0.0349917258314,0.0616692308323,0.106008497564,4.36477385448e-05,0.0,0.0,0.220723292568
tagged_abstract_sents/10920726.txt,2,0.206355591311,0.0132386697272,0.188769469584,0.129715814208,4.36477385448e-05,0.630288552215,0.106292971537,1.25652945312
tagged_abstract_sents/10920726.txt,3,0.206355591311,-0.0356856883574,0.0616692308323,0.106008497564,4.36477385448e-05,0.0,0.0,0.220584500063
tagged_abstract_sents/10920726.txt,4,0.206355591311,0.0586932151818,0.194899689933,0.0581677376677,4.36477385448e-05,0.565354711238,0.118614633206,1.32165751723
tagged_abstract_sents/10920726.txt,5,0.206355591311,-0.0353387070944,0.139250797795,0.521468892835,4.36477385448e-05,0.0,0.0,0.384082798378
tagged_abstract_sents/10920726.txt,6,0.0048270313757,0.0264239577217,0.139250797795,0.521468892835,4.36477385448e-05,0.617062178991,0.0658157050142,1.16778817342
tagged_abstract_sents/10920726.txt,7,0.0048270313757,-0.0353387070944,0.0616692308323,0.106008497564,4.36477385448e-05,0.0,0.0,0.059431048367
tagged_abstract_sents/10920726.txt,8,0.0108608205953,0.0226071638285,0.0616692308323,0.106008497564,4.36477385448e-05,0.432129017244,0.0498708466271,0.557883818824
tagged_abstract_sents/10920726.txt,9,0.0108608205953,-0.0294400256232,0.0616692308323,0.106008497564,4.36477385448e-05,0.0,0.0,0.0654378160369
tagged_abstract_sents/10920726.txt,10,0.0108608205953,-0.0166017188918,0.139250797795,0.521468892835,4.36477385448e-05,0.246388093529,0.0599261526179,0.73646612308
tagged_abstract_sents/10920726.txt,11,0.0261464199517,0.00248225057385,0.139250797795,0.521468892835,4.36477385448e-05,0.529931742565,0.0962036482627,1.18239643331
tagged_abstract_sents/10920726.txt,12,0.0261464199517,0.0111567821491,0.139250797795,0.521468892835,4.36477385448e-05,0.322392306516,0.0743305939655,0.853008905859
tagged_abstract_sents/10920726.txt,13,0.0353982300885,0.0291998078258,0.139250797795,0.521468892835,4.36477385448e-05,0.542384016722,0.0705260410536,0.997194632468
tagged_abstract_sents/10920726.txt,14,0.0518905872888,0.00178828804783,0.139250797795,0.521468892835,4.36477385448e-05,0.49184596028,0.0687662164859,0.828583745134
tagged_abstract_sents/10920726.txt,15,0.0518905872888,-0.00515133721241,0.139250797795,0.521468892835,4.36477385448e-05,0.326506061376,0.0423051619246,0.635404803286
tagged_abstract_sents/10920726.txt,16,0.0993563958166,-0.0360326696205,0.139250797795,0.521468892835,4.36477385448e-05,0.0,0.0,0.298344649477
tagged_abstract_sents/10920726.txt,17,0.0993563958166,-0.000293599530241,0.139250797795,0.521468892835,4.36477385448e-05,0.279621812885,0.0403675541137,0.62552346422
tagged_abstract_sents/10920726.txt,18,0.0993563958166,-0.0329098382533,0.139250797795,0.521468892835,4.36477385448e-05,0.0,0.0,0.298969215751
tagged_abstract_sents/10920726.txt,20,0.172566371681,0.0309347141408,0.139250797795,0.521468892835,4.36477385448e-05,0.61317613393,0.113044153195,1.41917331454
tagged_abstract_sents/10920726.txt,21,0.206355591311,0.035792451823,0.139250797795,0.521468892835,4.36477385448e-05,0.680763516379,0.117653818472,1.4957025694
tagged_abstract_sents/10920726.txt,23,0.206355591311,-0.0346447445684,0.0616692308323,0.106008497564,4.36477385448e-05,0.0,0.0,0.220792688821
tagged_abstract_sents/10920726.txt,24,0.262268704747,0.0104628196231,0.0616692308323,0.106008497564,4.36477385448e-05,0.512404604332,0.0926137265037,1.12498478706
tagged_abstract_sents/10920726.txt,25,0.262268704747,-0.0353387070944,0.139250797795,0.521468892835,4.36477385448e-05,0.0,0.0,0.428813289126
tagged_abstract_sents/10920726.txt,26,0.262268704747,0.0170554636203,0.139250797795,0.521468892835,4.36477385448e-05,0.3527386933,0.0539751180893,0.846049582397
