tagged_abstract_sents/10922429.txt,2,0.0253827558421,-0.00114657576697,0.188769469584,0.123191979006,0.433557940245,0.176525090892,0.0517758227436,0.565124307735
tagged_abstract_sents/10922429.txt,3,0.0805801772764,-0.00678648899907,0.0616692308323,0.247294108221,0.433557940245,0.156038432673,0.0516495601173,0.691253057644
tagged_abstract_sents/10922429.txt,4,0.0805801772764,0.0539510381159,0.139250797795,0.194462959676,0.433557940245,0.21249032635,0.0532649071359,0.766773459725
tagged_abstract_sents/10922429.txt,5,0.123690572119,-0.0119925627518,0.139250797795,0.194462959676,0.433557940245,0.0976405523861,0.0262952101662,0.440695611197
tagged_abstract_sents/10922429.txt,6,0.140209508461,-0.0180663154633,0.139250797795,0.194462959676,0.433557940245,0.168527842477,0.0455601173021,0.787648739221
tagged_abstract_sents/10922429.txt,7,0.149073327961,0.00622869538271,0.139250797795,0.194462959676,0.433557940245,0.176361720922,0.0395242750081,0.71607350129
tagged_abstract_sents/10922429.txt,8,0.149879129734,-0.0202355128602,0.139250797795,0.194462959676,0.433557940245,0.181735150855,0.0440511101801,0.849631110263
tagged_abstract_sents/10922429.txt,9,0.176470588235,-0.0119925627518,0.139250797795,0.194462959676,0.433557940245,0.132720868775,0.0339477726575,0.720956401597
tagged_abstract_sents/10922429.txt,10,0.166800966962,-0.0271769445305,0.139250797795,0.194462959676,0.433557940245,0.134098953459,0.0610110319788,0.534860143093
tagged_abstract_sents/10922429.txt,11,0.166800966962,0.0118686086148,0.139250797795,0.194462959676,0.433557940245,0.201570488387,0.0522580645161,0.665103336412
tagged_abstract_sents/10922429.txt,12,0.0954875100725,-0.0367214130772,0.139250797795,0.194462959676,0.433557940245,0.068520293037,0.0134671779833,0.412473955888
tagged_abstract_sents/10922429.txt,13,0.0342465753425,0.0422373721723,0.139250797795,0.194462959676,0.433557940245,0.19484870754,0.0504398826979,0.578094115209
tagged_abstract_sents/10922429.txt,14,0.0342465753425,-0.011124883793,0.139250797795,0.194462959676,0.433557940245,0.150058087819,0.044613030728,0.781365629108
