tagged_abstract_sents/10931404.txt,1,0.125905068383,-0.0592537682234,0.0616692308323,0.142474783506,0.0,0.0,0.0,0.16245035153
tagged_abstract_sents/10931404.txt,2,0.239742558327,0.0400790709167,0.188769469584,0.202456734834,0.104488388606,0.471226020043,0.030697801721,0.961343826457
tagged_abstract_sents/10931404.txt,3,0.229283990346,-0.0570298986904,0.0616692308323,0.142474783506,0.0,0.0,0.0,0.245598263007
tagged_abstract_sents/10931404.txt,4,0.218020917136,0.0890042006425,0.210342442448,0.226435992083,0.261895300662,0.664934016188,0.136892880905,1.42904179044
tagged_abstract_sents/10931404.txt,5,0.162510056315,0.00746231776625,0.0616692308323,0.142474783506,0.0,0.205732823372,0.0504198703185,0.461230252764
tagged_abstract_sents/10931404.txt,6,0.118262268705,-0.060736347912,0.139250797795,0.0356431803763,0.0,0.0,0.0,0.162780898392
tagged_abstract_sents/10931404.txt,7,0.101769911504,-0.00217445021003,0.139250797795,0.0356431803763,0.0,0.186724525166,0.0417567232399,0.389780640578
tagged_abstract_sents/10931404.txt,8,0.0711987127916,-0.0170002470966,0.139250797795,0.0356431803763,0.0,0.14018458226,0.0362701171084,0.310331973193
tagged_abstract_sents/10931404.txt,9,0.0571198712792,0.0111687669879,0.139250797795,0.0356431803763,0.3713360178,0.469639092072,0.0857215335216,1.05494464682
tagged_abstract_sents/10931404.txt,10,0.0458567980692,-0.0258957252286,0.139250797795,0.0356431803763,0.0,0.200470128116,0.0408886369273,0.353183411463
tagged_abstract_sents/10931404.txt,11,0.0245374094932,-0.0118112181863,0.139250797795,0.0356431803763,0.0223264245881,0.219826761732,0.0253811902822,0.365120413569
tagged_abstract_sents/10931404.txt,12,0.0144810941271,0.0185816654312,0.139250797795,0.0356431803763,0.0,0.123069888062,0.0043758636573,0.223065313118
tagged_abstract_sents/10931404.txt,13,0.00844730490748,-0.058512478379,0.0616692308323,0.142474783506,0.0,0.0,0.0,0.068632398718
tagged_abstract_sents/10931404.txt,14,0.00120675784393,0.117914504571,0.139250797795,0.0356431803763,0.379290802185,0.599356431056,0.0822307639363,1.16574465738
tagged_abstract_sents/10931404.txt,15,0.00120675784393,0.00820360761058,0.139250797795,0.0356431803763,0.459659981741,0.46420211641,0.0767895646833,1.08357614364
