tagged_abstract_sents/10930181.txt,1,0.206355591311,-0.0711494048676,0.0616692308323,0.106008497564,0.699561838794,0.0,0.0,0.213491756761
tagged_abstract_sents/10930181.txt,3,0.0048270313757,-0.0728815064843,0.0616692308323,0.106008497564,0.699561838794,0.0,0.0,0.051922488489
tagged_abstract_sents/10930181.txt,4,0.0108608205953,-0.0613341623734,0.205068369407,0.159268805519,0.699561838794,0.0603064016475,0.0792218997568,0.286264951765
tagged_abstract_sents/10930181.txt,5,0.0108608205953,-0.0647983656067,0.0616692308323,0.106008497564,0.699561838794,0.0,0.0,0.0583661480402
tagged_abstract_sents/10930181.txt,6,0.0261464199517,0.0171877775804,0.0616692308323,0.106008497564,0.699561838794,0.15476001356,0.0818234109865,0.737016168113
tagged_abstract_sents/10930181.txt,7,0.0518905872888,-0.0272694972464,0.139250797795,0.521468892835,0.699561838794,0.0881604042423,0.0462683347714,0.447949109092
tagged_abstract_sents/10930181.txt,8,0.0993563958166,0.0177651447859,0.139250797795,0.521468892835,0.699561838794,0.220661950896,0.0813403257118,0.986388423389
tagged_abstract_sents/10930181.txt,9,0.0993563958166,-0.0723041392787,0.139250797795,0.521468892835,0.699561838794,0.0,0.0,0.291090355545
tagged_abstract_sents/10930181.txt,10,0.172566371681,0.011414105525,0.139250797795,0.521468892835,0.699561838794,0.13711092985,0.0532296650718,0.957565251662
tagged_abstract_sents/10930181.txt,11,0.206355591311,0.0737697637236,0.139250797795,0.521468892835,0.699561838794,0.189117855762,0.0760584863799,1.35416254382
tagged_abstract_sents/10930181.txt,12,0.262268704747,-0.0699946704566,0.0616692308323,0.106008497564,0.699561838794,0.0,0.0,0.258453194391
