tagged_abstract_sents/10934451.txt,1,0.0954875100725,0.0143831827402,0.188769469584,0.123191979006,0.462286572249,0.114968717202,0.0306857517074,0.82993261209
tagged_abstract_sents/10934451.txt,2,0.0954875100725,0.00525539369353,0.188769469584,0.123191979006,0.462286572249,0.156382534219,0.0865843390401,0.948449288044
tagged_abstract_sents/10934451.txt,4,0.0253827558421,-0.0297344643186,0.0616692308323,0.247294108221,0.462286572249,0.046970953536,0.0253219821,0.191675095328
tagged_abstract_sents/10934451.txt,5,0.0805801772764,-0.0211137746635,0.139250797795,0.194462959676,0.462286572249,0.0984184990119,0.0458882963795,0.837814578653
tagged_abstract_sents/10934451.txt,6,0.0805801772764,0.0422736492716,0.139250797795,0.194462959676,0.462286572249,0.160750993841,0.0504256712508,0.607934449052
tagged_abstract_sents/10934451.txt,7,0.123690572119,-0.0444403466716,0.139250797795,0.194462959676,0.462286572249,0.0,0.0,0.218028675161
tagged_abstract_sents/10934451.txt,8,0.123690572119,-0.0150285819657,0.139250797795,0.194462959676,0.462286572249,0.107190059903,0.0307325287679,0.831360791604
tagged_abstract_sents/10934451.txt,9,0.140209508461,0.0417665498801,0.139250797795,0.194462959676,0.462286572249,0.191757986341,0.0638647207409,0.968601247038
tagged_abstract_sents/10934451.txt,10,0.140209508461,-0.0444403466716,0.139250797795,0.194462959676,0.462286572249,0.0,0.0,0.231243824235
tagged_abstract_sents/10934451.txt,11,0.149073327961,0.00221279734464,0.139250797795,0.194462959676,0.462286572249,0.158647657252,0.0384039666947,0.891324692886
tagged_abstract_sents/10934451.txt,12,0.149879129734,0.0356813571824,0.139250797795,0.194462959676,0.462286572249,0.169186080038,0.0553038504203,0.69841590714
tagged_abstract_sents/10934451.txt,13,0.149879129734,-0.0444403466716,0.139250797795,0.194462959676,0.462286572249,0.0,0.0,0.238979521253
tagged_abstract_sents/10934451.txt,14,0.176470588235,-0.0185782777061,0.139250797795,0.194462959676,0.462286572249,0.0940570074652,0.0207409486388,0.915762178972
tagged_abstract_sents/10934451.txt,15,0.176470588235,0.0488659413609,0.139250797795,0.194462959676,0.462286572249,0.250412590691,0.0397605014501,0.922322989938
tagged_abstract_sents/10934451.txt,16,0.166800966962,-0.0444403466716,0.139250797795,0.194462959676,0.462286572249,0.0,0.0,0.252516991036
tagged_abstract_sents/10934451.txt,17,0.166800966962,0.00373409551909,0.139250797795,0.194462959676,0.462286572249,0.179152187934,0.0757345229478,0.955369084959
tagged_abstract_sents/10934451.txt,18,0.0954875100725,0.018439977872,0.139250797795,0.194462959676,0.462286572249,0.115819310286,0.0564657591917,0.622237288299
tagged_abstract_sents/10934451.txt,19,0.0954875100725,0.0483588419694,0.139250797795,0.194462959676,0.462286572249,0.172766422747,0.0373982598933,0.950507149091
tagged_abstract_sents/10934451.txt,20,0.0342465753425,-0.0444403466716,0.139250797795,0.194462959676,0.462286572249,0.0,0.0,0.14647347774
tagged_abstract_sents/10934451.txt,21,0.0342465753425,0.032131661442,0.139250797795,0.194462959676,0.462286572249,0.219992685783,0.0589268935557,0.909650025039
tagged_abstract_sents/10934451.txt,22,0.0342465753425,-0.00336529596164,0.139250797795,0.194462959676,0.462286572249,0.105889834951,0.0287570975194,0.751621992602
