tagged_abstract_sents/10937475.txt,1,0.125905068383,-0.0268641470889,0.188769469584,0.202456734834,0.251036971308,0.294954661884,0.0502777105441,0.846742324268
tagged_abstract_sents/10937475.txt,2,0.239742558327,0.014708886619,0.188769469584,0.202456734834,0.467004905118,0.388537302738,0.057447204129,1.26284699121
tagged_abstract_sents/10937475.txt,3,0.218020917136,-0.0038304392237,0.188769469584,0.202456734834,0.312101549976,0.275634982412,0.0358574799143,0.952366413409
tagged_abstract_sents/10937475.txt,4,0.162510056315,0.0444841675179,0.188769469584,0.202456734834,0.255160256176,0.421494014237,0.0527604537273,1.02344135794
tagged_abstract_sents/10937475.txt,5,0.101769911504,0.0281920326864,0.188769469584,0.202456734834,0.272775679796,0.369423432142,0.0570934661588,0.94146866908
tagged_abstract_sents/10937475.txt,6,0.0711987127916,-0.0139427987743,0.188769469584,0.202456734834,0.363944033654,0.270362482396,0.0353061822444,0.878904864016
tagged_abstract_sents/10937475.txt,7,0.0458567980692,0.00178753830439,0.188769469584,0.202456734834,0.247333380908,0.269045965812,0.0421723441331,0.750716392212
tagged_abstract_sents/10937475.txt,8,0.0245374094932,0.0113381001021,0.188769469584,0.202456734834,0.203505488304,0.341831839354,0.0485609834057,0.770917613922
tagged_abstract_sents/10937475.txt,9,0.00844730490748,0.00684371807967,0.188769469584,0.202456734834,0.36084931468,0.259424504497,0.0293436859068,0.812865847868
tagged_abstract_sents/10937475.txt,10,0.00120675784393,-0.023493360572,0.188769469584,0.202456734834,0.526415600895,0.309159856686,0.0427409903311,1.02970493732
tagged_abstract_sents/10937475.txt,11,0.00120675784393,-0.0392236976507,0.188769469584,0.202456734834,0.400087813562,0.245480569612,0.031504926982,0.825315732144
