tagged_abstract_sents/10930181.txt,1,0.125905068383,-0.0711494048676,0.0616692308323,0.142474783506,0.0,0.0,0.0,0.160071224201
tagged_abstract_sents/10930181.txt,2,0.239742558327,0.12861964825,0.188769469584,0.202456734834,0.531675392849,0.214831152536,0.0945386647972,1.21368494174
tagged_abstract_sents/10930181.txt,3,0.218020917136,-0.0728815064843,0.0616692308323,0.142474783506,0.0,0.0,0.0,0.23341748288
tagged_abstract_sents/10930181.txt,4,0.162510056315,-0.0613341623734,0.205068369407,0.26003320229,0.0,0.0603064016475,0.0792218997568,0.437813659373
tagged_abstract_sents/10930181.txt,5,0.162510056315,-0.0647983656067,0.0616692308323,0.142474783506,0.0,0.0,0.0,0.190625422399
tagged_abstract_sents/10930181.txt,6,0.101769911504,0.0171877775804,0.0616692308323,0.142474783506,0.413440887404,0.15476001356,0.0818234109865,0.808454847138
tagged_abstract_sents/10930181.txt,7,0.0711987127916,-0.0272694972464,0.139250797795,0.0356431803763,0.051395732949,0.0881604042423,0.0462683347714,0.317647895757
tagged_abstract_sents/10930181.txt,8,0.0458567980692,0.0177651447859,0.139250797795,0.0356431803763,0.375281934423,0.220661950896,0.0813403257118,0.797841031454
tagged_abstract_sents/10930181.txt,9,0.0458567980692,-0.0723041392787,0.139250797795,0.0356431803763,0.0,0.0,0.0,0.10254296361
tagged_abstract_sents/10930181.txt,10,0.0245374094932,0.011414105525,0.139250797795,0.0356431803763,0.400822671542,0.13711092985,0.0532296650718,0.693394368174
tagged_abstract_sents/10930181.txt,11,0.00844730490748,0.0737697637236,0.139250797795,0.0356431803763,0.683081709136,0.189117855762,0.0760584863799,1.05008820096
tagged_abstract_sents/10930181.txt,12,0.00120675784393,-0.0699946704566,0.0616692308323,0.142474783506,0.0,0.0,0.0,0.0605435226517
tagged_abstract_sents/10930181.txt,13,0.00120675784393,0.190975306449,0.139250797795,0.0356431803763,0.699561838794,0.24252794126,0.0938555404906,1.15542414112
