tagged_abstract_sents/10940092.txt,1,0.0954875100725,-0.0292130201895,0.0616692308323,0.247294108221,0.542342977713,0.0,0.0,0.175570251903
tagged_abstract_sents/10940092.txt,2,0.0954875100725,0.00828182941904,0.188769469584,0.123191979006,0.542342977713,0.298166765915,0.0375622619396,0.949965483301
tagged_abstract_sents/10940092.txt,3,0.00564061240935,-0.0288009888752,0.188769469584,0.123191979006,0.542342977713,0.0,0.0,0.130094620647
tagged_abstract_sents/10940092.txt,4,0.0253827558421,0.00251339101772,0.188769469584,0.123191979006,0.542342977713,0.189909704046,0.0248705928313,0.856819480637
tagged_abstract_sents/10940092.txt,5,0.0253827558421,-0.0110836423568,0.188769469584,0.123191979006,0.542342977713,0.142944290424,0.0378755437355,0.796350239969
tagged_abstract_sents/10940092.txt,6,0.0451248992748,-0.00778739184178,0.188769469584,0.123191979006,0.542342977713,0.13550338481,0.03197333724,0.742055271409
tagged_abstract_sents/10940092.txt,7,0.0805801772764,0.0433044911413,0.0616692308323,0.247294108221,0.542342977713,0.356009032378,0.0369665006348,1.02306124274
tagged_abstract_sents/10940092.txt,8,0.0805801772764,-0.0300370828183,0.0616692308323,0.247294108221,0.542342977713,0.0,0.0,0.16347957314
tagged_abstract_sents/10940092.txt,9,0.116035455278,0.0198187062217,0.194899689933,0.293363477728,0.542342977713,0.255019534455,0.0408120910245,1.02345166428
tagged_abstract_sents/10940092.txt,10,0.123690572119,0.0231149567367,0.0616692308323,0.247294108221,0.542342977713,0.23394537039,0.0243472669857,0.899318740719
tagged_abstract_sents/10940092.txt,12,0.131345688961,-0.0073753605274,0.0616692308323,0.247294108221,0.542342977713,0.193821029051,0.046806328743,0.870509101787
tagged_abstract_sents/10940092.txt,13,0.140209508461,-0.00984754841368,0.0616692308323,0.247294108221,0.542342977713,0.179605395779,0.0201749612825,0.794902047747
tagged_abstract_sents/10940092.txt,14,0.140209508461,-0.0176761433869,0.0616692308323,0.247294108221,0.542342977713,0.0465356923678,0.011583860031,0.271837957154
tagged_abstract_sents/10940092.txt,15,0.149073327961,-0.00449114132674,0.0616692308323,0.247294108221,0.542342977713,0.156672053847,0.016120489531,0.601493742859
tagged_abstract_sents/10940092.txt,16,0.149879129734,-0.00613926658426,0.0616692308323,0.247294108221,0.542342977713,0.196974818018,0.0219793803106,0.645099202825
tagged_abstract_sents/10940092.txt,17,0.149879129734,-0.0139678615575,0.0616692308323,0.247294108221,0.542342977713,0.117445212719,0.0210358788589,0.591357674905
tagged_abstract_sents/10940092.txt,18,0.150684931507,0.0317676143387,0.0616692308323,0.247294108221,0.542342977713,0.328910573402,0.0341006201778,0.917535077866
tagged_abstract_sents/10940092.txt,19,0.176470588235,0.0321796456531,0.0616692308323,0.247294108221,0.542342977713,0.404067629909,0.0534156731051,1.0305138039
tagged_abstract_sents/10940092.txt,20,0.176470588235,-0.0300370828183,0.0616692308323,0.247294108221,0.542342977713,0.0,0.0,0.240191901907
tagged_abstract_sents/10940092.txt,21,0.202256244964,0.0148743304491,0.139250797795,0.194462959676,0.542342977713,0.248869452047,0.0323436533516,0.962785548713
tagged_abstract_sents/10940092.txt,22,0.166800966962,-0.00490317264112,0.139250797795,0.194462959676,0.542342977713,0.135967723873,0.0180315460494,0.81430143182
tagged_abstract_sents/10940092.txt,23,0.166800966962,0.0128141738772,0.139250797795,0.194462959676,0.542342977713,0.219114184137,0.0332918253736,0.777371946698
tagged_abstract_sents/10940092.txt,24,0.131345688961,0.000453234445818,0.139250797795,0.194462959676,0.542342977713,0.204596630819,0.0299956050396,0.996168897773
tagged_abstract_sents/10940092.txt,25,0.0954875100725,-0.00284301606922,0.139250797795,0.194462959676,0.542342977713,0.226636129978,0.045910101515,1.14135297765
tagged_abstract_sents/10940092.txt,26,0.0954875100725,-0.0011948908117,0.139250797795,0.194462959676,0.542342977713,0.254829700862,0.0441083113585,1.01651583492
tagged_abstract_sents/10940092.txt,27,0.0342465753425,-0.0283889575608,0.0616692308323,0.247294108221,0.542342977713,0.0,0.0,0.126742316644
tagged_abstract_sents/10940092.txt,28,0.0342465753425,0.00416151627524,0.139250797795,0.194462959676,0.542342977713,0.307254657749,0.0428369120868,0.987634501564
tagged_abstract_sents/10940092.txt,29,0.0342465753425,0.0124021425628,0.139250797795,0.194462959676,0.542342977713,0.326868914956,0.0487426591422,1.11371989767
tagged_abstract_sents/10940092.txt,30,0.0342465753425,0.0156983930779,0.139250797795,0.194462959676,0.542342977713,0.284534316378,0.0388221506006,1.02420067038
