tagged_abstract_sents/10960882.txt,1,0.206355591311,-0.0528936269916,0.188769469584,0.129715814208,0.555500062557,0.0858581528538,0.0138946972232,0.734663774788
tagged_abstract_sents/10960882.txt,2,0.206355591311,0.0373125585754,0.188769469584,0.129715814208,0.555500062557,0.24317298421,0.0423009367681,0.726494117386
tagged_abstract_sents/10960882.txt,4,0.0108608205953,-0.0180998125586,0.188769469584,0.129715814208,0.555500062557,0.200285490398,0.0223885148322,0.706021910641
tagged_abstract_sents/10960882.txt,5,0.0261464199517,0.0237816307404,0.194899689933,0.0581677376677,0.555500062557,0.166116127193,0.0296622034416,0.571417052958
tagged_abstract_sents/10960882.txt,6,0.0518905872888,-0.0309864104967,0.0616692308323,0.106008497564,0.555500062557,0.135407432845,0.0513527671638,0.411211867522
tagged_abstract_sents/10960882.txt,7,0.0993563958166,0.00187441424555,0.0616692308323,0.106008497564,0.555500062557,0.174707850823,0.0335806611421,0.469795561994
tagged_abstract_sents/10960882.txt,8,0.172566371681,-0.0161668228679,0.139250797795,0.521468892835,0.555500062557,0.161121152819,0.0435485669678,0.878536305989
tagged_abstract_sents/10960882.txt,9,0.206355591311,0.012828022493,0.139250797795,0.521468892835,0.555500062557,0.183504367728,0.0313292837627,0.853041231459
tagged_abstract_sents/10960882.txt,10,0.262268704747,0.0392455482662,0.139250797795,0.521468892835,0.555500062557,0.159429314424,0.0235056951245,0.833241852046
