tagged_abstract_sents/10979796.txt,1,0.125905068383,-0.049772169646,0.0616692308323,0.142474783506,0.0,0.0,0.0,0.164346671245
tagged_abstract_sents/10979796.txt,2,0.239742558327,0.0227830354013,0.188769469584,0.202456734834,0.248961651167,0.184237820743,0.0527044639948,0.837376344889
tagged_abstract_sents/10979796.txt,3,0.239742558327,-0.021906764809,0.188769469584,0.202456734834,0.310306704523,0.0804162420696,0.0338416422287,0.767099037763
tagged_abstract_sents/10979796.txt,4,0.218020917136,-0.0513494567122,0.0616692308323,0.142474783506,0.0,0.0,0.0,0.237723892834
tagged_abstract_sents/10979796.txt,5,0.218020917136,0.0443392919734,0.210342442448,0.226435992083,0.25091031937,0.186114564835,0.0560497447594,0.849461239917
tagged_abstract_sents/10979796.txt,6,0.162510056315,0.00753592709429,0.0616692308323,0.142474783506,0.333701461188,0.13605157292,0.0402527579947,0.715098073043
tagged_abstract_sents/10979796.txt,7,0.162510056315,-0.0229582895198,0.0616692308323,0.142474783506,0.388601503915,0.0864744571146,0.0552492668622,0.729318665508
tagged_abstract_sents/10979796.txt,8,0.101769911504,-0.0266386260077,0.0616692308323,0.142474783506,0.194877438105,0.150480840793,0.05648493735,0.551508470718
tagged_abstract_sents/10979796.txt,9,0.0852775543041,0.00175254118472,0.0616692308323,0.142474783506,0.234324086322,0.108320302664,0.0384408602151,0.523234851349
tagged_abstract_sents/10979796.txt,10,0.0711987127916,-0.0513494567122,0.0616692308323,0.142474783506,0.0,0.0,0.0,0.120266129359
tagged_abstract_sents/10979796.txt,11,0.0458567980692,0.0785138450754,0.139250797795,0.0356431803763,0.289798382506,0.190725722786,0.0500451161741,0.663275781947
tagged_abstract_sents/10979796.txt,12,0.0458567980692,0.0690501226779,0.139250797795,0.0356431803763,0.327541879237,0.178953699707,0.0496715542522,0.686980949197
tagged_abstract_sents/10979796.txt,13,0.0245374094932,0.0196284612688,0.139250797795,0.0356431803763,0.391917807315,0.160798097348,0.0501848782354,0.706774755757
tagged_abstract_sents/10979796.txt,14,0.0245374094932,0.0159481247809,0.139250797795,0.0356431803763,0.398929430611,0.152714837793,0.0564716075713,0.711253781537
tagged_abstract_sents/10979796.txt,15,0.00844730490748,0.0127935506484,0.139250797795,0.0356431803763,0.320510001309,0.141787484756,0.0638179025276,0.615750295659
tagged_abstract_sents/10979796.txt,16,0.00844730490748,-0.0339992989835,0.139250797795,0.0356431803763,0.403708772273,0.0768001105327,0.0287494763301,0.589534696275
tagged_abstract_sents/10979796.txt,17,0.00120675784393,-0.0492464072906,0.0616692308323,0.142474783506,0.0,0.0,0.0,0.0646931752849
tagged_abstract_sents/10979796.txt,18,0.00120675784393,0.0348755695759,0.139250797795,0.0356431803763,0.277154134015,0.207982351101,0.0582212559409,0.631616614258
