tagged_abstract_sents/10989401.txt,1,0.125905068383,-0.0446406410666,0.0616692308323,0.142474783506,0.0,0.0,0.0,0.165372976961
tagged_abstract_sents/10989401.txt,2,0.125905068383,0.0380101407652,0.188769469584,0.202456734834,0.379234053268,0.230370632222,0.0432937181664,0.916346241759
tagged_abstract_sents/10989401.txt,3,0.239742558327,-0.0438960394284,0.0616692308323,0.142474783506,0.0,0.0,0.0,0.256591889243
tagged_abstract_sents/10989401.txt,4,0.239742558327,0.0141828883452,0.188769469584,0.202456734834,0.418101958933,0.263494950824,0.0474834627552,1.07883275208
tagged_abstract_sents/10989401.txt,5,0.218020917136,-0.0405453320569,0.0616692308323,0.142474783506,0.0,0.0,0.0,0.239884717765
tagged_abstract_sents/10989401.txt,6,0.218020917136,0.00599227032585,0.210342442448,0.226435992083,0.235927327012,0.165143283077,0.0316520988858,0.781439915599
tagged_abstract_sents/10989401.txt,7,0.162510056315,-0.0442683402475,0.0616692308323,0.142474783506,0.0,0.0,0.0,0.194731427471
tagged_abstract_sents/10989401.txt,8,0.162510056315,0.00673687196398,0.210342442448,0.226435992083,0.422563498198,0.152914361747,0.0568108283003,0.936746126539
tagged_abstract_sents/10989401.txt,9,0.101769911504,0.0134382867071,0.194899689933,0.13295610691,0.145316380366,0.25138696096,0.0318377911993,0.64998139611
tagged_abstract_sents/10989401.txt,10,0.101769911504,-0.0394284295997,0.0616692308323,0.142474783506,0.0,0.0,0.0,0.147107293751
tagged_abstract_sents/10989401.txt,11,0.0711987127916,0.0659327021948,0.139250797795,0.0356431803763,0.255262988206,0.264081447508,0.0599587467645,0.729767046161
tagged_abstract_sents/10989401.txt,12,0.0711987127916,-0.0446406410666,0.139250797795,0.0356431803763,0.0,0.0,0.0,0.12834919503
tagged_abstract_sents/10989401.txt,13,0.0458567980692,-0.0286317058469,0.139250797795,0.0356431803763,2.85182162623e-05,0.102068213444,0.0895572691976,0.302931451154
tagged_abstract_sents/10989401.txt,14,0.0458567980692,0.0123213842499,0.139250797795,0.0356431803763,0.339098296747,0.17896621708,0.0358442435383,0.673376825681
tagged_abstract_sents/10989401.txt,15,0.0245374094932,0.0942275644435,0.139250797795,0.0356431803763,0.129491413987,0.250606204567,0.0370578084556,0.535949220503
tagged_abstract_sents/10989401.txt,16,0.0245374094932,0.0953444669007,0.139250797795,0.0356431803763,0.103322909524,0.317948056587,0.048238045502,0.588526185598
tagged_abstract_sents/10989401.txt,17,0.00844730490748,-0.0282594050278,0.139250797795,0.0356431803763,0.279969419781,0.128623412748,0.0382102797979,0.528227428257
tagged_abstract_sents/10989401.txt,18,0.00844730490748,-0.0431514377903,0.139250797795,0.0356431803763,0.0,0.0,0.0,0.0784459093782
tagged_abstract_sents/10989401.txt,19,0.00120675784393,0.0220012055455,0.139250797795,0.0356431803763,0.454023228837,0.289283028883,0.0535745100456,0.882564768161
tagged_abstract_sents/10989401.txt,20,0.00120675784393,0.0275857178314,0.139250797795,0.0356431803763,0.425401975188,0.290261657993,0.0519083388316,0.854372874865
tagged_abstract_sents/10989401.txt,21,0.00120675784393,-0.0383115271425,0.139250797795,0.0356431803763,0.0,0.0,0.0,0.0736214538569
