tagged_abstract_sents/10990583.txt,1,0.0954875100725,-0.0508327550312,0.188769469584,0.123191979006,0.433337448189,0.0892190527531,0.0538014386082,0.491801690961
tagged_abstract_sents/10990583.txt,2,0.0253827558421,-0.0660999306037,0.188769469584,0.123191979006,0.433337448189,0.0840322058841,0.0432645394223,0.544531136935
tagged_abstract_sents/10990583.txt,3,0.0805801772764,0.0337728429331,0.188769469584,0.123191979006,0.433337448189,0.175161094218,0.0561262507984,0.796054537632
tagged_abstract_sents/10990583.txt,5,0.140209508461,0.0865718251214,0.188769469584,0.123191979006,0.433337448189,0.167890336804,0.0600361046058,0.61106680822
tagged_abstract_sents/10990583.txt,6,0.149879129734,-0.0597386074485,0.0616692308323,0.247294108221,0.433337448189,0.0398095778908,0.0289650013011,0.317489684165
tagged_abstract_sents/10990583.txt,7,0.176470588235,0.0604904001851,0.139250797795,0.194462959676,0.433337448189,0.220856627382,0.047624468731,0.78310322236
tagged_abstract_sents/10990583.txt,8,0.166800966962,-0.0158454776775,0.139250797795,0.194462959676,0.433337448189,0.108985262279,0.0290070946411,0.732951776727
tagged_abstract_sents/10990583.txt,9,0.0954875100725,0.0185056673606,0.139250797795,0.194462959676,0.433337448189,0.143373763057,0.0716864614698,0.648394990192
tagged_abstract_sents/10990583.txt,10,0.0342465753425,0.0191417996762,0.139250797795,0.194462959676,0.433337448189,0.205195453568,0.0567447306792,0.716399189742
tagged_abstract_sents/10990583.txt,11,0.0342465753425,-0.0088480222068,0.139250797795,0.194462959676,0.433337448189,0.149536030055,0.0452283372365,0.781693758113
