tagged_abstract_sents/11014393.txt,1,0.206355591311,-0.0518451623497,0.0616692308323,0.106008497564,0.315199625909,0.0,0.0,0.217352605264
tagged_abstract_sents/11014393.txt,3,0.206355591311,-0.0539386724683,0.0616692308323,0.106008497564,0.315199625909,0.0,0.0,0.216933903241
tagged_abstract_sents/11014393.txt,4,0.0048270313757,-0.0302122244571,0.210342442448,0.0253702522065,0.315199625909,0.0452684935616,0.0,0.155869970657
tagged_abstract_sents/11014393.txt,5,0.0048270313757,-0.0525429990559,0.0616692308323,0.106008497564,0.315199625909,0.0,0.0,0.0559901899747
tagged_abstract_sents/11014393.txt,6,0.0108608205953,0.110750790197,0.210342442448,0.0253702522065,0.315199625909,0.186677735024,0.0,0.459725980885
tagged_abstract_sents/11014393.txt,7,0.0261464199517,0.082837321949,0.0616692308323,0.106008497564,0.315199625909,0.141494432264,0.00695014662757,0.334574059286
tagged_abstract_sents/11014393.txt,8,0.0261464199517,-0.0469603054062,0.210342442448,0.0253702522065,0.315199625909,0.0,0.0,0.124307371766
tagged_abstract_sents/11014393.txt,9,0.0518905872888,0.0472476499323,0.0616692308323,0.106008497564,0.315199625909,0.122341047267,0.00926686217009,0.326082769019
tagged_abstract_sents/11014393.txt,10,0.0518905872888,-0.0532408357621,0.0616692308323,0.106008497564,0.315199625909,0.0,0.0,0.0935014673639
tagged_abstract_sents/11014393.txt,11,0.0993563958166,-0.00369442962112,0.139250797795,0.521468892835,0.315199625909,0.117254349208,0.0,0.677848915189
tagged_abstract_sents/11014393.txt,13,0.172566371681,0.00677312097205,0.139250797795,0.521468892835,0.315199625909,0.0896329202292,0.0106925332732,0.713392677831
tagged_abstract_sents/11014393.txt,14,0.206355591311,-0.0155576536267,0.139250797795,0.521468892835,0.315199625909,0.0835954360302,0.0,0.703683614147
tagged_abstract_sents/11014393.txt,15,0.206355591311,-0.0504494889372,0.0616692308323,0.106008497564,0.315199625909,0.0,0.0,0.217631739947
tagged_abstract_sents/11014393.txt,16,0.262268704747,0.0367800993391,0.139250797795,0.521468892835,0.315199625909,0.175947407969,0.0,0.796152485132
tagged_abstract_sents/11014393.txt,17,0.262268704747,-0.00509010303354,0.139250797795,0.521468892835,0.315199625909,0.0809122936791,0.0,0.830974929527
