tagged_abstract_sents/11015972.txt,1,0.206355591311,-0.0700878069299,0.0616692308323,0.106008497564,0.431795400734,0.0,0.0,0.213704076348
tagged_abstract_sents/11015972.txt,3,0.0048270313757,-0.068037225932,0.0616692308323,0.106008497564,0.431795400734,0.0,0.0,0.0528913445995
tagged_abstract_sents/11015972.txt,4,0.0108608205953,0.0474788369525,0.210342442448,0.0253702522065,0.431795400734,0.0903556646417,0.0434025637865,0.412156718902
tagged_abstract_sents/11015972.txt,5,0.0108608205953,0.123350333877,0.0616692308323,0.106008497564,0.431795400734,0.105937463422,0.0441472533794,0.340040619798
tagged_abstract_sents/11015972.txt,6,0.0261464199517,0.0522635259477,0.0616692308323,0.106008497564,0.431795400734,0.113718542197,0.0867126833477,0.467932983777
tagged_abstract_sents/11015972.txt,7,0.0518905872888,0.0180871759819,0.210342442448,0.0253702522065,0.431795400734,0.0664509629536,0.0602008000628,0.448200940077
tagged_abstract_sents/11015972.txt,8,0.0993563958166,-0.00241863399758,0.0616692308323,0.106008497564,0.431795400734,0.0528196800721,0.022584124245,0.574809380647
tagged_abstract_sents/11015972.txt,9,0.0993563958166,-0.0714548609285,0.0616692308323,0.106008497564,0.431795400734,0.0,0.0,0.127831309153
tagged_abstract_sents/11015972.txt,10,0.172566371681,-0.0188232819812,0.210342442448,0.0253702522065,0.431795400734,0.0302267234067,0.0769135954641,0.354211056706
tagged_abstract_sents/11015972.txt,11,0.206355591311,-0.0694042799306,0.0616692308323,0.106008497564,0.431795400734,0.0,0.0,0.213840781748
tagged_abstract_sents/11015972.txt,12,0.262268704747,-0.0188232819812,0.139250797795,0.521468892835,0.431795400734,0.0452620335797,0.114634263254,0.866503753641
