tagged_abstract_sents/11036118.txt,1,0.206355591311,-0.0569331983806,0.0616692308323,0.106008497564,0.357598711962,0.0,0.0,0.216334998058
tagged_abstract_sents/11036118.txt,3,0.206355591311,-0.019483805668,0.188769469584,0.129715814208,0.357598711962,0.122943351616,0.0464963728971,0.533611414187
tagged_abstract_sents/11036118.txt,4,0.0048270313757,-0.058451417004,0.0616692308323,0.106008497564,0.357598711962,0.0,0.0,0.054808506385
tagged_abstract_sents/11036118.txt,5,0.0108608205953,-0.0134109311741,0.210342442448,0.0253702522065,0.357598711962,0.114628152016,0.0199169110459,0.742693635964
tagged_abstract_sents/11036118.txt,7,0.0261464199517,-0.022520242915,0.0616692308323,0.106008497564,0.357598711962,0.116191150612,0.0224706744868,0.487875406959
tagged_abstract_sents/11036118.txt,8,0.0353982300885,-0.0290991902834,0.0616692308323,0.106008497564,0.357598711962,0.124889555493,0.0408846529814,0.428322921991
tagged_abstract_sents/11036118.txt,9,0.0518905872888,-0.058451417004,0.0616692308323,0.106008497564,0.357598711962,0.0,0.0,0.0924593511155
tagged_abstract_sents/11036118.txt,10,0.0993563958166,0.0680668016194,0.139250797795,0.521468892835,0.357598711962,0.217596925028,0.0376571009636,0.738167194514
tagged_abstract_sents/11036118.txt,11,0.0993563958166,0.0432692307692,0.139250797795,0.521468892835,0.357598711962,0.14809011443,0.0303152492669,0.705161400107
tagged_abstract_sents/11036118.txt,12,0.172566371681,-0.0260627530364,0.139250797795,0.521468892835,0.357598711962,0.126143190865,0.0337760910816,0.819727897615
tagged_abstract_sents/11036118.txt,13,0.206355591311,0.196103238866,0.139250797795,0.521468892835,0.357598711962,0.265115180428,0.0361038961039,0.831076075681
tagged_abstract_sents/11036118.txt,14,0.206355591311,0.0164473684211,0.139250797795,0.521468892835,0.357598711962,0.16704968083,0.0353882442943,0.928459312984
tagged_abstract_sents/11036118.txt,15,0.262268704747,-0.0564271255061,0.0616692308323,0.106008497564,0.357598711962,0.0,0.0,0.261166703381
tagged_abstract_sents/11036118.txt,16,0.262268704747,-0.0103744939271,0.139250797795,0.521468892835,0.357598711962,0.197205020609,0.0326164874552,1.02122635179
