tagged_abstract_sents/11030804.txt,1,0.0954875100725,-0.0397082325944,0.0616692308323,0.247294108221,0.0,0.0,0.0,0.173471209422
tagged_abstract_sents/11030804.txt,2,0.0954875100725,0.0531287136827,0.188769469584,0.123191979006,0.0,0.767909742511,0.0662917623578,1.50882950828
tagged_abstract_sents/11030804.txt,3,0.0253827558421,-0.0387657255256,0.0616692308323,0.247294108221,0.0,0.0,0.0,0.117575907451
tagged_abstract_sents/11030804.txt,4,0.0253827558421,0.0394623611851,0.188769469584,0.123191979006,0.0,0.637534659138,0.0746674605489,1.01726587724
tagged_abstract_sents/11030804.txt,5,0.0805801772764,-0.0401794861288,0.0616692308323,0.247294108221,0.0,0.0,0.0,0.161451092478
tagged_abstract_sents/11030804.txt,7,0.123690572119,-0.0368807113879,0.0616692308323,0.247294108221,0.0,0.0,0.0,0.1965991633
tagged_abstract_sents/11030804.txt,8,0.123690572119,-0.0133180346679,0.0616692308323,0.247294108221,0.0,0.350185261331,0.0748236548556,1.16007407892
tagged_abstract_sents/11030804.txt,9,0.123690572119,-0.0373519649223,0.0616692308323,0.247294108221,0.0,0.0,0.0,0.196504912593
tagged_abstract_sents/11030804.txt,10,0.140209508461,0.0319223046347,0.210342442448,0.141687475369,0.0,0.531908239741,0.0655161854768,1.14436516929
tagged_abstract_sents/11030804.txt,11,0.140209508461,-0.00766299225505,0.0616692308323,0.247294108221,0.0,0.310321359044,0.0675750492126,1.25279069535
tagged_abstract_sents/11030804.txt,12,0.149879129734,-0.0331106831127,0.0616692308323,0.247294108221,0.0,0.0,0.0,0.218304015047
tagged_abstract_sents/11030804.txt,13,0.149879129734,0.00647461377699,0.0616692308323,0.247294108221,0.0,0.331078750764,0.0575208429829,1.18617868174
tagged_abstract_sents/11030804.txt,14,0.176470588235,-0.0397082325944,0.0616692308323,0.247294108221,0.0,0.0,0.0,0.238257671952
tagged_abstract_sents/11030804.txt,15,0.176470588235,0.0305085440315,0.139250797795,0.194462959676,0.0,0.383233955569,0.0712517843164,1.27523767781
tagged_abstract_sents/11030804.txt,16,0.176470588235,-0.0199155841495,0.139250797795,0.194462959676,0.0,0.20480413743,0.0447606809565,1.02439415349
tagged_abstract_sents/11030804.txt,17,0.166800966962,0.085173954022,0.139250797795,0.194462959676,0.0,0.500767827446,0.0734028491004,1.39407319656
tagged_abstract_sents/11030804.txt,18,0.166800966962,0.0470024177355,0.139250797795,0.194462959676,0.0,0.447007601575,0.0525975919677,1.41430089139
tagged_abstract_sents/11030804.txt,19,0.0954875100725,0.0418186288571,0.139250797795,0.194462959676,0.0,0.577182655504,0.0736148966956,0.918470819657
tagged_abstract_sents/11030804.txt,20,0.0954875100725,-0.0382944719911,0.139250797795,0.194462959676,0.0,0.0,0.0,0.19669540046
tagged_abstract_sents/11030804.txt,21,0.0342465753425,0.013543416793,0.139250797795,0.194462959676,0.0,0.514344982959,0.0632298680056,1.20929751058
tagged_abstract_sents/11030804.txt,22,0.0342465753425,-0.0378232184567,0.0616692308323,0.247294108221,0.0,0.0,0.0,0.124855464465
tagged_abstract_sents/11030804.txt,23,0.0342465753425,-0.0354669507847,0.139250797795,0.194462959676,0.0,0.0,0.0,0.148268156917
