tagged_abstract_sents/11034750.txt,1,0.125905068383,-0.03973549122,0.0616692308323,0.142474783506,0.0,0.0,0.0,0.16635400693
tagged_abstract_sents/11034750.txt,2,0.125905068383,0.00551799636079,0.188769469584,0.202456734834,0.316059817275,0.151124851311,0.0436550253266,0.767789103133
tagged_abstract_sents/11034750.txt,3,0.239742558327,-0.0234034054766,0.188769469584,0.202456734834,0.364185241286,0.0547706681698,0.0335510530525,0.794742083317
tagged_abstract_sents/11034750.txt,4,0.239742558327,-0.03973549122,0.0616692308323,0.142474783506,0.0,0.0,0.0,0.257423998885
tagged_abstract_sents/11034750.txt,5,0.218020917136,0.0361406571298,0.0616692308323,0.142474783506,0.21654194838,0.221243846574,0.0399071358749,0.732914846432
tagged_abstract_sents/11034750.txt,6,0.218020917136,-0.0380342322884,0.0616692308323,0.142474783506,0.0,0.0,0.0,0.240386937719
tagged_abstract_sents/11034750.txt,7,0.162510056315,0.0276343624717,0.0616692308323,0.142474783506,0.155257087233,0.13330344602,0.0430875576037,0.540760058871
tagged_abstract_sents/11034750.txt,8,0.162510056315,0.0177670606684,0.0616692308323,0.142474783506,0.194289307491,0.178014399737,0.0437184750733,0.623160689955
tagged_abstract_sents/11034750.txt,9,0.162510056315,-0.0305486929893,0.0616692308323,0.142474783506,0.000118806530666,0.0791416754228,0.0412128194386,0.317948658314
tagged_abstract_sents/11034750.txt,10,0.101769911504,-0.0370134769294,0.0616692308323,0.142474783506,0.0,0.0,0.0,0.147590284286
tagged_abstract_sents/11034750.txt,11,0.101769911504,0.000754471352279,0.139250797795,0.0356431803763,0.310485501089,0.154125466191,0.0523193814983,0.678815525262
tagged_abstract_sents/11034750.txt,12,0.0711987127916,0.07867213042,0.139250797795,0.0356431803763,0.22079960685,0.23114200163,0.042761485826,0.647714843633
tagged_abstract_sents/11034750.txt,13,0.0711987127916,-0.0336109590662,0.0616692308323,0.142474783506,0.0,0.0,0.0,0.123813828888
tagged_abstract_sents/11034750.txt,14,0.0458567980692,0.00960101779665,0.0616692308323,0.142474783506,0.208370086852,0.189994631194,0.0441574554478,0.554704865976
tagged_abstract_sents/11034750.txt,15,0.0458567980692,-0.0257851679808,0.0616692308323,0.142474783506,0.000183599196265,0.0436843279846,0.0214809384164,0.170454320924
tagged_abstract_sents/11034750.txt,16,0.0458567980692,0.0167463053094,0.0616692308323,0.142474783506,0.14341226343,0.136839026316,0.0523167155425,0.446179755273
tagged_abstract_sents/11034750.txt,17,0.0245374094932,-0.0390549876474,0.0616692308323,0.142474783506,0.0,0.0,0.0,0.0853959805329
tagged_abstract_sents/11034750.txt,18,0.0245374094932,-0.00094678757933,0.139250797795,0.0356431803763,0.202779284373,0.118466986858,0.0305988578484,0.451604052168
tagged_abstract_sents/11034750.txt,19,0.00844730490748,0.104191014394,0.139250797795,0.0356431803763,0.0443240702268,0.174846489032,0.0415017106549,0.368586669729
tagged_abstract_sents/11034750.txt,20,0.00844730490748,-0.0135361036732,0.139250797795,0.0356431803763,0.260016658094,0.103453763834,0.0441807184751,0.492020116604
tagged_abstract_sents/11034750.txt,21,0.00120675784393,0.00483749278814,0.139250797795,0.0356431803763,0.205844435735,0.173064919265,0.0453934506354,0.506554063478
tagged_abstract_sents/11034750.txt,22,0.00120675784393,-0.0356524697842,0.139250797795,0.0356431803763,0.0,0.0,0.0,0.0741532653286
tagged_abstract_sents/11034750.txt,23,0.00120675784393,0.0551947571638,0.139250797795,0.0356431803763,0.151627749333,0.192629661241,0.0316715542522,0.468251675544
