tagged_abstract_sents/11036118.txt,1,0.0954875100725,-0.0569331983806,0.0616692308323,0.247294108221,0.357598711962,0.0,0.0,0.170026216264
tagged_abstract_sents/11036118.txt,3,0.0253827558421,-0.019483805668,0.188769469584,0.123191979006,0.357598711962,0.122943351616,0.0464963728971,0.386875995251
tagged_abstract_sents/11036118.txt,4,0.0805801772764,-0.058451417004,0.0616692308323,0.247294108221,0.357598711962,0.0,0.0,0.157796706303
tagged_abstract_sents/11036118.txt,5,0.123690572119,-0.0134109311741,0.210342442448,0.141687475369,0.357598711962,0.114628152016,0.0199169110459,0.867852604132
tagged_abstract_sents/11036118.txt,6,0.123690572119,0.0129048582996,0.194899689933,0.293363477728,0.357598711962,0.189475524376,0.0379882697947,0.886656129713
tagged_abstract_sents/11036118.txt,7,0.140209508461,-0.022520242915,0.0616692308323,0.247294108221,0.357598711962,0.116191150612,0.0224706744868,0.621511560964
tagged_abstract_sents/11036118.txt,8,0.149073327961,-0.0290991902834,0.0616692308323,0.247294108221,0.357598711962,0.124889555493,0.0408846529814,0.561648683486
tagged_abstract_sents/11036118.txt,9,0.149879129734,-0.058451417004,0.0616692308323,0.247294108221,0.357598711962,0.0,0.0,0.213235868269
tagged_abstract_sents/11036118.txt,10,0.176470588235,0.0680668016194,0.139250797795,0.194462959676,0.357598711962,0.217596925028,0.0376571009636,0.701756768501
tagged_abstract_sents/11036118.txt,11,0.176470588235,0.0432692307692,0.139250797795,0.194462959676,0.357598711962,0.14809011443,0.0303152492669,0.668750974094
tagged_abstract_sents/11036118.txt,12,0.166800966962,-0.0260627530364,0.139250797795,0.194462959676,0.357598711962,0.126143190865,0.0337760910816,0.717013793892
tagged_abstract_sents/11036118.txt,13,0.0954875100725,0.196103238866,0.139250797795,0.194462959676,0.357598711962,0.265115180428,0.0361038961039,0.644279830743
tagged_abstract_sents/11036118.txt,14,0.0954875100725,0.0164473684211,0.139250797795,0.194462959676,0.357598711962,0.16704968083,0.0353882442943,0.741663068045
tagged_abstract_sents/11036118.txt,15,0.0342465753425,-0.0564271255061,0.0616692308323,0.247294108221,0.357598711962,0.0,0.0,0.121134683055
tagged_abstract_sents/11036118.txt,16,0.0342465753425,-0.0103744939271,0.139250797795,0.194462959676,0.357598711962,0.197205020609,0.0326164874552,0.740706868315
