tagged_abstract_sents/11030795.txt,1,0.206355591311,-0.0540474100088,0.0616692308323,0.106008497564,0.0,0.0,0.0,0.216912155733
tagged_abstract_sents/11030795.txt,2,0.206355591311,0.00565408252853,0.188769469584,0.129715814208,0.0,0.205482368797,0.0754879689038,0.58048510631
tagged_abstract_sents/11030795.txt,3,0.206355591311,-0.00389815627744,0.188769469584,0.129715814208,0.0,0.291970084053,0.0758191806799,0.665484374033
tagged_abstract_sents/11030795.txt,4,0.0048270313757,-0.052853380158,0.0616692308323,0.106008497564,0.0,0.0,0.0,0.0559281137542
tagged_abstract_sents/11030795.txt,6,0.0108608205953,-0.0546444249342,0.0616692308323,0.106008497564,0.0,0.0,0.0,0.0603969361747
tagged_abstract_sents/11030795.txt,8,0.0261464199517,-0.0534503950834,0.0616692308323,0.106008497564,0.0,0.0,0.0,0.07286422163
tagged_abstract_sents/11030795.txt,9,0.0518905872888,0.0289376646181,0.210342442448,0.0253702522065,0.0,0.294968990436,0.0314042499791,0.486529829589
tagged_abstract_sents/11030795.txt,10,0.0518905872888,-0.0456892010536,0.0616692308323,0.106008497564,0.0,0.0,0.0,0.0950117943056
tagged_abstract_sents/11030795.txt,11,0.0993563958166,-0.0385250219491,0.0616692308323,0.106008497564,0.0,0.0246398754204,0.0,0.159366297563
tagged_abstract_sents/11030795.txt,12,0.172566371681,0.114907813872,0.139250797795,0.521468892835,0.0,0.38596139397,0.063373211746,0.991371391252
tagged_abstract_sents/11030795.txt,13,0.172566371681,-0.0516593503073,0.139250797795,0.521468892835,0.0,0.0,0.0,0.353787294032
tagged_abstract_sents/11030795.txt,14,0.206355591311,0.0426690079017,0.139250797795,0.521468892835,0.0,0.370299989264,0.0969421902451,0.992007026091
tagged_abstract_sents/11030795.txt,15,0.206355591311,0.0325197541703,0.139250797795,0.521468892835,0.0,0.272778863047,0.0608163222622,0.731249675941
tagged_abstract_sents/11030795.txt,16,0.262268704747,-0.0516593503073,0.139250797795,0.521468892835,0.0,0.0,0.0,0.425549160484
tagged_abstract_sents/11030795.txt,17,0.262268704747,-0.0486742756804,0.139250797795,0.521468892835,0.0,0.0,0.0,0.426146175409
