tagged_abstract_sents/11041901.txt,1,0.125905068383,-0.0475833917055,0.0616692308323,0.142474783506,0.0,0.0,0.0,0.164784426833
tagged_abstract_sents/11041901.txt,2,0.239742558327,0.0253858602449,0.188769469584,0.202456734834,0.0702959601278,0.723324851016,0.0351843130968,1.18079809819
tagged_abstract_sents/11041901.txt,3,0.239742558327,0.0400714958576,0.188769469584,0.202456734834,0.300375971989,0.818153453288,0.0504750358206,1.52393456217
tagged_abstract_sents/11041901.txt,4,0.218020917136,-0.0489601700442,0.0616692308323,0.142474783506,0.0,0.0,0.0,0.238201750168
tagged_abstract_sents/11041901.txt,5,0.218020917136,0.0327286780513,0.0616692308323,0.142474783506,1.07580180068e-05,0.666853325248,0.0452729973285,0.966676600382
tagged_abstract_sents/11041901.txt,6,0.162510056315,-0.0489601700442,0.139250797795,0.0356431803763,0.0,0.0,0.0,0.200534364054
tagged_abstract_sents/11041901.txt,7,0.162510056315,-0.0168353421415,0.139250797795,0.0356431803763,0.49179086596,0.255895836059,0.0295014511922,0.984147482846
tagged_abstract_sents/11041901.txt,8,0.101769911504,0.00106277626144,0.139250797795,0.0356431803763,1.07996403139e-05,0.446177596584,0.0440133730115,0.652148606702
tagged_abstract_sents/11041901.txt,9,0.101769911504,0.0350233086157,0.139250797795,0.0356431803763,0.00545797992476,0.571897713311,0.0327712259819,0.778865863154
tagged_abstract_sents/11041901.txt,10,0.0711987127916,-0.0310620516413,0.139250797795,0.0356431803763,0.412068768539,0.374305812953,0.0291937617106,0.946633256118
tagged_abstract_sents/11041901.txt,11,0.0711987127916,0.046955387551,0.139250797795,0.0356431803763,0.0660946371984,0.774493230435,0.0513348252579,1.03859109365
tagged_abstract_sents/11041901.txt,12,0.0458567980692,0.0373179391802,0.139250797795,0.0356431803763,2.45131936239e-06,0.440553807232,0.0501842200564,0.61520785791
tagged_abstract_sents/11041901.txt,13,0.0458567980692,0.0120770029709,0.139250797795,0.0356431803763,0.329372947444,0.653387735387,0.0442080899372,1.14638796483
tagged_abstract_sents/11041901.txt,14,0.0245374094932,0.0442018308737,0.139250797795,0.0356431803763,0.220079611091,0.656561086958,0.0316240493773,1.01705339421
tagged_abstract_sents/11041901.txt,15,0.0245374094932,-0.0113282287867,0.139250797795,0.0356431803763,0.338181215745,0.44795360526,0.0370513244425,0.920868780295
tagged_abstract_sents/11041901.txt,16,0.00844730490748,-0.0471244655926,0.139250797795,0.0356431803763,0.0,0.0,0.0,0.0776513038177
tagged_abstract_sents/11041901.txt,17,0.00844730490748,0.0666892104055,0.139250797795,0.0356431803763,0.238899768311,0.83571388271,0.0519482996888,1.22697598973
tagged_abstract_sents/11041901.txt,18,0.00120675784393,-0.045288761141,0.139250797795,0.0356431803763,3.40185752287e-05,0.0749039064644,0.01836492891,0.165528861007
tagged_abstract_sents/11041901.txt,19,0.00120675784393,-0.0443709089152,0.139250797795,0.0356431803763,0.0,0.0,0.0,0.0724095775024
