tagged_abstract_sents/11059707.txt,1,0.206355591311,-0.0387364588883,0.0616692308323,0.106008497564,0.0275508075019,0.0,0.0,0.219974345957
tagged_abstract_sents/11059707.txt,3,0.206355591311,-0.0398019889895,0.0616692308323,0.106008497564,0.0275508075019,0.0,0.0,0.219761239936
tagged_abstract_sents/11059707.txt,5,0.0048270313757,0.0209332267803,0.139250797795,0.521468892835,0.0275508075019,0.374507123526,0.0418771852071,0.736317970354
tagged_abstract_sents/11059707.txt,6,0.0048270313757,0.0211996093056,0.139250797795,0.521468892835,0.0275508075019,0.683063694695,0.0643493344898,1.10932347772
tagged_abstract_sents/11059707.txt,7,0.0048270313757,-0.012364588883,0.139250797795,0.521468892835,0.0275508075019,0.336278611942,0.035598272401,0.599331658415
tagged_abstract_sents/11059707.txt,8,0.0108608205953,0.00148730243296,0.139250797795,0.521468892835,0.0275508075019,0.509878114317,0.0540310237849,0.944354632683
tagged_abstract_sents/11059707.txt,9,0.0108608205953,-0.012364588883,0.139250797795,0.521468892835,0.0275508075019,0.480462424572,0.0485953119614,1.07993225429
tagged_abstract_sents/11059707.txt,10,0.0261464199517,-0.0155611791866,0.139250797795,0.521468892835,0.0275508075019,0.449200913479,0.0385532082533,0.731632721544
tagged_abstract_sents/11059707.txt,11,0.0261464199517,0.0395800035518,0.139250797795,0.521468892835,0.0275508075019,0.68924932654,0.070247189512,1.28935968867
tagged_abstract_sents/11059707.txt,12,0.0353982300885,-0.0395356064642,0.139250797795,0.521468892835,0.0275508075019,0.0,0.0,0.246477529526
tagged_abstract_sents/11059707.txt,13,0.0518905872888,0.0185357840526,0.139250797795,0.521468892835,0.0275508075019,0.441348303617,0.064402557112,0.800910738869
tagged_abstract_sents/11059707.txt,14,0.0518905872888,0.00281921505949,0.139250797795,0.521468892835,0.0275508075019,0.501687024444,0.0653360910031,1.12139172359
tagged_abstract_sents/11059707.txt,15,0.0993563958166,0.0182694015273,0.139250797795,0.521468892835,0.0275508075019,0.589147098039,0.0610614566406,1.18933187628
tagged_abstract_sents/11059707.txt,16,0.0993563958166,-0.00783608595276,0.139250797795,0.521468892835,0.0275508075019,0.448025517278,0.0667951490082,0.818804632497
tagged_abstract_sents/11059707.txt,17,0.172566371681,-0.0118318238324,0.139250797795,0.521468892835,0.0275508075019,0.390257609364,0.0428400370108,1.08517956932
tagged_abstract_sents/11059707.txt,18,0.172566371681,-0.0342079559581,0.0616692308323,0.106008497564,0.0275508075019,0.167696768251,0.0542540189903,0.545056395034
tagged_abstract_sents/11059707.txt,19,0.172566371681,0.0227979044575,0.139250797795,0.521468892835,0.0275508075019,0.699563617611,0.0626454239917,1.29415212355
tagged_abstract_sents/11059707.txt,20,0.206355591311,0.0169374889007,0.139250797795,0.521468892835,0.0275508075019,0.347584739736,0.0481576225984,0.853138226557
tagged_abstract_sents/11059707.txt,21,0.206355591311,-0.00783608595276,0.139250797795,0.521468892835,0.0275508075019,0.471247226211,0.0552035348312,1.21098495054
tagged_abstract_sents/11059707.txt,22,0.262268704747,-0.038470076363,0.0616692308323,0.106008497564,0.0275508075019,0.0,0.0,0.26475811321
tagged_abstract_sents/11059707.txt,23,0.262268704747,0.0116098383946,0.139250797795,0.521468892835,0.0275508075019,0.510676800843,0.0550413650465,1.27310806984
tagged_abstract_sents/11059707.txt,24,0.262268704747,0.0030855975848,0.139250797795,0.521468892835,0.0275508075019,0.394305079668,0.0537073422958,0.912061379528
