tagged_abstract_sents/11063447.txt,1,0.125905068383,-0.0546930447126,0.0616692308323,0.142474783506,0.0,0.0,0.0,0.163362496232
tagged_abstract_sents/11063447.txt,2,0.239742558327,-0.0199166075231,0.188769469584,0.202456734834,0.280067412208,0.182532407792,0.0165939204231,0.822126220822
tagged_abstract_sents/11063447.txt,3,0.239742558327,-0.0554027679205,0.0616692308323,0.142474783506,0.0,0.0,0.0,0.254290543545
tagged_abstract_sents/11063447.txt,4,0.218020917136,0.0162792760823,0.0616692308323,0.142474783506,0.207957521914,0.249012206476,0.0219954505245,0.730214818308
tagged_abstract_sents/11063447.txt,5,0.162510056315,-0.0575319375444,0.0616692308323,0.142474783506,0.0,0.0,0.0,0.192078708011
tagged_abstract_sents/11063447.txt,6,0.162510056315,-0.0113999290277,0.139250797795,0.0356431803763,2.58691544528e-05,0.25644649971,0.040390637067,0.504909418189
tagged_abstract_sents/11063447.txt,7,0.101769911504,-0.00572214336409,0.139250797795,0.0356431803763,0.258241696795,0.21035733045,0.0238931715742,0.65308205236
tagged_abstract_sents/11063447.txt,8,0.0852775543041,0.0311834634493,0.139250797795,0.0356431803763,0.174606500141,0.27644551037,0.0303630933773,0.636192193033
tagged_abstract_sents/11063447.txt,9,0.0711987127916,0.0375709723208,0.139250797795,0.0356431803763,0.192956526797,0.290080138794,0.028302103558,0.656130286856
tagged_abstract_sents/11063447.txt,10,0.0458567980692,0.0404098651526,0.139250797795,0.0356431803763,0.172387702707,0.347250129772,0.0309276847252,0.6756512817
tagged_abstract_sents/11063447.txt,11,0.0458567980692,-0.0568222143364,0.139250797795,0.0356431803763,0.0,0.0,0.0,0.105639348598
tagged_abstract_sents/11063447.txt,12,0.0245374094932,0.104994677076,0.139250797795,0.0356431803763,0.130772826348,0.186232571517,0.0184664476178,0.456419061503
tagged_abstract_sents/11063447.txt,13,0.00844730490748,-0.0539833215046,0.139250797795,0.0356431803763,0.0,0.0,0.0,0.0762795326353
tagged_abstract_sents/11063447.txt,14,0.00844730490748,0.0446682044003,0.139250797795,0.0356431803763,0.175961820896,0.251100370841,0.0322387543483,0.555310783901
tagged_abstract_sents/11063447.txt,15,0.00120675784393,0.0184084457062,0.139250797795,0.0356431803763,0.173265549673,0.261550574826,0.0271774997543,0.54695907268
tagged_abstract_sents/11063447.txt,16,0.00120675784393,0.0219570617459,0.139250797795,0.0356431803763,4.99007439697e-05,0.29604096477,0.0257071973501,0.407473234498
