tagged_abstract_sents/11066214.txt,1,0.0954875100725,-0.0434379457917,0.0616692308323,0.247294108221,0.215835955691,0.0,0.0,0.172725266782
tagged_abstract_sents/11066214.txt,3,0.0253827558421,0.0304564907275,0.188769469584,0.123191979006,0.215835955691,0.252888639428,0.0229807191245,0.549670072155
tagged_abstract_sents/11066214.txt,4,0.0451248992748,-0.0474322396576,0.0616692308323,0.247294108221,0.215835955691,0.0,0.0,0.131636319371
tagged_abstract_sents/11066214.txt,5,0.0805801772764,0.0589871611983,0.139250797795,0.194462959676,0.215835955691,0.232538355997,0.0263157894737,0.597754272536
tagged_abstract_sents/11066214.txt,6,0.116035455278,-0.0086305278174,0.139250797795,0.194462959676,0.215835955691,0.130652985535,0.021579866965,0.556509933845
tagged_abstract_sents/11066214.txt,7,0.123690572119,0.0273181169757,0.139250797795,0.194462959676,0.215835955691,0.231356518057,0.0253185028122,0.755072383256
tagged_abstract_sents/11066214.txt,8,0.131345688961,0.0350213980029,0.139250797795,0.194462959676,0.215835955691,0.169363496806,0.0334499615375,0.582258109382
tagged_abstract_sents/11066214.txt,9,0.140209508461,-0.00263908701854,0.139250797795,0.194462959676,0.215835955691,0.187159797611,0.0298270428547,0.681952694652
tagged_abstract_sents/11066214.txt,10,0.149073327961,-0.0234664764622,0.139250797795,0.194462959676,0.215835955691,0.152896073678,0.0270974465868,0.422523174142
tagged_abstract_sents/11066214.txt,11,0.149879129734,-0.0331669044223,0.139250797795,0.194462959676,0.215835955691,0.076990854012,0.0399166232413,0.358141686956
tagged_abstract_sents/11066214.txt,12,0.150684931507,0.0703994293866,0.139250797795,0.194462959676,0.215835955691,0.253450451247,0.0264605407909,0.721853125518
tagged_abstract_sents/11066214.txt,13,0.176470588235,-0.0114835948645,0.139250797795,0.194462959676,0.215835955691,0.144521763618,0.0226220764491,0.689782533618
tagged_abstract_sents/11066214.txt,14,0.202256244964,-0.0191868758916,0.139250797795,0.194462959676,0.215835955691,0.109800503421,0.0203975284747,0.697202385229
tagged_abstract_sents/11066214.txt,15,0.166800966962,-7.13266761769e-05,0.139250797795,0.194462959676,0.215835955691,0.185167419297,0.0251433038041,0.658418458211
tagged_abstract_sents/11066214.txt,16,0.131345688961,-0.0465763195435,0.139250797795,0.194462959676,0.215835955691,0.0,0.0,0.22372557406
tagged_abstract_sents/11066214.txt,17,0.0954875100725,0.00392296718973,0.139250797795,0.194462959676,0.215835955691,0.148893518882,0.0327069858689,0.687443702677
tagged_abstract_sents/11066214.txt,18,0.0342465753425,0.000784593437946,0.139250797795,0.194462959676,0.215835955691,0.158249781164,0.0342283535833,0.549399496701
tagged_abstract_sents/11066214.txt,19,0.0342465753425,-0.0046362339515,0.139250797795,0.194462959676,0.215835955691,0.192480532434,0.0215824214,0.55707145345
tagged_abstract_sents/11066214.txt,20,0.0342465753425,-0.00263908701854,0.139250797795,0.194462959676,0.215835955691,0.182432227397,0.0255114756327,0.578613388391
