tagged_abstract_sents/11080699.txt,1,0.218020917136,-0.0708695652174,0.188769469584,0.202456734834,8.10283642029e-07,0.0718120542339,0.0381353861193,0.425312826545
tagged_abstract_sents/11080699.txt,2,0.0852775543041,0.0769565217391,0.188769469584,0.202456734834,0.190099771196,0.175965736037,0.0297653958944,0.634566006162
tagged_abstract_sents/11080699.txt,3,0.0245374094932,0.0213043478261,0.188769469584,0.202456734834,6.09179109598e-07,0.114858004934,0.044696969697,0.338568136212
tagged_abstract_sents/11080699.txt,4,0.00120675784393,-0.0273913043478,0.188769469584,0.202456734834,0.238302725652,0.129298832773,0.0385112989477,0.556721758021
