tagged_abstract_sents/11084175.txt,1,0.0954875100725,-0.0654690958624,0.0616692308323,0.247294108221,0.529732010896,0.0,0.0,0.168319036768
tagged_abstract_sents/11084175.txt,3,0.0805801772764,-0.0666609909757,0.0616692308323,0.247294108221,0.529732010896,0.0,0.0,0.156154791508
tagged_abstract_sents/11084175.txt,4,0.0805801772764,-0.0124297633237,0.210342442448,0.141687475369,0.529732010896,0.218219076785,0.0296441799706,0.69245113828
tagged_abstract_sents/11084175.txt,5,0.123690572119,0.0465690447812,0.194899689933,0.293363477728,0.529732010896,0.275682170024,0.0507277310241,0.789177161969
tagged_abstract_sents/11084175.txt,6,0.140209508461,-0.0666609909757,0.139250797795,0.194462959676,0.529732010896,0.0,0.0,0.226799695374
tagged_abstract_sents/11084175.txt,7,0.149073327961,-0.0356717180317,0.139250797795,0.194462959676,0.529732010896,0.123655070917,0.0257261338491,0.920326791043
tagged_abstract_sents/11084175.txt,8,0.149879129734,0.00306487314831,0.139250797795,0.194462959676,0.529732010896,0.145472285109,0.0587795259585,0.788222252634
tagged_abstract_sents/11084175.txt,9,0.176470588235,0.0733866848289,0.139250797795,0.194462959676,0.529732010896,0.242563381163,0.0621330127367,0.922535251964
tagged_abstract_sents/11084175.txt,10,0.166800966962,0.0429933594415,0.139250797795,0.194462959676,0.529732010896,0.234288579084,0.0506342236858,0.913461222688
tagged_abstract_sents/11084175.txt,11,0.166800966962,0.0435893069981,0.139250797795,0.194462959676,0.529732010896,0.162405600753,0.0593365044518,0.809326183418
tagged_abstract_sents/11084175.txt,12,0.0954875100725,-0.0648731483058,0.139250797795,0.194462959676,0.529732010896,0.0,0.0,0.191379665197
tagged_abstract_sents/11084175.txt,13,0.0342465753425,0.045377149668,0.139250797795,0.194462959676,0.529732010896,0.380986383496,0.0587876570313,1.11814456436
tagged_abstract_sents/11084175.txt,14,0.0342465753425,0.00187297803508,0.139250797795,0.194462959676,0.529732010896,0.307421189974,0.064997763955,1.05788710751
