tagged_abstract_sents/11089625.txt,1,0.206355591311,-0.0563725490196,0.0616692308323,0.106008497564,0.485749741125,0.0,0.0,0.21644712793
tagged_abstract_sents/11089625.txt,3,0.206355591311,-0.0582107843137,0.0616692308323,0.106008497564,0.485749741125,0.0,0.0,0.216079480872
tagged_abstract_sents/11089625.txt,4,0.0048270313757,-0.0373774509804,0.0616692308323,0.106008497564,0.485749741125,0.031266157213,0.0372468245795,0.127536281382
tagged_abstract_sents/11089625.txt,5,0.0108608205953,-0.0575980392157,0.0616692308323,0.106008497564,0.485749741125,0.0,0.0,0.0598062133184
tagged_abstract_sents/11089625.txt,6,0.0108608205953,0.0484068627451,0.0616692308323,0.106008497564,0.485749741125,0.15107765574,0.0396021665332,0.595085775918
tagged_abstract_sents/11089625.txt,7,0.0261464199517,0.0496323529412,0.0616692308323,0.106008497564,0.485749741125,0.140099148641,0.0614009993516,0.295018936196
tagged_abstract_sents/11089625.txt,8,0.0353982300885,-0.00122549019608,0.0616692308323,0.106008497564,0.485749741125,0.0347283961169,0.000247930731968,0.125754688925
tagged_abstract_sents/11089625.txt,9,0.0518905872888,-0.0575980392157,0.139250797795,0.521468892835,0.485749741125,0.0,0.0,0.256058928736
tagged_abstract_sents/11089625.txt,10,0.0993563958166,-0.0410539215686,0.139250797795,0.521468892835,0.485749741125,0.0180555055476,0.000160201396041,0.315581964104
tagged_abstract_sents/11089625.txt,11,0.0993563958166,0.0281862745098,0.139250797795,0.521468892835,0.485749741125,0.0709387700806,0.0115430827326,0.516213411958
tagged_abstract_sents/11089625.txt,12,0.172566371681,0.0183823529412,0.139250797795,0.521468892835,0.485749741125,0.0651766144409,0.00140176221536,0.434407717853
tagged_abstract_sents/11089625.txt,13,0.206355591311,0.0606617647059,0.139250797795,0.521468892835,0.485749741125,0.122273696998,0.00935201656108,0.534933055213
tagged_abstract_sents/11089625.txt,14,0.206355591311,-0.0557598039216,0.139250797795,0.521468892835,0.485749741125,0.0,0.0,0.379998579013
tagged_abstract_sents/11089625.txt,15,0.262268704747,0.0324754901961,0.139250797795,0.521468892835,0.485749741125,0.13020542308,0.0453869279822,0.902014335515
