tagged_abstract_sents/11086269.txt,1,0.0954875100725,-0.0274672478849,0.0616692308323,0.247294108221,0.201263583771,0.0,0.0,0.175919406364
tagged_abstract_sents/11086269.txt,2,0.0954875100725,0.0560594342497,0.188769469584,0.123191979006,0.201263583771,0.465922078915,0.0343515779326,1.09811572549
tagged_abstract_sents/11086269.txt,3,0.0954875100725,-0.0284984414915,0.0616692308323,0.247294108221,0.201263583771,0.0,0.0,0.175713167642
tagged_abstract_sents/11086269.txt,5,0.0253827558421,0.0217722468303,0.0616692308323,0.247294108221,0.201263583771,0.299716845831,0.0286230519163,0.739311994675
tagged_abstract_sents/11086269.txt,6,0.0253827558421,-0.0138039325974,0.0616692308323,0.247294108221,0.201263583771,0.201593811796,0.0240257837679,0.548471703252
tagged_abstract_sents/11086269.txt,7,0.0805801772764,-0.0282406430898,0.0616692308323,0.247294108221,0.201263583771,0.0,0.0,0.163838861086
tagged_abstract_sents/11086269.txt,8,0.0805801772764,-0.00942135976939,0.0616692308323,0.247294108221,0.201263583771,0.293061951813,0.0295927336654,0.645406767651
tagged_abstract_sents/11086269.txt,9,0.0805801772764,-0.0279828446882,0.0616692308323,0.247294108221,0.201263583771,0.0,0.0,0.163890420766
tagged_abstract_sents/11086269.txt,10,0.123690572119,0.0148116899857,0.210342442448,0.141687475369,0.201263583771,0.308557593798,0.0331253495991,0.991242958482
tagged_abstract_sents/11086269.txt,11,0.123690572119,-0.0266938526799,0.0616692308323,0.247294108221,0.201263583771,0.0,0.0,0.198636535042
tagged_abstract_sents/11086269.txt,12,0.123690572119,-0.00503878694134,0.0616692308323,0.247294108221,0.201263583771,0.264693590811,0.0354488256974,0.963841119743
tagged_abstract_sents/11086269.txt,13,0.123690572119,0.00424195551806,0.0616692308323,0.247294108221,0.201263583771,0.351498067546,0.0425883875378,0.801174702707
tagged_abstract_sents/11086269.txt,14,0.140209508461,0.015327286789,0.139250797795,0.194462959676,0.201263583771,0.395551274645,0.0312557649944,1.12522166919
tagged_abstract_sents/11086269.txt,15,0.140209508461,0.0191942628138,0.139250797795,0.194462959676,0.201263583771,0.328411895342,0.0356693768923,0.972110989333
tagged_abstract_sents/11086269.txt,16,0.140209508461,-0.0107103517776,0.139250797795,0.194462959676,0.201263583771,0.270987535981,0.0291146853363,0.844036071364
tagged_abstract_sents/11086269.txt,17,0.149879129734,-0.00374979493309,0.139250797795,0.194462959676,0.201263583771,0.367942433623,0.04457222385,1.02202692447
tagged_abstract_sents/11086269.txt,18,0.149879129734,-0.0246314654667,0.0616692308323,0.247294108221,0.201263583771,0.0,0.0,0.219999858576
tagged_abstract_sents/11086269.txt,19,0.149879129734,0.00140617309991,0.0616692308323,0.247294108221,0.201263583771,0.356856384497,0.0231773122375,1.03628774896
tagged_abstract_sents/11086269.txt,20,0.176470588235,-0.010452553376,0.0616692308323,0.247294108221,0.201263583771,0.173416367305,0.0257785358503,0.890830174814
tagged_abstract_sents/11086269.txt,21,0.176470588235,0.00140617309991,0.139250797795,0.194462959676,0.201263583771,0.26367509559,0.0315743210943,0.775497308543
tagged_abstract_sents/11086269.txt,22,0.176470588235,-0.0282406430898,0.139250797795,0.194462959676,0.201263583771,0.0,0.0,0.26349262877
tagged_abstract_sents/11086269.txt,23,0.176470588235,0.00243736670651,0.139250797795,0.194462959676,0.201263583771,0.298692372109,0.035372106651,1.07600117207
tagged_abstract_sents/11086269.txt,24,0.166800966962,0.030795190888,0.139250797795,0.194462959676,0.201263583771,0.3709403545,0.0237064166423,0.97973115123
tagged_abstract_sents/11086269.txt,25,0.166800966962,-0.0132883357941,0.139250797795,0.194462959676,0.201263583771,0.159193079434,0.0200139737204,0.85771213308
tagged_abstract_sents/11086269.txt,26,0.166800966962,0.0264126180599,0.139250797795,0.194462959676,0.201263583771,0.352591163263,0.036871886903,0.996427569689
tagged_abstract_sents/11086269.txt,27,0.0954875100725,-0.00993695657269,0.139250797795,0.194462959676,0.201263583771,0.191764883134,0.0258765504444,0.60100848921
tagged_abstract_sents/11086269.txt,28,0.0954875100725,0.0186786660105,0.139250797795,0.194462959676,0.201263583771,0.243027168551,0.0233828173324,0.731351093929
tagged_abstract_sents/11086269.txt,29,0.0954875100725,0.00527314912466,0.139250797795,0.194462959676,0.201263583771,0.312974629483,0.0227172841808,0.926278957133
tagged_abstract_sents/11086269.txt,30,0.0342465753425,0.00578874592796,0.139250797795,0.194462959676,0.201263583771,0.278022759361,0.0281423967184,0.756283344216
tagged_abstract_sents/11086269.txt,31,0.0342465753425,0.0163584803956,0.139250797795,0.194462959676,0.201263583771,0.365620681024,0.0339907461666,0.928961558504
tagged_abstract_sents/11086269.txt,32,0.0342465753425,-0.00967915817104,0.139250797795,0.194462959676,0.201263583771,0.241595162151,0.0185687078816,0.883984275857
tagged_abstract_sents/11086269.txt,33,0.0342465753425,-0.00813236776114,0.139250797795,0.194462959676,0.201263583771,0.153290195944,0.0241328404967,0.532421693733
