tagged_abstract_sents/11110945.txt,1,0.206355591311,-0.0535149693587,0.0616692308323,0.106008497564,0.323821625932,0.0,0.0,0.217018643863
tagged_abstract_sents/11110945.txt,2,0.206355591311,0.018150591358,0.188769469584,0.129715814208,0.323821625932,0.330842597177,0.0429745700649,0.747801186578
tagged_abstract_sents/11110945.txt,3,0.206355591311,-0.0442249892658,0.0616692308323,0.106008497564,0.323821625932,0.0,0.0,0.218876639881
tagged_abstract_sents/11110945.txt,4,0.0048270313757,0.074554041922,0.0616692308323,0.106008497564,0.323821625932,0.424145912208,0.0325934156586,0.669154086295
tagged_abstract_sents/11110945.txt,5,0.0048270313757,-0.018345759007,0.0616692308323,0.106008497564,0.323821625932,0.294994844441,0.0380817697417,0.618166803894
tagged_abstract_sents/11110945.txt,7,0.0261464199517,-0.00573792888091,0.0616692308323,0.106008497564,0.323821625932,0.327937905934,0.0467507070886,0.717605455621
tagged_abstract_sents/11110945.txt,8,0.0261464199517,-0.0296264491198,0.0616692308323,0.106008497564,0.323821625932,0.197484775759,0.0617577578864,0.504195657747
tagged_abstract_sents/11110945.txt,9,0.0518905872888,-0.0535149693587,0.139250797795,0.521468892835,0.323821625932,0.0,0.0,0.256875542707
tagged_abstract_sents/11110945.txt,10,0.0518905872888,0.0798626019751,0.139250797795,0.521468892835,0.323821625932,0.655598380556,0.0397669327314,1.06656370857
tagged_abstract_sents/11110945.txt,11,0.0993563958166,-0.0210000390335,0.139250797795,0.521468892835,0.323821625932,0.271665747833,0.0277260303776,0.768416912718
tagged_abstract_sents/11110945.txt,12,0.172566371681,-0.0210000390335,0.139250797795,0.521468892835,0.323821625932,0.271665747833,0.0277260303776,0.82698489341
tagged_abstract_sents/11110945.txt,13,0.172566371681,-0.0137007689605,0.139250797795,0.521468892835,0.323821625932,0.220241267618,0.0238716045018,0.766005557054
tagged_abstract_sents/11110945.txt,14,0.206355591311,-0.0322807291463,0.139250797795,0.521468892835,0.323821625932,0.132706798085,0.00436037947086,0.521761571523
tagged_abstract_sents/11110945.txt,16,0.262268704747,0.0194777313712,0.139250797795,0.521468892835,0.323821625932,0.329436139048,0.0365190445986,1.13183128777
tagged_abstract_sents/11110945.txt,17,0.262268704747,0.00421562121863,0.139250797795,0.521468892835,0.323821625932,0.362964292079,0.0325520697938,1.15606214259
