tagged_abstract_sents/11126352.txt,1,0.0954875100725,-0.0577935522035,0.0616692308323,0.247294108221,0.301250279656,0.0,0.0,0.1698541455
tagged_abstract_sents/11126352.txt,2,0.0253827558421,-0.00366755397811,0.188769469584,0.123191979006,0.301250279656,0.277239610819,0.0263048148616,0.727200858555
tagged_abstract_sents/11126352.txt,3,0.0451248992748,-0.0604554865424,0.0616692308323,0.247294108221,0.301250279656,0.0,0.0,0.129031669994
tagged_abstract_sents/11126352.txt,4,0.0805801772764,-0.0160899142266,0.210342442448,0.141687475369,0.301250279656,0.201062601752,0.0381650448629,0.448151269425
tagged_abstract_sents/11126352.txt,5,0.123690572119,-0.0586808636498,0.0616692308323,0.247294108221,0.301250279656,0.0,0.0,0.192239132848
tagged_abstract_sents/11126352.txt,6,0.131345688961,0.010529429163,0.210342442448,0.141687475369,0.301250279656,0.123518905246,0.0200176924049,0.740552486571
tagged_abstract_sents/11126352.txt,7,0.140209508461,-0.00632948831707,0.0616692308323,0.247294108221,0.301250279656,0.177686823491,0.0196722692616,0.744910647542
tagged_abstract_sents/11126352.txt,8,0.149879129734,-0.0551316178645,0.0616692308323,0.247294108221,0.301250279656,0.0,0.0,0.213899828097
tagged_abstract_sents/11126352.txt,9,0.150684931507,-0.00455486542443,0.139250797795,0.194462959676,0.301250279656,0.221118161671,0.0215073297106,0.620903848246
tagged_abstract_sents/11126352.txt,10,0.176470588235,0.0673173617273,0.139250797795,0.194462959676,0.301250279656,0.530914735178,0.0473740639128,0.86091242145
tagged_abstract_sents/11126352.txt,11,0.166800966962,-0.0595681750961,0.139250797795,0.194462959676,0.301250279656,0.0,0.0,0.249491425351
tagged_abstract_sents/11126352.txt,12,0.131345688961,0.186217095534,0.139250797795,0.194462959676,0.301250279656,0.374076619437,0.0369374086043,0.9202996567
tagged_abstract_sents/11126352.txt,13,0.0954875100725,-0.0569062407572,0.139250797795,0.194462959676,0.301250279656,0.0,0.0,0.192973046707
tagged_abstract_sents/11126352.txt,15,0.0342465753425,0.0575569358178,0.139250797795,0.194462959676,0.301250279656,0.291944647874,0.0352814126351,0.795349274403
