tagged_abstract_sents/11136304.txt,1,0.125905068383,-0.0582697201018,0.0616692308323,0.142474783506,0.0,0.0,0.0,0.162647161154
tagged_abstract_sents/11136304.txt,2,0.239742558327,0.0264631043257,0.188769469584,0.202456734834,0.403679666328,0.122482607139,0.0202966432475,0.898667339484
tagged_abstract_sents/11136304.txt,3,0.229283990346,-0.035368956743,0.0616692308323,0.142474783506,0.213683935938,0.0744328473527,0.0309049849448,0.568952219631
tagged_abstract_sents/11136304.txt,4,0.218020917136,-0.0605597964377,0.0616692308323,0.142474783506,0.0,0.0,0.0,0.235881824889
tagged_abstract_sents/11136304.txt,5,0.162510056315,0.0165394402036,0.0616692308323,0.142474783506,0.305817399825,0.134852128502,0.0272945243671,0.674857036255
tagged_abstract_sents/11136304.txt,6,0.118262268705,0.118829516539,0.210342442448,0.226435992083,0.366417032425,0.182510880156,0.0242186092596,0.864624258962
tagged_abstract_sents/11136304.txt,7,0.101769911504,0.00661577608142,0.0616692308323,0.142474783506,0.200397367086,0.0920854814664,0.0229800936768,0.471779077117
tagged_abstract_sents/11136304.txt,8,0.0711987127916,-0.0399491094148,0.0616692308323,0.142474783506,0.210098930353,0.0491730081903,0.017081381733,0.398899519095
tagged_abstract_sents/11136304.txt,9,0.0571198712792,-0.0605597964377,0.0616692308323,0.142474783506,0.0,0.0,0.0,0.107160988204
tagged_abstract_sents/11136304.txt,10,0.0458567980692,-0.0262086513995,0.139250797795,0.0356431803763,0.0,0.0683173579276,0.0388246487119,0.218904067825
tagged_abstract_sents/11136304.txt,11,0.0245374094932,0.0142493638677,0.139250797795,0.0356431803763,0.328991957497,0.112347900756,0.0190108830417,0.563148894673
tagged_abstract_sents/11136304.txt,12,0.0144810941271,0.0837150127226,0.139250797795,0.0356431803763,0.182575278415,0.161962727374,0.0297072599532,0.482891496599
tagged_abstract_sents/11136304.txt,13,0.00844730490748,0.0432569974555,0.139250797795,0.0356431803763,0.210721681484,0.157931679553,0.0600629391101,0.524443896574
tagged_abstract_sents/11136304.txt,14,0.00120675784393,-0.0582697201018,0.139250797795,0.0356431803763,0.0,0.0,0.0,0.0696298152651
tagged_abstract_sents/11136304.txt,15,0.00120675784393,0.0295165394402,0.139250797795,0.0356431803763,0.1709933384,0.146353911407,0.0267657547371,0.431300071718
