tagged_abstract_sents/11131347.txt,1,0.0954875100725,-0.0113309509283,0.188769469584,0.123191979006,0.164760411696,0.364741356541,0.0408551612266,0.664815183605
tagged_abstract_sents/11131347.txt,2,0.0253827558421,0.0164734594265,0.188769469584,0.123191979006,0.164760411696,0.260507260088,0.0632781130837,0.652826797686
tagged_abstract_sents/11131347.txt,3,0.0805801772764,-0.0583108167001,0.139250797795,0.194462959676,0.164760411696,0.144861889014,0.0217527939819,0.347380948278
tagged_abstract_sents/11131347.txt,4,0.123690572119,0.00305064063453,0.139250797795,0.194462959676,0.164760411696,0.322439876651,0.0503388132697,0.6728746418
tagged_abstract_sents/11131347.txt,5,0.140209508461,0.0500305064063,0.139250797795,0.194462959676,0.164760411696,0.434038227978,0.0434943643358,0.888038876677
tagged_abstract_sents/11131347.txt,6,0.149879129734,-0.0170835875534,0.139250797795,0.194462959676,0.164760411696,0.359115997619,0.0372645493292,0.640858975317
tagged_abstract_sents/11131347.txt,7,0.176470588235,-0.0142072692408,0.139250797795,0.194462959676,0.164760411696,0.537749206498,0.0451614390789,0.999958554871
tagged_abstract_sents/11131347.txt,8,0.166800966962,0.0164734594265,0.139250797795,0.194462959676,0.164760411696,0.341141474833,0.0545342054092,0.767840351231
tagged_abstract_sents/11131347.txt,9,0.0954875100725,-0.0803625904297,0.139250797795,0.194462959676,0.164760411696,0.0,0.0,0.188281776772
tagged_abstract_sents/11131347.txt,10,0.0342465753425,0.00400941340539,0.139250797795,0.194462959676,0.164760411696,0.361501262903,0.0524181389013,0.754998080132
