tagged_abstract_sents/11152056.txt,1,0.206355591311,-0.0571552645644,0.0616692308323,0.106008497564,0.383580066319,0.0,0.0,0.216290584821
tagged_abstract_sents/11152056.txt,3,0.206355591311,0.00484366648851,0.0616692308323,0.106008497564,0.383580066319,0.392327257528,0.0786198600175,1.12968480789
tagged_abstract_sents/11152056.txt,4,0.0048270313757,-0.0512760555852,0.0616692308323,0.106008497564,0.383580066319,0.0,0.0,0.0562435786688
tagged_abstract_sents/11152056.txt,5,0.0108608205953,0.049204970604,0.139250797795,0.521468892835,0.383580066319,0.427258041092,0.0831817187624,0.997258776458
tagged_abstract_sents/11152056.txt,6,0.0108608205953,-0.0197421165152,0.139250797795,0.521468892835,0.383580066319,0.283273070905,0.0669428040245,0.98721742798
tagged_abstract_sents/11152056.txt,8,0.0353982300885,-0.0582242116515,0.0616692308323,0.106008497564,0.383580066319,0.0,0.0,0.0793109064258
tagged_abstract_sents/11152056.txt,9,0.0518905872888,0.0374465526456,0.139250797795,0.521468892835,0.383580066319,0.408657555324,0.0907881306503,1.02247233385
tagged_abstract_sents/11152056.txt,10,0.0993563958166,0.0262226082309,0.139250797795,0.521468892835,0.383580066319,0.319904317147,0.0726128851949,0.929234099616
tagged_abstract_sents/11152056.txt,11,0.0993563958166,0.0288949759487,0.139250797795,0.521468892835,0.383580066319,0.402841125709,0.0569417104112,0.9193864068
tagged_abstract_sents/11152056.txt,12,0.172566371681,0.0363776055585,0.139250797795,0.521468892835,0.383580066319,0.439990795931,0.0711870934611,1.13124871553
tagged_abstract_sents/11152056.txt,13,0.206355591311,-0.00317343666489,0.139250797795,0.521468892835,0.383580066319,0.330427041461,0.0757904393895,1.06094228391
tagged_abstract_sents/11152056.txt,14,0.206355591311,-0.0566207910208,0.0616692308323,0.106008497564,0.383580066319,0.0,0.0,0.21639747953
tagged_abstract_sents/11152056.txt,15,0.262268704747,-0.000501068947087,0.139250797795,0.521468892835,0.383580066319,0.381688162623,0.083718832021,1.30961180417
tagged_abstract_sents/11152056.txt,16,0.262268704747,0.00217129877071,0.139250797795,0.521468892835,0.383580066319,0.412832353228,0.0647887764029,1.29751648625
