tagged_abstract_sents/11174474.txt,1,0.206355591311,-0.052077294686,0.0616692308323,0.106008497564,0.369839181524,0.0,0.0,0.217306178797
tagged_abstract_sents/11174474.txt,3,0.206355591311,-0.0510338164251,0.0616692308323,0.106008497564,0.369839181524,0.0,0.0,0.217514874449
tagged_abstract_sents/11174474.txt,4,0.0048270313757,-0.00685990338164,0.210342442448,0.0253702522065,0.369839181524,0.467840368904,0.0720547350828,0.931646598614
tagged_abstract_sents/11174474.txt,5,0.0048270313757,0.0435748792271,0.0616692308323,0.106008497564,0.369839181524,0.394712080641,0.073744917801,0.572786272743
tagged_abstract_sents/11174474.txt,6,0.0108608205953,0.0164444444444,0.139250797795,0.521468892835,0.369839181524,0.729521686028,0.088818530771,1.23743229362
tagged_abstract_sents/11174474.txt,7,0.0108608205953,-0.0228599033816,0.139250797795,0.521468892835,0.369839181524,0.298015543415,0.0454028195156,0.978889943596
tagged_abstract_sents/11174474.txt,8,0.0261464199517,-0.0256425120773,0.139250797795,0.521468892835,0.369839181524,0.389964375207,0.0579980975951,0.828022025134
tagged_abstract_sents/11174474.txt,10,0.0518905872888,-0.0527729468599,0.139250797795,0.521468892835,0.369839181524,0.0,0.0,0.257023947207
tagged_abstract_sents/11174474.txt,11,0.0993563958166,0.0286183574879,0.139250797795,0.521468892835,0.369839181524,0.377531428878,0.065670850274,0.905915636594
tagged_abstract_sents/11174474.txt,12,0.0993563958166,-0.0228599033816,0.139250797795,0.521468892835,0.369839181524,0.287329328135,0.0706735018561,0.848560225499
tagged_abstract_sents/11174474.txt,13,0.172566371681,-0.00790338164251,0.139250797795,0.521468892835,0.369839181524,0.327563560459,0.0668666618141,1.14087316047
tagged_abstract_sents/11174474.txt,14,0.172566371681,0.0310531400966,0.139250797795,0.521468892835,0.369839181524,0.651584180847,0.0734782864887,1.35110786915
tagged_abstract_sents/11174474.txt,15,0.206355591311,0.00114009661836,0.139250797795,0.521468892835,0.369839181524,0.472084338998,0.0749598053823,1.17701731933
tagged_abstract_sents/11174474.txt,16,0.206355591311,-0.051729468599,0.0616692308323,0.106008497564,0.369839181524,0.0,0.0,0.217375744015
tagged_abstract_sents/11174474.txt,17,0.262268704747,-0.0165990338164,0.139250797795,0.521468892835,0.369839181524,0.406531799139,0.0774583380205,1.19335539882
tagged_abstract_sents/11174474.txt,18,0.262268704747,0.00496618357488,0.139250797795,0.521468892835,0.369839181524,0.622184615198,0.0711995513645,1.50009761535
