tagged_abstract_sents/11198016.txt,1,0.0954875100725,-0.0459807073955,0.0616692308323,0.247294108221,0.312339623075,0.0,0.0,0.172216714461
tagged_abstract_sents/11198016.txt,3,0.0253827558421,-0.0471864951768,0.0616692308323,0.247294108221,0.312339623075,0.0,0.0,0.115891753521
tagged_abstract_sents/11198016.txt,4,0.0451248992748,-0.0254823151125,0.0616692308323,0.247294108221,0.312339623075,0.0751621008173,0.0278299120235,0.42095352055
tagged_abstract_sents/11198016.txt,5,0.0805801772764,-0.0467845659164,0.0616692308323,0.247294108221,0.312339623075,0.0,0.0,0.16013007652
tagged_abstract_sents/11198016.txt,6,0.116035455278,-0.0359324758842,0.0616692308323,0.247294108221,0.312339623075,0.0735973594536,0.00769128232471,0.272012582939
tagged_abstract_sents/11198016.txt,7,0.123690572119,-0.0467845659164,0.139250797795,0.194462959676,0.312339623075,0.0,0.0,0.217559831312
tagged_abstract_sents/11198016.txt,8,0.131345688961,0.0139067524116,0.139250797795,0.194462959676,0.312339623075,0.155695695314,0.0205697528278,0.692303570759
tagged_abstract_sents/11198016.txt,9,0.140209508461,-0.0154340836013,0.139250797795,0.194462959676,0.312339623075,0.165529891403,0.0351372967209,0.764518396971
tagged_abstract_sents/11198016.txt,10,0.149073327961,-0.0266881028939,0.139250797795,0.194462959676,0.312339623075,0.0765965956705,0.027552652626,0.346077690024
tagged_abstract_sents/11198016.txt,11,0.149879129734,0.0661575562701,0.139250797795,0.194462959676,0.312339623075,0.177263886834,0.0318755578223,0.622348053041
tagged_abstract_sents/11198016.txt,12,0.150684931507,0.189549839228,0.139250797795,0.194462959676,0.312339623075,0.246866877519,0.0371913726232,0.77210379278
tagged_abstract_sents/11198016.txt,13,0.176470588235,-0.0451768488746,0.139250797795,0.194462959676,0.312339623075,0.0,0.0,0.260105387614
tagged_abstract_sents/11198016.txt,14,0.202256244964,-0.0194533762058,0.139250797795,0.194462959676,0.312339623075,0.0848216241135,0.0150913602527,0.609999030671
tagged_abstract_sents/11198016.txt,15,0.166800966962,0.0315916398714,0.139250797795,0.194462959676,0.312339623075,0.177376978128,0.0222324046921,0.913438569602
tagged_abstract_sents/11198016.txt,16,0.131345688961,-0.0150321543408,0.139250797795,0.194462959676,0.312339623075,0.1371725989,0.0345269331687,0.763698696523
tagged_abstract_sents/11198016.txt,17,0.0954875100725,0.0448553054662,0.139250797795,0.194462959676,0.312339623075,0.179575610458,0.035105083089,0.791798112629
tagged_abstract_sents/11198016.txt,18,0.0342465753425,-0.00980707395498,0.139250797795,0.194462959676,0.312339623075,0.132065586174,0.0283939968949,0.528384116073
tagged_abstract_sents/11198016.txt,19,0.0342465753425,-0.00176848874598,0.139250797795,0.194462959676,0.312339623075,0.105984871655,0.0217637201508,0.471347904395
tagged_abstract_sents/11198016.txt,20,0.0342465753425,0.00586816720257,0.139250797795,0.194462959676,0.312339623075,0.182645547016,0.0282380254154,0.679758376021
