tagged_abstract_sents/11218151.txt,1,0.206355591311,-0.0831631575241,0.0616692308323,0.106008497564,0.585410100467,0.0,0.0,0.21108900623
tagged_abstract_sents/11218151.txt,2,0.206355591311,-0.0219702837828,0.188769469584,0.129715814208,0.585410100467,0.135574808596,0.0465197866966,0.682113848748
tagged_abstract_sents/11218151.txt,3,0.0048270313757,-0.0692204774312,0.0616692308323,0.106008497564,0.585410100467,0.0,0.0,0.0526546942996
tagged_abstract_sents/11218151.txt,5,0.0261464199517,0.0632349834519,0.0616692308323,0.106008497564,0.585410100467,0.215836965103,0.0300430755714,0.529502570047
tagged_abstract_sents/11218151.txt,6,0.0518905872888,0.039997183297,0.0616692308323,0.106008497564,0.585410100467,0.0932329314171,0.0180055700684,0.54601493004
tagged_abstract_sents/11218151.txt,7,0.0993563958166,-0.0847123442011,0.139250797795,0.521468892835,0.585410100467,0.0,0.0,0.288608714561
tagged_abstract_sents/11218151.txt,9,0.206355591311,-0.0165481304134,0.139250797795,0.521468892835,0.585410100467,0.0167366670145,0.0,0.722899425166
tagged_abstract_sents/11218151.txt,10,0.262268704747,-0.0816139708471,0.0616692308323,0.106008497564,0.585410100467,0.0,0.0,0.256129334313
tagged_abstract_sents/11218151.txt,11,0.262268704747,0.0415463699739,0.139250797795,0.521468892835,0.585410100467,0.173885213528,0.0161848629432,1.21967048148
