tagged_abstract_sents/11219226.txt,1,0.218020917136,-0.11372745491,0.188769469584,0.202456734834,0.0741238426254,0.0682979535713,0.0,0.449214794166
tagged_abstract_sents/11219226.txt,2,0.0852775543041,0.100701402806,0.188769469584,0.202456734834,0.0336777450961,0.205512998104,0.00278005865103,0.485454881098
tagged_abstract_sents/11219226.txt,3,0.0245374094932,0.0546092184369,0.188769469584,0.202456734834,9.64791546979e-06,0.139211396386,0.0,0.324894570826
tagged_abstract_sents/11219226.txt,4,0.00120675784393,-0.0415831663327,0.188769469584,0.202456734834,9.82176917019e-06,0.167629697271,0.00365797190925,0.3190680192
