tagged_abstract_sents/11218151.txt,1,0.0954875100725,-0.0831631575241,0.0616692308323,0.247294108221,0.585410100467,0.0,0.0,0.164780224436
tagged_abstract_sents/11218151.txt,2,0.0253827558421,-0.0219702837828,0.188769469584,0.123191979006,0.585410100467,0.135574808596,0.0465197866966,0.535378429812
tagged_abstract_sents/11218151.txt,3,0.0805801772764,-0.0692204774312,0.0616692308323,0.247294108221,0.585410100467,0.0,0.0,0.155642894217
tagged_abstract_sents/11218151.txt,5,0.140209508461,0.0632349834519,0.0616692308323,0.247294108221,0.585410100467,0.215836965103,0.0300430755714,0.663138724051
tagged_abstract_sents/11218151.txt,6,0.149879129734,0.039997183297,0.0616692308323,0.247294108221,0.585410100467,0.0932329314171,0.0180055700684,0.666791447194
tagged_abstract_sents/11218151.txt,7,0.176470588235,-0.0847123442011,0.139250797795,0.194462959676,0.585410100467,0.0,0.0,0.252198288548
tagged_abstract_sents/11218151.txt,8,0.166800966962,0.03844799662,0.139250797795,0.194462959676,0.585410100467,0.140600212178,0.0331181588549,1.01883083968
tagged_abstract_sents/11218151.txt,9,0.0954875100725,-0.0165481304134,0.139250797795,0.194462959676,0.585410100467,0.0167366670145,0.0,0.536103180228
tagged_abstract_sents/11218151.txt,10,0.0342465753425,-0.0816139708471,0.0616692308323,0.247294108221,0.585410100467,0.0,0.0,0.116097313987
tagged_abstract_sents/11218151.txt,11,0.0342465753425,0.0415463699739,0.139250797795,0.194462959676,0.585410100467,0.173885213528,0.0161848629432,0.939150998007
