tagged_abstract_sents/11211367.txt,1,0.206355591311,-0.0652970218188,0.0616692308323,0.106008497564,0.243970966624,0.0,0.0,0.214662233371
tagged_abstract_sents/11211367.txt,3,0.0048270313757,-0.0675266762223,0.0616692308323,0.106008497564,0.243970966624,0.0,0.0,0.0529934545414
tagged_abstract_sents/11211367.txt,4,0.0048270313757,0.111960503265,0.0616692308323,0.106008497564,0.243970966624,0.492806507843,0.09294434202,0.874098056423
tagged_abstract_sents/11211367.txt,5,0.0108608205953,-0.0240484153528,0.0616692308323,0.106008497564,0.243970966624,0.295026831394,0.0697593303104,0.560506798456
tagged_abstract_sents/11211367.txt,6,0.0261464199517,-0.0669692626214,0.139250797795,0.521468892835,0.243970966624,0.0,0.0,0.233589350185
tagged_abstract_sents/11211367.txt,7,0.0353982300885,0.0394967351489,0.139250797795,0.521468892835,0.243970966624,0.297622654793,0.0578784443669,0.885044553761
tagged_abstract_sents/11211367.txt,8,0.0518905872888,-0.0156872113394,0.139250797795,0.521468892835,0.243970966624,0.271611373061,0.0564971303548,0.95214313357
tagged_abstract_sents/11211367.txt,9,0.0993563958166,0.038939321548,0.139250797795,0.521468892835,0.243970966624,0.279806693725,0.0470766480642,0.934022857622
tagged_abstract_sents/11211367.txt,10,0.172566371681,0.0116260551043,0.139250797795,0.521468892835,0.243970966624,0.309527929262,0.0656539937217,0.960467808589
tagged_abstract_sents/11211367.txt,11,0.172566371681,-7.96305144131e-05,0.139250797795,0.521468892835,0.243970966624,0.177569485112,0.0179014752047,0.76576883386
tagged_abstract_sents/11211367.txt,12,0.206355591311,-0.0647396082179,0.0616692308323,0.106008497564,0.243970966624,0.0,0.0,0.214773716091
tagged_abstract_sents/11211367.txt,14,0.262268704747,-0.00286669851887,0.139250797795,0.521468892835,0.243970966624,0.33543931054,0.052302728663,1.06702069667
