tagged_abstract_sents/11211367.txt,1,0.125905068383,-0.0652970218188,0.0616692308323,0.142474783506,0.0,0.0,0.0,0.16124170081
tagged_abstract_sents/11211367.txt,2,0.239742558327,0.0757286192069,0.188769469584,0.202456734834,0.23380314888,0.578026391513,0.0960039836249,1.26989504976
tagged_abstract_sents/11211367.txt,3,0.218020917136,-0.0675266762223,0.0616692308323,0.142474783506,0.0,0.0,0.0,0.234488448932
tagged_abstract_sents/11211367.txt,4,0.218020917136,0.111960503265,0.0616692308323,0.142474783506,0.199456316121,0.492806507843,0.09294434202,1.05559305081
tagged_abstract_sents/11211367.txt,5,0.162510056315,-0.0240484153528,0.0616692308323,0.142474783506,0.12920449866,0.295026831394,0.0697593303104,0.692766072815
tagged_abstract_sents/11211367.txt,6,0.101769911504,-0.0669692626214,0.139250797795,0.0356431803763,0.0,0.0,0.0,0.14834042969
tagged_abstract_sents/11211367.txt,7,0.0852775543041,0.0394967351489,0.139250797795,0.0356431803763,0.267259456753,0.297622654793,0.0578784443669,0.779200299396
tagged_abstract_sents/11211367.txt,8,0.0711987127916,-0.0156872113394,0.139250797795,0.0356431803763,0.359593535843,0.271611373061,0.0564971303548,0.821841920235
tagged_abstract_sents/11211367.txt,9,0.0458567980692,0.038939321548,0.139250797795,0.0356431803763,0.293800468122,0.279806693725,0.0470766480642,0.745475465686
tagged_abstract_sents/11211367.txt,10,0.0245374094932,0.0116260551043,0.139250797795,0.0356431803763,0.218841510491,0.309527929262,0.0656539937217,0.696296925101
tagged_abstract_sents/11211367.txt,11,0.0245374094932,-7.96305144131e-05,0.139250797795,0.0356431803763,0.206194635553,0.177569485112,0.0179014752047,0.501597950372
tagged_abstract_sents/11211367.txt,12,0.00844730490748,-0.0647396082179,0.0616692308323,0.142474783506,0.0,0.0,0.0,0.0673869727503
tagged_abstract_sents/11211367.txt,13,0.00120675784393,0.0294632903329,0.139250797795,0.0356431803763,0.335804741443,0.415021790258,0.0814412052612,0.919444154315
tagged_abstract_sents/11211367.txt,14,0.00120675784393,-0.00286669851887,0.139250797795,0.0356431803763,0.243970966624,0.33543931054,0.052302728663,0.712423425409
