tagged_abstract_sents/11229451.txt,1,0.239742558327,-0.101017811705,0.188769469584,0.202456734834,0.261953631332,0.285992748512,0.0210481980662,0.895706817472
tagged_abstract_sents/11229451.txt,2,0.162510056315,-0.0139949109415,0.188769469584,0.202456734834,0.478223754494,0.358614770374,0.0249164957515,1.14408583873
tagged_abstract_sents/11229451.txt,3,0.0852775543041,0.0379134860051,0.188769469584,0.202456734834,0.455874599176,0.435835928115,0.0231258632958,1.14576288647
tagged_abstract_sents/11229451.txt,4,0.0458567980692,0.0440203562341,0.188769469584,0.202456734834,0.467989628444,0.471772282936,0.0258521339975,1.16622531032
tagged_abstract_sents/11229451.txt,5,0.00844730490748,0.0653944020356,0.188769469584,0.202456734834,0.407420509687,0.429198848185,0.0273244457467,1.03890228319
tagged_abstract_sents/11229451.txt,6,0.00120675784393,-0.0323155216285,0.0616692308323,0.142474783506,0.285440488493,0.515543126186,0.0361785153025,0.905241482399
