tagged_abstract_sents/11231803.txt,1,0.0954875100725,-0.0568762781186,0.0616692308323,0.247294108221,0.426371103577,0.0,0.0,0.170037600317
tagged_abstract_sents/11231803.txt,3,0.0253827558421,0.00396216768916,0.188769469584,0.123191979006,0.426371103577,0.440056276434,0.0436538801485,0.929319931245
tagged_abstract_sents/11231803.txt,4,0.0805801772764,-0.0573875255624,0.0616692308323,0.247294108221,0.426371103577,0.0,0.0,0.158009484591
tagged_abstract_sents/11231803.txt,5,0.123690572119,0.0980316973415,0.0616692308323,0.247294108221,0.426371103577,0.686193718125,0.0411378233457,1.31483692358
tagged_abstract_sents/11231803.txt,6,0.123690572119,-0.0589212678937,0.0616692308323,0.247294108221,0.426371103577,0.0,0.0,0.192191051999
tagged_abstract_sents/11231803.txt,7,0.140209508461,-0.0486963190184,0.0616692308323,0.247294108221,0.426371103577,0.153389438546,0.0307406752696,0.391581304664
tagged_abstract_sents/11231803.txt,8,0.149073327961,-0.0584100204499,0.139250797795,0.194462959676,0.426371103577,0.0,0.0,0.235540945079
tagged_abstract_sents/11231803.txt,9,0.149879129734,0.00242842535787,0.139250797795,0.194462959676,0.426371103577,0.452146844497,0.0470586046165,1.13132395008
tagged_abstract_sents/11231803.txt,10,0.176470588235,0.0254345603272,0.139250797795,0.194462959676,0.426371103577,0.601743324122,0.0268217728886,1.08792152889
tagged_abstract_sents/11231803.txt,11,0.176470588235,0.0264570552147,0.139250797795,0.194462959676,0.426371103577,0.396760319321,0.048705635103,0.80855584473
tagged_abstract_sents/11231803.txt,12,0.166800966962,0.0223670756646,0.139250797795,0.194462959676,0.426371103577,0.591432174704,0.0469262044302,1.08411860715
tagged_abstract_sents/11231803.txt,13,0.0954875100725,0.00651840490798,0.139250797795,0.194462959676,0.426371103577,0.467780696923,0.0422485416298,0.928217391217
tagged_abstract_sents/11231803.txt,14,0.0954875100725,-0.0563650306748,0.139250797795,0.194462959676,0.426371103577,0.0,0.0,0.193081288723
tagged_abstract_sents/11231803.txt,15,0.0342465753425,0.0586656441718,0.139250797795,0.194462959676,0.426371103577,0.700606954808,0.0475231942156,1.26288671848
tagged_abstract_sents/11231803.txt,16,0.0342465753425,0.0274795501022,0.139250797795,0.194462959676,0.426371103577,0.550108849422,0.0296785052763,1.16701591537
