tagged_abstract_sents/11239327.txt,1,0.0954875100725,-0.0421011058452,0.0616692308323,0.247294108221,0.381688129145,0.0,0.0,0.172992634771
tagged_abstract_sents/11239327.txt,3,0.0253827558421,-0.0444707740916,0.0616692308323,0.247294108221,0.381688129145,0.0,0.0,0.116434897738
tagged_abstract_sents/11239327.txt,4,0.0451248992748,-0.0160347551343,0.0616692308323,0.247294108221,0.381688129145,0.260194966505,0.0208605103559,0.688648318396
tagged_abstract_sents/11239327.txt,5,0.0805801772764,-0.0436808846761,0.0616692308323,0.247294108221,0.381688129145,0.0,0.0,0.160750812768
tagged_abstract_sents/11239327.txt,6,0.116035455278,-0.0176145339652,0.0616692308323,0.247294108221,0.381688129145,0.251746651619,0.032666630531,0.832289380821
tagged_abstract_sents/11239327.txt,7,0.123690572119,-0.0428909952607,0.0616692308323,0.247294108221,0.381688129145,0.0,0.0,0.195397106526
tagged_abstract_sents/11239327.txt,8,0.131345688961,0.0116113744076,0.210342442448,0.141687475369,0.381688129145,0.19223909115,0.0272024513356,0.783121769606
tagged_abstract_sents/11239327.txt,9,0.140209508461,-0.0397314375987,0.0616692308323,0.247294108221,0.381688129145,0.0,0.0,0.209244167131
tagged_abstract_sents/11239327.txt,10,0.149073327961,0.0297788309637,0.194899689933,0.293363477728,0.381688129145,0.195931172668,0.0309675020025,0.956944314209
tagged_abstract_sents/11239327.txt,11,0.149879129734,0.0455766192733,0.194899689933,0.293363477728,0.381688129145,0.269692640986,0.0397242247397,0.930154992135
tagged_abstract_sents/11239327.txt,12,0.150684931507,-0.0326224328594,0.0616692308323,0.247294108221,0.381688129145,0.0,0.0,0.219046306516
tagged_abstract_sents/11239327.txt,13,0.176470588235,0.0281990521327,0.139250797795,0.194462959676,0.381688129145,0.199103511512,0.0414092001373,0.685989402434
tagged_abstract_sents/11239327.txt,14,0.202256244964,-0.0436808846761,0.139250797795,0.194462959676,0.381688129145,0.0,0.0,0.281033105836
tagged_abstract_sents/11239327.txt,15,0.166800966962,0.0984992101106,0.139250797795,0.194462959676,0.381688129145,0.224841363269,0.0370571123999,0.685523993806
tagged_abstract_sents/11239327.txt,16,0.131345688961,0.00845181674566,0.139250797795,0.194462959676,0.381688129145,0.141026986919,0.0294656139146,0.62433526045
tagged_abstract_sents/11239327.txt,17,0.0954875100725,-0.0413112164297,0.0616692308323,0.247294108221,0.381688129145,0.0,0.0,0.173150612655
tagged_abstract_sents/11239327.txt,18,0.0342465753425,0.0274091627172,0.139250797795,0.194462959676,0.381688129145,0.277103504396,0.0324053640223,0.882120598276
tagged_abstract_sents/11239327.txt,19,0.0342465753425,0.0495260663507,0.139250797795,0.194462959676,0.381688129145,0.287380700174,0.0418468932372,0.903542889636
tagged_abstract_sents/11239327.txt,20,0.0342465753425,0.0250394944708,0.139250797795,0.194462959676,0.381688129145,0.244724268681,0.0337266096928,0.820508453488
