tagged_abstract_sents/11236719.txt,1,0.162510056315,-0.122699386503,0.0616692308323,0.142474783506,0.174003658831,0.256429652105,0.0624432611732,0.671921790329
tagged_abstract_sents/11236719.txt,2,0.0458567980692,-0.118609406953,0.188769469584,0.202456734834,0.451739550105,0.293013748607,0.0563856970543,0.969224308074
tagged_abstract_sents/11236719.txt,3,0.00120675784393,0.241308793456,0.188769469584,0.202456734834,0.385102257441,0.520113214176,0.066041500399,1.17560589222
