tagged_abstract_sents/11242425.txt,1,0.0954875100725,-0.0471087820744,0.0616692308323,0.247294108221,0.39940348075,0.0,0.0,0.171991099526
tagged_abstract_sents/11242425.txt,3,0.0253827558421,-0.00157209974702,0.188769469584,0.123191979006,0.39940348075,0.269202236846,0.0530464385475,0.710435895275
tagged_abstract_sents/11242425.txt,4,0.0451248992748,-0.0463859775931,0.0616692308323,0.247294108221,0.39940348075,0.0,0.0,0.131845571784
tagged_abstract_sents/11242425.txt,5,0.0805801772764,0.011438380918,0.0616692308323,0.247294108221,0.39940348075,0.309694147538,0.0434213322808,1.07216972099
tagged_abstract_sents/11242425.txt,6,0.116035455278,-0.0474701843151,0.0616692308323,0.247294108221,0.39940348075,0.0,0.0,0.188357175242
tagged_abstract_sents/11242425.txt,7,0.123690572119,0.00240332490061,0.0616692308323,0.247294108221,0.39940348075,0.266648058796,0.0632550628492,0.648049521767
tagged_abstract_sents/11242425.txt,8,0.131345688961,-0.0471087820744,0.0616692308323,0.247294108221,0.39940348075,0.0,0.0,0.200677642636
tagged_abstract_sents/11242425.txt,9,0.140209508461,-0.0232562341887,0.0616692308323,0.247294108221,0.39940348075,0.099353412694,0.013561769934,0.325454390441
tagged_abstract_sents/11242425.txt,10,0.149073327961,-0.045301770871,0.0616692308323,0.247294108221,0.39940348075,0.0,0.0,0.215221156077
tagged_abstract_sents/11242425.txt,11,0.149879129734,0.0316769063968,0.0616692308323,0.247294108221,0.39940348075,0.295083834108,0.0541884260384,0.732069068886
tagged_abstract_sents/11242425.txt,12,0.150684931507,-0.0449403686303,0.0616692308323,0.247294108221,0.39940348075,0.0,0.0,0.216582719362
tagged_abstract_sents/11242425.txt,13,0.176470588235,0.10648717022,0.194899689933,0.293363477728,0.39940348075,0.565349635203,0.0590933111883,1.29286947176
tagged_abstract_sents/11242425.txt,14,0.202256244964,-0.0420491507047,0.0616692308323,0.247294108221,0.39940348075,0.0,0.0,0.258418013713
tagged_abstract_sents/11242425.txt,15,0.166800966962,0.073960968558,0.0616692308323,0.247294108221,0.39940348075,0.424280690428,0.0769465782123,1.06920202273
tagged_abstract_sents/11242425.txt,16,0.131345688961,-0.0471087820744,0.139250797795,0.194462959676,0.39940348075,0.0,0.0,0.223619081554
tagged_abstract_sents/11242425.txt,17,0.0954875100725,0.208041199855,0.139250797795,0.194462959676,0.39940348075,0.4500750209,0.0702238015859,0.814418177105
tagged_abstract_sents/11242425.txt,18,0.0342465753425,-0.0456631731117,0.139250797795,0.194462959676,0.39940348075,0.0,0.0,0.146228912452
tagged_abstract_sents/11242425.txt,19,0.0342465753425,0.0215576436574,0.139250797795,0.194462959676,0.39940348075,0.35451929833,0.0678146486893,0.973048906656
tagged_abstract_sents/11242425.txt,20,0.0342465753425,-0.0124141669678,0.139250797795,0.194462959676,0.39940348075,0.301773465416,0.0431175406298,0.897173200477
