tagged_abstract_sents/11253973.txt,2,0.149073327961,-0.0171691792295,0.210342442448,0.141687475369,0.374401168407,0.191355457614,0.0431481454126,0.900437498564
tagged_abstract_sents/11253973.txt,3,0.166800966962,-0.0339195979899,0.139250797795,0.194462959676,0.374401168407,0.143340496863,0.039748807185,0.900178976473
tagged_abstract_sents/11253973.txt,4,0.0342465753425,0.11850921273,0.139250797795,0.194462959676,0.374401168407,0.232571330322,0.0380230677733,0.824058956122
