tagged_abstract_sents/11258778.txt,1,0.206355591311,-0.0636929877436,0.0616692308323,0.106008497564,0.576422467309,0.0,0.0,0.214983040186
tagged_abstract_sents/11258778.txt,3,0.0048270313757,-0.065802692385,0.0616692308323,0.106008497564,0.576422467309,0.0,0.0,0.0533382513089
tagged_abstract_sents/11258778.txt,4,0.0048270313757,0.0931283905967,0.0616692308323,0.106008497564,0.576422467309,0.381206520114,0.0557219393697,0.672669674677
tagged_abstract_sents/11258778.txt,5,0.0108608205953,-0.065802692385,0.0616692308323,0.106008497564,0.576422467309,0.0,0.0,0.0581652826846
tagged_abstract_sents/11258778.txt,7,0.0353982300885,0.00874020494274,0.139250797795,0.521468892835,0.576422467309,0.152022387926,0.0413412583224,0.808023994399
tagged_abstract_sents/11258778.txt,8,0.0518905872888,0.054450472172,0.139250797795,0.521468892835,0.576422467309,0.217847523455,0.0652141359689,0.810311302637
tagged_abstract_sents/11258778.txt,9,0.0993563958166,0.00592726542094,0.139250797795,0.521468892835,0.576422467309,0.163354387585,0.0328798185941,0.902882214268
tagged_abstract_sents/11258778.txt,10,0.172566371681,0.0101466747036,0.139250797795,0.521468892835,0.576422467309,0.154050833274,0.0538162047596,0.734751255467
tagged_abstract_sents/11258778.txt,11,0.172566371681,-0.029937713482,0.139250797795,0.521468892835,0.576422467309,0.130300531919,0.052697913547,0.724805533017
tagged_abstract_sents/11258778.txt,12,0.206355591311,-0.0629897528632,0.0616692308323,0.106008497564,0.576422467309,0.0,0.0,0.215123687162
tagged_abstract_sents/11258778.txt,13,0.262268704747,0.0305404862367,0.139250797795,0.521468892835,0.576422467309,0.241158126477,0.0611460517121,1.29067458412
tagged_abstract_sents/11258778.txt,14,0.262268704747,0.0565601768133,0.139250797795,0.521468892835,0.576422467309,0.28848925617,0.0675351901767,1.37963997956
