tagged_abstract_sents/11258778.txt,1,0.0954875100725,-0.0636929877436,0.0616692308323,0.247294108221,0.576422467309,0.0,0.0,0.168674258392
tagged_abstract_sents/11258778.txt,3,0.0805801772764,-0.065802692385,0.0616692308323,0.247294108221,0.576422467309,0.0,0.0,0.156326451227
tagged_abstract_sents/11258778.txt,4,0.0805801772764,0.0931283905967,0.0616692308323,0.247294108221,0.576422467309,0.381206520114,0.0557219393697,0.775657874595
tagged_abstract_sents/11258778.txt,5,0.123690572119,-0.065802692385,0.0616692308323,0.247294108221,0.576422467309,0.0,0.0,0.190814767101
tagged_abstract_sents/11258778.txt,6,0.140209508461,-0.00532449266626,0.139250797795,0.194462959676,0.576422467309,0.16051112141,0.0552791024489,1.1712874309
tagged_abstract_sents/11258778.txt,7,0.149073327961,0.00874020494274,0.139250797795,0.194462959676,0.576422467309,0.152022387926,0.0413412583224,0.800862292749
tagged_abstract_sents/11258778.txt,8,0.149879129734,0.054450472172,0.139250797795,0.194462959676,0.576422467309,0.217847523455,0.0652141359689,0.790600356645
tagged_abstract_sents/11258778.txt,9,0.176470588235,0.00592726542094,0.139250797795,0.194462959676,0.576422467309,0.163354387585,0.0328798185941,0.866471788255
tagged_abstract_sents/11258778.txt,10,0.166800966962,0.0101466747036,0.139250797795,0.194462959676,0.576422467309,0.154050833274,0.0538162047596,0.632037151744
tagged_abstract_sents/11258778.txt,11,0.166800966962,-0.029937713482,0.139250797795,0.194462959676,0.576422467309,0.130300531919,0.052697913547,0.622091429294
tagged_abstract_sents/11258778.txt,12,0.0954875100725,-0.0629897528632,0.0616692308323,0.247294108221,0.576422467309,0.0,0.0,0.168814905368
tagged_abstract_sents/11258778.txt,13,0.0342465753425,0.0305404862367,0.139250797795,0.194462959676,0.576422467309,0.241158126477,0.0611460517121,1.01015510065
tagged_abstract_sents/11258778.txt,14,0.0342465753425,0.0565601768133,0.139250797795,0.194462959676,0.576422467309,0.28848925617,0.0675351901767,1.09912049609
