tagged_abstract_sents/11303192.txt,1,0.0954875100725,-0.0706416698879,0.0616692308323,0.247294108221,0.174191501072,0.0,0.0,0.167284521963
tagged_abstract_sents/11303192.txt,2,0.0253827558421,-0.00405875531504,0.188769469584,0.123191979006,0.174191501072,0.305353815089,0.0728235683548,0.576783184292
tagged_abstract_sents/11303192.txt,4,0.123690572119,-0.0687572477773,0.0616692308323,0.247294108221,0.174191501072,0.0,0.0,0.190223856022
tagged_abstract_sents/11303192.txt,5,0.123690572119,0.0317452647855,0.0616692308323,0.247294108221,0.174191501072,0.398251204213,0.0537211740042,0.808914921184
tagged_abstract_sents/11303192.txt,6,0.140209508461,-0.0115964437572,0.0616692308323,0.247294108221,0.174191501072,0.40664751944,0.0455294181709,0.667077995017
tagged_abstract_sents/11303192.txt,7,0.149879129734,0.0480769230769,0.0616692308323,0.247294108221,0.174191501072,0.417450473335,0.0576894279724,0.911934534382
tagged_abstract_sents/11303192.txt,8,0.176470588235,-0.0718979512949,0.0616692308323,0.247294108221,0.174191501072,0.0,0.0,0.231819728212
tagged_abstract_sents/11303192.txt,9,0.176470588235,0.0587553150367,0.139250797795,0.194462959676,0.174191501072,0.290073756951,0.0495324614821,0.653441914183
tagged_abstract_sents/11303192.txt,10,0.166800966962,0.068805566293,0.139250797795,0.194462959676,0.174191501072,0.489358097814,0.0444688474039,1.00341463972
tagged_abstract_sents/11303192.txt,11,0.0954875100725,0.00724777734828,0.139250797795,0.194462959676,0.174191501072,0.384266994363,0.0539707497255,0.688677955844
tagged_abstract_sents/11303192.txt,12,0.0342465753425,-0.0700135291844,0.139250797795,0.194462959676,0.174191501072,0.0,0.0,0.141358841237
tagged_abstract_sents/11303192.txt,13,0.0342465753425,0.0662930034789,0.139250797795,0.194462959676,0.174191501072,0.361854282889,0.0476974857029,0.752363417434
