tagged_abstract_sents/11326182.txt,1,0.206355591311,-0.0429762949956,0.0616692308323,0.106008497564,0.254948383432,0.0,0.0,0.219126378735
tagged_abstract_sents/11326182.txt,3,0.206355591311,-0.0464881474978,0.0616692308323,0.106008497564,0.254948383432,0.0,0.0,0.218424008235
tagged_abstract_sents/11326182.txt,5,0.0048270313757,-0.00697980684811,0.139250797795,0.521468892835,0.254948383432,0.108985336375,0.0673094385102,0.813389435159
tagged_abstract_sents/11326182.txt,6,0.0048270313757,0.00531167690957,0.139250797795,0.521468892835,0.254948383432,0.0771371656182,0.0515771065869,0.57805496848
tagged_abstract_sents/11326182.txt,7,0.0108608205953,0.0347234416155,0.139250797795,0.521468892835,0.254948383432,0.124638041218,0.0536508264768,0.746719256204
tagged_abstract_sents/11326182.txt,8,0.016894609815,0.00223880597015,0.139250797795,0.521468892835,0.254948383432,0.0819766417014,0.044284511447,0.507090860842
tagged_abstract_sents/11326182.txt,9,0.0261464199517,-0.0464881474978,0.139250797795,0.521468892835,0.254948383432,0.0,0.0,0.23768557321
tagged_abstract_sents/11326182.txt,10,0.0353982300885,-0.0153204565408,0.139250797795,0.521468892835,0.254948383432,0.0522944276058,0.029946674151,0.691619174856
tagged_abstract_sents/11326182.txt,11,0.0518905872888,-0.0210272168569,0.139250797795,0.521468892835,0.254948383432,0.00857484944045,0.0,0.271967785813
tagged_abstract_sents/11326182.txt,12,0.0683829444891,0.0290166812994,0.139250797795,0.521468892835,0.254948383432,0.0906019976253,0.0657551822301,0.527784641358
tagged_abstract_sents/11326182.txt,13,0.0993563958166,0.0250658472344,0.139250797795,0.521468892835,0.254948383432,0.0476116512531,0.0238563008701,0.452713522666
tagged_abstract_sents/11326182.txt,14,0.130329847144,0.0461369622476,0.139250797795,0.521468892835,0.254948383432,0.123248293048,0.0314653693829,0.627740285184
tagged_abstract_sents/11326182.txt,15,0.172566371681,-0.0284899034241,0.139250797795,0.521468892835,0.254948383432,0.0554386611042,0.0356441201235,0.449533058969
tagged_abstract_sents/11326182.txt,16,0.214802896219,0.0158472344162,0.139250797795,0.521468892835,0.254948383432,0.0608411370248,0.0370258425268,0.601361272818
tagged_abstract_sents/11326182.txt,17,0.206355591311,-0.018832309043,0.139250797795,0.521468892835,0.254948383432,0.0455984497654,0.0264383946113,0.729650809632
tagged_abstract_sents/11326182.txt,18,0.262268704747,-0.0451712028095,0.139250797795,0.521468892835,0.254948383432,0.0,0.0,0.426846789983
tagged_abstract_sents/11326182.txt,19,0.262268704747,-0.00654082528534,0.139250797795,0.521468892835,0.254948383432,0.0625663996905,0.0368603236973,0.945754762354
tagged_abstract_sents/11326182.txt,20,0.262268704747,0.00926251097454,0.139250797795,0.521468892835,0.254948383432,0.0841215481233,0.0258209374123,0.802624401708
