tagged_abstract_sents/11331711.txt,2,0.016894609815,-0.029525483304,0.188769469584,0.129715814208,0.161116478458,0.103738108886,0.0156799259944,0.387591848598
tagged_abstract_sents/11331711.txt,4,0.214802896219,-0.0453427065026,0.188769469584,0.129715814208,0.161116478458,0.103488214715,0.0408491163153,0.612481198238
tagged_abstract_sents/11331711.txt,5,0.262268704747,-0.0137082601054,0.188769469584,0.129715814208,0.161116478458,0.169338551972,0.0302401990494,0.70106802031
