tagged_abstract_sents/11331055.txt,1,0.0954875100725,-0.0583720330237,0.0616692308323,0.247294108221,0.445408002234,0.0,0.0,0.169738449336
tagged_abstract_sents/11331055.txt,2,0.0253827558421,0.00767543859649,0.188769469584,0.123191979006,0.445408002234,0.18089203464,0.0497302052786,0.509616801855
tagged_abstract_sents/11331055.txt,3,0.0253827558421,-0.0516640866873,0.0616692308323,0.247294108221,0.445408002234,0.0,0.0,0.114996235219
tagged_abstract_sents/11331055.txt,5,0.123690572119,-0.0181243550052,0.0616692308323,0.247294108221,0.445408002234,0.157647945305,0.0399426819515,0.709290509434
tagged_abstract_sents/11331055.txt,6,0.123690572119,-0.031540247678,0.0616692308323,0.247294108221,0.445408002234,0.0908578365011,0.056396627566,0.491121265361
tagged_abstract_sents/11331055.txt,7,0.140209508461,0.00457946336429,0.0616692308323,0.247294108221,0.445408002234,0.1315269137,0.0384164222874,0.672007761064
tagged_abstract_sents/11331055.txt,8,0.149073327961,0.0277992776058,0.194899689933,0.293363477728,0.445408002234,0.204798112366,0.0488876529477,0.81581470624
tagged_abstract_sents/11331055.txt,9,0.149879129734,0.0107714138287,0.0616692308323,0.247294108221,0.445408002234,0.157991799572,0.0367078923881,0.771548368466
tagged_abstract_sents/11331055.txt,10,0.176470588235,-0.0583720330237,0.0616692308323,0.247294108221,0.445408002234,0.0,0.0,0.234524911866
tagged_abstract_sents/11331055.txt,11,0.176470588235,0.0721749226006,0.139250797795,0.194462959676,0.445408002234,0.16824482024,0.048418972332,0.762820947959
tagged_abstract_sents/11331055.txt,12,0.166800966962,0.0267672858617,0.139250797795,0.194462959676,0.445408002234,0.0747320784628,0.0644532886468,0.429555246486
tagged_abstract_sents/11331055.txt,13,0.0954875100725,0.0458591331269,0.139250797795,0.194462959676,0.445408002234,0.132829379777,0.0452565982405,0.818879058833
tagged_abstract_sents/11331055.txt,14,0.0954875100725,-0.0563080495356,0.0616692308323,0.247294108221,0.445408002234,0.0,0.0,0.170151246033
tagged_abstract_sents/11331055.txt,15,0.0342465753425,0.00715944272446,0.139250797795,0.194462959676,0.445408002234,0.175119852466,0.0477595307918,0.6554093412
tagged_abstract_sents/11331055.txt,16,0.0342465753425,0.0107714138287,0.139250797795,0.194462959676,0.445408002234,0.150908570431,0.0512263396428,0.805058742148
