tagged_abstract_sents/11343045.txt,1,0.0954875100725,-0.0838419530999,0.0616692308323,0.247294108221,0.266816013634,0.0,0.0,0.164644465321
tagged_abstract_sents/11343045.txt,3,0.0805801772764,-0.0817218117571,0.0616692308323,0.247294108221,0.266816013634,0.0,0.0,0.153142627352
tagged_abstract_sents/11343045.txt,4,0.123690572119,0.0327658207517,0.194899689933,0.293363477728,0.266816013634,0.185594562333,0.153793911007,0.693377498193
tagged_abstract_sents/11343045.txt,5,0.140209508461,-0.0852553806617,0.0616692308323,0.247294108221,0.266816013634,0.0,0.0,0.200139378519
tagged_abstract_sents/11343045.txt,6,0.149879129734,-0.00610343719884,0.194899689933,0.293363477728,0.266816013634,0.178620198629,0.172118950039,0.827811687791
tagged_abstract_sents/11343045.txt,7,0.176470588235,0.0278188242853,0.139250797795,0.194462959676,0.266816013634,0.150668083098,0.121327443049,0.61411982206
tagged_abstract_sents/11343045.txt,8,0.166800966962,0.253967234179,0.139250797795,0.194462959676,0.266816013634,0.255620299638,0.129851735776,0.760094751225
tagged_abstract_sents/11343045.txt,9,0.0954875100725,-0.0442659813685,0.139250797795,0.194462959676,0.266816013634,0.0972125951345,0.0316433694379,0.502963465613
tagged_abstract_sents/11343045.txt,10,0.0342465753425,-0.0824285255381,0.0616692308323,0.247294108221,0.266816013634,0.0,0.0,0.115934403049
tagged_abstract_sents/11343045.txt,11,0.0342465753425,0.0469000963701,0.139250797795,0.194462959676,0.266816013634,0.147896668116,0.0884407600596,0.667895008159
