tagged_abstract_sents/11348605.txt,1,0.239742558327,0.15093708166,0.188769469584,0.202456734834,0.0951147831794,0.280118797575,0.175642940103,0.927979739093
tagged_abstract_sents/11348605.txt,2,0.218020917136,-0.0272757697456,0.210342442448,0.226435992083,1.52074146438e-05,0.10113885617,0.144959802103,0.588177464296
tagged_abstract_sents/11348605.txt,3,0.162510056315,-0.0925368139224,0.0616692308323,0.142474783506,3.73169398222e-05,0.0568368076552,0.119614512472,0.361566369802
tagged_abstract_sents/11348605.txt,4,0.101769911504,-0.0368139223561,0.139250797795,0.0356431803763,1.82186473957e-05,0.181607240875,0.171960958296,0.507957915561
tagged_abstract_sents/11348605.txt,5,0.0711987127916,-0.040327978581,0.139250797795,0.0356431803763,1.22341528165e-05,0.148297565105,0.167816091954,0.445337618739
tagged_abstract_sents/11348605.txt,6,0.0458567980692,0.061077643909,0.139250797795,0.0356431803763,0.0760444564991,0.124741497931,0.158040816327,0.488046091004
tagged_abstract_sents/11348605.txt,7,0.0245374094932,-0.00317938420348,0.139250797795,0.0356431803763,1.64754939626e-05,0.237391559362,0.176705833849,0.513426272469
tagged_abstract_sents/11348605.txt,8,0.00844730490748,-0.0212516733601,0.139250797795,0.0356431803763,0.190876892169,0.211019104105,0.199340342197,0.684062200736
tagged_abstract_sents/11348605.txt,9,0.00120675784393,0.00937081659973,0.139250797795,0.0356431803763,0.188321820597,0.151250931472,0.159378036929,0.582108711603
