tagged_abstract_sents/11355039.txt,1,0.125905068383,-0.0700026616982,0.0616692308323,0.142474783506,0.0,0.0,0.0,0.160300572835
tagged_abstract_sents/11355039.txt,2,0.239742558327,0.0206547777482,0.188769469584,0.202456734834,0.220595822011,0.197596970818,0.0135450097012,0.782784559984
tagged_abstract_sents/11355039.txt,3,0.218020917136,0.0275751929731,0.188769469584,0.202456734834,0.172434227742,0.163679848033,0.00971978078792,0.680887384109
tagged_abstract_sents/11355039.txt,4,0.162510056315,0.0462603140804,0.188769469584,0.202456734834,0.253011693535,0.199824708299,0.0126908199002,0.759909084845
tagged_abstract_sents/11355039.txt,5,0.162510056315,-0.0720787862656,0.0616692308323,0.142474783506,0.0,0.0,0.0,0.189169338267
tagged_abstract_sents/11355039.txt,6,0.101769911504,0.103699760447,0.210342442448,0.226435992083,0.129064413606,0.251563555285,0.0159676837336,0.671853552766
tagged_abstract_sents/11355039.txt,7,0.0711987127916,-0.0153313814213,0.0616692308323,0.142474783506,0.143944178496,0.156308149406,0.00963607446908,0.437358146789
tagged_abstract_sents/11355039.txt,8,0.0458567980692,0.00266169816343,0.0616692308323,0.142474783506,0.26309067408,0.161051099704,0.00509623764716,0.540032839987
tagged_abstract_sents/11355039.txt,9,0.0458567980692,-0.0713867447431,0.139250797795,0.0356431803763,0.0,0.0,0.0,0.102726442517
tagged_abstract_sents/11355039.txt,10,0.0245374094932,0.0587170614852,0.139250797795,0.0356431803763,0.103225483968,0.167156724377,0.0163079604709,0.398381861718
tagged_abstract_sents/11355039.txt,11,0.00844730490748,0.037263774288,0.139250797795,0.0356431803763,0.148095933046,0.211640043916,0.0119983160258,0.466263244782
tagged_abstract_sents/11355039.txt,12,0.00120675784393,-0.0693106201757,0.139250797795,0.0356431803763,0.0,0.0,0.0,0.0674216352503
tagged_abstract_sents/11355039.txt,13,0.00120675784393,0.00127761511845,0.139250797795,0.0356431803763,0.257159958908,0.177614114816,0.0142068615265,0.530520217559
