tagged_abstract_sents/11378803.txt,1,0.0954875100725,-0.0455211726384,0.0616692308323,0.247294108221,0.252732774537,0.0,0.0,0.172308621413
tagged_abstract_sents/11378803.txt,3,0.0253827558421,-0.00195439739414,0.0616692308323,0.247294108221,0.252732774537,0.509231697193,0.0505748009976,0.856513462585
tagged_abstract_sents/11378803.txt,4,0.0451248992748,-0.0434853420195,0.0616692308323,0.247294108221,0.252732774537,0.0,0.0,0.132425698898
tagged_abstract_sents/11378803.txt,5,0.0805801772764,0.0273615635179,0.0616692308323,0.247294108221,0.252732774537,0.744137459992,0.0655243854229,1.15638917294
tagged_abstract_sents/11378803.txt,6,0.116035455278,-0.0153908794788,0.0616692308323,0.247294108221,0.252732774537,0.280327081633,0.0607640668238,0.572328559523
tagged_abstract_sents/11378803.txt,7,0.123690572119,-0.0422638436482,0.0616692308323,0.247294108221,0.252732774537,0.0,0.0,0.195522536848
tagged_abstract_sents/11378803.txt,8,0.131345688961,0.0281758957655,0.0616692308323,0.247294108221,0.252732774537,0.642839575752,0.0722797307916,1.43813001282
tagged_abstract_sents/11378803.txt,9,0.140209508461,-0.0381921824104,0.0616692308323,0.247294108221,0.252732774537,0.0,0.0,0.209552018169
tagged_abstract_sents/11378803.txt,10,0.149073327961,0.0224755700326,0.139250797795,0.194462959676,0.252732774537,0.470064849725,0.0610800792593,0.78286299216
tagged_abstract_sents/11378803.txt,11,0.149879129734,-0.0467426710098,0.139250797795,0.194462959676,0.252732774537,0.0,0.0,0.238519056386
tagged_abstract_sents/11378803.txt,12,0.150684931507,-0.0182410423453,0.139250797795,0.194462959676,0.252732774537,0.352028373746,0.0526439539637,0.649536351247
tagged_abstract_sents/11378803.txt,13,0.176470588235,0.0049674267101,0.139250797795,0.194462959676,0.252732774537,0.648957428768,0.0738577051993,1.10429771873
tagged_abstract_sents/11378803.txt,14,0.202256244964,0.0619706840391,0.139250797795,0.194462959676,0.252732774537,0.7811854894,0.0672053112865,1.4990120443
tagged_abstract_sents/11378803.txt,15,0.166800966962,0.0192182410423,0.139250797795,0.194462959676,0.252732774537,0.510595346185,0.0750506539684,1.3045621522
tagged_abstract_sents/11378803.txt,16,0.131345688961,0.0412052117264,0.139250797795,0.194462959676,0.252732774537,0.830395062708,0.0566430938472,1.55575778821
tagged_abstract_sents/11378803.txt,17,0.0954875100725,-0.0271986970684,0.139250797795,0.194462959676,0.252732774537,0.197676681456,0.053835474764,0.526599930616
tagged_abstract_sents/11378803.txt,18,0.0342465753425,-0.0451140065147,0.139250797795,0.194462959676,0.252732774537,0.0,0.0,0.146338745771
tagged_abstract_sents/11378803.txt,19,0.0342465753425,0.039983713355,0.139250797795,0.194462959676,0.252732774537,0.621886704858,0.0582959007326,1.40924795751
tagged_abstract_sents/11378803.txt,20,0.0342465753425,0.0436482084691,0.139250797795,0.194462959676,0.252732774537,0.565291223047,0.0652233899134,1.04733857626
