tagged_abstract_sents/11386927.txt,1,0.125905068383,-0.0554351346638,0.188769469584,0.202456734834,0.0,0.0,0.0,0.244758783016
tagged_abstract_sents/11386927.txt,2,0.239742558327,0.0330866781274,0.188769469584,0.202456734834,0.409737305905,0.171516345429,0.0299311487951,0.964717937658
tagged_abstract_sents/11386927.txt,3,0.239742558327,-0.0545880359768,0.0616692308323,0.142474783506,0.0,0.0,0.0,0.254453489934
tagged_abstract_sents/11386927.txt,4,0.218020917136,0.0330866781274,0.188769469584,0.202456734834,0.189559558954,0.191288158891,0.0393582224227,0.756361764845
tagged_abstract_sents/11386927.txt,5,0.218020917136,-0.0444228517328,0.0616692308323,0.142474783506,0.0,0.0,0.0,0.23910921383
tagged_abstract_sents/11386927.txt,6,0.162510056315,0.0568054413633,0.0616692308323,0.142474783506,0.267775629124,0.150355045712,0.0404092242069,0.673486082835
tagged_abstract_sents/11386927.txt,7,0.101769911504,-0.00333856541346,0.0616692308323,0.142474783506,0.189457909922,0.103905376921,0.0421505376344,0.489839091067
tagged_abstract_sents/11386927.txt,8,0.101769911504,-0.0528938386028,0.0616692308323,0.142474783506,0.0,0.0,0.0,0.144414211951
tagged_abstract_sents/11386927.txt,9,0.0711987127916,0.0356279741884,0.194899689933,0.13295610691,0.114948808103,0.174571696574,0.0378490373582,0.528790784145
tagged_abstract_sents/11386927.txt,10,0.0711987127916,-0.0495054438548,0.0616692308323,0.142474783506,0.0,0.0,0.0,0.12063493193
tagged_abstract_sents/11386927.txt,11,0.0458567980692,0.0402870169669,0.139250797795,0.0356431803763,0.278989362021,0.195745105581,0.0277520866231,0.627547749084
tagged_abstract_sents/11386927.txt,12,0.0245374094932,-0.0554351346638,0.139250797795,0.0356431803763,0.0,0.0,0.0,0.0888612536721
tagged_abstract_sents/11386927.txt,13,0.0245374094932,0.100431023744,0.139250797795,0.0356431803763,0.123839883742,0.20478018772,0.027880960139,0.476535516954
tagged_abstract_sents/11386927.txt,14,0.00844730490748,-0.000797269352468,0.139250797795,0.0356431803763,0.29471819651,0.126984262068,0.0249592701206,0.533578471764
tagged_abstract_sents/11386927.txt,15,0.00844730490748,0.0521463985848,0.139250797795,0.0356431803763,0.128870002955,0.22250535621,0.0335253456221,0.482406181441
tagged_abstract_sents/11386927.txt,16,0.00120675784393,-0.0541644866333,0.139250797795,0.0356431803763,0.0,0.0,0.0,0.0704508619588
tagged_abstract_sents/11386927.txt,17,0.00120675784393,0.019109549792,0.139250797795,0.0356431803763,0.311548418729,0.141057969382,0.0321700879765,0.569882145331
