tagged_abstract_sents/11383577.txt,1,0.250201126307,-0.0035029742234,0.188769469584,0.202456734834,0.545220943745,0.519089346514,0.000234999216669,1.41912735092
tagged_abstract_sents/11383577.txt,2,0.229283990346,0.0315267680106,0.210342442448,0.226435992083,0.193055376787,0.956059223891,0.0190958622731,1.53104502768
tagged_abstract_sents/11383577.txt,3,0.206757843926,-0.0491077329808,0.0616692308323,0.142474783506,0.337373554025,0.450126876539,0.0190702632298,1.03573247281
tagged_abstract_sents/11383577.txt,4,0.118262268705,0.00178453403833,0.139250797795,0.0356431803763,0.254445385808,0.569053883969,0.00816230612565,1.00694665068
tagged_abstract_sents/11383577.txt,5,0.0852775543041,-0.0239920687376,0.139250797795,0.0356431803763,0.168240368793,0.427721649368,0.000293749020837,0.739997749887
tagged_abstract_sents/11383577.txt,6,0.0571198712792,-0.00548578982155,0.139250797795,0.0356431803763,0.164316572734,0.432294941205,0.000293749020837,0.721822355029
tagged_abstract_sents/11383577.txt,7,0.0345937248592,0.0308658294779,0.139250797795,0.0356431803763,0.104763098249,0.738395285067,0.0274078716034,0.984732753713
tagged_abstract_sents/11383577.txt,8,0.0144810941271,0.0321877065433,0.139250797795,0.0356431803763,0.0792961511283,0.978848570391,0.02359425827,1.18007974941
tagged_abstract_sents/11383577.txt,9,0.00120675784393,0.00112359550562,0.139250797795,0.0356431803763,0.435194306555,0.549617017815,0.0256547682853,1.09197457104
tagged_abstract_sents/11383577.txt,10,0.00120675784393,-0.0153998678123,0.139250797795,0.0356431803763,0.421315460934,0.470584168124,0.000261110240744,0.970364525021
