tagged_abstract_sents/11394602.txt,3,0.0108608205953,-0.00462962962963,0.0616692308323,0.106008497564,0.21249433065,0.0946951877172,0.00145650048876,0.40434386852
tagged_abstract_sents/11394602.txt,4,0.0353982300885,-0.0703703703704,0.139250797795,0.521468892835,0.21249433065,0.0525789750629,0.0024275008146,0.490966590383
tagged_abstract_sents/11394602.txt,5,0.0993563958166,0.0592592592593,0.139250797795,0.521468892835,0.21249433065,0.209456030457,0.0087694563501,0.699138309786
tagged_abstract_sents/11394602.txt,6,0.172566371681,0.0787037037037,0.139250797795,0.521468892835,0.21249433065,0.171115639079,0.00889328063241,0.657566661342
tagged_abstract_sents/11394602.txt,7,0.206355591311,0.00648148148148,0.139250797795,0.521468892835,0.21249433065,0.175909866365,0.0094330400782,0.851064131376
tagged_abstract_sents/11394602.txt,8,0.262268704747,-0.0462962962963,0.139250797795,0.521468892835,0.21249433065,0.0942618742819,0.00156053623796,0.734938512456
