tagged_abstract_sents/11400894.txt,2,0.0805801772764,-0.0969827586207,0.0616692308323,0.247294108221,0.337103282417,0.0614181198693,0.0116902159424,0.576202964886
tagged_abstract_sents/11400894.txt,3,0.123690572119,0.0215517241379,0.139250797795,0.194462959676,0.337103282417,0.153223318454,0.0422096136682,0.674497760164
tagged_abstract_sents/11400894.txt,4,0.149073327961,-0.00161637931034,0.139250797795,0.194462959676,0.337103282417,0.199439214953,0.040990550668,0.791312908849
tagged_abstract_sents/11400894.txt,5,0.176470588235,0.00215517241379,0.139250797795,0.194462959676,0.337103282417,0.173616790229,0.0399706744868,0.839010679296
tagged_abstract_sents/11400894.txt,6,0.166800966962,0.0721982758621,0.188769469584,0.123191979006,0.337103282417,0.244227632327,0.0385309750733,0.942303415343
tagged_abstract_sents/11400894.txt,7,0.0954875100725,-0.00215517241379,0.188769469584,0.123191979006,0.337103282417,0.213365506781,0.0248324256389,0.800465939413
tagged_abstract_sents/11400894.txt,8,0.0342465753425,0.00431034482759,0.188769469584,0.123191979006,0.337103282417,0.243642132792,0.0385447214076,0.778891794351
