tagged_abstract_sents/11401736.txt,1,0.125905068383,-0.0471641103853,0.0616692308323,0.142474783506,0.0,0.0,0.0,0.164868283097
tagged_abstract_sents/11401736.txt,2,0.239742558327,0.0671059825617,0.188769469584,0.202456734834,0.283949603287,0.491993367468,0.0886931372456,1.22497310642
tagged_abstract_sents/11401736.txt,3,0.239742558327,-0.0455238698167,0.0616692308323,0.142474783506,0.0,0.0,0.0,0.256266323166
tagged_abstract_sents/11401736.txt,4,0.218020917136,-0.0138125521568,0.0616692308323,0.142474783506,2.28330606482e-05,0.121622646047,0.0639710909268,0.43084784378
tagged_abstract_sents/11401736.txt,5,0.218020917136,0.0168052717907,0.0616692308323,0.142474783506,0.0971477637397,0.203937180876,0.059789774392,0.612229557542
tagged_abstract_sents/11401736.txt,6,0.162510056315,0.0490633363069,0.0616692308323,0.142474783506,0.103026266084,0.346695075146,0.0817029805823,0.744822084593
tagged_abstract_sents/11401736.txt,7,0.162510056315,-0.0362291732612,0.0616692308323,0.142474783506,3.22905898432e-05,0.0686577401565,0.0731679525995,0.338197244214
tagged_abstract_sents/11401736.txt,8,0.101769911504,-0.0455238698167,0.0616692308323,0.142474783506,0.0,0.0,0.0,0.145888205708
tagged_abstract_sents/11401736.txt,9,0.101769911504,0.0102443095163,0.0616692308323,0.142474783506,2.16609339572e-05,0.211141318716,0.0553856577791,0.423590479004
tagged_abstract_sents/11401736.txt,10,0.0711987127916,0.0173520186469,0.0616692308323,0.142474783506,0.184672589283,0.226109449031,0.0634813257269,0.608269788471
tagged_abstract_sents/11401736.txt,11,0.0711987127916,-0.0203735144312,0.0616692308323,0.142474783506,2.52945389164e-05,0.125353542587,0.0273885944117,0.279228749352
tagged_abstract_sents/11401736.txt,12,0.0458567980692,-0.0427901355357,0.0616692308323,0.142474783506,0.0,0.0,0.0,0.101704461816
tagged_abstract_sents/11401736.txt,13,0.0458567980692,-0.0340421858364,0.0616692308323,0.142474783506,0.0,0.0553266390744,0.0,0.15878069083
tagged_abstract_sents/11401736.txt,14,0.0245374094932,-0.0482576040977,0.0616692308323,0.142474783506,0.0,0.0,0.0,0.0835554572428
tagged_abstract_sents/11401736.txt,15,0.0245374094932,0.062732007712,0.139250797795,0.0356431803763,0.193518827487,0.334043793999,0.0662773353222,0.706334638955
tagged_abstract_sents/11401736.txt,16,0.00844730490748,0.0846018819602,0.139250797795,0.0356431803763,0.264066090816,0.351274467536,0.0728608007745,0.792197932456
tagged_abstract_sents/11401736.txt,17,0.00844730490748,-0.0460706166729,0.0616692308323,0.142474783506,0.0,0.0,0.0,0.0711207710593
tagged_abstract_sents/11401736.txt,18,0.00120675784393,0.0321141837645,0.139250797795,0.0356431803763,0.379350578129,0.237721685294,0.0706718795781,0.775450739039
tagged_abstract_sents/11401736.txt,19,0.00120675784393,0.0397686397514,0.139250797795,0.0356431803763,0.173596894677,0.306178614231,0.0643443137583,0.633357309901
