tagged_abstract_sents/11406072.txt,1,0.0954875100725,-0.0390048977138,0.0616692308323,0.247294108221,0.17747068292,0.0,0.0,0.173611876398
tagged_abstract_sents/11406072.txt,2,0.0954875100725,-0.00159131495659,0.188769469584,0.123191979006,0.17747068292,0.374974920227,0.0436763280669,0.705421719094
tagged_abstract_sents/11406072.txt,3,0.0253827558421,-0.000777976201001,0.188769469584,0.123191979006,0.17747068292,0.415264405282,0.0346547863212,0.877178447483
tagged_abstract_sents/11406072.txt,4,0.0253827558421,-0.0141980656683,0.188769469584,0.123191979006,0.17747068292,0.23576000318,0.0296989452095,0.610228921025
tagged_abstract_sents/11406072.txt,6,0.0805801772764,-0.0141980656683,0.188769469584,0.123191979006,0.17747068292,0.264889914708,0.0431804863756,0.501069375151
tagged_abstract_sents/11406072.txt,7,0.123690572119,0.00491539508814,0.188769469584,0.123191979006,0.17747068292,0.180080362393,0.0340838338705,0.445511964587
tagged_abstract_sents/11406072.txt,8,0.123690572119,-0.0390048977138,0.0616692308323,0.247294108221,0.17747068292,0.0,0.0,0.196174326035
tagged_abstract_sents/11406072.txt,9,0.123690572119,0.019148823311,0.0616692308323,0.247294108221,0.17747068292,0.296761667866,0.036461524119,0.541106941493
tagged_abstract_sents/11406072.txt,10,0.140209508461,-0.0369715508248,0.0616692308323,0.247294108221,0.17747068292,0.0,0.0,0.209796144486
tagged_abstract_sents/11406072.txt,11,0.140209508461,0.0130487826441,0.0616692308323,0.247294108221,0.17747068292,0.22938266151,0.0308456829152,0.48009427891
tagged_abstract_sents/11406072.txt,12,0.149879129734,-0.0316848489135,0.0616692308323,0.247294108221,0.17747068292,0.0808684676075,0.0288236155875,0.766401622303
tagged_abstract_sents/11406072.txt,13,0.149879129734,-0.0357515426914,0.0616692308323,0.247294108221,0.17747068292,0.0,0.0,0.217775843131
tagged_abstract_sents/11406072.txt,14,0.176470588235,0.194423325141,0.0616692308323,0.247294108221,0.17747068292,0.688412443686,0.0381246171057,1.09984003447
tagged_abstract_sents/11406072.txt,15,0.176470588235,-0.0316848489135,0.0616692308323,0.247294108221,0.17747068292,0.0,0.0,0.239862348688
tagged_abstract_sents/11406072.txt,16,0.176470588235,0.00450872571035,0.0616692308323,0.247294108221,0.17747068292,0.276503140066,0.0377134219428,0.741239911927
tagged_abstract_sents/11406072.txt,17,0.166800966962,-0.0223314532242,0.0616692308323,0.247294108221,0.17747068292,0.209406590472,0.0324451491701,0.706832918563
tagged_abstract_sents/11406072.txt,18,0.166800966962,-0.0381915589582,0.0616692308323,0.247294108221,0.17747068292,0.0,0.0,0.230825309661
tagged_abstract_sents/11406072.txt,19,0.0954875100725,0.00735541135492,0.139250797795,0.194462959676,0.17747068292,0.250536242596,0.0409134192792,0.719194558009
tagged_abstract_sents/11406072.txt,20,0.0954875100725,-0.0341248651803,0.0616692308323,0.247294108221,0.17747068292,0.0,0.0,0.174587882904
tagged_abstract_sents/11406072.txt,21,0.0342465753425,-0.0113513800237,0.139250797795,0.194462959676,0.17747068292,0.241274229358,0.0322223849985,0.623267095714
tagged_abstract_sents/11406072.txt,22,0.0342465753425,0.0256555333557,0.139250797795,0.194462959676,0.17747068292,0.379492616299,0.0345032567784,0.74911974517
tagged_abstract_sents/11406072.txt,23,0.0342465753425,0.0211821702,0.139250797795,0.194462959676,0.17747068292,0.316608259645,0.0294737034867,0.683150627166
