tagged_abstract_sents/11416690.txt,1,0.250201126307,0.0429567642957,0.210342442448,0.226435992083,0.598110188704,0.253752957538,0.111074455667,1.34479187466
tagged_abstract_sents/11416690.txt,2,0.229283990346,-0.0400278940028,0.139250797795,0.0356431803763,1.5963069833e-05,0.0856375923209,0.0628702904803,0.404263812358
tagged_abstract_sents/11416690.txt,3,0.206757843926,0.0582984658298,0.139250797795,0.0356431803763,0.354249078469,0.298021361363,0.0695613646433,0.979216125793
tagged_abstract_sents/11416690.txt,4,0.118262268705,-0.0393305439331,0.139250797795,0.0356431803763,0.326448786359,0.161603031161,0.0632342204818,0.71834809719
tagged_abstract_sents/11416690.txt,5,0.0852775543041,-0.000976290097629,0.139250797795,0.0356431803763,7.71568042783e-06,0.238375484805,0.0680831176301,0.454811456549
tagged_abstract_sents/11416690.txt,6,0.0571198712792,0.0269177126918,0.139250797795,0.0356431803763,0.291114296169,0.220546598541,0.0694981769601,0.712556864243
tagged_abstract_sents/11416690.txt,7,0.0345937248592,-0.00655509065551,0.139250797795,0.0356431803763,0.252950714697,0.283535710903,0.0616059670315,0.704774707398
tagged_abstract_sents/11416690.txt,8,0.0144810941271,-0.00585774058577,0.139250797795,0.0356431803763,0.330572814145,0.200036597105,0.0705509219314,0.691892013377
tagged_abstract_sents/11416690.txt,9,0.00120675784393,0.0373779637378,0.139250797795,0.0356431803763,0.51973755145,0.173229109522,0.0977716200969,0.879497633101
tagged_abstract_sents/11416690.txt,10,0.00120675784393,-0.0728033472803,0.139250797795,0.0356431803763,0.0,0.0585028627943,0.0208251627579,0.146051115381
