tagged_abstract_sents/11415950.txt,2,0.0805801772764,0.0225177679263,0.139250797795,0.194462959676,0.35091614804,0.157074196529,0.0168818411451,0.564596425301
tagged_abstract_sents/11415950.txt,3,0.123690572119,-0.0610794455,0.139250797795,0.194462959676,0.35091614804,0.124823648733,0.00906374337554,0.348588247504
tagged_abstract_sents/11415950.txt,4,0.140209508461,0.0744493702062,0.139250797795,0.194462959676,0.35091614804,0.229708005923,0.0100066927179,0.604419133345
tagged_abstract_sents/11415950.txt,5,0.149879129734,0.0212511434804,0.139250797795,0.194462959676,0.35091614804,0.142038153012,0.00969844388312,0.486103212485
tagged_abstract_sents/11415950.txt,6,0.176470588235,-0.0401801421434,0.139250797795,0.194462959676,0.35091614804,0.147365427124,0.0102689405821,0.586542262114
tagged_abstract_sents/11415950.txt,7,0.166800966962,-0.0256139610161,0.139250797795,0.194462959676,0.35091614804,0.19505666265,0.00981238800492,0.552128347564
tagged_abstract_sents/11415950.txt,8,0.0954875100725,-0.0477798888185,0.139250797795,0.194462959676,0.35091614804,0.130765893763,0.0114906473395,0.658480102969
tagged_abstract_sents/11415950.txt,9,0.0342465753425,-0.0363802688059,0.139250797795,0.194462959676,0.35091614804,0.104858903376,0.0036486107213,0.607509155451
