tagged_abstract_sents/11416690.txt,2,0.0048270313757,-0.0400278940028,0.139250797795,0.521468892835,0.0,0.0856375923209,0.0628702904803,0.370445958919
tagged_abstract_sents/11416690.txt,4,0.016894609815,-0.0393305439331,0.139250797795,0.521468892835,0.0,0.161603031161,0.0632342204818,0.783001683816
tagged_abstract_sents/11416690.txt,5,0.0353982300885,-0.000976290097629,0.139250797795,0.521468892835,0.0,0.238375484805,0.0680831176301,0.560655710914
tagged_abstract_sents/11416690.txt,6,0.0683829444891,0.0269177126918,0.139250797795,0.521468892835,0.0,0.220546598541,0.0694981769601,0.867315036548
tagged_abstract_sents/11416690.txt,7,0.130329847144,-0.00655509065551,0.139250797795,0.521468892835,0.0,0.283535710903,0.0616059670315,0.927111318964
tagged_abstract_sents/11416690.txt,8,0.214802896219,-0.00585774058577,0.139250797795,0.521468892835,0.0,0.200036597105,0.0705509219314,0.997897168788
tagged_abstract_sents/11416690.txt,9,0.262268704747,0.0373779637378,0.139250797795,0.521468892835,0.0,0.173229109522,0.0977716200969,1.23409490436
tagged_abstract_sents/11416690.txt,10,0.262268704747,-0.0728033472803,0.139250797795,0.521468892835,0.0,0.0585028627943,0.0208251627579,0.500648386641
