tagged_abstract_sents/11423507.txt,1,0.206355591311,-0.0639991509234,0.0616692308323,0.106008497564,0.14115679697,0.0,0.0,0.21492180755
tagged_abstract_sents/11423507.txt,3,0.0048270313757,-0.050626194014,0.0616692308323,0.106008497564,0.14115679697,0.0,0.0,0.0563735509831
tagged_abstract_sents/11423507.txt,4,0.0048270313757,0.164827000637,0.139250797795,0.521468892835,0.14115679697,0.243613007843,0.14150078064,0.726149967917
tagged_abstract_sents/11423507.txt,5,0.0108608205953,-0.0261091063468,0.139250797795,0.521468892835,0.14115679697,0.0937123711795,0.0294428931724,0.352738846315
tagged_abstract_sents/11423507.txt,7,0.0353982300885,-0.0654850350244,0.139250797795,0.521468892835,0.14115679697,0.0,0.0,0.241287643814
tagged_abstract_sents/11423507.txt,8,0.0518905872888,-0.00530672893229,0.139250797795,0.521468892835,0.14115679697,0.0714174686792,0.0377501596764,0.375723452802
tagged_abstract_sents/11423507.txt,9,0.0993563958166,0.0712163022713,0.139250797795,0.521468892835,0.14115679697,0.23227975651,0.127824399341,0.83968709231
tagged_abstract_sents/11423507.txt,10,0.172566371681,0.00583740182551,0.139250797795,0.521468892835,0.14115679697,0.162086791165,0.128389621595,0.8807201032
tagged_abstract_sents/11423507.txt,11,0.172566371681,0.00435151772447,0.139250797795,0.521468892835,0.14115679697,0.14896403801,0.0828916553679,0.728429533319
tagged_abstract_sents/11423507.txt,12,0.206355591311,-0.033538526852,0.139250797795,0.521468892835,0.14115679697,0.0719294371552,0.0306312539919,0.487051002279
tagged_abstract_sents/11423507.txt,13,0.262268704747,-0.0625132668223,0.139250797795,0.521468892835,0.14115679697,0.0,0.0,0.423378377181
tagged_abstract_sents/11423507.txt,14,0.262268704747,0.023668011038,0.139250797795,0.521468892835,0.14115679697,0.165709987211,0.102145366343,0.849626783277
