tagged_abstract_sents/11431298.txt,1,0.125905068383,-0.0517010222893,0.0616692308323,0.142474783506,0.0,0.0,0.0,0.163960900716
tagged_abstract_sents/11431298.txt,2,0.239742558327,0.0416038210156,0.188769469584,0.202456734834,0.461308426206,0.176483060754,0.0298253798987,1.02285343297
tagged_abstract_sents/11431298.txt,3,0.239742558327,-0.053837774426,0.0616692308323,0.142474783506,0.0,0.00730005339768,0.0,0.261903595642
tagged_abstract_sents/11431298.txt,4,0.218020917136,-0.0210742416625,0.0616692308323,0.142474783506,1.01112309246e-05,0.0961256349348,0.0281799853372,0.368094667347
tagged_abstract_sents/11431298.txt,5,0.218020917136,-0.0531255237138,0.0616692308323,0.142474783506,0.0,0.0,0.0,0.237368679434
tagged_abstract_sents/11431298.txt,6,0.162510056315,-0.00754147812971,0.0616692308323,0.142474783506,0.0,0.0966602903327,0.00242424242424,0.301161332651
tagged_abstract_sents/11431298.txt,7,0.101769911504,-0.0495642701525,0.0616692308323,0.142474783506,0.0,0.0,0.0,0.145080125641
tagged_abstract_sents/11431298.txt,8,0.101769911504,0.0145382939501,0.210342442448,0.226435992083,0.244533938034,0.145587517166,0.0404761904762,0.688023252519
tagged_abstract_sents/11431298.txt,9,0.0711987127916,0.0608345902464,0.0616692308323,0.142474783506,0.197680020872,0.167862683042,0.0222340709144,0.53047971358
tagged_abstract_sents/11431298.txt,10,0.0711987127916,-0.0438662644545,0.0616692308323,0.142474783506,1.66981784517e-05,0.0333235719714,0.00868768328446,0.163790721245
tagged_abstract_sents/11431298.txt,11,0.0458567980692,0.0579855873974,0.0616692308323,0.142474783506,0.214919777549,0.193716142293,0.0457043553818,0.576199881626
tagged_abstract_sents/11431298.txt,12,0.0245374094932,-0.0531255237138,0.0616692308323,0.142474783506,0.0,0.0,0.0,0.0825818733196
tagged_abstract_sents/11431298.txt,13,0.0245374094932,0.0473018267136,0.139250797795,0.0356431803763,0.219563075803,0.145101789745,0.0237746124843,0.49784812398
tagged_abstract_sents/11431298.txt,14,0.00844730490748,0.0551365845483,0.139250797795,0.0356431803763,0.114869949401,0.156006597144,0.0105726192314,0.379552679622
tagged_abstract_sents/11431298.txt,15,0.00844730490748,0.0836266130384,0.139250797795,0.0356431803763,0.111543879619,0.190868085917,0.0361759530792,0.442389438159
tagged_abstract_sents/11431298.txt,16,0.00120675784393,-0.050988771577,0.139250797795,0.0356431803763,0.0,0.0,0.0,0.07108600497
tagged_abstract_sents/11431298.txt,17,0.00120675784393,0.0237975532093,0.139250797795,0.0356431803763,0.50095625877,0.177476509842,0.0298253798987,0.794301418437
