tagged_abstract_sents/11448376.txt,1,0.206355591311,-0.0565411700975,0.0616692308323,0.106008497564,0.369040875764,0.0,0.0,0.216413403715
tagged_abstract_sents/11448376.txt,3,0.206355591311,0.0388001083424,0.188769469584,0.129715814208,0.369040875764,0.184395187163,0.0446895320668,0.884034024196
tagged_abstract_sents/11448376.txt,4,0.0048270313757,0.0144230769231,0.0616692308323,0.106008497564,0.369040875764,0.142290102701,0.0578561506405,0.517083797384
tagged_abstract_sents/11448376.txt,5,0.0108608205953,-0.0581663055255,0.0616692308323,0.106008497564,0.369040875764,0.0,0.0,0.0596925600565
tagged_abstract_sents/11448376.txt,6,0.0108608205953,-0.0159127843987,0.0616692308323,0.106008497564,0.369040875764,0.122492803065,0.044376401587,0.603877294112
tagged_abstract_sents/11448376.txt,7,0.0261464199517,0.0653439869989,0.194899689933,0.0581677376677,0.369040875764,0.16165010176,0.0475073313783,0.537236342446
tagged_abstract_sents/11448376.txt,8,0.0353982300885,-0.0251218851571,0.0616692308323,0.106008497564,0.369040875764,0.0806159513819,0.0511852394917,0.217732562598
tagged_abstract_sents/11448376.txt,9,0.0518905872888,-0.0581663055255,0.0616692308323,0.106008497564,0.369040875764,0.0,0.0,0.0925163734113
tagged_abstract_sents/11448376.txt,10,0.0993563958166,-0.0337892741062,0.139250797795,0.521468892835,0.369040875764,0.0654967764415,0.0459077579312,0.602378570643
tagged_abstract_sents/11448376.txt,11,0.0993563958166,-0.00291170097508,0.139250797795,0.521468892835,0.369040875764,0.0964456461477,0.0535528987142,0.645125296026
tagged_abstract_sents/11448376.txt,12,0.172566371681,0.0718445287107,0.139250797795,0.521468892835,0.369040875764,0.211489114873,0.045981318562,0.77404478272
tagged_abstract_sents/11448376.txt,13,0.206355591311,0.0523429035753,0.139250797795,0.521468892835,0.369040875764,0.122581519459,0.0415964076246,0.756158250689
tagged_abstract_sents/11448376.txt,14,0.206355591311,-0.0272887323944,0.139250797795,0.521468892835,0.369040875764,0.0747810793586,0.0308406647116,0.708884300021
tagged_abstract_sents/11448376.txt,15,0.262268704747,-0.0565411700975,0.139250797795,0.521468892835,0.369040875764,0.0,0.0,0.424572796526
