tagged_abstract_sents/11459386.txt,1,0.206355591311,-0.0594958713603,0.0616692308323,0.106008497564,0.289134805195,0.0,0.0,0.215822463462
tagged_abstract_sents/11459386.txt,3,0.0048270313757,0.0343763581052,0.194899689933,0.0581677376677,0.289134805195,0.133855253608,0.048626331224,0.705353681503
tagged_abstract_sents/11459386.txt,4,0.0048270313757,-0.0614515428075,0.210342442448,0.0253702522065,0.289134805195,0.0,0.0,0.104353613425
tagged_abstract_sents/11459386.txt,6,0.016894609815,0.0154715341156,0.0616692308323,0.106008497564,0.289134805195,0.138486928788,0.0537119925914,0.638271465335
tagged_abstract_sents/11459386.txt,7,0.0261464199517,-0.0282051282051,0.0616692308323,0.106008497564,0.289134805195,0.0666407418444,0.019581444948,0.459541895868
tagged_abstract_sents/11459386.txt,8,0.0518905872888,-0.0151673185571,0.0616692308323,0.106008497564,0.289134805195,0.136222201961,0.0386402222565,0.48180203682
tagged_abstract_sents/11459386.txt,9,0.0683829444891,-0.0614515428075,0.0616692308323,0.106008497564,0.289134805195,0.0,0.0,0.105053211715
tagged_abstract_sents/11459386.txt,10,0.0993563958166,-0.00212950890917,0.139250797795,0.521468892835,0.289134805195,0.103838053867,0.0392438206954,0.894325872521
tagged_abstract_sents/11459386.txt,11,0.172566371681,0.0363320295524,0.139250797795,0.521468892835,0.289134805195,0.0899504241679,0.0381908414166,0.647977611909
tagged_abstract_sents/11459386.txt,12,0.214802896219,0.10086918731,0.139250797795,0.521468892835,0.289134805195,0.169319652721,0.0403353308683,0.833249119331
tagged_abstract_sents/11459386.txt,13,0.206355591311,-0.0588439808779,0.0616692308323,0.106008497564,0.289134805195,0.0,0.0,0.215952841559
tagged_abstract_sents/11459386.txt,14,0.262268704747,0.0219904389396,0.139250797795,0.521468892835,0.289134805195,0.155227776509,0.0491935483871,1.08917869188
tagged_abstract_sents/11459386.txt,15,0.262268704747,0.0219904389396,0.139250797795,0.521468892835,0.289134805195,0.154027956332,0.0382038123167,0.921645692177
