tagged_abstract_sents/11466577.txt,1,0.0954875100725,-0.0463104664316,0.0616692308323,0.247294108221,0.453721298657,0.0,0.0,0.172150762654
tagged_abstract_sents/11466577.txt,2,0.0253827558421,-0.014072792601,0.188769469584,0.123191979006,0.453721298657,0.0933554148575,0.0136355740837,0.553769619086
tagged_abstract_sents/11466577.txt,4,0.0805801772764,0.0112116574622,0.0616692308323,0.247294108221,0.453721298657,0.0924227802794,0.0264460656592,0.290598167135
tagged_abstract_sents/11466577.txt,5,0.0805801772764,-0.0482068001863,0.0616692308323,0.247294108221,0.453721298657,0.0,0.0,0.159845629666
tagged_abstract_sents/11466577.txt,6,0.123690572119,-0.0109122363431,0.0616692308323,0.247294108221,0.453721298657,0.0641484272062,0.0173122575415,0.611038672657
tagged_abstract_sents/11466577.txt,7,0.123690572119,0.00741898995276,0.0616692308323,0.247294108221,0.453721298657,0.111456926018,0.0237102657634,0.575539330294
tagged_abstract_sents/11466577.txt,8,0.140209508461,-0.0166012376073,0.0616692308323,0.247294108221,0.453721298657,0.0563553133564,0.0194762897342,0.601490151274
tagged_abstract_sents/11466577.txt,9,0.140209508461,-0.0475746889347,0.0616692308323,0.247294108221,0.453721298657,0.0,0.0,0.207675516864
tagged_abstract_sents/11466577.txt,10,0.149879129734,0.0181648812296,0.139250797795,0.194462959676,0.453721298657,0.156208157483,0.0210361756397,0.738752584349
tagged_abstract_sents/11466577.txt,11,0.149879129734,0.0194291037328,0.139250797795,0.194462959676,0.453721298657,0.122858940499,0.0276557730961,0.788779657046
tagged_abstract_sents/11466577.txt,12,0.176470588235,0.0270144387517,0.139250797795,0.194462959676,0.453721298657,0.157281883854,0.0205464155438,0.637360349635
tagged_abstract_sents/11466577.txt,13,0.176470588235,-0.00522323507885,0.139250797795,0.194462959676,0.453721298657,0.120383005691,0.0110964656837,0.399575581747
tagged_abstract_sents/11466577.txt,14,0.166800966962,0.00425843369486,0.139250797795,0.194462959676,0.453721298657,0.11358858444,0.0288446801336,0.626056593309
tagged_abstract_sents/11466577.txt,15,0.166800966962,0.00362632244328,0.139250797795,0.194462959676,0.453721298657,0.127890533466,0.0313888974037,0.630566709705
tagged_abstract_sents/11466577.txt,16,0.0954875100725,-0.04567835518,0.0616692308323,0.247294108221,0.453721298657,0.0,0.0,0.172277184905
tagged_abstract_sents/11466577.txt,17,0.0954875100725,0.0459777762992,0.139250797795,0.194462959676,0.453721298657,0.234151364371,0.0158415841584,0.929533490636
tagged_abstract_sents/11466577.txt,18,0.0342465753425,0.0529310000665,0.139250797795,0.194462959676,0.453721298657,0.15835924528,0.0275238050121,0.522215531027
tagged_abstract_sents/11466577.txt,19,0.0342465753425,-0.00143056756937,0.139250797795,0.194462959676,0.453721298657,0.115613888589,0.0144376666769,0.738848287483
