tagged_abstract_sents/11463010.txt,1,0.206355591311,-0.0668490543595,0.0616692308323,0.106008497564,0.233075701421,0.0,0.0,0.214351826862
tagged_abstract_sents/11463010.txt,3,0.0048270313757,-0.033543475675,0.0616692308323,0.106008497564,0.233075701421,0.157804273026,0.0329509342108,0.250545301887
tagged_abstract_sents/11463010.txt,4,0.0048270313757,-0.0680980135601,0.0616692308323,0.106008497564,0.233075701421,0.0,0.0,0.0528791870738
tagged_abstract_sents/11463010.txt,6,0.0261464199517,-0.0127274889973,0.0616692308323,0.106008497564,0.233075701421,0.214294668121,0.0573176091415,0.428393614746
tagged_abstract_sents/11463010.txt,7,0.0353982300885,-0.0680980135601,0.0616692308323,0.106008497564,0.233075701421,0.0,0.0,0.0773361460441
tagged_abstract_sents/11463010.txt,8,0.0518905872888,0.112584750803,0.139250797795,0.521468892835,0.233075701421,0.370437184383,0.0401084090243,0.818297669699
tagged_abstract_sents/11463010.txt,9,0.0993563958166,0.0584631854407,0.139250797795,0.521468892835,0.233075701421,0.269067109887,0.0423458294139,0.798384043184
tagged_abstract_sents/11463010.txt,10,0.172566371681,0.137563934816,0.139250797795,0.521468892835,0.233075701421,0.296656492939,0.0294462349839,0.817474045322
tagged_abstract_sents/11463010.txt,11,0.172566371681,-0.0568573807541,0.139250797795,0.521468892835,0.233075701421,0.103763174466,0.0,0.456510862408
tagged_abstract_sents/11463010.txt,12,0.206355591311,-0.026049720471,0.139250797795,0.521468892835,0.233075701421,0.192084227895,0.028557476316,0.735727433378
tagged_abstract_sents/11463010.txt,13,0.262268704747,-0.0664327346259,0.0616692308323,0.106008497564,0.233075701421,0.0,0.0,0.259165581557
tagged_abstract_sents/11463010.txt,14,0.262268704747,0.0122516950161,0.139250797795,0.521468892835,0.233075701421,0.262662909523,0.0405454377226,0.974615418216
