tagged_abstract_sents/11496083.txt,1,0.206355591311,-0.0487928073543,0.0616692308323,0.106008497564,0.0727386757475,0.0,0.0,0.217963076264
tagged_abstract_sents/11496083.txt,2,0.206355591311,-0.0104050914234,0.188769469584,0.129715814208,0.0727386757475,0.117206937864,0.0436583577713,0.626900800117
tagged_abstract_sents/11496083.txt,4,0.0048270313757,-0.0487928073543,0.0616692308323,0.106008497564,0.0727386757475,0.0,0.0,0.056740228315
tagged_abstract_sents/11496083.txt,5,0.0048270313757,-0.0233609455501,0.0616692308323,0.106008497564,0.0727386757475,0.0968077082041,0.0459921798631,0.204626488743
tagged_abstract_sents/11496083.txt,6,0.0108608205953,0.0351803212446,0.139250797795,0.521468892835,0.0727386757475,0.0904518309621,0.0364788437369,0.368721462172
tagged_abstract_sents/11496083.txt,7,0.0108608205953,0.0452570966764,0.139250797795,0.521468892835,0.0727386757475,0.166966074718,0.054405202091,0.609813110498
tagged_abstract_sents/11496083.txt,8,0.0261464199517,-0.0487928073543,0.139250797795,0.521468892835,0.0727386757475,0.0,0.0,0.237224641238
tagged_abstract_sents/11496083.txt,9,0.0261464199517,0.00926861299121,0.139250797795,0.521468892835,0.0727386757475,0.160714573385,0.0481011730205,0.641646282165
tagged_abstract_sents/11496083.txt,10,0.0518905872888,0.0414183250833,0.139250797795,0.521468892835,0.0727386757475,0.156319037379,0.0387376064795,0.610775884093
tagged_abstract_sents/11496083.txt,11,0.0518905872888,0.0308617032023,0.139250797795,0.521468892835,0.0727386757475,0.140343462271,0.0539357925606,0.489667133704
tagged_abstract_sents/11496083.txt,12,0.0993563958166,0.0394989392868,0.139250797795,0.521468892835,0.0727386757475,0.160999125663,0.0441907554811,0.64937021854
tagged_abstract_sents/11496083.txt,13,0.0993563958166,0.0116678452369,0.139250797795,0.521468892835,0.0727386757475,0.132583594156,0.0551889866406,0.657170885357
tagged_abstract_sents/11496083.txt,15,0.172566371681,-0.00608647338115,0.139250797795,0.521468892835,0.0727386757475,0.102317448907,0.0673900293255,0.723057396893
tagged_abstract_sents/11496083.txt,16,0.206355591311,-0.0468734215577,0.139250797795,0.521468892835,0.0727386757475,0.0,0.0,0.381775855485
tagged_abstract_sents/11496083.txt,17,0.206355591311,0.0174260026265,0.139250797795,0.521468892835,0.0727386757475,0.185574204626,0.0504908835905,0.83128874414
tagged_abstract_sents/11496083.txt,18,0.262268704747,-0.0180826346096,0.139250797795,0.521468892835,0.0727386757475,0.0634097834098,0.020219941349,0.515894228382
tagged_abstract_sents/11496083.txt,19,0.262268704747,-0.0228810991009,0.139250797795,0.521468892835,0.0727386757475,0.0989353981564,0.0377735168058,0.640752401435
