tagged_abstract_sents/11509158.txt,1,0.125905068383,-0.060554197229,0.0616692308323,0.142474783506,0.0,0.0,0.0,0.162190265728
tagged_abstract_sents/11509158.txt,2,0.239742558327,0.0720863895681,0.188769469584,0.202456734834,0.52694213595,0.0890743588919,0.096862170088,1.07421174475
tagged_abstract_sents/11509158.txt,3,0.229283990346,-0.0128769356153,0.188769469584,0.202456734834,0.359154219287,0.106798703796,0.0479838709677,0.849910354447
tagged_abstract_sents/11509158.txt,4,0.218020917136,-0.0556642216789,0.0616692308323,0.142474783506,0.0,0.0,0.0,0.236860939841
tagged_abstract_sents/11509158.txt,5,0.162510056315,-0.00493072534637,0.0616692308323,0.142474783506,0.505578231386,0.0785368856234,0.0845203183913,0.871234385851
tagged_abstract_sents/11509158.txt,6,0.118262268705,0.0103504482478,0.139250797795,0.0356431803763,0.230468937639,0.123934941721,0.0815086347344,0.612910771718
tagged_abstract_sents/11509158.txt,7,0.101769911504,-0.0617766911165,0.139250797795,0.0356431803763,0.0,0.0,0.0,0.149378943991
tagged_abstract_sents/11509158.txt,8,0.0711987127916,-0.00676446617767,0.139250797795,0.0356431803763,0.167982487307,0.0487357460102,0.0634017595308,0.416044422857
tagged_abstract_sents/11509158.txt,9,0.0571198712792,0.000570497147514,0.139250797795,0.0356431803763,0.164178631145,0.0579005192272,0.0576379632098,0.405845463045
tagged_abstract_sents/11509158.txt,10,0.0458567980692,-0.0269356153219,0.139250797795,0.0356431803763,0.0,0.0368311535999,0.0740632127729,0.222511034774
tagged_abstract_sents/11509158.txt,11,0.0245374094932,0.0720863895681,0.139250797795,0.0356431803763,0.123320982972,0.113803225253,0.0628083491461,0.414298115889
tagged_abstract_sents/11509158.txt,12,0.0144810941271,-0.0593317033415,0.0616692308323,0.142474783506,0.0,0.0,0.0,0.0732955851013
tagged_abstract_sents/11509158.txt,13,0.00844730490748,-0.0098207008965,0.139250797795,0.0356431803763,0.242192450514,0.0327948344378,0.0593475073314,0.41944684904
tagged_abstract_sents/11509158.txt,14,0.00120675784393,0.0940912795436,0.139250797795,0.0356431803763,0.225555796471,0.137692526694,0.0877990430622,0.551149381421
tagged_abstract_sents/11509158.txt,15,0.00120675784393,0.0494702526487,0.139250797795,0.0356431803763,0.398728232217,0.121049668458,0.0910171322735,0.701972842764
