tagged_abstract_sents/11521913.txt,1,0.125905068383,0.0114488591032,0.188769469584,0.202456734834,0.291380941993,0.399542279345,0.0623368647321,1.01139566784
tagged_abstract_sents/11521913.txt,2,0.239742558327,-0.0330700494655,0.188769469584,0.202456734834,0.3273206757,0.327390634127,0.0572956650801,1.05230876692
tagged_abstract_sents/11521913.txt,3,0.218020917136,-0.0321126535823,0.188769469584,0.202456734834,0.335404642266,0.492712743511,0.0581030247198,1.20933636873
tagged_abstract_sents/11521913.txt,4,0.162510056315,-0.0234960906335,0.188769469584,0.202456734834,0.333329208169,0.446373593542,0.0923153692615,1.15244875314
tagged_abstract_sents/11521913.txt,5,0.101769911504,-0.0100925482687,0.139250797795,0.0356431803763,0.295593800691,0.351467506899,0.0641348881185,0.870911968269
tagged_abstract_sents/11521913.txt,6,0.0852775543041,0.0698500079783,0.139250797795,0.0356431803763,0.195074024892,0.56335392359,0.06605196201,0.986990308541
tagged_abstract_sents/11521913.txt,7,0.0711987127916,0.0507020903143,0.139250797795,0.0356431803763,0.226458618183,0.645021958261,0.080664972784,1.09956329053
tagged_abstract_sents/11521913.txt,8,0.0458567980692,-0.040729216531,0.139250797795,0.0356431803763,0.340771488773,0.245740824666,0.0837709196991,0.779141181297
tagged_abstract_sents/11521913.txt,9,0.0245374094932,-0.0158369235679,0.139250797795,0.0356431803763,0.299247860039,0.450104757031,0.0579400639281,0.904073576889
tagged_abstract_sents/11521913.txt,10,0.00844730490748,0.0569251635551,0.139250797795,0.0356431803763,0.201121752374,0.533025231828,0.0652806812411,0.89788889509
tagged_abstract_sents/11521913.txt,11,0.00120675784393,-0.0115286420935,0.139250797795,0.0356431803763,0.120094467073,0.554253002467,0.0869997895946,0.840325290002
tagged_abstract_sents/11521913.txt,12,0.00120675784393,-0.0220599968087,0.139250797795,0.0356431803763,0.172634506388,0.315834749581,0.0635523824147,0.628893398308
