tagged_abstract_sents/11521913.txt,1,0.0954875100725,0.0114488591032,0.188769469584,0.123191979006,0.172634506388,0.399542279345,0.0623368647321,0.963282194443
tagged_abstract_sents/11521913.txt,2,0.0253827558421,-0.0330700494655,0.188769469584,0.123191979006,0.172634506388,0.327390634127,0.0572956650801,0.857041498182
tagged_abstract_sents/11521913.txt,4,0.123690572119,-0.0234960906335,0.188769469584,0.123191979006,0.172634506388,0.446373593542,0.0923153692615,1.09761373904
tagged_abstract_sents/11521913.txt,5,0.140209508461,-0.0100925482687,0.139250797795,0.194462959676,0.172634506388,0.351467506899,0.0641348881185,0.949309579624
tagged_abstract_sents/11521913.txt,6,0.149073327961,0.0698500079783,0.139250797795,0.194462959676,0.172634506388,0.56335392359,0.06605196201,1.08567286126
tagged_abstract_sents/11521913.txt,7,0.149879129734,0.0507020903143,0.139250797795,0.194462959676,0.172634506388,0.645021958261,0.080664972784,1.21015355788
tagged_abstract_sents/11521913.txt,8,0.176470588235,-0.040729216531,0.139250797795,0.194462959676,0.172634506388,0.245740824666,0.0837709196991,0.93127814722
tagged_abstract_sents/11521913.txt,9,0.166800966962,-0.0158369235679,0.139250797795,0.194462959676,0.172634506388,0.450104757031,0.0579400639281,1.06553035665
tagged_abstract_sents/11521913.txt,10,0.0954875100725,0.0569251635551,0.139250797795,0.194462959676,0.172634506388,0.533025231828,0.0652806812411,1.01516699301
tagged_abstract_sents/11521913.txt,11,0.0342465753425,-0.0115286420935,0.139250797795,0.194462959676,0.172634506388,0.554253002467,0.0869997895946,0.91440307779
tagged_abstract_sents/11521913.txt,12,0.0342465753425,-0.0220599968087,0.139250797795,0.194462959676,0.172634506388,0.315834749581,0.0635523824147,0.702971186096
