tagged_abstract_sents/11521913.txt,1,0.206355591311,0.0114488591032,0.188769469584,0.129715814208,0.172634506388,0.399542279345,0.0623368647321,1.05393380999
tagged_abstract_sents/11521913.txt,2,0.206355591311,-0.0330700494655,0.188769469584,0.129715814208,0.172634506388,0.327390634127,0.0572956650801,1.00377691712
tagged_abstract_sents/11521913.txt,4,0.0108608205953,-0.0234960906335,0.188769469584,0.129715814208,0.172634506388,0.446373593542,0.0923153692615,1.00930708838
tagged_abstract_sents/11521913.txt,5,0.0261464199517,-0.0100925482687,0.139250797795,0.521468892835,0.172634506388,0.351467506899,0.0641348881185,0.956160888764
tagged_abstract_sents/11521913.txt,6,0.0353982300885,0.0698500079783,0.139250797795,0.521468892835,0.172634506388,0.56335392359,0.06605196201,1.09283456291
tagged_abstract_sents/11521913.txt,8,0.0993563958166,-0.040729216531,0.139250797795,0.521468892835,0.172634506388,0.245740824666,0.0837709196991,0.967688573233
tagged_abstract_sents/11521913.txt,9,0.172566371681,-0.0158369235679,0.139250797795,0.521468892835,0.172634506388,0.450104757031,0.0579400639281,1.16824446038
tagged_abstract_sents/11521913.txt,10,0.206355591311,0.0569251635551,0.139250797795,0.521468892835,0.172634506388,0.533025231828,0.0652806812411,1.20196323795
tagged_abstract_sents/11521913.txt,11,0.262268704747,-0.0115286420935,0.139250797795,0.521468892835,0.172634506388,0.554253002467,0.0869997895946,1.19492256126
tagged_abstract_sents/11521913.txt,12,0.262268704747,-0.0220599968087,0.139250797795,0.521468892835,0.172634506388,0.315834749581,0.0635523824147,0.983490669567
