tagged_abstract_sents/11529209.txt,1,0.0954875100725,-0.0565379403794,0.0616692308323,0.247294108221,0.246777609022,0.0,0.0,0.170105267865
tagged_abstract_sents/11529209.txt,3,0.0253827558421,0.0507791327913,0.188769469584,0.123191979006,0.246777609022,0.224064159503,0.00835275835276,0.602385173857
tagged_abstract_sents/11529209.txt,4,0.0805801772764,-0.0581639566396,0.0616692308323,0.247294108221,0.246777609022,0.0,0.0,0.157854198376
tagged_abstract_sents/11529209.txt,5,0.123690572119,-0.0191395663957,0.210342442448,0.141687475369,0.246777609022,0.106829585805,0.0135327635328,0.693894829033
tagged_abstract_sents/11529209.txt,6,0.123690572119,0.0751693766938,0.0616692308323,0.247294108221,0.246777609022,0.265683895857,0.014763014763,0.662656873061
tagged_abstract_sents/11529209.txt,7,0.140209508461,0.0253048780488,0.0616692308323,0.247294108221,0.246777609022,0.213764432014,0.00732600732601,0.639433313517
tagged_abstract_sents/11529209.txt,8,0.149073327961,-0.0245596205962,0.0616692308323,0.247294108221,0.246777609022,0.077207730548,0.0115995115995,0.676604673273
tagged_abstract_sents/11529209.txt,9,0.149879129734,0.0128387533875,0.0616692308323,0.247294108221,0.246777609022,0.226626320958,0.0274725274725,0.714888232604
tagged_abstract_sents/11529209.txt,10,0.176470588235,-0.0581639566396,0.0616692308323,0.247294108221,0.246777609022,0.0,0.0,0.234566527143
tagged_abstract_sents/11529209.txt,11,0.176470588235,0.0556571815718,0.139250797795,0.194462959676,0.246777609022,0.235561546764,0.0227272727273,0.712824170543
tagged_abstract_sents/11529209.txt,12,0.166800966962,0.00958672086721,0.139250797795,0.194462959676,0.246777609022,0.120498197092,0.0239316239316,0.63560915509
tagged_abstract_sents/11529209.txt,13,0.0954875100725,0.0328929539295,0.139250797795,0.194462959676,0.246777609022,0.185701896742,0.00613154960981,0.591886195206
tagged_abstract_sents/11529209.txt,14,0.0954875100725,-0.0234756097561,0.139250797795,0.194462959676,0.246777609022,0.160711469878,0.0088141025641,0.686347013899
tagged_abstract_sents/11529209.txt,15,0.0342465753425,-0.0559959349593,0.0616692308323,0.247294108221,0.246777609022,0.0,0.0,0.121220921165
tagged_abstract_sents/11529209.txt,16,0.0342465753425,0.0231368563686,0.139250797795,0.194462959676,0.246777609022,0.199471725744,0.0168566001899,0.623094853303
