tagged_abstract_sents/11529209.txt,1,0.206355591311,-0.0565379403794,0.0616692308323,0.106008497564,0.246777609022,0.0,0.0,0.216414049658
tagged_abstract_sents/11529209.txt,3,0.206355591311,0.0507791327913,0.188769469584,0.129715814208,0.246777609022,0.224064159503,0.00835275835276,0.749120592793
tagged_abstract_sents/11529209.txt,4,0.0048270313757,-0.0581639566396,0.0616692308323,0.106008497564,0.246777609022,0.0,0.0,0.0548659984579
tagged_abstract_sents/11529209.txt,5,0.0108608205953,-0.0191395663957,0.210342442448,0.0253702522065,0.246777609022,0.106829585805,0.0135327635328,0.568735860865
tagged_abstract_sents/11529209.txt,6,0.0108608205953,0.0751693766938,0.0616692308323,0.106008497564,0.246777609022,0.265683895857,0.014763014763,0.530007388645
tagged_abstract_sents/11529209.txt,7,0.0261464199517,0.0253048780488,0.0616692308323,0.106008497564,0.246777609022,0.213764432014,0.00732600732601,0.505797159513
tagged_abstract_sents/11529209.txt,8,0.0353982300885,-0.0245596205962,0.0616692308323,0.106008497564,0.246777609022,0.077207730548,0.0115995115995,0.543278911778
tagged_abstract_sents/11529209.txt,10,0.0993563958166,-0.0581639566396,0.0616692308323,0.106008497564,0.246777609022,0.0,0.0,0.130489490011
tagged_abstract_sents/11529209.txt,11,0.0993563958166,0.0556571815718,0.139250797795,0.521468892835,0.246777609022,0.235561546764,0.0227272727273,0.749234596556
tagged_abstract_sents/11529209.txt,12,0.172566371681,0.00958672086721,0.139250797795,0.521468892835,0.246777609022,0.120498197092,0.0239316239316,0.738323258814
tagged_abstract_sents/11529209.txt,13,0.206355591311,0.0328929539295,0.139250797795,0.521468892835,0.246777609022,0.185701896742,0.00613154960981,0.778682440144
tagged_abstract_sents/11529209.txt,14,0.206355591311,-0.0234756097561,0.139250797795,0.521468892835,0.246777609022,0.160711469878,0.0088141025641,0.873143258838
tagged_abstract_sents/11529209.txt,15,0.262268704747,-0.0559959349593,0.0616692308323,0.106008497564,0.246777609022,0.0,0.0,0.261252941491
tagged_abstract_sents/11529209.txt,16,0.262268704747,0.0231368563686,0.139250797795,0.521468892835,0.246777609022,0.199471725744,0.0168566001899,0.903614336774
