tagged_abstract_sents/11560453.txt,1,0.206355591311,-0.0619635508524,0.0616692308323,0.106008497564,0.200491587084,0.0,0.0,0.215328927564
tagged_abstract_sents/11560453.txt,3,0.0048270313757,-0.0590241034685,0.0616692308323,0.106008497564,0.200491587084,0.0,0.0,0.0546939690921
tagged_abstract_sents/11560453.txt,4,0.0048270313757,-0.0108171663727,0.0616692308323,0.106008497564,0.200491587084,0.190822382933,0.042069944509,0.297276581782
tagged_abstract_sents/11560453.txt,5,0.0108608205953,-0.0572604350382,0.0616692308323,0.106008497564,0.200491587084,0.0,0.0,0.0598737341539
tagged_abstract_sents/11560453.txt,7,0.0261464199517,-0.0572604350382,0.0616692308323,0.106008497564,0.200491587084,0.0,0.0,0.072102213639
tagged_abstract_sents/11560453.txt,8,0.0518905872888,-0.0372721928277,0.0616692308323,0.106008497564,0.200491587084,0.121427470604,0.048199767712,0.54770307643
tagged_abstract_sents/11560453.txt,9,0.0683829444891,-0.057848324515,0.0616692308323,0.106008497564,0.200491587084,0.0,0.0,0.105773855374
tagged_abstract_sents/11560453.txt,10,0.0993563958166,0.0550264550265,0.0616692308323,0.106008497564,0.200491587084,0.195136880332,0.0445387062566,0.392842570803
tagged_abstract_sents/11560453.txt,11,0.172566371681,-0.0619635508524,0.0616692308323,0.106008497564,0.200491587084,0.0,0.0,0.18829755186
tagged_abstract_sents/11560453.txt,12,0.214802896219,0.087948265726,0.139250797795,0.521468892835,0.200491587084,0.240089844628,0.0407333665173,0.844810675092
tagged_abstract_sents/11560453.txt,13,0.206355591311,-0.0596119929453,0.139250797795,0.521468892835,0.200491587084,0.0,0.0,0.379228141208
tagged_abstract_sents/11560453.txt,14,0.262268704747,0.045620223398,0.139250797795,0.521468892835,0.200491587084,0.241005026083,0.0441777433647,1.00125738842
tagged_abstract_sents/11560453.txt,15,0.262268704747,-0.00964138741917,0.139250797795,0.521468892835,0.200491587084,0.213699692132,0.0667828106852,0.914926842962
