tagged_abstract_sents/11578281.txt,1,0.125905068383,-0.0626074006186,0.0616692308323,0.142474783506,0.0,0.0,0.0,0.16177962505
tagged_abstract_sents/11578281.txt,2,0.239742558327,0.0159812120518,0.188769469584,0.202456734834,0.189257729975,0.256496532619,0.112882194245,0.908748501152
tagged_abstract_sents/11578281.txt,3,0.218020917136,-0.0128880742353,0.188769469584,0.202456734834,8.31597359365e-05,0.241515961495,0.0991422246818,0.667702220017
tagged_abstract_sents/11578281.txt,4,0.218020917136,0.0849467292932,0.0616692308323,0.142474783506,6.61809495716e-05,0.350636918418,0.112097690269,0.727783919672
tagged_abstract_sents/11578281.txt,5,0.162510056315,-0.0650131744759,0.0616692308323,0.142474783506,0.0,0.0,0.0,0.190582460625
tagged_abstract_sents/11578281.txt,6,0.101769911504,0.0376331767671,0.0616692308323,0.142474783506,0.000109478658612,0.281690522096,0.114118705036,0.558438320815
tagged_abstract_sents/11578281.txt,7,0.0852775543041,0.0809371061977,0.0616692308323,0.142474783506,8.56156548609e-05,0.323902242599,0.118003597122,0.599977970527
tagged_abstract_sents/11578281.txt,8,0.0711987127916,-0.0650131744759,0.0616692308323,0.142474783506,0.0,0.0,0.0,0.117533385806
tagged_abstract_sents/11578281.txt,9,0.0458567980692,-0.0353419635697,0.0616692308323,0.142474783506,5.09245989656e-05,0.148315425205,0.0956474820144,0.347207928028
tagged_abstract_sents/11578281.txt,10,0.0245374094932,0.018386985909,0.139250797795,0.0356431803763,0.258254790929,0.239483576322,0.119244604317,0.720608649354
tagged_abstract_sents/11578281.txt,11,0.0245374094932,0.0448504983389,0.139250797795,0.0356431803763,0.22278743246,0.390526195889,0.115539568345,0.837771576967
tagged_abstract_sents/11578281.txt,12,0.00844730490748,-0.0626074006186,0.139250797795,0.0356431803763,0.0,0.0,0.0,0.0745547168125
tagged_abstract_sents/11578281.txt,13,0.00120675784393,-0.019303471188,0.139250797795,0.0356431803763,4.57894449996e-05,0.199203545614,0.10462091865,0.381293318757
tagged_abstract_sents/11578281.txt,14,0.00120675784393,0.0400389506244,0.139250797795,0.0356431803763,0.000105292780768,0.234693592701,0.124871531346,0.448961966238
