tagged_abstract_sents/11574788.txt,2,0.149073327961,-0.0934343434343,0.188769469584,0.123191979006,0.420671800697,0.107628352984,0.0153527686735,0.472680266487
tagged_abstract_sents/11574788.txt,3,0.166800966962,0.0446127946128,0.188769469584,0.123191979006,0.420671800697,0.1950057539,0.0306975282782,0.858971767308
tagged_abstract_sents/11574788.txt,4,0.0342465753425,-0.0782828282828,0.188769469584,0.123191979006,0.420671800697,0.139464247643,0.0263636363636,0.729582707815
