tagged_abstract_sents/11574788.txt,1,0.218020917136,0.127104377104,0.188769469584,0.202456734834,0.299970634852,0.240411678501,0.0217181300673,0.917059807793
tagged_abstract_sents/11574788.txt,2,0.0852775543041,-0.0934343434343,0.188769469584,0.202456734834,0.117785022653,0.107628352984,0.0153527686735,0.44542307431
tagged_abstract_sents/11574788.txt,3,0.0245374094932,0.0446127946128,0.188769469584,0.202456734834,0.359562824143,0.1950057539,0.0306975282782,0.768940348082
tagged_abstract_sents/11574788.txt,4,0.00120675784393,-0.0782828282828,0.188769469584,0.202456734834,0.420671800697,0.139464247643,0.0263636363636,0.726930280564
