tagged_abstract_sents/11587008.txt,1,0.125905068383,-0.0437307478665,0.0616692308323,0.142474783506,0.0,0.0,0.0,0.165554955601
tagged_abstract_sents/11587008.txt,2,0.125905068383,0.0640811998182,0.188769469584,0.202456734834,0.16181106553,0.456623987226,0.0717370915713,0.95883419424
tagged_abstract_sents/11587008.txt,3,0.239742558327,0.0951875978387,0.188769469584,0.202456734834,0.482014001916,0.520347979868,0.0771786655431,1.4454939688
tagged_abstract_sents/11587008.txt,4,0.239742558327,-0.0447911932535,0.0616692308323,0.142474783506,0.0,0.0,0.0,0.256412858478
tagged_abstract_sents/11587008.txt,5,0.218020917136,-0.00025248699692,0.0616692308323,0.142474783506,0.0,0.182546787944,0.0629426352807,0.493432710002
tagged_abstract_sents/11587008.txt,6,0.218020917136,-0.0440842296622,0.0616692308323,0.142474783506,0.0,0.0,0.0,0.239176938244
tagged_abstract_sents/11587008.txt,7,0.162510056315,0.0467605918295,0.139250797795,0.0356431803763,0.356523310614,0.461222822962,0.0733669611277,1.11079161113
tagged_abstract_sents/11587008.txt,8,0.162510056315,-0.0154522042115,0.139250797795,0.0356431803763,0.524958859561,0.21901809199,0.0639178558361,1.01513076461
tagged_abstract_sents/11587008.txt,9,0.101769911504,-0.0168661313942,0.139250797795,0.0356431803763,0.435371663641,0.300854450882,0.0606510279031,0.955238198361
tagged_abstract_sents/11587008.txt,10,0.101769911504,-0.046558602232,0.139250797795,0.0356431803763,0.0,0.0,0.0,0.152422561767
tagged_abstract_sents/11587008.txt,11,0.0711987127916,-0.00696864111498,0.139250797795,0.0356431803763,0.588781832736,0.264413032854,0.0741147294385,1.06319319005
tagged_abstract_sents/11587008.txt,12,0.0711987127916,-0.046558602232,0.139250797795,0.0356431803763,0.0,0.0,0.0,0.127965602797
tagged_abstract_sents/11587008.txt,13,0.0458567980692,0.00717063071252,0.139250797795,0.0356431803763,0.207011068692,0.361743942449,0.0661150046441,0.753307933393
tagged_abstract_sents/11587008.txt,14,0.0458567980692,-0.0433772660708,0.0616692308323,0.142474783506,0.0,0.0,0.0,0.101587035709
tagged_abstract_sents/11587008.txt,15,0.0245374094932,-0.00908953188911,0.139250797795,0.0356431803763,0.521319088102,0.249760964975,0.0663021235652,0.93551255087
tagged_abstract_sents/11587008.txt,16,0.0245374094932,0.0191890117659,0.139250797795,0.0356431803763,0.435835458284,0.380788273738,0.07458226613,0.994992081111
tagged_abstract_sents/11587008.txt,17,0.00844730490748,0.00540322173408,0.139250797795,0.0356431803763,0.207695268749,0.301041976785,0.0811716448091,0.678065731627
tagged_abstract_sents/11587008.txt,18,0.00844730490748,0.0308539110236,0.139250797795,0.0356431803763,0.172929136667,0.460488038289,0.0845975588017,0.811261712899
tagged_abstract_sents/11587008.txt,19,0.00120675784393,0.0361561379589,0.139250797795,0.0356431803763,0.115660915469,0.406767204678,0.0687223497322,0.679665456756
tagged_abstract_sents/11587008.txt,20,0.00120675784393,0.00858455789527,0.139250797795,0.0356431803763,0.0,0.171820654285,0.0467304375098,0.301551762659
tagged_abstract_sents/11587008.txt,21,0.00120675784393,0.00434277634702,0.139250797795,0.0356431803763,0.147224453418,0.309741456603,0.0715940968411,0.610712321418
