tagged_abstract_sents/11582950.txt,1,0.0954875100725,-0.0401121462316,0.0616692308323,0.247294108221,4.73523621796e-05,0.0,0.0,0.173390426694
tagged_abstract_sents/11582950.txt,2,0.0954875100725,0.039052496799,0.188769469584,0.123191979006,4.73523621796e-05,0.182909809706,0.107324321733,0.838896540924
tagged_abstract_sents/11582950.txt,4,0.0253827558421,-0.0352554196653,0.0616692308323,0.247294108221,4.73523621796e-05,0.0,0.0,0.118277968623
tagged_abstract_sents/11582950.txt,5,0.0805801772764,0.00748377411806,0.0616692308323,0.247294108221,4.73523621796e-05,0.128336449059,0.0971203623814,0.711823855362
tagged_abstract_sents/11582950.txt,6,0.0805801772764,-0.0119431321471,0.0616692308323,0.247294108221,4.73523621796e-05,0.0909245273423,0.127969513949,0.386022175789
tagged_abstract_sents/11582950.txt,7,0.123690572119,-0.01728553137,0.0616692308323,0.247294108221,4.73523621796e-05,0.0552496743472,0.0992822966507,0.355067985169
tagged_abstract_sents/11582950.txt,8,0.123690572119,-0.0328270563822,0.0616692308323,0.247294108221,4.73523621796e-05,0.064404198364,0.131704774231,0.393518866896
tagged_abstract_sents/11582950.txt,9,0.140209508461,-0.0289416751291,0.0616692308323,0.247294108221,4.73523621796e-05,0.0406581613908,0.0555220017256,0.3076428563
tagged_abstract_sents/11582950.txt,10,0.140209508461,-0.030398693099,0.0616692308323,0.247294108221,4.73523621796e-05,0.0767304426549,0.0614588172828,0.349361797992
tagged_abstract_sents/11582950.txt,11,0.149073327961,-0.0415691642015,0.139250797795,0.194462959676,4.73523621796e-05,0.0,0.0,0.238909116329
tagged_abstract_sents/11582950.txt,12,0.149879129734,0.11821713983,0.139250797795,0.194462959676,4.73523621796e-05,0.180279804319,0.132041168495,0.605238137756
tagged_abstract_sents/11582950.txt,13,0.149879129734,-0.0444832001413,0.139250797795,0.194462959676,4.73523621796e-05,0.0,0.0,0.238970950559
tagged_abstract_sents/11582950.txt,14,0.176470588235,0.0395381694556,0.139250797795,0.194462959676,4.73523621796e-05,0.135947506943,0.150078064012,0.694294077067
tagged_abstract_sents/11582950.txt,15,0.176470588235,-0.0444832001413,0.139250797795,0.194462959676,4.73523621796e-05,0.0,0.0,0.26024411736
tagged_abstract_sents/11582950.txt,16,0.166800966962,0.0031127202084,0.139250797795,0.194462959676,4.73523621796e-05,0.124976650844,0.118988692612,0.740948313146
tagged_abstract_sents/11582950.txt,17,0.166800966962,-0.0444832001413,0.0616692308323,0.247294108221,4.73523621796e-05,0.0,0.0,0.229566981424
tagged_abstract_sents/11582950.txt,18,0.0954875100725,0.0031127202084,0.139250797795,0.194462959676,4.73523621796e-05,0.126962449586,0.0755074701421,0.634719650258
tagged_abstract_sents/11582950.txt,19,0.0954875100725,-0.0245706212195,0.0616692308323,0.247294108221,4.73523621796e-05,0.0762522605913,0.0821675089363,0.700420057895
tagged_abstract_sents/11582950.txt,20,0.0342465753425,-0.0401121462316,0.139250797795,0.194462959676,4.73523621796e-05,0.0,0.0,0.147339117828
tagged_abstract_sents/11582950.txt,21,0.0342465753425,0.0516799858713,0.139250797795,0.194462959676,4.73523621796e-05,0.148173254881,0.086506358555,0.708267749473
tagged_abstract_sents/11582950.txt,22,0.0342465753425,0.0327387522628,0.139250797795,0.194462959676,4.73523621796e-05,0.174953947964,0.0887169255105,0.425627523363
