tagged_abstract_sents/11587008.txt,1,0.206355591311,-0.0437307478665,0.0616692308323,0.106008497564,0.147224453418,0.0,0.0,0.218975488161
tagged_abstract_sents/11587008.txt,2,0.206355591311,0.0640811998182,0.188769469584,0.129715814208,0.147224453418,0.456623987226,0.0717370915713,1.00137233639
tagged_abstract_sents/11587008.txt,4,0.206355591311,-0.0447911932535,0.0616692308323,0.106008497564,0.147224453418,0.0,0.0,0.218763399084
tagged_abstract_sents/11587008.txt,5,0.0048270313757,-0.00025248699692,0.0616692308323,0.106008497564,0.147224453418,0.182546787944,0.0629426352807,0.311937715611
tagged_abstract_sents/11587008.txt,6,0.0048270313757,-0.0440842296622,0.0616692308323,0.106008497564,0.147224453418,0.0,0.0,0.0576819438534
tagged_abstract_sents/11587008.txt,7,0.0108608205953,0.0467605918295,0.139250797795,0.521468892835,0.147224453418,0.461222822962,0.0733669611277,1.13521993629
tagged_abstract_sents/11587008.txt,8,0.0108608205953,-0.0154522042115,0.139250797795,0.521468892835,0.147224453418,0.21901809199,0.0639178558361,1.03955908977
tagged_abstract_sents/11587008.txt,9,0.0261464199517,-0.0168661313942,0.139250797795,0.521468892835,0.147224453418,0.300854450882,0.0606510279031,1.04048711886
tagged_abstract_sents/11587008.txt,10,0.0261464199517,-0.046558602232,0.139250797795,0.521468892835,0.147224453418,0.0,0.0,0.237671482263
tagged_abstract_sents/11587008.txt,12,0.0518905872888,-0.046558602232,0.139250797795,0.521468892835,0.147224453418,0.0,0.0,0.258266816133
tagged_abstract_sents/11587008.txt,13,0.0993563958166,0.00717063071252,0.139250797795,0.521468892835,0.147224453418,0.361743942449,0.0661150046441,0.941855325329
tagged_abstract_sents/11587008.txt,14,0.0993563958166,-0.0433772660708,0.0616692308323,0.106008497564,0.147224453418,0.0,0.0,0.133446828124
tagged_abstract_sents/11587008.txt,15,0.172566371681,-0.00908953188911,0.139250797795,0.521468892835,0.147224453418,0.249760964975,0.0663021235652,1.19968343436
tagged_abstract_sents/11587008.txt,16,0.172566371681,0.0191890117659,0.139250797795,0.521468892835,0.147224453418,0.380788273738,0.07458226613,1.2591629646
tagged_abstract_sents/11587008.txt,17,0.206355591311,0.00540322173408,0.139250797795,0.521468892835,0.147224453418,0.301041976785,0.0811716448091,0.982140074488
tagged_abstract_sents/11587008.txt,18,0.206355591311,0.0308539110236,0.139250797795,0.521468892835,0.147224453418,0.460488038289,0.0845975588017,1.11533605576
tagged_abstract_sents/11587008.txt,19,0.262268704747,0.0361561379589,0.139250797795,0.521468892835,0.147224453418,0.406767204678,0.0687223497322,1.03426272802
tagged_abstract_sents/11587008.txt,20,0.262268704747,0.00858455789527,0.139250797795,0.521468892835,0.147224453418,0.171820654285,0.0467304375098,0.656149033919
tagged_abstract_sents/11587008.txt,21,0.262268704747,0.00434277634702,0.139250797795,0.521468892835,0.147224453418,0.309741456603,0.0715940968411,0.965309592677
