tagged_abstract_sents/11588078.txt,1,0.206355591311,-0.0592261904762,0.0616692308323,0.106008497564,0.449154479485,0.0,0.0,0.215876399639
tagged_abstract_sents/11588078.txt,3,0.0048270313757,-0.0614583333333,0.0616692308323,0.106008497564,0.449154479485,0.0,0.0,0.0542071231192
tagged_abstract_sents/11588078.txt,4,0.0048270313757,-0.0153273809524,0.205068369407,0.159268805519,0.449154479485,0.176173282691,0.0420137290193,0.824102965132
tagged_abstract_sents/11588078.txt,5,0.0108608205953,0.0188988095238,0.0616692308323,0.106008497564,0.449154479485,0.306448354799,0.0571015235863,0.747721338019
tagged_abstract_sents/11588078.txt,6,0.016894609815,-0.0502976190476,0.0616692308323,0.106008497564,0.449154479485,0.0,0.0,0.0660933287277
tagged_abstract_sents/11588078.txt,8,0.0518905872888,-0.0130952380952,0.210342442448,0.0253702522065,0.449154479485,0.191469258623,0.0167203828499,0.807430909878
tagged_abstract_sents/11588078.txt,9,0.0683829444891,0.0151785714286,0.0616692308323,0.106008497564,0.449154479485,0.283864667967,0.0659822351073,0.853341329668
tagged_abstract_sents/11588078.txt,10,0.0993563958166,-0.0607142857143,0.0616692308323,0.106008497564,0.449154479485,0.0,0.0,0.129979424196
tagged_abstract_sents/11588078.txt,11,0.172566371681,0.0672619047619,0.139250797795,0.521468892835,0.449154479485,0.310998731608,0.0588631702315,1.09405887143
tagged_abstract_sents/11588078.txt,12,0.214802896219,0.0412202380952,0.139250797795,0.521468892835,0.449154479485,0.280280544827,0.0509734023505,1.11222763569
tagged_abstract_sents/11588078.txt,13,0.206355591311,0.10818452381,0.139250797795,0.521468892835,0.449154479485,0.274748055667,0.0214364195722,0.949238201988
tagged_abstract_sents/11588078.txt,14,0.262268704747,-0.0584821428571,0.0616692308323,0.106008497564,0.449154479485,0.0,0.0,0.260755699911
tagged_abstract_sents/11588078.txt,15,0.262268704747,0.0360119047619,0.139250797795,0.521468892835,0.449154479485,0.370853861766,0.0496132434808,1.31270499623
