tagged_abstract_sents/11591077.txt,1,0.206355591311,-0.0408346378527,0.0616692308323,0.106008497564,1.28421923246e-05,0.0,0.0,0.219554710164
tagged_abstract_sents/11591077.txt,2,0.206355591311,0.00536443816578,0.188769469584,0.129715814208,1.28421923246e-05,0.281586026661,0.0294009857197,0.727132617718
tagged_abstract_sents/11591077.txt,3,0.206355591311,0.00158451376427,0.188769469584,0.129715814208,1.28421923246e-05,0.202128277228,0.0468848729938,0.618995737086
tagged_abstract_sents/11591077.txt,4,0.206355591311,-0.0185750830438,0.0616692308323,0.106008497564,1.28421923246e-05,0.15891272336,0.0259456201577,0.408864964643
tagged_abstract_sents/11591077.txt,5,0.0048270313757,-0.0420946126532,0.0616692308323,0.106008497564,1.28421923246e-05,0.0,0.0,0.0580798672552
tagged_abstract_sents/11591077.txt,6,0.0048270313757,-0.0156351418426,0.0616692308323,0.106008497564,1.28421923246e-05,0.120337406457,0.0358903070896,0.219599474964
tagged_abstract_sents/11591077.txt,8,0.0108608205953,-0.0198350578443,0.139250797795,0.521468892835,1.28421923246e-05,0.168801283089,0.0639183260819,0.463507320826
tagged_abstract_sents/11591077.txt,9,0.0261464199517,0.0414837157802,0.139250797795,0.521468892835,1.28421923246e-05,0.367917547373,0.107273744832,0.730483843076
tagged_abstract_sents/11591077.txt,11,0.0353982300885,-0.0420946126532,0.139250797795,0.521468892835,1.28421923246e-05,0.0,0.0,0.245965728288
tagged_abstract_sents/11591077.txt,12,0.0518905872888,0.0423236989806,0.139250797795,0.521468892835,1.28421923246e-05,0.272800257636,0.0428598508783,0.682167492328
tagged_abstract_sents/11591077.txt,13,0.0518905872888,0.0427436905807,0.139250797795,0.521468892835,1.28421923246e-05,0.360137080345,0.0328362610051,0.757470835508
tagged_abstract_sents/11591077.txt,14,0.0993563958166,0.00746439616662,0.139250797795,0.521468892835,1.28421923246e-05,0.234983609709,0.0494272269757,0.59145489932
tagged_abstract_sents/11591077.txt,15,0.0993563958166,-0.00849528463976,0.139250797795,0.521468892835,1.28421923246e-05,0.212556459882,0.0457080121319,0.562116598488
tagged_abstract_sents/11591077.txt,16,0.172566371681,0.0112443205681,0.139250797795,0.521468892835,1.28421923246e-05,0.297846679806,0.0484898268672,0.836438662377
tagged_abstract_sents/11591077.txt,17,0.172566371681,0.00578442976595,0.139250797795,0.521468892835,1.28421923246e-05,0.169773090672,0.0133595710494,0.725640852173
tagged_abstract_sents/11591077.txt,18,0.206355591311,-0.0404146462525,0.139250797795,0.521468892835,1.28421923246e-05,0.0,0.0,0.383067610547
tagged_abstract_sents/11591077.txt,19,0.206355591311,-0.0252949486465,0.0616692308323,0.106008497564,1.28421923246e-05,0.116669384268,0.029295865262,0.368627897535
tagged_abstract_sents/11591077.txt,20,0.262268704747,0.0141842617693,0.139250797795,0.521468892835,1.28421923246e-05,0.271444525175,0.0457032730949,0.877297855142
tagged_abstract_sents/11591077.txt,21,0.262268704747,0.00284448856477,0.139250797795,0.521468892835,1.28421923246e-05,0.208655802506,0.0237658060823,0.756982132563
tagged_abstract_sents/11591077.txt,22,0.262268704747,-0.00555534343859,0.139250797795,0.521468892835,1.28421923246e-05,0.236763244653,0.0765687967761,0.748114845479
