tagged_abstract_sents/11673343.txt,1,0.0954875100725,-0.0701828808446,0.0616692308323,0.247294108221,0.193626233304,0.0,0.0,0.167376279772
tagged_abstract_sents/11673343.txt,3,0.0805801772764,-0.0646681749623,0.0616692308323,0.247294108221,0.193626233304,0.0,0.0,0.156553354711
tagged_abstract_sents/11673343.txt,4,0.123690572119,0.0364347662142,0.210342442448,0.141687475369,0.193626233304,0.330176356179,0.0409041471604,0.810934417876
tagged_abstract_sents/11673343.txt,5,0.123690572119,0.00763574660633,0.0616692308323,0.247294108221,0.193626233304,0.434290433765,0.0537466307278,0.788327588309
tagged_abstract_sents/11673343.txt,6,0.140209508461,-0.00584464555053,0.0616692308323,0.247294108221,0.193626233304,0.209487023603,0.036302571343,0.483767504054
tagged_abstract_sents/11673343.txt,7,0.149879129734,-0.0180995475113,0.194899689933,0.293363477728,0.193626233304,0.216744447988,0.0307876609763,0.591222624755
tagged_abstract_sents/11673343.txt,8,0.176470588235,0.0303073152338,0.139250797795,0.194462959676,0.193626233304,0.342123842833,0.0488883184301,0.791054150792
tagged_abstract_sents/11673343.txt,9,0.176470588235,0.0529788838612,0.139250797795,0.194462959676,0.193626233304,0.362317492356,0.0485246509505,0.80146001582
tagged_abstract_sents/11673343.txt,10,0.166800966962,-0.00890837104072,0.139250797795,0.194462959676,0.193626233304,0.232418872014,0.0587800738744,0.712346759086
tagged_abstract_sents/11673343.txt,11,0.0954875100725,0.0241798642534,0.139250797795,0.194462959676,0.193626233304,0.225268157407,0.0431865828092,0.615253442948
tagged_abstract_sents/11673343.txt,12,0.0342465753425,-0.0695701357466,0.0616692308323,0.247294108221,0.193626233304,0.0,0.0,0.118506081007
tagged_abstract_sents/11673343.txt,13,0.0342465753425,0.0572680995475,0.139250797795,0.194462959676,0.193626233304,0.427483273707,0.0444688474039,0.832393521398
