tagged_abstract_sents/11676116.txt,1,0.0451248992748,-0.0937947494033,0.188769469584,0.123191979006,0.147448623292,0.124753405943,0.0142961876833,0.468319126543
tagged_abstract_sents/11676116.txt,2,0.131345688961,-0.0221957040573,0.188769469584,0.123191979006,0.147448623292,0.187616631517,0.0235803785657,0.630432607376
tagged_abstract_sents/11676116.txt,4,0.131345688961,0.0303102625298,0.139250797795,0.194462959676,0.147448623292,0.160740817051,0.0382251689405,0.552165918774
tagged_abstract_sents/11676116.txt,5,0.0342465753425,-0.0329355608592,0.139250797795,0.194462959676,0.147448623292,0.151806834823,0.0274403016339,0.475470194652
