tagged_abstract_sents/11687054.txt,1,0.206355591311,-0.0409315191388,0.0616692308323,0.106008497564,0.425226150991,0.0,0.0,0.219535333907
tagged_abstract_sents/11687054.txt,2,0.206355591311,0.0211572966507,0.188769469584,0.129715814208,0.425226150991,0.241883113967,0.0481760914152,0.998148965782
tagged_abstract_sents/11687054.txt,4,0.206355591311,-0.0409315191388,0.0616692308323,0.106008497564,0.425226150991,0.0,0.0,0.219535333907
tagged_abstract_sents/11687054.txt,5,0.0048270313757,0.0585750598086,0.0616692308323,0.106008497564,0.425226150991,0.346195898972,0.0595312042192,0.631690871573
tagged_abstract_sents/11687054.txt,6,0.0048270313757,-0.0195499401914,0.0616692308323,0.106008497564,0.425226150991,0.109983790835,0.0375463912491,0.482951096625
tagged_abstract_sents/11687054.txt,7,0.0108608205953,-0.0388755980861,0.0616692308323,0.106008497564,0.425226150991,0.0,0.0,0.0635507015443
tagged_abstract_sents/11687054.txt,8,0.0108608205953,0.025269138756,0.0616692308323,0.106008497564,0.425226150991,0.165814387376,0.030497578463,0.356718084126
tagged_abstract_sents/11687054.txt,9,0.0261464199517,-0.0327078349282,0.0616692308323,0.106008497564,0.425226150991,0.0308963957118,0.0231925725168,0.13110170189
tagged_abstract_sents/11687054.txt,10,0.0261464199517,-0.0376420454545,0.0616692308323,0.106008497564,0.425226150991,0.0,0.0,0.0760258915558
tagged_abstract_sents/11687054.txt,12,0.0518905872888,-0.0335302033493,0.0616692308323,0.106008497564,0.425226150991,0.0,0.0,0.0974435938465
tagged_abstract_sents/11687054.txt,13,0.0518905872888,0.0499401913876,0.0616692308323,0.106008497564,0.425226150991,0.275009413113,0.039966235542,0.501072685886
tagged_abstract_sents/11687054.txt,14,0.0993563958166,0.00717703349282,0.0616692308323,0.106008497564,0.425226150991,0.136561671395,0.012373906492,0.427829066015
tagged_abstract_sents/11687054.txt,15,0.0993563958166,0.0137559808612,0.0616692308323,0.106008497564,0.425226150991,0.24517486984,0.0508863170231,0.648169973009
tagged_abstract_sents/11687054.txt,16,0.172566371681,-0.0401091507177,0.0616692308323,0.106008497564,0.425226150991,0.0,0.0,0.192668431887
tagged_abstract_sents/11687054.txt,17,0.172566371681,-0.00433612440191,0.139250797795,0.521468892835,0.425226150991,0.248860173203,0.0539076595679,0.936064593492
tagged_abstract_sents/11687054.txt,18,0.206355591311,0.025269138756,0.139250797795,0.521468892835,0.425226150991,0.237786538918,0.0421305791581,0.85858680453
tagged_abstract_sents/11687054.txt,19,0.206355591311,-0.0261288875598,0.139250797795,0.521468892835,0.425226150991,0.121751599939,0.0157767810859,0.751694006789
tagged_abstract_sents/11687054.txt,20,0.262268704747,-0.012970992823,0.139250797795,0.521468892835,0.425226150991,0.222622122943,0.0340185359384,0.994657952309
tagged_abstract_sents/11687054.txt,21,0.262268704747,-0.0359973086124,0.0616692308323,0.106008497564,0.425226150991,0.0,0.0,0.26525266676
tagged_abstract_sents/11687054.txt,22,0.262268704747,-0.000224282296651,0.139250797795,0.521468892835,0.425226150991,0.1673555215,0.0419083894912,1.07032623607
