tagged_abstract_sents/11698781.txt,1,0.0954875100725,-0.0601808176101,0.0616692308323,0.247294108221,0.26851573613,0.0,0.0,0.169376692419
tagged_abstract_sents/11698781.txt,3,0.0451248992748,-0.0619496855346,0.0616692308323,0.247294108221,0.26851573613,0.0,0.0,0.128732830195
tagged_abstract_sents/11698781.txt,4,0.0805801772764,0.0665880503145,0.194899689933,0.293363477728,0.26851573613,0.470303910593,0.0326490614919,1.10675613424
tagged_abstract_sents/11698781.txt,5,0.123690572119,-0.0619496855346,0.0616692308323,0.247294108221,0.26851573613,0.0,0.0,0.191585368471
tagged_abstract_sents/11698781.txt,6,0.131345688961,0.00821540880503,0.139250797795,0.194462959676,0.26851573613,0.311112400004,0.0255373767997,0.966616798471
tagged_abstract_sents/11698781.txt,7,0.140209508461,0.0259040880503,0.139250797795,0.194462959676,0.26851573613,0.182465805,0.0703134528601,0.744605824787
tagged_abstract_sents/11698781.txt,8,0.149879129734,-0.0377751572327,0.139250797795,0.194462959676,0.26851573613,0.155931039406,0.0397202910924,0.593097342194
tagged_abstract_sents/11698781.txt,9,0.150684931507,0.106682389937,0.139250797795,0.194462959676,0.26851573613,0.396084969165,0.0502861685933,0.952532080136
tagged_abstract_sents/11698781.txt,10,0.176470588235,0.00467767295597,0.139250797795,0.194462959676,0.26851573613,0.301849427184,0.0428599940126,1.06826926047
tagged_abstract_sents/11698781.txt,11,0.166800966962,-0.0595911949686,0.139250797795,0.194462959676,0.26851573613,0.0,0.0,0.249486821376
tagged_abstract_sents/11698781.txt,12,0.131345688961,0.0400550314465,0.139250797795,0.194462959676,0.26851573613,0.417776228229,0.0243102817417,1.1208551629
tagged_abstract_sents/11698781.txt,13,0.0954875100725,-0.00357704402516,0.139250797795,0.194462959676,0.26851573613,0.2098006337,0.0360206529252,0.60659414476
tagged_abstract_sents/11698781.txt,14,0.0342465753425,-0.0507468553459,0.139250797795,0.194462959676,0.26851573613,0.106860262097,0.046030003659,0.501430011928
tagged_abstract_sents/11698781.txt,15,0.0342465753425,0.037106918239,0.139250797795,0.194462959676,0.26851573613,0.407709444661,0.0329105175428,0.871918629057
