tagged_abstract_sents/11702616.txt,1,0.218020917136,-0.0449044585987,0.188769469584,0.202456734834,0.115785872353,0.115132278304,0.0243950039032,0.575870751791
tagged_abstract_sents/11702616.txt,2,0.0852775543041,0.121974522293,0.188769469584,0.202456734834,4.18208160354e-06,0.173744929871,0.0281705998919,0.449658414988
tagged_abstract_sents/11702616.txt,3,0.0245374094932,-0.053821656051,0.188769469584,0.202456734834,0.0922436483105,0.197893033676,0.0470016663664,0.50112569998
tagged_abstract_sents/11702616.txt,4,0.00120675784393,-0.0232484076433,0.188769469584,0.202456734834,0.0444117448363,0.147784333642,0.0211837342985,0.364817292766
