tagged_abstract_sents/11711507.txt,1,0.239742558327,-0.0439202605035,0.188769469584,0.202456734834,0.19361517965,0.159380737412,0.0430937464831,0.734221413349
tagged_abstract_sents/11711507.txt,2,0.218020917136,-0.0239059645779,0.0616692308323,0.142474783506,0.267965462706,0.19501396223,0.0463607789967,0.752552795194
tagged_abstract_sents/11711507.txt,3,0.162510056315,0.0354221269161,0.139250797795,0.0356431803763,0.266066278267,0.211340708684,0.0500816590657,0.744899469463
tagged_abstract_sents/11711507.txt,4,0.101769911504,0.0318481455008,0.139250797795,0.0356431803763,0.093256363747,0.324660006487,0.0440091276509,0.630029409199
tagged_abstract_sents/11711507.txt,5,0.0711987127916,-0.00174727980303,0.139250797795,0.0356431803763,0.170832097381,0.160716170506,0.0543196908879,0.522795826058
tagged_abstract_sents/11711507.txt,6,0.0458567980692,0.0568660154078,0.139250797795,0.0356431803763,0.111309818553,0.168802803489,0.0381075639919,0.446597180582
tagged_abstract_sents/11711507.txt,7,0.0245374094932,-0.0246207608609,0.139250797795,0.0356431803763,0.15630600719,0.180171878918,0.0408757549612,0.472377769502
tagged_abstract_sents/11711507.txt,8,0.00844730490748,-0.0517830196172,0.139250797795,0.0356431803763,0.196168253812,0.151902760628,0.0463292943692,0.471119901822
tagged_abstract_sents/11711507.txt,9,0.00120675784393,0.0218409975379,0.139250797795,0.0356431803763,0.230078785636,0.208808092677,0.0597572223379,0.584296059444
