tagged_abstract_sents/11753159.txt,1,0.206355591311,-0.0677640427849,0.0616692308323,0.106008497564,0.0,0.0,0.0,0.214168829177
tagged_abstract_sents/11753159.txt,2,0.206355591311,0.00800614872222,0.188769469584,0.129715814208,0.0,0.150958001456,0.00694872426969,0.587205535185
tagged_abstract_sents/11753159.txt,4,0.0108608205953,-0.0702619611862,0.0616692308323,0.106008497564,0.0,0.0,0.0,0.0572734289243
tagged_abstract_sents/11753159.txt,5,0.0108608205953,0.0937680138346,0.210342442448,0.0253702522065,0.0,0.16765184077,0.00951405152225,0.317390448421
tagged_abstract_sents/11753159.txt,7,0.0518905872888,0.000512393518222,0.0616692308323,0.106008497564,0.0,0.116816621795,0.0120846750585,0.387146987862
tagged_abstract_sents/11753159.txt,8,0.0993563958166,-0.0702619611862,0.0616692308323,0.106008497564,0.0,0.0,0.0,0.128069889101
tagged_abstract_sents/11753159.txt,9,0.0993563958166,0.0995964901044,0.139250797795,0.521468892835,0.0,0.18938398595,0.00959041849099,0.524444885863
tagged_abstract_sents/11753159.txt,10,0.172566371681,0.0404790879395,0.139250797795,0.521468892835,0.0,0.150185322555,0.01160389019,0.534004194426
tagged_abstract_sents/11753159.txt,11,0.206355591311,-0.0469480561071,0.139250797795,0.521468892835,0.0,0.0946235124076,0.0188479553234,0.606568947982
tagged_abstract_sents/11753159.txt,12,0.262268704747,-0.0669314033177,0.0616692308323,0.106008497564,0.0,0.0,0.0,0.259065847819
tagged_abstract_sents/11753159.txt,13,0.262268704747,0.0188304617947,0.139250797795,0.521468892835,0.0,0.164074915817,0.0128586065574,0.616580645278
