tagged_abstract_sents/11759645.txt,1,0.206355591311,-0.0662763466042,0.0616692308323,0.106008497564,0.137704148205,0.0,0.0,0.214466368414
tagged_abstract_sents/11759645.txt,2,0.206355591311,-0.0114754098361,0.188769469584,0.129715814208,0.137704148205,0.187255154769,0.0414296866287,0.524792159572
tagged_abstract_sents/11759645.txt,3,0.0048270313757,-0.00351288056206,0.188769469584,0.129715814208,0.137704148205,0.188120724342,0.0686860594108,0.393282883852
tagged_abstract_sents/11759645.txt,4,0.0048270313757,-0.067681498829,0.0616692308323,0.106008497564,0.137704148205,0.0,0.0,0.05296249002
tagged_abstract_sents/11759645.txt,5,0.0108608205953,0.0124121779859,0.210342442448,0.0253702522065,0.137704148205,0.192814416254,0.0421824467492,0.358963963577
tagged_abstract_sents/11759645.txt,7,0.0353982300885,-0.067681498829,0.139250797795,0.521468892835,0.137704148205,0.0,0.0,0.240848351053
tagged_abstract_sents/11759645.txt,8,0.0518905872888,-0.0489461358314,0.139250797795,0.521468892835,0.137704148205,0.0735016476112,0.0165398126464,0.34783076967
tagged_abstract_sents/11759645.txt,9,0.0993563958166,0.101405152225,0.139250797795,0.521468892835,0.137704148205,0.252680893322,0.0292468991239,0.659988114184
tagged_abstract_sents/11759645.txt,10,0.172566371681,0.019906323185,0.139250797795,0.521468892835,0.137704148205,0.183936395298,0.0284585145534,0.580506672045
tagged_abstract_sents/11759645.txt,12,0.206355591311,-0.0658079625293,0.0616692308323,0.106008497564,0.137704148205,0.0,0.0,0.214560045229
tagged_abstract_sents/11759645.txt,13,0.262268704747,0.0166276346604,0.139250797795,0.521468892835,0.137704148205,0.177233936766,0.0175131733021,0.759620632703
tagged_abstract_sents/11759645.txt,14,0.262268704747,0.0348946135831,0.139250797795,0.521468892835,0.137704148205,0.253645761768,0.0309545493972,0.865164412632
