tagged_abstract_sents/11753159.txt,1,0.125905068383,-0.0677640427849,0.0616692308323,0.142474783506,0.0,0.0,0.0,0.160748296617
tagged_abstract_sents/11753159.txt,2,0.239742558327,0.00800614872222,0.188769469584,0.202456734834,0.129313627611,0.150958001456,0.00694872426969,0.635737384985
tagged_abstract_sents/11753159.txt,3,0.218020917136,0.0204957407289,0.0616692308323,0.142474783506,0.239856885962,0.157623343337,0.00684857635893,0.65642173798
tagged_abstract_sents/11753159.txt,4,0.162510056315,-0.0702619611862,0.0616692308323,0.142474783506,0.0,0.0,0.0,0.189532703283
tagged_abstract_sents/11753159.txt,5,0.162510056315,0.0937680138346,0.210342442448,0.226435992083,0.0,0.16765184077,0.00951405152225,0.49902955896
tagged_abstract_sents/11753159.txt,6,0.101769911504,0.0404790879395,0.0616692308323,0.142474783506,0.169443678784,0.172363746479,0.00798762127802,0.5128838438
tagged_abstract_sents/11753159.txt,7,0.0711987127916,0.000512393518222,0.0616692308323,0.142474783506,0.153993577788,0.116816621795,0.0120846750585,0.413533374047
tagged_abstract_sents/11753159.txt,8,0.0458567980692,-0.0702619611862,0.0616692308323,0.142474783506,0.0,0.0,0.0,0.096210096686
tagged_abstract_sents/11753159.txt,9,0.0458567980692,0.0995964901044,0.139250797795,0.0356431803763,0.0,0.18938398595,0.00959041849099,0.335897493927
tagged_abstract_sents/11753159.txt,10,0.0245374094932,0.0404790879395,0.139250797795,0.0356431803763,0.0,0.150185322555,0.01160389019,0.269833310938
tagged_abstract_sents/11753159.txt,11,0.00844730490748,-0.0469480561071,0.139250797795,0.0356431803763,0.111336551676,0.0946235124076,0.0188479553234,0.302494605122
tagged_abstract_sents/11753159.txt,12,0.00120675784393,-0.0669314033177,0.0616692308323,0.142474783506,0.0,0.0,0.0,0.0611561760795
tagged_abstract_sents/11753159.txt,13,0.00120675784393,0.0188304617947,0.139250797795,0.0356431803763,0.0,0.164074915817,0.0128586065574,0.261983374019
