tagged_abstract_sents/11754710.txt,1,0.0954875100725,-0.0448061080972,0.0616692308323,0.247294108221,0.108368696602,0.0,0.0,0.172451634321
tagged_abstract_sents/11754710.txt,2,0.0954875100725,0.00688165561583,0.188769469584,0.123191979006,0.108368696602,0.165325901252,0.175431126251,0.818943503682
tagged_abstract_sents/11754710.txt,3,0.0253827558421,-0.0441028732168,0.0616692308323,0.247294108221,0.108368696602,0.0,0.0,0.116508477913
tagged_abstract_sents/11754710.txt,4,0.0253827558421,-0.0106992163954,0.188769469584,0.123191979006,0.108368696602,0.119083681707,0.0901964610981,0.617837070385
tagged_abstract_sents/11754710.txt,5,0.0805801772764,-0.0409383162548,0.0616692308323,0.247294108221,0.108368696602,0.0,0.0,0.161299326453
tagged_abstract_sents/11754710.txt,6,0.0805801772764,-0.000150693188668,0.0616692308323,0.247294108221,0.108368696602,0.115944972575,0.0412470725995,0.424198971862
tagged_abstract_sents/11754710.txt,7,0.123690572119,-0.044454490657,0.0616692308323,0.247294108221,0.108368696602,0.0,0.0,0.195084407447
tagged_abstract_sents/11754710.txt,9,0.140209508461,-0.0426964034559,0.0616692308323,0.247294108221,0.108368696602,0.0,0.0,0.20865117396
tagged_abstract_sents/11754710.txt,10,0.140209508461,0.0163753265019,0.194899689933,0.293363477728,0.108368696602,0.118011288107,0.0779257741348,0.644010486526
tagged_abstract_sents/11754710.txt,11,0.149879129734,-0.0398834639341,0.0616692308323,0.247294108221,0.108368696602,0.0,0.0,0.216949458883
tagged_abstract_sents/11754710.txt,12,0.149879129734,0.0564597146876,0.139250797795,0.194462959676,0.108368696602,0.164236349281,0.0381733021077,0.686730992408
tagged_abstract_sents/11754710.txt,13,0.176470588235,-0.0448061080972,0.139250797795,0.194462959676,0.108368696602,0.0,0.0,0.260179535769
tagged_abstract_sents/11754710.txt,14,0.176470588235,-0.0349608197709,0.139250797795,0.194462959676,0.108368696602,0.0725395066548,0.0579729842757,0.758313044104
tagged_abstract_sents/11754710.txt,15,0.166800966962,0.00336548121358,0.139250797795,0.194462959676,0.108368696602,0.153242713044,0.11269826485,0.943217368836
tagged_abstract_sents/11754710.txt,16,0.166800966962,0.21574241511,0.139250797795,0.194462959676,0.108368696602,0.150464715749,0.0537623459933,0.580425166759
tagged_abstract_sents/11754710.txt,17,0.0954875100725,0.0754470564597,0.139250797795,0.194462959676,0.108368696602,0.202560108556,0.0533323575332,0.63982971233
tagged_abstract_sents/11754710.txt,18,0.0954875100725,0.0402853124372,0.139250797795,0.194462959676,0.108368696602,0.114136624433,0.0561816939891,0.505724482399
tagged_abstract_sents/11754710.txt,19,0.0342465753425,-0.0286317058469,0.139250797795,0.194462959676,0.108368696602,0.0849659775135,0.0313963700234,0.660880395697
tagged_abstract_sents/11754710.txt,20,0.0342465753425,-0.0437512557766,0.139250797795,0.194462959676,0.108368696602,0.0,0.0,0.146611295919
tagged_abstract_sents/11754710.txt,21,0.0342465753425,0.00477195097448,0.139250797795,0.194462959676,0.108368696602,0.140969616388,0.0661592505855,0.471813500844
