tagged_abstract_sents/11762571.txt,1,0.206355591311,-0.0412041590558,0.0616692308323,0.106008497564,0.415829931902,0.0,0.0,0.219480805923
tagged_abstract_sents/11762571.txt,3,0.206355591311,-0.0141562456091,0.188769469584,0.129715814208,0.415829931902,0.161271692537,0.0439007715597,0.641476980517
tagged_abstract_sents/11762571.txt,4,0.206355591311,0.0132780666011,0.0616692308323,0.106008497564,0.415829931902,0.309393161997,0.0687811309698,0.911086850449
tagged_abstract_sents/11762571.txt,5,0.0048270313757,-0.0423633553464,0.0616692308323,0.106008497564,0.415829931902,0.0,0.0,0.0580261187166
tagged_abstract_sents/11762571.txt,6,0.0048270313757,0.0337572010679,0.0616692308323,0.106008497564,0.415829931902,0.2149842753,0.036669433864,0.330014552172
tagged_abstract_sents/11762571.txt,7,0.0108608205953,-0.011837853028,0.0616692308323,0.106008497564,0.415829931902,0.0913244398975,0.0447486881709,0.205031378624
tagged_abstract_sents/11762571.txt,9,0.0261464199517,-0.0423633553464,0.0616692308323,0.106008497564,0.415829931902,0.0,0.0,0.0750816295774
tagged_abstract_sents/11762571.txt,10,0.0261464199517,0.01095967402,0.139250797795,0.521468892835,0.415829931902,0.271938736214,0.0507338886331,0.571877424097
tagged_abstract_sents/11762571.txt,11,0.0353982300885,-0.00140508641281,0.139250797795,0.521468892835,0.415829931902,0.193802082728,0.0603919270609,0.508297643326
tagged_abstract_sents/11762571.txt,12,0.0518905872888,-0.0311577912042,0.139250797795,0.521468892835,0.415829931902,0.104292572562,0.0337945822124,0.478164247085
tagged_abstract_sents/11762571.txt,13,0.0518905872888,-0.0106786567374,0.139250797795,0.521468892835,0.415829931902,0.206454845478,0.067604832733,0.539537112069
tagged_abstract_sents/11762571.txt,14,0.0993563958166,-0.0122242517915,0.139250797795,0.521468892835,0.415829931902,0.171129605675,0.0561627112023,0.530398649921
tagged_abstract_sents/11762571.txt,15,0.0993563958166,0.043417170156,0.139250797795,0.521468892835,0.415829931902,0.316055393327,0.0653650480782,0.905311041853
tagged_abstract_sents/11762571.txt,16,0.172566371681,0.027188422088,0.139250797795,0.521468892835,0.415829931902,0.251780371276,0.0413529153238,0.6627171394
tagged_abstract_sents/11762571.txt,17,0.172566371681,-0.0153154418997,0.139250797795,0.521468892835,0.415829931902,0.172840982007,0.0271169059478,0.561013963668
tagged_abstract_sents/11762571.txt,18,0.206355591311,-0.00720106786567,0.0616692308323,0.106008497564,0.415829931902,0.241072642528,0.0419791971872,0.573335517575
tagged_abstract_sents/11762571.txt,19,0.206355591311,-0.0396585640017,0.0616692308323,0.106008497564,0.415829931902,0.0,0.0,0.219789924934
tagged_abstract_sents/11762571.txt,20,0.262268704747,0.019074048054,0.139250797795,0.521468892835,0.415829931902,0.352672938701,0.0497275124524,1.13448952532
tagged_abstract_sents/11762571.txt,21,0.262268704747,-0.00256428270339,0.139250797795,0.521468892835,0.415829931902,0.214085134472,0.0661010668551,0.715597479493
tagged_abstract_sents/11762571.txt,22,0.262268704747,0.000526907404805,0.139250797795,0.521468892835,0.415829931902,0.24538704988,0.0555514861477,1.15275487996
