tagged_abstract_sents/11762571.txt,1,0.0954875100725,-0.0412041590558,0.0616692308323,0.247294108221,0.415829931902,0.0,0.0,0.173172024129
tagged_abstract_sents/11762571.txt,3,0.0253827558421,-0.0141562456091,0.188769469584,0.123191979006,0.415829931902,0.161271692537,0.0439007715597,0.494741561581
tagged_abstract_sents/11762571.txt,4,0.0253827558421,0.0132780666011,0.0616692308323,0.247294108221,0.415829931902,0.309393161997,0.0687811309698,0.808694265271
tagged_abstract_sents/11762571.txt,5,0.0805801772764,-0.0423633553464,0.0616692308323,0.247294108221,0.415829931902,0.0,0.0,0.161014318634
tagged_abstract_sents/11762571.txt,6,0.0805801772764,0.0337572010679,0.0616692308323,0.247294108221,0.415829931902,0.2149842753,0.036669433864,0.433002752089
tagged_abstract_sents/11762571.txt,7,0.123690572119,-0.011837853028,0.0616692308323,0.247294108221,0.415829931902,0.0913244398975,0.0447486881709,0.337680863041
tagged_abstract_sents/11762571.txt,8,0.123690572119,0.0778066601096,0.210342442448,0.141687475369,0.415829931902,0.360235387319,0.071664225022,0.946466039797
tagged_abstract_sents/11762571.txt,9,0.140209508461,-0.0423633553464,0.0616692308323,0.247294108221,0.415829931902,0.0,0.0,0.208717783582
tagged_abstract_sents/11762571.txt,10,0.140209508461,0.01095967402,0.139250797795,0.194462959676,0.415829931902,0.271938736214,0.0507338886331,0.565026114957
tagged_abstract_sents/11762571.txt,11,0.149073327961,-0.00140508641281,0.139250797795,0.194462959676,0.415829931902,0.193802082728,0.0603919270609,0.501135941676
tagged_abstract_sents/11762571.txt,12,0.149879129734,-0.0311577912042,0.139250797795,0.194462959676,0.415829931902,0.104292572562,0.0337945822124,0.458453301093
tagged_abstract_sents/11762571.txt,13,0.149879129734,-0.0106786567374,0.139250797795,0.194462959676,0.415829931902,0.206454845478,0.067604832733,0.519826166077
tagged_abstract_sents/11762571.txt,14,0.176470588235,-0.0122242517915,0.139250797795,0.194462959676,0.415829931902,0.171129605675,0.0561627112023,0.493988223908
tagged_abstract_sents/11762571.txt,15,0.176470588235,0.043417170156,0.139250797795,0.194462959676,0.415829931902,0.316055393327,0.0653650480782,0.86890061584
tagged_abstract_sents/11762571.txt,16,0.166800966962,0.027188422088,0.139250797795,0.194462959676,0.415829931902,0.251780371276,0.0413529153238,0.560003035677
tagged_abstract_sents/11762571.txt,17,0.166800966962,-0.0153154418997,0.139250797795,0.194462959676,0.415829931902,0.172840982007,0.0271169059478,0.458299859945
tagged_abstract_sents/11762571.txt,18,0.0954875100725,-0.00720106786567,0.0616692308323,0.247294108221,0.415829931902,0.241072642528,0.0419791971872,0.527026735781
tagged_abstract_sents/11762571.txt,19,0.0954875100725,-0.0396585640017,0.0616692308323,0.247294108221,0.415829931902,0.0,0.0,0.17348114314
tagged_abstract_sents/11762571.txt,20,0.0342465753425,0.019074048054,0.139250797795,0.194462959676,0.415829931902,0.352672938701,0.0497275124524,0.853970041852
tagged_abstract_sents/11762571.txt,21,0.0342465753425,-0.00256428270339,0.139250797795,0.194462959676,0.415829931902,0.214085134472,0.0661010668551,0.435077996022
tagged_abstract_sents/11762571.txt,22,0.0342465753425,0.000526907404805,0.139250797795,0.194462959676,0.415829931902,0.24538704988,0.0555514861477,0.872235396485
