tagged_abstract_sents/11772963.txt,1,0.0954875100725,-0.0426167738582,0.0616692308323,0.247294108221,0.0880978119296,0.0,0.0,0.172889501169
tagged_abstract_sents/11772963.txt,3,0.0253827558421,-0.0453452868187,0.188769469584,0.123191979006,0.0880978119296,0.0,0.0,0.142579475804
tagged_abstract_sents/11772963.txt,4,0.0253827558421,0.0101344767102,0.188769469584,0.123191979006,0.0880978119296,0.447853400148,0.0616124017892,0.887571136149
tagged_abstract_sents/11772963.txt,5,0.0805801772764,-0.0439810303385,0.0616692308323,0.247294108221,0.0880978119296,0.0,0.0,0.160690783636
tagged_abstract_sents/11772963.txt,6,0.0805801772764,0.0442408887156,0.210342442448,0.141687475369,0.0880978119296,0.570608481361,0.0806632009377,1.16276256654
tagged_abstract_sents/11772963.txt,7,0.123690572119,-0.00532709673228,0.0616692308323,0.247294108221,0.0880978119296,0.326087218505,0.0795763227939,0.99124036353
tagged_abstract_sents/11772963.txt,8,0.123690572119,-0.0253361917755,0.0616692308323,0.247294108221,0.0880978119296,0.234717701216,0.0712070101974,0.564566278396
tagged_abstract_sents/11772963.txt,9,0.140209508461,-0.00714610537257,0.0616692308323,0.247294108221,0.0880978119296,0.322830116896,0.0592135423438,0.597804892817
tagged_abstract_sents/11772963.txt,10,0.140209508461,-0.0439810303385,0.0616692308323,0.247294108221,0.0880978119296,0.0,0.0,0.208394248584
tagged_abstract_sents/11772963.txt,11,0.149879129734,0.0424218800754,0.139250797795,0.194462959676,0.0880978119296,0.456007951824,0.101331029097,1.07286821383
tagged_abstract_sents/11772963.txt,12,0.149879129734,-0.0194244136945,0.139250797795,0.194462959676,0.0880978119296,0.365314211124,0.0819164003859,1.01222619394
tagged_abstract_sents/11772963.txt,13,0.176470588235,0.0260508023127,0.139250797795,0.194462959676,0.0880978119296,0.478887467904,0.0819355589159,0.990073990266
tagged_abstract_sents/11772963.txt,14,0.176470588235,0.033781589034,0.139250797795,0.194462959676,0.0880978119296,0.531178607223,0.0769946582439,1.08527947122
tagged_abstract_sents/11772963.txt,15,0.166800966962,-0.0130578834535,0.139250797795,0.194462959676,0.0880978119296,0.2134684069,0.0588743581648,0.669576980656
tagged_abstract_sents/11772963.txt,16,0.166800966962,-0.0212434223348,0.139250797795,0.194462959676,0.0880978119296,0.189044588182,0.0513260439688,0.662192718561
tagged_abstract_sents/11772963.txt,17,0.0954875100725,0.00695121158968,0.139250797795,0.194462959676,0.0880978119296,0.39440878645,0.0672143893525,0.805164728203
tagged_abstract_sents/11772963.txt,18,0.0954875100725,0.00467745078932,0.139250797795,0.194462959676,0.0880978119296,0.561298736496,0.0703430418093,1.13199232955
tagged_abstract_sents/11772963.txt,19,0.0342465753425,-0.0421620216982,0.0616692308323,0.247294108221,0.0880978119296,0.0,0.0,0.123987703817
tagged_abstract_sents/11772963.txt,20,0.0342465753425,0.0656142402391,0.139250797795,0.194462959676,0.0880978119296,0.583553843526,0.0720891008491,1.08861498185
tagged_abstract_sents/11772963.txt,21,0.0342465753425,0.021503280712,0.139250797795,0.194462959676,0.0880978119296,0.382293847663,0.0573455856694,0.687399448478
