tagged_abstract_sents/11786451.txt,1,0.0954875100725,-0.0388553087808,0.0616692308323,0.247294108221,0.474213744914,0.0,0.0,0.173641794184
tagged_abstract_sents/11786451.txt,2,0.0954875100725,-0.0118662730766,0.188769469584,0.123191979006,0.474213744914,0.193179203954,0.045389458998,0.762873055055
tagged_abstract_sents/11786451.txt,3,0.0253827558421,-0.0396987161466,0.0616692308323,0.247294108221,0.474213744914,0.0,0.0,0.117389309327
tagged_abstract_sents/11786451.txt,4,0.0253827558421,-0.0273287414488,0.0616692308323,0.247294108221,0.474213744914,0.132984100947,0.00680153470527,0.25968350245
tagged_abstract_sents/11786451.txt,5,0.0805801772764,-0.0363250866835,0.0616692308323,0.247294108221,0.474213744914,0.0,0.0,0.162221972367
tagged_abstract_sents/11786451.txt,6,0.0805801772764,0.0322720457314,0.139250797795,0.194462959676,0.474213744914,0.304257721132,0.074147192187,0.871898060425
tagged_abstract_sents/11786451.txt,7,0.0805801772764,0.0232757004967,0.139250797795,0.194462959676,0.474213744914,0.241224489187,0.0936320829502,0.66014911179
tagged_abstract_sents/11786451.txt,8,0.123690572119,-0.0368873582607,0.0616692308323,0.247294108221,0.474213744914,0.0,0.0,0.196597833926
tagged_abstract_sents/11786451.txt,9,0.123690572119,0.00162824477556,0.0616692308323,0.247294108221,0.474213744914,0.218585065552,0.0696098460312,0.788514421766
tagged_abstract_sents/11786451.txt,10,0.140209508461,-0.0357628151064,0.0616692308323,0.247294108221,0.474213744914,0.0,0.0,0.21003789163
tagged_abstract_sents/11786451.txt,11,0.140209508461,-0.014958766751,0.0616692308323,0.247294108221,0.474213744914,0.242527519683,0.0529008254854,0.69907301148
tagged_abstract_sents/11786451.txt,12,0.149073327961,-0.039417580358,0.0616692308323,0.247294108221,0.474213744914,0.0,0.0,0.21639799418
tagged_abstract_sents/11786451.txt,14,0.149879129734,0.143039546434,0.139250797795,0.194462959676,0.474213744914,0.497414975616,0.0820469380637,1.01611062271
tagged_abstract_sents/11786451.txt,15,0.176470588235,-0.00343219941899,0.139250797795,0.194462959676,0.474213744914,0.220720777538,0.0349898114662,0.768258295913
tagged_abstract_sents/11786451.txt,16,0.176470588235,-0.00540014993909,0.139250797795,0.194462959676,0.474213744914,0.19022408016,0.0480100233143,0.811852723381
tagged_abstract_sents/11786451.txt,17,0.166800966962,-0.0242362477743,0.139250797795,0.194462959676,0.474213744914,0.103016343003,0.00801561535778,0.550597991077
tagged_abstract_sents/11786451.txt,18,0.166800966962,0.00387733108425,0.139250797795,0.194462959676,0.474213744914,0.268698451859,0.0617726797095,0.906341500151
tagged_abstract_sents/11786451.txt,19,0.166800966962,-0.00652469309343,0.139250797795,0.194462959676,0.474213744914,0.271943928822,0.0807583156293,1.03804677464
tagged_abstract_sents/11786451.txt,20,0.0954875100725,0.0362079467716,0.139250797795,0.194462959676,0.474213744914,0.401255302305,0.0890123041026,1.02998305546
tagged_abstract_sents/11786451.txt,21,0.0954875100725,-0.0382930372036,0.0616692308323,0.247294108221,0.474213744914,0.0,0.0,0.1737542485
tagged_abstract_sents/11786451.txt,22,0.0342465753425,0.0553251803955,0.139250797795,0.194462959676,0.474213744914,0.392482527642,0.0695645855133,0.792298601037
tagged_abstract_sents/11786451.txt,23,0.0342465753425,0.00893777527879,0.139250797795,0.194462959676,0.474213744914,0.302945272185,0.0733658876875,0.947328030862
tagged_abstract_sents/11786451.txt,24,0.0342465753425,0.00219051635273,0.139250797795,0.194462959676,0.474213744914,0.298556876146,0.0760237181723,1.00459398958
