tagged_abstract_sents/11790072.txt,1,0.125905068383,-0.0387368815592,0.0616692308323,0.142474783506,0.0,0.0,0.0,0.166553728862
tagged_abstract_sents/11790072.txt,2,0.125905068383,0.0138493253373,0.188769469584,0.202456734834,0.189056198036,0.30274774217,0.0503257010903,0.800745316313
tagged_abstract_sents/11790072.txt,3,0.239742558327,-0.0400299850075,0.0616692308323,0.142474783506,0.0,0.0,0.0,0.257365100128
tagged_abstract_sents/11790072.txt,4,0.239742558327,-0.0171851574213,0.0616692308323,0.142474783506,0.282921109788,0.227231527079,0.0598303424744,0.831917044987
tagged_abstract_sents/11790072.txt,5,0.218020917136,-0.0378748125937,0.0616692308323,0.142474783506,0.0,0.0,0.0,0.240418821658
tagged_abstract_sents/11790072.txt,6,0.218020917136,-0.0318403298351,0.0616692308323,0.142474783506,0.0,0.0,0.0,0.24162571821
tagged_abstract_sents/11790072.txt,7,0.162510056315,-0.0365817091454,0.0616692308323,0.142474783506,0.0,0.0,0.0,0.196268753691
tagged_abstract_sents/11790072.txt,8,0.162510056315,0.0914355322339,0.0616692308323,0.142474783506,0.311362108907,0.460349720819,0.0651806133639,1.05876464506
tagged_abstract_sents/11790072.txt,9,0.162510056315,-0.0365817091454,0.0616692308323,0.142474783506,0.0,0.0,0.0,0.196268753691
tagged_abstract_sents/11790072.txt,10,0.101769911504,-0.00209895052474,0.0616692308323,0.142474783506,0.0715586823927,0.258812668737,0.0306427638666,0.515587304562
tagged_abstract_sents/11790072.txt,11,0.101769911504,-0.0167541229385,0.0616692308323,0.142474783506,0.0753702061765,0.239087693869,0.033376862266,0.499476917396
tagged_abstract_sents/11790072.txt,12,0.0711987127916,-0.0258058470765,0.0616692308323,0.142474783506,0.0,0.101459526948,0.0439656261848,0.270800004419
tagged_abstract_sents/11790072.txt,13,0.0711987127916,-0.0370127436282,0.0616692308323,0.142474783506,0.0,0.0,0.0,0.123133471976
tagged_abstract_sents/11790072.txt,14,0.0458567980692,0.0427286356822,0.139250797795,0.0356431803763,0.0,0.300100469098,0.0829072986915,0.508557286391
tagged_abstract_sents/11790072.txt,15,0.0458567980692,0.00824587706147,0.139250797795,0.0356431803763,0.204919074185,0.32703221074,0.0626596849433,0.713263936747
tagged_abstract_sents/11790072.txt,16,0.0458567980692,0.0526424287856,0.139250797795,0.0356431803763,0.135915425712,0.398104551806,0.0613727861927,0.722925040934
tagged_abstract_sents/11790072.txt,17,0.0245374094932,0.0310907046477,0.139250797795,0.0356431803763,0.0,0.263895198091,0.0401404750344,0.41020209466
tagged_abstract_sents/11790072.txt,18,0.0245374094932,-0.00166791604198,0.139250797795,0.0356431803763,0.0,0.171682706108,0.0284251954289,0.299722598933
tagged_abstract_sents/11790072.txt,19,0.00844730490748,0.0543665667166,0.139250797795,0.0356431803763,0.150340028329,0.411706251415,0.0704852773916,0.730481067415
tagged_abstract_sents/11790072.txt,20,0.00844730490748,0.0384182908546,0.139250797795,0.0356431803763,0.154484838051,0.411706251415,0.0704852773916,0.731436221965
tagged_abstract_sents/11790072.txt,21,0.00120675784393,-0.0383058470765,0.0616692308323,0.142474783506,0.0,0.0,0.0,0.0668812873277
tagged_abstract_sents/11790072.txt,22,0.00120675784393,-0.0120127436282,0.139250797795,0.0356431803763,0.242198123066,0.196188031228,0.054964931126,0.57223229598
tagged_abstract_sents/11790072.txt,23,0.00120675784393,0.0397113943028,0.139250797795,0.0356431803763,0.336120708713,0.364877286544,0.0504622383809,0.840686271784
