tagged_abstract_sents/11793113.txt,1,0.250201126307,-0.039111747851,0.0616692308323,0.142474783506,0.359562420245,0.300705272362,0.0565597308106,0.982743025361
tagged_abstract_sents/11793113.txt,2,0.229283990346,-0.0276504297994,0.188769469584,0.202456734834,0.307252137245,0.382801870978,0.049565738245,1.07263860803
tagged_abstract_sents/11793113.txt,3,0.206757843926,0.00744985673352,0.0616692308323,0.142474783506,0.0586392844517,0.303697313245,0.0412215899637,0.644031484616
tagged_abstract_sents/11793113.txt,4,0.118262268705,-0.0118911174785,0.0616692308323,0.142474783506,0.0,0.302720578695,0.0428271937706,0.511356414401
tagged_abstract_sents/11793113.txt,5,0.0852775543041,0.0511461318052,0.0616692308323,0.142474783506,0.0519235298363,0.365962723337,0.0428945792153,0.612809152661
tagged_abstract_sents/11793113.txt,6,0.0571198712792,0.0318051575931,0.0616692308323,0.142474783506,0.0,0.263255867745,0.0450733752621,0.433963222017
tagged_abstract_sents/11793113.txt,7,0.0345937248592,-0.000429799426934,0.139250797795,0.0356431803763,0.0,0.296316394298,0.0418758698448,0.446099637155
tagged_abstract_sents/11793113.txt,8,0.0144810941271,-0.0505730659026,0.139250797795,0.0356431803763,0.0406722221921,0.17840434116,0.06167208054,0.362537259024
tagged_abstract_sents/11793113.txt,9,0.00120675784393,0.0489971346705,0.139250797795,0.0356431803763,0.243596941805,0.524850669982,0.0444522090224,0.903983007029
tagged_abstract_sents/11793113.txt,10,0.00120675784393,-0.00974212034384,0.139250797795,0.0356431803763,0.336912660076,0.404779665712,0.0524381279098,0.873465788915
