tagged_abstract_sents/11790072.txt,1,0.0954875100725,-0.0387368815592,0.0616692308323,0.247294108221,0.336120708713,0.0,0.0,0.173665479629
tagged_abstract_sents/11790072.txt,2,0.0954875100725,0.0138493253373,0.188769469584,0.123191979006,0.336120708713,0.30274774217,0.0503257010903,0.752631842916
tagged_abstract_sents/11790072.txt,3,0.0253827558421,-0.0400299850075,0.0616692308323,0.247294108221,0.336120708713,0.0,0.0,0.117323055555
tagged_abstract_sents/11790072.txt,4,0.0253827558421,-0.0171851574213,0.0616692308323,0.247294108221,0.336120708713,0.227231527079,0.0598303424744,0.691875000414
tagged_abstract_sents/11790072.txt,5,0.0805801772764,-0.0378748125937,0.0616692308323,0.247294108221,0.336120708713,0.0,0.0,0.161912027185
tagged_abstract_sents/11790072.txt,6,0.0805801772764,-0.0318403298351,0.0616692308323,0.247294108221,0.336120708713,0.0,0.0,0.163118923737
tagged_abstract_sents/11790072.txt,7,0.123690572119,-0.0365817091454,0.0616692308323,0.247294108221,0.336120708713,0.0,0.0,0.196658963749
tagged_abstract_sents/11790072.txt,9,0.123690572119,-0.0365817091454,0.0616692308323,0.247294108221,0.336120708713,0.0,0.0,0.196658963749
tagged_abstract_sents/11790072.txt,10,0.140209508461,-0.00209895052474,0.0616692308323,0.247294108221,0.336120708713,0.258812668737,0.0306427638666,0.577784779542
tagged_abstract_sents/11790072.txt,11,0.140209508461,-0.0167541229385,0.0616692308323,0.247294108221,0.336120708713,0.239087693869,0.033376862266,0.561674392375
tagged_abstract_sents/11790072.txt,12,0.149879129734,-0.0258058470765,0.0616692308323,0.247294108221,0.336120708713,0.101459526948,0.0439656261848,0.365190135388
tagged_abstract_sents/11790072.txt,13,0.149879129734,-0.0370127436282,0.0616692308323,0.247294108221,0.336120708713,0.0,0.0,0.217523602944
tagged_abstract_sents/11790072.txt,14,0.176470588235,0.0427286356822,0.139250797795,0.194462959676,0.336120708713,0.300100469098,0.0829072986915,0.660694252314
tagged_abstract_sents/11790072.txt,15,0.176470588235,0.00824587706147,0.139250797795,0.194462959676,0.336120708713,0.32703221074,0.0626596849433,0.865400902669
tagged_abstract_sents/11790072.txt,16,0.176470588235,0.0526424287856,0.139250797795,0.194462959676,0.336120708713,0.398104551806,0.0613727861927,0.875062006857
tagged_abstract_sents/11790072.txt,17,0.166800966962,0.0310907046477,0.139250797795,0.194462959676,0.336120708713,0.263895198091,0.0401404750344,0.571658874425
tagged_abstract_sents/11790072.txt,18,0.166800966962,-0.00166791604198,0.139250797795,0.194462959676,0.336120708713,0.171682706108,0.0284251954289,0.461179378698
tagged_abstract_sents/11790072.txt,19,0.0954875100725,0.0543665667166,0.139250797795,0.194462959676,0.336120708713,0.411706251415,0.0704852773916,0.847759165337
tagged_abstract_sents/11790072.txt,20,0.0954875100725,0.0384182908546,0.139250797795,0.194462959676,0.336120708713,0.411706251415,0.0704852773916,0.848714319887
tagged_abstract_sents/11790072.txt,21,0.0342465753425,-0.0383058470765,0.0616692308323,0.247294108221,0.336120708713,0.0,0.0,0.124758938741
tagged_abstract_sents/11790072.txt,22,0.0342465753425,-0.0120127436282,0.139250797795,0.194462959676,0.336120708713,0.196188031228,0.054964931126,0.646310083768
tagged_abstract_sents/11790072.txt,23,0.0342465753425,0.0397113943028,0.139250797795,0.194462959676,0.336120708713,0.364877286544,0.0504622383809,0.914764059573
