tagged_abstract_sents/11815495.txt,1,0.125905068383,-0.0607530061108,0.0616692308323,0.142474783506,0.0,0.0,0.0,0.162150503952
tagged_abstract_sents/11815495.txt,2,0.239742558327,0.0368223930613,0.188769469584,0.202456734834,0.140501713985,0.331607431786,0.0562003219781,0.882589748265
tagged_abstract_sents/11815495.txt,3,0.229283990346,-0.0501084171102,0.0616692308323,0.142474783506,0.0,0.0,0.0,0.246982559323
tagged_abstract_sents/11815495.txt,4,0.218020917136,0.0705302582298,0.0616692308323,0.142474783506,0.0153420085019,0.415630485947,0.0709941765023,0.764066506774
tagged_abstract_sents/11815495.txt,5,0.162510056315,0.0510151783954,0.0616692308323,0.142474783506,0.138502498606,0.357692538152,0.050980279725,0.760963447682
tagged_abstract_sents/11815495.txt,6,0.118262268705,-0.0175832840528,0.0616692308323,0.142474783506,0.0798618695265,0.178211821902,0.0693157872103,0.49205968726
tagged_abstract_sents/11815495.txt,7,0.101769911504,-0.0140350877193,0.0616692308323,0.142474783506,0.0,0.182350689938,0.0755547671268,0.410091419192
tagged_abstract_sents/11815495.txt,8,0.0711987127916,-0.0152178198305,0.0616692308323,0.142474783506,0.397020896198,0.178594165506,0.0430654109147,0.746172929354
tagged_abstract_sents/11815495.txt,9,0.0571198712792,0.00193179578159,0.0616692308323,0.142474783506,0.120102872673,0.27270026431,0.0813597016668,0.593822145297
tagged_abstract_sents/11815495.txt,10,0.0458567980692,-0.061935738222,0.0616692308323,0.142474783506,0.0,0.0,0.0,0.0978753412788
tagged_abstract_sents/11815495.txt,11,0.0245374094932,0.0533806426178,0.139250797795,0.0356431803763,0.0240294819625,0.222691974238,0.0715176536361,0.428863518965
tagged_abstract_sents/11815495.txt,12,0.0144810941271,0.0610684013404,0.139250797795,0.0356431803763,1.02356333577e-05,0.234853315763,0.0462283304701,0.385208790447
tagged_abstract_sents/11815495.txt,13,0.00844730490748,-0.0595702739996,0.139250797795,0.0356431803763,0.0,0.0,0.0,0.0751621421363
tagged_abstract_sents/11815495.txt,14,0.00120675784393,-0.0193573822196,0.139250797795,0.0356431803763,2.09105284397e-05,0.158915792367,0.0716380682063,0.307987053944
tagged_abstract_sents/11815495.txt,15,0.00120675784393,0.0238123398384,0.139250797795,0.0356431803763,0.02859233656,0.372778074595,0.0615865233979,0.549003161806
