tagged_abstract_sents/11832527.txt,1,0.206355591311,-0.0605960264901,0.0616692308323,0.106008497564,3.40338466983e-05,0.0,0.0,0.215602432436
tagged_abstract_sents/11832527.txt,2,0.206355591311,-0.0230684326711,0.188769469584,0.129715814208,3.40338466983e-05,0.113033199199,0.0354061382966,0.755259325425
tagged_abstract_sents/11832527.txt,3,0.0048270313757,0.0310154525386,0.0616692308323,0.106008497564,3.40338466983e-05,0.209538171221,0.0564603106126,0.601671947702
tagged_abstract_sents/11832527.txt,5,0.0108608205953,-0.0622516556291,0.0616692308323,0.106008497564,3.40338466983e-05,0.0,0.0,0.0588754900357
tagged_abstract_sents/11832527.txt,7,0.0261464199517,0.0591611479029,0.139250797795,0.521468892835,3.40338466983e-05,0.154017749108,0.0468075927524,0.742359161127
tagged_abstract_sents/11832527.txt,8,0.0518905872888,-0.0622516556291,0.139250797795,0.521468892835,3.40338466983e-05,0.0,0.0,0.255128205453
tagged_abstract_sents/11832527.txt,9,0.0683829444891,-0.0467991169978,0.139250797795,0.521468892835,3.40338466983e-05,0.0640015882497,0.0377480586713,0.594353962222
tagged_abstract_sents/11832527.txt,10,0.0993563958166,0.00949227373068,0.139250797795,0.521468892835,3.40338466983e-05,0.169720490273,0.0591516981724,0.581072204331
tagged_abstract_sents/11832527.txt,11,0.172566371681,0.0961368653422,0.139250797795,0.521468892835,3.40338466983e-05,0.150447905747,0.0735547886109,0.727670173333
tagged_abstract_sents/11832527.txt,12,0.214802896219,0.0337748344371,0.139250797795,0.521468892835,3.40338466983e-05,0.241415370168,0.0815134926066,0.795206602824
tagged_abstract_sents/11832527.txt,13,0.206355591311,-0.0600441501104,0.139250797795,0.521468892835,3.40338466983e-05,0.0,0.0,0.379141709775
tagged_abstract_sents/11832527.txt,14,0.262268704747,-0.00596026490066,0.139250797795,0.521468892835,3.40338466983e-05,0.156348394562,0.0503559102675,0.735446237915
tagged_abstract_sents/11832527.txt,15,0.262268704747,-0.0330022075055,0.139250797795,0.521468892835,3.40338466983e-05,0.0945481789171,0.0669219154443,0.590784717252
