tagged_abstract_sents/11847935.txt,1,0.0954875100725,-0.0526620999601,0.0616692308323,0.247294108221,0.0,0.0,0.0,0.170880435948
tagged_abstract_sents/11847935.txt,3,0.0253827558421,-0.0545105287956,0.0616692308323,0.247294108221,0.0,0.0,0.0,0.114426946797
tagged_abstract_sents/11847935.txt,4,0.0805801772764,0.049617628937,0.210342442448,0.141687475369,0.0,0.13268631935,0.0825182532029,0.706756977831
tagged_abstract_sents/11847935.txt,5,0.0805801772764,-0.0538943858505,0.0616692308323,0.247294108221,0.0,0.0,0.0,0.158708112534
tagged_abstract_sents/11847935.txt,6,0.123690572119,-0.021854952702,0.0616692308323,0.247294108221,0.0,0.0428297546137,0.0476027842831,0.290036853934
tagged_abstract_sents/11847935.txt,7,0.140209508461,0.0237396252401,0.194899689933,0.293363477728,0.0,0.13169078179,0.0715180197762,0.803821509831
tagged_abstract_sents/11847935.txt,8,0.140209508461,0.0915153492081,0.0616692308323,0.247294108221,0.0,0.127290810501,0.0855489736878,0.597813895347
tagged_abstract_sents/11847935.txt,9,0.149879129734,0.0299010546917,0.0616692308323,0.247294108221,0.0,0.0896764778722,0.031206088993,0.56692812978
tagged_abstract_sents/11847935.txt,10,0.149879129734,-0.0458845275633,0.0616692308323,0.247294108221,0.0,0.0,0.0,0.215749246157
tagged_abstract_sents/11847935.txt,11,0.176470588235,0.0329817694176,0.0616692308323,0.247294108221,0.0,0.124067429021,0.086031133765,0.612374821806
tagged_abstract_sents/11847935.txt,12,0.166800966962,-0.0538943858505,0.0616692308323,0.247294108221,0.0,0.0,0.0,0.227684744282
tagged_abstract_sents/11847935.txt,13,0.166800966962,0.0292849117466,0.139250797795,0.194462959676,0.0,0.159573327087,0.0546238987398,0.635242084603
tagged_abstract_sents/11847935.txt,14,0.0954875100725,0.0262041970208,0.139250797795,0.194462959676,0.0,0.0986356586034,0.0774492583919,0.536731306064
tagged_abstract_sents/11847935.txt,15,0.0954875100725,-0.0514298140698,0.0616692308323,0.247294108221,0.0,0.0,0.0,0.171126893127
tagged_abstract_sents/11847935.txt,16,0.0342465753425,-0.00398680729223,0.139250797795,0.194462959676,0.0,0.0780584168011,0.067195099982,0.299817702399
tagged_abstract_sents/11847935.txt,17,0.0342465753425,0.0114167663368,0.139250797795,0.194462959676,0.0,0.0858868900851,0.0359338407494,0.279465631176
