tagged_abstract_sents/11849464.txt,1,0.0954875100725,-0.0573088721095,0.0616692308323,0.247294108221,0.336602420485,0.0,0.0,0.169951081519
tagged_abstract_sents/11849464.txt,3,0.0253827558421,0.0257491741387,0.0616692308323,0.247294108221,0.336602420485,0.654763013066,0.0479385847797,1.23501847591
tagged_abstract_sents/11849464.txt,4,0.0805801772764,-0.0587246342614,0.0616692308323,0.247294108221,0.336602420485,0.0,0.0,0.157742062851
tagged_abstract_sents/11849464.txt,5,0.123690572119,-0.0124764039641,0.0616692308323,0.247294108221,0.336602420485,0.435022374659,0.0445719626168,1.12795067837
tagged_abstract_sents/11849464.txt,6,0.123690572119,-0.00539759320434,0.0616692308323,0.247294108221,0.336602420485,0.425376728794,0.0513345794393,1.00998269057
tagged_abstract_sents/11849464.txt,7,0.140209508461,0.0384910335064,0.139250797795,0.194462959676,0.336602420485,0.606045045376,0.0518407753548,1.41193749054
tagged_abstract_sents/11849464.txt,8,0.149073327961,0.0493452100047,0.139250797795,0.194462959676,0.336602420485,0.51507627638,0.0412398753894,1.33485489954
tagged_abstract_sents/11849464.txt,9,0.149879129734,-0.0587246342614,0.139250797795,0.194462959676,0.336602420485,0.0,0.0,0.236122663735
tagged_abstract_sents/11849464.txt,10,0.176470588235,-0.0469266163285,0.139250797795,0.194462959676,0.336602420485,0.153245032205,0.0101906542056,0.812828889062
tagged_abstract_sents/11849464.txt,11,0.176470588235,0.00215313827277,0.139250797795,0.194462959676,0.336602420485,0.273589503468,0.0296448598131,0.995853221648
tagged_abstract_sents/11849464.txt,12,0.166800966962,0.0550082586126,0.139250797795,0.194462959676,0.336602420485,0.522259521985,0.0417601246106,1.10737097105
tagged_abstract_sents/11849464.txt,13,0.0954875100725,0.00640042472865,0.139250797795,0.194462959676,0.336602420485,0.494596831214,0.0410671197961,1.03716884524
tagged_abstract_sents/11849464.txt,14,0.0954875100725,-0.0124764039641,0.139250797795,0.194462959676,0.336602420485,0.417246646936,0.049753271028,1.20415394743
tagged_abstract_sents/11849464.txt,15,0.0342465753425,-0.0573088721095,0.0616692308323,0.247294108221,0.336602420485,0.0,0.0,0.120958333735
tagged_abstract_sents/11849464.txt,16,0.0342465753425,0.0776604530439,0.139250797795,0.194462959676,0.336602420485,0.510501133712,0.0313173506705,1.04931454255
