tagged_abstract_sents/11853901.txt,1,0.206355591311,-0.0340387167013,0.0616692308323,0.106008497564,0.396848094182,0.0,0.0,0.220913894394
tagged_abstract_sents/11853901.txt,2,0.206355591311,0.0190351444221,0.188769469584,0.129715814208,0.396848094182,0.121448988015,0.0612244897959,1.00720265038
tagged_abstract_sents/11853901.txt,3,0.206355591311,-0.0327118701732,0.0616692308323,0.106008497564,0.396848094182,0.0,0.0,0.2211792637
tagged_abstract_sents/11853901.txt,4,0.206355591311,0.0128431939577,0.0616692308323,0.106008497564,0.396848094182,0.120383328442,0.0791263040238,0.554206909811
tagged_abstract_sents/11853901.txt,5,0.206355591311,0.00974721872555,0.0616692308323,0.106008497564,0.396848094182,0.0832394443621,0.0432686052563,0.733366860743
tagged_abstract_sents/11853901.txt,6,0.0048270313757,-0.0260776375327,0.0616692308323,0.106008497564,0.396848094182,0.0,0.0,0.0612832622793
tagged_abstract_sents/11853901.txt,8,0.0108608205953,-0.0313850236451,0.0616692308323,0.106008497564,0.396848094182,0.0,0.0,0.0650488164325
tagged_abstract_sents/11853901.txt,9,0.0108608205953,0.0442452284558,0.0616692308323,0.106008497564,0.396848094182,0.180807134694,0.122110547315,0.804032888973
tagged_abstract_sents/11853901.txt,10,0.0108608205953,-0.0309427414691,0.0616692308323,0.106008497564,0.396848094182,0.0,0.0,0.0651372728677
tagged_abstract_sents/11853901.txt,11,0.0261464199517,0.0203619909502,0.0616692308323,0.106008497564,0.396848094182,0.116506286938,0.029094368746,0.616638993137
tagged_abstract_sents/11853901.txt,12,0.0261464199517,-0.0318273058211,0.0616692308323,0.106008497564,0.396848094182,0.0,0.0,0.0771888394825
tagged_abstract_sents/11853901.txt,13,0.0353982300885,0.032745891879,0.139250797795,0.521468892835,0.396848094182,0.093844726319,0.0300828916554,0.774448323988
tagged_abstract_sents/11853901.txt,14,0.0518905872888,-0.0269622018848,0.139250797795,0.521468892835,0.396848094182,0.0,0.0,0.262186096202
tagged_abstract_sents/11853901.txt,16,0.0993563958166,-0.0349232810533,0.139250797795,0.521468892835,0.396848094182,0.0,0.0,0.298566527191
tagged_abstract_sents/11853901.txt,17,0.0993563958166,0.000459293028952,0.139250797795,0.521468892835,0.396848094182,0.0639939008801,0.0723653395785,0.58051053416
tagged_abstract_sents/11853901.txt,18,0.0993563958166,-0.0220970979485,0.139250797795,0.521468892835,0.396848094182,0.0573164409316,0.0733732017397,0.620020819642
tagged_abstract_sents/11853901.txt,19,0.172566371681,-0.00882863266764,0.139250797795,0.521468892835,0.396848094182,0.0994536469377,0.0585094909405,1.00200458859
tagged_abstract_sents/11853901.txt,20,0.172566371681,0.00930493654952,0.139250797795,0.521468892835,0.396848094182,0.157616407031,0.129555766979,1.04298969519
tagged_abstract_sents/11853901.txt,21,0.206355591311,0.0703398768414,0.139250797795,0.521468892835,0.396848094182,0.14822579845,0.0615851873536,0.950951725198
tagged_abstract_sents/11853901.txt,22,0.206355591311,0.0185928622461,0.139250797795,0.521468892835,0.396848094182,0.11092998716,0.0763319672131,0.947506622916
tagged_abstract_sents/11853901.txt,23,0.206355591311,0.0336304562311,0.139250797795,0.521468892835,0.396848094182,0.117062359243,0.0383698561392,0.982699998854
tagged_abstract_sents/11853901.txt,24,0.262268704747,-0.0335964345252,0.0616692308323,0.106008497564,0.396848094182,0.0,0.0,0.265732841578
tagged_abstract_sents/11853901.txt,25,0.262268704747,0.0124009117817,0.139250797795,0.521468892835,0.396848094182,0.122432981991,0.0580670792907,1.10455514379
tagged_abstract_sents/11853901.txt,26,0.262268704747,0.0283230701187,0.139250797795,0.521468892835,0.396848094182,0.165734285687,0.0588576382634,1.0629856627
