tagged_abstract_sents/11865128.txt,1,0.0954875100725,-0.0572768281102,0.0616692308323,0.247294108221,0.397300443303,0.0,0.0,0.169957490318
tagged_abstract_sents/11865128.txt,3,0.0253827558421,-0.0587013295347,0.0616692308323,0.247294108221,0.397300443303,0.0,0.0,0.113588786649
tagged_abstract_sents/11865128.txt,4,0.0805801772764,0.0528846153846,0.194899689933,0.293363477728,0.397300443303,0.215069095293,0.0440968828066,0.721920708878
tagged_abstract_sents/11865128.txt,5,0.123690572119,0.0110992402659,0.0616692308323,0.247294108221,0.397300443303,0.164475319596,0.0454864210124,0.670514796328
tagged_abstract_sents/11865128.txt,6,0.123690572119,-0.0587013295347,0.0616692308323,0.247294108221,0.397300443303,0.0,0.0,0.192235039671
tagged_abstract_sents/11865128.txt,7,0.140209508461,0.00872507122507,0.139250797795,0.194462959676,0.397300443303,0.098942288368,0.0345356793744,0.493868596015
tagged_abstract_sents/11865128.txt,8,0.149073327961,0.0386396011396,0.139250797795,0.194462959676,0.397300443303,0.163043982822,0.0505100089252,0.6158876908
tagged_abstract_sents/11865128.txt,9,0.149879129734,-0.0178656220323,0.139250797795,0.194462959676,0.397300443303,0.102459971636,0.0475073313783,0.554424442974
tagged_abstract_sents/11865128.txt,10,0.176470588235,-0.00741927825261,0.139250797795,0.194462959676,0.397300443303,0.151855110159,0.0328725038402,0.730073500285
tagged_abstract_sents/11865128.txt,11,0.176470588235,0.0319919278253,0.139250797795,0.194462959676,0.397300443303,0.206062509402,0.0540023894863,0.751741502364
tagged_abstract_sents/11865128.txt,12,0.166800966962,0.0054012345679,0.139250797795,0.194462959676,0.397300443303,0.136594399888,0.0400601944745,0.732251932321
tagged_abstract_sents/11865128.txt,13,0.0954875100725,0.0224952516619,0.139250797795,0.194462959676,0.397300443303,0.185065787958,0.0379709000677,0.693380879522
tagged_abstract_sents/11865128.txt,14,0.0954875100725,-0.056801994302,0.0616692308323,0.247294108221,0.397300443303,0.0,0.0,0.17005245708
tagged_abstract_sents/11865128.txt,15,0.0342465753425,-0.00836894586895,0.139250797795,0.194462959676,0.397300443303,0.17776581201,0.0361803519062,0.710329264408
tagged_abstract_sents/11865128.txt,16,0.0342465753425,0.00065289648623,0.139250797795,0.194462959676,0.397300443303,0.22032438587,0.0519769440793,0.825093899624
