tagged_abstract_sents/11869657.txt,1,0.206355591311,-0.0317374238199,0.0616692308323,0.106008497564,0.379203773963,0.0,0.0,0.22137415297
tagged_abstract_sents/11869657.txt,2,0.206355591311,0.000800537134594,0.188769469584,0.129715814208,0.379203773963,0.0949894651656,0.0332006702974,0.774404356642
tagged_abstract_sents/11869657.txt,4,0.206355591311,-0.0317374238199,0.0616692308323,0.106008497564,0.379203773963,0.0,0.0,0.22137415297
tagged_abstract_sents/11869657.txt,5,0.206355591311,0.0337000309885,0.0616692308323,0.106008497564,0.379203773963,0.236184655133,0.0475911185589,0.880187609046
tagged_abstract_sents/11869657.txt,6,0.0048270313757,-0.0299297593224,0.0616692308323,0.106008497564,0.379203773963,0.0,0.0,0.0605128379214
tagged_abstract_sents/11869657.txt,7,0.0048270313757,0.0900991633096,0.0616692308323,0.106008497564,0.379203773963,0.116827429384,0.0434475806452,0.414557740385
tagged_abstract_sents/11869657.txt,8,0.0048270313757,0.0134541886169,0.0616692308323,0.106008497564,0.379203773963,0.128851875631,0.0505213424568,0.511607262266
tagged_abstract_sents/11869657.txt,9,0.0108608205953,-0.0147453775436,0.0616692308323,0.106008497564,0.379203773963,0.0878643820249,0.027972027972,0.18421315565
tagged_abstract_sents/11869657.txt,10,0.0108608205953,-0.0288451606239,0.0616692308323,0.106008497564,0.379203773963,0.0,0.0,0.0655567890368
tagged_abstract_sents/11869657.txt,11,0.0108608205953,-0.00100712736288,0.194899689933,0.0581677376677,0.379203773963,0.127731391917,0.0475643532095,0.53453668594
tagged_abstract_sents/11869657.txt,12,0.0261464199517,-0.00896085115174,0.0616692308323,0.106008497564,0.379203773963,0.0783516598782,0.0540200391007,0.417438427811
tagged_abstract_sents/11869657.txt,13,0.0261464199517,0.0152618531143,0.0616692308323,0.106008497564,0.379203773963,0.143306684539,0.0378221947831,0.578255378813
tagged_abstract_sents/11869657.txt,14,0.0353982300885,-0.025229831629,0.0616692308323,0.106008497564,0.379203773963,0.0,0.0,0.0859097824303
tagged_abstract_sents/11869657.txt,15,0.0518905872888,0.00333126743105,0.0616692308323,0.106008497564,0.379203773963,0.115866329519,0.0387280058651,0.678365455082
tagged_abstract_sents/11869657.txt,16,0.0518905872888,0.0163464518128,0.0616692308323,0.106008497564,0.379203773963,0.16489109989,0.0490335910424,0.643681550002
tagged_abstract_sents/11869657.txt,17,0.0993563958166,-0.00317632475984,0.0616692308323,0.106008497564,0.379203773963,0.131804913733,0.0394196635283,0.709720341641
tagged_abstract_sents/11869657.txt,18,0.0993563958166,-0.0310143580209,0.0616692308323,0.106008497564,0.379203773963,0.0,0.0,0.135919409734
tagged_abstract_sents/11869657.txt,19,0.0993563958166,0.00224666873257,0.139250797795,0.521468892835,0.379203773963,0.121621576366,0.0437295152665,0.849535678705
tagged_abstract_sents/11869657.txt,20,0.172566371681,0.0210463795062,0.139250797795,0.521468892835,0.379203773963,0.18920789302,0.0517045454545,0.933032458947
tagged_abstract_sents/11869657.txt,21,0.172566371681,0.0286385703956,0.139250797795,0.521468892835,0.379203773963,0.13780103118,0.0353140916808,0.724943758534
tagged_abstract_sents/11869657.txt,22,0.172566371681,-0.0147453775436,0.139250797795,0.521468892835,0.379203773963,0.0952185312906,0.0400083787181,0.921856330563
tagged_abstract_sents/11869657.txt,23,0.206355591311,0.0257463071997,0.139250797795,0.521468892835,0.379203773963,0.177057718453,0.0584788983807,0.926420140615
tagged_abstract_sents/11869657.txt,25,0.206355591311,-0.0183607065386,0.0616692308323,0.106008497564,0.379203773963,0.0449315911676,0.0193914956012,0.799932570153
tagged_abstract_sents/11869657.txt,26,0.262268704747,-0.0273990290259,0.0616692308323,0.106008497564,0.379203773963,0.0,0.0,0.266972322677
tagged_abstract_sents/11869657.txt,27,0.262268704747,-0.000645594463382,0.139250797795,0.521468892835,0.379203773963,0.0873288560838,0.027047146402,0.952548616307
tagged_abstract_sents/11869657.txt,28,0.262268704747,0.00550046482801,0.139250797795,0.521468892835,0.379203773963,0.0964724588221,0.037840385421,0.950497741717
