tagged_abstract_sents/11871926.txt,1,0.125905068383,-0.0567226890756,0.0616692308323,0.142474783506,0.0,0.0,0.0,0.162956567359
tagged_abstract_sents/11871926.txt,2,0.239742558327,0.0267857142857,0.188769469584,0.202456734834,0.320146509581,0.171595642414,0.0309560117302,0.874971108486
tagged_abstract_sents/11871926.txt,3,0.239742558327,-0.0582983193277,0.0616692308323,0.142474783506,0.0,0.0,0.0,0.253711433264
tagged_abstract_sents/11871926.txt,4,0.218020917136,0.0477941176471,0.210342442448,0.226435992083,0.107647697891,0.14462142669,0.0207478005865,0.630094501254
tagged_abstract_sents/11871926.txt,5,0.162510056315,-0.0015756302521,0.0616692308323,0.142474783506,0.120869035838,0.0826176418895,0.0165298142717,0.423286461469
tagged_abstract_sents/11871926.txt,6,0.162510056315,-0.0582983193277,0.139250797795,0.0356431803763,0.0,0.0,0.0,0.198666734197
tagged_abstract_sents/11871926.txt,7,0.101769911504,0.00105042016807,0.139250797795,0.0356431803763,0.345878202133,0.0908218629724,0.0194490992878,0.61809353064
tagged_abstract_sents/11871926.txt,8,0.0852775543041,0.0772058823529,0.139250797795,0.0356431803763,0.210189573018,0.20869670764,0.0153902549064,0.598258108488
tagged_abstract_sents/11871926.txt,9,0.0711987127916,0.0840336134454,0.139250797795,0.0356431803763,0.211856823385,0.198611018597,0.0146803519062,0.579232239821
tagged_abstract_sents/11871926.txt,10,0.0458567980692,-0.0189075630252,0.139250797795,0.0356431803763,0.205001246715,0.110979785514,0.00792705278592,0.437130363876
tagged_abstract_sents/11871926.txt,11,0.0458567980692,0.046743697479,0.139250797795,0.0356431803763,0.298065740536,0.0865819028511,0.021711353163,0.532711527512
tagged_abstract_sents/11871926.txt,12,0.0245374094932,-0.0372899159664,0.139250797795,0.0356431803763,0.224557974761,0.0476044374937,0.0303958944282,0.395048604095
tagged_abstract_sents/11871926.txt,13,0.00844730490748,-0.0561974789916,0.139250797795,0.0356431803763,0.0,0.0,0.0,0.0758367011379
tagged_abstract_sents/11871926.txt,14,0.00844730490748,-0.0131302521008,0.139250797795,0.0356431803763,0.356365914177,0.196986596917,0.0160351906158,0.653837848226
tagged_abstract_sents/11871926.txt,15,0.00120675784393,0.0299369747899,0.139250797795,0.0356431803763,0.306732021009,0.207584325018,0.0234199615735,0.625007461843
tagged_abstract_sents/11871926.txt,16,0.00120675784393,-0.0131302521008,0.139250797795,0.0356431803763,0.324678392266,0.0927836765688,0.0209585777126,0.517078355412
