tagged_abstract_sents/11902986.txt,1,0.0954875100725,-0.0422885572139,0.0616692308323,0.247294108221,0.265710830277,0.0,0.0,0.172955144498
tagged_abstract_sents/11902986.txt,2,0.0954875100725,0.02434257285,0.188769469584,0.123191979006,0.265710830277,0.323915441478,0.0451693652148,0.91004508072
tagged_abstract_sents/11902986.txt,3,0.0253827558421,-0.0438877043355,0.0616692308323,0.247294108221,0.265710830277,0.0,0.0,0.116551511689
tagged_abstract_sents/11902986.txt,4,0.0253827558421,-0.0273631840796,0.0616692308323,0.247294108221,0.265710830277,0.139427752991,0.0355259302666,0.580921825325
tagged_abstract_sents/11902986.txt,5,0.0805801772764,-0.043354655295,0.0616692308323,0.247294108221,0.265710830277,0.0,0.0,0.160816058645
tagged_abstract_sents/11902986.txt,6,0.0805801772764,-0.0342928216063,0.0616692308323,0.247294108221,0.265710830277,0.0719194909054,0.00250675521698,0.620945596011
tagged_abstract_sents/11902986.txt,7,0.123690572119,-0.0428216062544,0.0616692308323,0.247294108221,0.265710830277,0.0,0.0,0.195410984327
tagged_abstract_sents/11902986.txt,9,0.140209508461,-0.0401563610519,0.0616692308323,0.247294108221,0.265710830277,0.0,0.0,0.209159182441
tagged_abstract_sents/11902986.txt,10,0.140209508461,0.06592039801,0.194899689933,0.293363477728,0.265710830277,0.279438746751,0.0654885731028,0.879522532274
tagged_abstract_sents/11902986.txt,11,0.149879129734,0.0398009950249,0.0616692308323,0.247294108221,0.265710830277,0.367869471845,0.044151772634,0.969356666087
tagged_abstract_sents/11902986.txt,12,0.149879129734,-0.0358919687278,0.0616692308323,0.247294108221,0.265710830277,0.0,0.0,0.217747757924
tagged_abstract_sents/11902986.txt,13,0.176470588235,0.0499289267946,0.0616692308323,0.247294108221,0.265710830277,0.360335730541,0.0558658072077,0.844094453717
tagged_abstract_sents/11902986.txt,14,0.176470588235,0.0227434257285,0.0616692308323,0.247294108221,0.265710830277,0.373216255808,0.0397293155131,0.819322013479
tagged_abstract_sents/11902986.txt,15,0.166800966962,-0.043354655295,0.0616692308323,0.247294108221,0.265710830277,0.0,0.0,0.229792690393
tagged_abstract_sents/11902986.txt,16,0.166800966962,-0.024697938877,0.0616692308323,0.247294108221,0.265710830277,0.133588156536,0.0352272983389,0.675770498226
tagged_abstract_sents/11902986.txt,17,0.0954875100725,0.0621890547264,0.139250797795,0.194462959676,0.265710830277,0.383418752434,0.0586697919719,0.826762232381
tagged_abstract_sents/11902986.txt,18,0.0954875100725,0.0350035536603,0.139250797795,0.194462959676,0.265710830277,0.368897025707,0.0334016993847,0.865615771627
tagged_abstract_sents/11902986.txt,19,0.0342465753425,0.0254086709311,0.139250797795,0.194462959676,0.265710830277,0.342427434959,0.0403699410184,0.794048679354
tagged_abstract_sents/11902986.txt,20,0.0342465753425,-0.0417555081734,0.0616692308323,0.247294108221,0.265710830277,0.0,0.0,0.124069006522
tagged_abstract_sents/11902986.txt,21,0.0342465753425,0.0653873489694,0.139250797795,0.194462959676,0.265710830277,0.443744304767,0.0427447790901,0.920638931002
