tagged_abstract_sents/11907922.txt,1,0.125905068383,-0.0601268331352,0.0616692308323,0.142474783506,0.0,0.0,0.0,0.162275738547
tagged_abstract_sents/11907922.txt,2,0.239742558327,-0.0179151803409,0.0616692308323,0.142474783506,0.273874863839,0.138897330215,0.00837309383478,0.68293334895
tagged_abstract_sents/11907922.txt,3,0.229283990346,-0.0619104240983,0.0616692308323,0.142474783506,0.0,0.0,0.0,0.244622157925
tagged_abstract_sents/11907922.txt,4,0.218020917136,0.142013476021,0.210342442448,0.226435992083,0.0902643595844,0.164570511388,0.00742351950603,0.638179838241
tagged_abstract_sents/11907922.txt,5,0.162510056315,0.00764962346413,0.0616692308323,0.142474783506,0.220832273002,0.182021335516,0.0112264945271,0.619195123258
tagged_abstract_sents/11907922.txt,6,0.118262268705,0.000515259611574,0.139250797795,0.0356431803763,0.194680595826,0.164996445771,0.0131243066971,0.54783256819
tagged_abstract_sents/11907922.txt,7,0.101769911504,-0.0619104240983,0.139250797795,0.0356431803763,0.0,0.0,0.0,0.149352197394
tagged_abstract_sents/11907922.txt,8,0.0711987127916,0.117043202537,0.139250797795,0.0356431803763,0.206948278479,0.233117524732,0.00796880638306,0.608720573345
tagged_abstract_sents/11907922.txt,9,0.0571198712792,-0.0173206500198,0.139250797795,0.0356431803763,0.308046591066,0.0382197200839,0.0057068013846,0.474523232564
tagged_abstract_sents/11907922.txt,10,0.0458567980692,0.0248910027745,0.139250797795,0.0356431803763,0.130701712528,0.147801693679,0.0143839461128,0.41486934434
tagged_abstract_sents/11907922.txt,11,0.0245374094932,-0.0595323028141,0.139250797795,0.0356431803763,0.0,0.0,0.0,0.088041820042
tagged_abstract_sents/11907922.txt,12,0.0144810941271,-0.00959175584621,0.139250797795,0.0356431803763,0.356248524101,0.150059438455,0.00929140139149,0.60558424109
tagged_abstract_sents/11907922.txt,13,0.00844730490748,-0.0315893777249,0.139250797795,0.0356431803763,0.309368924597,0.134800922376,0.00493635568176,0.529864524046
tagged_abstract_sents/11907922.txt,14,0.00120675784393,-0.020293301625,0.139250797795,0.0356431803763,0.0429127412776,0.119549567575,0.0116194218355,0.251306829648
tagged_abstract_sents/11907922.txt,15,0.00120675784393,0.0480776852953,0.139250797795,0.0356431803763,0.234633083059,0.162018166854,0.0121526803256,0.499703226582
