tagged_abstract_sents/11919097.txt,1,0.206355591311,-0.086484312148,0.0616692308323,0.106008497564,0.217190775704,0.0,0.0,0.210424775305
tagged_abstract_sents/11919097.txt,3,0.0048270313757,-0.0838294448914,0.0616692308323,0.106008497564,0.217190775704,0.0,0.0,0.0497329008076
tagged_abstract_sents/11919097.txt,5,0.0261464199517,0.042719227675,0.0616692308323,0.106008497564,0.217190775704,0.195257700611,0.0474396571171,0.47759107114
tagged_abstract_sents/11919097.txt,6,0.0518905872888,-0.0838294448914,0.0616692308323,0.106008497564,0.217190775704,0.0,0.0,0.0873837455381
tagged_abstract_sents/11919097.txt,7,0.0993563958166,0.0418342719228,0.139250797795,0.521468892835,0.217190775704,0.208448109513,0.0655968285001,0.748787878952
tagged_abstract_sents/11919097.txt,8,0.172566371681,0.0896218825422,0.139250797795,0.521468892835,0.217190775704,0.193024122951,0.065853372434,0.800749455417
tagged_abstract_sents/11919097.txt,9,0.206355591311,-0.0802896218825,0.139250797795,0.521468892835,0.217190775704,0.0,0.0,0.375092615421
tagged_abstract_sents/11919097.txt,10,0.262268704747,0.0834271922767,0.139250797795,0.521468892835,0.217190775704,0.24038997926,0.0625248320878,0.930091248038
tagged_abstract_sents/11919097.txt,11,0.262268704747,0.0126307320998,0.139250797795,0.521468892835,0.217190775704,0.131806120033,0.0415959252971,0.828999998
