tagged_abstract_sents/11911720.txt,1,0.0954875100725,-0.0608187134503,0.0616692308323,0.247294108221,0.296351863282,0.0,0.0,0.16924911325
tagged_abstract_sents/11911720.txt,3,0.0451248992748,0.00776182881446,0.188769469584,0.123191979006,0.296351863282,0.321557197212,0.015908425006,0.680414171684
tagged_abstract_sents/11911720.txt,4,0.0805801772764,-0.0103136629452,0.188769469584,0.123191979006,0.296351863282,0.337974099756,0.0149603058334,0.740414600011
tagged_abstract_sents/11911720.txt,5,0.123690572119,-0.0608187134503,0.0616692308323,0.247294108221,0.296351863282,0.0,0.0,0.191811562888
tagged_abstract_sents/11911720.txt,6,0.131345688961,0.0720893141946,0.139250797795,0.194462959676,0.296351863282,0.285449438202,0.0152761500146,0.960829329692
tagged_abstract_sents/11911720.txt,7,0.140209508461,-0.062413609782,0.139250797795,0.194462959676,0.296351863282,0.0,0.0,0.227649171613
tagged_abstract_sents/11911720.txt,8,0.149879129734,0.103987240829,0.139250797795,0.194462959676,0.296351863282,0.326407801196,0.0116299976027,0.957695057561
tagged_abstract_sents/11911720.txt,9,0.150684931507,-0.062413609782,0.139250797795,0.194462959676,0.296351863282,0.0,0.0,0.236029510049
tagged_abstract_sents/11911720.txt,10,0.176470588235,0.0130781499203,0.139250797795,0.194462959676,0.296351863282,0.191981928473,0.0171037210665,0.618157324767
tagged_abstract_sents/11911720.txt,11,0.166800966962,0.00510366826156,0.139250797795,0.194462959676,0.296351863282,0.221100620749,0.0173234690888,0.735384371724
tagged_abstract_sents/11911720.txt,12,0.131345688961,0.0784688995215,0.139250797795,0.194462959676,0.296351863282,0.291241122321,0.020457494454,0.985891106703
tagged_abstract_sents/11911720.txt,13,0.0954875100725,-0.025730994152,0.139250797795,0.194462959676,0.296351863282,0.158549912259,0.018898329915,0.606316154334
tagged_abstract_sents/11911720.txt,14,0.0342465753425,-0.0602870813397,0.0616692308323,0.247294108221,0.296351863282,0.0,0.0,0.120362691889
tagged_abstract_sents/11911720.txt,15,0.0342465753425,0.0502923976608,0.139250797795,0.194462959676,0.296351863282,0.239692043252,0.0145636924562,0.716027625597
