tagged_abstract_sents/11927715.txt,1,0.206355591311,-0.0504378482884,0.0616692308323,0.106008497564,0.394854100976,0.0,0.0,0.217634068077
tagged_abstract_sents/11927715.txt,2,0.206355591311,-0.0156374388718,0.188769469584,0.129715814208,0.394854100976,0.222262339704,0.0408830345164,0.723280741354
tagged_abstract_sents/11927715.txt,3,0.206355591311,0.0032980780166,0.188769469584,0.129715814208,0.394854100976,0.292530507625,0.0126459581079,0.735372159762
tagged_abstract_sents/11927715.txt,5,0.0048270313757,-0.0514613897418,0.0616692308323,0.106008497564,0.394854100976,0.0,0.0,0.0562065118375
tagged_abstract_sents/11927715.txt,6,0.0108608205953,0.0273513021722,0.0616692308323,0.106008497564,0.394854100976,0.287832949272,0.0575487382929,0.770498712193
tagged_abstract_sents/11927715.txt,7,0.0108608205953,0.0130217218242,0.0616692308323,0.106008497564,0.394854100976,0.34170086113,0.0219713205443,0.479348637762
tagged_abstract_sents/11927715.txt,8,0.0261464199517,0.0718753553963,0.139250797795,0.521468892835,0.394854100976,0.377377013713,0.0340183762247,1.0321394797
tagged_abstract_sents/11927715.txt,9,0.0353982300885,-0.020755146139,0.139250797795,0.521468892835,0.394854100976,0.222308900531,0.0384803024759,0.85716235591
tagged_abstract_sents/11927715.txt,10,0.0518905872888,-0.020755146139,0.139250797795,0.521468892835,0.394854100976,0.159943274348,0.0333882180754,0.530470408277
tagged_abstract_sents/11927715.txt,11,0.0993563958166,-0.0110315023314,0.139250797795,0.521468892835,0.394854100976,0.296725210895,0.0329831164079,0.916862106124
tagged_abstract_sents/11927715.txt,12,0.0993563958166,0.0411691117935,0.139250797795,0.521468892835,0.394854100976,0.317197124413,0.0287839980485,1.07168651628
tagged_abstract_sents/11927715.txt,13,0.172566371681,-0.0514613897418,0.139250797795,0.521468892835,0.394854100976,0.0,0.0,0.353826886145
tagged_abstract_sents/11927715.txt,15,0.206355591311,-0.0268963948595,0.139250797795,0.521468892835,0.394854100976,0.133711306687,0.0198093263406,0.822426360296
tagged_abstract_sents/11927715.txt,16,0.206355591311,-0.024337541226,0.139250797795,0.521468892835,0.394854100976,0.226159553958,0.0344948810113,0.980784131395
tagged_abstract_sents/11927715.txt,17,0.262268704747,-0.0499260775617,0.0616692308323,0.106008497564,0.394854100976,0.0,0.0,0.26246691297
tagged_abstract_sents/11927715.txt,18,0.262268704747,0.0171158876379,0.139250797795,0.521468892835,0.394854100976,0.354761177232,0.0205539381791,1.20947342446
