tagged_abstract_sents/11932277.txt,2,0.0048270313757,-0.0406838799721,0.210342442448,0.0253702522065,2.86261978471e-05,0.238178850531,0.0544511829889,0.401169050954
tagged_abstract_sents/11932277.txt,3,0.0048270313757,0.0570132588974,0.139250797795,0.521468892835,2.86261978471e-05,0.228064591591,0.0509134471399,0.553764278672
tagged_abstract_sents/11932277.txt,4,0.016894609815,-0.0190509420796,0.139250797795,0.521468892835,2.86261978471e-05,0.273130254999,0.0725267046022,0.729025316191
tagged_abstract_sents/11932277.txt,5,0.0353982300885,0.0591067690161,0.139250797795,0.521468892835,2.86261978471e-05,0.285965497425,0.0461215932914,0.598301265217
tagged_abstract_sents/11932277.txt,6,0.0683829444891,0.0165387299372,0.139250797795,0.521468892835,2.86261978471e-05,0.245385404283,0.0458620345413,0.575342167146
tagged_abstract_sents/11932277.txt,8,0.214802896219,-0.0713886950454,0.139250797795,0.521468892835,2.86261978471e-05,0.16492055271,0.0667615054408,0.727622341607
tagged_abstract_sents/11932277.txt,9,0.262268704747,-0.0274249825541,0.139250797795,0.521468892835,2.86261978471e-05,0.208095833938,0.0312852765683,0.669810433181
tagged_abstract_sents/11932277.txt,10,0.262268704747,-0.0344033496162,0.139250797795,0.521468892835,2.86261978471e-05,0.231781010843,0.0511953208957,0.712005318558
