tagged_abstract_sents/11937179.txt,1,0.206355591311,-0.0563478747204,0.0616692308323,0.106008497564,0.525957444005,0.0,0.0,0.21645206279
tagged_abstract_sents/11937179.txt,3,0.206355591311,0.0146812080537,0.188769469584,0.129715814208,0.525957444005,0.124500253643,0.0590054156909,0.766077243091
tagged_abstract_sents/11937179.txt,4,0.0048270313757,-0.0580257270694,0.188769469584,0.129715814208,0.525957444005,0.0,0.0,0.125555958741
tagged_abstract_sents/11937179.txt,5,0.0108608205953,0.0829138702461,0.210342442448,0.0253702522065,0.525957444005,0.183043905683,0.0960719608261,0.586914964974
tagged_abstract_sents/11937179.txt,6,0.0108608205953,-0.00265659955257,0.0616692308323,0.106008497564,0.525957444005,0.0850396368577,0.0301409655918,0.30160979206
tagged_abstract_sents/11937179.txt,7,0.0261464199517,-0.0244686800895,0.0616692308323,0.106008497564,0.525957444005,0.0462151041616,0.042849824356,0.167808966418
tagged_abstract_sents/11937179.txt,8,0.0353982300885,0.0924217002237,0.139250797795,0.521468892835,0.525957444005,0.175758990749,0.0850809027039,0.669611862831
tagged_abstract_sents/11937179.txt,9,0.0518905872888,-0.057466442953,0.139250797795,0.521468892835,0.525957444005,0.0,0.0,0.256085247988
tagged_abstract_sents/11937179.txt,10,0.0993563958166,0.00237695749441,0.139250797795,0.521468892835,0.525957444005,0.0846672960025,0.0630854800937,0.724178650284
tagged_abstract_sents/11937179.txt,11,0.0993563958166,0.0230704697987,0.139250797795,0.521468892835,0.525957444005,0.115436775657,0.0654274004684,0.611900080642
tagged_abstract_sents/11937179.txt,12,0.172566371681,0.010206935123,0.139250797795,0.521468892835,0.525957444005,0.0915627131022,0.0684767759563,0.750576936466
tagged_abstract_sents/11937179.txt,13,0.206355591311,0.00125838926174,0.139250797795,0.521468892835,0.525957444005,0.0731088412506,0.0672423887588,0.834000617262
tagged_abstract_sents/11937179.txt,14,0.206355591311,-0.054110738255,0.0616692308323,0.106008497564,0.525957444005,0.0,0.0,0.216899490083
tagged_abstract_sents/11937179.txt,15,0.262268704747,0.0376118568233,0.139250797795,0.521468892835,0.525957444005,0.132679595564,0.0665036506406,0.881964994657
