tagged_abstract_sents/11985936.txt,1,0.239742558327,-0.00489236790607,0.188769469584,0.202456734834,0.170646290731,0.255948051266,0.0431406384814,0.815672308801
tagged_abstract_sents/11985936.txt,2,0.162510056315,-0.106001304631,0.210342442448,0.226435992083,0.176046950778,0.123379239742,0.0375069786327,0.618842972128
tagged_abstract_sents/11985936.txt,3,0.0852775543041,0.133398564905,0.194899689933,0.13295610691,0.0751772125597,0.306991171796,0.0413179465056,0.655724764325
tagged_abstract_sents/11985936.txt,4,0.0458567980692,-0.0838225701239,0.139250797795,0.0356431803763,0.139553065859,0.212262387978,0.0358930112166,0.487947742494
tagged_abstract_sents/11985936.txt,5,0.00844730490748,0.155577299413,0.139250797795,0.0356431803763,0.0773315014238,0.297590148228,0.045565841942,0.538679148412
tagged_abstract_sents/11985936.txt,6,0.00120675784393,-0.0942596216569,0.139250797795,0.0356431803763,0.180931375072,0.131299629917,0.0368511875028,0.411514027446
