tagged_abstract_sents/11996426.txt,1,0.0253827558421,-0.0191113234591,0.188769469584,0.123191979006,0.283302331229,0.131955771147,0.0,0.444599474168
tagged_abstract_sents/11996426.txt,2,0.0805801772764,0.0176779741997,0.188769469584,0.123191979006,0.283302331229,0.117591717336,0.00817664309125,0.609706842827
tagged_abstract_sents/11996426.txt,3,0.140209508461,0.0187928014015,0.188769469584,0.123191979006,0.283302331229,0.204122735915,0.00520256326708,0.653695638638
tagged_abstract_sents/11996426.txt,5,0.166800966962,-0.0336040770823,0.188769469584,0.123191979006,0.283302331229,0.167182215046,0.00702346041056,0.808107384298
tagged_abstract_sents/11996426.txt,6,0.0954875100725,0.010989010989,0.188769469584,0.123191979006,0.283302331229,0.152374096053,0.00702346041056,0.522453600277
tagged_abstract_sents/11996426.txt,7,0.0342465753425,-0.0090778786431,0.188769469584,0.123191979006,0.283302331229,0.142831673421,0.00695014662757,0.590008164317
