tagged_abstract_sents/12009269.txt,1,0.239742558327,0.0383986928105,0.188769469584,0.202456734834,0.45565105842,0.319619276327,0.0427394806101,1.17260535582
tagged_abstract_sents/12009269.txt,2,0.218020917136,0.0658496732026,0.188769469584,0.202456734834,0.403574095243,0.440067623271,0.0481775374956,1.2345276796
tagged_abstract_sents/12009269.txt,3,0.162510056315,-0.11454248366,0.0616692308323,0.142474783506,0.0,0.0,0.0,0.180676598788
tagged_abstract_sents/12009269.txt,4,0.0852775543041,0.075,0.0616692308323,0.142474783506,0.304260592967,0.364619600217,0.042246250436,0.867925537531
tagged_abstract_sents/12009269.txt,5,0.0458567980692,0.00571895424837,0.0616692308323,0.142474783506,0.13717410683,0.329093565449,0.0434608555031,0.621134807555
tagged_abstract_sents/12009269.txt,6,0.0245374094932,-0.110620915033,0.0616692308323,0.142474783506,0.0,0.0,0.0,0.0710827950559
tagged_abstract_sents/12009269.txt,7,0.00844730490748,0.034477124183,0.139250797795,0.0356431803763,0.439076682285,0.320167721021,0.037643499492,0.890859524571
tagged_abstract_sents/12009269.txt,8,0.00120675784393,0.00571895424837,0.139250797795,0.0356431803763,0.22455116232,0.375439223999,0.0518904778514,0.734308414305
