tagged_abstract_sents/12022321.txt,1,0.206355591311,-0.0743243243243,0.0616692308323,0.106008497564,0.312130406257,0.0,0.0,0.212856772869
tagged_abstract_sents/12022321.txt,3,0.0048270313757,-0.0761261261261,0.0616692308323,0.106008497564,0.312130406257,0.0,0.0,0.0512735645606
tagged_abstract_sents/12022321.txt,4,0.0108608205953,0.0509009009009,0.210342442448,0.0253702522065,0.312130406257,0.263852023976,0.0652021357742,0.575172219961
tagged_abstract_sents/12022321.txt,5,0.0261464199517,0.059009009009,0.0616692308323,0.106008497564,0.312130406257,0.23265098379,0.046503941012,0.487486255576
tagged_abstract_sents/12022321.txt,6,0.0353982300885,-0.0761261261261,0.0616692308323,0.106008497564,0.312130406257,0.0,0.0,0.0757305235309
tagged_abstract_sents/12022321.txt,7,0.0518905872888,-0.00225225225225,0.139250797795,0.521468892835,0.312130406257,0.137748522385,0.0443300279685,0.666781125153
tagged_abstract_sents/12022321.txt,9,0.172566371681,0.0364864864865,0.139250797795,0.521468892835,0.312130406257,0.181519978821,0.0470524136428,0.72463263334
tagged_abstract_sents/12022321.txt,10,0.206355591311,-0.0734234234234,0.0616692308323,0.106008497564,0.312130406257,0.0,0.0,0.21303695305
tagged_abstract_sents/12022321.txt,11,0.262268704747,0.0905405405405,0.139250797795,0.521468892835,0.312130406257,0.334154977515,0.0619374523265,1.07394120158
tagged_abstract_sents/12022321.txt,12,0.262268704747,-0.00135135135135,0.139250797795,0.521468892835,0.312130406257,0.162992460401,0.0363626457448,0.947096272678
