tagged_abstract_sents/12052606.txt,1,0.125905068383,-0.0670712729536,0.0616692308323,0.142474783506,0.0,0.0,0.0,0.160886850583
tagged_abstract_sents/12052606.txt,2,0.239742558327,0.0253034547152,0.188769469584,0.202456734834,0.282794072088,0.159488569131,0.0149153371233,0.809174471189
tagged_abstract_sents/12052606.txt,3,0.218020917136,-0.0657640834111,0.0616692308323,0.142474783506,0.0,0.0,0.0,0.234840967494
tagged_abstract_sents/12052606.txt,4,0.218020917136,0.207874260815,0.188769469584,0.202456734834,0.0859612935087,0.398347809514,0.0378742811818,0.893296725319
tagged_abstract_sents/12052606.txt,5,0.162510056315,0.123778400249,0.0616692308323,0.142474783506,0.0199751445907,0.367364662682,0.0363088324761,0.651989415318
tagged_abstract_sents/12052606.txt,6,0.101769911504,-0.0644568938687,0.0616692308323,0.142474783506,0.0,0.0,0.0,0.142101600898
tagged_abstract_sents/12052606.txt,7,0.0852775543041,0.00482415188298,0.0616692308323,0.142474783506,0.299727374405,0.243091315027,0.0311730545877,0.716755668307
tagged_abstract_sents/12052606.txt,8,0.0711987127916,-0.0553065670713,0.0616692308323,0.142474783506,0.0,0.0,0.0,0.119474707287
tagged_abstract_sents/12052606.txt,9,0.0458567980692,-0.00955493308434,0.139250797795,0.0356431803763,0.371672993969,0.159293307621,0.0270666060698,0.673125712508
tagged_abstract_sents/12052606.txt,10,0.0245374094932,-0.0243697478992,0.139250797795,0.0356431803763,0.37843810367,0.0878597867144,0.0226034128473,0.583975634256
tagged_abstract_sents/12052606.txt,11,0.0245374094932,-0.0104263927793,0.139250797795,0.0356431803763,0.347188674636,0.120692966967,0.0195896244677,0.585334268119
tagged_abstract_sents/12052606.txt,12,0.00844730490748,-0.0666355431061,0.139250797795,0.0356431803763,0.0,0.0,0.0,0.073749088315
tagged_abstract_sents/12052606.txt,13,0.00120675784393,0.0148459383754,0.139250797795,0.0356431803763,0.302349533798,0.240279925004,0.0349633545597,0.661845760322
tagged_abstract_sents/12052606.txt,14,0.00120675784393,-0.0130407718643,0.139250797795,0.0356431803763,0.308373822719,0.240556075447,0.0348896631823,0.662495166261
