tagged_abstract_sents/12069675.txt,1,0.125905068383,-0.045652173913,0.0616692308323,0.142474783506,0.0,0.0,0.0,0.165170670392
tagged_abstract_sents/12069675.txt,2,0.250201126307,0.033152173913,0.188769469584,0.202456734834,0.416187601454,0.431425229715,0.0830399782479,1.29256590049
tagged_abstract_sents/12069675.txt,3,0.239742558327,-0.0445652173913,0.0616692308323,0.142474783506,0.0,0.0,0.0,0.256458053651
tagged_abstract_sents/12069675.txt,4,0.229283990346,0.0483695652174,0.0616692308323,0.142474783506,0.26730926481,0.719366617242,0.0998231106693,1.35317714851
tagged_abstract_sents/12069675.txt,5,0.218020917136,-0.0320652173913,0.0616692308323,0.142474783506,0.0,0.0,0.0,0.241580740698
tagged_abstract_sents/12069675.txt,6,0.206757843926,0.0385869565217,0.0616692308323,0.142474783506,0.378151954051,0.571134294963,0.0836197783839,1.27960674431
tagged_abstract_sents/12069675.txt,7,0.162510056315,-0.0413043478261,0.0616692308323,0.142474783506,0.0,0.0,0.0,0.195324225955
tagged_abstract_sents/12069675.txt,8,0.118262268705,0.0163043478261,0.0616692308323,0.142474783506,0.165918944997,0.62705767774,0.0916819525362,1.05610631027
tagged_abstract_sents/12069675.txt,9,0.101769911504,-0.041847826087,0.0616692308323,0.142474783506,0.0,0.0,0.0,0.146623414454
tagged_abstract_sents/12069675.txt,10,0.0852775543041,0.0576086956522,0.139250797795,0.0356431803763,0.30736681347,0.563424748631,0.0804978353378,1.11135153302
tagged_abstract_sents/12069675.txt,11,0.0711987127916,0.0163043478261,0.139250797795,0.0356431803763,0.326514438371,0.541348832135,0.0772261136508,1.08562757697
tagged_abstract_sents/12069675.txt,12,0.0571198712792,-0.00652173913043,0.139250797795,0.0356431803763,0.587066852577,0.436890582078,0.0838846094882,1.23255194635
tagged_abstract_sents/12069675.txt,13,0.0458567980692,0.0195652173913,0.139250797795,0.0356431803763,0.457285258284,0.554988773826,0.0999933470827,1.23318421414
tagged_abstract_sents/12069675.txt,14,0.0345937248592,-0.0152173913043,0.139250797795,0.0356431803763,0.34731561832,0.267159585475,0.0904170596454,0.809842118077
tagged_abstract_sents/12069675.txt,15,0.0245374094932,-0.00271739130435,0.139250797795,0.0356431803763,0.266042888474,0.376907035631,0.110416250859,0.852770977308
tagged_abstract_sents/12069675.txt,16,0.0144810941271,-0.0434782608696,0.139250797795,0.0356431803763,0.0,0.0,0.0,0.0832075761381
tagged_abstract_sents/12069675.txt,17,0.00844730490748,0.00217391304348,0.139250797795,0.0356431803763,0.405632452475,0.402286954044,0.0855928051723,0.981023191237
tagged_abstract_sents/12069675.txt,18,0.00120675784393,0.0217391304348,0.139250797795,0.0356431803763,0.424952688671,0.532706423483,0.0833906223435,1.12668131987
tagged_abstract_sents/12069675.txt,19,0.00120675784393,-0.00271739130435,0.139250797795,0.0356431803763,0.457902310962,0.4173131253,0.0749201649923,1.03087588228
tagged_abstract_sents/12069675.txt,20,0.00120675784393,0.0222826086957,0.139250797795,0.0356431803763,0.282613369465,0.405149206861,0.0925602240219,0.866063081372
