tagged_abstract_sents/12093648.txt,1,0.0954875100725,-0.0572807933194,0.0616692308323,0.247294108221,0.257090487482,0.0,0.0,0.169956697277
tagged_abstract_sents/12093648.txt,2,0.0253827558421,0.0465814196242,0.188769469584,0.123191979006,0.257090487482,0.31572113502,0.0438167799903,0.560544200418
tagged_abstract_sents/12093648.txt,3,0.0253827558421,-0.0588465553236,0.0616692308323,0.247294108221,0.257090487482,0.0,0.0,0.113559741491
tagged_abstract_sents/12093648.txt,4,0.0805801772764,-0.044232776618,0.0616692308323,0.247294108221,0.257090487482,0.0990713975736,0.00722438076736,0.681108194638
tagged_abstract_sents/12093648.txt,5,0.123690572119,-0.0588465553236,0.0616692308323,0.247294108221,0.257090487482,0.0,0.0,0.192205994513
tagged_abstract_sents/12093648.txt,6,0.123690572119,0.0100469728601,0.194899689933,0.293363477728,0.257090487482,0.234659589391,0.0242755382872,0.741458798635
tagged_abstract_sents/12093648.txt,7,0.140209508461,-0.0510177453027,0.0616692308323,0.247294108221,0.257090487482,0.0,0.0,0.206986905591
tagged_abstract_sents/12093648.txt,8,0.149073327961,0.0283141962422,0.139250797795,0.194462959676,0.257090487482,0.401749122706,0.0565687226809,0.86522956303
tagged_abstract_sents/12093648.txt,9,0.149879129734,-0.0583246346555,0.139250797795,0.194462959676,0.257090487482,0.0,0.0,0.236202663656
tagged_abstract_sents/12093648.txt,10,0.176470588235,0.0544102296451,0.139250797795,0.194462959676,0.257090487482,0.362638226281,0.0545032647995,0.792989528454
tagged_abstract_sents/12093648.txt,11,0.176470588235,0.0199634655532,0.139250797795,0.194462959676,0.257090487482,0.243556123415,0.0440834663151,0.707628076309
tagged_abstract_sents/12093648.txt,12,0.166800966962,0.0340553235908,0.139250797795,0.194462959676,0.257090487482,0.334319385769,0.042074965003,0.666854447535
tagged_abstract_sents/12093648.txt,13,0.0954875100725,0.148877870564,0.139250797795,0.194462959676,0.257090487482,0.377314146632,0.0450525293321,0.674737616112
tagged_abstract_sents/12093648.txt,14,0.0954875100725,0.0257045929019,0.139250797795,0.194462959676,0.257090487482,0.216142471486,0.0134687434955,0.548053769905
tagged_abstract_sents/12093648.txt,15,0.0342465753425,-0.0562369519833,0.0616692308323,0.247294108221,0.257090487482,0.0,0.0,0.12117271776
