tagged_abstract_sents/12094185.txt,1,0.206355591311,-0.065157191725,0.0616692308323,0.106008497564,0.47267193656,0.0,0.0,0.214690199389
tagged_abstract_sents/12094185.txt,2,0.206355591311,-0.0127056523864,0.188769469584,0.129715814208,0.47267193656,0.0928454367178,0.0430409185532,0.863901490451
tagged_abstract_sents/12094185.txt,3,0.0048270313757,0.0283433784004,0.188769469584,0.129715814208,0.47267193656,0.121074724136,0.0530068584811,0.713582249902
tagged_abstract_sents/12094185.txt,4,0.0048270313757,-0.0668675680078,0.0616692308323,0.106008497564,0.47267193656,0.0,0.0,0.0531252761843
tagged_abstract_sents/12094185.txt,5,0.0108608205953,0.0676820329044,0.0616692308323,0.106008497564,0.47267193656,0.128129392053,0.042081381733,0.725278534381
tagged_abstract_sents/12094185.txt,7,0.0353982300885,-0.0668675680078,0.139250797795,0.521468892835,0.47267193656,0.0,0.0,0.241011137217
tagged_abstract_sents/12094185.txt,8,0.0518905872888,0.0420263886626,0.139250797795,0.521468892835,0.47267193656,0.120149013268,0.0545694060038,0.711657364948
tagged_abstract_sents/12094185.txt,9,0.0993563958166,0.00382798501385,0.139250797795,0.521468892835,0.47267193656,0.123130052761,0.0542475186796,1.04680449243
tagged_abstract_sents/12094185.txt,10,0.172566371681,0.00325785958625,0.139250797795,0.521468892835,0.47267193656,0.169275249777,0.0848829039813,1.06437859785
tagged_abstract_sents/12094185.txt,12,0.206355591311,-0.0645870662974,0.0616692308323,0.106008497564,0.47267193656,0.0,0.0,0.214804224475
tagged_abstract_sents/12094185.txt,13,0.262268704747,0.028913503828,0.139250797795,0.521468892835,0.47267193656,0.128763424353,0.0410967106664,1.10719992764
tagged_abstract_sents/12094185.txt,14,0.262268704747,0.0403160123799,0.139250797795,0.521468892835,0.47267193656,0.158293664805,0.073410196361,1.14832003075
