tagged_abstract_sents/12094185.txt,1,0.125905068383,-0.065157191725,0.0616692308323,0.142474783506,0.0,0.0,0.0,0.161269666829
tagged_abstract_sents/12094185.txt,2,0.239742558327,-0.0127056523864,0.188769469584,0.202456734834,0.432172313554,0.0928454367178,0.0430409185532,0.912433340251
tagged_abstract_sents/12094185.txt,3,0.218020917136,0.0283433784004,0.188769469584,0.202456734834,0.39667088745,0.121074724136,0.0530068584811,0.905959634698
tagged_abstract_sents/12094185.txt,4,0.218020917136,-0.0668675680078,0.0616692308323,0.142474783506,0.0,0.0,0.0,0.234620270575
tagged_abstract_sents/12094185.txt,5,0.162510056315,0.0676820329044,0.0616692308323,0.142474783506,0.470205532852,0.128129392053,0.042081381733,0.85753780874
tagged_abstract_sents/12094185.txt,6,0.101769911504,0.0619807786284,0.0616692308323,0.142474783506,0.507842459658,0.206905453886,0.125595574578,1.00773262352
tagged_abstract_sents/12094185.txt,7,0.0852775543041,-0.0668675680078,0.139250797795,0.0356431803763,0.0,0.0,0.0,0.135166882852
tagged_abstract_sents/12094185.txt,8,0.0711987127916,0.0420263886626,0.139250797795,0.0356431803763,0.260955131364,0.120149013268,0.0545694060038,0.581356151612
tagged_abstract_sents/12094185.txt,9,0.0458567980692,0.00382798501385,0.139250797795,0.0356431803763,0.563110140588,0.123130052761,0.0542475186796,0.858257100497
tagged_abstract_sents/12094185.txt,10,0.0245374094932,0.00325785958625,0.139250797795,0.0356431803763,0.445449708083,0.169275249777,0.0848829039813,0.800207714364
tagged_abstract_sents/12094185.txt,11,0.0245374094932,-0.000162892979313,0.139250797795,0.0356431803763,0.639196349965,0.112637660196,0.0726134716182,0.924363183789
tagged_abstract_sents/12094185.txt,12,0.00844730490748,-0.0645870662974,0.0616692308323,0.142474783506,0.0,0.0,0.0,0.0674174811344
tagged_abstract_sents/12094185.txt,13,0.00120675784393,0.028913503828,0.139250797795,0.0356431803763,0.495676061306,0.128763424353,0.0410967106664,0.752602656376
tagged_abstract_sents/12094185.txt,14,0.00120675784393,0.0403160123799,0.139250797795,0.0356431803763,0.47267193656,0.158293664805,0.073410196361,0.793722759487
