tagged_abstract_sents/12114037.txt,1,0.125905068383,-0.0577215464813,0.0616692308323,0.142474783506,0.0,0.0,0.0,0.162756795878
tagged_abstract_sents/12114037.txt,2,0.239742558327,0.00700477845352,0.188769469584,0.202456734834,0.635604710961,0.160345508258,0.128866608119,1.27313358493
tagged_abstract_sents/12114037.txt,3,0.239742558327,-0.0590247610773,0.0616692308323,0.142474783506,0.0,0.0,0.0,0.253566144914
tagged_abstract_sents/12114037.txt,4,0.218020917136,0.0495764552563,0.210342442448,0.226435992083,0.55947792262,0.267441861051,0.136007886761,1.32036171404
tagged_abstract_sents/12114037.txt,5,0.162510056315,-0.00776498696785,0.0616692308323,0.142474783506,0.438047867479,0.214056607235,0.136301856808,0.990438429648
tagged_abstract_sents/12114037.txt,6,0.162510056315,-0.00950260642919,0.139250797795,0.0356431803763,0.34445182678,0.183539338429,0.0858066114214,0.822223653407
tagged_abstract_sents/12114037.txt,7,0.101769911504,0.0165616854909,0.139250797795,0.0356431803763,0.584749734555,0.239234296183,0.153284745215,1.14231539526
tagged_abstract_sents/12114037.txt,8,0.0852775543041,0.0248153779322,0.139250797795,0.0356431803763,0.264134042185,0.173816462047,0.0511354131817,0.642589389453
tagged_abstract_sents/12114037.txt,9,0.0711987127916,-0.058590356212,0.139250797795,0.0356431803763,0.0,0.0,0.0,0.125559252001
tagged_abstract_sents/12114037.txt,10,0.0458567980692,0.0395851433536,0.139250797795,0.0356431803763,0.144894053339,0.184176959165,0.0971487119438,0.551140544584
tagged_abstract_sents/12114037.txt,11,0.0458567980692,0.0652150304083,0.139250797795,0.0356431803763,0.13141328282,0.191984955235,0.0877195550351,0.541164590637
tagged_abstract_sents/12114037.txt,12,0.0245374094932,0.0413227628149,0.139250797795,0.0356431803763,0.149907641862,0.166742519312,0.0695853933559,0.494448387698
tagged_abstract_sents/12114037.txt,13,0.00844730490748,-0.0151498696785,0.139250797795,0.0356431803763,0.205037728018,0.125162054588,0.0667447306792,0.480990736286
tagged_abstract_sents/12114037.txt,14,0.00844730490748,-0.05598392702,0.139250797795,0.0356431803763,0.0,0.0,0.0,0.0758794115323
tagged_abstract_sents/12114037.txt,15,0.00120675784393,-0.0199283231972,0.139250797795,0.0356431803763,0.62996848386,0.143231937274,0.108957845433,0.959456361213
tagged_abstract_sents/12114037.txt,16,0.00120675784393,0.0395851433536,0.139250797795,0.0356431803763,0.520478112646,0.239964656098,0.117718091335,0.967361648035
