tagged_abstract_sents/12113866.txt,1,0.125905068383,-0.0257094646418,0.188769469584,0.202456734834,0.325375420804,0.657480887154,0.0688657145016,1.30242593948
tagged_abstract_sents/12113866.txt,2,0.239742558327,0.0465408805031,0.188769469584,0.202456734834,0.250361867446,0.920061509627,0.0578074145879,1.58445476967
tagged_abstract_sents/12113866.txt,3,0.229283990346,-0.00408038042645,0.188769469584,0.202456734834,0.23768795601,0.764287043227,0.0702722771464,1.40998014782
tagged_abstract_sents/12113866.txt,4,0.218020917136,0.0419389476914,0.139250797795,0.0356431803763,0.29934679338,0.861970622698,0.0709113859571,1.49535167829
tagged_abstract_sents/12113866.txt,5,0.162510056315,-0.0376744899524,0.139250797795,0.0356431803763,0.191171469619,0.248129764484,0.052499604982,0.694592339157
tagged_abstract_sents/12113866.txt,6,0.118262268705,-0.0137444393312,0.139250797795,0.0356431803763,0.272490492477,0.647279670101,0.0754704148719,1.16741985756
tagged_abstract_sents/12113866.txt,7,0.101769911504,-0.0349133302654,0.139250797795,0.0356431803763,0.428858387116,0.35639464472,0.0711802744222,1.01118492242
tagged_abstract_sents/12113866.txt,8,0.0711987127916,0.0865776959656,0.139250797795,0.0356431803763,0.156427787869,1.22523259057,0.0609550099795,1.59720825086
tagged_abstract_sents/12113866.txt,9,0.0571198712792,-0.00638134683234,0.139250797795,0.0356431803763,0.299936237567,0.721419076276,0.070899825535,1.21699312005
tagged_abstract_sents/12113866.txt,10,0.0458567980692,-0.0344531369842,0.139250797795,0.0356431803763,0.233356679603,0.397686581514,0.0703868035539,0.811543228739
tagged_abstract_sents/12113866.txt,11,0.0245374094932,-0.00223960730173,0.139250797795,0.0356431803763,0.253118748988,0.734351558439,0.059925942719,1.14689660929
tagged_abstract_sents/12113866.txt,12,0.0144810941271,-0.0316919772971,0.139250797795,0.0356431803763,0.218558937016,0.445287087948,0.0615364996599,0.810947357477
tagged_abstract_sents/12113866.txt,13,0.00844730490748,0.000521552385335,0.139250797795,0.0356431803763,0.0862650226222,0.373127548033,0.0720773823018,0.61865046037
tagged_abstract_sents/12113866.txt,14,0.00120675784393,0.0308943089431,0.139250797795,0.0356431803763,0.14857662635,0.946884250928,0.0679167184678,1.25084021682
tagged_abstract_sents/12113866.txt,15,0.00120675784393,-0.0155852124559,0.139250797795,0.0356431803763,0.293906247419,0.489389230867,0.0593258387009,0.920788033782
