tagged_abstract_sents/12137717.txt,1,0.0954875100725,-0.0402974896646,0.0616692308323,0.247294108221,0.235289895473,0.0,0.0,0.173353358008
tagged_abstract_sents/12137717.txt,3,0.0253827558421,-0.020606913012,0.188769469584,0.123191979006,0.235289895473,0.379072445131,0.0411418522734,0.616035666745
tagged_abstract_sents/12137717.txt,4,0.0253827558421,-0.0112304479393,0.0616692308323,0.247294108221,0.235289895473,0.474104468288,0.0525687243495,0.865061123105
tagged_abstract_sents/12137717.txt,5,0.0805801772764,-0.0402974896646,0.0616692308323,0.247294108221,0.235289895473,0.0,0.0,0.161427491771
tagged_abstract_sents/12137717.txt,6,0.0805801772764,0.00939777522056,0.0616692308323,0.247294108221,0.235289895473,0.539043971594,0.0495071914181,1.0383630772
tagged_abstract_sents/12137717.txt,7,0.123690572119,-0.0379533733964,0.0616692308323,0.247294108221,0.235289895473,0.0,0.0,0.196384630899
tagged_abstract_sents/12137717.txt,8,0.123690572119,-0.010292801432,0.0616692308323,0.247294108221,0.235289895473,0.574015773775,0.0714798166884,0.847412335755
tagged_abstract_sents/12137717.txt,9,0.140209508461,0.00846012871329,0.0616692308323,0.247294108221,0.235289895473,0.518279947823,0.0377985036384,0.774960931855
tagged_abstract_sents/12137717.txt,10,0.140209508461,-0.0365469036355,0.0616692308323,0.247294108221,0.235289895473,0.0,0.0,0.209881073924
tagged_abstract_sents/12137717.txt,11,0.149073327961,0.109725951498,0.194899689933,0.293363477728,0.235289895473,0.821997093448,0.0684181157687,1.4041820965
tagged_abstract_sents/12137717.txt,12,0.149879129734,-0.0318586710992,0.0616692308323,0.247294108221,0.235289895473,0.0,0.0,0.21855441745
tagged_abstract_sents/12137717.txt,13,0.149879129734,-0.0252951455483,0.0616692308323,0.247294108221,0.235289895473,0.30730356753,0.0491612859144,0.576331976004
tagged_abstract_sents/12137717.txt,14,0.176470588235,0.0159613007714,0.0616692308323,0.247294108221,0.235289895473,0.621580052242,0.06135765775,1.15947743591
tagged_abstract_sents/12137717.txt,15,0.176470588235,-0.0393598431573,0.0616692308323,0.247294108221,0.235289895473,0.0,0.0,0.238327349839
tagged_abstract_sents/12137717.txt,16,0.166800966962,0.0201807100541,0.139250797795,0.194462959676,0.235289895473,0.586343850226,0.0645584248974,1.11682821905
tagged_abstract_sents/12137717.txt,17,0.166800966962,0.0469036355112,0.139250797795,0.194462959676,0.235289895473,0.533160054785,0.045044583376,0.915362435165
tagged_abstract_sents/12137717.txt,18,0.0954875100725,0.0159613007714,0.139250797795,0.194462959676,0.235289895473,0.471366333579,0.0499854805097,0.983290233187
tagged_abstract_sents/12137717.txt,19,0.0954875100725,-0.034671610621,0.139250797795,0.194462959676,0.235289895473,0.0,0.0,0.197419972734
tagged_abstract_sents/12137717.txt,20,0.0342465753425,-0.0173251502365,0.139250797795,0.194462959676,0.235289895473,0.36648004292,0.0707972974038,0.631132267772
tagged_abstract_sents/12137717.txt,21,0.0342465753425,0.0694071516856,0.139250797795,0.194462959676,0.235289895473,0.718769317941,0.0614038789647,1.20935963551
tagged_abstract_sents/12137717.txt,22,0.0342465753425,-0.00466692238844,0.139250797795,0.194462959676,0.235289895473,0.325184561225,0.0399119660379,0.754814585333
