tagged_abstract_sents/12135217.txt,1,0.125905068383,-0.0336672423719,0.0616692308323,0.142474783506,0.0,0.0,0.0,0.1675676567
tagged_abstract_sents/12135217.txt,2,0.125905068383,0.0394473229706,0.188769469584,0.202456734834,0.277827888137,0.244340850869,0.0252596126859,0.811163626234
tagged_abstract_sents/12135217.txt,3,0.239742558327,-0.0359700633276,0.0616692308323,0.142474783506,0.0,0.0,0.0,0.258177084464
tagged_abstract_sents/12135217.txt,4,0.239742558327,-0.011790443293,0.0616692308323,0.142474783506,0.344042039482,0.0831946131819,0.0258857056499,0.716135366784
tagged_abstract_sents/12135217.txt,5,0.229283990346,-0.0353943580887,0.0616692308323,0.142474783506,0.0,0.0,0.0,0.249925371127
tagged_abstract_sents/12135217.txt,6,0.218020917136,0.000875071963155,0.0616692308323,0.142474783506,0.304815521431,0.131376808097,0.0251972432719,0.709558371369
tagged_abstract_sents/12135217.txt,7,0.218020917136,-0.0336672423719,0.0616692308323,0.142474783506,0.0,0.0,0.0,0.241260335702
tagged_abstract_sents/12135217.txt,8,0.162510056315,-0.000852043753598,0.0616692308323,0.142474783506,0.407786094843,0.142721374046,0.0339913306514,0.78791348631
tagged_abstract_sents/12135217.txt,9,0.162510056315,-0.0319401266552,0.0616692308323,0.142474783506,0.0,0.0,0.0,0.197197070189
tagged_abstract_sents/12135217.txt,10,0.118262268705,0.00835924006908,0.0616692308323,0.142474783506,0.165216719413,0.120325142554,0.0269962110581,0.48239678647
tagged_abstract_sents/12135217.txt,11,0.101769911504,0.0417501439263,0.0616692308323,0.142474783506,0.244787974445,0.142754109966,0.0271306951071,0.578015787974
tagged_abstract_sents/12135217.txt,12,0.101769911504,-0.0273344847438,0.0616692308323,0.142474783506,0.0,0.0,0.0,0.149526082723
tagged_abstract_sents/12135217.txt,13,0.0711987127916,-0.0043062751871,0.0616692308323,0.142474783506,0.0,0.13042332011,0.0339040134718,0.294002099245
tagged_abstract_sents/12135217.txt,14,0.0711987127916,0.000875071963155,0.0616692308323,0.142474783506,0.300185433129,0.136812340605,0.0168397417906,0.584548550619
tagged_abstract_sents/12135217.txt,15,0.0571198712792,-0.0353943580887,0.0616692308323,0.142474783506,0.0,0.0,0.0,0.112194075873
tagged_abstract_sents/12135217.txt,16,0.0458567980692,0.0181462291307,0.139250797795,0.0356431803763,0.328728708968,0.12227830505,0.0355120437173,0.607152095027
tagged_abstract_sents/12135217.txt,17,0.0458567980692,-0.00603339090386,0.139250797795,0.0356431803763,0.14024547856,0.116568421753,0.025415536221,0.398026549819
tagged_abstract_sents/12135217.txt,18,0.0245374094932,0.037144502015,0.139250797795,0.0356431803763,0.10700678617,0.127181958017,0.027092172822,0.368658098017
tagged_abstract_sents/12135217.txt,19,0.0245374094932,0.0285089234312,0.139250797795,0.0356431803763,0.429273855889,0.142996590879,0.0383621135353,0.716282625594
tagged_abstract_sents/12135217.txt,20,0.0144810941271,0.0475071963155,0.139250797795,0.0356431803763,0.255782006922,0.154795807144,0.0366485959496,0.54863107759
tagged_abstract_sents/12135217.txt,21,0.00844730490748,0.0244789867588,0.139250797795,0.0356431803763,0.281341408337,0.132910775079,0.0209010912813,0.527125268985
tagged_abstract_sents/12135217.txt,22,0.00844730490748,0.0146919976972,0.139250797795,0.0356431803763,0.0,0.130123344201,0.028750350828,0.248888291504
tagged_abstract_sents/12135217.txt,23,0.00120675784393,-0.033091537133,0.0616692308323,0.142474783506,0.0,0.0,0.0,0.0679241493164
tagged_abstract_sents/12135217.txt,24,0.00120675784393,0.00835924006908,0.139250797795,0.0356431803763,0.157103150014,0.134976988641,0.0241057785262,0.39914152448
tagged_abstract_sents/12135217.txt,25,0.00120675784393,0.0192976396085,0.139250797795,0.0356431803763,0.286669281809,0.114774504372,0.0209444288521,0.50753150224
