tagged_abstract_sents/12164990.txt,1,0.206355591311,-0.0367471675611,0.0616692308323,0.106008497564,0.000118297675533,0.0,0.0,0.220372204222
tagged_abstract_sents/12164990.txt,2,0.206355591311,-7.45378652355e-05,0.188769469584,0.129715814208,0.000118297675533,0.108538608131,0.0277963971512,0.434824823342
tagged_abstract_sents/12164990.txt,3,0.206355591311,-0.0385360763268,0.0616692308323,0.106008497564,0.000118297675533,0.0,0.0,0.220014422469
tagged_abstract_sents/12164990.txt,4,0.206355591311,0.00305605247466,0.0616692308323,0.106008497564,0.000118297675533,0.165135645016,0.0427174975562,0.436294781677
tagged_abstract_sents/12164990.txt,5,0.0048270313757,-0.0380888491354,0.0616692308323,0.106008497564,0.000118297675533,0.0,0.0,0.0588810199588
tagged_abstract_sents/12164990.txt,6,0.0048270313757,-0.00991353607633,0.0616692308323,0.106008497564,0.000118297675533,0.0988369886502,0.0182760787599,0.181723833587
tagged_abstract_sents/12164990.txt,7,0.0048270313757,-0.00275790101371,0.0616692308323,0.106008497564,0.000118297675533,0.125357299589,0.0395894428152,0.230984527828
tagged_abstract_sents/12164990.txt,8,0.0108608205953,-0.0358527131783,0.0616692308323,0.106008497564,0.000118297675533,0.0,0.0,0.0641552785259
tagged_abstract_sents/12164990.txt,9,0.0108608205953,0.0133422778772,0.194899689933,0.0581677376677,0.000118297675533,0.109532925366,0.0372643485547,0.273116371342
tagged_abstract_sents/12164990.txt,10,0.0261464199517,-0.00275790101371,0.0616692308323,0.106008497564,0.000118297675533,0.127959787877,0.028271627566,0.239359398858
tagged_abstract_sents/12164990.txt,11,0.0261464199517,-0.0358527131783,0.0616692308323,0.106008497564,0.000118297675533,0.0,0.0,0.076383758011
tagged_abstract_sents/12164990.txt,13,0.0518905872888,0.0330202742993,0.0616692308323,0.106008497564,0.000118297675533,0.211752942996,0.0411906158358,0.363754496561
tagged_abstract_sents/12164990.txt,14,0.0518905872888,-0.0148330351819,0.0616692308323,0.106008497564,0.000118297675533,0.12446239795,0.0240835777126,0.249864989514
tagged_abstract_sents/12164990.txt,15,0.0993563958166,-0.0380888491354,0.0616692308323,0.106008497564,0.000118297675533,0.0,0.0,0.134504511511
tagged_abstract_sents/12164990.txt,16,0.0993563958166,-0.00409958258795,0.139250797795,0.521468892835,0.000118297675533,0.132406943017,0.0226668966707,0.459887213421
tagged_abstract_sents/12164990.txt,17,0.172566371681,0.0795319022063,0.139250797795,0.521468892835,0.000118297675533,0.156649369776,0.0234677419355,0.560185546106
tagged_abstract_sents/12164990.txt,18,0.172566371681,0.0111061419201,0.139250797795,0.521468892835,0.000118297675533,0.145859465268,0.0253493186131,0.537641499881
tagged_abstract_sents/12164990.txt,19,0.172566371681,0.0111061419201,0.139250797795,0.521468892835,0.000118297675533,0.107308464628,0.0257121910348,0.499395282629
tagged_abstract_sents/12164990.txt,21,0.206355591311,0.00350327966607,0.139250797795,0.521468892835,0.000118297675533,0.103013172882,0.0201927105153,0.754026762074
tagged_abstract_sents/12164990.txt,22,0.262268704747,-0.0367471675611,0.0616692308323,0.106008497564,0.000118297675533,0.0,0.0,0.26510269497
tagged_abstract_sents/12164990.txt,23,0.262268704747,0.00752832438879,0.139250797795,0.521468892835,0.000118297675533,0.144949556228,0.0318914956012,0.614348095535
tagged_abstract_sents/12164990.txt,24,0.262268704747,0.00663387000596,0.139250797795,0.521468892835,0.000118297675533,0.218944478857,0.039425896684,0.695696477763
