tagged_abstract_sents/12202465.txt,1,0.206355591311,-0.0441885158866,0.0616692308323,0.106008497564,6.69331374339e-05,0.0,0.0,0.218883934557
tagged_abstract_sents/12202465.txt,2,0.206355591311,-0.0167442620273,0.188769469584,0.129715814208,6.69331374339e-05,0.269789121112,0.0473510821078,0.748557907316
tagged_abstract_sents/12202465.txt,3,0.206355591311,-0.0435024095401,0.0616692308323,0.106008497564,6.69331374339e-05,0.0,0.0,0.219021155826
tagged_abstract_sents/12202465.txt,4,0.206355591311,0.0206485338561,0.0616692308323,0.106008497564,6.69331374339e-05,0.284858399606,0.0715483677748,0.599249581624
tagged_abstract_sents/12202465.txt,5,0.0048270313757,-0.0421301968472,0.0616692308323,0.106008497564,6.69331374339e-05,0.0,0.0,0.0580727504164
tagged_abstract_sents/12202465.txt,7,0.0108608205953,-0.0133137302949,0.0616692308323,0.106008497564,6.69331374339e-05,0.215053516136,0.0580748022479,0.34182069913
tagged_abstract_sents/12202465.txt,8,0.0108608205953,-0.0424732500204,0.0616692308323,0.106008497564,6.69331374339e-05,0.0,0.0,0.0628311711575
tagged_abstract_sents/12202465.txt,9,0.0261464199517,0.00418198154047,0.139250797795,0.521468892835,6.69331374339e-05,0.317343066897,0.061579405919,0.735130077191
tagged_abstract_sents/12202465.txt,10,0.0261464199517,0.00795556644613,0.139250797795,0.521468892835,6.69331374339e-05,0.269228680755,0.0496603143078,0.690418581062
tagged_abstract_sents/12202465.txt,11,0.0518905872888,0.0381442456914,0.139250797795,0.521468892835,6.69331374339e-05,0.283322713951,0.0654523673392,0.663325447183
tagged_abstract_sents/12202465.txt,12,0.0518905872888,0.00692640692641,0.139250797795,0.521468892835,6.69331374339e-05,0.243556826992,0.0680460863591,0.610779755478
tagged_abstract_sents/12202465.txt,13,0.0993563958166,-0.00645266683003,0.139250797795,0.521468892835,6.69331374339e-05,0.208761702576,0.0572776280323,0.570385465873
tagged_abstract_sents/12202465.txt,14,0.0993563958166,0.0769092542677,0.139250797795,0.521468892835,6.69331374339e-05,0.299701938898,0.0592350147606,0.723142096611
tagged_abstract_sents/12202465.txt,16,0.172566371681,-0.00336518827085,0.139250797795,0.521468892835,6.69331374339e-05,0.226016715995,0.0452979934112,0.809169013302
tagged_abstract_sents/12202465.txt,17,0.206355591311,0.036085926652,0.139250797795,0.521468892835,6.69331374339e-05,0.231983520872,0.0622005091345,0.737630072394
tagged_abstract_sents/12202465.txt,18,0.206355591311,-0.0435024095401,0.0616692308323,0.106008497564,6.69331374339e-05,0.0,0.0,0.219021155826
tagged_abstract_sents/12202465.txt,19,0.262268704747,0.0144735767377,0.139250797795,0.521468892835,6.69331374339e-05,0.251859727168,0.0610212638515,0.803035332318
tagged_abstract_sents/12202465.txt,20,0.262268704747,0.0244221187617,0.139250797795,0.521468892835,6.69331374339e-05,0.266198713084,0.0645474122563,0.830047217625
tagged_abstract_sents/12202465.txt,21,0.262268704747,0.00829861961937,0.139250797795,0.521468892835,6.69331374339e-05,0.174765462791,0.0569731456524,0.66934629605
