tagged_abstract_sents/12211284.txt,1,0.206355591311,-0.0972034280559,0.188769469584,0.129715814208,0.0987520932558,0.133229770383,0.053841913527,0.716237683069
tagged_abstract_sents/12211284.txt,3,0.0353982300885,-0.0854758682905,0.188769469584,0.129715814208,0.0987520932558,0.210605781292,0.0506594354739,0.405795897123
tagged_abstract_sents/12211284.txt,4,0.0993563958166,-0.147271087055,0.188769469584,0.129715814208,0.0987520932558,0.0667257607645,0.0240999294062,0.274156068468
tagged_abstract_sents/12211284.txt,5,0.206355591311,-0.11750112765,0.188769469584,0.129715814208,0.0987520932558,0.151382462424,0.0278736458633,0.454149084856
