tagged_abstract_sents/12211284.txt,1,0.0253827558421,-0.0972034280559,0.188769469584,0.123191979006,0.0987520932558,0.133229770383,0.053841913527,0.569502264133
tagged_abstract_sents/12211284.txt,2,0.123690572119,-0.053901668922,0.188769469584,0.123191979006,0.0987520932558,0.259165086106,0.0474407859946,0.82333890309
tagged_abstract_sents/12211284.txt,3,0.149073327961,-0.0854758682905,0.188769469584,0.123191979006,0.0987520932558,0.210605781292,0.0506594354739,0.494778824861
tagged_abstract_sents/12211284.txt,4,0.176470588235,-0.147271087055,0.188769469584,0.123191979006,0.0987520932558,0.0667257607645,0.0240999294062,0.333890271842
tagged_abstract_sents/12211284.txt,5,0.0954875100725,-0.11750112765,0.188769469584,0.123191979006,0.0987520932558,0.151382462424,0.0278736458633,0.363497469304
