tagged_abstract_sents/12213943.txt,1,0.206355591311,-0.0598386095593,0.0616692308323,0.106008497564,0.128520015628,0.0,0.0,0.215753915823
tagged_abstract_sents/12213943.txt,2,0.206355591311,0.0512725015518,0.188769469584,0.129715814208,0.128520015628,0.129287321846,0.0894428152493,0.904399647314
tagged_abstract_sents/12213943.txt,3,0.0048270313757,-0.0617008069522,0.188769469584,0.129715814208,0.128520015628,0.0,0.0,0.124820942765
tagged_abstract_sents/12213943.txt,5,0.0108608205953,-0.0263190564867,0.194899689933,0.0581677376677,0.128520015628,0.0735355292736,0.0686999022483,0.418976213863
tagged_abstract_sents/12213943.txt,6,0.016894609815,0.0388578522657,0.194899689933,0.0581677376677,0.128520015628,0.148121137823,0.0812561094819,0.742818531097
tagged_abstract_sents/12213943.txt,7,0.0261464199517,-0.0617008069522,0.139250797795,0.521468892835,0.128520015628,0.0,0.0,0.234643041319
tagged_abstract_sents/12213943.txt,8,0.0518905872888,-0.026939788951,0.139250797795,0.521468892835,0.128520015628,0.0887142482941,0.0611518409906,0.569600606146
tagged_abstract_sents/12213943.txt,9,0.0683829444891,0.0928615766605,0.139250797795,0.521468892835,0.128520015628,0.176118304091,0.0949332029977,0.80899551926
tagged_abstract_sents/12213943.txt,11,0.172566371681,0.0109248913718,0.139250797795,0.521468892835,0.128520015628,0.12165337606,0.0944979751431,0.961136508358
tagged_abstract_sents/12213943.txt,12,0.214802896219,-0.00583488516449,0.139250797795,0.521468892835,0.128520015628,0.102669252474,0.0675644389566,0.709255886282
tagged_abstract_sents/12213943.txt,13,0.206355591311,-0.059217877095,0.139250797795,0.521468892835,0.128520015628,0.0,0.0,0.379306964378
tagged_abstract_sents/12213943.txt,14,0.262268704747,-0.00893854748603,0.139250797795,0.521468892835,0.128520015628,0.132288866211,0.0909160731741,1.07764171673
tagged_abstract_sents/12213943.txt,15,0.262268704747,-0.00335195530726,0.139250797795,0.521468892835,0.128520015628,0.122800019102,0.0741307080017,0.760661382216
