tagged_abstract_sents/12219053.txt,1,0.125905068383,-0.0756704980843,0.0616692308323,0.142474783506,0.0,0.0,0.0,0.159167005557
tagged_abstract_sents/12219053.txt,2,0.239742558327,0.0507662835249,0.188769469584,0.202456734834,0.412494898345,0.300335120412,0.0185306755789,1.08842975294
tagged_abstract_sents/12219053.txt,3,0.218020917136,0.00708812260536,0.0616692308323,0.142474783506,0.38857896241,0.304127165079,0.0225363480317,0.964653884219
tagged_abstract_sents/12219053.txt,4,0.162510056315,0.110536398467,0.139250797795,0.0356431803763,0.304829324506,0.369943950463,0.0215469085701,0.928753861295
tagged_abstract_sents/12219053.txt,5,0.101769911504,-0.0772030651341,0.139250797795,0.0356431803763,0.0,0.0,0.0,0.146293669187
tagged_abstract_sents/12219053.txt,6,0.0852775543041,-0.0465517241379,0.139250797795,0.0356431803763,0.0736524663119,0.140257504371,0.0117450465505,0.364885068859
tagged_abstract_sents/12219053.txt,7,0.0711987127916,0.0515325670498,0.139250797795,0.0356431803763,0.292792546873,0.312237010283,0.0246279939524,0.777241387762
tagged_abstract_sents/12219053.txt,8,0.0458567980692,-0.0189655172414,0.139250797795,0.0356431803763,0.435681581679,0.158023865863,0.0100759926792,0.71699212824
tagged_abstract_sents/12219053.txt,9,0.0245374094932,0.0147509578544,0.139250797795,0.0356431803763,0.210499528658,0.189664807876,0.011543839307,0.514606648017
tagged_abstract_sents/12219053.txt,10,0.00844730490748,0.0385057471264,0.139250797795,0.0356431803763,0.327349944881,0.344878082707,0.0280285902855,0.795033964235
tagged_abstract_sents/12219053.txt,11,0.00120675784393,-0.0741379310345,0.0616692308323,0.142474783506,0.0,0.0,0.0,0.0597148705361
tagged_abstract_sents/12219053.txt,12,0.00120675784393,0.0193486590038,0.139250797795,0.0356431803763,0.402743218277,0.28786828805,0.0285899159453,0.804354913358
