tagged_abstract_sents/12235640.txt,1,0.239742558327,-0.0639140271493,0.188769469584,0.202456734834,0.344866207427,0.107971014235,0.0552492668622,0.842219484998
tagged_abstract_sents/12235640.txt,2,0.218020917136,-0.0412895927602,0.188769469584,0.202456734834,0.0711667691986,0.143810226636,0.0526173020528,0.588874868287
tagged_abstract_sents/12235640.txt,3,0.162510056315,-0.020173453997,0.0616692308323,0.142474783506,0.241193057424,0.154457408808,0.0672461946655,0.662447065618
tagged_abstract_sents/12235640.txt,4,0.0852775543041,-0.019419306184,0.210342442448,0.226435992083,0.127424606772,0.123265343799,0.057119582926,0.545249734553
tagged_abstract_sents/12235640.txt,5,0.0458567980692,-0.0601432880845,0.0616692308323,0.142474783506,0.0717830443398,0.177790427365,0.0590972842025,0.406904587214
tagged_abstract_sents/12235640.txt,6,0.0245374094932,0.085407239819,0.139250797795,0.0356431803763,0.123496335327,0.16931631012,0.0533214331251,0.463163807141
tagged_abstract_sents/12235640.txt,7,0.00844730490748,0.0575037707391,0.139250797795,0.0356431803763,0.0,0.18243989791,0.0618707233627,0.342887572357
tagged_abstract_sents/12235640.txt,8,0.00120675784393,0.0620286576169,0.139250797795,0.0356431803763,0.463946423091,0.272150744333,0.0585518371572,0.88833849539
