tagged_abstract_sents/12234230.txt,1,0.206355591311,-0.0465532098234,0.0616692308323,0.106008497564,0.294428665039,0.0,0.0,0.21841099577
tagged_abstract_sents/12234230.txt,2,0.206355591311,0.00299439896596,0.188769469584,0.129715814208,0.294428665039,0.157074949773,0.0306132857325,0.83732562432
tagged_abstract_sents/12234230.txt,3,0.206355591311,-0.0456915122792,0.0616692308323,0.106008497564,0.294428665039,0.0,0.0,0.218583335279
tagged_abstract_sents/12234230.txt,5,0.0048270313757,-0.0469840585954,0.0616692308323,0.106008497564,0.294428665039,0.0,0.0,0.0571019780668
tagged_abstract_sents/12234230.txt,6,0.0048270313757,-0.00950021542439,0.0616692308323,0.106008497564,0.294428665039,0.111151699514,0.0421338623426,0.383852853674
tagged_abstract_sents/12234230.txt,7,0.0108608205953,-0.0465532098234,0.0616692308323,0.106008497564,0.294428665039,0.0,0.0,0.0620151791969
tagged_abstract_sents/12234230.txt,8,0.016894609815,0.0447867298578,0.0616692308323,0.106008497564,0.294428665039,0.20367085039,0.0344140328011,0.417367374792
tagged_abstract_sents/12234230.txt,9,0.0261464199517,-0.0163937957777,0.0616692308323,0.106008497564,0.294428665039,0.101096317625,0.0338434750733,0.448716907023
tagged_abstract_sents/12234230.txt,11,0.0518905872888,-0.0439681171909,0.0616692308323,0.106008497564,0.294428665039,0.0,0.0,0.0953560110782
tagged_abstract_sents/12234230.txt,12,0.0683829444891,0.0413399396812,0.194899689933,0.0581677376677,0.294428665039,0.167445733213,0.037237026648,0.4905191925
tagged_abstract_sents/12234230.txt,13,0.0993563958166,-0.0405213270142,0.194899689933,0.0581677376677,0.294428665039,0.0,0.0,0.186281017517
tagged_abstract_sents/12234230.txt,14,0.130329847144,0.0568504954761,0.0616692308323,0.106008497564,0.294428665039,0.216389206351,0.0339638318671,0.541110813273
tagged_abstract_sents/12234230.txt,15,0.172566371681,-0.0465532098234,0.0616692308323,0.106008497564,0.294428665039,0.0,0.0,0.191379620066
tagged_abstract_sents/12234230.txt,16,0.214802896219,0.072361051271,0.139250797795,0.521468892835,0.294428665039,0.168928415793,0.0348336095882,0.678030722048
tagged_abstract_sents/12234230.txt,17,0.206355591311,0.0210900473934,0.139250797795,0.521468892835,0.294428665039,0.184845122417,0.0341811414392,0.711366883222
tagged_abstract_sents/12234230.txt,18,0.262268704747,0.00687203791469,0.139250797795,0.521468892835,0.294428665039,0.109293388,0.0253024193548,0.868453660911
tagged_abstract_sents/12234230.txt,19,0.262268704747,-0.0452606635071,0.0616692308323,0.106008497564,0.294428665039,0.0,0.0,0.263399995781
tagged_abstract_sents/12234230.txt,20,0.262268704747,0.0439250323137,0.139250797795,0.521468892835,0.294428665039,0.233136356271,0.0373238104247,1.00955486874
