tagged_abstract_sents/12353945.txt,1,0.125905068383,-0.0420863309353,0.0616692308323,0.142474783506,0.0,0.0,0.0,0.165883838987
tagged_abstract_sents/12353945.txt,2,0.250201126307,0.0363309352518,0.188769469584,0.202456734834,0.30987356536,0.167345743244,0.193277310924,1.03304546287
tagged_abstract_sents/12353945.txt,3,0.239742558327,-0.0428057553957,0.0616692308323,0.142474783506,0.0,0.0,0.0,0.25680994605
tagged_abstract_sents/12353945.txt,4,0.229283990346,0.0197841726619,0.0616692308323,0.142474783506,0.364172134558,0.191926716568,0.173676427093,0.990736355495
tagged_abstract_sents/12353945.txt,5,0.218020917136,-0.044964028777,0.0616692308323,0.142474783506,0.0,0.0,0.0,0.239000978421
tagged_abstract_sents/12353945.txt,6,0.206757843926,-0.00107913669065,0.0616692308323,0.142474783506,4.45888670866e-05,0.0863182151194,0.110204081633,0.43533438389
tagged_abstract_sents/12353945.txt,7,0.162510056315,-0.0442446043165,0.0616692308323,0.142474783506,0.0,0.0,0.0,0.194736174657
tagged_abstract_sents/12353945.txt,8,0.118262268705,-0.0147482014388,0.0616692308323,0.142474783506,0.0,0.077831815884,0.127010804322,0.37007984535
tagged_abstract_sents/12353945.txt,9,0.101769911504,-0.0435251798561,0.0616692308323,0.142474783506,0.0,0.0,0.0,0.1462879437
tagged_abstract_sents/12353945.txt,10,0.0852775543041,0.0248201438849,0.139250797795,0.0356431803763,0.295949406008,0.148108773633,0.157175251053,0.754737855925
tagged_abstract_sents/12353945.txt,11,0.0711987127916,-0.0406474820144,0.139250797795,0.0356431803763,0.0,0.0,0.0,0.129147826841
tagged_abstract_sents/12353945.txt,12,0.0571198712792,0.0392086330935,0.139250797795,0.0356431803763,0.292029539326,0.172439640315,0.17409733124,0.772422487534
tagged_abstract_sents/12353945.txt,13,0.0458567980692,-0.0442446043165,0.139250797795,0.0356431803763,0.0,0.0,0.0,0.108154870602
tagged_abstract_sents/12353945.txt,14,0.0345937248592,0.0068345323741,0.139250797795,0.0356431803763,0.318231403792,0.100759109837,0.148299319728,0.676650072729
tagged_abstract_sents/12353945.txt,15,0.0245374094932,0.0154676258993,0.0616692308323,0.142474783506,0.327308680772,0.092935126288,0.161904761905,0.678449072207
tagged_abstract_sents/12353945.txt,16,0.0144810941271,0.0852517985612,0.139250797795,0.0356431803763,3.25119105624e-05,0.251595907288,0.18231292517,0.542894932393
tagged_abstract_sents/12353945.txt,17,0.00844730490748,0.0269784172662,0.139250797795,0.0356431803763,0.324634744618,0.0978015787415,0.162406015038,0.677314218787
tagged_abstract_sents/12353945.txt,18,0.00120675784393,0.0226618705036,0.139250797795,0.0356431803763,0.0715848520554,0.0836145865265,0.141016406563,0.382031978531
tagged_abstract_sents/12353945.txt,19,0.00120675784393,-0.0420863309353,0.0616692308323,0.142474783506,0.0,0.0,0.0,0.066125190556
tagged_abstract_sents/12353945.txt,20,0.00120675784393,0.0830935251799,0.139250797795,0.0356431803763,0.328895499577,0.26213106508,0.190476190476,0.879405219455
