tagged_abstract_sents/12383547.txt,1,0.0954875100725,-0.0646626715639,0.0616692308323,0.247294108221,0.32104089116,0.0,0.0,0.168480321628
tagged_abstract_sents/12383547.txt,3,0.0805801772764,0.0057026870288,0.188769469584,0.123191979006,0.32104089116,0.12018996595,0.0253007156271,0.645953958433
tagged_abstract_sents/12383547.txt,4,0.0805801772764,-0.0660158515368,0.0616692308323,0.247294108221,0.32104089116,0.0,0.0,0.156283819396
tagged_abstract_sents/12383547.txt,5,0.123690572119,0.0199110767446,0.210342442448,0.141687475369,0.32104089116,0.111277138019,0.0394976512319,0.715796160031
tagged_abstract_sents/12383547.txt,6,0.140209508461,0.0611830659192,0.0616692308323,0.247294108221,0.32104089116,0.200420849141,0.0672095197009,0.550692911339
tagged_abstract_sents/12383547.txt,7,0.149073327961,-0.0660158515368,0.139250797795,0.194462959676,0.32104089116,0.0,0.0,0.234019778862
tagged_abstract_sents/12383547.txt,8,0.149879129734,-0.00444616276822,0.139250797795,0.194462959676,0.32104089116,0.117453027277,0.0353626351317,0.802497940222
tagged_abstract_sents/12383547.txt,9,0.176470588235,0.01314517688,0.139250797795,0.194462959676,0.32104089116,0.049515966229,0.0320221193819,0.460792042334
tagged_abstract_sents/12383547.txt,10,0.166800966962,0.0172047167988,0.139250797795,0.194462959676,0.32104089116,0.123950042732,0.0359625155786,0.61096893423
tagged_abstract_sents/12383547.txt,11,0.166800966962,0.0618596559057,0.139250797795,0.194462959676,0.32104089116,0.161794431565,0.0484743901482,0.75128367961
tagged_abstract_sents/12383547.txt,12,0.0954875100725,-0.0247438623623,0.139250797795,0.194462959676,0.32104089116,0.114929787856,0.0386616251332,0.527279456896
tagged_abstract_sents/12383547.txt,13,0.0342465753425,-0.0639860815774,0.0616692308323,0.247294108221,0.32104089116,0.0,0.0,0.119622891841
tagged_abstract_sents/12383547.txt,14,0.0342465753425,0.0774212255944,0.139250797795,0.194462959676,0.32104089116,0.175304070575,0.0493061547311,0.716496908659
