tagged_abstract_sents/12396679.txt,2,0.0048270313757,-0.0598441926346,0.188769469584,0.129715814208,0.0860654348713,0.108944747695,0.0123907127555,0.330642532135
tagged_abstract_sents/12396679.txt,3,0.0108608205953,0.0581916902738,0.188769469584,0.129715814208,0.0860654348713,0.182563110076,0.0270766023971,0.403340730797
tagged_abstract_sents/12396679.txt,4,0.0353982300885,-0.0135741265345,0.210342442448,0.0253702522065,0.0860654348713,0.143701443938,0.0102397081813,0.292327207769
tagged_abstract_sents/12396679.txt,5,0.0993563958166,-0.0815627950897,0.0616692308323,0.106008497564,0.0860654348713,0.0679295374997,0.0187196857338,0.212458945554
tagged_abstract_sents/12396679.txt,7,0.206355591311,-0.0267941454202,0.139250797795,0.521468892835,0.0860654348713,0.15674525845,0.0172746221991,0.559811591362
tagged_abstract_sents/12396679.txt,8,0.262268704747,0.0695231350331,0.139250797795,0.521468892835,0.0860654348713,0.156376312363,0.0179998262984,0.710227231085
