tagged_abstract_sents/12390647.txt,1,0.125905068383,-0.0396344396344,0.0616692308323,0.142474783506,0.0,0.0,0.0,0.166374217247
tagged_abstract_sents/12390647.txt,2,0.125905068383,-0.016354016354,0.188769469584,0.202456734834,0.388630838998,0.230855539249,0.0300968614812,0.902158246407
tagged_abstract_sents/12390647.txt,3,0.239742558327,0.0455507455507,0.188769469584,0.202456734834,0.522511551555,0.40903343787,0.0560301111136,1.34360105155
tagged_abstract_sents/12390647.txt,4,0.239742558327,-0.0401635401635,0.0616692308323,0.142474783506,0.0,0.0,0.0,0.257338389096
tagged_abstract_sents/12390647.txt,5,0.218020917136,0.00639730639731,0.0616692308323,0.142474783506,0.508674833544,0.382694023145,0.0522298320148,1.19287193416
tagged_abstract_sents/12390647.txt,6,0.218020917136,-0.0412217412217,0.0616692308323,0.142474783506,0.0,0.0,0.0,0.239749435932
tagged_abstract_sents/12390647.txt,7,0.162510056315,0.0132756132756,0.0616692308323,0.142474783506,0.455662339103,0.332966864574,0.0593044975095,1.05417391936
tagged_abstract_sents/12390647.txt,8,0.162510056315,0.0185666185666,0.0616692308323,0.142474783506,0.498697225154,0.226471882243,0.0235537324609,0.956021259092
tagged_abstract_sents/12390647.txt,9,0.101769911504,-0.00947570947571,0.139250797795,0.0356431803763,0.222042610504,0.164063267513,0.0447030262442,0.59064804458
tagged_abstract_sents/12390647.txt,10,0.101769911504,0.020683020683,0.139250797795,0.0356431803763,0.454697507802,0.305337786301,0.0380024555969,0.963908636051
tagged_abstract_sents/12390647.txt,11,0.0852775543041,0.0407888407888,0.139250797795,0.0356431803763,0.326227280469,0.373890157779,0.0462496337533,0.903065236612
tagged_abstract_sents/12390647.txt,12,0.0711987127916,-0.0131794131794,0.139250797795,0.0356431803763,0.220795445351,0.0976639682501,0.0203706416642,0.473471495873
tagged_abstract_sents/12390647.txt,13,0.0711987127916,-0.0242905242905,0.139250797795,0.0356431803763,0.444092793156,0.118842761702,0.0263564446102,0.721711217853
tagged_abstract_sents/12390647.txt,14,0.0458567980692,-0.0412217412217,0.139250797795,0.0356431803763,0.0,0.0,0.0,0.108759443221
tagged_abstract_sents/12390647.txt,15,0.0458567980692,0.0381433381433,0.139250797795,0.0356431803763,0.392305877501,0.287497017161,0.0321564605919,0.836591814348
tagged_abstract_sents/12390647.txt,16,0.0245374094932,0.0217412217412,0.139250797795,0.0356431803763,0.290415900338,0.214977921969,0.0274318781131,0.637122225374
tagged_abstract_sents/12390647.txt,17,0.0245374094932,0.0254449254449,0.139250797795,0.0356431803763,0.415290001599,0.232262508002,0.0319367125696,0.784526487864
tagged_abstract_sents/12390647.txt,18,0.00844730490748,0.0127465127465,0.139250797795,0.0356431803763,0.433319116069,0.302990774474,0.0360386756519,0.86197406568
tagged_abstract_sents/12390647.txt,19,0.00844730490748,0.00745550745551,0.139250797795,0.0356431803763,0.414250493895,0.345511913441,0.0344972547421,0.882826960506
tagged_abstract_sents/12390647.txt,20,0.00120675784393,0.00957190957191,0.139250797795,0.0356431803763,0.441483833593,0.276084026438,0.053992474594,0.854758475826
tagged_abstract_sents/12390647.txt,21,0.00120675784393,-0.0396344396344,0.0616692308323,0.142474783506,0.0,0.0,0.0,0.0666155688161
tagged_abstract_sents/12390647.txt,22,0.00120675784393,0.00481000481,0.139250797795,0.0356431803763,0.441700295134,0.276499294194,0.0437992505436,0.844244600119
