tagged_abstract_sents/12409542.txt,1,0.0954875100725,-0.0664803033224,0.0616692308323,0.247294108221,0.258365903815,0.0,0.0,0.168116795276
tagged_abstract_sents/12409542.txt,3,0.0805801772764,0.00639419060472,0.188769469584,0.123191979006,0.258365903815,0.156510318839,0.11200234192,0.839788692624
tagged_abstract_sents/12409542.txt,4,0.0805801772764,-0.0678298309877,0.0616692308323,0.247294108221,0.258365903815,0.0,0.0,0.155921023506
tagged_abstract_sents/12409542.txt,5,0.123690572119,0.0153910417068,0.139250797795,0.194462959676,0.258365903815,0.210586469732,0.120984582358,1.01294727497
tagged_abstract_sents/12409542.txt,6,0.140209508461,0.0608251397725,0.139250797795,0.194462959676,0.258365903815,0.213205289849,0.0917828755944,0.965763743123
tagged_abstract_sents/12409542.txt,7,0.149073327961,-0.0678298309877,0.139250797795,0.194462959676,0.258365903815,0.0,0.0,0.233656982972
tagged_abstract_sents/12409542.txt,8,0.149879129734,0.0216888374783,0.139250797795,0.194462959676,0.258365903815,0.142526131511,0.077862488545,0.817106025566
tagged_abstract_sents/12409542.txt,9,0.176470588235,0.0387828545723,0.139250797795,0.194462959676,0.258365903815,0.173349473435,0.102504053324,0.793398851831
tagged_abstract_sents/12409542.txt,10,0.166800966962,0.0324850588008,0.139250797795,0.194462959676,0.258365903815,0.177159755831,0.122614710729,0.828940687916
tagged_abstract_sents/12409542.txt,11,0.166800966962,0.092763961185,0.139250797795,0.194462959676,0.258365903815,0.21859185724,0.0948477751756,0.783043555955
tagged_abstract_sents/12409542.txt,12,0.0954875100725,-0.0660304607673,0.0616692308323,0.247294108221,0.258365903815,0.0,0.0,0.168206763787
tagged_abstract_sents/12409542.txt,13,0.0342465753425,-0.0444380181222,0.139250797795,0.194462959676,0.258365903815,0.0972604444407,0.092643614823,0.785832839856
tagged_abstract_sents/12409542.txt,14,0.0342465753425,0.00549450549451,0.139250797795,0.194462959676,0.258365903815,0.139111538267,0.036787665886,0.590725556141
