tagged_abstract_sents/12436822.txt,1,0.0954875100725,0.0229470128773,0.188769469584,0.123191979006,0.172704375796,0.230276575304,0.0581869633099,0.747209448419
tagged_abstract_sents/12436822.txt,2,0.0253827558421,-0.0118851593836,0.188769469584,0.123191979006,0.172704375796,0.170510740035,0.0605971896956,0.583300165084
tagged_abstract_sents/12436822.txt,3,0.0451248992748,-0.0191682499472,0.188769469584,0.123191979006,0.172704375796,0.117058162082,0.0702210187354,0.615708616173
tagged_abstract_sents/12436822.txt,4,0.0805801772764,-0.0179016255014,0.188769469584,0.123191979006,0.172704375796,0.145986441177,0.0701356362217,0.545383354663
tagged_abstract_sents/12436822.txt,5,0.123690572119,0.00584758285835,0.188769469584,0.123191979006,0.172704375796,0.186091909406,0.0569613583138,0.653168781073
tagged_abstract_sents/12436822.txt,6,0.131345688961,-0.00111885159384,0.188769469584,0.123191979006,0.172704375796,0.200324039841,0.0455604845974,0.545970056726
tagged_abstract_sents/12436822.txt,8,0.149879129734,-0.00586869326578,0.188769469584,0.123191979006,0.172704375796,0.175994987621,0.0622671385991,0.684321637591
tagged_abstract_sents/12436822.txt,9,0.150684931507,-0.0245514038421,0.188769469584,0.123191979006,0.172704375796,0.130925014513,0.0711358313817,0.693191779839
tagged_abstract_sents/12436822.txt,10,0.176470588235,-0.0343677432974,0.188769469584,0.123191979006,0.172704375796,0.118869767455,0.0821308031409,0.466645821019
tagged_abstract_sents/12436822.txt,11,0.166800966962,-0.00745197382309,0.188769469584,0.123191979006,0.172704375796,0.245084460629,0.0626515975243,0.937421835745
tagged_abstract_sents/12436822.txt,12,0.131345688961,-0.0283512771796,0.188769469584,0.123191979006,0.172704375796,0.15011797078,0.0923517810921,0.473218376099
tagged_abstract_sents/12436822.txt,13,0.0954875100725,-0.0280346210682,0.188769469584,0.123191979006,0.172704375796,0.207805183674,0.0997416250891,0.674282801539
tagged_abstract_sents/12436822.txt,14,0.0342465753425,0.0378298501161,0.188769469584,0.123191979006,0.172704375796,0.252299373393,0.0807095151357,0.762574899381
tagged_abstract_sents/12436822.txt,15,0.0342465753425,0.089761452396,0.188769469584,0.123191979006,0.172704375796,0.351582602143,0.0981805080166,0.799159365203
