tagged_abstract_sents/12432042.txt,1,0.125905068383,-0.0620194338826,0.0616692308323,0.142474783506,0.0,0.0,0.0,0.161897218398
tagged_abstract_sents/12432042.txt,2,0.239742558327,-0.00963244613435,0.188769469584,0.202456734834,0.113936330869,0.531702431827,0.0279917610711,1.01861983644
tagged_abstract_sents/12432042.txt,3,0.229283990346,-0.0265314744402,0.188769469584,0.202456734834,3.53879366016e-05,0.290815936933,0.0198703580299,0.643964335531
tagged_abstract_sents/12432042.txt,4,0.218020917136,-0.0632868610055,0.0616692308323,0.142474783506,0.0,0.0,0.0,0.235336411976
tagged_abstract_sents/12432042.txt,5,0.162510056315,0.0541613857203,0.210342442448,0.226435992083,0.0193464593278,0.635100703624,0.025452405473,0.99384190947
tagged_abstract_sents/12432042.txt,6,0.118262268705,-0.015969581749,0.139250797795,0.0356431803763,0.125990876972,0.481375424133,0.0215199107449,0.800620463475
tagged_abstract_sents/12432042.txt,7,0.101769911504,-0.0632868610055,0.139250797795,0.0356431803763,0.0,0.0,0.0,0.149076910013
tagged_abstract_sents/12432042.txt,8,0.0711987127916,0.0102239121251,0.139250797795,0.0356431803763,2.63361405735e-05,0.538135069439,0.0325361406721,0.71001965192
tagged_abstract_sents/12432042.txt,9,0.0571198712792,0.157667934094,0.139250797795,0.0356431803763,0.047470433262,0.710618001635,0.0270339855819,0.942670257331
tagged_abstract_sents/12432042.txt,10,0.0458567980692,-0.000760456273764,0.139250797795,0.0356431803763,3.31601082549e-05,0.363165764398,0.0128978470894,0.492948471806
tagged_abstract_sents/12432042.txt,11,0.0245374094932,0.0372623574144,0.139250797795,0.0356431803763,1.92037348888e-05,0.443202780857,0.024667745574,0.575290482253
tagged_abstract_sents/12432042.txt,12,0.0144810941271,0.0292353189692,0.139250797795,0.0356431803763,2.30642621077e-05,0.718169115697,0.0276700793603,0.843612551425
tagged_abstract_sents/12432042.txt,13,0.00844730490748,-0.0113223489649,0.139250797795,0.0356431803763,0.146368592308,0.270726960056,0.0153192584964,0.517226538004
tagged_abstract_sents/12432042.txt,14,0.00120675784393,-0.0615969581749,0.139250797795,0.0356431803763,0.0,0.0,0.0,0.0689643676504
tagged_abstract_sents/12432042.txt,15,0.00120675784393,0.025855513308,0.139250797795,0.0356431803763,0.106521260959,0.725944001884,0.0262948074815,0.945214932271
