tagged_abstract_sents/12435255.txt,1,0.0954875100725,-0.0405229597983,0.0616692308323,0.247294108221,0.347122883201,0.0,0.0,0.173308263981
tagged_abstract_sents/12435255.txt,2,0.0954875100725,0.0156277605564,0.188769469584,0.123191979006,0.347122883201,0.139897997739,0.0363250501621,0.855405622986
tagged_abstract_sents/12435255.txt,3,0.0253827558421,-0.0397841345304,0.0616692308323,0.247294108221,0.347122883201,0.0,0.0,0.11737222565
tagged_abstract_sents/12435255.txt,4,0.0253827558421,0.0163665858242,0.0616692308323,0.247294108221,0.347122883201,0.183054900584,0.0328563049853,0.617497972617
tagged_abstract_sents/12435255.txt,5,0.0805801772764,-0.0408923724322,0.0616692308323,0.247294108221,0.347122883201,0.0,0.0,0.161308515217
tagged_abstract_sents/12435255.txt,7,0.123690572119,-0.0342429450218,0.0616692308323,0.247294108221,0.347122883201,0.0,0.0,0.197126716574
tagged_abstract_sents/12435255.txt,8,0.123690572119,0.0392701691267,0.210342442448,0.141687475369,0.347122883201,0.103267270092,0.0161748533724,0.640217829038
tagged_abstract_sents/12435255.txt,9,0.123690572119,-0.0383064839948,0.0616692308323,0.247294108221,0.347122883201,0.0,0.0,0.196314008779
tagged_abstract_sents/12435255.txt,10,0.140209508461,0.0998538410883,0.194899689933,0.293363477728,0.347122883201,0.22002739234,0.0426787339468,0.715668118296
tagged_abstract_sents/12435255.txt,11,0.140209508461,-0.020574677567,0.0616692308323,0.247294108221,0.347122883201,0.0899024729099,0.0217497556207,0.903709033227
tagged_abstract_sents/12435255.txt,12,0.149879129734,-0.0353511829235,0.0616692308323,0.247294108221,0.347122883201,0.0,0.0,0.217855915085
tagged_abstract_sents/12435255.txt,13,0.149879129734,0.0167359984581,0.139250797795,0.194462959676,0.347122883201,0.162045280351,0.025679818715,0.708979535395
tagged_abstract_sents/12435255.txt,14,0.176470588235,0.00417596890509,0.139250797795,0.194462959676,0.347122883201,0.110225909651,0.0388465298143,0.843443439466
tagged_abstract_sents/12435255.txt,15,0.176470588235,-0.0405229597983,0.139250797795,0.194462959676,0.347122883201,0.0,0.0,0.261036165429
tagged_abstract_sents/12435255.txt,16,0.176470588235,-0.00136522060359,0.139250797795,0.194462959676,0.347122883201,0.104124833475,0.0212701612903,0.657340330672
tagged_abstract_sents/12435255.txt,17,0.166800966962,0.10945856957,0.139250797795,0.194462959676,0.347122883201,0.222166434765,0.0286499790532,0.691046918217
tagged_abstract_sents/12435255.txt,18,0.166800966962,-0.00875347328183,0.139250797795,0.194462959676,0.347122883201,0.121483594401,0.0439710194928,0.812417144735
tagged_abstract_sents/12435255.txt,19,0.0954875100725,0.0385313438589,0.139250797795,0.194462959676,0.347122883201,0.197429674937,0.0330250394767,0.593443761666
tagged_abstract_sents/12435255.txt,20,0.0954875100725,-0.000995807969676,0.139250797795,0.194462959676,0.347122883201,0.125652450263,0.0290566959922,0.688067938242
tagged_abstract_sents/12435255.txt,21,0.0342465753425,-0.0390453092626,0.0616692308323,0.247294108221,0.347122883201,0.0,0.0,0.124611046304
tagged_abstract_sents/12435255.txt,22,0.0342465753425,-0.0017346332375,0.139250797795,0.194462959676,0.347122883201,0.0833491343832,0.0141286133222,0.865934635688
tagged_abstract_sents/12435255.txt,23,0.0342465753425,0.0137806973868,0.139250797795,0.194462959676,0.347122883201,0.190128897899,0.04,0.735369467651
