tagged_abstract_sents/12468197.txt,1,0.0253827558421,-0.00222269263336,0.188769469584,0.123191979006,0.0,0.376547005088,0.0315962863133,0.861351312014
tagged_abstract_sents/12468197.txt,3,0.123690572119,-0.0360922946655,0.188769469584,0.123191979006,0.0,0.287039839504,0.0452979934112,0.555414160172
tagged_abstract_sents/12468197.txt,4,0.149073327961,-0.0293183742591,0.188769469584,0.123191979006,0.0,0.190595116117,0.0327251364987,0.468057568627
tagged_abstract_sents/12468197.txt,5,0.176470588235,0.0689034716342,0.188769469584,0.123191979006,0.0,0.368224815462,0.0474627915153,0.701994761501
tagged_abstract_sents/12468197.txt,6,0.166800966962,0.0121718882303,0.188769469584,0.123191979006,0.0,0.380179971177,0.0540723626977,0.982363462522
tagged_abstract_sents/12468197.txt,7,0.0954875100725,-0.016617273497,0.188769469584,0.123191979006,0.0,0.36584676533,0.062002490503,0.873794461151
tagged_abstract_sents/12468197.txt,8,0.0342465753425,-0.0318585944115,0.188769469584,0.123191979006,0.0,0.36046369495,0.0522183716254,0.565049936461
