tagged_abstract_sents/12519615.txt,1,0.206355591311,-0.0328433656684,0.0616692308323,0.106008497564,0.453664664621,0.0,0.0,0.221152964601
tagged_abstract_sents/12519615.txt,2,0.206355591311,-0.00386890893944,0.188769469584,0.129715814208,0.453664664621,0.207139359555,0.0485872033402,1.06960653871
tagged_abstract_sents/12519615.txt,3,0.206355591311,0.0125245336835,0.188769469584,0.129715814208,0.453664664621,0.257253363223,0.0395507887797,1.03698110397
tagged_abstract_sents/12519615.txt,4,0.206355591311,-0.0328433656684,0.0616692308323,0.106008497564,0.453664664621,0.0,0.0,0.221152964601
tagged_abstract_sents/12519615.txt,6,0.0048270313757,-0.0309371514099,0.0616692308323,0.106008497564,0.453664664621,0.0,0.0,0.0603113595039
tagged_abstract_sents/12519615.txt,7,0.0048270313757,0.0334928905268,0.0616692308323,0.106008497564,0.453664664621,0.28420056169,0.0495026020956,0.703942250949
tagged_abstract_sents/12519615.txt,8,0.0048270313757,-0.00501263749453,0.0616692308323,0.106008497564,0.453664664621,0.217805819282,0.045272161995,0.328647518941
tagged_abstract_sents/12519615.txt,9,0.0108608205953,-0.0297934228548,0.0616692308323,0.106008497564,0.453664664621,0.0,0.0,0.0653671365906
tagged_abstract_sents/12519615.txt,10,0.0108608205953,0.0262492763446,0.210342442448,0.0253702522065,0.453664664621,0.27131397073,0.0325436356787,0.593634793547
tagged_abstract_sents/12519615.txt,11,0.0261464199517,0.0151932336454,0.0616692308323,0.106008497564,0.453664664621,0.257555381733,0.053657069718,0.783190551216
tagged_abstract_sents/12519615.txt,12,0.0261464199517,0.0026122195394,0.0616692308323,0.106008497564,0.453664664621,0.274889749732,0.0460598830801,0.559632983624
tagged_abstract_sents/12519615.txt,13,0.0261464199517,-0.0137812230835,0.0616692308323,0.106008497564,0.453664664621,0.175209473115,0.0284451606602,0.498488946398
tagged_abstract_sents/12519615.txt,14,0.0518905872888,-0.0259809943378,0.0616692308323,0.106008497564,0.453664664621,0.0,0.0,0.0989534356488
tagged_abstract_sents/12519615.txt,15,0.0518905872888,0.00833086231485,0.0616692308323,0.106008497564,0.453664664621,0.272046790616,0.0356026676712,0.566564082857
tagged_abstract_sents/12519615.txt,16,0.0518905872888,-0.0221685658209,0.0616692308323,0.106008497564,0.453664664621,0.100760408177,0.0391084889327,0.239654946019
tagged_abstract_sents/12519615.txt,17,0.0993563958166,-0.032080879965,0.0616692308323,0.106008497564,0.453664664621,0.0,0.0,0.135706105346
tagged_abstract_sents/12519615.txt,19,0.172566371681,0.0170994479039,0.139250797795,0.521468892835,0.453664664621,0.288319872135,0.0399648403164,1.09434891531
tagged_abstract_sents/12519615.txt,20,0.172566371681,0.0220556049759,0.139250797795,0.521468892835,0.453664664621,0.102992700028,0.0197506858802,0.608767110637
tagged_abstract_sents/12519615.txt,21,0.172566371681,0.0159557193488,0.139250797795,0.521468892835,0.453664664621,0.201570211647,0.036854184979,0.987195530846
tagged_abstract_sents/12519615.txt,22,0.206355591311,0.0186244193107,0.139250797795,0.521468892835,0.453664664621,0.252711235616,0.035021323697,1.04818618863
tagged_abstract_sents/12519615.txt,23,0.206355591311,0.0456926617811,0.139250797795,0.521468892835,0.453664664621,0.290091467298,0.0413968649282,1.02949638817
tagged_abstract_sents/12519615.txt,24,0.206355591311,-0.0168311658971,0.139250797795,0.521468892835,0.453664664621,0.19651340712,0.0426356944038,0.951346294257
tagged_abstract_sents/12519615.txt,25,0.262268704747,-0.028268451448,0.0616692308323,0.106008497564,0.453664664621,0.0,0.0,0.266798438193
tagged_abstract_sents/12519615.txt,26,0.262268704747,0.019386905014,0.139250797795,0.521468892835,0.453664664621,0.275795771512,0.0401059416781,1.18402155787
tagged_abstract_sents/12519615.txt,27,0.262268704747,0.010618319425,0.139250797795,0.521468892835,0.453664664621,0.24709946549,0.0368118631377,1.17558068768
