tagged_abstract_sents/12517579.txt,1,0.239742558327,0.0555555555556,0.188769469584,0.202456734834,0.293472151194,0.225400423357,0.035467330794,0.91236681836
tagged_abstract_sents/12517579.txt,2,0.162510056315,-0.0878136200717,0.188769469584,0.202456734834,0.341761217287,0.214231483728,0.0273374250158,0.850897202311
tagged_abstract_sents/12517579.txt,3,0.0852775543041,-0.0304659498208,0.188769469584,0.202456734834,0.299741760354,0.323182253356,0.05476999707,0.894944619502
tagged_abstract_sents/12517579.txt,4,0.0458567980692,0.00179211469534,0.188769469584,0.202456734834,0.44512965938,0.273069163729,0.0589901357554,0.969354575502
tagged_abstract_sents/12517579.txt,5,0.00844730490748,0.0663082437276,0.188769469584,0.202456734834,0.333444658125,0.455301689777,0.08101849664,1.04490609246
tagged_abstract_sents/12517579.txt,6,0.00120675784393,-0.00537634408602,0.188769469584,0.202456734834,0.138728848001,0.287581574032,0.0238856545943,0.605207969328
