tagged_abstract_sents/12529459.txt,1,0.125905068383,-0.0609612724758,0.0616692308323,0.142474783506,0.0,0.0,0.0,0.162108850679
tagged_abstract_sents/12529459.txt,2,0.239742558327,0.0853042876902,0.188769469584,0.202456734834,0.360051651805,0.405224652313,0.109642817902,1.23889578146
tagged_abstract_sents/12529459.txt,3,0.229283990346,0.00750345781466,0.188769469584,0.202456734834,0.423931652274,0.293960201172,0.0722004101963,1.13014190272
tagged_abstract_sents/12529459.txt,4,0.218020917136,-0.0625172890733,0.0616692308323,0.142474783506,0.0,0.0,0.0,0.235490326362
tagged_abstract_sents/12529459.txt,5,0.162510056315,0.0754495159059,0.194899689933,0.13295610691,0.26082733362,0.292161361736,0.0959917960738,0.931415116703
tagged_abstract_sents/12529459.txt,6,0.118262268705,-0.0625172890733,0.139250797795,0.0356431803763,0.0,0.0,0.0,0.162424710159
tagged_abstract_sents/12529459.txt,7,0.101769911504,0.00594744121715,0.139250797795,0.0356431803763,0.437506978731,0.241989329045,0.0668167168314,0.909236795064
tagged_abstract_sents/12529459.txt,8,0.0711987127916,-0.0262102351314,0.139250797795,0.0356431803763,0.461158589916,0.164108227442,0.0617836645353,0.81908575811
tagged_abstract_sents/12529459.txt,9,0.0571198712792,0.0355117565698,0.139250797795,0.0356431803763,0.407858899461,0.192826470511,0.0748689650682,0.808670936388
tagged_abstract_sents/12529459.txt,10,0.0458567980692,0.00802213001383,0.139250797795,0.0356431803763,0.409824735097,0.226842011285,0.0644315153545,0.819706479205
tagged_abstract_sents/12529459.txt,11,0.0245374094932,-0.0604426002766,0.139250797795,0.0356431803763,0.0,0.0,0.0,0.0878597605495
tagged_abstract_sents/12529459.txt,12,0.0144810941271,-0.0272475795297,0.139250797795,0.0356431803763,0.198675439834,0.16564218229,0.0571019305271,0.507873265057
tagged_abstract_sents/12529459.txt,13,0.00844730490748,0.0168395573997,0.139250797795,0.0356431803763,0.209079776076,0.30325261006,0.0838411954292,0.686617689981
tagged_abstract_sents/12529459.txt,14,0.00120675784393,0.0126901798064,0.139250797795,0.0356431803763,0.335464332298,0.262858161461,0.0588287748889,0.740973063895
tagged_abstract_sents/12529459.txt,15,0.00120675784393,0.0526279391425,0.139250797795,0.0356431803763,0.337534776219,0.369361336435,0.0693836658696,0.868089125638
