tagged_abstract_sents/12535385.txt,1,0.125905068383,-0.0558049300061,0.0616692308323,0.142474783506,0.0,0.0,0.0,0.163140119173
tagged_abstract_sents/12535385.txt,2,0.239742558327,-0.00711351186853,0.188769469584,0.202456734834,0.23482184462,0.129182610826,0.0282058117835,0.73770336676
tagged_abstract_sents/12535385.txt,3,0.239742558327,-0.0558049300061,0.0616692308323,0.142474783506,0.0,0.0,0.0,0.254210111128
tagged_abstract_sents/12535385.txt,4,0.218020917136,0.0817483262325,0.0616692308323,0.142474783506,0.402274998727,0.212512191698,0.0560306498912,0.935161289739
tagged_abstract_sents/12535385.txt,5,0.162510056315,-0.0527617163725,0.0616692308323,0.142474783506,0.0,0.0,0.0,0.193032752246
tagged_abstract_sents/12535385.txt,6,0.162510056315,-0.00772215459525,0.0616692308323,0.142474783506,0.352200148341,0.0761055960614,0.0755865102639,0.705932919267
tagged_abstract_sents/12535385.txt,7,0.101769911504,-0.00650486914181,0.0616692308323,0.142474783506,0.279521720743,0.0930269127779,0.0527686734518,0.579009312816
tagged_abstract_sents/12535385.txt,8,0.0852775543041,-0.0509357881923,0.0616692308323,0.142474783506,0.0,0.0,0.0,0.131611936273
tagged_abstract_sents/12535385.txt,9,0.0711987127916,0.0628804017042,0.0616692308323,0.142474783506,0.426840845812,0.182355164017,0.0721842076681,0.824492318539
tagged_abstract_sents/12535385.txt,10,0.0458567980692,-0.0448493609251,0.0616692308323,0.142474783506,0.0,0.0,0.0,0.101292616738
tagged_abstract_sents/12535385.txt,11,0.0458567980692,-0.0259814363968,0.0616692308323,0.142474783506,0.173972030643,0.0687477120237,0.0516862170088,0.399472161319
tagged_abstract_sents/12535385.txt,12,0.0245374094932,-0.0545876445526,0.0616692308323,0.142474783506,0.0,0.0,0.0,0.0822894491519
tagged_abstract_sents/12535385.txt,13,0.00844730490748,-0.0345024345709,0.0616692308323,0.142474783506,0.152689258337,0.0648266171988,0.0624633431085,0.353413626124
tagged_abstract_sents/12535385.txt,14,0.00844730490748,0.23999543518,0.139250797795,0.0356431803763,0.0621358219024,0.273441463074,0.0660259966712,0.53667856562
tagged_abstract_sents/12535385.txt,15,0.00120675784393,-0.0485012172855,0.0616692308323,0.142474783506,0.0,0.0,0.0,0.0648422132859
tagged_abstract_sents/12535385.txt,16,0.00120675784393,0.0604458307973,0.139250797795,0.0356431803763,0.223406046253,0.230311425349,0.0701013063183,0.617191703364
