tagged_abstract_sents/12535385.txt,1,0.0954875100725,-0.0558049300061,0.0616692308323,0.247294108221,0.223406046253,0.0,0.0,0.170251869939
tagged_abstract_sents/12535385.txt,2,0.0253827558421,-0.00711351186853,0.188769469584,0.123191979006,0.223406046253,0.129182610826,0.0282058117835,0.542436098024
tagged_abstract_sents/12535385.txt,3,0.0253827558421,-0.0558049300061,0.0616692308323,0.247294108221,0.223406046253,0.0,0.0,0.114168066555
tagged_abstract_sents/12535385.txt,5,0.123690572119,-0.0527617163725,0.0616692308323,0.247294108221,0.223406046253,0.0,0.0,0.193422962303
tagged_abstract_sents/12535385.txt,6,0.123690572119,-0.00772215459525,0.0616692308323,0.247294108221,0.223406046253,0.0761055960614,0.0755865102639,0.706323129325
tagged_abstract_sents/12535385.txt,7,0.140209508461,-0.00650486914181,0.0616692308323,0.247294108221,0.223406046253,0.0930269127779,0.0527686734518,0.641206787796
tagged_abstract_sents/12535385.txt,8,0.149073327961,-0.0509357881923,0.0616692308323,0.247294108221,0.223406046253,0.0,0.0,0.214094352613
tagged_abstract_sents/12535385.txt,9,0.149879129734,0.0628804017042,0.0616692308323,0.247294108221,0.223406046253,0.182355164017,0.0721842076681,0.918882449508
tagged_abstract_sents/12535385.txt,10,0.176470588235,-0.0448493609251,0.0616692308323,0.247294108221,0.223406046253,0.0,0.0,0.237229446286
tagged_abstract_sents/12535385.txt,11,0.176470588235,-0.0259814363968,0.0616692308323,0.247294108221,0.223406046253,0.0687477120237,0.0516862170088,0.535408990867
tagged_abstract_sents/12535385.txt,12,0.166800966962,-0.0545876445526,0.0616692308323,0.247294108221,0.223406046253,0.0,0.0,0.227546092542
tagged_abstract_sents/12535385.txt,13,0.0954875100725,-0.0345024345709,0.0616692308323,0.247294108221,0.223406046253,0.0648266171988,0.0624633431085,0.454491587671
tagged_abstract_sents/12535385.txt,14,0.0954875100725,0.23999543518,0.139250797795,0.194462959676,0.223406046253,0.273441463074,0.0660259966712,0.653956663542
tagged_abstract_sents/12535385.txt,15,0.0342465753425,-0.0485012172855,0.0616692308323,0.247294108221,0.223406046253,0.0,0.0,0.122719864699
tagged_abstract_sents/12535385.txt,16,0.0342465753425,0.0604458307973,0.139250797795,0.194462959676,0.223406046253,0.230311425349,0.0701013063183,0.691269491153
