tagged_abstract_sents/12558722.txt,1,0.125905068383,-0.0396220958257,0.0616692308323,0.142474783506,0.0,0.0,0.0,0.166376686009
tagged_abstract_sents/12558722.txt,2,0.125905068383,0.0780873421382,0.188769469584,0.202456734834,0.13767214131,0.539986626884,0.0319097642545,0.981031810825
tagged_abstract_sents/12558722.txt,3,0.239742558327,-0.0417429865998,0.0616692308323,0.142474783506,0.0,0.0,0.0,0.257022499809
tagged_abstract_sents/12558722.txt,4,0.239742558327,-0.0115202930685,0.0616692308323,0.142474783506,0.0,0.131797366623,0.0277220672015,0.42258647234
tagged_abstract_sents/12558722.txt,5,0.218020917136,-0.0412127639063,0.0616692308323,0.142474783506,0.0,0.0,0.0,0.239751231395
tagged_abstract_sents/12558722.txt,6,0.218020917136,-0.0173527426974,0.0616692308323,0.142474783506,0.0,0.138141440884,0.0212620625509,0.403926739072
tagged_abstract_sents/12558722.txt,7,0.162510056315,-0.026896751181,0.0616692308323,0.142474783506,0.0,0.0504092953265,0.0,0.24861504061
tagged_abstract_sents/12558722.txt,8,0.162510056315,-0.0385616504386,0.0616692308323,0.142474783506,0.0,0.0,0.0,0.195872765432
tagged_abstract_sents/12558722.txt,9,0.101769911504,0.0377904174299,0.210342442448,0.226435992083,0.401613952547,0.398397646795,0.0461961787389,1.10828380962
tagged_abstract_sents/12558722.txt,10,0.101769911504,-0.0385616504386,0.0616692308323,0.142474783506,0.0,0.0,0.0,0.147280649584
tagged_abstract_sents/12558722.txt,11,0.0852775543041,-0.0215945242456,0.139250797795,0.0356431803763,0.304943414842,0.175010822577,0.0195076984404,0.643683427464
tagged_abstract_sents/12558722.txt,12,0.0711987127916,-0.0385616504386,0.139250797795,0.0356431803763,0.0,0.0,0.0,0.129564993156
tagged_abstract_sents/12558722.txt,13,0.0711987127916,0.0749060059771,0.139250797795,0.0356431803763,0.107890353954,0.436465484934,0.035309432458,0.731923795785
tagged_abstract_sents/12558722.txt,14,0.0458567980692,-0.0412127639063,0.139250797795,0.0356431803763,0.0,0.0,0.0,0.108761238684
tagged_abstract_sents/12558722.txt,15,0.0458567980692,0.0293068543334,0.139250797795,0.0356431803763,0.153358131726,0.398248528497,0.0335523001201,0.708024122675
tagged_abstract_sents/12558722.txt,16,0.0245374094932,0.0155210643016,0.139250797795,0.0356431803763,0.141112412323,0.204622863476,0.0183390739449,0.467126843209
tagged_abstract_sents/12558722.txt,17,0.0245374094932,0.048925093994,0.139250797795,0.0356431803763,0.141860462963,0.398571102373,0.0270123629035,0.677177227643
tagged_abstract_sents/12558722.txt,18,0.00844730490748,0.0144606189145,0.139250797795,0.0356431803763,0.186673762675,0.153526203269,0.0098333825226,0.440001669185
tagged_abstract_sents/12558722.txt,19,0.00844730490748,0.0102188373662,0.139250797795,0.0356431803763,2.91083201186e-05,0.268336749366,0.0613358911754,0.418821713271
tagged_abstract_sents/12558722.txt,20,0.00120675784393,-0.0390918731322,0.0616692308323,0.142474783506,0.0,0.0,0.0,0.0667240821166
tagged_abstract_sents/12558722.txt,21,0.00120675784393,0.114672707992,0.139250797795,0.0356431803763,0.181997684221,0.522859241203,0.0406501979934,0.849725424302
tagged_abstract_sents/12558722.txt,22,0.00120675784393,-0.027957196568,0.139250797795,0.0356431803763,0.216881546278,0.215442714834,0.0439483780956,0.551964959179
