tagged_abstract_sents/12565715.txt,1,0.0954875100725,-0.0468724166437,0.0616692308323,0.247294108221,0.304496869482,0.0,0.0,0.172038372612
tagged_abstract_sents/12565715.txt,2,0.0253827558421,0.0143841278589,0.188769469584,0.123191979006,0.304496869482,0.161743890094,0.0680824449503,0.406573121182
tagged_abstract_sents/12565715.txt,3,0.0253827558421,0.0054836042987,0.188769469584,0.123191979006,0.304496869482,0.238183876048,0.0439237517451,0.676416071631
tagged_abstract_sents/12565715.txt,5,0.0805801772764,-0.048443097272,0.0616692308323,0.247294108221,0.304496869482,0.0,0.0,0.159798370249
tagged_abstract_sents/12565715.txt,6,0.123690572119,0.0274731330945,0.194899689933,0.293363477728,0.304496869482,0.210963451201,0.104547737642,1.06142954012
tagged_abstract_sents/12565715.txt,7,0.123690572119,0.072499311105,0.0616692308323,0.247294108221,0.304496869482,0.313820716171,0.0639466744799,0.59624255845
tagged_abstract_sents/12565715.txt,8,0.140209508461,-0.0322127307798,0.0616692308323,0.247294108221,0.304496869482,0.120940514042,0.0303691766774,0.362057599215
tagged_abstract_sents/12565715.txt,9,0.140209508461,-0.048443097272,0.139250797795,0.194462959676,0.304496869482,0.0,0.0,0.230443274115
tagged_abstract_sents/12565715.txt,10,0.149879129734,0.0253788922568,0.139250797795,0.194462959676,0.304496869482,0.199657624126,0.0317078083797,0.590097931364
tagged_abstract_sents/12565715.txt,11,0.149879129734,-0.0055111600992,0.139250797795,0.194462959676,0.304496869482,0.223289036865,0.079485301299,1.08992188724
tagged_abstract_sents/12565715.txt,12,0.176470588235,-0.0076054009369,0.139250797795,0.194462959676,0.304496869482,0.232890243915,0.0953935320832,1.11077160042
tagged_abstract_sents/12565715.txt,13,0.176470588235,0.0327087351888,0.139250797795,0.194462959676,0.304496869482,0.189427574869,0.0659807523271,0.764494910488
tagged_abstract_sents/12565715.txt,14,0.166800966962,0.0227610912097,0.139250797795,0.194462959676,0.304496869482,0.247443115008,0.0802263404629,1.01030824175
tagged_abstract_sents/12565715.txt,15,0.166800966962,-0.0206944061725,0.139250797795,0.194462959676,0.304496869482,0.0709471187907,0.0,0.328213297926
tagged_abstract_sents/12565715.txt,16,0.0954875100725,-0.0337834114081,0.139250797795,0.194462959676,0.304496869482,0.0863235694352,0.0337435296416,0.508371972679
tagged_abstract_sents/12565715.txt,17,0.0954875100725,-0.0463488564343,0.139250797795,0.194462959676,0.304496869482,0.0,0.0,0.195084523571
tagged_abstract_sents/12565715.txt,18,0.0342465753425,0.0567925048223,0.139250797795,0.194462959676,0.304496869482,0.31850198875,0.0699421330208,0.994707728644
tagged_abstract_sents/12565715.txt,19,0.0342465753425,-0.00917608156517,0.139250797795,0.194462959676,0.304496869482,0.141459518534,0.121300908292,0.720783627068
