tagged_abstract_sents/12562057.txt,1,0.125905068383,0.0221445221445,0.188769469584,0.202456734834,0.365999760862,0.206568627193,0.0450581079613,0.877901210394
tagged_abstract_sents/12562057.txt,2,0.239742558327,-0.0238927738928,0.188769469584,0.202456734834,0.283018520032,0.157166426635,0.0366968808318,0.819019074623
tagged_abstract_sents/12562057.txt,3,0.218020917136,0.020979020979,0.188769469584,0.202456734834,0.298132818011,0.151863863169,0.0426552919222,0.826386266249
tagged_abstract_sents/12562057.txt,4,0.162510056315,-0.0565268065268,0.188769469584,0.202456734834,0.353649717884,0.106796845439,0.0432459677419,0.777516970055
tagged_abstract_sents/12562057.txt,5,0.101769911504,0.0472027972028,0.188769469584,0.202456734834,0.204297851164,0.261660706274,0.0473132654821,0.759250066807
tagged_abstract_sents/12562057.txt,6,0.0711987127916,-0.0285547785548,0.188769469584,0.202456734834,0.28153538817,0.154473578057,0.048848973607,0.691227709598
tagged_abstract_sents/12562057.txt,7,0.0458567980692,-0.0332167832168,0.188769469584,0.202456734834,0.371290701704,0.126347414783,0.0349577367604,0.717759690301
tagged_abstract_sents/12562057.txt,8,0.0245374094932,-0.0285547785548,0.188769469584,0.202456734834,0.375408864055,0.0973826864751,0.0290127077224,0.670844985378
tagged_abstract_sents/12562057.txt,9,0.00844730490748,-0.0180652680653,0.139250797795,0.0356431803763,0.274772285365,0.183658910794,0.0446053274682,0.58649966695
tagged_abstract_sents/12562057.txt,10,0.00120675784393,0.037296037296,0.139250797795,0.0356431803763,0.252644385842,0.20575696887,0.0391862170088,0.586330538465
tagged_abstract_sents/12562057.txt,11,0.00120675784393,0.0611888111888,0.139250797795,0.0356431803763,0.414734943247,0.170259169095,0.0412785923754,0.719794226241
