tagged_abstract_sents/12586995.txt,1,0.0954875100725,-0.0387409654346,0.0616692308323,0.247294108221,0.191945697658,0.0,0.0,0.173664662854
tagged_abstract_sents/12586995.txt,2,0.0954875100725,-0.0197917836947,0.188769469584,0.123191979006,0.191945697658,0.306257737457,0.02047067613,0.72981840985
tagged_abstract_sents/12586995.txt,3,0.0253827558421,-0.0137624985957,0.188769469584,0.123191979006,0.191945697658,0.301331966251,0.0292118042585,0.504378361975
tagged_abstract_sents/12586995.txt,4,0.0253827558421,-0.039171628656,0.0616692308323,0.247294108221,0.191945697658,0.0,0.0,0.117494726825
tagged_abstract_sents/12586995.txt,6,0.0805801772764,0.0064786728083,0.139250797795,0.194462959676,0.191945697658,0.478445060758,0.0386545614007,1.04645238801
tagged_abstract_sents/12586995.txt,7,0.123690572119,-0.0124705089316,0.139250797795,0.194462959676,0.191945697658,0.410184444682,0.0304652803719,0.902856181069
tagged_abstract_sents/12586995.txt,8,0.123690572119,0.018106579785,0.139250797795,0.194462959676,0.191945697658,0.448289489269,0.0184108010033,1.04254062112
tagged_abstract_sents/12586995.txt,9,0.123690572119,0.00346403025877,0.139250797795,0.194462959676,0.191945697658,0.313843742025,0.0300242809115,0.83287002206
tagged_abstract_sents/12586995.txt,10,0.140209508461,0.0293038235404,0.139250797795,0.194462959676,0.191945697658,0.306517032545,0.00928900510522,0.72444833797
tagged_abstract_sents/12586995.txt,11,0.140209508461,-0.00514923416845,0.139250797795,0.194462959676,0.191945697658,0.401650790513,0.0327792304819,0.813821895872
tagged_abstract_sents/12586995.txt,12,0.149879129734,0.00303336703741,0.139250797795,0.194462959676,0.191945697658,0.282291740042,0.0267199894526,0.930090122585
tagged_abstract_sents/12586995.txt,13,0.149879129734,0.0249971913268,0.139250797795,0.194462959676,0.191945697658,0.388243329802,0.0344651318247,1.01519177819
tagged_abstract_sents/12586995.txt,14,0.176470588235,-0.0400329550987,0.139250797795,0.194462959676,0.191945697658,0.0,0.0,0.261134166369
tagged_abstract_sents/12586995.txt,15,0.176470588235,-0.0215144365802,0.139250797795,0.194462959676,0.191945697658,0.251036981645,0.0295106462458,0.764943610552
tagged_abstract_sents/12586995.txt,16,0.176470588235,-0.0103171928248,0.139250797795,0.194462959676,0.191945697658,0.225271022128,0.0297908106089,0.718084163953
tagged_abstract_sents/12586995.txt,17,0.166800966962,0.0305958132045,0.139250797795,0.194462959676,0.191945697658,0.408505832679,0.0358020565047,0.90305441563
tagged_abstract_sents/12586995.txt,18,0.166800966962,0.00260270381605,0.139250797795,0.194462959676,0.191945697658,0.327455828444,0.0226621840369,0.781171264246
tagged_abstract_sents/12586995.txt,19,0.0954875100725,0.0198292326705,0.139250797795,0.194462959676,0.191945697658,0.356449710992,0.0514843217825,0.936464299274
tagged_abstract_sents/12586995.txt,20,0.0954875100725,0.0499756581657,0.139250797795,0.194462959676,0.191945697658,0.655222383212,0.0282654712987,1.25100594249
tagged_abstract_sents/12586995.txt,21,0.0342465753425,-0.0387409654346,0.139250797795,0.194462959676,0.191945697658,0.0,0.0,0.147613353987
tagged_abstract_sents/12586995.txt,22,0.0342465753425,0.0271505074336,0.139250797795,0.194462959676,0.191945697658,0.529687252315,0.0229112190263,1.01889197803
tagged_abstract_sents/12586995.txt,23,0.0342465753425,-0.003426581283,0.139250797795,0.194462959676,0.191945697658,0.42620308733,0.0285954426597,0.801420458465
