tagged_abstract_sents/12588275.txt,1,0.125905068383,-0.0415710503089,0.0616692308323,0.142474783506,0.0,0.0,0.0,0.165986895112
tagged_abstract_sents/12588275.txt,2,0.125905068383,-0.0168137687555,0.188769469584,0.202456734834,3.86704151028e-05,0.0992289289449,0.0107731168635,0.362523772421
tagged_abstract_sents/12588275.txt,3,0.239742558327,0.0322153574581,0.188769469584,0.202456734834,0.257878593505,0.188558952507,0.00450396268527,0.804300382093
tagged_abstract_sents/12588275.txt,4,0.239742558327,0.0215357458076,0.188769469584,0.202456734834,0.168046005787,0.228831608436,0.0149536907101,0.763054255998
tagged_abstract_sents/12588275.txt,5,0.218020917136,-0.0406001765225,0.0616692308323,0.142474783506,0.0,0.0,0.0,0.239873748872
tagged_abstract_sents/12588275.txt,6,0.218020917136,0.0191085613416,0.0616692308323,0.142474783506,0.182838521442,0.283764751502,0.00525982058399,0.723678589972
tagged_abstract_sents/12588275.txt,7,0.162510056315,-0.0391438658429,0.0616692308323,0.142474783506,0.0,0.0,0.0,0.195756322352
tagged_abstract_sents/12588275.txt,8,0.162510056315,0.0220211827008,0.0616692308323,0.142474783506,0.229620381336,0.219709351665,0.0156118439517,0.672930909013
tagged_abstract_sents/12588275.txt,9,0.101769911504,-0.0109885260371,0.0616692308323,0.142474783506,0.24888662287,0.116400820058,0.00684816166152,0.524930879053
tagged_abstract_sents/12588275.txt,10,0.101769911504,-0.0376875551633,0.0616692308323,0.142474783506,0.0,0.0,0.0,0.147455468639
tagged_abstract_sents/12588275.txt,11,0.0852775543041,0.0768755516328,0.0616692308323,0.142474783506,0.180487484806,0.241575332854,0.0153562407281,0.594593262625
tagged_abstract_sents/12588275.txt,12,0.0711987127916,-0.0114739629303,0.0616692308323,0.142474783506,0.243697886899,0.113116318609,0.0139729762239,0.499028409847
tagged_abstract_sents/12588275.txt,13,0.0711987127916,-0.0376875551633,0.0616692308323,0.142474783506,0.0,0.0,0.0,0.122998509669
tagged_abstract_sents/12588275.txt,14,0.0458567980692,-0.00856134157105,0.0616692308323,0.142474783506,0.221894646784,0.138788068736,0.00895001091465,0.478182947044
tagged_abstract_sents/12588275.txt,15,0.0458567980692,-0.0197263901147,0.0616692308323,0.142474783506,0.0,0.0703389859303,0.020581906633,0.197238103464
tagged_abstract_sents/12588275.txt,16,0.0245374094932,-0.0381729920565,0.0616692308323,0.142474783506,0.0,0.0,0.0,0.0855723796511
tagged_abstract_sents/12588275.txt,17,0.0245374094932,-0.00856134157105,0.0616692308323,0.142474783506,0.259814399571,0.145279227473,0.00772757039948,0.504315907191
tagged_abstract_sents/12588275.txt,18,0.00844730490748,0.171050308914,0.0616692308323,0.142474783506,0.0515764334626,0.302825638511,0.0134893348302,0.482436362981
tagged_abstract_sents/12588275.txt,19,0.00844730490748,-0.0022506619594,0.0616692308323,0.142474783506,0.238232551526,0.110549362962,0.00658477082839,0.435251447318
tagged_abstract_sents/12588275.txt,20,0.00120675784393,-0.0396293027361,0.139250797795,0.0356431803763,0.0,0.0,0.0,0.0733578987382
tagged_abstract_sents/12588275.txt,21,0.00120675784393,-0.0022506619594,0.139250797795,0.0356431803763,0.245369078138,0.14603468749,0.00968285152961,0.481920244051
tagged_abstract_sents/12588275.txt,22,0.00120675784393,0.0123124448367,0.139250797795,0.0356431803763,0.0509120437992,0.245060703445,0.0134717934325,0.393190788929
