tagged_abstract_sents/12604544.txt,1,0.0954875100725,-0.0171696653124,0.188769469584,0.123191979006,0.299564718697,0.0925745773074,0.0296383186706,0.519349915762
tagged_abstract_sents/12604544.txt,3,0.0805801772764,-0.0415457535307,0.0616692308323,0.247294108221,0.299564718697,0.090742753679,0.0492217459959,0.614137736875
tagged_abstract_sents/12604544.txt,4,0.123690572119,0.0902011994583,0.139250797795,0.194462959676,0.299564718697,0.16849246699,0.0429618768328,0.831034053934
tagged_abstract_sents/12604544.txt,5,0.140209508461,0.0257786805959,0.139250797795,0.194462959676,0.299564718697,0.158959485931,0.0484988130149,0.858652893184
tagged_abstract_sents/12604544.txt,6,0.149073327961,0.015912168698,0.139250797795,0.194462959676,0.299564718697,0.182247732341,0.0476220833865,0.997785520536
tagged_abstract_sents/12604544.txt,7,0.149879129734,0.0385471077578,0.139250797795,0.194462959676,0.299564718697,0.202927844312,0.0532082111437,0.929283683768
tagged_abstract_sents/12604544.txt,8,0.176470588235,0.00604565680015,0.139250797795,0.194462959676,0.299564718697,0.198587196826,0.0488387096774,0.792291550101
tagged_abstract_sents/12604544.txt,9,0.166800966962,-0.0473495840588,0.139250797795,0.194462959676,0.299564718697,0.0767042801368,0.0436705767351,0.566110508689
tagged_abstract_sents/12604544.txt,10,0.0954875100725,-0.0595376281679,0.139250797795,0.194462959676,0.299564718697,0.0609227329482,0.0332258064516,0.799960546119
tagged_abstract_sents/12604544.txt,11,0.0342465753425,-0.00730315341459,0.139250797795,0.194462959676,0.299564718697,0.165155312027,0.0360843457618,0.771667372936
tagged_abstract_sents/12604544.txt,12,0.0342465753425,-0.0078835364674,0.139250797795,0.194462959676,0.299564718697,0.173825209283,0.0435483870968,0.670723154858
