tagged_abstract_sents/12608888.txt,1,0.0954875100725,-0.0301183536478,0.188769469584,0.123191979006,0.520893706729,0.0937551932951,0.0206674473068,0.528870144561
tagged_abstract_sents/12608888.txt,3,0.0253827558421,-0.0173997526939,0.188769469584,0.123191979006,0.520893706729,0.153707138722,0.0114168618267,0.701116295693
tagged_abstract_sents/12608888.txt,4,0.0805801772764,-0.0166048401343,0.188769469584,0.123191979006,0.520893706729,0.141061078387,0.0319452576112,0.874149643944
tagged_abstract_sents/12608888.txt,5,0.0805801772764,0.00128069245716,0.188769469584,0.123191979006,0.520893706729,0.144950998124,0.0356264637002,0.636655505318
tagged_abstract_sents/12608888.txt,6,0.123690572119,0.012012012012,0.188769469584,0.123191979006,0.520893706729,0.209594790202,0.0471194379391,0.770369108905
tagged_abstract_sents/12608888.txt,7,0.123690572119,0.0207560501678,0.188769469584,0.123191979006,0.520893706729,0.193322321402,0.0291451990632,0.680159626023
tagged_abstract_sents/12608888.txt,8,0.140209508461,0.0283077194842,0.188769469584,0.123191979006,0.520893706729,0.223234511839,0.0499853629977,0.844410083183
tagged_abstract_sents/12608888.txt,9,0.149073327961,-0.0201819466525,0.188769469584,0.123191979006,0.520893706729,0.145577999108,0.0327487017615,0.70393346186
tagged_abstract_sents/12608888.txt,10,0.149879129734,0.039039039039,0.188769469584,0.123191979006,0.520893706729,0.246246966118,0.0581235362998,0.759332004699
tagged_abstract_sents/12608888.txt,11,0.176470588235,-0.0253488782901,0.188769469584,0.123191979006,0.520893706729,0.0995105394927,0.0208995483439,0.568123509613
tagged_abstract_sents/12608888.txt,12,0.176470588235,-0.0189895778131,0.188769469584,0.123191979006,0.520893706729,0.078737044035,0.0304449648712,0.679637655841
tagged_abstract_sents/12608888.txt,13,0.166800966962,0.00326797385621,0.188769469584,0.123191979006,0.520893706729,0.135878863548,0.0343621054979,0.770244957852
tagged_abstract_sents/12608888.txt,14,0.166800966962,-0.00666843313902,0.139250797795,0.194462959676,0.520893706729,0.177562539357,0.0468129518379,0.874915946698
tagged_abstract_sents/12608888.txt,15,0.0954875100725,-0.0173997526939,0.139250797795,0.194462959676,0.520893706729,0.131596216521,0.036047684101,0.729457421835
tagged_abstract_sents/12608888.txt,16,0.0954875100725,0.0275128069246,0.139250797795,0.194462959676,0.520893706729,0.236407707158,0.0321825186976,0.848105085821
tagged_abstract_sents/12608888.txt,17,0.0342465753425,-0.000309132662074,0.139250797795,0.194462959676,0.520893706729,0.147616527957,0.040537526486,0.752845069372
tagged_abstract_sents/12608888.txt,18,0.0342465753425,-0.0110404522169,0.139250797795,0.194462959676,0.520893706729,0.176368866067,0.0267475308013,0.877163560228
