tagged_abstract_sents/12612275.txt,1,0.125905068383,-0.0366341299226,0.0616692308323,0.142474783506,0.0,0.0,0.0,0.16697427919
tagged_abstract_sents/12612275.txt,2,0.125905068383,-0.0120632783575,0.188769469584,0.202456734834,0.199758981632,0.158711265277,0.0126374320738,0.62454083326
tagged_abstract_sents/12612275.txt,3,0.239742558327,0.0135173342309,0.0616692308323,0.142474783506,0.366770440863,0.381374936333,0.0286167628516,1.04483670402
tagged_abstract_sents/12612275.txt,4,0.239742558327,-0.0110535173342,0.0616692308323,0.142474783506,0.0609377219837,0.148850890428,0.0205309665691,0.493479972643
tagged_abstract_sents/12612275.txt,5,0.229283990346,0.0428004039044,0.188769469584,0.202456734834,0.480552401486,0.417015490343,0.0466573992165,1.29133431935
tagged_abstract_sents/12612275.txt,6,0.218020917136,-0.0373073039381,0.188769469584,0.202456734834,0.0,0.0,0.0,0.322077028164
tagged_abstract_sents/12612275.txt,7,0.218020917136,0.0195759003702,0.210342442448,0.226435992083,0.0686457273608,0.380108681596,0.0391079917176,0.839296333307
tagged_abstract_sents/12612275.txt,8,0.162510056315,0.00207337596769,0.0616692308323,0.142474783506,0.116079341293,0.355829058422,0.0286916513379,0.704599821767
tagged_abstract_sents/12612275.txt,9,0.162510056315,0.018566139347,0.0616692308323,0.142474783506,0.20352928951,0.504030619433,0.0341167088641,0.948974941197
tagged_abstract_sents/12612275.txt,10,0.118262268705,-0.0117266913497,0.0616692308323,0.142474783506,0.12929438681,0.207688788923,0.0246149093615,0.527439612256
tagged_abstract_sents/12612275.txt,11,0.101769911504,0.0125075732077,0.0616692308323,0.142474783506,0.115487556347,0.230969319408,0.0251958801971,0.529147250265
tagged_abstract_sents/12612275.txt,12,0.101769911504,-0.0373073039381,0.0616692308323,0.142474783506,0.0,0.0,0.0,0.147531518884
tagged_abstract_sents/12612275.txt,13,0.0711987127916,-0.0201413665433,0.139250797795,0.0356431803763,0.634130181173,0.112115180215,0.0327309490711,0.912225360394
tagged_abstract_sents/12612275.txt,14,0.0711987127916,0.00240996297543,0.139250797795,0.0356431803763,0.14762633775,0.273631487491,0.0204663212435,0.579483462324
tagged_abstract_sents/12612275.txt,15,0.0571198712792,-0.00970716930326,0.139250797795,0.0356431803763,3.04274177663e-05,0.138110991723,0.0228931942568,0.28510742957
tagged_abstract_sents/12612275.txt,16,0.0458567980692,0.0316930326489,0.139250797795,0.0356431803763,0.18526240743,0.397606633819,0.0464571445236,0.752668583769
tagged_abstract_sents/12612275.txt,17,0.0458567980692,0.0226051834399,0.139250797795,0.0356431803763,0.0670485243151,0.406285800844,0.03595349425,0.630812647562
tagged_abstract_sents/12612275.txt,18,0.0245374094932,0.0263076405251,0.139250797795,0.0356431803763,0.114951152811,0.402990868821,0.0282278107755,0.651379641117
tagged_abstract_sents/12612275.txt,19,0.0245374094932,0.00880511612252,0.139250797795,0.0356431803763,0.323928649765,0.292903057639,0.0379525062326,0.756493517467
tagged_abstract_sents/12612275.txt,20,0.0144810941271,-0.0359609559071,0.0616692308323,0.142474783506,0.0,0.0,0.0,0.0779697345881
tagged_abstract_sents/12612275.txt,21,0.00844730490748,-0.0150925614271,0.139250797795,0.0356431803763,0.414833247902,0.346203685073,0.031015869004,0.87611048663
tagged_abstract_sents/12612275.txt,22,0.00844730490748,-0.00802423426456,0.139250797795,0.0356431803763,0.180486546108,0.242386834789,0.0231065468549,0.531451277836
tagged_abstract_sents/12612275.txt,23,0.00120675784393,0.021258835409,0.139250797795,0.0356431803763,0.328663688595,0.325984859808,0.0335144698597,0.77369854463
tagged_abstract_sents/12612275.txt,24,0.00120675784393,0.00577583305284,0.139250797795,0.0356431803763,0.073299612015,0.392326077904,0.0314621508909,0.579526766706
tagged_abstract_sents/12612275.txt,25,0.00120675784393,0.00712218108381,0.139250797795,0.0356431803763,0.0424791061273,0.256963194673,0.0354180662068,0.41756856251
