tagged_abstract_sents/12618157.txt,1,0.206355591311,-0.0376663834608,0.0616692308323,0.106008497564,0.377162498956,0.0,0.0,0.220188361042
tagged_abstract_sents/12618157.txt,2,0.206355591311,0.0355423392807,0.188769469584,0.129715814208,0.377162498956,0.256052469336,0.00845799029697,0.912579166552
tagged_abstract_sents/12618157.txt,3,0.206355591311,-0.0400028320589,0.0616692308323,0.106008497564,0.377162498956,0.0,0.0,0.219721071323
tagged_abstract_sents/12618157.txt,4,0.206355591311,-0.00573491928632,0.210342442448,0.0253702522065,0.377162498956,0.169291885608,0.0116532821229,0.702261203226
tagged_abstract_sents/12618157.txt,5,0.0048270313757,-0.0392240158595,0.0616692308323,0.106008497564,0.377162498956,0.0,0.0,0.0586539866139
tagged_abstract_sents/12618157.txt,6,0.0048270313757,-0.0065137354857,0.0616692308323,0.106008497564,0.377162498956,0.148895901781,0.00354253957169,0.557976751167
tagged_abstract_sents/12618157.txt,7,0.0108608205953,-0.0368875672614,0.0616692308323,0.106008497564,0.377162498956,0.0,0.0,0.0639483077093
tagged_abstract_sents/12618157.txt,8,0.0108608205953,0.0277541772869,0.210342442448,0.0253702522065,0.377162498956,0.252751349754,0.0222765363128,0.752374301213
tagged_abstract_sents/12618157.txt,9,0.0261464199517,-0.0392240158595,0.0616692308323,0.106008497564,0.377162498956,0.0,0.0,0.0757094974748
tagged_abstract_sents/12618157.txt,12,0.0518905872888,-0.0283205890683,0.0616692308323,0.106008497564,0.377162498956,0.0,0.0,0.0984855167027
tagged_abstract_sents/12618157.txt,13,0.0518905872888,-0.0189747946757,0.0616692308323,0.106008497564,0.377162498956,0.137527631311,0.00352799115456,0.787350971388
tagged_abstract_sents/12618157.txt,14,0.0993563958166,-0.0400028320589,0.0616692308323,0.106008497564,0.377162498956,0.0,0.0,0.134121714927
tagged_abstract_sents/12618157.txt,15,0.0993563958166,0.0285329934863,0.139250797795,0.521468892835,0.377162498956,0.259813008209,0.0200768156425,0.808729337625
tagged_abstract_sents/12618157.txt,16,0.172566371681,0.065137354857,0.139250797795,0.521468892835,0.377162498956,0.285492734004,0.00795216480447,0.990044528998
tagged_abstract_sents/12618157.txt,17,0.172566371681,0.017629566695,0.139250797795,0.521468892835,0.377162498956,0.209634150494,0.00542292248603,0.967217349086
tagged_abstract_sents/12618157.txt,18,0.206355591311,0.00438969130558,0.139250797795,0.521468892835,0.377162498956,0.27626192659,0.00997730446927,1.06127798151
tagged_abstract_sents/12618157.txt,19,0.206355591311,-0.00885018408383,0.139250797795,0.521468892835,0.377162498956,0.158828262966,0.00641920928234,0.782546184432
tagged_abstract_sents/12618157.txt,20,0.262268704747,-0.0368875672614,0.0616692308323,0.106008497564,0.377162498956,0.0,0.0,0.26507461503
tagged_abstract_sents/12618157.txt,21,0.262268704747,0.0402152364769,0.139250797795,0.521468892835,0.377162498956,0.274326741359,0.0186190642458,1.11917867911
tagged_abstract_sents/12618157.txt,22,0.262268704747,0.0355423392807,0.139250797795,0.521468892835,0.377162498956,0.240839309302,0.00488826815642,1.06587957482
