tagged_abstract_sents/12620440.txt,1,0.0954875100725,-0.0346374466833,0.0616692308323,0.247294108221,0.494137707065,0.0,0.0,0.174485366604
tagged_abstract_sents/12620440.txt,3,0.0253827558421,0.0108692454773,0.188769469584,0.123191979006,0.494137707065,0.296577026761,0.0890945049676,0.995559483769
tagged_abstract_sents/12620440.txt,4,0.0253827558421,-0.0357846742168,0.0616692308323,0.247294108221,0.494137707065,0.0,0.0,0.118172117713
tagged_abstract_sents/12620440.txt,5,0.0253827558421,-0.0189586703927,0.0616692308323,0.247294108221,0.494137707065,0.140457037572,0.0643495458541,0.431004025445
tagged_abstract_sents/12620440.txt,6,0.0805801772764,-0.035402265039,0.0616692308323,0.247294108221,0.494137707065,0.0,0.0,0.162406536696
tagged_abstract_sents/12620440.txt,7,0.0805801772764,-0.0220179438153,0.0616692308323,0.247294108221,0.494137707065,0.22006505588,0.0496553425756,0.434851624181
tagged_abstract_sents/12620440.txt,8,0.123690572119,-0.0342550375055,0.0616692308323,0.247294108221,0.494137707065,0.0,0.0,0.197124298077
tagged_abstract_sents/12620440.txt,9,0.123690572119,0.0162229739668,0.210342442448,0.141687475369,0.494137707065,0.304353340493,0.0408555523,0.813676857967
tagged_abstract_sents/12620440.txt,10,0.123690572119,-0.0155169877923,0.0616692308323,0.247294108221,0.494137707065,0.144824912614,0.0590651291281,0.731630075131
tagged_abstract_sents/12620440.txt,11,0.140209508461,0.00551551698779,0.194899689933,0.293363477728,0.494137707065,0.228914653261,0.105487189504,0.836527102063
tagged_abstract_sents/12620440.txt,12,0.140209508461,-0.00175025739079,0.0616692308323,0.247294108221,0.494137707065,0.17609058544,0.109581013771,0.720527528289
tagged_abstract_sents/12620440.txt,13,0.149073327961,-0.0235475805265,0.0616692308323,0.247294108221,0.494137707065,0.13579714084,0.0850320204261,0.440446246338
tagged_abstract_sents/12620440.txt,14,0.149879129734,-0.0292837181939,0.0616692308323,0.247294108221,0.494137707065,0.0,0.0,0.219069408031
tagged_abstract_sents/12620440.txt,15,0.149879129734,0.0150757464333,0.0616692308323,0.247294108221,0.494137707065,0.323715573389,0.113488706863,1.01419721117
tagged_abstract_sents/12620440.txt,16,0.176470588235,0.00551551698779,0.0616692308323,0.247294108221,0.494137707065,0.305210006048,0.0921667791946,0.963017727171
tagged_abstract_sents/12620440.txt,17,0.176470588235,-0.00404471245771,0.0616692308323,0.247294108221,0.494137707065,0.181029528543,0.0305358189276,0.64638156662
tagged_abstract_sents/12620440.txt,18,0.176470588235,0.0334313869687,0.210342442448,0.141687475369,0.494137707065,0.303127525955,0.0997489545321,0.825109041463
tagged_abstract_sents/12620440.txt,19,0.166800966962,0.0364906603912,0.0616692308323,0.247294108221,0.494137707065,0.291733273846,0.0941349571332,0.816540704077
tagged_abstract_sents/12620440.txt,20,0.166800966962,0.0158405647889,0.139250797795,0.194462959676,0.494137707065,0.330082740963,0.103916398086,0.92473291196
tagged_abstract_sents/12620440.txt,21,0.0954875100725,0.0663185762612,0.139250797795,0.194462959676,0.494137707065,0.459733703493,0.123212479797,0.972658618522
tagged_abstract_sents/12620440.txt,22,0.0954875100725,0.00207383438741,0.139250797795,0.194462959676,0.494137707065,0.0713023570479,0.0355259302666,0.358466427858
tagged_abstract_sents/12620440.txt,23,0.0954875100725,0.0143109280777,0.139250797795,0.194462959676,0.494137707065,0.248930615398,0.138152111894,0.680449570959
tagged_abstract_sents/12620440.txt,24,0.0342465753425,-0.0338726283277,0.0616692308323,0.247294108221,0.494137707065,0.0,0.0,0.125645582491
tagged_abstract_sents/12620440.txt,25,0.0342465753425,0.0120164730107,0.139250797795,0.194462959676,0.494137707065,0.336312148549,0.0829304619592,1.06869398075
tagged_abstract_sents/12620440.txt,26,0.0342465753425,0.00704515369907,0.139250797795,0.194462959676,0.494137707065,0.282067049615,0.0746011240444,1.00757645854
