tagged_abstract_sents/12630614.txt,1,0.206355591311,-0.0560103244838,0.0616692308323,0.106008497564,0.190025804959,0.0,0.0,0.216519572838
tagged_abstract_sents/12630614.txt,2,0.206355591311,0.00652654867257,0.188769469584,0.129715814208,0.190025804959,0.179084432906,0.0341613108679,0.699987522111
tagged_abstract_sents/12630614.txt,4,0.0048270313757,-0.0577802359882,0.0616692308323,0.106008497564,0.190025804959,0.0,0.0,0.0549427425882
tagged_abstract_sents/12630614.txt,6,0.0108608205953,0.0407448377581,0.0616692308323,0.106008497564,0.190025804959,0.144718833919,0.0163568988478,0.384726473602
tagged_abstract_sents/12630614.txt,7,0.0261464199517,-0.0577802359882,0.139250797795,0.521468892835,0.190025804959,0.0,0.0,0.235427155512
tagged_abstract_sents/12630614.txt,8,0.0353982300885,-0.0259218289086,0.139250797795,0.521468892835,0.190025804959,0.062132999097,0.013201320132,0.539414284251
tagged_abstract_sents/12630614.txt,9,0.0518905872888,0.0112463126844,0.139250797795,0.521468892835,0.190025804959,0.115544910789,0.0276929948634,0.578833317764
tagged_abstract_sents/12630614.txt,10,0.0993563958166,0.0342551622419,0.139250797795,0.521468892835,0.190025804959,0.104526438362,0.0152857391002,0.516872275829
tagged_abstract_sents/12630614.txt,11,0.0993563958166,0.0242256637168,0.139250797795,0.521468892835,0.190025804959,0.152673138104,0.0211698801459,0.654397275108
tagged_abstract_sents/12630614.txt,12,0.172566371681,0.0767330383481,0.139250797795,0.521468892835,0.190025804959,0.135303987161,0.0122612880483,0.577598601701
tagged_abstract_sents/12630614.txt,13,0.206355591311,0.0460545722714,0.139250797795,0.521468892835,0.190025804959,0.167728366252,0.0188838432715,0.89234760027
tagged_abstract_sents/12630614.txt,14,0.206355591311,-0.0560103244838,0.0616692308323,0.106008497564,0.190025804959,0.0,0.0,0.216519572838
tagged_abstract_sents/12630614.txt,15,0.262268704747,-0.0176622418879,0.139250797795,0.521468892835,0.190025804959,0.106101832434,0.0177920047644,0.994040698988
tagged_abstract_sents/12630614.txt,16,0.262268704747,0.0271755162242,0.139250797795,0.521468892835,0.190025804959,0.164436367402,0.0192312464329,0.815009552585
