tagged_abstract_sents/12633909.txt,1,0.239742558327,0.060671641791,0.188769469584,0.202456734834,0.204473264737,0.237157438838,0.082209766197,0.882890600034
tagged_abstract_sents/12633909.txt,2,0.218020917136,-0.005,0.188769469584,0.202456734834,0.256246076108,0.155738258081,0.0323369399108,0.772859763051
tagged_abstract_sents/12633909.txt,3,0.162510056315,-0.0390298507463,0.139250797795,0.0356431803763,0.378110308058,0.22504468575,0.0434249580591,0.849100379781
tagged_abstract_sents/12633909.txt,4,0.0852775543041,-0.0211194029851,0.139250797795,0.0356431803763,0.21672016582,0.175805824539,0.0449477351916,0.581790241407
tagged_abstract_sents/12633909.txt,5,0.0458567980692,0.0827611940299,0.139250797795,0.0356431803763,0.0992749014153,0.179525322546,0.0474448315912,0.459801085824
tagged_abstract_sents/12633909.txt,6,0.0245374094932,-0.0163432835821,0.139250797795,0.0356431803763,0.300632640332,0.138441503705,0.018315018315,0.554068786241
tagged_abstract_sents/12633909.txt,7,0.00844730490748,-0.0641044776119,0.139250797795,0.0356431803763,0.265813688567,0.133737869687,0.0365466511808,0.510353510849
tagged_abstract_sents/12633909.txt,8,0.00120675784393,0.00216417910448,0.139250797795,0.0356431803763,0.236693495167,0.167465239453,0.0537166085947,0.539591938321
