tagged_abstract_sents/12639199.txt,1,0.125905068383,-0.0650183150183,0.0616692308323,0.142474783506,0.0,0.0,0.0,0.161297442171
tagged_abstract_sents/12639199.txt,2,0.239742558327,0.0410422910423,0.188769469584,0.202456734834,0.338892394192,0.431656612275,0.113281461948,1.23895472853
tagged_abstract_sents/12639199.txt,3,0.218020917136,-0.0656010656011,0.0616692308323,0.142474783506,0.0,0.0,0.0,0.234873571056
tagged_abstract_sents/12639199.txt,4,0.218020917136,-0.01665001665,0.0616692308323,0.142474783506,0.414293941544,0.239171436644,0.0701039278882,0.968233086923
tagged_abstract_sents/12639199.txt,5,0.162510056315,-0.0667665667666,0.0616692308323,0.142474783506,0.0,0.0,0.0,0.190231782167
tagged_abstract_sents/12639199.txt,6,0.101769911504,0.0859140859141,0.194899689933,0.13295610691,0.276944186276,0.465721987397,0.0698538793796,1.04845547648
tagged_abstract_sents/12639199.txt,7,0.0852775543041,-0.0667665667666,0.139250797795,0.0356431803763,0.0,0.0,0.0,0.1351870831
tagged_abstract_sents/12639199.txt,8,0.0711987127916,0.115634365634,0.139250797795,0.0356431803763,0.220588861761,0.458772801646,0.069762672136,0.909528531914
tagged_abstract_sents/12639199.txt,9,0.0458567980692,-0.0265567765568,0.139250797795,0.0356431803763,0.252205961353,0.215422493212,0.0552391590976,0.634560049817
tagged_abstract_sents/12639199.txt,10,0.0245374094932,0.0340492840493,0.139250797795,0.0356431803763,0.401010082018,0.281811785668,0.0546696454732,0.844249650574
tagged_abstract_sents/12639199.txt,11,0.0245374094932,0.00666000666001,0.139250797795,0.0356431803763,0.260543119455,0.391207790541,0.105977146206,0.859008338138
tagged_abstract_sents/12639199.txt,12,0.00844730490748,0.0334665334665,0.139250797795,0.0356431803763,0.197013569831,0.282827795331,0.0911404922356,0.664751361027
tagged_abstract_sents/12639199.txt,13,0.00120675784393,-0.0650183150183,0.139250797795,0.0356431803763,0.0,0.0,0.0,0.0682800962818
tagged_abstract_sents/12639199.txt,14,0.00120675784393,0.0556110556111,0.139250797795,0.0356431803763,0.395441987966,0.344442489083,0.0743257875897,0.906616235046
