tagged_abstract_sents/12648310.txt,1,0.125905068383,-0.0641716773792,0.0616692308323,0.142474783506,0.0,0.0,0.0,0.161466769698
tagged_abstract_sents/12648310.txt,2,0.239742558327,0.0816918930126,0.188769469584,0.202456734834,0.0730988656271,0.372471180701,0.0450234601178,0.853847686953
tagged_abstract_sents/12648310.txt,3,0.218020917136,0.00549450549451,0.0616692308323,0.142474783506,0.178201689918,0.346426002839,0.0780548068284,0.851775184861
tagged_abstract_sents/12648310.txt,4,0.218020917136,0.0287165664524,0.139250797795,0.0356431803763,2.50383562229e-05,0.289950569304,0.045813293871,0.596267301541
tagged_abstract_sents/12648310.txt,5,0.162510056315,0.0287165664524,0.139250797795,0.0356431803763,0.0952643245413,0.309334219505,0.0575272037536,0.678195459153
tagged_abstract_sents/12648310.txt,6,0.101769911504,0.0011403690649,0.139250797795,0.0356431803763,0.121037372227,0.256007915701,0.0385594489368,0.577567092892
tagged_abstract_sents/12648310.txt,7,0.0852775543041,-0.0656230561891,0.139250797795,0.0356431803763,0.0,0.0,0.0,0.135415785216
tagged_abstract_sents/12648310.txt,8,0.0711987127916,-0.0162761766535,0.139250797795,0.0356431803763,4.34715851542e-05,0.315722015707,0.0246903792964,0.474477954501
tagged_abstract_sents/12648310.txt,9,0.0458567980692,-0.0344184117769,0.139250797795,0.0356431803763,0.203683652448,0.206448877827,0.0597733852451,0.58002602463
tagged_abstract_sents/12648310.txt,10,0.0245374094932,0.0947543023015,0.139250797795,0.0356431803763,0.0,0.312131919414,0.0391584306679,0.470189491147
tagged_abstract_sents/12648310.txt,11,0.0245374094932,-0.0627202985694,0.139250797795,0.0356431803763,0.0,0.0,0.0,0.0874042208909
tagged_abstract_sents/12648310.txt,12,0.00844730490748,-0.0148247978437,0.139250797795,0.0356431803763,0.0621741472372,0.231163434576,0.0451161596714,0.422564978852
tagged_abstract_sents/12648310.txt,13,0.00120675784393,0.0512129380054,0.139250797795,0.0356431803763,0.134330717639,0.36514199406,0.0384703147506,0.629469373335
tagged_abstract_sents/12648310.txt,14,0.00120675784393,-0.033692722372,0.139250797795,0.0356431803763,0.109148663615,0.18592395245,0.0366626734551,0.406280504331
