tagged_abstract_sents/12643362.txt,1,0.239742558327,-0.0907391429393,0.188769469584,0.202456734834,0.229414176489,0.253664631526,0.0280897231292,0.839936504459
tagged_abstract_sents/12643362.txt,2,0.162510056315,-0.0208513085994,0.188769469584,0.202456734834,0.484137883293,0.33469353131,0.0518421163689,1.15163306955
tagged_abstract_sents/12643362.txt,3,0.0852775543041,0.0775093471383,0.188769469584,0.202456734834,0.175672990572,0.595565538595,0.0331413344266,1.04322553171
tagged_abstract_sents/12643362.txt,4,0.0458567980692,-0.0622663215416,0.188769469584,0.202456734834,0.258407852062,0.510312852801,0.0647688838782,1.01284351813
tagged_abstract_sents/12643362.txt,5,0.00844730490748,-0.0432844406097,0.188769469584,0.202456734834,0.309531782465,0.629132798978,0.0478490966858,1.13973638918
tagged_abstract_sents/12643362.txt,6,0.00120675784393,0.139631866552,0.188769469584,0.202456734834,0.0844357270945,1.11820156689,0.0151416257154,1.40179245453
