tagged_abstract_sents/12648310.txt,1,0.206355591311,-0.0641716773792,0.0616692308323,0.106008497564,0.109148663615,0.0,0.0,0.214887302259
tagged_abstract_sents/12648310.txt,4,0.0048270313757,0.0287165664524,0.139250797795,0.521468892835,0.109148663615,0.289950569304,0.045813293871,0.57145990667
tagged_abstract_sents/12648310.txt,5,0.0108608205953,0.0287165664524,0.139250797795,0.521468892835,0.109148663615,0.309334219505,0.0575272037536,0.702623784315
tagged_abstract_sents/12648310.txt,6,0.0261464199517,0.0011403690649,0.139250797795,0.521468892835,0.109148663615,0.256007915701,0.0385594489368,0.662816013387
tagged_abstract_sents/12648310.txt,7,0.0353982300885,-0.0656230561891,0.139250797795,0.521468892835,0.109148663615,0.0,0.0,0.241260039581
tagged_abstract_sents/12648310.txt,8,0.0518905872888,-0.0162761766535,0.139250797795,0.521468892835,0.109148663615,0.315722015707,0.0246903792964,0.604779167837
tagged_abstract_sents/12648310.txt,9,0.0993563958166,-0.0344184117769,0.139250797795,0.521468892835,0.109148663615,0.206448877827,0.0597733852451,0.768573416566
tagged_abstract_sents/12648310.txt,10,0.172566371681,0.0947543023015,0.139250797795,0.521468892835,0.109148663615,0.312131919414,0.0391584306679,0.734360374635
tagged_abstract_sents/12648310.txt,11,0.172566371681,-0.0627202985694,0.139250797795,0.521468892835,0.109148663615,0.0,0.0,0.351575104379
tagged_abstract_sents/12648310.txt,12,0.206355591311,-0.0148247978437,0.139250797795,0.521468892835,0.109148663615,0.231163434576,0.0451161596714,0.726639321713
tagged_abstract_sents/12648310.txt,13,0.262268704747,0.0512129380054,0.139250797795,0.521468892835,0.109148663615,0.36514199406,0.0384703147506,0.984066644595
tagged_abstract_sents/12648310.txt,14,0.262268704747,-0.033692722372,0.139250797795,0.521468892835,0.109148663615,0.18592395245,0.0366626734551,0.760877775591
