tagged_abstract_sents/12658017.txt,1,0.206355591311,-0.0741674304919,0.0616692308323,0.106008497564,0.33417870042,0.0,0.0,0.212888151636
tagged_abstract_sents/12658017.txt,2,0.206355591311,0.0679040635503,0.188769469584,0.129715814208,0.33417870042,0.158603955463,0.0168958742633,0.669310192881
tagged_abstract_sents/12658017.txt,3,0.0048270313757,-0.0760006110602,0.0616692308323,0.106008497564,0.33417870042,0.0,0.0,0.0512986675738
tagged_abstract_sents/12658017.txt,5,0.0261464199517,0.0770699663917,0.194899689933,0.0581677376677,0.33417870042,0.123019901399,0.00793338946581,0.387375930145
tagged_abstract_sents/12658017.txt,6,0.0353982300885,-0.0760006110602,0.139250797795,0.521468892835,0.33417870042,0.0,0.0,0.239184528607
tagged_abstract_sents/12658017.txt,7,0.0518905872888,0.0119920562175,0.139250797795,0.521468892835,0.33417870042,0.052260133571,0.00974299346458,0.331980074858
tagged_abstract_sents/12658017.txt,8,0.0993563958166,0.0229911396273,0.139250797795,0.521468892835,0.33417870042,0.0854138187409,0.0124767177812,0.673513559677
tagged_abstract_sents/12658017.txt,9,0.172566371681,0.0394897647418,0.139250797795,0.521468892835,0.33417870042,0.107555182707,0.0019846838539,0.813589275947
tagged_abstract_sents/12658017.txt,11,0.262268704747,-0.0732508402078,0.0616692308323,0.106008497564,0.33417870042,0.0,0.0,0.257801960441
tagged_abstract_sents/12658017.txt,12,0.262268704747,0.0550717995723,0.139250797795,0.521468892835,0.33417870042,0.146326672636,0.0130590546631,0.940459818178
