tagged_abstract_sents/12665175.txt,1,0.125905068383,-0.0548928077455,0.0616692308323,0.142474783506,0.0,0.0,0.0,0.163322543625
tagged_abstract_sents/12665175.txt,2,0.239742558327,0.0287863070539,0.188769469584,0.202456734834,0.397014317009,0.352591508637,0.0283389740756,1.13061786304
tagged_abstract_sents/12665175.txt,3,0.239742558327,0.0481500691563,0.188769469584,0.202456734834,0.445604388649,0.467806014895,0.0500732245426,1.32002944382
tagged_abstract_sents/12665175.txt,4,0.218020917136,-0.0569674965422,0.0616692308323,0.142474783506,0.0,0.0,0.0,0.236600284868
tagged_abstract_sents/12665175.txt,5,0.162510056315,0.019795988935,0.0616692308323,0.142474783506,0.414020827577,0.44886171424,0.0575215740078,1.12794840913
tagged_abstract_sents/12665175.txt,6,0.162510056315,-0.00648340248963,0.0616692308323,0.142474783506,0.282348562807,0.207749496811,0.0214095834175,0.713796058058
tagged_abstract_sents/12665175.txt,7,0.101769911504,0.0516078838174,0.0616692308323,0.142474783506,0.453909330771,0.383512304152,0.0369067147857,1.03964290614
tagged_abstract_sents/12665175.txt,8,0.0852775543041,0.0405428769018,0.210342442448,0.226435992083,0.413821125814,0.48742079387,0.0508256780402,1.2015002354
tagged_abstract_sents/12665175.txt,9,0.0711987127916,-0.0251556016598,0.0616692308323,0.142474783506,0.0,0.106546453432,0.0125157966365,0.244567150437
tagged_abstract_sents/12665175.txt,10,0.0458567980692,0.0419260027663,0.0616692308323,0.142474783506,0.40023198199,0.415972051294,0.0502437195351,0.985095442296
tagged_abstract_sents/12665175.txt,11,0.0458567980692,-0.00233402489627,0.0616692308323,0.142474783506,0.41610124706,0.281475255068,0.055490622266,0.862862808338
tagged_abstract_sents/12665175.txt,12,0.0245374094932,-0.0569674965422,0.0616692308323,0.142474783506,0.0,0.0,0.0,0.081813478754
tagged_abstract_sents/12665175.txt,13,0.00844730490748,-0.0293049792531,0.139250797795,0.0356431803763,0.0975840805471,0.171328621675,0.037693205016,0.387821108324
tagged_abstract_sents/12665175.txt,14,0.00844730490748,0.0536825726141,0.139250797795,0.0356431803763,0.368027656798,0.502913098546,0.0591530876349,1.02790655444
tagged_abstract_sents/12665175.txt,15,0.00120675784393,-0.0548928077455,0.0616692308323,0.142474783506,0.0,0.0,0.0,0.0635638951939
tagged_abstract_sents/12665175.txt,16,0.00120675784393,0.00250691562932,0.139250797795,0.0356431803763,0.585512727181,0.358778631837,0.0426509186352,1.06872742007
