tagged_abstract_sents/12660054.txt,1,0.0954875100725,-0.0601073345259,0.0616692308323,0.247294108221,0.240460279168,0.0,0.0,0.169391389035
tagged_abstract_sents/12660054.txt,3,0.0451248992748,0.0168157423971,0.188769469584,0.123191979006,0.240460279168,0.184264710257,0.0385287575469,0.459987723213
tagged_abstract_sents/12660054.txt,4,0.0805801772764,-0.0618962432916,0.0616692308323,0.247294108221,0.240460279168,0.0,0.0,0.157107741045
tagged_abstract_sents/12660054.txt,5,0.123690572119,0.0454382826476,0.210342442448,0.141687475369,0.240460279168,0.358249632448,0.0494161105815,0.88621917301
tagged_abstract_sents/12660054.txt,6,0.131345688961,0.0180083482409,0.194899689933,0.293363477728,0.240460279168,0.138141273945,0.0419923736892,0.676902965752
tagged_abstract_sents/12660054.txt,7,0.140209508461,0.0132379248658,0.194899689933,0.293363477728,0.240460279168,0.284110434385,0.0477906129087,0.632211709317
tagged_abstract_sents/12660054.txt,8,0.149879129734,0.0263565891473,0.0616692308323,0.247294108221,0.240460279168,0.241945113607,0.0536671830315,0.580569081169
tagged_abstract_sents/12660054.txt,9,0.150684931507,-0.0475849731664,0.0616692308323,0.247294108221,0.240460279168,0.0542284090226,0.0274864950747,0.297953936763
tagged_abstract_sents/12660054.txt,10,0.176470588235,-0.0612999403697,0.0616692308323,0.247294108221,0.240460279168,0.0,0.0,0.233939330397
tagged_abstract_sents/12660054.txt,11,0.166800966962,-0.0296958855098,0.210342442448,0.141687475369,0.240460279168,0.110019779464,0.031379091198,0.416577930964
tagged_abstract_sents/12660054.txt,12,0.131345688961,-0.033870005963,0.139250797795,0.194462959676,0.240460279168,0.119652406107,0.0344772799492,0.483301707464
tagged_abstract_sents/12660054.txt,13,0.0954875100725,0.0508050089445,0.139250797795,0.194462959676,0.240460279168,0.299982305586,0.0632394998037,0.650229272218
tagged_abstract_sents/12660054.txt,14,0.0342465753425,0.032915921288,0.139250797795,0.194462959676,0.240460279168,0.170039915248,0.0495893524969,0.381609023394
tagged_abstract_sents/12660054.txt,15,0.0342465753425,0.0764460345856,0.139250797795,0.194462959676,0.240460279168,0.413697032581,0.0567306164601,0.8815386822
