tagged_abstract_sents/12665175.txt,1,0.206355591311,-0.0548928077455,0.0616692308323,0.106008497564,0.585512727181,0.0,0.0,0.216743076185
tagged_abstract_sents/12665175.txt,2,0.206355591311,0.0287863070539,0.188769469584,0.129715814208,0.585512727181,0.352591508637,0.0283389740756,1.08208601324
tagged_abstract_sents/12665175.txt,4,0.0048270313757,-0.0569674965422,0.0616692308323,0.106008497564,0.585512727181,0.0,0.0,0.0551052904774
tagged_abstract_sents/12665175.txt,5,0.0108608205953,0.019795988935,0.0616692308323,0.106008497564,0.585512727181,0.44886171424,0.0575215740078,0.995689134773
tagged_abstract_sents/12665175.txt,6,0.0108608205953,-0.00648340248963,0.0616692308323,0.106008497564,0.585512727181,0.207749496811,0.0214095834175,0.5815367837
tagged_abstract_sents/12665175.txt,7,0.0261464199517,0.0516078838174,0.0616692308323,0.106008497564,0.585512727181,0.383512304152,0.0369067147857,0.968204227118
tagged_abstract_sents/12665175.txt,9,0.0518905872888,-0.0251556016598,0.0616692308323,0.106008497564,0.585512727181,0.106546453432,0.0125157966365,0.218180764253
tagged_abstract_sents/12665175.txt,10,0.0993563958166,0.0419260027663,0.0616692308323,0.106008497564,0.585512727181,0.415972051294,0.0502437195351,1.01695523471
tagged_abstract_sents/12665175.txt,11,0.0993563958166,-0.00233402489627,0.0616692308323,0.106008497564,0.585512727181,0.281475255068,0.055490622266,0.894722600754
tagged_abstract_sents/12665175.txt,12,0.172566371681,-0.0569674965422,0.0616692308323,0.106008497564,0.585512727181,0.0,0.0,0.189296762722
tagged_abstract_sents/12665175.txt,13,0.206355591311,-0.0293049792531,0.139250797795,0.521468892835,0.585512727181,0.171328621675,0.037693205016,0.691895451184
tagged_abstract_sents/12665175.txt,14,0.206355591311,0.0536825726141,0.139250797795,0.521468892835,0.585512727181,0.502913098546,0.0591530876349,1.3319808973
tagged_abstract_sents/12665175.txt,15,0.262268704747,-0.0548928077455,0.0616692308323,0.106008497564,0.585512727181,0.0,0.0,0.261473566933
tagged_abstract_sents/12665175.txt,16,0.262268704747,0.00250691562932,0.139250797795,0.521468892835,0.585512727181,0.358778631837,0.0426509186352,1.42332469132
