tagged_abstract_sents/12661753.txt,1,0.00564061240935,0.0238214959145,0.188769469584,0.123191979006,0.135648009808,0.190414022567,0.0379765395894,0.595626435114
tagged_abstract_sents/12661753.txt,2,0.0451248992748,-0.0340037712131,0.188769469584,0.123191979006,0.135648009808,0.11275727249,0.0386689475399,0.556303454292
tagged_abstract_sents/12661753.txt,4,0.131345688961,-0.0704588309239,0.0616692308323,0.247294108221,0.135648009808,0.0619576938041,0.0426952812583,0.429098711512
tagged_abstract_sents/12661753.txt,5,0.149073327961,0.0143934632307,0.139250797795,0.194462959676,0.135648009808,0.163660523467,0.0403435274403,0.743764576089
tagged_abstract_sents/12661753.txt,6,0.150684931507,-0.0164047768699,0.139250797795,0.194462959676,0.135648009808,0.12882307043,0.0362083836467,0.559186650484
tagged_abstract_sents/12661753.txt,7,0.202256244964,-0.028975487115,0.139250797795,0.194462959676,0.135648009808,0.137167765709,0.0402574128381,0.667436697744
tagged_abstract_sents/12661753.txt,8,0.131345688961,0.0275927089881,0.139250797795,0.194462959676,0.135648009808,0.165211155123,0.0438905180841,0.753334967397
tagged_abstract_sents/12661753.txt,9,0.0342465753425,0.0319924575739,0.139250797795,0.194462959676,0.135648009808,0.180420019626,0.048906402737,0.779978143341
tagged_abstract_sents/12661753.txt,10,0.0342465753425,-0.0396605908234,0.139250797795,0.194462959676,0.135648009808,0.130666858827,0.0427535113443,0.456497808889
