tagged_abstract_sents/12679432.txt,2,0.206355591311,0.0504553585949,0.210342442448,0.0253702522065,0.139165245828,0.190979879115,0.0139948460184,0.594637804593
tagged_abstract_sents/12679432.txt,3,0.0048270313757,0.11810863555,0.139250797795,0.521468892835,0.139165245828,0.350397151276,0.0159067290698,0.704384895978
tagged_abstract_sents/12679432.txt,4,0.0108608205953,0.00658643681899,0.139250797795,0.521468892835,0.139165245828,0.260573401266,0.00768183282918,0.60450689177
tagged_abstract_sents/12679432.txt,5,0.0108608205953,-0.00874125874126,0.139250797795,0.521468892835,0.139165245828,0.10268956846,0.0195168289471,0.554761709882
tagged_abstract_sents/12679432.txt,6,0.0261464199517,-0.0446820621239,0.139250797795,0.521468892835,0.139165245828,0.116582230352,0.0076580730524,0.618312552861
tagged_abstract_sents/12679432.txt,7,0.0518905872888,-0.0230118718491,0.139250797795,0.521468892835,0.139165245828,0.213297811632,0.00884086444008,0.655945089254
tagged_abstract_sents/12679432.txt,8,0.0993563958166,-0.0214262481704,0.139250797795,0.521468892835,0.139165245828,0.0939282701953,0.013425016372,0.631201914211
tagged_abstract_sents/12679432.txt,10,0.172566371681,-0.0214262481704,0.139250797795,0.521468892835,0.139165245828,0.1632485363,0.0103106489209,0.760971475654
tagged_abstract_sents/12679432.txt,11,0.206355591311,-0.020369165718,0.139250797795,0.521468892835,0.139165245828,0.191671615495,0.0151435649001,0.864060880024
tagged_abstract_sents/12679432.txt,12,0.262268704747,-0.0356968612783,0.139250797795,0.521468892835,0.139165245828,0.177185387557,0.0111843951726,0.847171836334
tagged_abstract_sents/12679432.txt,13,0.262268704747,-0.00451292893153,0.139250797795,0.521468892835,0.139165245828,0.170626924953,0.00963182200903,0.754402437548
