tagged_abstract_sents/12672309.txt,1,0.0954875100725,-0.0533508925958,0.188769469584,0.123191979006,0.52460279276,0.0,0.0,0.197062158033
tagged_abstract_sents/12672309.txt,2,0.0253827558421,0.0242610477027,0.188769469584,0.123191979006,0.52460279276,0.150236366111,0.0596346529814,0.750114799338
tagged_abstract_sents/12672309.txt,3,0.0253827558421,-0.0548434299093,0.0616692308323,0.247294108221,0.52460279276,0.0,0.0,0.114360366574
tagged_abstract_sents/12672309.txt,5,0.0805801772764,0.00684811237928,0.194899689933,0.293363477728,0.52460279276,0.141648151155,0.064309517462,0.811873485105
tagged_abstract_sents/12672309.txt,6,0.123690572119,-0.013549897571,0.0616692308323,0.247294108221,0.52460279276,0.104837290142,0.0563701531443,0.396306451718
tagged_abstract_sents/12672309.txt,7,0.140209508461,-0.0060872110038,0.0616692308323,0.247294108221,0.52460279276,0.105104036728,0.0523460410557,0.651390483935
tagged_abstract_sents/12672309.txt,8,0.140209508461,-0.0543459174715,0.0616692308323,0.247294108221,0.52460279276,0.0,0.0,0.206321271157
tagged_abstract_sents/12672309.txt,9,0.149879129734,0.0192859233246,0.139250797795,0.194462959676,0.52460279276,0.101498507646,0.0573658789029,0.59906170159
tagged_abstract_sents/12672309.txt,10,0.149879129734,0.00187298800117,0.139250797795,0.194462959676,0.52460279276,0.139008861945,0.0576874738165,0.786120863344
tagged_abstract_sents/12672309.txt,11,0.176470588235,0.0585894059116,0.139250797795,0.194462959676,0.52460279276,0.207401740597,0.054629241726,0.733402964779
tagged_abstract_sents/12672309.txt,12,0.166800966962,0.00734562481709,0.139250797795,0.194462959676,0.52460279276,0.0909815413811,0.0451887829912,0.599365563823
tagged_abstract_sents/12672309.txt,13,0.166800966962,0.020778460638,0.139250797795,0.194462959676,0.52460279276,0.17781856822,0.0550722276529,0.881530086837
tagged_abstract_sents/12672309.txt,14,0.0954875100725,-0.0110623353819,0.139250797795,0.194462959676,0.52460279276,0.141794601192,0.055198613703,0.700199844101
tagged_abstract_sents/12672309.txt,15,0.0954875100725,0.00237050043898,0.139250797795,0.194462959676,0.52460279276,0.141434645897,0.0535723806985,0.640020277645
tagged_abstract_sents/12672309.txt,16,0.0342465753425,-0.0513608428446,0.139250797795,0.194462959676,0.52460279276,0.0,0.0,0.145089378505
tagged_abstract_sents/12672309.txt,17,0.0342465753425,0.0327187591454,0.139250797795,0.194462959676,0.52460279276,0.131210324204,0.057156821673,0.87487523754
