tagged_abstract_sents/12685516.txt,1,0.239742558327,-0.0278806584362,0.188769469584,0.202456734834,0.34392536302,0.175247411376,0.0376386586765,0.898151103289
tagged_abstract_sents/12685516.txt,2,0.218020917136,0.075,0.188769469584,0.202456734834,0.302456939713,0.209201288265,0.0363799283154,0.892576645244
tagged_abstract_sents/12685516.txt,3,0.162510056315,-0.041049382716,0.188769469584,0.202456734834,0.260492728081,0.116170907465,0.0416681041918,0.69525166349
tagged_abstract_sents/12685516.txt,4,0.0852775543041,-0.0772633744856,0.139250797795,0.0356431803763,0.0,0.108020620382,0.0390212609971,0.280129602935
tagged_abstract_sents/12685516.txt,5,0.0458567980692,-0.0566872427984,0.139250797795,0.0356431803763,0.149695336897,0.0964317573035,0.02732771261,0.379121149717
tagged_abstract_sents/12685516.txt,6,0.0245374094932,-0.0295267489712,0.139250797795,0.0356431803763,0.28444548431,0.12733139883,0.0329448989042,0.538764712855
tagged_abstract_sents/12685516.txt,7,0.00844730490748,0.0955761316872,0.139250797795,0.0356431803763,0.240721994192,0.21362779992,0.0366113863889,0.597152603775
tagged_abstract_sents/12685516.txt,8,0.00120675784393,0.0618312757202,0.139250797795,0.0356431803763,0.310187994366,0.165302051508,0.0334677419355,0.602607802239
