tagged_abstract_sents/12689976.txt,1,0.0954875100725,-0.036567227605,0.0616692308323,0.247294108221,0.392646605435,0.0,0.0,0.17409941042
tagged_abstract_sents/12689976.txt,2,0.0954875100725,0.0465536291008,0.188769469584,0.123191979006,0.392646605435,0.205872145984,0.0440433962867,0.672909193165
tagged_abstract_sents/12689976.txt,3,0.0253827558421,-0.0380970593235,0.0616692308323,0.247294108221,0.392646605435,0.0,0.0,0.117709640691
tagged_abstract_sents/12689976.txt,4,0.0253827558421,-0.0233086860445,0.0616692308323,0.247294108221,0.392646605435,0.0576181845958,0.0306777873646,0.549448250185
tagged_abstract_sents/12689976.txt,6,0.0805801772764,-0.0375871154173,0.0616692308323,0.247294108221,0.392646605435,0.0,0.0,0.16196956662
tagged_abstract_sents/12689976.txt,7,0.0805801772764,-0.00801036885943,0.0616692308323,0.247294108221,0.392646605435,0.114472384457,0.0175798101812,0.29993711057
tagged_abstract_sents/12689976.txt,8,0.123690572119,-0.0370771715111,0.0616692308323,0.247294108221,0.392646605435,0.0,0.0,0.196559871276
tagged_abstract_sents/12689976.txt,9,0.123690572119,0.0154470508244,0.0616692308323,0.247294108221,0.392646605435,0.155503321796,0.047619047619,0.811479687231
tagged_abstract_sents/12689976.txt,10,0.140209508461,-0.0350373958865,0.0616692308323,0.247294108221,0.392646605435,0.0,0.0,0.210182975474
tagged_abstract_sents/12689976.txt,11,0.140209508461,0.0251359850416,0.194899689933,0.293363477728,0.392646605435,0.142732541085,0.0418572044866,0.811196860056
tagged_abstract_sents/12689976.txt,12,0.149073327961,-0.0105600883903,0.194899689933,0.293363477728,0.392646605435,0.127559398405,0.0497869930975,0.750545115269
tagged_abstract_sents/12689976.txt,13,0.149879129734,-0.0227987421384,0.194899689933,0.293363477728,0.392646605435,0.0695805726427,0.0393168091615,0.876216318522
tagged_abstract_sents/12689976.txt,14,0.149879129734,-0.0304479007309,0.0616692308323,0.247294108221,0.392646605435,0.0,0.0,0.218836571524
tagged_abstract_sents/12689976.txt,15,0.176470588235,0.0633817780044,0.139250797795,0.194462959676,0.392646605435,0.216252194351,0.0445946377784,0.667909622029
tagged_abstract_sents/12689976.txt,16,0.176470588235,-0.0375871154173,0.139250797795,0.194462959676,0.392646605435,0.0,0.0,0.261623334305
tagged_abstract_sents/12689976.txt,17,0.166800966962,0.0164669386367,0.139250797795,0.194462959676,0.392646605435,0.156068764627,0.05170405522,0.75702438406
tagged_abstract_sents/12689976.txt,18,0.166800966962,-0.0227987421384,0.139250797795,0.194462959676,0.392646605435,0.0479700530523,0.0370470232959,0.630058257601
tagged_abstract_sents/12689976.txt,19,0.166800966962,0.0628718340982,0.139250797795,0.194462959676,0.392646605435,0.150517313656,0.0498921484038,0.659622835321
tagged_abstract_sents/12689976.txt,20,0.0954875100725,0.0491033486317,0.139250797795,0.194462959676,0.392646605435,0.15252282434,0.0525180509514,0.663765057073
tagged_abstract_sents/12689976.txt,21,0.0954875100725,0.0399243583206,0.139250797795,0.194462959676,0.392646605435,0.157622052106,0.0501972143473,0.5468227329
tagged_abstract_sents/12689976.txt,22,0.0342465753425,0.0256459289478,0.139250797795,0.194462959676,0.392646605435,0.162163097168,0.0287604256543,0.562410021331
tagged_abstract_sents/12689976.txt,23,0.0342465753425,-0.0360572836988,0.0616692308323,0.247294108221,0.392646605435,0.0,0.0,0.125208651417
tagged_abstract_sents/12689976.txt,24,0.0342465753425,0.0312553119157,0.139250797795,0.194462959676,0.392646605435,0.163203667466,0.0412973566554,0.758760239014
