tagged_abstract_sents/12728159.txt,1,0.206355591311,-0.0484347075242,0.0616692308323,0.106008497564,0.105757129218,0.0,0.0,0.21803469623
tagged_abstract_sents/12728159.txt,3,0.206355591311,-0.0495793088215,0.0616692308323,0.106008497564,0.105757129218,0.0,0.0,0.21780577597
tagged_abstract_sents/12728159.txt,4,0.0048270313757,0.0351211871724,0.210342442448,0.0253702522065,0.105757129218,0.327771736584,0.0588638071823,0.76850908887
tagged_abstract_sents/12728159.txt,5,0.0048270313757,0.0526717403964,0.0616692308323,0.106008497564,0.105757129218,0.405014907982,0.0483236365158,0.60505080033
tagged_abstract_sents/12728159.txt,6,0.0108608205953,-0.0495793088215,0.0616692308323,0.106008497564,0.105757129218,0.0,0.0,0.0614099593973
tagged_abstract_sents/12728159.txt,7,0.0108608205953,-0.0198196750939,0.139250797795,0.521468892835,0.105757129218,0.23327652511,0.0620852794678,0.782868137264
tagged_abstract_sents/12728159.txt,8,0.0261464199517,0.000783148255989,0.139250797795,0.521468892835,0.105757129218,0.278577084132,0.0508313800176,0.954047362358
tagged_abstract_sents/12728159.txt,9,0.0261464199517,0.0202413703086,0.139250797795,0.521468892835,0.105757129218,0.319931017071,0.0494000213089,0.819208795888
tagged_abstract_sents/12728159.txt,11,0.0518905872888,0.0217675053716,0.139250797795,0.521468892835,0.105757129218,0.326880781072,0.0507649778978,0.926499294128
tagged_abstract_sents/12728159.txt,12,0.0993563958166,0.025582843029,0.139250797795,0.521468892835,0.105757129218,0.367484469113,0.0545679415808,0.860326080049
tagged_abstract_sents/12728159.txt,13,0.0993563958166,0.0206229040744,0.139250797795,0.521468892835,0.105757129218,0.290484916029,0.0597261172268,0.788767909016
tagged_abstract_sents/12728159.txt,14,0.172566371681,0.00879535733649,0.139250797795,0.521468892835,0.105757129218,0.213320576846,0.0533026296513,0.759921237816
tagged_abstract_sents/12728159.txt,15,0.172566371681,0.0183337014799,0.139250797795,0.521468892835,0.105757129218,0.283709145989,0.0470334016994,0.889763860818
tagged_abstract_sents/12728159.txt,16,0.206355591311,-0.0480531737585,0.139250797795,0.521468892835,0.105757129218,0.0,0.0,0.381539905045
tagged_abstract_sents/12728159.txt,17,0.206355591311,-0.0114259322476,0.139250797795,0.521468892835,0.105757129218,0.275901658563,0.0429900380897,1.17449025753
tagged_abstract_sents/12728159.txt,18,0.262268704747,0.00765075603928,0.139250797795,0.521468892835,0.105757129218,0.366158911156,0.0516290653384,1.21858809403
tagged_abstract_sents/12728159.txt,19,0.262268704747,-0.0118074660134,0.139250797795,0.521468892835,0.105757129218,0.233938612563,0.0425375199401,0.815752799064
