tagged_abstract_sents/12759325.txt,1,0.125905068383,-0.0390851887706,0.0616692308323,0.142474783506,0.0,0.0,0.0,0.16648406742
tagged_abstract_sents/12759325.txt,2,0.125905068383,0.00447725072604,0.188769469584,0.202456734834,0.428254877308,0.194665140353,0.0769014875105,0.956562765266
tagged_abstract_sents/12759325.txt,3,0.239742558327,-0.0116569861246,0.188769469584,0.202456734834,0.205823959812,0.126407763036,0.0773536657623,0.754169793288
tagged_abstract_sents/12759325.txt,4,0.239742558327,-0.0384398192965,0.0616692308323,0.142474783506,0.0,0.0,0.0,0.25768313327
tagged_abstract_sents/12759325.txt,5,0.218020917136,0.0357776702162,0.0616692308323,0.142474783506,0.374587990993,0.291048968219,0.0806986841888,1.00148496162
tagged_abstract_sents/12759325.txt,6,0.218020917136,-0.0310180703453,0.0616692308323,0.142474783506,0.0,0.0,0.0,0.241790170108
tagged_abstract_sents/12759325.txt,7,0.218020917136,-0.00617134559535,0.0616692308323,0.142474783506,4.55192052501e-05,0.129598792854,0.069697820189,0.446101647306
tagged_abstract_sents/12759325.txt,8,0.162510056315,-0.00262181348822,0.0616692308323,0.142474783506,0.288528346689,0.18983140773,0.0877863061172,0.769206793359
tagged_abstract_sents/12759325.txt,9,0.162510056315,-0.00262181348822,0.0616692308323,0.142474783506,0.379297041335,0.113905148581,0.0877812814713,0.78404420421
tagged_abstract_sents/12759325.txt,10,0.101769911504,-0.0365037108745,0.0616692308323,0.142474783506,0.0,0.0,0.0,0.147692237497
tagged_abstract_sents/12759325.txt,11,0.101769911504,0.000927718618909,0.0616692308323,0.142474783506,0.189577548772,0.172159316616,0.0714168771634,0.588332265947
tagged_abstract_sents/12759325.txt,12,0.0852775543041,0.00383188125202,0.0616692308323,0.142474783506,0.232708113925,0.156122394906,0.0843724523208,0.615768431314
tagged_abstract_sents/12759325.txt,13,0.0711987127916,-0.0368263956115,0.0616692308323,0.142474783506,0.0,0.0,0.0,0.123170741579
tagged_abstract_sents/12759325.txt,14,0.0711987127916,0.00221845756696,0.139250797795,0.0356431803763,0.267696889258,0.194476465507,0.0747235475723,0.674617917094
tagged_abstract_sents/12759325.txt,15,0.0458567980692,0.0906340755082,0.139250797795,0.0356431803763,0.0552792354087,0.196601123246,0.102795189239,0.489806154461
tagged_abstract_sents/12759325.txt,16,0.0458567980692,0.0406179412714,0.139250797795,0.0356431803763,0.19355336257,0.241616465549,0.0754019485987,0.635699156437
tagged_abstract_sents/12759325.txt,17,0.0245374094932,0.0148031623104,0.139250797795,0.0356431803763,0.150487363701,0.173459617283,0.104516223505,0.531372117556
tagged_abstract_sents/12759325.txt,18,0.0245374094932,0.0280332365279,0.139250797795,0.0356431803763,0.100975413055,0.187129854344,0.0978164468145,0.491476642124
tagged_abstract_sents/12759325.txt,19,0.0245374094932,0.00576798967409,0.139250797795,0.0356431803763,0.230738476901,0.197403759216,0.109267471232,0.638511585889
tagged_abstract_sents/12759325.txt,20,0.00844730490748,0.0180300096805,0.139250797795,0.0356431803763,0.150299724802,0.185686413164,0.113820282533,0.540488619371
tagged_abstract_sents/12759325.txt,21,0.00844730490748,-0.0203694740239,0.139250797795,0.0356431803763,0.391438758785,0.105435387337,0.0784203661818,0.658296814435
tagged_abstract_sents/12759325.txt,22,0.00120675784393,-0.0377944498225,0.0616692308323,0.142474783506,0.0,0.0,0.0,0.0669835667785
tagged_abstract_sents/12759325.txt,23,0.00120675784393,0.00447725072604,0.139250797795,0.0356431803763,0.432310313607,0.197616862915,0.108595544745,0.820701930698
tagged_abstract_sents/12759325.txt,24,0.00120675784393,0.0135124233624,0.139250797795,0.0356431803763,0.160641123056,0.248980629258,0.0880227336514,0.581630729924
