tagged_abstract_sents/12767648.txt,1,0.206355591311,-0.056044600939,0.0616692308323,0.106008497564,0.306077130498,0.0,0.0,0.216512717547
tagged_abstract_sents/12767648.txt,3,0.206355591311,-0.056044600939,0.0616692308323,0.106008497564,0.306077130498,0.0,0.0,0.216512717547
tagged_abstract_sents/12767648.txt,4,0.0048270313757,-0.0331572769953,0.188769469584,0.129715814208,0.306077130498,0.123842305837,0.0406350717844,0.473518845572
tagged_abstract_sents/12767648.txt,5,0.0108608205953,0.0102699530516,0.188769469584,0.129715814208,0.306077130498,0.143881773381,0.0206318976463,0.680812758567
tagged_abstract_sents/12767648.txt,6,0.0108608205953,-0.0578051643192,0.0616692308323,0.106008497564,0.306077130498,0.0,0.0,0.0597647882977
tagged_abstract_sents/12767648.txt,7,0.0261464199517,0.0360915492958,0.210342442448,0.0253702522065,0.306077130498,0.295600040657,0.0429136494914,0.597138247067
tagged_abstract_sents/12767648.txt,9,0.0518905872888,-0.0578051643192,0.139250797795,0.521468892835,0.306077130498,0.0,0.0,0.256017503715
tagged_abstract_sents/12767648.txt,10,0.0993563958166,0.0484154929577,0.139250797795,0.521468892835,0.306077130498,0.139281799629,0.012373034476,0.586588558967
tagged_abstract_sents/12767648.txt,11,0.0993563958166,0.0419600938967,0.139250797795,0.521468892835,0.306077130498,0.337836958231,0.0371055682238,0.905102174431
tagged_abstract_sents/12767648.txt,12,0.172566371681,0.000293427230047,0.139250797795,0.521468892835,0.306077130498,0.210220480778,0.0359223384637,0.870414481844
tagged_abstract_sents/12767648.txt,13,0.206355591311,-0.0554577464789,0.139250797795,0.521468892835,0.306077130498,0.0,0.0,0.380058990501
tagged_abstract_sents/12767648.txt,14,0.206355591311,0.00909624413146,0.139250797795,0.521468892835,0.306077130498,0.287167677118,0.0374633753296,0.939958076604
tagged_abstract_sents/12767648.txt,15,0.262268704747,0.0161384976526,0.139250797795,0.521468892835,0.306077130498,0.222489897536,0.0422777959704,0.873978999715
tagged_abstract_sents/12767648.txt,16,0.262268704747,0.0583920187793,0.139250797795,0.521468892835,0.306077130498,0.27887652139,0.0423747436273,1.07488782982
