tagged_abstract_sents/12777590.txt,1,0.206355591311,-0.0646672462088,0.0616692308323,0.106008497564,0.313599396803,0.0,0.0,0.214788188493
tagged_abstract_sents/12777590.txt,3,0.0048270313757,-0.0660195112528,0.0616692308323,0.106008497564,0.313599396803,0.0,0.0,0.0532948875353
tagged_abstract_sents/12777590.txt,4,0.0048270313757,0.0117357287743,0.210342442448,0.0253702522065,0.313599396803,0.155388425138,0.0826746682279,0.5149876187
tagged_abstract_sents/12777590.txt,5,0.0108608205953,0.0117357287743,0.0616692308323,0.106008497564,0.313599396803,0.153755132955,0.0778322599532,0.619179030558
tagged_abstract_sents/12777590.txt,7,0.0353982300885,-0.0660195112528,0.0616692308323,0.106008497564,0.313599396803,0.0,0.0,0.0777518465055
tagged_abstract_sents/12777590.txt,8,0.0518905872888,0.00226987346663,0.139250797795,0.521468892835,0.313599396803,0.111414368779,0.0575396825397,0.603652473209
tagged_abstract_sents/12777590.txt,9,0.0993563958166,0.0354003670434,0.139250797795,0.521468892835,0.313599396803,0.182242119575,0.0655466649319,0.756582515253
tagged_abstract_sents/12777590.txt,10,0.172566371681,0.0367526320873,0.139250797795,0.521468892835,0.313599396803,0.12503581314,0.0545740632319,0.854108270646
tagged_abstract_sents/12777590.txt,11,0.172566371681,0.0739399207959,0.139250797795,0.521468892835,0.313599396803,0.167127598406,0.0451112412178,0.826945080559
tagged_abstract_sents/12777590.txt,12,0.206355591311,-0.0639911136869,0.0616692308323,0.106008497564,0.313599396803,0.0,0.0,0.214923414997
tagged_abstract_sents/12777590.txt,13,0.262268704747,-0.00719598184101,0.139250797795,0.521468892835,0.313599396803,0.107368284386,0.0338765287536,0.894837476766
tagged_abstract_sents/12777590.txt,14,0.262268704747,0.0509514150488,0.139250797795,0.521468892835,0.313599396803,0.200481799113,0.0555669398907,1.01571944936
