tagged_abstract_sents/12786634.txt,1,0.0954875100725,-0.0563752783964,0.0616692308323,0.247294108221,0.411298787727,0.0,0.0,0.170137800261
tagged_abstract_sents/12786634.txt,3,0.0253827558421,-0.0602728285078,0.0616692308323,0.247294108221,0.411298787727,0.0,0.0,0.113274486855
tagged_abstract_sents/12786634.txt,4,0.0805801772764,-0.00347995545657,0.0616692308323,0.247294108221,0.411298787727,0.125656389295,0.0662640207075,0.90941801283
tagged_abstract_sents/12786634.txt,5,0.123690572119,-0.0580456570156,0.0616692308323,0.247294108221,0.411298787727,0.0,0.0,0.192366174175
tagged_abstract_sents/12786634.txt,6,0.123690572119,0.0193485523385,0.210342442448,0.141687475369,0.411298787727,0.120719648551,0.0336042868171,0.748120943618
tagged_abstract_sents/12786634.txt,7,0.140209508461,0.00431514476615,0.194899689933,0.293363477728,0.411298787727,0.125045875589,0.0393226919758,0.803737586667
tagged_abstract_sents/12786634.txt,8,0.149073327961,0.0037583518931,0.194899689933,0.293363477728,0.411298787727,0.120869632711,0.053494391717,0.683366147909
tagged_abstract_sents/12786634.txt,9,0.149879129734,0.0377227171492,0.0616692308323,0.247294108221,0.411298787727,0.116022591229,0.0445307257214,0.798896276634
tagged_abstract_sents/12786634.txt,10,0.176470588235,-0.0580456570156,0.0616692308323,0.247294108221,0.411298787727,0.0,0.0,0.234590187068
tagged_abstract_sents/12786634.txt,11,0.176470588235,0.0254732739421,0.139250797795,0.194462959676,0.411298787727,0.122943873888,0.0377594114709,0.64726107603
tagged_abstract_sents/12786634.txt,12,0.166800966962,-0.00682071269488,0.139250797795,0.194462959676,0.411298787727,0.0660628049371,0.0289401783146,0.436935467344
tagged_abstract_sents/12786634.txt,13,0.0954875100725,0.0856069042316,0.139250797795,0.194462959676,0.411298787727,0.137730076104,0.0481942561321,0.518762709577
tagged_abstract_sents/12786634.txt,14,0.0954875100725,0.0605512249443,0.139250797795,0.194462959676,0.411298787727,0.168268287466,0.0547706356054,0.661992158286
tagged_abstract_sents/12786634.txt,15,0.0342465753425,-0.0563752783964,0.139250797795,0.194462959676,0.411298787727,0.0,0.0,0.144086491395
tagged_abstract_sents/12786634.txt,16,0.0342465753425,0.0555400890869,0.139250797795,0.194462959676,0.411298787727,0.14962440277,0.0456800533375,0.773072808727
