tagged_abstract_sents/12804508.txt,1,0.0954875100725,-0.0344278017545,0.0616692308323,0.247294108221,0.184058093809,0.0,0.0,0.17452729559
tagged_abstract_sents/12804508.txt,2,0.0954875100725,-0.0175594482525,0.188769469584,0.123191979006,0.184058093809,0.0493660616962,0.0652601204416,0.379899658372
tagged_abstract_sents/12804508.txt,4,0.0253827558421,0.0799836393896,0.188769469584,0.123191979006,0.184058093809,0.204079383272,0.0533213797814,0.54823348428
tagged_abstract_sents/12804508.txt,5,0.0253827558421,-0.0344278017545,0.0616692308323,0.247294108221,0.184058093809,0.0,0.0,0.118443492205
tagged_abstract_sents/12804508.txt,6,0.0805801772764,0.0180107754365,0.0616692308323,0.247294108221,0.184058093809,0.147780995595,0.0524919496487,0.499619315615
tagged_abstract_sents/12804508.txt,7,0.0805801772764,-0.0325942850695,0.0616692308323,0.247294108221,0.184058093809,0.0,0.0,0.16296813269
tagged_abstract_sents/12804508.txt,8,0.123690572119,0.0114101153705,0.0616692308323,0.247294108221,0.184058093809,0.0888252304451,0.0285646730319,0.333008644997
tagged_abstract_sents/12804508.txt,9,0.123690572119,-0.00582494146851,0.0616692308323,0.247294108221,0.184058093809,0.103414290168,0.0148147373704,0.340459084782
tagged_abstract_sents/12804508.txt,10,0.123690572119,-0.0314941750585,0.0616692308323,0.247294108221,0.184058093809,0.0,0.0,0.197676470566
tagged_abstract_sents/12804508.txt,11,0.140209508461,0.0128769287185,0.0616692308323,0.247294108221,0.184058093809,0.146950897985,0.0545136855972,0.61481034679
tagged_abstract_sents/12804508.txt,12,0.140209508461,-0.0278271416885,0.0616692308323,0.247294108221,0.184058093809,0.0,0.0,0.211625026314
tagged_abstract_sents/12804508.txt,13,0.149073327961,-0.0131590082085,0.0616692308323,0.247294108221,0.184058093809,0.115457621585,0.0196135831382,0.373788500064
tagged_abstract_sents/12804508.txt,14,0.149879129734,-0.00619164480551,0.0616692308323,0.247294108221,0.184058093809,0.0713228603756,0.019350117096,0.314515863913
tagged_abstract_sents/12804508.txt,15,0.149879129734,0.000775718597501,0.0616692308323,0.247294108221,0.184058093809,0.0874017263123,0.0224556010929,0.417119009151
tagged_abstract_sents/12804508.txt,16,0.176470588235,-0.0336943950805,0.0616692308323,0.247294108221,0.184058093809,0.0,0.0,0.239460439455
tagged_abstract_sents/12804508.txt,17,0.176470588235,-0.0168260415785,0.0616692308323,0.247294108221,0.184058093809,0.0869240116203,0.0185036104606,0.368223507893
tagged_abstract_sents/12804508.txt,18,0.176470588235,-0.00655834814251,0.0616692308323,0.247294108221,0.184058093809,0.100767522982,0.0799058352849,0.631569014497
tagged_abstract_sents/12804508.txt,19,0.166800966962,0.00517615864151,0.0616692308323,0.247294108221,0.184058093809,0.175252778172,0.0429095279182,0.634487078298
tagged_abstract_sents/12804508.txt,20,0.166800966962,-0.0124256015345,0.139250797795,0.194462959676,0.184058093809,0.0773341982408,0.0240712156696,0.360470200169
tagged_abstract_sents/12804508.txt,21,0.0954875100725,0.0422131956785,0.139250797795,0.194462959676,0.184058093809,0.212221268014,0.044823004864,0.633198588536
tagged_abstract_sents/12804508.txt,22,0.0954875100725,0.0209444021325,0.139250797795,0.194462959676,0.184058093809,0.177599382213,0.044889375077,0.62258468162
tagged_abstract_sents/12804508.txt,23,0.0954875100725,-0.0300273617105,0.0616692308323,0.247294108221,0.184058093809,0.0,0.0,0.175407383598
tagged_abstract_sents/12804508.txt,24,0.0342465753425,0.0286451722095,0.139250797795,0.194462959676,0.184058093809,0.149826653819,0.0330633619568,0.522427002758
tagged_abstract_sents/12804508.txt,25,0.0342465753425,0.0407463823305,0.139250797795,0.194462959676,0.184058093809,0.182997581962,0.0576349392216,0.565069489357
tagged_abstract_sents/12804508.txt,26,0.0342465753425,0.0015091252715,0.139250797795,0.194462959676,0.184058093809,0.129896871938,0.0407640515222,0.510382389397
