tagged_abstract_sents/12804417.txt,1,0.0954875100725,-0.0374212015953,0.0616692308323,0.247294108221,0.241529366559,0.0,0.0,0.173928615621
tagged_abstract_sents/12804417.txt,2,0.0954875100725,0.00927891419015,0.188769469584,0.123191979006,0.241529366559,0.469618037965,0.0711940376296,0.986711328343
tagged_abstract_sents/12804417.txt,3,0.0253827558421,-0.015421973498,0.188769469584,0.123191979006,0.241529366559,0.187599888076,0.0658127899098,0.402005493848
tagged_abstract_sents/12804417.txt,4,0.0253827558421,-0.0374212015953,0.0616692308323,0.247294108221,0.241529366559,0.0,0.0,0.117844812237
tagged_abstract_sents/12804417.txt,6,0.0805801772764,-0.0354914447446,0.0616692308323,0.247294108221,0.241529366559,0.0,0.0,0.162388700755
tagged_abstract_sents/12804417.txt,7,0.0805801772764,-0.00886080020584,0.0616692308323,0.247294108221,0.241529366559,0.312770999777,0.0747422185526,0.874419825633
tagged_abstract_sents/12804417.txt,8,0.123690572119,-0.0343335906342,0.0616692308323,0.247294108221,0.241529366559,0.0,0.0,0.197108587451
tagged_abstract_sents/12804417.txt,9,0.123690572119,-0.0100186543162,0.0616692308323,0.247294108221,0.241529366559,0.296416592711,0.0757503024252,0.854281291254
tagged_abstract_sents/12804417.txt,10,0.140209508461,-0.030474076933,0.0616692308323,0.247294108221,0.241529366559,0.0,0.0,0.211095639265
tagged_abstract_sents/12804417.txt,11,0.140209508461,-0.0111765084266,0.0616692308323,0.247294108221,0.241529366559,0.179509862166,0.0665815395841,0.801703523037
tagged_abstract_sents/12804417.txt,12,0.149073327961,-0.036649298855,0.0616692308323,0.247294108221,0.241529366559,0.0,0.0,0.216951650481
tagged_abstract_sents/12804417.txt,13,0.149879129734,-0.0223690981603,0.0616692308323,0.247294108221,0.241529366559,0.17798301465,0.0531922655965,0.832875122192
tagged_abstract_sents/12804417.txt,14,0.149879129734,0.109626270423,0.194899689933,0.293363477728,0.241529366559,0.592107568833,0.0689268775734,1.07896356157
tagged_abstract_sents/12804417.txt,15,0.176470588235,-0.015421973498,0.0616692308323,0.247294108221,0.241529366559,0.142391568204,0.0444531754273,0.776053755958
tagged_abstract_sents/12804417.txt,16,0.176470588235,-0.00345748102406,0.0616692308323,0.247294108221,0.241529366559,0.0807913953295,0.0207770886538,0.500680282904
tagged_abstract_sents/12804417.txt,17,0.166800966962,-0.0146500707578,0.0616692308323,0.247294108221,0.241529366559,0.191935470613,0.0412015079655,0.837909040722
tagged_abstract_sents/12804417.txt,18,0.166800966962,0.115415540975,0.139250797795,0.194462959676,0.241529366559,0.587907184532,0.0768373261989,1.17881754768
tagged_abstract_sents/12804417.txt,19,0.166800966962,-0.00770294609546,0.139250797795,0.194462959676,0.241529366559,0.20764965562,0.0530372126961,0.784129621548
tagged_abstract_sents/12804417.txt,20,0.0954875100725,-0.0327897851537,0.0616692308323,0.247294108221,0.241529366559,0.0,0.0,0.17485489891
tagged_abstract_sents/12804417.txt,21,0.0954875100725,0.0146822333719,0.139250797795,0.194462959676,0.241529366559,0.328385490264,0.0665541773076,0.911549044099
tagged_abstract_sents/12804417.txt,22,0.0342465753425,-0.0219831467902,0.139250797795,0.194462959676,0.241529366559,0.0833327367651,0.046242247355,0.280539901836
tagged_abstract_sents/12804417.txt,23,0.0342465753425,-0.00538723787469,0.139250797795,0.194462959676,0.241529366559,0.312320697679,0.0697690047812,0.927841200755
tagged_abstract_sents/12804417.txt,24,0.0342465753425,0.0231731635147,0.139250797795,0.194462959676,0.241529366559,0.397066393399,0.0617194735217,0.860311413257
