tagged_abstract_sents/12804438.txt,1,0.125905068383,-0.031676106566,0.0616692308323,0.142474783506,0.0,0.0,0.0,0.167965883861
tagged_abstract_sents/12804438.txt,2,0.125905068383,-0.0041430669184,0.188769469584,0.202456734834,0.200391874809,0.0753909405976,0.0593029705411,0.590102982513
tagged_abstract_sents/12804438.txt,3,0.239742558327,-0.000104887770086,0.188769469584,0.202456734834,6.07438921747e-05,0.0597534942353,0.0570120130086,0.463721075486
tagged_abstract_sents/12804438.txt,4,0.239742558327,-0.0180931403398,0.188769469584,0.202456734834,0.0,0.0301623120462,0.0870146678171,0.460474153699
tagged_abstract_sents/12804438.txt,5,0.239742558327,-0.031676106566,0.0616692308323,0.142474783506,0.0,0.0,0.0,0.259035875816
tagged_abstract_sents/12804438.txt,6,0.218020917136,0.040276903713,0.0616692308323,0.142474783506,0.0815046289809,0.100833606615,0.0630332662257,0.501420666741
tagged_abstract_sents/12804438.txt,7,0.218020917136,-0.0298405705895,0.0616692308323,0.142474783506,0.0,0.0,0.0,0.242025670059
tagged_abstract_sents/12804438.txt,8,0.218020917136,0.12177470107,0.0616692308323,0.142474783506,0.134309866775,0.0968451508406,0.071697344454,0.575201086461
tagged_abstract_sents/12804438.txt,9,0.162510056315,-0.0037759597231,0.0616692308323,0.142474783506,0.0730383965711,0.100030206563,0.0816571397757,0.457555646485
tagged_abstract_sents/12804438.txt,10,0.162510056315,0.0501887979862,0.0616692308323,0.142474783506,0.187441272455,0.0803860955065,0.0736626402071,0.555112863286
tagged_abstract_sents/12804438.txt,11,0.162510056315,-0.0250681770506,0.0616692308323,0.142474783506,0.0,0.0,0.0,0.19857146011
tagged_abstract_sents/12804438.txt,12,0.101769911504,-0.0111181036291,0.0616692308323,0.142474783506,0.176186200252,0.0386265051951,0.0719468193584,0.439528883751
tagged_abstract_sents/12804438.txt,13,0.101769911504,-0.0147891755821,0.0616692308323,0.142474783506,0.163498177193,0.0706190490749,0.0715846994536,0.457737070277
tagged_abstract_sents/12804438.txt,14,0.0852775543041,-0.0059786028949,0.0616692308323,0.142474783506,8.40132006715e-06,0.0311789874302,0.0313201035375,0.20311086562
tagged_abstract_sents/12804438.txt,15,0.0711987127916,-0.0309418921754,0.0616692308323,0.142474783506,0.0,0.0,0.0,0.124347642266
tagged_abstract_sents/12804438.txt,16,0.0711987127916,-0.0217642122928,0.0616692308323,0.142474783506,0.163402904226,0.0517651023614,0.0528276727586,0.394178857589
tagged_abstract_sents/12804438.txt,17,0.0458567980692,-0.000104887770086,0.0616692308323,0.142474783506,8.1125351522e-06,0.05386929044,0.0444514501892,0.208570364533
tagged_abstract_sents/12804438.txt,18,0.0458567980692,-0.0188273547304,0.0616692308323,0.142474783506,5.79450279007e-05,0.0314907259799,0.0956427955134,0.233688484498
tagged_abstract_sents/12804438.txt,19,0.0458567980692,0.000629326620516,0.139250797795,0.0356431803763,2.40659466589e-05,0.0244501409998,0.0531348863963,0.194738750133
tagged_abstract_sents/12804438.txt,20,0.0245374094932,0.00466750576883,0.139250797795,0.0356431803763,0.106363841032,0.0396078211098,0.074947054671,0.321800498571
tagged_abstract_sents/12804438.txt,21,0.0245374094932,-0.0037759597231,0.139250797795,0.0356431803763,0.152250556251,0.0632891404111,0.0780999630223,0.392832748345
tagged_abstract_sents/12804438.txt,22,0.0245374094932,0.0208202223621,0.139250797795,0.0356431803763,0.153175374344,0.0821310223695,0.0832344693701,0.422653191161
tagged_abstract_sents/12804438.txt,23,0.00844730490748,0.00576882735473,0.139250797795,0.0356431803763,0.103439994676,0.0796407883805,0.0682565789474,0.339567324411
tagged_abstract_sents/12804438.txt,24,0.00844730490748,0.0380742605412,0.139250797795,0.0356431803763,0.0631690579742,0.0999927197889,0.0509898379829,0.308842664791
tagged_abstract_sents/12804438.txt,25,0.00844730490748,-0.0272708202224,0.0616692308323,0.142474783506,0.0,0.0,0.0,0.0748807303494
tagged_abstract_sents/12804438.txt,26,0.00120675784393,0.00173064820642,0.188769469584,0.202456734834,0.0487413884756,0.053522359052,0.0508063980885,0.309503436775
tagged_abstract_sents/12804438.txt,27,0.00120675784393,0.00797147052654,0.188769469584,0.202456734834,8.1926827866e-05,0.070603763854,0.0820534943917,0.310420640697
tagged_abstract_sents/12804438.txt,28,0.00120675784393,-0.0129536396056,0.188769469584,0.202456734834,0.000198541705707,0.0314034672353,0.0182916307161,0.203390073254
