tagged_abstract_sents/12804481.txt,1,0.125905068383,-0.0289135829108,0.0616692308323,0.142474783506,0.0,0.0,0.0,0.168518388592
tagged_abstract_sents/12804481.txt,2,0.125905068383,-0.0137113937955,0.188769469584,0.202456734834,0.258783513471,0.0933554148575,0.0136355740837,0.618878033602
tagged_abstract_sents/12804481.txt,3,0.125905068383,0.00787571474809,0.188769469584,0.202456734834,0.199025473135,0.149055658355,0.01268021539,0.618182299779
tagged_abstract_sents/12804481.txt,4,0.239742558327,0.00331505801352,0.188769469584,0.202456734834,0.244774610582,0.171345038947,0.0239708181344,0.78766928117
tagged_abstract_sents/12804481.txt,5,0.239742558327,-0.0289135829108,0.0616692308323,0.142474783506,0.0,0.0,0.0,0.259588380547
tagged_abstract_sents/12804481.txt,6,0.239742558327,-0.00276581763258,0.0616692308323,0.142474783506,0.323852996284,0.154199377258,0.0335368123278,0.776407119473
tagged_abstract_sents/12804481.txt,7,0.218020917136,-0.0273933639993,0.0616692308323,0.142474783506,0.0,0.0,0.0,0.242515111377
tagged_abstract_sents/12804481.txt,8,0.218020917136,0.131621534146,0.0616692308323,0.142474783506,0.0340063425113,0.200170073297,0.0250130276186,0.533507534433
tagged_abstract_sents/12804481.txt,9,0.218020917136,-0.0204003570062,0.0616692308323,0.142474783506,0.29220280505,0.0692168231028,0.037282675636,0.642616016564
tagged_abstract_sents/12804481.txt,10,0.162510056315,-0.0179680067478,0.0616692308323,0.142474783506,0.319796624635,0.0924394043019,0.0154910227865,0.627718545894
tagged_abstract_sents/12804481.txt,11,0.162510056315,-0.0264812326523,0.0616692308323,0.142474783506,0.0,0.0,0.0,0.19828884899
tagged_abstract_sents/12804481.txt,12,0.162510056315,0.0303749546386,0.0616692308323,0.142474783506,0.140734691311,0.236693762702,0.0247741879451,0.611862728406
tagged_abstract_sents/12804481.txt,13,0.101769911504,-0.0234407948293,0.0616692308323,0.142474783506,0.0,0.0,0.0,0.150304820706
tagged_abstract_sents/12804481.txt,14,0.101769911504,-0.00823860571406,0.0616692308323,0.142474783506,0.221931702424,0.116729094617,0.0247003647733,0.516706420343
tagged_abstract_sents/12804481.txt,15,0.101769911504,-0.0167518316186,0.0616692308323,0.142474783506,0.229957820059,0.11408637318,0.0244919228765,0.520178729464
tagged_abstract_sents/12804481.txt,16,0.0711987127916,-0.0283054953462,0.0616692308323,0.142474783506,0.0,0.0,0.0,0.124874921632
tagged_abstract_sents/12804481.txt,17,0.0711987127916,-0.0182720505301,0.0616692308323,0.142474783506,0.0,0.084621553878,0.0321521625847,0.243655327058
tagged_abstract_sents/12804481.txt,18,0.0711987127916,0.026726429251,0.139250797795,0.0356431803763,0.139844928162,0.235462703177,0.0284219211395,0.546352161572
tagged_abstract_sents/12804481.txt,19,0.0458567980692,0.000274620190469,0.139250797795,0.0356431803763,0.205699668496,0.137788218831,0.0117708365264,0.472317439357
tagged_abstract_sents/12804481.txt,20,0.0458567980692,0.0103080650065,0.139250797795,0.0356431803763,0.297835949393,0.161984527424,0.015040977782,0.593926859066
tagged_abstract_sents/12804481.txt,21,0.0458567980692,0.0212536411695,0.139250797795,0.0356431803763,0.39620184354,0.187713134681,0.0340744600776,0.739243957997
tagged_abstract_sents/12804481.txt,22,0.0245374094932,-0.0127992624486,0.139250797795,0.0356431803763,2.44557605463e-05,0.178370611794,0.0452384054195,0.321021901089
tagged_abstract_sents/12804481.txt,23,0.0245374094932,0.0142606341765,0.139250797795,0.0356431803763,0.326775954984,0.159633660959,0.0104495214064,0.59965954479
tagged_abstract_sents/12804481.txt,24,0.0245374094932,0.0461852313185,0.139250797795,0.0356431803763,0.43252337885,0.217343722269,0.0183188359322,0.777371263919
tagged_abstract_sents/12804481.txt,25,0.00844730490748,-0.0170558754009,0.139250797795,0.0356431803763,3.09337531651e-05,0.122535461502,0.0189458795504,0.225177296662
tagged_abstract_sents/12804481.txt,26,0.00844730490748,-0.0124952186663,0.139250797795,0.0356431803763,0.3829728674,0.11114300019,0.0133207399687,0.592013760761
tagged_abstract_sents/12804481.txt,27,0.00844730490748,-0.0131033062309,0.139250797795,0.0356431803763,0.230635389557,0.19454228844,0.036303630363,0.54593684405
tagged_abstract_sents/12804481.txt,28,0.00120675784393,0.0510499318353,0.139250797795,0.0356431803763,0.140736203402,0.261032005155,0.0299725072326,0.523234461442
tagged_abstract_sents/12804481.txt,29,0.00120675784393,-0.0252650575231,0.139250797795,0.0356431803763,0.0,0.0,0.0,0.0762307477808
tagged_abstract_sents/12804481.txt,30,0.00120675784393,0.00544336448965,0.139250797795,0.0356431803763,0.408359183393,0.18571476473,0.0308274594772,0.707273839784
tagged_abstract_sents/12804481.txt,31,0.00120675784393,-0.00641434302023,0.139250797795,0.0356431803763,0.281438284669,0.139810928587,0.0154685828694,0.516718686807
