tagged_abstract_sents/12804438.txt,1,0.206355591311,-0.031676106566,0.0616692308323,0.106008497564,0.000198541705707,0.0,0.0,0.221386416421
tagged_abstract_sents/12804438.txt,3,0.206355591311,-0.000104887770086,0.188769469584,0.129715814208,0.000198541705707,0.0597534942353,0.0570120130086,0.415189225686
tagged_abstract_sents/12804438.txt,4,0.206355591311,-0.0180931403398,0.188769469584,0.129715814208,0.000198541705707,0.0301623120462,0.0870146678171,0.411942303899
tagged_abstract_sents/12804438.txt,5,0.206355591311,-0.031676106566,0.0616692308323,0.106008497564,0.000198541705707,0.0,0.0,0.221386416421
tagged_abstract_sents/12804438.txt,6,0.0048270313757,0.040276903713,0.0616692308323,0.106008497564,0.000198541705707,0.100833606615,0.0630332662257,0.31992567235
tagged_abstract_sents/12804438.txt,7,0.0048270313757,-0.0298405705895,0.0616692308323,0.106008497564,0.000198541705707,0.0,0.0,0.060530675668
tagged_abstract_sents/12804438.txt,8,0.0048270313757,0.12177470107,0.0616692308323,0.106008497564,0.000198541705707,0.0968451508406,0.071697344454,0.39370609207
tagged_abstract_sents/12804438.txt,9,0.0108608205953,-0.0037759597231,0.0616692308323,0.106008497564,0.000198541705707,0.100030206563,0.0816571397757,0.325296372126
tagged_abstract_sents/12804438.txt,10,0.0108608205953,0.0501887979862,0.0616692308323,0.106008497564,0.000198541705707,0.0803860955065,0.0736626402071,0.422853588928
tagged_abstract_sents/12804438.txt,11,0.0108608205953,-0.0250681770506,0.0616692308323,0.106008497564,0.000198541705707,0.0,0.0,0.0663121857514
tagged_abstract_sents/12804438.txt,12,0.0261464199517,-0.0111181036291,0.0616692308323,0.106008497564,0.000198541705707,0.0386265051951,0.0719468193584,0.368090204726
tagged_abstract_sents/12804438.txt,13,0.0261464199517,-0.0147891755821,0.0616692308323,0.106008497564,0.000198541705707,0.0706190490749,0.0715846994536,0.386298391252
tagged_abstract_sents/12804438.txt,14,0.0353982300885,-0.0059786028949,0.0616692308323,0.106008497564,0.000198541705707,0.0311789874302,0.0313201035375,0.152267520465
tagged_abstract_sents/12804438.txt,15,0.0518905872888,-0.0309418921754,0.0616692308323,0.106008497564,0.000198541705707,0.0,0.0,0.0979612560813
tagged_abstract_sents/12804438.txt,16,0.0518905872888,-0.0217642122928,0.0616692308323,0.106008497564,0.000198541705707,0.0517651023614,0.0528276727586,0.367792471404
tagged_abstract_sents/12804438.txt,17,0.0993563958166,-0.000104887770086,0.0616692308323,0.106008497564,0.000198541705707,0.05386929044,0.0444514501892,0.240430156949
tagged_abstract_sents/12804438.txt,18,0.0993563958166,-0.0188273547304,0.0616692308323,0.106008497564,0.000198541705707,0.0314907259799,0.0956427955134,0.265548276914
tagged_abstract_sents/12804438.txt,19,0.0993563958166,0.000629326620516,0.139250797795,0.521468892835,0.000198541705707,0.0244501409998,0.0531348863963,0.383286142068
tagged_abstract_sents/12804438.txt,20,0.172566371681,0.00466750576883,0.139250797795,0.521468892835,0.000198541705707,0.0396078211098,0.074947054671,0.585971382059
tagged_abstract_sents/12804438.txt,21,0.172566371681,-0.0037759597231,0.139250797795,0.521468892835,0.000198541705707,0.0632891404111,0.0780999630223,0.657003631833
tagged_abstract_sents/12804438.txt,23,0.206355591311,0.00576882735473,0.139250797795,0.521468892835,0.000198541705707,0.0796407883805,0.0682565789474,0.643641667272
tagged_abstract_sents/12804438.txt,24,0.206355591311,0.0380742605412,0.139250797795,0.521468892835,0.000198541705707,0.0999927197889,0.0509898379829,0.612917007651
tagged_abstract_sents/12804438.txt,25,0.206355591311,-0.0272708202224,0.0616692308323,0.106008497564,0.000198541705707,0.0,0.0,0.22226747369
tagged_abstract_sents/12804438.txt,26,0.262268704747,0.00173064820642,0.188769469584,0.129715814208,0.000198541705707,0.053522359052,0.0508063980885,0.496530718109
tagged_abstract_sents/12804438.txt,27,0.262268704747,0.00797147052654,0.188769469584,0.129715814208,0.000198541705707,0.070603763854,0.0820534943917,0.497447922031
tagged_abstract_sents/12804438.txt,28,0.262268704747,-0.0129536396056,0.188769469584,0.129715814208,0.000198541705707,0.0314034672353,0.0182916307161,0.390417354588
