tagged_abstract_sents/12823497.txt,1,0.239742558327,0.0992481203008,0.188769469584,0.202456734834,0.188285919063,0.522517162138,0.0332804813595,1.11084898852
tagged_abstract_sents/12823497.txt,2,0.218020917136,-0.0635049161365,0.210342442448,0.226435992083,0.312045424217,0.252005663992,0.0464233443103,0.94529220185
tagged_abstract_sents/12823497.txt,3,0.101769911504,0.0741469057259,0.194899689933,0.13295610691,0.407540313237,0.488554577843,0.0378470169908,1.16752389546
tagged_abstract_sents/12823497.txt,4,0.0711987127916,-0.0796992481203,0.139250797795,0.0356431803763,0.0,0.176215177487,0.0304693477032,0.328021998809
tagged_abstract_sents/12823497.txt,5,0.0245374094932,-0.0618854829381,0.139250797795,0.0356431803763,7.82405183699e-06,0.231894961619,0.0413900649905,0.360864034679
tagged_abstract_sents/12823497.txt,6,0.00844730490748,-0.052978600347,0.139250797795,0.0356431803763,0.373975035921,0.255075039544,0.0530476277595,0.758578180092
tagged_abstract_sents/12823497.txt,7,0.00120675784393,0.0846732215153,0.139250797795,0.0356431803763,0.145178430515,0.482591755624,0.0377840793593,0.763772669086
