tagged_abstract_sents/12821233.txt,1,0.206355591311,-0.065121231979,0.0616692308323,0.106008497564,0.453569010791,0.0,0.0,0.214697391339
tagged_abstract_sents/12821233.txt,2,0.206355591311,0.0076998689384,0.188769469584,0.129715814208,0.453569010791,0.154024399068,0.0114292329063,0.648069649523
tagged_abstract_sents/12821233.txt,3,0.0048270313757,-0.065121231979,0.188769469584,0.129715814208,0.453569010791,0.0,0.0,0.124136857759
tagged_abstract_sents/12821233.txt,4,0.0048270313757,-0.00835517693316,0.188769469584,0.129715814208,0.453569010791,0.105238502523,0.0,0.350207989642
tagged_abstract_sents/12821233.txt,6,0.0261464199517,-0.0668414154653,0.188769469584,0.129715814208,0.453569010791,0.0,0.0,0.140848331923
tagged_abstract_sents/12821233.txt,7,0.0353982300885,0.163663171691,0.139250797795,0.521468892835,0.453569010791,0.173687221397,0.00851106371634,0.5863401322
tagged_abstract_sents/12821233.txt,8,0.0518905872888,-0.0668414154653,0.139250797795,0.521468892835,0.453569010791,0.0,0.0,0.254210253486
tagged_abstract_sents/12821233.txt,9,0.0993563958166,0.0524246395806,0.139250797795,0.521468892835,0.453569010791,0.127370615969,0.0213068181818,0.760204665653
tagged_abstract_sents/12821233.txt,10,0.172566371681,0.0352228047182,0.139250797795,0.521468892835,0.453569010791,0.121697961666,0.00999816715543,0.502859853858
tagged_abstract_sents/12821233.txt,11,0.172566371681,0.0277686762779,0.139250797795,0.521468892835,0.453569010791,0.113960809148,0.0147360703812,0.498369778878
tagged_abstract_sents/12821233.txt,12,0.206355591311,-0.00892857142857,0.139250797795,0.521468892835,0.453569010791,0.0809563257817,0.0174086910157,0.620851943305
tagged_abstract_sents/12821233.txt,13,0.262268704747,-0.0645478374836,0.139250797795,0.521468892835,0.453569010791,0.0,0.0,0.422971463048
