tagged_abstract_sents/12831090.txt,1,0.0253827558421,-0.0482580037665,0.188769469584,0.123191979006,0.361292193509,0.1667349238,0.0453493779793,0.706226247815
tagged_abstract_sents/12831090.txt,2,0.0805801772764,-0.0270715630885,0.188769469584,0.123191979006,0.361292193509,0.148856345747,0.0516156759181,0.642838201074
tagged_abstract_sents/12831090.txt,3,0.123690572119,-0.0171845574388,0.188769469584,0.123191979006,0.361292193509,0.242175966677,0.0216391606851,0.578433387401
tagged_abstract_sents/12831090.txt,4,0.140209508461,0.00823917137476,0.139250797795,0.194462959676,0.361292193509,0.295994570546,0.0211259790088,0.692261474411
tagged_abstract_sents/12831090.txt,5,0.149879129734,-0.0129472693032,0.139250797795,0.194462959676,0.361292193509,0.167953311558,0.0257818858272,0.778652208312
tagged_abstract_sents/12831090.txt,7,0.166800966962,0.104990583804,0.139250797795,0.194462959676,0.361292193509,0.266591010585,0.0380312920425,1.02706317219
tagged_abstract_sents/12831090.txt,8,0.0954875100725,-0.0228342749529,0.139250797795,0.194462959676,0.361292193509,0.1544024696,0.0131982161543,0.627526166262
tagged_abstract_sents/12831090.txt,9,0.0342465753425,-0.0447269303202,0.139250797795,0.194462959676,0.361292193509,0.188331792392,0.019445413324,0.715485560235
