tagged_abstract_sents/12861176.txt,1,0.239742558327,-0.117156862745,0.0616692308323,0.142474783506,0.0,0.0,0.0,0.24193972458
tagged_abstract_sents/12861176.txt,2,0.218020917136,0.119705882353,0.188769469584,0.202456734834,0.231628849208,0.297652865015,0.032327519679,0.915088899323
tagged_abstract_sents/12861176.txt,3,0.162510056315,-0.114803921569,0.0616692308323,0.142474783506,0.0,0.0,0.0,0.180624311206
tagged_abstract_sents/12861176.txt,4,0.0852775543041,0.239705882353,0.210342442448,0.226435992083,0.173198029037,0.337000169645,0.0334561190187,0.832919556464
tagged_abstract_sents/12861176.txt,5,0.0458567980692,0.0444117647059,0.0616692308323,0.142474783506,0.252979755823,0.227201266854,0.034588937203,0.633914801745
tagged_abstract_sents/12861176.txt,6,0.0245374094932,-0.00892156862745,0.0616692308323,0.142474783506,0.0670227283238,0.0978012491368,0.0256689882698,0.281915630067
tagged_abstract_sents/12861176.txt,7,0.00844730490748,-0.11637254902,0.139250797795,0.0356431803763,0.0,0.0,0.0,0.0638016871323
tagged_abstract_sents/12861176.txt,8,0.00120675784393,-0.046568627451,0.139250797795,0.0356431803763,0.298139534554,0.142912832456,0.0329985337243,0.546020934529
