tagged_abstract_sents/12861153.txt,1,0.206355591311,-0.0700454978309,0.0616692308323,0.106008497564,0.359777574584,0.0,0.0,0.213712538168
tagged_abstract_sents/12861153.txt,3,0.0048270313757,-0.0679822241033,0.0616692308323,0.106008497564,0.359777574584,0.0,0.0,0.0529023449652
tagged_abstract_sents/12861153.txt,4,0.0108608205953,-0.057665855465,0.0616692308323,0.106008497564,0.359777574584,0.0364095416973,0.0274547187798,0.123656910546
tagged_abstract_sents/12861153.txt,6,0.0261464199517,-0.0714210136493,0.139250797795,0.521468892835,0.359777574584,0.0,0.0,0.232698999979
tagged_abstract_sents/12861153.txt,7,0.0518905872888,-0.0329065707333,0.139250797795,0.521468892835,0.359777574584,0.0971558011162,0.0443279313632,0.663585364459
tagged_abstract_sents/12861153.txt,8,0.0993563958166,-0.00264522272775,0.139250797795,0.521468892835,0.359777574584,0.179580780422,0.0493876952409,0.815542478732
tagged_abstract_sents/12861153.txt,9,0.0993563958166,0.0812612421966,0.139250797795,0.521468892835,0.359777574584,0.226645598244,0.0440737210041,0.798538179913
tagged_abstract_sents/12861153.txt,10,0.172566371681,0.0482488625542,0.139250797795,0.521468892835,0.359777574584,0.130336666103,0.0392755004766,0.688267040076
tagged_abstract_sents/12861153.txt,11,0.206355591311,-0.0108983176383,0.139250797795,0.521468892835,0.359777574584,0.168129853144,0.0519343819511,0.835170884567
tagged_abstract_sents/12861153.txt,12,0.262268704747,-0.0693577399217,0.139250797795,0.521468892835,0.359777574584,0.0,0.0,0.422009482561
tagged_abstract_sents/12861153.txt,13,0.262268704747,-0.000581949000106,0.139250797795,0.521468892835,0.359777574584,0.148844379301,0.0510659502557,0.995452544886
