tagged_abstract_sents/12875251.txt,1,0.206355591311,-0.030115635998,0.188769469584,0.129715814208,0.0862826536154,0.898580915221,0.0523209080649,1.32880617461
tagged_abstract_sents/12875251.txt,2,0.0048270313757,-0.0319255907491,0.188769469584,0.129715814208,0.0862826536154,0.752031407706,0.04192005716,1.00748165264
tagged_abstract_sents/12875251.txt,4,0.0261464199517,0.0169431875314,0.188769469584,0.129715814208,0.0862826536154,0.671541056757,0.0495010052345,0.992048792524
tagged_abstract_sents/12875251.txt,5,0.0518905872888,-0.0287581699346,0.188769469584,0.129715814208,0.0862826536154,0.832204957515,0.0458092121822,1.0756261279
tagged_abstract_sents/12875251.txt,6,0.0993563958166,0.0142282554047,0.188769469584,0.129715814208,0.0862826536154,0.979527313506,0.0488134708761,1.24397103117
tagged_abstract_sents/12875251.txt,7,0.172566371681,-0.0789844142785,0.188769469584,0.129715814208,0.0862826536154,0.34732775481,0.0304057766266,0.63328922498
tagged_abstract_sents/12875251.txt,8,0.206355591311,-0.023780794369,0.188769469584,0.129715814208,0.0862826536154,0.57497581594,0.0419426500548,1.05244032482
