tagged_abstract_sents/12900480.txt,1,0.206355591311,-0.0117370892019,0.188769469584,0.129715814208,0.10278422405,0.127588482833,0.0197498697238,0.589176329126
tagged_abstract_sents/12900480.txt,3,0.0353982300885,0.0333333333333,0.188769469584,0.129715814208,0.10278422405,0.109883712782,0.0161542470036,0.294322689578
tagged_abstract_sents/12900480.txt,5,0.206355591311,-0.018779342723,0.0616692308323,0.106008497564,0.10278422405,0.159821481941,0.0407764460657,0.424563697196
tagged_abstract_sents/12900480.txt,6,0.262268704747,-0.0779342723005,0.139250797795,0.521468892835,0.10278422405,0.116635387642,0.0117827572231,0.651496545001
