tagged_abstract_sents/12913777.txt,1,0.206355591311,-0.0538907939858,0.0616692308323,0.106008497564,0.401416854316,0.0,0.0,0.216943478937
tagged_abstract_sents/12913777.txt,3,0.206355591311,0.0384858876286,0.188769469584,0.129715814208,0.401416854316,0.396063047831,0.0625157232704,1.00701084666
tagged_abstract_sents/12913777.txt,4,0.0048270313757,0.0138222104985,0.0616692308323,0.106008497564,0.401416854316,0.370793383103,0.0549316162524,0.777208549923
tagged_abstract_sents/12913777.txt,5,0.0048270313757,-0.0552360854656,0.0616692308323,0.106008497564,0.401416854316,0.0,0.0,0.0554515726927
tagged_abstract_sents/12913777.txt,6,0.0108608205953,0.0124769190187,0.139250797795,0.521468892835,0.401416854316,0.40201189544,0.045086396604,0.785100314803
tagged_abstract_sents/12913777.txt,8,0.0261464199517,0.00350830915326,0.139250797795,0.521468892835,0.401416854316,0.353103559542,0.0480112380382,0.993213803952
tagged_abstract_sents/12913777.txt,9,0.0518905872888,0.00350830915326,0.139250797795,0.521468892835,0.401416854316,0.393060883447,0.0392333033842,0.895801168494
tagged_abstract_sents/12913777.txt,10,0.0518905872888,-0.0552360854656,0.139250797795,0.521468892835,0.401416854316,0.0,0.0,0.256531319486
tagged_abstract_sents/12913777.txt,11,0.0993563958166,-0.0350567132683,0.139250797795,0.521468892835,0.401416854316,0.159395598261,0.0567285614455,0.74773148527
tagged_abstract_sents/12913777.txt,12,0.172566371681,0.00933790556581,0.139250797795,0.521468892835,0.401416854316,0.360733587411,0.0554058101228,0.946642024216
tagged_abstract_sents/12913777.txt,13,0.172566371681,0.145660775521,0.139250797795,0.521468892835,0.401416854316,0.520282552394,0.0528891207528,1.06455224305
tagged_abstract_sents/12913777.txt,14,0.206355591311,-0.00635716169876,0.139250797795,0.521468892835,0.401416854316,0.286447907339,0.0534092043526,0.976182119084
tagged_abstract_sents/12913777.txt,15,0.206355591311,-0.0431284621472,0.0616692308323,0.106008497564,0.401416854316,0.162159990983,0.0478839818462,0.679954438778
tagged_abstract_sents/12913777.txt,16,0.262268704747,-0.0534423634925,0.139250797795,0.521468892835,0.401416854316,0.0,0.0,0.425192557847
tagged_abstract_sents/12913777.txt,17,0.262268704747,0.00395673964653,0.139250797795,0.521468892835,0.401416854316,0.332447801416,0.058505540581,1.22904257479
