tagged_abstract_sents/12911018.txt,1,0.206355591311,-0.0403778554319,0.0616692308323,0.106008497564,5.80873903963e-06,0.0,0.0,0.219646066648
tagged_abstract_sents/12911018.txt,2,0.206355591311,-0.0160515973828,0.188769469584,0.129715814208,5.80873903963e-06,0.543330392021,0.0275947757744,0.866119056995
tagged_abstract_sents/12911018.txt,3,0.206355591311,-0.0387084063501,0.0616692308323,0.106008497564,5.80873903963e-06,0.0761822138679,0.0399835298197,0.336145700152
tagged_abstract_sents/12911018.txt,4,0.206355591311,-0.0408548408839,0.0616692308323,0.106008497564,5.80873903963e-06,0.0,0.0,0.219550669558
tagged_abstract_sents/12911018.txt,5,0.0048270313757,-0.014143655575,0.0616692308323,0.106008497564,5.80873903963e-06,0.298388115063,0.0102851941748,0.485333136814
tagged_abstract_sents/12911018.txt,6,0.0048270313757,-0.0370389572683,0.0616692308323,0.106008497564,5.80873903963e-06,0.0,0.0,0.0590909983322
tagged_abstract_sents/12911018.txt,7,0.0108608205953,0.0335548896193,0.139250797795,0.521468892835,5.80873903963e-06,0.838432664326,0.0313118033082,1.15378502607
tagged_abstract_sents/12911018.txt,8,0.0108608205953,-0.0208214519022,0.139250797795,0.521468892835,5.80873903963e-06,0.297516012708,0.0333131067961,0.568942060062
tagged_abstract_sents/12911018.txt,9,0.0108608205953,-0.0415703190618,0.0616692308323,0.106008497564,5.80873903963e-06,0.0,0.0,0.0630117573492
tagged_abstract_sents/12911018.txt,10,0.0261464199517,-0.0196289882724,0.0616692308323,0.106008497564,5.80873903963e-06,0.393257485016,0.0320263420902,0.520712035994
tagged_abstract_sents/12911018.txt,12,0.0518905872888,0.00517425522869,0.0616692308323,0.106008497564,5.80873903963e-06,0.464554999712,0.0535152802295,0.643684634921
tagged_abstract_sents/12911018.txt,13,0.0518905872888,-0.0208214519022,0.0616692308323,0.106008497564,5.80873903963e-06,0.294428668073,0.0300905859917,0.492589482016
tagged_abstract_sents/12911018.txt,14,0.0993563958166,-0.00388846835824,0.0616692308323,0.106008497564,5.80873903963e-06,0.613762210258,0.0302606585057,0.785378796155
tagged_abstract_sents/12911018.txt,15,0.0993563958166,0.000642893435228,0.0616692308323,0.106008497564,5.80873903963e-06,0.448509849352,0.0315801684752,0.622357264553
tagged_abstract_sents/12911018.txt,16,0.0993563958166,-0.0177210464646,0.0616692308323,0.106008497564,5.80873903963e-06,0.292187159288,0.0229166666667,0.532965389259
tagged_abstract_sents/12911018.txt,17,0.172566371681,0.00159686433912,0.0616692308323,0.106008497564,5.80873903963e-06,0.468259755149,0.0549908980583,0.735000310353
tagged_abstract_sents/12911018.txt,18,0.172566371681,-0.0258297991476,0.0616692308323,0.106008497564,5.80873903963e-06,0.218244686878,0.0265726132686,0.440371207236
tagged_abstract_sents/12911018.txt,19,0.206355591311,-0.0372774499943,0.0616692308323,0.106008497564,5.80873903963e-06,0.0,0.0,0.220266147736
tagged_abstract_sents/12911018.txt,20,0.206355591311,-0.0172440610127,0.139250797795,0.521468892835,5.80873903963e-06,0.318120053291,0.0332524271845,0.810248971583
tagged_abstract_sents/12911018.txt,22,0.262268704747,-0.0406163481579,0.139250797795,0.521468892835,5.80873903963e-06,0.0,0.0,0.427757760914
tagged_abstract_sents/12911018.txt,23,0.262268704747,0.06193552401,0.139250797795,0.521468892835,5.80873903963e-06,0.737714054352,0.0426274271845,1.22861542562
