tagged_abstract_sents/12917299.txt,1,0.0954875100725,-0.0705165539178,0.0616692308323,0.247294108221,0.404122810669,0.0,0.0,0.167309545157
tagged_abstract_sents/12917299.txt,2,0.0253827558421,0.000537610322118,0.188769469584,0.123191979006,0.404122810669,0.237519126892,0.051916547457,0.730871037778
tagged_abstract_sents/12917299.txt,4,0.123690572119,-0.0722637874647,0.0616692308323,0.247294108221,0.404122810669,0.0,0.0,0.189522548085
tagged_abstract_sents/12917299.txt,5,0.123690572119,0.129250481609,0.210342442448,0.141687475369,0.404122810669,0.334295179209,0.0794322510188,0.996690811415
tagged_abstract_sents/12917299.txt,6,0.140209508461,-0.047220106626,0.0616692308323,0.247294108221,0.404122810669,0.085285131952,0.0337435296416,0.32677509492
tagged_abstract_sents/12917299.txt,7,0.149879129734,-0.0722637874647,0.139250797795,0.194462959676,0.404122810669,0.0,0.0,0.233414833095
tagged_abstract_sents/12917299.txt,8,0.176470588235,0.0849872317548,0.139250797795,0.194462959676,0.404122810669,0.243547070833,0.0442995735261,0.640377855499
tagged_abstract_sents/12917299.txt,9,0.176470588235,0.0844048205726,0.139250797795,0.194462959676,0.404122810669,0.228337983726,0.0300063770014,0.621055984047
tagged_abstract_sents/12917299.txt,10,0.166800966962,0.0162627122441,0.139250797795,0.194462959676,0.404122810669,0.155744582899,0.0239356307332,0.444337816451
tagged_abstract_sents/12917299.txt,11,0.0954875100725,-0.0699341427355,0.139250797795,0.194462959676,0.404122810669,0.0,0.0,0.190367466311
tagged_abstract_sents/12917299.txt,12,0.0342465753425,0.0156803010618,0.139250797795,0.194462959676,0.404122810669,0.278761394533,0.0831095159032,0.995200077226
tagged_abstract_sents/12917299.txt,13,0.0342465753425,-0.0227588369697,0.139250797795,0.194462959676,0.404122810669,0.251309618876,0.0777606383895,0.884002847615
