tagged_abstract_sents/12941675.txt,1,0.206355591311,-0.0440154440154,0.0616692308323,0.106008497564,0.346409770139,0.0,0.0,0.218918548931
tagged_abstract_sents/12941675.txt,2,0.206355591311,0.0312097812098,0.188769469584,0.129715814208,0.346409770139,0.454774060548,0.0753134025365,1.10643410625
tagged_abstract_sents/12941675.txt,3,0.206355591311,-0.00302445302445,0.188769469584,0.129715814208,0.346409770139,0.262354644484,0.0385814741953,0.965323307395
tagged_abstract_sents/12941675.txt,4,0.206355591311,-0.0431145431145,0.0616692308323,0.106008497564,0.346409770139,0.0,0.0,0.219098729111
tagged_abstract_sents/12941675.txt,6,0.0048270313757,-0.0390604890605,0.0616692308323,0.106008497564,0.346409770139,0.0,0.0,0.0586866919738
tagged_abstract_sents/12941675.txt,7,0.0108608205953,0.0685971685972,0.0616692308323,0.106008497564,0.346409770139,0.434301314981,0.0544394152177,0.680861772219
tagged_abstract_sents/12941675.txt,8,0.0108608205953,-0.0417631917632,0.0616692308323,0.106008497564,0.346409770139,0.0,0.0,0.0629731828089
tagged_abstract_sents/12941675.txt,10,0.0261464199517,-0.0417631917632,0.0616692308323,0.106008497564,0.346409770139,0.0,0.0,0.075201662294
tagged_abstract_sents/12941675.txt,11,0.0518905872888,0.0199485199485,0.194899689933,0.0581677376677,0.346409770139,0.382829422283,0.0579599495143,0.82281052352
tagged_abstract_sents/12941675.txt,12,0.0518905872888,-0.0377091377091,0.0616692308323,0.106008497564,0.346409770139,0.0,0.0,0.0966078069745
tagged_abstract_sents/12941675.txt,13,0.0993563958166,0.0181467181467,0.139250797795,0.521468892835,0.346409770139,0.288607487022,0.0646022560797,0.964756588068
tagged_abstract_sents/12941675.txt,14,0.0993563958166,-0.0440154440154,0.0616692308323,0.106008497564,0.346409770139,0.0,0.0,0.133319192535
tagged_abstract_sents/12941675.txt,15,0.172566371681,0.0712998712999,0.139250797795,0.521468892835,0.346409770139,0.370577523086,0.0526106065045,0.964585370645
tagged_abstract_sents/12941675.txt,16,0.172566371681,0.0370656370656,0.139250797795,0.521468892835,0.346409770139,0.340825839486,0.0779572756572,1.03113187067
tagged_abstract_sents/12941675.txt,17,0.206355591311,-0.0250965250965,0.139250797795,0.521468892835,0.346409770139,0.183166908751,0.0325031741381,0.957597086131
tagged_abstract_sents/12941675.txt,18,0.206355591311,0.0118404118404,0.139250797795,0.521468892835,0.346409770139,0.395758876156,0.0695282742455,1.09361943812
tagged_abstract_sents/12941675.txt,19,0.262268704747,0.0393178893179,0.139250797795,0.521468892835,0.346409770139,0.419208488965,0.0689303425899,1.13795100592
tagged_abstract_sents/12941675.txt,20,0.262268704747,-0.0426640926641,0.0616692308323,0.106008497564,0.346409770139,0.0,0.0,0.26391930995
tagged_abstract_sents/12941675.txt,21,0.262268704747,0.0235521235521,0.139250797795,0.521468892835,0.346409770139,0.387897824812,0.055773738421,1.23067278863
