tagged_abstract_sents/1331788.txt,1,0.125905068383,-0.0656299420137,0.0616692308323,0.142474783506,0.0,0.0,0.0,0.161175116771
tagged_abstract_sents/1331788.txt,2,0.239742558327,-0.0150237216658,0.188769469584,0.202456734834,0.291616293226,0.425855833614,0.0840928592357,1.14547604365
tagged_abstract_sents/1331788.txt,3,0.218020917136,0.0197680548234,0.188769469584,0.202456734834,0.190331702259,0.378926906636,0.06567085127,0.968421560081
tagged_abstract_sents/1331788.txt,4,0.218020917136,-0.0672113863996,0.0616692308323,0.142474783506,0.0,0.0,0.0,0.234551506897
tagged_abstract_sents/1331788.txt,5,0.162510056315,0.0614127569847,0.210342442448,0.226435992083,0.341499444257,0.521199789684,0.0913752230775,1.26946707232
tagged_abstract_sents/1331788.txt,6,0.101769911504,0.0276752767528,0.194899689933,0.13295610691,0.203603717704,0.4451223991,0.110773931606,0.983787710003
tagged_abstract_sents/1331788.txt,7,0.0852775543041,0.0340010542963,0.139250797795,0.0356431803763,0.0852194429708,0.489296598462,0.118238170231,0.848094818977
tagged_abstract_sents/1331788.txt,8,0.0711987127916,-0.0672113863996,0.139250797795,0.0356431803763,0.0,0.0,0.0,0.123835045964
tagged_abstract_sents/1331788.txt,9,0.0458567980692,0.0767000527148,0.139250797795,0.0356431803763,0.289366757416,0.470324283895,0.0942572516847,0.986292095005
tagged_abstract_sents/1331788.txt,10,0.0245374094932,-0.0171323141803,0.139250797795,0.0356431803763,0.14143721107,0.249559709379,0.0519723348806,0.539491073099
tagged_abstract_sents/1331788.txt,11,0.0245374094932,0.0698471270427,0.139250797795,0.0356431803763,0.11644780753,0.449840341408,0.121596431494,0.801802286446
tagged_abstract_sents/1331788.txt,12,0.00844730490748,0.0102793885082,0.139250797795,0.0356431803763,0.169044055088,0.395430063721,0.0899445558836,0.743550749331
tagged_abstract_sents/1331788.txt,13,0.00120675784393,-0.0651027938851,0.0616692308323,0.142474783506,0.0,0.0,0.0,0.061521897966
tagged_abstract_sents/1331788.txt,14,0.00120675784393,-0.00237216657881,0.139250797795,0.0356431803763,0.427500326096,0.37424792312,0.0906123644887,0.973169939675
