tagged_abstract_sents/1337553.txt,3,0.0108608205953,-0.0307753796962,0.139250797795,0.521468892835,0.209711783908,0.404385869483,0.0448449507816,0.775819396874
tagged_abstract_sents/1337553.txt,4,0.0261464199517,-0.0517585931255,0.194899689933,0.0581677376677,0.209711783908,0.253635308245,0.0381516745456,0.521155558432
tagged_abstract_sents/1337553.txt,5,0.0518905872888,-0.0445643485212,0.0616692308323,0.106008497564,0.209711783908,0.619918108363,0.0458752247154,0.995658255375
tagged_abstract_sents/1337553.txt,6,0.0993563958166,-0.0223820943245,0.0616692308323,0.106008497564,0.209711783908,0.468069932291,0.0381960627649,0.851683290731
tagged_abstract_sents/1337553.txt,7,0.172566371681,-0.00559552358114,0.139250797795,0.521468892835,0.209711783908,0.608750299103,0.0390274882585,1.26182585043
tagged_abstract_sents/1337553.txt,8,0.206355591311,-0.0307753796962,0.139250797795,0.521468892835,0.209711783908,0.417654955136,0.0489613156668,1.1750097995
tagged_abstract_sents/1337553.txt,9,0.262268704747,0.0717426059153,0.139250797795,0.521468892835,0.209711783908,0.723413883058,0.0553363588916,1.43869157759
