tagged_abstract_sents/1434928.txt,1,0.239742558327,-0.0326140873016,0.188769469584,0.202456734834,0.491934089595,0.121919365959,0.0692622318259,1.02350867182
tagged_abstract_sents/1434928.txt,2,0.218020917136,-0.0031001984127,0.188769469584,0.202456734834,2.20386653034e-06,0.141013359466,0.0702555509007,0.540189563502
tagged_abstract_sents/1434928.txt,3,0.101769911504,0.0455109126984,0.210342442448,0.226435992083,0.551689284408,0.159989459196,0.0516862170088,1.0269850912
tagged_abstract_sents/1434928.txt,4,0.0711987127916,-0.0890376984127,0.0616692308323,0.142474783506,0.390729446298,0.0893051977821,0.0419843597263,0.634747484825
tagged_abstract_sents/1434928.txt,5,0.0245374094932,-0.0031001984127,0.139250797795,0.0356431803763,0.145480079422,0.13397211825,0.062206744868,0.440987183463
tagged_abstract_sents/1434928.txt,6,0.00844730490748,0.0515873015873,0.139250797795,0.0356431803763,0.498750604293,0.176339357687,0.0867565982405,0.859240217475
tagged_abstract_sents/1434928.txt,7,0.00120675784393,0.030753968254,0.139250797795,0.0356431803763,0.562197866138,0.16012214165,0.0648093841642,0.874563944888
