tagged_abstract_sents/1444726.txt,2,0.123690572119,0.0851619644723,0.194899689933,0.293363477728,0.142001001719,0.250916716304,0.02854672863,0.715996921039
tagged_abstract_sents/1444726.txt,3,0.149073327961,0.0370950888192,0.210342442448,0.141687475369,0.142001001719,0.183201450329,0.0276463700234,0.600672145522
tagged_abstract_sents/1444726.txt,4,0.176470588235,-0.101880877743,0.139250797795,0.194462959676,0.142001001719,0.100593455587,0.0164352626296,0.601100387062
tagged_abstract_sents/1444726.txt,5,0.0954875100725,-0.0559038662487,0.139250797795,0.194462959676,0.142001001719,0.175867240406,0.0209754607474,0.584329054269
tagged_abstract_sents/1444726.txt,6,0.0342465753425,-0.0161964472309,0.139250797795,0.194462959676,0.142001001719,0.171836099907,0.026613888606,0.492573247861
