tagged_abstract_sents/1447433.txt,1,0.125905068383,-0.0421100638492,0.0616692308323,0.142474783506,0.0,0.0,0.0,0.165879092404
tagged_abstract_sents/1447433.txt,2,0.125905068383,0.0384919428398,0.188769469584,0.202456734834,0.290981364007,0.493545154861,0.0100928421683,1.05816355955
tagged_abstract_sents/1447433.txt,3,0.239742558327,-0.0431134083308,0.0616692308323,0.142474783506,0.0,0.0,0.0,0.256748415463
tagged_abstract_sents/1447433.txt,4,0.239742558327,0.0287929461843,0.210342442448,0.226435992083,0.222082400625,0.500833357913,0.00996531702557,1.10353573031
tagged_abstract_sents/1447433.txt,5,0.218020917136,0.0478564913348,0.194899689933,0.13295610691,0.320848167154,0.510087012619,0.00956921620342,1.16182910499
tagged_abstract_sents/1447433.txt,6,0.218020917136,-0.0427789601703,0.0616692308323,0.142474783506,0.0,0.0,0.0,0.239437992143
tagged_abstract_sents/1447433.txt,7,0.162510056315,-0.00732745515354,0.0616692308323,0.142474783506,0.17542230609,0.285147555187,0.00706611260857,0.669755578375
tagged_abstract_sents/1447433.txt,8,0.162510056315,-0.0186986926117,0.0616692308323,0.142474783506,0.175967784494,0.22392101281,0.0042998331408,0.604033987443
tagged_abstract_sents/1447433.txt,9,0.101769911504,-0.00364852538766,0.0616692308323,0.142474783506,0.369477482986,0.254970139093,0.0144920302153,0.793202926888
tagged_abstract_sents/1447433.txt,10,0.101769911504,-0.0380966859228,0.0616692308323,0.142474783506,0.0,0.0,0.0,0.147373642487
tagged_abstract_sents/1447433.txt,11,0.0852775543041,-0.00431742170873,0.0616692308323,0.142474783506,0.175834801797,0.422964036013,0.0049296196466,0.744664067025
tagged_abstract_sents/1447433.txt,12,0.0711987127916,-0.0427789601703,0.0616692308323,0.142474783506,0.0,0.0,0.0,0.121980228667
tagged_abstract_sents/1447433.txt,13,0.0711987127916,0.026786257221,0.139250797795,0.0356431803763,0.347497172055,0.364141123617,0.0128455538628,0.867118424223
tagged_abstract_sents/1447433.txt,14,0.0458567980692,0.0324718759501,0.139250797795,0.0356431803763,0.279028075198,0.366812679609,0.00496031746032,0.774299238923
tagged_abstract_sents/1447433.txt,15,0.0458567980692,0.0103982973548,0.139250797795,0.0356431803763,0.405389989672,0.320559100801,0.0120477007269,0.857080242137
tagged_abstract_sents/1447433.txt,16,0.0245374094932,0.035481909395,0.139250797795,0.0356431803763,0.180260931794,0.524911849598,0.0102825197165,0.822499963592
tagged_abstract_sents/1447433.txt,17,0.0245374094932,-0.00398297354819,0.139250797795,0.0356431803763,0.257461476461,0.415340060613,0.0112908056304,0.783244028599
tagged_abstract_sents/1447433.txt,18,0.00844730490748,-0.00164183642445,0.139250797795,0.0356431803763,0.288571688727,0.310484625645,0.00780815470842,0.693612298732
tagged_abstract_sents/1447433.txt,19,0.00844730490748,-0.0417756156887,0.0616692308323,0.142474783506,0.0,0.0,0.0,0.0719797712561
tagged_abstract_sents/1447433.txt,20,0.00120675784393,0.0261173609,0.139250797795,0.0356431803763,0.377930954436,0.383338824267,0.00531296795448,0.853089978123
tagged_abstract_sents/1447433.txt,21,0.00120675784393,0.050532076619,0.139250797795,0.0356431803763,0.393926990404,0.401389503927,0.00549690526106,0.892203574201
tagged_abstract_sents/1447433.txt,22,0.00120675784393,-0.00665855883247,0.139250797795,0.0356431803763,0.322837912825,0.274956854273,0.0120045921933,0.68975140681
