tagged_abstract_sents/14530788.txt,2,0.0805801772764,-0.0712317985045,0.188769469584,0.123191979006,0.408489357468,0.279524694072,0.0411279124575,0.752886011444
tagged_abstract_sents/14530788.txt,3,0.140209508461,-0.0354191263282,0.188769469584,0.123191979006,0.408489357468,0.324796678965,0.0540000244164,0.986833312553
tagged_abstract_sents/14530788.txt,4,0.149879129734,0.0178407451135,0.188769469584,0.123191979006,0.408489357468,0.278790004885,0.0515500955729,0.941258646656
tagged_abstract_sents/14530788.txt,5,0.166800966962,-0.0161353797717,0.188769469584,0.123191979006,0.408489357468,0.423198925676,0.0721061278306,1.15005583309
tagged_abstract_sents/14530788.txt,6,0.0954875100725,0.0913026367572,0.188769469584,0.123191979006,0.408489357468,0.393881751136,0.0478996429773,0.8982459309
tagged_abstract_sents/14530788.txt,7,0.0342465753425,-0.0464384100748,0.188769469584,0.123191979006,0.408489357468,0.278363506724,0.0503467135462,0.886651484491
