tagged_abstract_sents/14557420.txt,2,0.0048270313757,-0.0927358817415,0.188769469584,0.129715814208,0.0994040414888,0.120505559454,0.018779163647,0.257898650908
tagged_abstract_sents/14557420.txt,4,0.0518905872888,-0.0207876198175,0.210342442448,0.0253702522065,0.0994040414888,0.383521491152,0.0236272183167,0.650600098446
tagged_abstract_sents/14557420.txt,5,0.172566371681,-0.0701004734958,0.0616692308323,0.106008497564,0.0994040414888,0.207326415965,0.0170990469652,0.411095630261
tagged_abstract_sents/14557420.txt,6,0.206355591311,0.122300496593,0.139250797795,0.521468892835,0.0994040414888,0.309725481406,0.0191097379563,0.744445858477
tagged_abstract_sents/14557420.txt,7,0.262268704747,-0.0248296570043,0.139250797795,0.521468892835,0.0994040414888,0.25268594488,0.023161890915,0.806166976428
