tagged_abstract_sents/14567259.txt,1,0.206355591311,-0.0691765980498,0.0616692308323,0.106008497564,4.21926580803e-05,0.0,0.0,0.213886318124
tagged_abstract_sents/14567259.txt,3,0.0048270313757,-0.00650054171181,0.188769469584,0.129715814208,4.21926580803e-05,0.0,0.0,0.135923586073
tagged_abstract_sents/14567259.txt,5,0.0108608205953,0.0188515709642,0.0616692308323,0.106008497564,4.21926580803e-05,0.0,0.0,0.0751344395735
tagged_abstract_sents/14567259.txt,6,0.0261464199517,-0.0712892741062,0.0616692308323,0.106008497564,4.21926580803e-05,0.0,0.0,0.0692964458254
tagged_abstract_sents/14567259.txt,7,0.0518905872888,0.030119176598,0.0616692308323,0.106008497564,4.21926580803e-05,0.0,0.0,0.110173469836
tagged_abstract_sents/14567259.txt,8,0.0993563958166,-0.0712892741062,0.0616692308323,0.106008497564,4.21926580803e-05,0.0,0.0,0.127864426517
tagged_abstract_sents/14567259.txt,9,0.0993563958166,0.102654387866,0.139250797795,0.521468892835,4.21926580803e-05,0.0,0.0,0.346275359202
tagged_abstract_sents/14567259.txt,10,0.172566371681,-0.0691765980498,0.139250797795,0.521468892835,4.21926580803e-05,0.0,0.0,0.350283844483
tagged_abstract_sents/14567259.txt,11,0.206355591311,0.0864572047671,0.139250797795,0.521468892835,4.21926580803e-05,0.0,0.0,0.433402893664
tagged_abstract_sents/14567259.txt,12,0.262268704747,0.0751895991333,0.139250797795,0.521468892835,4.21926580803e-05,0.0,0.0,0.450962276803
tagged_abstract_sents/14567259.txt,13,0.262268704747,-0.0128385698808,0.139250797795,0.521468892835,4.21926580803e-05,0.0,0.0,0.433355509227
