tagged_abstract_sents/14583951.txt,1,0.0954875100725,-0.0223674414015,0.0616692308323,0.247294108221,0.250905411294,0.0,0.0,0.17693936766
tagged_abstract_sents/14583951.txt,2,0.0954875100725,0.0199275199813,0.188769469584,0.123191979006,0.250905411294,0.198730272047,0.0590203106332,0.663883724973
tagged_abstract_sents/14583951.txt,3,0.0954875100725,-0.00673669480351,0.188769469584,0.123191979006,0.250905411294,0.187573818386,0.044651026393,0.806076705896
tagged_abstract_sents/14583951.txt,4,0.0954875100725,0.00576790247491,0.188769469584,0.123191979006,0.250905411294,0.159723998396,0.0448425347444,0.6740972779
tagged_abstract_sents/14583951.txt,5,0.0253827558421,-0.0223674414015,0.0616692308323,0.247294108221,0.250905411294,0.0,0.0,0.120855564276
tagged_abstract_sents/14583951.txt,7,0.0253827558421,0.00319342656464,0.0616692308323,0.247294108221,0.250905411294,0.119828427956,0.0227118382466,0.502012010061
tagged_abstract_sents/14583951.txt,8,0.0253827558421,-0.0214479857193,0.0616692308323,0.247294108221,0.250905411294,0.0,0.0,0.121039455412
tagged_abstract_sents/14583951.txt,9,0.0805801772764,0.00668735815714,0.0616692308323,0.247294108221,0.250905411294,0.145004591482,0.0515929085577,0.540672976298
tagged_abstract_sents/14583951.txt,10,0.0805801772764,-0.00875949730443,0.0616692308323,0.247294108221,0.250905411294,0.146916773865,0.0461807010194,0.694223665805
tagged_abstract_sents/14583951.txt,11,0.0805801772764,-0.0208963123099,0.0616692308323,0.247294108221,0.250905411294,0.0,0.0,0.165307727242
tagged_abstract_sents/14583951.txt,12,0.0805801772764,0.0361099399887,0.139250797795,0.194462959676,0.250905411294,0.23797001796,0.0502657624633,0.711356031861
tagged_abstract_sents/14583951.txt,13,0.123690572119,0.00411288224688,0.139250797795,0.194462959676,0.250905411294,0.183933549463,0.0356699751861,0.712839929823
tagged_abstract_sents/14583951.txt,14,0.123690572119,0.00282564429175,0.0616692308323,0.247294108221,0.250905411294,0.141502547509,0.037159614579,0.537972641363
tagged_abstract_sents/14583951.txt,15,0.123690572119,-0.0190574009455,0.0616692308323,0.247294108221,0.250905411294,0.0,0.0,0.200163825389
tagged_abstract_sents/14583951.txt,16,0.123690572119,-0.0039783277568,0.0616692308323,0.247294108221,0.250905411294,0.169745423765,0.0406891495601,0.703803351535
tagged_abstract_sents/14583951.txt,17,0.140209508461,-0.0131728845792,0.0616692308323,0.247294108221,0.250905411294,0.118858347865,0.0319322254806,0.716211967667
tagged_abstract_sents/14583951.txt,18,0.140209508461,-0.0162990338988,0.0616692308323,0.247294108221,0.250905411294,0.0916077011491,0.0590615835777,0.729497235846
tagged_abstract_sents/14583951.txt,19,0.140209508461,0.0180886086169,0.0616692308323,0.247294108221,0.250905411294,0.166622489257,0.0473925793701,0.600037376065
tagged_abstract_sents/14583951.txt,20,0.140209508461,-0.0144601225343,0.0616692308323,0.247294108221,0.250905411294,0.0659652476534,0.0555605684638,0.336002082867
tagged_abstract_sents/14583951.txt,21,0.149879129734,-0.0219996591286,0.0616692308323,0.247294108221,0.250905411294,0.0,0.0,0.220526219844
tagged_abstract_sents/14583951.txt,22,0.149879129734,-0.00600113025772,0.194899689933,0.293363477728,0.250905411294,0.121886823055,0.0494752276586,0.753334956088
tagged_abstract_sents/14583951.txt,23,0.149879129734,0.00227397088241,0.0616692308323,0.247294108221,0.250905411294,0.129585086958,0.0460024695169,0.785551820646
tagged_abstract_sents/14583951.txt,24,0.149879129734,-0.00177163411943,0.0616692308323,0.247294108221,0.250905411294,0.132373986359,0.0421519340874,0.675141921062
tagged_abstract_sents/14583951.txt,25,0.176470588235,0.026363709757,0.0616692308323,0.247294108221,0.250905411294,0.183783731251,0.0349677419355,0.529617531575
tagged_abstract_sents/14583951.txt,26,0.176470588235,0.000802841790831,0.0616692308323,0.247294108221,0.250905411294,0.133165054031,0.0488782991202,0.632502958132
tagged_abstract_sents/14583951.txt,27,0.176470588235,-0.00305887207456,0.0616692308323,0.247294108221,0.250905411294,0.133413237073,0.0292375366569,0.686855542668
tagged_abstract_sents/14583951.txt,28,0.176470588235,-0.0036105454839,0.0616692308323,0.247294108221,0.250905411294,0.110014259237,0.0289460065551,0.384473120127
tagged_abstract_sents/14583951.txt,29,0.166800966962,0.00595179361135,0.0616692308323,0.247294108221,0.250905411294,0.112220775296,0.0254806125774,0.46932631479
tagged_abstract_sents/14583951.txt,30,0.166800966962,-0.00526556571193,0.0616692308323,0.247294108221,0.250905411294,0.179746709806,0.0644978005865,0.657102008654
tagged_abstract_sents/14583951.txt,31,0.166800966962,0.0164335883888,0.139250797795,0.194462959676,0.250905411294,0.158666975155,0.0374633431085,0.604302559415
tagged_abstract_sents/14583951.txt,32,0.166800966962,0.00245786201886,0.139250797795,0.194462959676,0.250905411294,0.139396004715,0.0345507864569,0.612837547671
tagged_abstract_sents/14583951.txt,33,0.0954875100725,0.00576790247491,0.139250797795,0.194462959676,0.250905411294,0.173240513824,0.0323695014663,0.617661623499
tagged_abstract_sents/14583951.txt,34,0.0954875100725,-0.000116613891406,0.139250797795,0.194462959676,0.250905411294,0.131786458738,0.0312239543139,0.511265092866
tagged_abstract_sents/14583951.txt,35,0.0954875100725,0.0186402820262,0.139250797795,0.194462959676,0.250905411294,0.134042577337,0.0310850439883,0.461869651723
tagged_abstract_sents/14583951.txt,36,0.0954875100725,-0.0179540541268,0.139250797795,0.194462959676,0.250905411294,0.0516536946478,0.0278325779792,0.704513171962
tagged_abstract_sents/14583951.txt,37,0.0342465753425,-0.0201607477642,0.139250797795,0.194462959676,0.250905411294,0.0,0.0,0.151329397521
tagged_abstract_sents/14583951.txt,38,0.0342465753425,0.0166174795253,0.139250797795,0.194462959676,0.250905411294,0.211238423994,0.0428152492669,0.650102184695
tagged_abstract_sents/14583951.txt,39,0.0342465753425,0.00540012020201,0.139250797795,0.194462959676,0.250905411294,0.146713664785,0.0356751243147,0.502189369997
tagged_abstract_sents/14583951.txt,40,0.0342465753425,-0.0100467352596,0.139250797795,0.194462959676,0.250905411294,0.056355459084,0.0186442589668,0.510716209383
tagged_abstract_sents/14583951.txt,41,0.0342465753425,0.00999739861319,0.139250797795,0.194462959676,0.250905411294,0.198017478212,0.0500303367378,0.656314253041
