tagged_abstract_sents/14583769.txt,1,0.250201126307,0.0374722838137,0.188769469584,0.202456734834,0.252555956312,0.200482696144,0.0583519061584,0.874167671666
tagged_abstract_sents/14583769.txt,2,0.229283990346,-0.0231337767923,0.188769469584,0.202456734834,0.203547065513,0.111984670162,0.0408927989573,0.690346726793
tagged_abstract_sents/14583769.txt,3,0.206757843926,0.00790835181079,0.139250797795,0.0356431803763,0.117664585549,0.18583305909,0.0592680840665,0.610072027218
tagged_abstract_sents/14583769.txt,4,0.118262268705,-0.0526977087953,0.139250797795,0.0356431803763,0.0,0.0606680905545,0.0569501466276,0.282006863397
tagged_abstract_sents/14583769.txt,5,0.0852775543041,0.0515151515152,0.139250797795,0.0356431803763,0.126096298914,0.164273693443,0.0532537355118,0.502467154626
tagged_abstract_sents/14583769.txt,6,0.0571198712792,-0.0113082039911,0.139250797795,0.0356431803763,0.12264095884,0.112498577527,0.0446920821114,0.403584227714
tagged_abstract_sents/14583769.txt,7,0.0345937248592,0.0160384331116,0.139250797795,0.0356431803763,0.0974313938039,0.0743233551028,0.0388429752066,0.321798743633
tagged_abstract_sents/14583769.txt,8,0.0144810941271,0.00643015521064,0.139250797795,0.0356431803763,0.0979540689349,0.146735865289,0.0467986314761,0.384677825054
tagged_abstract_sents/14583769.txt,9,0.00120675784393,0.0286031042129,0.139250797795,0.0356431803763,0.100963153898,0.166378005684,0.055676581483,0.410022121193
tagged_abstract_sents/14583769.txt,10,0.00120675784393,-0.0608277900961,0.139250797795,0.0356431803763,0.211847529713,0.0593727812811,0.0490322580645,0.389370770325
