tagged_abstract_sents/14583920.txt,1,0.125905068383,-0.030440880007,0.0616692308323,0.142474783506,0.0,0.0,0.0,0.168212929173
tagged_abstract_sents/14583920.txt,2,0.125905068383,0.0021649574897,0.188769469584,0.202456734834,0.214211168042,0.200875368953,0.057185211022,0.728550549463
tagged_abstract_sents/14583920.txt,3,0.250201126307,0.00111315628013,0.188769469584,0.202456734834,0.45904995382,0.3091316848,0.0349585596359,1.1586454858
tagged_abstract_sents/14583920.txt,4,0.239742558327,-0.030440880007,0.0616692308323,0.142474783506,0.0,0.0,0.0,0.259282921128
tagged_abstract_sents/14583920.txt,5,0.239742558327,-0.00388289946533,0.0616692308323,0.142474783506,0.420051353019,0.403400108299,0.0403161975799,1.12836217613
tagged_abstract_sents/14583920.txt,6,0.229283990346,-0.029126128495,0.0616692308323,0.142474783506,0.0,0.0,0.0,0.251179017046
tagged_abstract_sents/14583920.txt,7,0.218020917136,0.0339819440792,0.0616692308323,0.142474783506,0.0961251028239,0.26376211977,0.0414980816184,0.656175477205
tagged_abstract_sents/14583920.txt,8,0.218020917136,-0.0249189236568,0.0616692308323,0.142474783506,0.0,0.154734475313,0.046188725819,0.443933200577
tagged_abstract_sents/14583920.txt,9,0.206757843926,-0.00809010430362,0.0616692308323,0.142474783506,0.21601259572,0.22320697395,0.0216962417161,0.698281116134
tagged_abstract_sents/14583920.txt,10,0.162510056315,-0.000201595231835,0.0616692308323,0.142474783506,0.275952145597,0.341671002709,0.0486955005232,0.869863425302
tagged_abstract_sents/14583920.txt,11,0.162510056315,-0.0283372775879,0.0616692308323,0.142474783506,0.0,0.0,0.0,0.197917640003
tagged_abstract_sents/14583920.txt,12,0.118262268705,0.0402927513367,0.0616692308323,0.142474783506,0.415797852821,0.418333735167,0.0496550788668,1.06003208255
tagged_abstract_sents/14583920.txt,13,0.101769911504,-0.0259707248663,0.0616692308323,0.142474783506,0.0,0.0988542894352,0.0283494167345,0.277002540868
tagged_abstract_sents/14583920.txt,14,0.101769911504,-0.0257077745639,0.0616692308323,0.142474783506,0.0,0.0,0.0,0.149851424759
tagged_abstract_sents/14583920.txt,15,0.0852775543041,-0.0275484266807,0.0616692308323,0.142474783506,0.0,0.0509442018149,0.0236558871892,0.210889497579
tagged_abstract_sents/14583920.txt,16,0.0711987127916,-0.0154527127706,0.0616692308323,0.142474783506,0.200073951003,0.231233790528,0.0541264581638,0.612879677842
tagged_abstract_sents/14583920.txt,17,0.0711987127916,-0.0183451660969,0.0616692308323,0.142474783506,0.166964006396,0.21009484189,0.0243667160795,0.528292551848
tagged_abstract_sents/14583920.txt,18,0.0571198712792,0.0287229380314,0.139250797795,0.0356431803763,0.1353291098,0.402605075403,0.0429762689093,0.712669291753
tagged_abstract_sents/14583920.txt,19,0.0458567980692,0.0237268822859,0.139250797795,0.0356431803763,0.138453104508,0.37517282701,0.025723753052,0.661098852492
tagged_abstract_sents/14583920.txt,20,0.0458567980692,-0.0186081163993,0.139250797795,0.0356431803763,0.243255711385,0.124703649546,0.0428385705679,0.524080099684
tagged_abstract_sents/14583920.txt,21,0.0345937248592,-0.0299149794022,0.139250797795,0.0356431803763,0.0,0.0,0.0,0.102010337017
tagged_abstract_sents/14583920.txt,22,0.0245374094932,0.0481812604084,0.139250797795,0.0356431803763,0.158140894543,0.420186058028,0.0357678047772,0.723679290035
tagged_abstract_sents/14583920.txt,23,0.0245374094932,0.0379261986151,0.139250797795,0.0356431803763,0.062493378066,0.291511943149,0.0378485890345,0.499387430577
tagged_abstract_sents/14583920.txt,24,0.0144810941271,0.0205714786572,0.139250797795,0.0356431803763,0.163358928338,0.398319192772,0.0427879584664,0.700483603621
tagged_abstract_sents/14583920.txt,25,0.00844730490748,0.00269085809449,0.139250797795,0.0356431803763,0.176207697007,0.354591409803,0.0330266829438,0.651440158308
tagged_abstract_sents/14583920.txt,26,0.00844730490748,0.00768691383995,0.139250797795,0.0356431803763,0.306857148655,0.317931255472,0.0330167739481,0.746418757779
tagged_abstract_sents/14583920.txt,27,0.00120675784393,-0.0272854763783,0.139250797795,0.0356431803763,0.0,0.0,0.0,0.0758266640098
tagged_abstract_sents/14583920.txt,28,0.00120675784393,0.0784205451836,0.139250797795,0.0356431803763,0.252346552836,0.515653348428,0.0487797567143,0.913747526301
tagged_abstract_sents/14583920.txt,29,0.00120675784393,0.0126829695854,0.139250797795,0.0356431803763,0.149370854296,0.291347754187,0.0363664108825,0.560905372568
tagged_abstract_sents/14583920.txt,30,0.00120675784393,0.00610921202559,0.139250797795,0.0356431803763,0.262128340094,0.264708878919,0.0266508178364,0.63599363854
