tagged_abstract_sents/14586043.txt,1,0.206355591311,-0.0592989506586,0.0616692308323,0.106008497564,0.432859399257,0.0,0.0,0.215861847603
tagged_abstract_sents/14586043.txt,2,0.206355591311,0.0572449207412,0.188769469584,0.129715814208,0.432859399257,0.0905451072226,0.0293288934426,0.727939829677
tagged_abstract_sents/14586043.txt,3,0.0048270313757,-0.00839473096673,0.188769469584,0.129715814208,0.432859399257,0.109232402468,0.0729929010539,0.612714261617
tagged_abstract_sents/14586043.txt,5,0.0108608205953,-0.0613083277517,0.0616692308323,0.106008497564,0.432859399257,0.0,0.0,0.0590641556112
tagged_abstract_sents/14586043.txt,6,0.016894609815,0.00299173922751,0.0616692308323,0.106008497564,0.432859399257,0.0830503181402,0.0564047340248,0.538805175694
tagged_abstract_sents/14586043.txt,7,0.0261464199517,0.0954230855102,0.139250797795,0.521468892835,0.432859399257,0.160143119029,0.0626463700234,0.843850002561
tagged_abstract_sents/14586043.txt,8,0.0518905872888,-0.0613083277517,0.139250797795,0.521468892835,0.432859399257,0.0,0.0,0.255316871029
tagged_abstract_sents/14586043.txt,9,0.0683829444891,-0.0030363920518,0.139250797795,0.521468892835,0.432859399257,0.0808046173559,0.0632213951154,0.622569538759
tagged_abstract_sents/14586043.txt,11,0.172566371681,0.0445188658183,0.139250797795,0.521468892835,0.432859399257,0.085643082212,0.0317257025761,0.750288587419
tagged_abstract_sents/14586043.txt,12,0.214802896219,-0.0586291582943,0.0616692308323,0.106008497564,0.432859399257,0.0,0.0,0.222753650001
tagged_abstract_sents/14586043.txt,13,0.206355591311,0.00165215449877,0.139250797795,0.521468892835,0.432859399257,0.108450786023,0.032606075217,0.747757165866
tagged_abstract_sents/14586043.txt,14,0.262268704747,-0.0050457691449,0.139250797795,0.521468892835,0.432859399257,0.0773010053176,0.0315741050519,0.814787774799
tagged_abstract_sents/14586043.txt,15,0.262268704747,0.0103594552355,0.139250797795,0.521468892835,0.432859399257,0.126814491339,0.0649395003903,1.06256631258
