tagged_abstract_sents/14583954.txt,1,0.0954875100725,-0.0336059702872,0.0616692308323,0.247294108221,0.238712332169,0.0,0.0,0.174691661883
tagged_abstract_sents/14583954.txt,2,0.0954875100725,0.015988540006,0.188769469584,0.123191979006,0.238712332169,0.13853406327,0.0509470397305,0.623399869811
tagged_abstract_sents/14583954.txt,3,0.0253827558421,-0.0336059702872,0.0616692308323,0.247294108221,0.238712332169,0.0,0.0,0.118607858499
tagged_abstract_sents/14583954.txt,5,0.0253827558421,-0.0320463944918,0.0616692308323,0.247294108221,0.238712332169,0.0,0.0,0.118919773658
tagged_abstract_sents/14583954.txt,6,0.0805801772764,0.0191076915968,0.0616692308323,0.247294108221,0.238712332169,0.124125728042,0.0655483936456,0.362989844034
tagged_abstract_sents/14583954.txt,7,0.0805801772764,-0.00490977565213,0.0616692308323,0.247294108221,0.238712332169,0.178620835566,0.0723684210526,0.56894817547
tagged_abstract_sents/14583954.txt,8,0.0805801772764,-0.0311106490146,0.0616692308323,0.247294108221,0.238712332169,0.0,0.0,0.163264859901
tagged_abstract_sents/14583954.txt,9,0.123690572119,0.0309604676417,0.0616692308323,0.247294108221,0.238712332169,0.205291398969,0.0680729523073,0.654742946355
tagged_abstract_sents/14583954.txt,10,0.123690572119,-0.000854878584136,0.0616692308323,0.247294108221,0.238712332169,0.138569884843,0.0560828300259,0.39845704473
tagged_abstract_sents/14583954.txt,11,0.140209508461,-0.0279914974238,0.0616692308323,0.247294108221,0.238712332169,0.0,0.0,0.211592155166
tagged_abstract_sents/14583954.txt,12,0.140209508461,0.0172362006423,0.0616692308323,0.247294108221,0.238712332169,0.209222815015,0.0749183409343,0.504790725156
tagged_abstract_sents/14583954.txt,13,0.140209508461,-0.024560430674,0.0616692308323,0.247294108221,0.238712332169,0.0773636144848,0.0653272525576,0.555965965347
tagged_abstract_sents/14583954.txt,14,0.149879129734,0.0318962131189,0.139250797795,0.194462959676,0.238712332169,0.145524654241,0.0632523932783,0.572858818929
tagged_abstract_sents/14583954.txt,15,0.149879129734,-0.0148910607426,0.0616692308323,0.247294108221,0.238712332169,0.0901267353156,0.03522702761,0.347301702447
tagged_abstract_sents/14583954.txt,16,0.149879129734,-0.00865275756105,0.0616692308323,0.247294108221,0.238712332169,0.127945802311,0.0644839017302,0.415625304199
tagged_abstract_sents/14583954.txt,17,0.176470588235,-0.032982139969,0.0616692308323,0.247294108221,0.238712332169,0.0,0.0,0.239602890477
tagged_abstract_sents/14583954.txt,18,0.176470588235,-0.0270557519466,0.0616692308323,0.247294108221,0.238712332169,0.0316184490446,0.0318971095772,0.304303726703
tagged_abstract_sents/14583954.txt,19,0.166800966962,0.015988540006,0.139250797795,0.194462959676,0.238712332169,0.168589050693,0.0568852459016,0.585333163833
tagged_abstract_sents/14583954.txt,20,0.166800966962,0.000704697211247,0.139250797795,0.194462959676,0.238712332169,0.123461233572,0.0381914485668,0.423198681951
tagged_abstract_sents/14583954.txt,21,0.166800966962,0.044372819482,0.139250797795,0.194462959676,0.238712332169,0.202715938327,0.0552893504252,0.783150298648
tagged_abstract_sents/14583954.txt,22,0.0954875100725,0.0677664564127,0.139250797795,0.194462959676,0.238712332169,0.200111270856,0.0573770491803,0.532945416919
tagged_abstract_sents/14583954.txt,23,0.0954875100725,-0.00366211501583,0.139250797795,0.194462959676,0.238712332169,0.0488689081714,0.0513373597929,0.303828139819
tagged_abstract_sents/14583954.txt,24,0.0954875100725,-0.0298629883783,0.139250797795,0.194462959676,0.238712332169,0.0,0.0,0.198381697183
tagged_abstract_sents/14583954.txt,25,0.0342465753425,0.00288810332478,0.139250797795,0.194462959676,0.238712332169,0.163934895533,0.0336702411767,0.658394327114
tagged_abstract_sents/14583954.txt,26,0.0342465753425,0.0156766248469,0.139250797795,0.194462959676,0.238712332169,0.144796493868,0.0379637618637,0.341257127775
tagged_abstract_sents/14583954.txt,27,0.0342465753425,0.0163004551651,0.139250797795,0.194462959676,0.238712332169,0.204414594905,0.041298173713,0.643046738895
