tagged_abstract_sents/14597589.txt,1,0.0954875100725,-0.0457046268063,0.0616692308323,0.247294108221,1.54609987491e-05,0.0,0.0,0.172271930579
tagged_abstract_sents/14597589.txt,2,0.0253827558421,0.00404348402492,0.188769469584,0.123191979006,1.54609987491e-05,0.395327670454,0.0507308921291,0.786946181817
tagged_abstract_sents/14597589.txt,3,0.0253827558421,-0.0167373723983,0.0616692308323,0.247294108221,1.54609987491e-05,0.158748856254,0.0377704117237,0.567127037585
tagged_abstract_sents/14597589.txt,4,0.0805801772764,-0.0400371205091,0.0616692308323,0.247294108221,1.54609987491e-05,0.0,0.0,0.161479565602
tagged_abstract_sents/14597589.txt,5,0.0805801772764,-0.0148482036325,0.210342442448,0.141687475369,1.54609987491e-05,0.309438494251,0.0338683414748,0.820774302582
tagged_abstract_sents/14597589.txt,7,0.123690572119,0.0386782447302,0.0616692308323,0.247294108221,1.54609987491e-05,0.528441842517,0.0517385236203,1.23974476844
tagged_abstract_sents/14597589.txt,8,0.140209508461,0.0525321490123,0.0616692308323,0.247294108221,1.54609987491e-05,0.436796306355,0.0356493554193,1.02516149912
tagged_abstract_sents/14597589.txt,9,0.140209508461,-0.0123293119448,0.0616692308323,0.247294108221,1.54609987491e-05,0.247884581951,0.0316425331472,1.03664240069
tagged_abstract_sents/14597589.txt,10,0.149879129734,0.0134893278536,0.0616692308323,0.247294108221,1.54609987491e-05,0.294993063538,0.0330662446416,0.889457975223
tagged_abstract_sents/14597589.txt,11,0.149879129734,-0.0305912766804,0.0616692308323,0.247294108221,1.54609987491e-05,0.240310261967,0.020927832054,0.564982204346
tagged_abstract_sents/14597589.txt,12,0.176470588235,0.0197865570728,0.0616692308323,0.247294108221,1.54609987491e-05,0.195291839159,0.0257644483918,1.05354283931
tagged_abstract_sents/14597589.txt,13,0.176470588235,0.0550510407,0.0616692308323,0.247294108221,1.54609987491e-05,0.307284964442,0.0428355431496,1.19664860583
tagged_abstract_sents/14597589.txt,14,0.166800966962,-0.0198859870078,0.0616692308323,0.247294108221,1.54609987491e-05,0.178729415648,0.0313471420415,0.779997558256
tagged_abstract_sents/14597589.txt,15,0.166800966962,-0.0104401431791,0.0616692308323,0.247294108221,1.54609987491e-05,0.229526667881,0.0323694463829,0.609064403982
tagged_abstract_sents/14597589.txt,16,0.0954875100725,0.00845154447832,0.0616692308323,0.247294108221,1.54609987491e-05,0.412026797778,0.0387517445918,0.940338373586
tagged_abstract_sents/14597589.txt,17,0.0954875100725,-0.0450749038844,0.139250797795,0.194462959676,1.54609987491e-05,0.0,0.0,0.195339314081
tagged_abstract_sents/14597589.txt,18,0.0342465753425,-0.0236643245393,0.139250797795,0.194462959676,1.54609987491e-05,0.17699718324,0.030111653873,0.635701913349
tagged_abstract_sents/14597589.txt,19,0.0342465753425,-0.00351319103805,0.139250797795,0.194462959676,1.54609987491e-05,0.438946394631,0.0528829378925,0.646503702388
