tagged_abstract_sents/14613379.txt,1,0.125905068383,-0.0572396107312,0.0616692308323,0.142474783506,0.0,0.0,0.0,0.162853183028
tagged_abstract_sents/14613379.txt,2,0.239742558327,0.039025512888,0.188769469584,0.202456734834,0.200442076501,0.211061752839,0.0963548443057,0.862579578128
tagged_abstract_sents/14613379.txt,3,0.239742558327,0.0143016833246,0.0616692308323,0.142474783506,0.352152157042,0.156568190622,0.073075234192,0.85002701565
tagged_abstract_sents/14613379.txt,4,0.218020917136,-0.058291688585,0.0616692308323,0.142474783506,0.0,0.0,0.0,0.23633544646
tagged_abstract_sents/14613379.txt,5,0.162510056315,0.0306088900579,0.210342442448,0.226435992083,0.170944928014,0.134499298595,0.0575234192037,0.672199487725
tagged_abstract_sents/14613379.txt,6,0.162510056315,0.0421817464492,0.0616692308323,0.142474783506,0.227686727912,0.151082354518,0.0421963867514,0.632986913991
tagged_abstract_sents/14613379.txt,7,0.101769911504,0.016931877959,0.0616692308323,0.142474783506,0.0321736523576,0.121422808451,0.0538256501911,0.365801466263
tagged_abstract_sents/14613379.txt,8,0.0852775543041,-0.058291688585,0.0616692308323,0.142474783506,0.0,0.0,0.0,0.130140756194
tagged_abstract_sents/14613379.txt,9,0.0711987127916,-0.0346199368753,0.139250797795,0.0356431803763,1.05527255111e-05,0.0681443024609,0.0516952309985,0.250203422053
tagged_abstract_sents/14613379.txt,10,0.0458567980692,0.00272882693319,0.139250797795,0.0356431803763,0.102655511258,0.0974022762066,0.0675328769591,0.385140221276
tagged_abstract_sents/14613379.txt,11,0.0458567980692,-0.00410967911625,0.139250797795,0.0356431803763,0.280676307518,0.108876126981,0.0475428132319,0.553277103374
tagged_abstract_sents/14613379.txt,12,0.0245374094932,0.00746317727512,0.139250797795,0.0356431803763,0.0,0.092789979905,0.0764365172298,0.270667413195
tagged_abstract_sents/14613379.txt,13,0.00844730490748,0.0721659652814,0.139250797795,0.0356431803763,0.0766695952226,0.0992523626991,0.0286982825917,0.306129630506
tagged_abstract_sents/14613379.txt,14,0.00844730490748,-0.0567135718043,0.139250797795,0.0356431803763,0.0,0.0,0.0,0.0757334825754
tagged_abstract_sents/14613379.txt,15,0.00120675784393,0.0316609679116,0.139250797795,0.0356431803763,0.250550920482,0.12501037532,0.0462529274005,0.50943017607
tagged_abstract_sents/14613379.txt,16,0.00120675784393,0.012197527617,0.139250797795,0.0356431803763,0.370067496358,0.122727565867,0.0663572806172,0.642875607651
