tagged_abstract_sents/14627885.txt,1,0.206355591311,-0.0536475459749,0.0616692308323,0.106008497564,0.0522957620144,0.0,0.0,0.216992128539
tagged_abstract_sents/14627885.txt,3,0.206355591311,-0.055200341006,0.0616692308323,0.106008497564,0.0522957620144,0.0,0.0,0.216681569533
tagged_abstract_sents/14627885.txt,4,0.0048270313757,0.0229570088905,0.210342442448,0.0253702522065,0.0522957620144,0.292506410685,0.031428320604,0.55474458146
tagged_abstract_sents/14627885.txt,5,0.0048270313757,0.0617768846669,0.194899689933,0.0581677376677,0.0522957620144,0.472494159475,0.0340105164694,0.734762854638
tagged_abstract_sents/14627885.txt,6,0.0108608205953,-0.0546827426623,0.139250797795,0.521468892835,0.0522957620144,0.0,0.0,0.223818174692
tagged_abstract_sents/14627885.txt,7,0.0261464199517,-0.0122396784801,0.139250797795,0.521468892835,0.0522957620144,0.22451736814,0.0308702359005,0.499922871054
tagged_abstract_sents/14627885.txt,8,0.0261464199517,0.0126050420168,0.139250797795,0.521468892835,0.0522957620144,0.532991576239,0.0202073407235,0.858877748716
tagged_abstract_sents/14627885.txt,9,0.0518905872888,-0.0148276701985,0.139250797795,0.521468892835,0.0522957620144,0.226768224536,0.029534594981,0.520915822056
tagged_abstract_sents/14627885.txt,10,0.0518905872888,-0.00395810498112,0.139250797795,0.521468892835,0.0522957620144,0.26100915253,0.0205589939426,0.548355062055
tagged_abstract_sents/14627885.txt,11,0.0993563958166,-0.0526123492875,0.0616692308323,0.106008497564,0.0522957620144,0.0,0.0,0.131599811481
tagged_abstract_sents/14627885.txt,12,0.172566371681,-0.00240530995007,0.139250797795,0.521468892835,0.0522957620144,0.211807376314,0.0167801647918,0.986899284628
tagged_abstract_sents/14627885.txt,13,0.172566371681,0.02709779564,0.139250797795,0.521468892835,0.0522957620144,0.389240916078,0.0307611272057,0.882959710794
tagged_abstract_sents/14627885.txt,14,0.206355591311,-0.00706369504323,0.139250797795,0.521468892835,0.0522957620144,0.247367780755,0.0211219383724,0.65824662078
tagged_abstract_sents/14627885.txt,15,0.206355591311,0.0126050420168,0.139250797795,0.521468892835,0.0522957620144,0.259183999852,0.0484128336612,0.701268381713
tagged_abstract_sents/14627885.txt,16,0.262268704747,0.03693216417,0.139250797795,0.521468892835,0.0522957620144,0.364870372521,0.0188610441442,1.10472359672
