tagged_abstract_sents/14634843.txt,1,0.0954875100725,-0.0741128806929,0.0616692308323,0.247294108221,0.343118642329,0.0,0.0,0.166590279802
tagged_abstract_sents/14634843.txt,3,0.0805801772764,-0.00202570550433,0.0616692308323,0.247294108221,0.343118642329,0.414546028186,0.0597978759849,1.10510899026
tagged_abstract_sents/14634843.txt,4,0.123690572119,-0.0766275495949,0.0616692308323,0.247294108221,0.343118642329,0.0,0.0,0.188649795659
tagged_abstract_sents/14634843.txt,5,0.140209508461,0.0281503213188,0.0616692308323,0.247294108221,0.343118642329,0.397367271183,0.0426687221651,0.872393199795
tagged_abstract_sents/14634843.txt,6,0.149073327961,-0.0766275495949,0.0616692308323,0.247294108221,0.343118642329,0.0,0.0,0.208956000333
tagged_abstract_sents/14634843.txt,7,0.149879129734,-0.00370215143895,0.139250797795,0.194462959676,0.343118642329,0.33538054755,0.0459532374101,0.844049442795
tagged_abstract_sents/14634843.txt,8,0.176470588235,0.0516205644035,0.139250797795,0.194462959676,0.343118642329,0.403734267108,0.0300863309353,0.811847544496
tagged_abstract_sents/14634843.txt,9,0.166800966962,0.0373707739592,0.139250797795,0.194462959676,0.343118642329,0.302984207233,0.0376298960831,0.849811690184
tagged_abstract_sents/14634843.txt,10,0.0954875100725,0.00719474713607,0.139250797795,0.194462959676,0.343118642329,0.286346615646,0.0323741007194,0.84981032821
tagged_abstract_sents/14634843.txt,11,0.0342465753425,-0.0732746577256,0.139250797795,0.194462959676,0.343118642329,0.0,0.0,0.140706615529
tagged_abstract_sents/14634843.txt,12,0.0342465753425,0.102752165409,0.139250797795,0.194462959676,0.343118642329,0.456879726776,0.0296948647978,1.00560521406
