tagged_abstract_sents/14644896.txt,1,0.229283990346,0.0275042444822,0.188769469584,0.202456734834,0.337962054332,0.358847670343,0.0590503987075,1.0999099198
tagged_abstract_sents/14644896.txt,2,0.118262268705,0.163327674024,0.188769469584,0.202456734834,0.205370970176,0.491428596923,0.0596427468919,1.038839419
tagged_abstract_sents/14644896.txt,3,0.0571198712792,0.0181663837012,0.188769469584,0.202456734834,0.320127603209,0.380619667539,0.0562076677823,0.961405867536
tagged_abstract_sents/14644896.txt,4,0.0144810941271,-0.083701188455,0.188769469584,0.202456734834,0.355022491992,0.282753029343,0.0575519883254,0.845293902513
tagged_abstract_sents/14644896.txt,5,0.00120675784393,-0.125297113752,0.188769469584,0.202456734834,0.302019337354,0.175665096145,0.0733474843289,0.682059656595
