tagged_abstract_sents/14688112.txt,1,0.206355591311,-0.0277452701385,0.188769469584,0.129715814208,0.396769227203,0.167083875474,0.0144484324641,0.474367206014
tagged_abstract_sents/14688112.txt,2,0.206355591311,0.0044372927638,0.188769469584,0.129715814208,0.396769227203,0.236259023689,0.0156948920793,0.738333806209
tagged_abstract_sents/14688112.txt,3,0.0048270313757,-0.0371074702555,0.188769469584,0.129715814208,0.396769227203,0.200121315418,0.00774752642611,0.544717977646
tagged_abstract_sents/14688112.txt,4,0.0108608205953,-0.0265749951239,0.0616692308323,0.106008497564,0.396769227203,0.158986642981,0.0181924726314,0.555458315573
tagged_abstract_sents/14688112.txt,5,0.0261464199517,0.0594402184513,0.139250797795,0.521468892835,0.396769227203,0.278569808225,0.0110722161395,0.59680494672
tagged_abstract_sents/14688112.txt,6,0.0353982300885,-0.0283304076458,0.139250797795,0.521468892835,0.396769227203,0.118005548577,0.0192645766188,0.385988694485
tagged_abstract_sents/14688112.txt,7,0.0518905872888,-0.00960600741174,0.139250797795,0.521468892835,0.396769227203,0.163842254435,0.0125522733932,0.442051862925
tagged_abstract_sents/14688112.txt,9,0.172566371681,-0.0183830700215,0.139250797795,0.521468892835,0.396769227203,0.142025596087,0.0198432464108,0.826187021629
tagged_abstract_sents/14688112.txt,10,0.206355591311,-0.00609518236786,0.139250797795,0.521468892835,0.396769227203,0.135760877203,0.0173381189569,0.543030499483
tagged_abstract_sents/14688112.txt,11,0.262268704747,-0.0113614199337,0.139250797795,0.521468892835,0.396769227203,0.142971415456,0.023542338119,0.775409339296
