tagged_abstract_sents/14718017.txt,1,0.0954875100725,-0.0506746317849,0.0616692308323,0.247294108221,0.404095506954,0.0,0.0,0.171277929584
tagged_abstract_sents/14718017.txt,3,0.0253827558421,-0.0487176846225,0.0616692308323,0.247294108221,0.404095506954,0.0,0.0,0.115585515632
tagged_abstract_sents/14718017.txt,4,0.0805801772764,0.0461942527552,0.210342442448,0.141687475369,0.404095506954,0.246956436919,0.0285735875127,0.760966890193
tagged_abstract_sents/14718017.txt,5,0.0805801772764,-0.00468637346792,0.0616692308323,0.247294108221,0.404095506954,0.131138760203,0.0246826956061,0.527474687929
tagged_abstract_sents/14718017.txt,6,0.123690572119,0.0603821196828,0.139250797795,0.194462959676,0.404095506954,0.212658094491,0.0288666437979,0.688107729325
tagged_abstract_sents/14718017.txt,7,0.123690572119,-0.0487176846225,0.139250797795,0.194462959676,0.404095506954,0.0,0.0,0.217173207571
tagged_abstract_sents/14718017.txt,8,0.140209508461,-0.023277371511,0.139250797795,0.194462959676,0.404095506954,0.088035453243,0.0180487488935,0.341588816284
tagged_abstract_sents/14718017.txt,9,0.140209508461,-0.0174065300237,0.139250797795,0.194462959676,0.404095506954,0.0865342135072,0.0339385565319,0.357148875803
tagged_abstract_sents/14718017.txt,10,0.149879129734,-0.0188742403955,0.139250797795,0.194462959676,0.404095506954,0.085022552955,0.0214814654893,0.608256344176
tagged_abstract_sents/14718017.txt,11,0.149879129734,-0.0359975280667,0.139250797795,0.194462959676,0.404095506954,0.104297937545,0.0309592175997,0.640139314525
tagged_abstract_sents/14718017.txt,12,0.176470588235,0.0212431764342,0.139250797795,0.194462959676,0.404095506954,0.166233794155,0.0358713229889,0.70539024387
tagged_abstract_sents/14718017.txt,13,0.176470588235,0.0148830981563,0.139250797795,0.194462959676,0.404095506954,0.199934290522,0.0442298369607,0.7635553225
tagged_abstract_sents/14718017.txt,14,0.166800966962,0.0623390668452,0.139250797795,0.194462959676,0.404095506954,0.216658344579,0.0403817008139,0.750526233361
tagged_abstract_sents/14718017.txt,15,0.166800966962,0.0168400453188,0.139250797795,0.194462959676,0.404095506954,0.142080054164,0.0292590513612,0.575539828541
tagged_abstract_sents/14718017.txt,16,0.0954875100725,0.0324956226182,0.139250797795,0.194462959676,0.404095506954,0.184188796419,0.0256689119656,0.557263661569
tagged_abstract_sents/14718017.txt,17,0.0954875100725,-0.0472499742507,0.139250797795,0.194462959676,0.404095506954,0.0,0.0,0.194904300008
tagged_abstract_sents/14718017.txt,18,0.0342465753425,0.0187969924812,0.139250797795,0.194462959676,0.404095506954,0.204450256628,0.0350560656483,0.502250702529
tagged_abstract_sents/14718017.txt,19,0.0342465753425,0.00314141518179,0.139250797795,0.194462959676,0.404095506954,0.171693027011,0.029413415661,0.761191779737
