tagged_abstract_sents/14712967.txt,1,0.125905068383,-0.0355248464545,0.0616692308323,0.142474783506,0.0,0.0,0.0,0.167196135883
tagged_abstract_sents/14712967.txt,2,0.125905068383,0.00970128419877,0.188769469584,0.202456734834,0.273496615044,0.24614147421,0.011333216946,0.788757372988
tagged_abstract_sents/14712967.txt,3,0.239742558327,-0.0344081518705,0.0616692308323,0.142474783506,0.0,0.0,0.0,0.258489466755
tagged_abstract_sents/14712967.txt,4,0.239742558327,-0.0254745951982,0.0616692308323,0.142474783506,0.0,0.134645168294,0.0323629539106,0.427284300295
tagged_abstract_sents/14712967.txt,5,0.218020917136,-0.0371998883305,0.0616692308323,0.142474783506,0.0,0.0,0.0,0.240553806511
tagged_abstract_sents/14712967.txt,6,0.218020917136,-0.0226828587381,0.0616692308323,0.142474783506,0.523757207525,0.168097726444,0.0109784593898,0.946290605789
tagged_abstract_sents/14712967.txt,7,0.218020917136,-0.0355248464545,0.0616692308323,0.142474783506,0.0,0.0,0.0,0.240888814886
tagged_abstract_sents/14712967.txt,8,0.162510056315,0.054927414852,0.210342442448,0.226435992083,0.349324629526,0.328403619831,0.0180691340782,1.00989293031
tagged_abstract_sents/14712967.txt,9,0.162510056315,-0.0293830262423,0.0616692308323,0.142474783506,0.0,0.0,0.0,0.197708490272
tagged_abstract_sents/14712967.txt,10,0.101769911504,0.00411781127862,0.0616692308323,0.142474783506,0.396651667446,0.221512994616,0.0113939779823,0.785375181971
tagged_abstract_sents/14712967.txt,11,0.101769911504,-0.019332774986,0.0616692308323,0.142474783506,0.348127983357,0.0676743559188,0.000501920391061,0.567430684341
tagged_abstract_sents/14712967.txt,12,0.0852775543041,-0.0293830262423,0.0616692308323,0.142474783506,0.0,0.0,0.0,0.135922488663
tagged_abstract_sents/14712967.txt,13,0.0711987127916,-0.00649078726968,0.139250797795,0.0356431803763,0.401059713061,0.155456879429,0.00676165663945,0.699257414918
tagged_abstract_sents/14712967.txt,14,0.0711987127916,-0.0371998883305,0.139250797795,0.0356431803763,0.0,0.0,0.0,0.129837345577
tagged_abstract_sents/14712967.txt,15,0.0458567980692,0.0225432719151,0.139250797795,0.0356431803763,0.295445248416,0.37907169214,0.023988101633,0.820017488038
tagged_abstract_sents/14712967.txt,16,0.0458567980692,0.016401451703,0.139250797795,0.0356431803763,0.191127995761,0.319001509243,0.0190293296089,0.64944291642
tagged_abstract_sents/14712967.txt,17,0.0245374094932,0.00244276940257,0.139250797795,0.0356431803763,0.195115746829,0.275970296249,0.0120460893855,0.583568966949
tagged_abstract_sents/14712967.txt,18,0.0245374094932,0.0432021217197,0.139250797795,0.0356431803763,0.339945129436,0.398246491889,0.0165431667701,0.863323493044
tagged_abstract_sents/14712967.txt,19,0.0245374094932,0.0225432719151,0.139250797795,0.0356431803763,0.376584578165,0.261368524504,0.0197873787121,0.762197416369
tagged_abstract_sents/14712967.txt,20,0.00844730490748,0.0242183137912,0.139250797795,0.0356431803763,0.178213028139,0.312727454889,0.0220686262062,0.604928968929
tagged_abstract_sents/14712967.txt,21,0.00844730490748,0.0610692350642,0.139250797795,0.0356431803763,0.126657633391,0.0971753001955,0.00411138268156,0.327234360217
tagged_abstract_sents/14712967.txt,22,0.00120675784393,-0.0349664991625,0.0616692308323,0.142474783506,0.0,0.0,0.0,0.0675491569105
tagged_abstract_sents/14712967.txt,23,0.00120675784393,0.0214265773311,0.139250797795,0.0356431803763,0.405883556218,0.260193781771,0.00704755954131,0.758693972282
tagged_abstract_sents/14712967.txt,24,0.00120675784393,0.0649776661083,0.139250797795,0.0356431803763,0.415605697903,0.404445621569,0.0117357231533,0.926066335133
