tagged_abstract_sents/14769312.txt,1,0.00564061240935,-0.0889779559118,0.0616692308323,0.247294108221,0.206341845271,0.0,0.0,0.0917397466276
tagged_abstract_sents/14769312.txt,3,0.116035455278,0.0142284569138,0.188769469584,0.123191979006,0.206341845271,0.480268157053,0.0463295023485,1.00666962997
tagged_abstract_sents/14769312.txt,4,0.131345688961,-0.0178356713427,0.188769469584,0.123191979006,0.206341845271,0.48858533082,0.0632278247119,0.933766327492
tagged_abstract_sents/14769312.txt,5,0.149073327961,-0.0869739478958,0.0616692308323,0.247294108221,0.206341845271,0.0,0.0,0.206886720672
tagged_abstract_sents/14769312.txt,6,0.150684931507,-0.00781563126253,0.0616692308323,0.247294108221,0.206341845271,0.380994314815,0.0602653395812,0.913407115712
tagged_abstract_sents/14769312.txt,7,0.202256244964,0.0132264529058,0.0616692308323,0.247294108221,0.206341845271,0.415241926802,0.0712739671872,1.13209057638
tagged_abstract_sents/14769312.txt,8,0.131345688961,-0.0879759519038,0.0616692308323,0.247294108221,0.206341845271,0.0,0.0,0.19250420867
tagged_abstract_sents/14769312.txt,9,0.0342465753425,0.124448897796,0.139250797795,0.194462959676,0.206341845271,0.700867731544,0.0701441737498,1.23706936537
tagged_abstract_sents/14769312.txt,10,0.0342465753425,0.0953907815631,0.139250797795,0.194462959676,0.206341845271,0.537798665941,0.0751215655268,0.993701780126
