tagged_abstract_sents/14968141.txt,1,0.206355591311,-0.0354284781036,0.0616692308323,0.106008497564,0.00012380066718,0.0,0.0,0.220635942114
tagged_abstract_sents/14968141.txt,2,0.206355591311,0.0124938755512,0.188769469584,0.129715814208,0.00012380066718,0.525442431575,0.0428368547663,1.09719201602
tagged_abstract_sents/14968141.txt,3,0.206355591311,-0.0360350901752,0.0616692308323,0.106008497564,0.00012380066718,0.0,0.0,0.220514619699
tagged_abstract_sents/14968141.txt,4,0.206355591311,0.0349385221997,0.139250797795,0.521468892835,0.00012380066718,0.384444359835,0.0351901766996,1.21383776791
tagged_abstract_sents/14968141.txt,5,0.206355591311,0.0228062807681,0.139250797795,0.521468892835,0.00012380066718,0.453936175983,0.0479818923215,1.08456770854
tagged_abstract_sents/14968141.txt,7,0.0048270313757,-0.00782762884674,0.139250797795,0.521468892835,0.00012380066718,0.412687409025,0.0460317460317,0.687132527881
tagged_abstract_sents/14968141.txt,8,0.0108608205953,-0.0357317841394,0.139250797795,0.521468892835,0.00012380066718,0.0,0.0,0.227608366396
tagged_abstract_sents/14968141.txt,9,0.0108608205953,0.0282657894123,0.139250797795,0.521468892835,0.00012380066718,0.396517032063,0.045750485045,0.989271786574
tagged_abstract_sents/14968141.txt,10,0.0108608205953,-0.0357317841394,0.139250797795,0.521468892835,0.00012380066718,0.0,0.0,0.227608366396
tagged_abstract_sents/14968141.txt,11,0.0261464199517,0.0173467721238,0.139250797795,0.521468892835,0.00012380066718,0.365222766659,0.0449040978163,1.08055109648
tagged_abstract_sents/14968141.txt,12,0.0261464199517,0.00460791862066,0.139250797795,0.521468892835,0.00012380066718,0.300306578619,0.0500898472597,0.665274550808
tagged_abstract_sents/14968141.txt,13,0.0353982300885,0.00157485826276,0.139250797795,0.521468892835,0.00012380066718,0.175880149849,0.019328679706,0.449975750297
tagged_abstract_sents/14968141.txt,14,0.0518905872888,-0.036338396211,0.139250797795,0.521468892835,0.00012380066718,0.0,0.0,0.260310857337
tagged_abstract_sents/14968141.txt,15,0.0518905872888,0.0215930566249,0.139250797795,0.521468892835,0.00012380066718,0.366242677313,0.0501076740969,0.95566143241
tagged_abstract_sents/14968141.txt,16,0.0993563958166,-0.030575581531,0.139250797795,0.521468892835,0.00012380066718,0.0,0.0,0.299436067095
tagged_abstract_sents/14968141.txt,17,0.0993563958166,0.0306922376986,0.139250797795,0.521468892835,0.00012380066718,0.518391769911,0.0462441122818,1.08380394546
tagged_abstract_sents/14968141.txt,18,0.0993563958166,-0.00661440470358,0.139250797795,0.521468892835,0.00012380066718,0.24142500264,0.0490603474094,0.958808403684
tagged_abstract_sents/14968141.txt,19,0.172566371681,0.011280651408,0.139250797795,0.521468892835,0.00012380066718,0.446411254698,0.037308004963,0.959310832344
tagged_abstract_sents/14968141.txt,20,0.172566371681,-0.0336086418889,0.139250797795,0.521468892835,0.00012380066718,0.0,0.0,0.357397435715
tagged_abstract_sents/14968141.txt,21,0.206355591311,0.0131004876228,0.139250797795,0.521468892835,0.00012380066718,0.46420143776,0.0445278740427,1.11769297389
tagged_abstract_sents/14968141.txt,23,0.206355591311,-0.0351251720678,0.0616692308323,0.106008497564,0.00012380066718,0.0,0.0,0.220696603321
tagged_abstract_sents/14968141.txt,24,0.262268704747,0.0124938755512,0.0616692308323,0.106008497564,0.00012380066718,0.279154940229,0.0287178463279,0.669285029192
tagged_abstract_sents/14968141.txt,25,0.262268704747,-0.0151069737057,0.139250797795,0.521468892835,0.00012380066718,0.189027888398,0.0232961108972,0.739560669477
tagged_abstract_sents/14968141.txt,26,0.262268704747,-0.0257226849584,0.139250797795,0.521468892835,0.00012380066718,0.110321005519,0.0201407607068,0.561322060447
