tagged_abstract_sents/14973971.txt,1,0.206355591311,-0.0382173095014,0.0616692308323,0.106008497564,0.251022908427,0.0,0.0,0.220078175834
tagged_abstract_sents/14973971.txt,2,0.206355591311,-0.0241063029163,0.188769469584,0.129715814208,0.251022908427,0.152977173131,0.0121877599206,0.848710420296
tagged_abstract_sents/14973971.txt,4,0.206355591311,-0.0382173095014,0.0616692308323,0.106008497564,0.251022908427,0.0,0.0,0.220078175834
tagged_abstract_sents/14973971.txt,5,0.0048270313757,0.000352775164628,0.0616692308323,0.106008497564,0.251022908427,0.236079786913,0.0299041835081,0.631959804934
tagged_abstract_sents/14973971.txt,6,0.0048270313757,-0.0366494198808,0.0616692308323,0.106008497564,0.251022908427,0.0,0.0,0.0591689058097
tagged_abstract_sents/14973971.txt,7,0.0048270313757,0.0640090937598,0.0616692308323,0.106008497564,0.251022908427,0.298707583207,0.0410666533792,0.505058187211
tagged_abstract_sents/14973971.txt,8,0.0108608205953,0.0185402947632,0.0616692308323,0.106008497564,0.251022908427,0.154419304135,0.0304392154758,0.259904771161
tagged_abstract_sents/14973971.txt,9,0.0108608205953,-0.0357086861085,0.0616692308323,0.106008497564,0.251022908427,0.0,0.0,0.0641840839399
tagged_abstract_sents/14973971.txt,11,0.0261464199517,-0.0325729068674,0.0616692308323,0.106008497564,0.251022908427,0.0,0.0,0.0770397192732
tagged_abstract_sents/14973971.txt,12,0.0353982300885,0.00160708686108,0.0616692308323,0.106008497564,0.251022908427,0.307664302219,0.0363105241462,0.548396396452
tagged_abstract_sents/14973971.txt,13,0.0518905872888,-0.023479147068,0.0616692308323,0.106008497564,0.251022908427,0.159322721247,0.0348863727831,0.293703630687
tagged_abstract_sents/14973971.txt,14,0.0518905872888,-0.0375901536532,0.0616692308323,0.106008497564,0.251022908427,0.0,0.0,0.0966316037857
tagged_abstract_sents/14973971.txt,15,0.0993563958166,0.000352775164628,0.139250797795,0.521468892835,0.251022908427,0.303622839708,0.0409171690999,0.940322773942
tagged_abstract_sents/14973971.txt,16,0.0993563958166,0.00505644402634,0.139250797795,0.521468892835,0.251022908427,0.30245758237,0.034501802116,1.028590598
tagged_abstract_sents/14973971.txt,17,0.172566371681,0.0285747883349,0.139250797795,0.521468892835,0.251022908427,0.325976376554,0.0388670450582,1.0037923753
tagged_abstract_sents/14973971.txt,18,0.172566371681,0.0116415804327,0.139250797795,0.521468892835,0.251022908427,0.185392310864,0.029316358563,0.984733985078
tagged_abstract_sents/14973971.txt,19,0.172566371681,0.0489573534023,0.139250797795,0.521468892835,0.251022908427,0.360591776977,0.0387854609929,1.00049922815
tagged_abstract_sents/14973971.txt,20,0.206355591311,0.0580511132016,0.139250797795,0.521468892835,0.251022908427,0.356328278127,0.0466406522497,0.912743738367
tagged_abstract_sents/14973971.txt,21,0.206355591311,-0.034454374412,0.139250797795,0.521468892835,0.251022908427,0.0,0.0,0.384259664915
tagged_abstract_sents/14973971.txt,22,0.262268704747,-0.000901536531828,0.139250797795,0.521468892835,0.251022908427,0.30044933917,0.0292200242497,1.18081089823
tagged_abstract_sents/14973971.txt,23,0.262268704747,-0.00780025086234,0.139250797795,0.521468892835,0.251022908427,0.234040399782,0.029324565543,1.16104964452
tagged_abstract_sents/14973971.txt,24,0.262268704747,0.037041392286,0.139250797795,0.521468892835,0.251022908427,0.428743126846,0.0442971747471,1.16735251902
