tagged_abstract_sents/14974076.txt,1,0.206355591311,-0.0420224081691,0.0616692308323,0.106008497564,0.310281382339,0.0,0.0,0.219317156101
tagged_abstract_sents/14974076.txt,2,0.206355591311,0.00353141398383,0.188769469584,0.129715814208,0.310281382339,0.140264161213,0.0149340175953,0.843780628611
tagged_abstract_sents/14974076.txt,3,0.206355591311,-0.0420224081691,0.0616692308323,0.106008497564,0.310281382339,0.0,0.0,0.219317156101
tagged_abstract_sents/14974076.txt,4,0.206355591311,0.00290738902283,0.188769469584,0.129715814208,0.310281382339,0.184857207385,0.0164283968719,0.812892781108
tagged_abstract_sents/14974076.txt,5,0.0048270313757,-0.0404623457666,0.0616692308323,0.106008497564,0.310281382339,0.0,0.0,0.0584063206325
tagged_abstract_sents/14974076.txt,6,0.0048270313757,-0.00770103531414,0.0616692308323,0.106008497564,0.310281382339,0.128817529114,0.0363173329217,0.420366641435
tagged_abstract_sents/14974076.txt,7,0.0108608205953,-0.0304779463906,0.0616692308323,0.106008497564,0.310281382339,0.0629158962602,0.0115835777126,0.410799449255
tagged_abstract_sents/14974076.txt,8,0.0108608205953,-0.0395263083251,0.0616692308323,0.106008497564,0.310281382339,0.0,0.0,0.0634205594965
tagged_abstract_sents/14974076.txt,10,0.0261464199517,0.00477946390583,0.194899689933,0.0581677376677,0.310281382339,0.15788997852,0.0205011996801,0.480146644332
tagged_abstract_sents/14974076.txt,11,0.0353982300885,-0.0364061835201,0.0616692308323,0.106008497564,0.310281382339,0.0,0.0,0.0836745120521
tagged_abstract_sents/14974076.txt,12,0.0518905872888,-0.0167493972486,0.0616692308323,0.106008497564,0.310281382339,0.140384842654,0.0224633431085,0.562314720206
tagged_abstract_sents/14974076.txt,13,0.0518905872888,-0.0413983832081,0.0616692308323,0.106008497564,0.310281382339,0.0,0.0,0.0958699578747
tagged_abstract_sents/14974076.txt,15,0.0993563958166,0.129272443625,0.139250797795,0.521468892835,0.310281382339,0.28645786011,0.0312903225806,0.832360039876
tagged_abstract_sents/14974076.txt,16,0.172566371681,0.0210041128918,0.139250797795,0.521468892835,0.310281382339,0.133056556414,0.0270853698273,0.727140443853
tagged_abstract_sents/14974076.txt,17,0.172566371681,0.0721741596937,0.139250797795,0.521468892835,0.310281382339,0.30275926965,0.0247959102798,0.934678202384
tagged_abstract_sents/14974076.txt,18,0.206355591311,0.0774783718621,0.139250797795,0.521468892835,0.310281382339,0.193641730455,0.0252143018272,0.807225015839
tagged_abstract_sents/14974076.txt,19,0.206355591311,-0.0382782584031,0.139250797795,0.521468892835,0.310281382339,0.0,0.0,0.383494888116
tagged_abstract_sents/14974076.txt,20,0.262268704747,0.00509147638633,0.139250797795,0.521468892835,0.310281382339,0.107642056634,0.0241477272727,0.840028344762
tagged_abstract_sents/14974076.txt,21,0.262268704747,0.0200680754503,0.139250797795,0.521468892835,0.310281382339,0.0955051012128,0.015522971652,0.729883067813
tagged_abstract_sents/14974076.txt,22,0.262268704747,-0.0108211601191,0.139250797795,0.521468892835,0.310281382339,0.105555805495,0.0165597507331,0.866113737089
