tagged_abstract_sents/14984232.txt,1,0.206355591311,-0.0399168043763,0.0616692308323,0.106008497564,0.195943714369,0.139851173492,0.0323198024386,0.614601085425
tagged_abstract_sents/14984232.txt,3,0.0048270313757,-0.0283491936862,0.188769469584,0.129715814208,0.195943714369,0.167712972564,0.0315185515747,0.670557080969
tagged_abstract_sents/14984232.txt,4,0.0048270313757,0.00755028776568,0.210342442448,0.0253702522065,0.195943714369,0.168112341638,0.0128387096774,0.420540688667
tagged_abstract_sents/14984232.txt,5,0.0108608205953,-0.0287480768135,0.0616692308323,0.106008497564,0.195943714369,0.170229738948,0.0232882825449,0.373224213031
tagged_abstract_sents/14984232.txt,6,0.0261464199517,0.0418542367086,0.139250797795,0.521468892835,0.195943714369,0.20440941283,0.030476811122,0.619636388154
tagged_abstract_sents/14984232.txt,8,0.0518905872888,0.00635363838395,0.139250797795,0.521468892835,0.195943714369,0.181541825272,0.025348973607,0.796656605119
tagged_abstract_sents/14984232.txt,9,0.0993563958166,0.00116815772979,0.139250797795,0.521468892835,0.195943714369,0.150374690217,0.0262533165759,0.665932676634
tagged_abstract_sents/14984232.txt,10,0.172566371681,-0.00561285543336,0.139250797795,0.521468892835,0.195943714369,0.164460720459,0.0288920056101,0.767734909698
tagged_abstract_sents/14984232.txt,11,0.172566371681,0.0135335346743,0.139250797795,0.521468892835,0.195943714369,0.107339660295,0.0283422459893,0.748929273398
tagged_abstract_sents/14984232.txt,12,0.206355591311,0.0067525215112,0.139250797795,0.521468892835,0.195943714369,0.168594836816,0.0249075608823,0.82279850644
tagged_abstract_sents/14984232.txt,13,0.262268704747,0.0661861074705,0.139250797795,0.521468892835,0.195943714369,0.230546099091,0.029100684262,0.935014472565
tagged_abstract_sents/14984232.txt,14,0.262268704747,-0.0431078693943,0.139250797795,0.521468892835,0.195943714369,0.081057593985,0.026047339757,0.730308104777
