tagged_abstract_sents/14985592.txt,1,0.125905068383,-0.0487317342156,0.0616692308323,0.142474783506,0.0,0.0,0.0,0.164554758331
tagged_abstract_sents/14985592.txt,2,0.239742558327,0.138613178936,0.188769469584,0.202456734834,0.329504323012,0.190453639822,0.0636961007929,0.958292501317
tagged_abstract_sents/14985592.txt,3,0.239742558327,-0.0512131237938,0.0616692308323,0.142474783506,0.0,0.0,0.0,0.25512847237
tagged_abstract_sents/14985592.txt,4,0.218020917136,0.102012682658,0.210342442448,0.226435992083,0.25384280477,0.155767041876,0.0671798631476,0.844710998882
tagged_abstract_sents/14985592.txt,5,0.218020917136,-0.0505927763992,0.0616692308323,0.142474783506,0.0,0.0,0.0,0.237875228897
tagged_abstract_sents/14985592.txt,6,0.162510056315,-0.0350840915357,0.0616692308323,0.142474783506,0.194745950644,0.0266702796128,0.0139002932551,0.431884800724
tagged_abstract_sents/14985592.txt,7,0.162510056315,-0.0474910394265,0.0616692308323,0.142474783506,0.0,0.0,0.0,0.194086887635
tagged_abstract_sents/14985592.txt,8,0.101769911504,-0.0139922801213,0.0616692308323,0.142474783506,0.0848816136065,0.0688718359832,0.0558312655087,0.361779238746
tagged_abstract_sents/14985592.txt,9,0.0852775543041,-0.0419079128757,0.0616692308323,0.142474783506,0.0,0.0,0.0,0.133417511336
tagged_abstract_sents/14985592.txt,10,0.0711987127916,0.00399779432037,0.0616692308323,0.142474783506,0.0716809620518,0.140002161001,0.0511070381232,0.394125740741
tagged_abstract_sents/14985592.txt,11,0.0458567980692,-0.0183347118831,0.0616692308323,0.142474783506,0.101367967542,0.0883948725401,0.0520619501466,0.348420336776
tagged_abstract_sents/14985592.txt,12,0.0458567980692,-0.0505927763992,0.0616692308323,0.142474783506,0.0,0.0,0.0,0.100143933643
tagged_abstract_sents/14985592.txt,13,0.0245374094932,0.0486628067273,0.139250797795,0.0356431803763,0.411916915653,0.160747521808,0.0543924518679,0.73673773128
tagged_abstract_sents/14985592.txt,14,0.0245374094932,0.0765784394817,0.139250797795,0.0356431803763,0.502162487263,0.187907663962,0.0575569591699,0.862891078896
tagged_abstract_sents/14985592.txt,15,0.00844730490748,-0.0481113868211,0.0616692308323,0.142474783506,0.0,0.0,0.0,0.0707126170296
tagged_abstract_sents/14985592.txt,16,0.00844730490748,-0.0158533223049,0.139250797795,0.0356431803763,0.251754624125,0.0681050723293,0.0521407624633,0.455905991393
tagged_abstract_sents/14985592.txt,17,0.00120675784393,0.00275709953129,0.139250797795,0.0356431803763,0.268056380065,0.0819339002873,0.0579351388649,0.489760598409
tagged_abstract_sents/14985592.txt,18,0.00120675784393,0.0492831541219,0.139250797795,0.0356431803763,0.305774668316,0.131129035746,0.0586370618629,0.586681156035
