tagged_abstract_sents/14982911.txt,1,0.206355591311,-0.0426796581843,0.0616692308323,0.106008497564,0.0773288325579,0.0,0.0,0.219185706097
tagged_abstract_sents/14982911.txt,2,0.206355591311,0.00657459086179,0.188769469584,0.129715814208,0.0773288325579,0.229475914674,0.0852437843074,0.709223889265
tagged_abstract_sents/14982911.txt,3,0.206355591311,-0.0419859363668,0.0616692308323,0.106008497564,0.0773288325579,0.0,0.0,0.219324450461
tagged_abstract_sents/14982911.txt,5,0.0048270313757,-0.0336612745562,0.0616692308323,0.106008497564,0.0773288325579,0.0,0.0,0.0597665348746
tagged_abstract_sents/14982911.txt,6,0.0048270313757,0.0284268281147,0.0616692308323,0.106008497564,0.0773288325579,0.190122375571,0.0655721417749,0.344945524791
tagged_abstract_sents/14982911.txt,7,0.0108608205953,0.00588086904424,0.139250797795,0.521468892835,0.0773288325579,0.167891637093,0.0904100742654,0.510405452113
tagged_abstract_sents/14982911.txt,8,0.0108608205953,-0.0405984927317,0.139250797795,0.521468892835,0.0773288325579,0.0,0.0,0.226635024678
tagged_abstract_sents/14982911.txt,10,0.0261464199517,0.0339766026551,0.139250797795,0.521468892835,0.0773288325579,0.200313520118,0.0811845564832,0.540607462188
tagged_abstract_sents/14982911.txt,11,0.0353982300885,-0.0378236054615,0.139250797795,0.521468892835,0.0773288325579,0.0,0.0,0.246819929726
tagged_abstract_sents/14982911.txt,12,0.0518905872888,0.0253050799357,0.139250797795,0.521468892835,0.0773288325579,0.182462394181,0.0983582126624,0.62424450347
tagged_abstract_sents/14982911.txt,13,0.0518905872888,-0.0426796581843,0.139250797795,0.521468892835,0.0773288325579,0.0,0.0,0.259042604942
tagged_abstract_sents/14982911.txt,14,0.0993563958166,0.0669283889887,0.139250797795,0.521468892835,0.0773288325579,0.207701623173,0.0852437843074,0.67708920103
tagged_abstract_sents/14982911.txt,15,0.0993563958166,0.00171853813893,0.139250797795,0.521468892835,0.0773288325579,0.140080134209,0.099451081692,0.763678193232
tagged_abstract_sents/14982911.txt,16,0.172566371681,0.012471226311,0.139250797795,0.521468892835,0.0773288325579,0.187364394553,0.0874295223666,0.738522372931
tagged_abstract_sents/14982911.txt,17,0.172566371681,-0.0201336991139,0.139250797795,0.521468892835,0.0773288325579,0.117433287124,0.106554730384,0.584080441779
tagged_abstract_sents/14982911.txt,18,0.206355591311,0.00553400813546,0.139250797795,0.521468892835,0.0773288325579,0.120288887133,0.0947153158971,0.767425997232
tagged_abstract_sents/14982911.txt,19,0.206355591311,-0.0412922145492,0.139250797795,0.521468892835,0.0773288325579,0.0,0.0,0.382892096887
tagged_abstract_sents/14982911.txt,20,0.262268704747,0.0374452117428,0.139250797795,0.521468892835,0.0773288325579,0.184271143948,0.0874295223666,0.844982048335
tagged_abstract_sents/14982911.txt,21,0.262268704747,-0.0173588118437,0.139250797795,0.521468892835,0.0773288325579,0.120238498978,0.0947153158971,0.647363083052
tagged_abstract_sents/14982911.txt,22,0.262268704747,0.0502790653675,0.139250797795,0.521468892835,0.0773288325579,0.222467976503,0.0621569260575,0.807890578738
