tagged_abstract_sents/15016485.txt,1,0.0954875100725,-0.0492111809374,0.0616692308323,0.247294108221,0.351562731397,0.0,0.0,0.171570619753
tagged_abstract_sents/15016485.txt,2,0.0253827558421,-0.00101466352448,0.188769469584,0.123191979006,0.351562731397,0.358200690702,0.0789719455025,1.00105026256
tagged_abstract_sents/15016485.txt,4,0.0805801772764,-0.0501440167583,0.0616692308323,0.247294108221,0.351562731397,0.0,0.0,0.159458186352
tagged_abstract_sents/15016485.txt,5,0.0805801772764,0.00489329667452,0.194899689933,0.293363477728,0.351562731397,0.363450204501,0.0790754806284,0.978238256676
tagged_abstract_sents/15016485.txt,6,0.123690572119,0.0129778737889,0.0616692308323,0.247294108221,0.351562731397,0.484608439838,0.0800821308233,1.0839699605
tagged_abstract_sents/15016485.txt,7,0.123690572119,-0.0336639172558,0.0616692308323,0.247294108221,0.351562731397,0.0968416540123,0.0323102842074,0.779313309233
tagged_abstract_sents/15016485.txt,8,0.140209508461,0.018885833988,0.139250797795,0.194462959676,0.351562731397,0.478895613828,0.086338997949,1.07069786926
tagged_abstract_sents/15016485.txt,9,0.140209508461,-0.0498330714847,0.139250797795,0.194462959676,0.351562731397,0.0,0.0,0.230165279272
tagged_abstract_sents/15016485.txt,10,0.149879129734,0.0689480230427,0.139250797795,0.194462959676,0.351562731397,0.455428156509,0.0606352991099,0.987351311741
tagged_abstract_sents/15016485.txt,11,0.149879129734,0.00769180413721,0.139250797795,0.194462959676,0.351562731397,0.352769322188,0.0617675065924,0.904763418571
tagged_abstract_sents/15016485.txt,12,0.176470588235,-0.0103430217334,0.139250797795,0.194462959676,0.351562731397,0.315905650344,0.0647872978667,1.11383505655
tagged_abstract_sents/15016485.txt,13,0.176470588235,0.0229281225452,0.139250797795,0.194462959676,0.351562731397,0.393606370993,0.0695530663301,1.0339171838
tagged_abstract_sents/15016485.txt,14,0.166800966962,0.0608634459283,0.139250797795,0.194462959676,0.351562731397,0.595962359663,0.0808807654942,1.31377597449
tagged_abstract_sents/15016485.txt,15,0.166800966962,-0.0479673998429,0.0616692308323,0.247294108221,0.351562731397,0.0,0.0,0.228870141484
tagged_abstract_sents/15016485.txt,16,0.0954875100725,-0.0162509819324,0.139250797795,0.194462959676,0.351562731397,0.340569297642,0.0725104778405,1.0249076848
tagged_abstract_sents/15016485.txt,17,0.0954875100725,0.0260375752815,0.139250797795,0.194462959676,0.351562731397,0.482068102136,0.0787576911808,1.20602639119
tagged_abstract_sents/15016485.txt,18,0.0342465753425,0.0229281225452,0.139250797795,0.194462959676,0.351562731397,0.400164309061,0.0670493072705,1.1454845362
tagged_abstract_sents/15016485.txt,19,0.0342465753425,0.00489329667452,0.139250797795,0.194462959676,0.351562731397,0.336823235982,0.0572474118566,0.901973585645
