tagged_abstract_sents/15014182.txt,1,0.125905068383,-0.0567348008386,0.0616692308323,0.142474783506,0.0,0.0,0.0,0.162954145007
tagged_abstract_sents/15014182.txt,2,0.239742558327,-0.00956498951782,0.188769469584,0.202456734834,0.315363566197,0.242649781646,0.0533178096134,0.956333961457
tagged_abstract_sents/15014182.txt,3,0.239742558327,0.0113993710692,0.188769469584,0.202456734834,0.219597020092,0.188277316675,0.0400226259075,0.797092638792
tagged_abstract_sents/15014182.txt,4,0.218020917136,-0.0132337526205,0.188769469584,0.202456734834,0.246879978422,0.161908270025,0.0537454829573,0.789425469832
tagged_abstract_sents/15014182.txt,5,0.162510056315,-0.0583071278826,0.0616692308323,0.142474783506,0.0,0.0,0.0,0.191923669944
tagged_abstract_sents/15014182.txt,6,0.162510056315,0.0339360587002,0.0616692308323,0.142474783506,0.533673007278,0.249387435663,0.0602109581014,1.0536437083
tagged_abstract_sents/15014182.txt,7,0.101769911504,0.00982704402516,0.0616692308323,0.142474783506,0.40828920833,0.14010697612,0.030550207191,0.735904780117
tagged_abstract_sents/15014182.txt,8,0.0852775543041,-0.0216194968553,0.0616692308323,0.142474783506,0.234178342217,0.144958248592,0.035630572182,0.552242357531
tagged_abstract_sents/15014182.txt,9,0.0711987127916,-0.0583071278826,0.0616692308323,0.142474783506,0.0,0.0,0.0,0.118874595125
tagged_abstract_sents/15014182.txt,10,0.0458567980692,-0.020571278826,0.139250797795,0.0356431803763,0.513322772623,0.158287125474,0.0581648598496,0.842664293648
tagged_abstract_sents/15014182.txt,11,0.0458567980692,0.124082809224,0.139250797795,0.0356431803763,0.194151289878,0.231011519738,0.033027742224,0.600010905151
tagged_abstract_sents/15014182.txt,12,0.0245374094932,0.0837264150943,0.139250797795,0.0356431803763,0.233475687022,0.263371477994,0.0396767262428,0.653217454882
tagged_abstract_sents/15014182.txt,13,0.00844730490748,0.00615828092243,0.139250797795,0.0356431803763,0.331110475358,0.254352185039,0.0620678288895,0.735838342407
tagged_abstract_sents/15014182.txt,14,0.00844730490748,-0.0562106918239,0.139250797795,0.0356431803763,0.0,0.0,0.0,0.0758340585715
tagged_abstract_sents/15014182.txt,15,0.00120675784393,0.0344601677149,0.139250797795,0.0356431803763,0.263196292965,0.193655139673,0.0335309629272,0.578558188394
tagged_abstract_sents/15014182.txt,16,0.00120675784393,-0.00904088050314,0.139250797795,0.0356431803763,0.354174538902,0.241733898732,0.0471918515891,0.722575872407
