tagged_abstract_sents/15021067.txt,1,0.0954875100725,-0.0600649350649,0.0616692308323,0.247294108221,0.240986303575,0.0,0.0,0.169399868928
tagged_abstract_sents/15021067.txt,2,0.0253827558421,-0.0310245310245,0.188769469584,0.123191979006,0.240986303575,0.155352209329,0.0510222352443,0.479105722531
tagged_abstract_sents/15021067.txt,3,0.0805801772764,-9.01875901876e-05,0.188769469584,0.123191979006,0.240986303575,0.263185680569,0.0877495254717,0.64957812082
tagged_abstract_sents/15021067.txt,4,0.0805801772764,-0.0108225108225,0.188769469584,0.123191979006,0.240986303575,0.276235790192,0.0798570417033,0.837235195656
tagged_abstract_sents/15021067.txt,6,0.140209508461,0.0308441558442,0.0616692308323,0.247294108221,0.240986303575,0.442030266136,0.0880931042209,0.97179416937
tagged_abstract_sents/15021067.txt,7,0.149073327961,-0.0613275613276,0.0616692308323,0.247294108221,0.240986303575,0.0,0.0,0.212015997986
tagged_abstract_sents/15021067.txt,8,0.149879129734,0.0207431457431,0.139250797795,0.194462959676,0.240986303575,0.342874167519,0.0775331642705,0.953693376292
tagged_abstract_sents/15021067.txt,9,0.176470588235,0.0516774891775,0.139250797795,0.194462959676,0.240986303575,0.254216162856,0.0710231977477,0.604715615828
tagged_abstract_sents/15021067.txt,10,0.166800966962,-0.0146103896104,0.139250797795,0.194462959676,0.240986303575,0.219529426483,0.0704693538711,0.581120380829
tagged_abstract_sents/15021067.txt,11,0.166800966962,0.00496031746032,0.139250797795,0.194462959676,0.240986303575,0.274945964228,0.0833138001758,0.809220594104
tagged_abstract_sents/15021067.txt,12,0.0954875100725,-0.0183982683983,0.139250797795,0.194462959676,0.240986303575,0.264218997512,0.0883100421661,0.742187831357
tagged_abstract_sents/15021067.txt,13,0.0342465753425,-0.0663780663781,0.139250797795,0.194462959676,0.240986303575,0.0,0.0,0.142085933799
tagged_abstract_sents/15021067.txt,14,0.0342465753425,0.044733044733,0.139250797795,0.194462959676,0.240986303575,0.457830623615,0.118709974467,0.981835057678
