tagged_abstract_sents/15030341.txt,1,0.125905068383,-0.0529474610357,0.0616692308323,0.142474783506,0.0,0.0,0.0,0.163711612967
tagged_abstract_sents/15030341.txt,2,0.239742558327,0.00153971845148,0.188769469584,0.202456734834,0.0566330507892,0.490630846001,0.0557936125278,0.950281254912
tagged_abstract_sents/15030341.txt,3,0.239742558327,-0.0529474610357,0.0616692308323,0.142474783506,0.0,0.0,0.0,0.254781604922
tagged_abstract_sents/15030341.txt,4,0.218020917136,0.0677790346908,0.188769469584,0.202456734834,0.204779553943,0.793083561131,0.0824377194293,1.42339513039
tagged_abstract_sents/15030341.txt,5,0.218020917136,-0.0476055806938,0.0616692308323,0.142474783506,0.0,0.0,0.0,0.238472668038
tagged_abstract_sents/15030341.txt,6,0.162510056315,-0.0230329311212,0.0616692308323,0.142474783506,0.0,0.432948593268,0.0293381638903,0.661265266455
tagged_abstract_sents/15030341.txt,7,0.101769911504,0.0175653594771,0.139250797795,0.0356431803763,0.0447754596154,0.312817922004,0.0667015263564,0.589542262086
tagged_abstract_sents/15030341.txt,8,0.101769911504,-0.0545500251383,0.139250797795,0.0356431803763,0.0,0.0,0.0,0.150824277186
tagged_abstract_sents/15030341.txt,9,0.0711987127916,0.0287833081951,0.139250797795,0.0356431803763,0.14414173734,0.498691162897,0.0523215486239,0.838188433744
tagged_abstract_sents/15030341.txt,10,0.0711987127916,0.0672448466566,0.139250797795,0.0356431803763,0.156720669571,0.645433956795,0.0516488441714,1.00452976311
tagged_abstract_sents/15030341.txt,11,0.0458567980692,0.0303858722976,0.139250797795,0.0356431803763,0.231460609554,0.561883804809,0.039032026528,0.955457406816
tagged_abstract_sents/15030341.txt,12,0.0245374094932,0.0223730517848,0.139250797795,0.0356431803763,0.223347286119,0.501545733243,0.0604459906021,0.889761900926
tagged_abstract_sents/15030341.txt,13,0.0245374094932,0.0266465560583,0.139250797795,0.0356431803763,0.287090038494,0.516847479323,0.0289703508595,0.938185460493
tagged_abstract_sents/15030341.txt,14,0.00844730490748,-0.0267722473605,0.139250797795,0.0356431803763,0.0,0.335716465928,0.0113542989467,0.428792512338
tagged_abstract_sents/15030341.txt,15,0.00844730490748,-0.0524132730015,0.0616692308323,0.142474783506,0.0,0.0,0.0,0.0698522397935
tagged_abstract_sents/15030341.txt,16,0.00120675784393,0.0170311714429,0.139250797795,0.0356431803763,0.233089802143,0.577093779226,0.0479663105998,0.942839885543
tagged_abstract_sents/15030341.txt,17,0.00120675784393,0.0309200603318,0.139250797795,0.0356431803763,0.266219733654,0.620287493666,0.0611011831225,1.03507618179
