tagged_abstract_sents/15055095.txt,1,0.125905068383,-0.0440444274224,0.0616692308323,0.142474783506,0.0,0.0,0.0,0.16549221969
tagged_abstract_sents/15055095.txt,2,0.125905068383,0.0341503893783,0.205068369407,0.26003320229,0.452711750259,0.149285277075,0.0929962111265,0.983091516434
tagged_abstract_sents/15055095.txt,3,0.239742558327,-0.0418102897996,0.0616692308323,0.142474783506,0.0,0.0,0.0,0.257009039169
tagged_abstract_sents/15055095.txt,4,0.239742558327,0.0743648665901,0.194899689933,0.13295610691,0.407562804333,0.164685248264,0.100465918896,1.01671766851
tagged_abstract_sents/15055095.txt,5,0.218020917136,-0.0440444274224,0.0616692308323,0.142474783506,0.0,0.0,0.0,0.239184898692
tagged_abstract_sents/15055095.txt,6,0.218020917136,0.0234265287885,0.0616692308323,0.142474783506,0.481041378612,0.120935853115,0.0828084555651,0.937464777226
tagged_abstract_sents/15055095.txt,7,0.162510056315,-0.00427677773522,0.0616692308323,0.142474783506,0.292141002813,0.103464905835,0.0827792721921,0.681114920813
tagged_abstract_sents/15055095.txt,8,0.162510056315,0.00153198008426,0.0616692308323,0.142474783506,0.16168117384,0.112895572048,0.0585634167386,0.537031654163
tagged_abstract_sents/15055095.txt,9,0.101769911504,0.0292352866079,0.0616692308323,0.142474783506,0.427144134495,0.137066286322,0.0766824849008,0.801732942711
tagged_abstract_sents/15055095.txt,10,0.101769911504,-0.0435975998979,0.0616692308323,0.142474783506,0.0,0.0,0.0,0.146273459692
tagged_abstract_sents/15055095.txt,11,0.0711987127916,0.0198519085919,0.0616692308323,0.142474783506,0.150616135687,0.112896066656,0.0867467417465,0.484765346509
tagged_abstract_sents/15055095.txt,12,0.0711987127916,-0.0158942933742,0.0616692308323,0.142474783506,0.368934533825,0.0855285453395,0.0883376473972,0.670157888588
tagged_abstract_sents/15055095.txt,13,0.0458567980692,-0.0440444274224,0.0616692308323,0.142474783506,0.0,0.0,0.0,0.101453603439
tagged_abstract_sents/15055095.txt,14,0.0458567980692,0.0551512830333,0.139250797795,0.0356431803763,0.405779964772,0.211078100834,0.0691129006487,0.814005014327
tagged_abstract_sents/15055095.txt,15,0.0245374094932,0.0109153581003,0.139250797795,0.0356431803763,0.327730873237,0.114825573153,0.088125539258,0.632813337873
tagged_abstract_sents/15055095.txt,16,0.0245374094932,0.0426401123452,0.139250797795,0.0356431803763,0.332966054287,0.147929281883,0.0849870578085,0.674358697052
tagged_abstract_sents/15055095.txt,17,0.00844730490748,-0.0427039448487,0.139250797795,0.0356431803763,0.0,0.0,0.0,0.0785354079665
tagged_abstract_sents/15055095.txt,18,0.00844730490748,0.0113621856249,0.139250797795,0.0356431803763,0.359742455532,0.116053749492,0.0797307115935,0.644875550679
tagged_abstract_sents/15055095.txt,19,0.00120675784393,-0.000255330014043,0.139250797795,0.0356431803763,0.318135343416,0.149933815139,0.100024651793,0.64932650363
tagged_abstract_sents/15055095.txt,20,0.00120675784393,-0.0217030511937,0.139250797795,0.0356431803763,0.405545857559,0.0696561539453,0.0680460609279,0.620191221479
tagged_abstract_sents/15055095.txt,21,0.00120675784393,-0.000255330014043,0.139250797795,0.0356431803763,0.497814100019,0.076954863872,0.0891573195283,0.745158976702
