tagged_abstract_sents/15059788.txt,2,0.123690572119,-0.08,0.188769469584,0.123191979006,0.18856283825,0.084844359039,0.0227494966926,0.486738655027
tagged_abstract_sents/15059788.txt,3,0.149073327961,-0.0437037037037,0.139250797795,0.194462959676,0.18856283825,0.0985562319665,0.030655230168,0.367700328584
tagged_abstract_sents/15059788.txt,4,0.176470588235,0.171111111111,0.139250797795,0.194462959676,0.18856283825,0.1430590678,0.0629665753836,0.622980996088
tagged_abstract_sents/15059788.txt,5,0.0954875100725,-0.0281481481481,0.139250797795,0.194462959676,0.18856283825,0.0743676128616,0.0500287604257,0.485741358633
tagged_abstract_sents/15059788.txt,6,0.0342465753425,-0.022962962963,0.139250797795,0.194462959676,0.18856283825,0.106552772691,0.0517006493801,0.497585214803
