tagged_abstract_sents/15070788.txt,1,0.0954875100725,-0.0719636540196,0.0616692308323,0.247294108221,0.317644571276,0.0,0.0,0.167020125137
tagged_abstract_sents/15070788.txt,2,0.0253827558421,-0.0291322743983,0.188769469584,0.123191979006,0.317644571276,0.403567847818,0.0256951596292,0.724770850684
tagged_abstract_sents/15070788.txt,3,0.0805801772764,0.015953388361,0.188769469584,0.123191979006,0.317644571276,0.498520524273,0.0203398558187,0.937684842328
tagged_abstract_sents/15070788.txt,4,0.123690572119,-0.0733162239023,0.0616692308323,0.247294108221,0.317644571276,0.0,0.0,0.189312060797
tagged_abstract_sents/15070788.txt,6,0.140209508461,0.0078379690643,0.139250797795,0.194462959676,0.317644571276,0.369844468466,0.012333872787,0.623897318506
tagged_abstract_sents/15070788.txt,7,0.149879129734,-0.0733162239023,0.139250797795,0.194462959676,0.317644571276,0.0,0.0,0.233204345807
tagged_abstract_sents/15070788.txt,8,0.176470588235,0.0204619546369,0.139250797795,0.194462959676,0.317644571276,0.433960928346,0.0252911352293,0.732500287241
tagged_abstract_sents/15070788.txt,9,0.176470588235,0.124158978983,0.139250797795,0.194462959676,0.317644571276,0.589680536194,0.0210668201369,1.26331294531
tagged_abstract_sents/15070788.txt,10,0.166800966962,0.159776652563,0.139250797795,0.194462959676,0.317644571276,0.527214657475,0.0256103471255,0.991285376508
tagged_abstract_sents/15070788.txt,11,0.0954875100725,-0.071512797392,0.139250797795,0.194462959676,0.317644571276,0.0,0.0,0.19005173538
tagged_abstract_sents/15070788.txt,12,0.0342465753425,-0.0408545467157,0.139250797795,0.194462959676,0.317644571276,0.337845227317,0.0215242018538,0.80027159167
tagged_abstract_sents/15070788.txt,13,0.0342465753425,-0.0259762780051,0.139250797795,0.194462959676,0.317644571276,0.341114182337,0.018645997073,0.827571042159
