tagged_abstract_sents/15096077.txt,1,0.0954875100725,-0.065830607052,0.0616692308323,0.247294108221,0.23212114872,0.0,0.0,0.16824673453
tagged_abstract_sents/15096077.txt,3,0.0805801772764,0.0155943293348,0.188769469584,0.123191979006,0.23212114872,0.432028586827,0.037731258633,0.924673395809
tagged_abstract_sents/15096077.txt,4,0.0805801772764,-0.0678662304617,0.0616692308323,0.247294108221,0.23212114872,0.0,0.0,0.155913743611
tagged_abstract_sents/15096077.txt,5,0.123690572119,0.111268629589,0.210342442448,0.141687475369,0.23212114872,0.446967043504,0.0405725572608,0.818759036431
tagged_abstract_sents/15096077.txt,6,0.140209508461,-0.00527081061432,0.0616692308323,0.247294108221,0.23212114872,0.24741730736,0.03391444477,0.608226610057
tagged_abstract_sents/15096077.txt,7,0.149073327961,0.026790258088,0.0616692308323,0.247294108221,0.23212114872,0.347926687033,0.0302933795335,0.910296684338
tagged_abstract_sents/15096077.txt,8,0.149879129734,-0.0185023627772,0.0616692308323,0.247294108221,0.23212114872,0.252782518082,0.0308745971286,0.504906314783
tagged_abstract_sents/15096077.txt,9,0.176470588235,-0.0673573246092,0.139250797795,0.194462959676,0.23212114872,0.0,0.0,0.255669292467
tagged_abstract_sents/15096077.txt,10,0.166800966962,-0.0108687749909,0.139250797795,0.194462959676,0.23212114872,0.289291967273,0.0250732493408,0.881345869686
tagged_abstract_sents/15096077.txt,11,0.166800966962,0.0278080697928,0.139250797795,0.194462959676,0.23212114872,0.385439742194,0.0240483220266,0.970710816021
tagged_abstract_sents/15096077.txt,12,0.0954875100725,0.0527444565613,0.139250797795,0.194462959676,0.23212114872,0.327100922829,0.0351910761375,0.818418276699
tagged_abstract_sents/15096077.txt,13,0.0342465753425,-0.065830607052,0.139250797795,0.194462959676,0.23212114872,0.0,0.0,0.142195425664
tagged_abstract_sents/15096077.txt,14,0.0342465753425,0.0629225736096,0.139250797795,0.194462959676,0.23212114872,0.453638658663,0.035562554937,0.889268424117
