tagged_abstract_sents/15103758.txt,1,0.125905068383,-0.0803791235844,0.0616692308323,0.142474783506,0.0,0.0,0.0,0.158225280457
tagged_abstract_sents/15103758.txt,2,0.239742558327,0.0599458394879,0.188769469584,0.202456734834,0.305529878291,0.491879285233,0.0724961114492,1.22881024477
tagged_abstract_sents/15103758.txt,3,0.218020917136,-0.0774249138355,0.0616692308323,0.142474783506,0.0,0.0,0.0,0.23250880141
tagged_abstract_sents/15103758.txt,4,0.162510056315,0.0348350566224,0.210342442448,0.226435992083,0.408822036409,0.485258116451,0.0476818440909,1.25183907218
tagged_abstract_sents/15103758.txt,5,0.101769911504,0.0296651895618,0.0616692308323,0.142474783506,0.208187079783,0.282044022092,0.0604971548368,0.711654274295
tagged_abstract_sents/15103758.txt,6,0.0852775543041,-0.0212949286066,0.139250797795,0.0356431803763,0.390633570242,0.296098230649,0.0491378941514,0.880151105775
tagged_abstract_sents/15103758.txt,7,0.0711987127916,-0.0774249138355,0.139250797795,0.0356431803763,0.0,0.0,0.0,0.121792340476
tagged_abstract_sents/15103758.txt,8,0.0458567980692,-0.00356967011324,0.139250797795,0.0356431803763,0.28885871053,0.291773631856,0.0446105257426,0.741532725572
tagged_abstract_sents/15103758.txt,9,0.0245374094932,-0.0279419005416,0.139250797795,0.0356431803763,0.0,0.190041450446,0.0434261755016,0.327827526444
tagged_abstract_sents/15103758.txt,10,0.00844730490748,0.154480551452,0.139250797795,0.0356431803763,0.16796846544,0.396040025457,0.0586227551094,0.740603553233
tagged_abstract_sents/15103758.txt,11,0.00120675784393,-0.0752092565239,0.0616692308323,0.142474783506,0.0,0.0,0.0,0.0595006054382
tagged_abstract_sents/15103758.txt,12,0.00120675784393,0.0843180699163,0.139250797795,0.0356431803763,0.29211123412,0.518739157756,0.0606378247888,0.969635589933
