tagged_abstract_sents/15111779.txt,1,0.0954875100725,-0.0169623404918,0.0616692308323,0.247294108221,0.181830112016,0.34804935165,0.0272275960899,0.719399286121
tagged_abstract_sents/15111779.txt,3,0.0805801772764,0.0276999688764,0.0616692308323,0.247294108221,0.181830112016,0.44336980792,0.0446414862583,0.796977488618
tagged_abstract_sents/15111779.txt,4,0.0805801772764,-0.0284002489885,0.0616692308323,0.247294108221,0.181830112016,0.311299702382,0.115054957957,0.697489972685
tagged_abstract_sents/15111779.txt,5,0.123690572119,0.0353252412076,0.194899689933,0.293363477728,0.181830112016,0.448968819681,0.105348743073,0.969517763814
tagged_abstract_sents/15111779.txt,6,0.140209508461,-0.0273109243697,0.0616692308323,0.247294108221,0.181830112016,0.264695771014,0.0245470597267,0.500971100518
tagged_abstract_sents/15111779.txt,7,0.149073327961,-0.0371148459384,0.0616692308323,0.247294108221,0.181830112016,0.215595763811,0.0652047553245,0.497659060199
tagged_abstract_sents/15111779.txt,8,0.149879129734,0.00046685340803,0.0616692308323,0.247294108221,0.181830112016,0.362481849108,0.0449984646092,0.632499836069
tagged_abstract_sents/15111779.txt,9,0.176470588235,0.00918145035792,0.139250797795,0.194462959676,0.181830112016,0.260004703862,0.0445314499207,0.654391400553
tagged_abstract_sents/15111779.txt,10,0.166800966962,0.00373482726424,0.139250797795,0.194462959676,0.181830112016,0.47243158466,0.101262219151,0.928702252352
tagged_abstract_sents/15111779.txt,11,0.166800966962,0.0026455026455,0.139250797795,0.194462959676,0.181830112016,0.273107624595,0.0303959388914,0.565437724386
tagged_abstract_sents/15111779.txt,12,0.0954875100725,0.00319016495487,0.139250797795,0.194462959676,0.181830112016,0.39162926221,0.0325157377553,0.629137327814
tagged_abstract_sents/15111779.txt,13,0.0342465753425,0.00319016495487,0.139250797795,0.194462959676,0.181830112016,0.38404225652,0.109502606509,0.732548202296
tagged_abstract_sents/15111779.txt,14,0.0342465753425,-0.00879240585123,0.139250797795,0.194462959676,0.181830112016,0.253384407749,0.0286810993398,0.617498685009
