tagged_abstract_sents/15131789.txt,1,0.206355591311,-0.0588066551922,0.0616692308323,0.106008497564,0.151656462682,0.0,0.0,0.215960306696
tagged_abstract_sents/15131789.txt,2,0.206355591311,0.0111876075731,0.188769469584,0.129715814208,0.151656462682,0.214257320392,0.165788446526,0.835991121286
tagged_abstract_sents/15131789.txt,3,0.0048270313757,0.00717154331612,0.0616692308323,0.106008497564,0.151656462682,0.206595811133,0.160117546388,0.722751329528
tagged_abstract_sents/15131789.txt,4,0.0048270313757,-0.0668387837063,0.0616692308323,0.106008497564,0.151656462682,0.0,0.0,0.0531310330446
tagged_abstract_sents/15131789.txt,7,0.0353982300885,0.00143430866322,0.0616692308323,0.106008497564,0.151656462682,0.199524257724,0.114564359441,0.519366681096
tagged_abstract_sents/15131789.txt,8,0.0518905872888,-0.0668387837063,0.0616692308323,0.106008497564,0.151656462682,0.0,0.0,0.0907818777751
tagged_abstract_sents/15131789.txt,9,0.0993563958166,0.00487664945496,0.139250797795,0.521468892835,0.151656462682,0.125755380281,0.0611973067916,0.577555862188
tagged_abstract_sents/15131789.txt,10,0.172566371681,0.0180722891566,0.139250797795,0.521468892835,0.151656462682,0.138779879922,0.0701600312256,0.637890253774
tagged_abstract_sents/15131789.txt,11,0.172566371681,0.0456110154905,0.139250797795,0.521468892835,0.151656462682,0.12768479355,0.0755049765808,0.618699300348
tagged_abstract_sents/15131789.txt,12,0.206355591311,-0.00200803212851,0.139250797795,0.521468892835,0.151656462682,0.112016248986,0.0769987639865,0.579780747888
tagged_abstract_sents/15131789.txt,13,0.262268704747,-0.0645438898451,0.0616692308323,0.106008497564,0.151656462682,0.0,0.0,0.259543350514
tagged_abstract_sents/15131789.txt,14,0.262268704747,0.0025817555938,0.139250797795,0.521468892835,0.151656462682,0.198825982597,0.145913348946,0.932793175889
