tagged_abstract_sents/15135147.txt,1,0.0954875100725,-0.0587112171838,0.0616692308323,0.247294108221,0.0849154873037,0.0,0.0,0.169670612504
tagged_abstract_sents/15135147.txt,3,0.0451248992748,-0.0603023070804,0.0616692308323,0.247294108221,0.0849154873037,0.0,0.0,0.129062305886
tagged_abstract_sents/15135147.txt,4,0.0805801772764,0.0208432776452,0.194899689933,0.293363477728,0.0849154873037,0.539594716541,0.078911637931,1.24524284643
tagged_abstract_sents/15135147.txt,5,0.123690572119,0.000954653937947,0.210342442448,0.141687475369,0.0849154873037,0.460288829011,0.0595224591652,1.18683508833
tagged_abstract_sents/15135147.txt,6,0.131345688961,0.0256165473349,0.0616692308323,0.247294108221,0.0849154873037,0.327458020007,0.0445881226054,0.655496664448
tagged_abstract_sents/15135147.txt,7,0.140209508461,-0.0603023070804,0.139250797795,0.194462959676,0.0849154873037,0.0,0.0,0.228071432153
tagged_abstract_sents/15135147.txt,8,0.149879129734,0.00811455847255,0.139250797795,0.194462959676,0.0849154873037,0.41753466803,0.072659243295,1.26371137315
tagged_abstract_sents/15135147.txt,9,0.150684931507,0.0112967382657,0.139250797795,0.194462959676,0.0849154873037,0.590169369925,0.0788088527851,1.33121307442
tagged_abstract_sents/15135147.txt,10,0.176470588235,-0.000636435958632,0.139250797795,0.194462959676,0.0849154873037,0.291166181159,0.0422548491379,0.691832222009
tagged_abstract_sents/15135147.txt,11,0.166800966962,0.0470962609387,0.139250797795,0.194462959676,0.0849154873037,0.398810835821,0.0379471982759,0.779049438497
tagged_abstract_sents/15135147.txt,12,0.131345688961,0.00572792362768,0.139250797795,0.194462959676,0.0849154873037,0.297755488082,0.0260708512931,0.659080986274
tagged_abstract_sents/15135147.txt,13,0.0954875100725,-0.0579156722355,0.0616692308323,0.247294108221,0.0849154873037,0.0,0.0,0.169829721493
tagged_abstract_sents/15135147.txt,14,0.0342465753425,0.0431185361973,0.139250797795,0.194462959676,0.0849154873037,0.580466191998,0.0609375,1.18135129845
tagged_abstract_sents/15135147.txt,15,0.0342465753425,0.0287987271281,0.139250797795,0.194462959676,0.0849154873037,0.311607013728,0.044878296146,0.602522089678
