tagged_abstract_sents/15187055.txt,1,0.0954875100725,-0.0488721804511,0.0616692308323,0.247294108221,0.19598476064,0.0,0.0,0.17163841985
tagged_abstract_sents/15187055.txt,2,0.0253827558421,-0.00234962406015,0.188769469584,0.123191979006,0.19598476064,0.147729634287,0.0389297370297,0.638691436002
tagged_abstract_sents/15187055.txt,4,0.0805801772764,-0.047462406015,0.0616692308323,0.247294108221,0.19598476064,0.0,0.0,0.159994508501
tagged_abstract_sents/15187055.txt,5,0.0805801772764,0.0427631578947,0.188769469584,0.123191979006,0.19598476064,0.247368641482,0.0599654874892,0.673603740093
tagged_abstract_sents/15187055.txt,6,0.123690572119,-0.0366541353383,0.0616692308323,0.247294108221,0.19598476064,0.0,0.0,0.19664447851
tagged_abstract_sents/15187055.txt,7,0.123690572119,-0.015977443609,0.0616692308323,0.247294108221,0.19598476064,0.0913638108604,0.0426283433995,0.334771971116
tagged_abstract_sents/15187055.txt,8,0.140209508461,-0.0117481203008,0.0616692308323,0.247294108221,0.19598476064,0.104246728012,0.0757004677353,0.632827207872
tagged_abstract_sents/15187055.txt,9,0.140209508461,0.0686090225564,0.210342442448,0.141687475369,0.19598476064,0.183810718912,0.0649180327869,0.565538851832
tagged_abstract_sents/15187055.txt,10,0.149879129734,-0.0422932330827,0.0616692308323,0.247294108221,0.19598476064,0.0,0.0,0.216467505053
tagged_abstract_sents/15187055.txt,11,0.149879129734,0.0249060150376,0.139250797795,0.194462959676,0.19598476064,0.175113939915,0.0425625539258,0.557589463836
tagged_abstract_sents/15187055.txt,12,0.176470588235,-0.00046992481203,0.139250797795,0.194462959676,0.19598476064,0.122196070883,0.0268396400838,0.418093830457
tagged_abstract_sents/15187055.txt,13,0.176470588235,-0.0488721804511,0.139250797795,0.194462959676,0.19598476064,0.0,0.0,0.259366321298
tagged_abstract_sents/15187055.txt,14,0.166800966962,0.030545112782,0.139250797795,0.194462959676,0.19598476064,0.190940321848,0.0620229640937,0.591023050594
tagged_abstract_sents/15187055.txt,15,0.166800966962,0.0484022556391,0.139250797795,0.194462959676,0.19598476064,0.144762406257,0.0276408233699,0.475616760896
tagged_abstract_sents/15187055.txt,16,0.0954875100725,0.0286654135338,0.139250797795,0.194462959676,0.19598476064,0.17746069498,0.0420372336895,0.429633947345
tagged_abstract_sents/15187055.txt,17,0.0954875100725,0.0192669172932,0.139250797795,0.194462959676,0.19598476064,0.187465227562,0.0239110983287,0.513086596446
tagged_abstract_sents/15187055.txt,18,0.0342465753425,-0.047462406015,0.139250797795,0.194462959676,0.19598476064,0.0,0.0,0.145869065871
tagged_abstract_sents/15187055.txt,19,0.0342465753425,0.0338345864662,0.139250797795,0.194462959676,0.19598476064,0.233056389141,0.0540510451168,0.645220659266
