tagged_abstract_sents/15235689.txt,1,0.206355591311,-0.0556034482759,0.0616692308323,0.106008497564,0.502744284389,0.0,0.0,0.216600948079
tagged_abstract_sents/15235689.txt,2,0.206355591311,0.0230172413793,0.188769469584,0.129715814208,0.502744284389,0.460160870588,0.0144558569631,1.01375571095
tagged_abstract_sents/15235689.txt,3,0.206355591311,-0.0569827586207,0.0616692308323,0.106008497564,0.502744284389,0.0,0.0,0.21632508601
tagged_abstract_sents/15235689.txt,4,0.0048270313757,-0.0197413793103,0.210342442448,0.0253702522065,0.502744284389,0.205431207155,0.0171375898266,0.642114442579
tagged_abstract_sents/15235689.txt,5,0.0108608205953,0.0540517241379,0.0616692308323,0.106008497564,0.502744284389,0.354905761857,0.00699236239136,0.904664020427
tagged_abstract_sents/15235689.txt,6,0.0108608205953,-0.00181034482759,0.0616692308323,0.106008497564,0.502744284389,0.22220192921,0.0148801685541,0.654553165979
tagged_abstract_sents/15235689.txt,7,0.0261464199517,0.000258620689655,0.0616692308323,0.106008497564,0.502744284389,0.203569886063,0.0100281598833,0.780598010115
tagged_abstract_sents/15235689.txt,8,0.0353982300885,-0.0569827586207,0.0616692308323,0.106008497564,0.502744284389,0.0,0.0,0.0795591970319
tagged_abstract_sents/15235689.txt,9,0.0518905872888,-0.0259482758621,0.139250797795,0.521468892835,0.502744284389,0.095837186899,0.0,0.556738039075
tagged_abstract_sents/15235689.txt,10,0.0993563958166,-0.0245689655172,0.139250797795,0.521468892835,0.502744284389,0.321243006893,0.0160653147221,0.90783802622
tagged_abstract_sents/15235689.txt,12,0.172566371681,0.00922413793103,0.139250797795,0.521468892835,0.502744284389,0.358167313871,0.0137702697618,1.17159255688
tagged_abstract_sents/15235689.txt,14,0.206355591311,-0.0549137931034,0.139250797795,0.521468892835,0.502744284389,0.0,0.0,0.380167781176
tagged_abstract_sents/15235689.txt,15,0.262268704747,0.0106034482759,0.139250797795,0.521468892835,0.502744284389,0.363121198658,0.0133564091952,1.35567631258
tagged_abstract_sents/15235689.txt,16,0.262268704747,0.0768103448276,0.139250797795,0.521468892835,0.502744284389,0.324052034916,0.0134053199895,1.2914447388
