tagged_abstract_sents/15276392.txt,1,0.0954875100725,-0.0610743941705,0.0616692308323,0.247294108221,0.557311078499,0.0,0.0,0.169197977106
tagged_abstract_sents/15276392.txt,3,0.0451248992748,0.027385188951,0.0616692308323,0.247294108221,0.557311078499,0.272528466846,0.0753044043504,0.955411754456
tagged_abstract_sents/15276392.txt,4,0.0805801772764,-0.0625995593967,0.0616692308323,0.247294108221,0.557311078499,0.0,0.0,0.156967077824
tagged_abstract_sents/15276392.txt,5,0.123690572119,0.0797491950517,0.194899689933,0.293363477728,0.557311078499,0.372523416296,0.0843278190244,1.20814983968
tagged_abstract_sents/15276392.txt,6,0.131345688961,-0.0412472462295,0.194899689933,0.293363477728,0.557311078499,0.135726526265,0.0220904545983,0.634572809631
tagged_abstract_sents/15276392.txt,7,0.140209508461,0.0660227080156,0.0616692308323,0.247294108221,0.557311078499,0.372823316826,0.0621730031392,0.858380445427
tagged_abstract_sents/15276392.txt,8,0.149879129734,-0.0188781562447,0.0616692308323,0.247294108221,0.557311078499,0.153435753165,0.0388036274852,0.746765029984
tagged_abstract_sents/15276392.txt,9,0.150684931507,-0.062091170988,0.0616692308323,0.247294108221,0.557311078499,0.0,0.0,0.21315255889
tagged_abstract_sents/15276392.txt,10,0.176470588235,0.0604304355194,0.139250797795,0.194462959676,0.557311078499,0.325454710632,0.0794349494245,0.997208117584
tagged_abstract_sents/15276392.txt,11,0.166800966962,0.027385188951,0.139250797795,0.194462959676,0.557311078499,0.240068233112,0.0629011161493,0.869796355808
tagged_abstract_sents/15276392.txt,12,0.131345688961,-0.00210133875614,0.139250797795,0.194462959676,0.557311078499,0.227569362702,0.0650723753052,1.06012651448
tagged_abstract_sents/15276392.txt,13,0.0954875100725,-0.0590408405355,0.139250797795,0.194462959676,0.557311078499,0.0,0.0,0.192546126751
tagged_abstract_sents/15276392.txt,14,0.0342465753425,0.031452296221,0.139250797795,0.194462959676,0.557311078499,0.289695364682,0.0692778392806,1.07191668893
tagged_abstract_sents/15276392.txt,15,0.0342465753425,-0.0178613794272,0.139250797795,0.194462959676,0.557311078499,0.177816838115,0.0600391883297,0.946956376132
