tagged_abstract_sents/15277432.txt,1,0.206355591311,-0.0617981174943,0.0616692308323,0.106008497564,0.699566754246,0.0,0.0,0.215362014236
tagged_abstract_sents/15277432.txt,2,0.206355591311,-0.0267445634534,0.188769469584,0.129715814208,0.699566754246,0.130517992945,0.0161057017639,1.01842469817
tagged_abstract_sents/15277432.txt,4,0.0048270313757,-0.0530347289841,0.0616692308323,0.106008497564,0.699566754246,0.0,0.0,0.055891843989
tagged_abstract_sents/15277432.txt,5,0.0108608205953,0.0307043167803,0.210342442448,0.0253702522065,0.699566754246,0.155209955353,0.0265225933202,0.829035996829
tagged_abstract_sents/15277432.txt,6,0.016894609815,-0.0311262577085,0.0616692308323,0.106008497564,0.699566754246,0.131418463033,0.0589765179156,0.312569545555
tagged_abstract_sents/15277432.txt,7,0.0261464199517,-0.0111652061019,0.0616692308323,0.106008497564,0.699566754246,0.150179362805,0.0194183272523,0.264595115462
tagged_abstract_sents/15277432.txt,8,0.0518905872888,-0.0627718273288,0.139250797795,0.521468892835,0.699566754246,0.0,0.0,0.255024171113
tagged_abstract_sents/15277432.txt,9,0.0683829444891,0.0462836741318,0.139250797795,0.521468892835,0.699566754246,0.160137599653,0.037012349144,0.996648115005
tagged_abstract_sents/15277432.txt,10,0.0993563958166,-0.00580980201233,0.139250797795,0.521468892835,0.699566754246,0.164862701052,0.0411345776031,0.945207639084
tagged_abstract_sents/15277432.txt,11,0.172566371681,0.0589419019799,0.139250797795,0.521468892835,0.699566754246,0.183470485453,0.0331920173715,0.973571801232
tagged_abstract_sents/15277432.txt,13,0.206355591311,0.02194092827,0.139250797795,0.521468892835,0.699566754246,0.144236903472,0.0165777902517,1.09987980246
tagged_abstract_sents/15277432.txt,14,0.262268704747,-0.0608244076599,0.139250797795,0.521468892835,0.699566754246,0.0,0.0,0.423716149013
tagged_abstract_sents/15277432.txt,15,0.262268704747,0.0375202856216,0.139250797795,0.521468892835,0.699566754246,0.186368328903,0.0238119857601,1.35313215658
