tagged_abstract_sents/1527228.txt,1,0.250201126307,-0.0076840981857,0.188769469584,0.202456734834,0.418704689324,0.17405975741,0.0558251133031,1.00233539669
tagged_abstract_sents/1527228.txt,2,0.229283990346,-0.0274279615795,0.210342442448,0.226435992083,0.0714315806464,0.100658417533,0.0609970674487,0.584130684438
tagged_abstract_sents/1527228.txt,3,0.206757843926,-0.0295624332978,0.194899689933,0.13295610691,0.104618628497,0.134044002663,0.0593582887701,0.594851385451
tagged_abstract_sents/1527228.txt,4,0.118262268705,-0.0375667022412,0.0616692308323,0.142474783506,0.29636580352,0.140670537281,0.0544759993826,0.652185865167
tagged_abstract_sents/1527228.txt,5,0.0852775543041,-0.0786552828175,0.0616692308323,0.142474783506,0.235391957429,0.0348230820019,0.0208420611646,0.417125137943
tagged_abstract_sents/1527228.txt,6,0.0571198712792,-0.0242262540021,0.0616692308323,0.142474783506,0.0,0.0477674904623,0.0526209677419,0.214816154895
tagged_abstract_sents/1527228.txt,7,0.0345937248592,0.0520811099253,0.139250797795,0.0356431803763,0.17451723204,0.197270879518,0.0560422776149,0.546239944056
tagged_abstract_sents/1527228.txt,8,0.0144810941271,0.0680896478122,0.139250797795,0.0356431803763,0.0779719341775,0.151424732669,0.0390183670319,0.373936191753
tagged_abstract_sents/1527228.txt,9,0.00120675784393,0.0264674493063,0.139250797795,0.0356431803763,0.126658865369,0.143461213964,0.0536965581108,0.41039388659
tagged_abstract_sents/1527228.txt,10,0.00120675784393,0.05848452508,0.139250797795,0.0356431803763,0.298894941419,0.202736190472,0.0546627565982,0.64927455279
