tagged_abstract_sents/1527228.txt,2,0.0048270313757,-0.0274279615795,0.210342442448,0.0253702522065,0.298894941419,0.100658417533,0.0609970674487,0.344245395299
tagged_abstract_sents/1527228.txt,3,0.0048270313757,-0.0295624332978,0.194899689933,0.0581677376677,0.298894941419,0.134044002663,0.0593582887701,0.410870224638
tagged_abstract_sents/1527228.txt,4,0.016894609815,-0.0375667022412,0.0616692308323,0.106008497564,0.298894941419,0.140670537281,0.0544759993826,0.560151852273
tagged_abstract_sents/1527228.txt,5,0.0353982300885,-0.0786552828175,0.0616692308323,0.106008497564,0.298894941419,0.0348230820019,0.0208420611646,0.366281792788
tagged_abstract_sents/1527228.txt,6,0.0683829444891,-0.0242262540021,0.0616692308323,0.106008497564,0.298894941419,0.0477674904623,0.0526209677419,0.21288672768
tagged_abstract_sents/1527228.txt,8,0.214802896219,0.0680896478122,0.139250797795,0.521468892835,0.298894941419,0.151424732669,0.0390183670319,0.679941347164
tagged_abstract_sents/1527228.txt,9,0.262268704747,0.0264674493063,0.139250797795,0.521468892835,0.298894941419,0.143461213964,0.0536965581108,0.76499115785
tagged_abstract_sents/1527228.txt,10,0.262268704747,0.05848452508,0.139250797795,0.521468892835,0.298894941419,0.202736190472,0.0546627565982,1.00387182405
