tagged_abstract_sents/15298071.txt,1,0.239742558327,-0.0325425790754,0.188769469584,0.202456734834,0.430366238677,0.433871238712,0.0281423967184,1.2327871602
tagged_abstract_sents/15298071.txt,2,0.162510056315,-0.0206812652068,0.188769469584,0.202456734834,0.444527655601,0.302050870241,0.0114373613495,1.03900943445
tagged_abstract_sents/15298071.txt,3,0.0852775543041,-0.0571776155718,0.188769469584,0.202456734834,0.34503078786,0.262701574991,0.01173712966,0.831377768082
tagged_abstract_sents/15298071.txt,4,0.0458567980692,-0.0188564476886,0.188769469584,0.202456734834,0.442720483134,0.442275342749,0.0329709932611,1.1060027233
tagged_abstract_sents/15298071.txt,5,0.00844730490748,0.129866180049,0.188769469584,0.202456734834,0.308605108174,0.4790814548,0.0293949604454,1.0049343586
tagged_abstract_sents/15298071.txt,6,0.00120675784393,-0.000608272506083,0.188769469584,0.202456734834,0.423530090808,0.235976422343,0.0120470749097,0.827519095078
