tagged_abstract_sents/15315995.txt,1,0.0954875100725,-0.0381974559121,0.0616692308323,0.247294108221,0.210049350651,0.0,0.0,0.173773364758
tagged_abstract_sents/15315995.txt,2,0.0954875100725,0.0277175484244,0.188769469584,0.123191979006,0.210049350651,0.411655478961,0.0539033759807,0.907680648346
tagged_abstract_sents/15315995.txt,3,0.0253827558421,-0.0104437698757,0.188769469584,0.123191979006,0.210049350651,0.156031194577,0.0402505127454,0.345841486515
tagged_abstract_sents/15315995.txt,4,0.0253827558421,-0.0373301532235,0.0616692308323,0.247294108221,0.210049350651,0.0,0.0,0.117863021911
tagged_abstract_sents/15315995.txt,5,0.0805801772764,-0.000469788956346,0.0616692308323,0.247294108221,0.210049350651,0.262087431713,0.0616682344596,0.826623602074
tagged_abstract_sents/15315995.txt,6,0.0805801772764,-0.0269225209598,0.0616692308323,0.247294108221,0.210049350651,0.0,0.0,0.164102485512
tagged_abstract_sents/15315995.txt,8,0.123690572119,0.00169846776525,0.0616692308323,0.247294108221,0.210049350651,0.305372577507,0.0509216098873,0.560609186525
tagged_abstract_sents/15315995.txt,9,0.123690572119,-0.0355955478462,0.0616692308323,0.247294108221,0.210049350651,0.0,0.0,0.196856196009
tagged_abstract_sents/15315995.txt,10,0.140209508461,0.0255492917028,0.194899689933,0.293363477728,0.210049350651,0.208034262929,0.0467379626917,0.589171158625
tagged_abstract_sents/15315995.txt,11,0.140209508461,0.0116724486846,0.194899689933,0.293363477728,0.210049350651,0.20313695335,0.0698749877918,0.806901820437
tagged_abstract_sents/15315995.txt,12,0.149073327961,-0.0321263370916,0.0616692308323,0.247294108221,0.210049350651,0.0,0.0,0.217856242833
tagged_abstract_sents/15315995.txt,13,0.149879129734,0.0220800809483,0.139250797795,0.194462959676,0.210049350651,0.234775975613,0.0568577660579,0.543917348448
tagged_abstract_sents/15315995.txt,14,0.149879129734,-0.0381974559121,0.139250797795,0.194462959676,0.210049350651,0.0,0.0,0.240228099405
tagged_abstract_sents/15315995.txt,15,0.176470588235,0.0242483376698,0.139250797795,0.194462959676,0.210049350651,0.376322251057,0.0679784402774,0.787326716185
tagged_abstract_sents/15315995.txt,16,0.176470588235,0.00603498120844,0.139250797795,0.194462959676,0.210049350651,0.243317835854,0.0512142155426,0.737301258928
tagged_abstract_sents/15315995.txt,17,0.166800966962,-0.0143466319746,0.139250797795,0.194462959676,0.210049350651,0.158122282829,0.0193547296536,0.627968495968
tagged_abstract_sents/15315995.txt,18,0.166800966962,0.0494001156404,0.139250797795,0.194462959676,0.210049350651,0.230195519357,0.0448789554644,0.559721074823
tagged_abstract_sents/15315995.txt,19,0.166800966962,0.0259829430471,0.139250797795,0.194462959676,0.210049350651,0.37555064776,0.0682378650259,0.9691974007
tagged_abstract_sents/15315995.txt,20,0.0954875100725,0.020345475571,0.139250797795,0.194462959676,0.210049350651,0.284615541573,0.0551018165837,0.696290757534
tagged_abstract_sents/15315995.txt,21,0.0954875100725,-0.0160812373518,0.139250797795,0.194462959676,0.210049350651,0.204928992585,0.0687274147866,0.564204735336
tagged_abstract_sents/15315995.txt,22,0.0342465753425,-0.00654090777681,0.139250797795,0.194462959676,0.210049350651,0.190398232317,0.0477292704366,0.392180868273
tagged_abstract_sents/15315995.txt,23,0.0342465753425,-0.0368965018792,0.0616692308323,0.247294108221,0.210049350651,0.0,0.0,0.125040807781
tagged_abstract_sents/15315995.txt,24,0.0342465753425,0.0220800809483,0.139250797795,0.194462959676,0.210049350651,0.378777379897,0.0703869819018,0.818991275714
