tagged_abstract_sents/15314625.txt,1,0.206355591311,-0.0460698991573,0.0616692308323,0.106008497564,0.221981301816,0.0,0.0,0.218507657903
tagged_abstract_sents/15314625.txt,2,0.206355591311,-0.000138140627158,0.188769469584,0.129715814208,0.221981301816,0.373488186852,0.0278296600672,0.972876321733
tagged_abstract_sents/15314625.txt,3,0.206355591311,-0.0480384030944,0.0616692308323,0.106008497564,0.221981301816,0.0,0.0,0.218113957115
tagged_abstract_sents/15314625.txt,5,0.0048270313757,0.00576737118387,0.0616692308323,0.106008497564,0.221981301816,0.350946908157,0.048188270452,0.702358968575
tagged_abstract_sents/15314625.txt,6,0.0108608205953,0.00248653128885,0.0616692308323,0.106008497564,0.221981301816,0.303235782244,0.0558790568898,0.795458749839
tagged_abstract_sents/15314625.txt,7,0.0108608205953,-0.0296656996823,0.0616692308323,0.106008497564,0.221981301816,0.0886083696587,0.0250813810769,0.179082431961
tagged_abstract_sents/15314625.txt,8,0.0261464199517,0.00117419533085,0.0616692308323,0.106008497564,0.221981301816,0.29124892795,0.0337940480638,0.656044448045
tagged_abstract_sents/15314625.txt,9,0.0261464199517,-0.0414767233043,0.0616692308323,0.106008497564,0.221981301816,0.0,0.0,0.0752589559858
tagged_abstract_sents/15314625.txt,10,0.0518905872888,0.00379886724686,0.139250797795,0.521468892835,0.221981301816,0.369908141921,0.0453976136588,0.981294859568
tagged_abstract_sents/15314625.txt,11,0.0518905872888,-0.0473822351153,0.139250797795,0.521468892835,0.221981301816,0.0,0.0,0.258102089556
tagged_abstract_sents/15314625.txt,12,0.0993563958166,-0.00341898052217,0.139250797795,0.521468892835,0.221981301816,0.221524672469,0.0106606132008,0.835700213464
tagged_abstract_sents/15314625.txt,13,0.0993563958166,0.0129852189529,0.139250797795,0.521468892835,0.221981301816,0.39537662505,0.0328726186029,1.03766000253
tagged_abstract_sents/15314625.txt,14,0.172566371681,-0.00473131648018,0.139250797795,0.521468892835,0.221981301816,0.150687341097,0.0282201922097,0.714586829218
tagged_abstract_sents/15314625.txt,16,0.206355591311,0.0188907307639,0.139250797795,0.521468892835,0.221981301816,0.383225734247,0.0192172000166,1.04955327842
tagged_abstract_sents/15314625.txt,17,0.206355591311,-0.0119491642492,0.139250797795,0.521468892835,0.221981301816,0.218405566555,0.0259762650499,1.04010161608
tagged_abstract_sents/15314625.txt,18,0.262268704747,-0.0454137311783,0.0616692308323,0.106008497564,0.221981301816,0.0,0.0,0.263369382247
tagged_abstract_sents/15314625.txt,19,0.262268704747,0.0116728829949,0.139250797795,0.521468892835,0.221981301816,0.378242155101,0.0440791931266,1.08251825719
