tagged_abstract_sents/15316107.txt,1,0.125905068383,-0.0809884559885,0.0616692308323,0.142474783506,0.0,0.0,0.0,0.158103413977
tagged_abstract_sents/15316107.txt,2,0.239742558327,0.00333694083694,0.188769469584,0.202456734834,0.435502532917,0.161939864432,0.046691317098,0.991716904519
tagged_abstract_sents/15316107.txt,3,0.218020917136,-0.0780122655123,0.0616692308323,0.142474783506,0.0,0.0,0.0,0.232391331074
tagged_abstract_sents/15316107.txt,4,0.162510056315,0.0459956709957,0.0616692308323,0.142474783506,0.391208654536,0.11988784171,0.045392807532,0.769273533498
tagged_abstract_sents/15316107.txt,5,0.101769911504,-0.0760281385281,0.0616692308323,0.142474783506,0.0,0.0,0.0,0.139787351966
tagged_abstract_sents/15316107.txt,6,0.0711987127916,0.0221861471861,0.188769469584,0.202456734834,0.291991873731,0.155981346297,0.0577834799609,0.722274654902
tagged_abstract_sents/15316107.txt,7,0.0458567980692,0.119408369408,0.188769469584,0.202456734834,0.288262969089,0.177265626425,0.0628217660476,0.744039229141
tagged_abstract_sents/15316107.txt,8,0.0245374094932,0.0281385281385,0.0616692308323,0.142474783506,0.34938383141,0.147879658769,0.0551386296987,0.651236803568
tagged_abstract_sents/15316107.txt,9,0.00844730490748,-0.0790043290043,0.139250797795,0.0356431803763,0.0,0.0,0.0,0.0712753311354
tagged_abstract_sents/15316107.txt,10,0.00120675784393,0.00829725829726,0.139250797795,0.0356431803763,0.259431888117,0.11082404124,0.0321603128055,0.485359453107
tagged_abstract_sents/15316107.txt,11,0.00120675784393,0.0866702741703,0.139250797795,0.0356431803763,0.343359092889,0.178293277873,0.0486332216171,0.668903406498
