tagged_abstract_sents/15326237.txt,1,0.0954875100725,-0.0605728214503,0.0616692308323,0.247294108221,0.486060628873,0.0,0.0,0.16929829165
tagged_abstract_sents/15326237.txt,3,0.0451248992748,-0.0617915904936,0.0616692308323,0.247294108221,0.486060628873,0.0,0.0,0.128764449204
tagged_abstract_sents/15326237.txt,4,0.0805801772764,0.00950639853748,0.210342442448,0.141687475369,0.486060628873,0.201585952785,0.0432293192695,0.685430216594
tagged_abstract_sents/15326237.txt,5,0.123690572119,0.023522242535,0.194899689933,0.293363477728,0.486060628873,0.241765072879,0.0556540780607,0.878785173003
tagged_abstract_sents/15326237.txt,6,0.131345688961,0.0576477757465,0.0616692308323,0.247294108221,0.486060628873,0.136750645706,0.0530422892861,0.411421889192
tagged_abstract_sents/15326237.txt,7,0.140209508461,0.0424131627057,0.0616692308323,0.247294108221,0.486060628873,0.192723577852,0.0655052576749,0.483921403627
tagged_abstract_sents/15326237.txt,8,0.149879129734,-0.00877513711152,0.0616692308323,0.247294108221,0.486060628873,0.14756165894,0.0454390077156,0.642901047082
tagged_abstract_sents/15326237.txt,9,0.150684931507,-0.0617915904936,0.139250797795,0.194462959676,0.486060628873,0.0,0.0,0.236153913907
tagged_abstract_sents/15326237.txt,10,0.176470588235,0.0223034734918,0.139250797795,0.194462959676,0.486060628873,0.203511559847,0.0282164171049,0.786633705239
tagged_abstract_sents/15326237.txt,11,0.166800966962,-0.0313223644119,0.139250797795,0.194462959676,0.486060628873,0.192118066152,0.0500077558126,0.948479979583
tagged_abstract_sents/15326237.txt,12,0.131345688961,0.0192565508836,0.139250797795,0.194462959676,0.486060628873,0.270545990369,0.0552404671215,1.0145318086
tagged_abstract_sents/15326237.txt,13,0.0954875100725,0.0131627056673,0.139250797795,0.194462959676,0.486060628873,0.315336997964,0.0468891323456,1.0959119096
tagged_abstract_sents/15326237.txt,14,0.0342465753425,-0.0599634369287,0.139250797795,0.194462959676,0.486060628873,0.0,0.0,0.143368859688
tagged_abstract_sents/15326237.txt,15,0.0342465753425,0.0637416209628,0.139250797795,0.194462959676,0.486060628873,0.300315862212,0.0383762850482,0.9928626474
