tagged_abstract_sents/1543183.txt,1,0.229283990346,-0.0438661710037,0.188769469584,0.202456734834,0.14378217416,0.387386465648,0.0561607766796,0.917105129806
tagged_abstract_sents/1543183.txt,2,0.118262268705,-0.0763940520446,0.188769469584,0.202456734834,0.388094222064,0.364321123012,0.0768942797245,1.0637623846
tagged_abstract_sents/1543183.txt,3,0.0571198712792,0.221003717472,0.188769469584,0.202456734834,0.441496033449,0.428537876195,0.0594115004492,1.17446380585
tagged_abstract_sents/1543183.txt,4,0.0144810941271,-0.0652416356877,0.188769469584,0.202456734834,0.150975648683,0.327962512582,0.0675079637344,0.700104428406
tagged_abstract_sents/1543183.txt,5,0.00120675784393,-0.0355018587361,0.188769469584,0.202456734834,0.134691848571,0.333898599584,0.0556100084402,0.673187246366
