tagged_abstract_sents/15451329.txt,2,0.0805801772764,0.0447808262378,0.188769469584,0.123191979006,0.0,0.154042011321,0.035575234192,0.652956769798
tagged_abstract_sents/15451329.txt,3,0.140209508461,0.0447808262378,0.188769469584,0.123191979006,0.0,0.120549396172,0.0197830642179,0.776617921856
tagged_abstract_sents/15451329.txt,4,0.149879129734,-0.0225480920845,0.188769469584,0.123191979006,0.0,0.0836199890395,0.0230251306071,0.753578149991
tagged_abstract_sents/15451329.txt,5,0.166800966962,-0.0335856196783,0.188769469584,0.123191979006,0.0,0.0814160148539,0.0303774094758,0.735541787028
tagged_abstract_sents/15451329.txt,6,0.0954875100725,-0.0865657521287,0.0616692308323,0.247294108221,0.0,0.10403198321,0.0321428571429,0.300274545868
tagged_abstract_sents/15451329.txt,7,0.0342465753425,-0.117470829391,0.0616692308323,0.247294108221,0.0,0.10403198321,0.0321428571429,0.245100782631
