tagged_abstract_sents/15479938.txt,1,0.0954875100725,-0.0381047788661,0.0616692308323,0.247294108221,0.120737678516,0.0,0.0,0.173791900167
tagged_abstract_sents/15479938.txt,2,0.0954875100725,-0.0202953398635,0.188769469584,0.123191979006,0.120737678516,0.0657985116696,0.0596862458957,0.3830912407
tagged_abstract_sents/15479938.txt,4,0.0253827558421,-0.037214306916,0.0616692308323,0.247294108221,0.120737678516,0.0,0.0,0.117886191173
tagged_abstract_sents/15479938.txt,5,0.0805801772764,0.0420376966459,0.0616692308323,0.247294108221,0.120737678516,0.375934014935,0.0548589642658,0.784704605538
tagged_abstract_sents/15479938.txt,6,0.0805801772764,-0.0269738794895,0.0616692308323,0.247294108221,0.120737678516,0.0,0.0,0.164092213806
tagged_abstract_sents/15479938.txt,7,0.0805801772764,0.0545043039478,0.0616692308323,0.247294108221,0.120737678516,0.418348095722,0.0570594673477,1.0157038299
tagged_abstract_sents/15479938.txt,8,0.123690572119,-0.0185143959632,0.0616692308323,0.247294108221,0.120737678516,0.141618723763,0.0529186428311,0.394809792979
tagged_abstract_sents/15479938.txt,9,0.123690572119,-0.0345428910656,0.0616692308323,0.247294108221,0.120737678516,0.0,0.0,0.197066727365
tagged_abstract_sents/15479938.txt,10,0.140209508461,0.0251187295934,0.0616692308323,0.247294108221,0.120737678516,0.238555245869,0.0684786574243,0.65647421162
tagged_abstract_sents/15479938.txt,11,0.140209508461,0.00864499851588,0.0616692308323,0.247294108221,0.120737678516,0.137152766782,0.0609874741578,0.444596028912
tagged_abstract_sents/15479938.txt,12,0.149073327961,-0.0220762837637,0.0616692308323,0.247294108221,0.120737678516,0.104670621456,0.0524899671653,0.37702684212
tagged_abstract_sents/15479938.txt,13,0.149879129734,-0.00515731671119,0.0616692308323,0.247294108221,0.120737678516,0.191329350182,0.0523671877192,0.467591226229
tagged_abstract_sents/15479938.txt,14,0.149879129734,-0.0349881270407,0.0616692308323,0.247294108221,0.120737678516,0.0,0.0,0.217928526262
tagged_abstract_sents/15479938.txt,15,0.176470588235,-0.0180691599881,0.0616692308323,0.247294108221,0.120737678516,0.158872598935,0.0517893270538,0.509254992094
tagged_abstract_sents/15479938.txt,16,0.176470588235,0.0990279014544,0.139250797795,0.194462959676,0.120737678516,0.252214955782,0.0625805667031,0.603741860164
tagged_abstract_sents/15479938.txt,17,0.166800966962,0.0451543484714,0.139250797795,0.194462959676,0.120737678516,0.328770218971,0.0497438256428,0.784611081946
tagged_abstract_sents/15479938.txt,18,0.166800966962,-0.00248590086079,0.139250797795,0.194462959676,0.120737678516,0.175142670337,0.0500912075885,0.62844472706
tagged_abstract_sents/15479938.txt,19,0.166800966962,-0.0189596319383,0.139250797795,0.194462959676,0.120737678516,0.132474588947,0.0511573229559,0.441245045885
tagged_abstract_sents/15479938.txt,20,0.0954875100725,-0.00560255268626,0.139250797795,0.194462959676,0.120737678516,0.124542008598,0.0511573229559,0.524309915607
tagged_abstract_sents/15479938.txt,21,0.0954875100725,0.00641881864055,0.139250797795,0.194462959676,0.120737678516,0.161509367407,0.0492189313787,0.545551978895
tagged_abstract_sents/15479938.txt,22,0.0342465753425,-0.0363238349659,0.139250797795,0.194462959676,0.120737678516,0.0,0.0,0.148096780081
tagged_abstract_sents/15479938.txt,23,0.0342465753425,0.00152122291481,0.139250797795,0.194462959676,0.120737678516,0.237310980273,0.0411194211358,0.830963792354
tagged_abstract_sents/15479938.txt,24,0.0342465753425,0.0273449094687,0.139250797795,0.194462959676,0.120737678516,0.371711830569,0.0484038672018,0.701683905254
