tagged_abstract_sents/15496998.txt,1,0.0954875100725,-0.0165884466076,0.0616692308323,0.247294108221,0.156255765238,0.0,0.0,0.178095166619
tagged_abstract_sents/15496998.txt,2,0.0954875100725,-0.0124456805145,0.0616692308323,0.247294108221,0.156255765238,0.0,0.0,0.178923719838
tagged_abstract_sents/15496998.txt,3,0.0954875100725,-0.000176719392781,0.0616692308323,0.247294108221,0.156255765238,0.261094271517,0.0543732541899,0.766868903999
tagged_abstract_sents/15496998.txt,4,0.0954875100725,-0.0129236919868,0.0616692308323,0.247294108221,0.156255765238,0.0158704901008,0.0114059590317,0.206104566676
tagged_abstract_sents/15496998.txt,5,0.0954875100725,-0.0153137493482,0.0616692308323,0.247294108221,0.156255765238,0.0,0.0,0.178350106071
tagged_abstract_sents/15496998.txt,6,0.0253827558421,-0.00941827452344,0.0616692308323,0.247294108221,0.156255765238,0.156695180417,0.0257008180367,0.590704324508
tagged_abstract_sents/15496998.txt,7,0.0253827558421,-0.0161104351353,0.0616692308323,0.247294108221,0.156255765238,0.0,0.0,0.122106965529
tagged_abstract_sents/15496998.txt,8,0.0253827558421,0.0468277420476,0.0616692308323,0.247294108221,0.156255765238,0.2954172651,0.0351661693753,0.522454297708
tagged_abstract_sents/15496998.txt,9,0.0253827558421,-0.00463815980068,0.0616692308323,0.247294108221,0.156255765238,0.15320633024,0.034074471269,0.585997822355
tagged_abstract_sents/15496998.txt,10,0.0253827558421,0.0092241728953,0.0616692308323,0.247294108221,0.156255765238,0.295632614103,0.045906868969,0.49885401438
tagged_abstract_sents/15496998.txt,11,0.0451248992748,-0.015632423663,0.0616692308323,0.247294108221,0.156255765238,0.0,0.0,0.13799628257
tagged_abstract_sents/15496998.txt,13,0.0805801772764,-0.015632423663,0.0616692308323,0.247294108221,0.156255765238,0.0,0.0,0.166360504971
tagged_abstract_sents/15496998.txt,14,0.0805801772764,0.00269134944087,0.0616692308323,0.247294108221,0.156255765238,0.302759378498,0.0638212607923,0.630840705565
tagged_abstract_sents/15496998.txt,15,0.0805801772764,-0.00702821716206,0.0616692308323,0.247294108221,0.156255765238,0.159422817025,0.0338811851556,0.616203011915
tagged_abstract_sents/15496998.txt,16,0.0805801772764,-0.00750622863434,0.0616692308323,0.247294108221,0.156255765238,0.15177059101,0.0425042398244,0.626547000323
tagged_abstract_sents/15496998.txt,17,0.123690572119,-0.00543484558781,0.0616692308323,0.247294108221,0.156255765238,0.132761823937,0.0348020519983,0.656028329498
tagged_abstract_sents/15496998.txt,18,0.123690572119,0.00173532649632,0.139250797795,0.194462959676,0.156255765238,0.195819897436,0.0417139490223,0.697292973977
tagged_abstract_sents/15496998.txt,19,0.123690572119,-0.00527550843038,0.139250797795,0.194462959676,0.156255765238,0.10856755718,0.0493627793296,0.383791979319
tagged_abstract_sents/15496998.txt,20,0.123690572119,0.0104988701547,0.139250797795,0.194462959676,0.156255765238,0.175262559727,0.0264141061453,0.594767175705
tagged_abstract_sents/15496998.txt,21,0.123690572119,-0.00129207949476,0.139250797795,0.194462959676,0.156255765238,0.178683379801,0.0270135009311,0.649453452083
tagged_abstract_sents/15496998.txt,22,0.131345688961,-0.0161104351353,0.0616692308323,0.247294108221,0.156255765238,0.0,0.0,0.206877312024
tagged_abstract_sents/15496998.txt,23,0.140209508461,0.00173532649632,0.0616692308323,0.247294108221,0.156255765238,0.167219110476,0.04458216946,0.603318956975
tagged_abstract_sents/15496998.txt,24,0.140209508461,-0.00224810243931,0.0616692308323,0.247294108221,0.156255765238,0.133105096395,0.0113410507091,0.525104205356
tagged_abstract_sents/15496998.txt,25,0.140209508461,0.00444405817255,0.0616692308323,0.247294108221,0.156255765238,0.336033890101,0.0419103526536,0.764130861728
tagged_abstract_sents/15496998.txt,26,0.140209508461,-0.00256677675416,0.0616692308323,0.247294108221,0.156255765238,0.170640642102,0.062342877095,0.46621231944
tagged_abstract_sents/15496998.txt,27,0.140209508461,-0.00973694883829,0.0616692308323,0.247294108221,0.156255765238,0.146406602634,0.0751134776536,0.436763145172
tagged_abstract_sents/15496998.txt,28,0.149879129734,-0.00145141665218,0.0616692308323,0.247294108221,0.156255765238,0.169993399653,0.062261405959,0.456894060949
tagged_abstract_sents/15496998.txt,29,0.149879129734,-0.00862158873631,0.0616692308323,0.247294108221,0.156255765238,0.132641720691,0.0483589385475,0.674752565014
tagged_abstract_sents/15496998.txt,30,0.149879129734,0.00269134944087,0.139250797795,0.194462959676,0.156255765238,0.26228532547,0.0517981843575,0.632537854984
tagged_abstract_sents/15496998.txt,31,0.149879129734,0.0175097050814,0.139250797795,0.194462959676,0.156255765238,0.373342663961,0.0518699565487,0.770663807903
tagged_abstract_sents/15496998.txt,32,0.149879129734,-1.73822353555e-05,0.139250797795,0.194462959676,0.156255765238,0.153293439233,0.0408581903432,0.442018144872
tagged_abstract_sents/15496998.txt,33,0.150684931507,0.00109797786662,0.139250797795,0.194462959676,0.156255765238,0.176626324326,0.0526478119181,0.478030736979
tagged_abstract_sents/15496998.txt,34,0.176470588235,0.000619966394345,0.139250797795,0.194462959676,0.156255765238,0.366465190904,0.0316461645896,0.956586706727
tagged_abstract_sents/15496998.txt,35,0.176470588235,0.0100208586824,0.139250797795,0.194462959676,0.156255765238,0.39847185146,0.0425040088972,0.889952218795
tagged_abstract_sents/15496998.txt,36,0.176470588235,-0.00830291442146,0.139250797795,0.194462959676,0.156255765238,0.172101968387,0.0540328212291,0.719486327653
tagged_abstract_sents/15496998.txt,37,0.176470588235,0.0015759893389,0.139250797795,0.194462959676,0.156255765238,0.245104989709,0.0484600117612,0.752849007433
tagged_abstract_sents/15496998.txt,38,0.176470588235,-0.0108523089403,0.139250797795,0.194462959676,0.156255765238,0.111385606117,0.0348289106145,0.775050098715
tagged_abstract_sents/15496998.txt,39,0.166800966962,0.0066747783765,0.139250797795,0.194462959676,0.156255765238,0.286363534852,0.0380669725991,0.963533995913
tagged_abstract_sents/15496998.txt,40,0.166800966962,0.00587809258937,0.139250797795,0.194462959676,0.156255765238,0.206847780125,0.0378430003286,0.743802154726
tagged_abstract_sents/15496998.txt,41,0.166800966962,0.0106582073121,0.139250797795,0.194462959676,0.156255765238,0.341440754624,0.0484532122905,0.925431676233
tagged_abstract_sents/15496998.txt,42,0.166800966962,0.0060374297468,0.139250797795,0.194462959676,0.156255765238,0.217161800476,0.0389315642458,0.729688424727
tagged_abstract_sents/15496998.txt,43,0.166800966962,0.00524074395967,0.139250797795,0.194462959676,0.156255765238,0.203962630203,0.0366722806441,0.731992263407
tagged_abstract_sents/15496998.txt,44,0.131345688961,0.00173532649632,0.139250797795,0.194462959676,0.156255765238,0.270690377015,0.0413975209497,0.777281257807
tagged_abstract_sents/15496998.txt,45,0.0954875100725,-0.00145141665218,0.139250797795,0.194462959676,0.156255765238,0.224484291532,0.037597959342,0.674756447428
tagged_abstract_sents/15496998.txt,46,0.0954875100725,-0.00145141665218,0.139250797795,0.194462959676,0.156255765238,0.271716214279,0.0326175512104,0.624647660814
tagged_abstract_sents/15496998.txt,47,0.0954875100725,0.00332869807057,0.139250797795,0.194462959676,0.156255765238,0.18934814223,0.0249869064246,0.566868482926
tagged_abstract_sents/15496998.txt,48,0.0954875100725,-0.00416014832841,0.139250797795,0.194462959676,0.156255765238,0.232800575714,0.0332806527492,0.706843520063
tagged_abstract_sents/15496998.txt,49,0.0954875100725,-0.0162697722927,0.139250797795,0.194462959676,0.156255765238,0.0,0.0,0.2011003404
tagged_abstract_sents/15496998.txt,50,0.0342465753425,-0.00447882264326,0.188769469584,0.123191979006,0.156255765238,0.216857256916,0.0421459086428,0.615836613816
tagged_abstract_sents/15496998.txt,51,0.0342465753425,-0.00224810243931,0.188769469584,0.123191979006,0.156255765238,0.199394092773,0.050164760824,0.407852357162
tagged_abstract_sents/15496998.txt,52,0.0342465753425,0.0041253838577,0.188769469584,0.123191979006,0.156255765238,0.204549258913,0.0404257722642,0.666760583596
tagged_abstract_sents/15496998.txt,53,0.0342465753425,-0.00495683411553,0.188769469584,0.123191979006,0.156255765238,0.147049166495,0.0310888483025,0.547909476283
tagged_abstract_sents/15496998.txt,54,0.0342465753425,-0.00129207949476,0.188769469584,0.123191979006,0.156255765238,0.223142163697,0.0376900993172,0.647321613866
tagged_abstract_sents/15496998.txt,55,0.0342465753425,0.00173532649632,0.188769469584,0.123191979006,0.156255765238,0.230958568303,0.0403573091248,0.586658296734
