tagged_abstract_sents/15505131.txt,1,0.0954875100725,-0.0711518282347,0.0616692308323,0.247294108221,0.457083025912,0.0,0.0,0.167182490294
tagged_abstract_sents/15505131.txt,3,0.0805801772764,0.0406005327306,0.188769469584,0.123191979006,0.457083025912,0.147677658957,0.0661958430913,0.913597893603
tagged_abstract_sents/15505131.txt,4,0.123690572119,-0.0727258051497,0.0616692308323,0.247294108221,0.457083025912,0.0,0.0,0.189430144548
tagged_abstract_sents/15505131.txt,5,0.123690572119,0.041649850674,0.139250797795,0.194462959676,0.457083025912,0.107883997074,0.0488387978142,0.534214966595
tagged_abstract_sents/15505131.txt,6,0.140209508461,0.0935910888692,0.139250797795,0.194462959676,0.457083025912,0.125661599212,0.0438296903461,0.85092791295
tagged_abstract_sents/15505131.txt,7,0.149879129734,-0.0727258051497,0.139250797795,0.194462959676,0.457083025912,0.0,0.0,0.233322429558
tagged_abstract_sents/15505131.txt,8,0.176470588235,-0.00399547986117,0.139250797795,0.194462959676,0.457083025912,0.120998633841,0.030074734812,0.84045145109
tagged_abstract_sents/15505131.txt,9,0.176470588235,0.0269593994673,0.139250797795,0.194462959676,0.457083025912,0.134770974062,0.0363346158135,0.563213317949
tagged_abstract_sents/15505131.txt,10,0.166800966962,0.0537170070224,0.139250797795,0.194462959676,0.457083025912,0.152770575106,0.0404887364782,1.0058423928
tagged_abstract_sents/15505131.txt,11,0.0954875100725,-0.0706271692631,0.0616692308323,0.247294108221,0.457083025912,0.0,0.0,0.167287422088
tagged_abstract_sents/15505131.txt,12,0.0342465753425,0.00912099443054,0.139250797795,0.194462959676,0.457083025912,0.137950603251,0.0482508782201,0.771344492026
tagged_abstract_sents/15505131.txt,13,0.0342465753425,0.0269593994673,0.139250797795,0.194462959676,0.457083025912,0.151927130366,0.0575899510326,0.827353534278
