tagged_abstract_sents/15530629.txt,1,0.0954875100725,-0.0503984997656,0.0616692308323,0.247294108221,0.100628529989,0.0,0.0,0.171333155987
tagged_abstract_sents/15530629.txt,3,0.0253827558421,0.00210970464135,0.188769469584,0.123191979006,0.100628529989,0.283421924624,0.0348589757429,0.6443629498
tagged_abstract_sents/15530629.txt,4,0.0805801772764,0.00679793717768,0.188769469584,0.123191979006,0.100628529989,0.38717060787,0.0323731565583,0.866844055153
tagged_abstract_sents/15530629.txt,5,0.0805801772764,-0.0518049695265,0.0616692308323,0.247294108221,0.100628529989,0.0,0.0,0.159125995798
tagged_abstract_sents/15530629.txt,6,0.123690572119,0.0241443975621,0.210342442448,0.141687475369,0.100628529989,0.375674667665,0.0329622033402,0.855208074406
tagged_abstract_sents/15530629.txt,7,0.123690572119,0.0189873417722,0.194899689933,0.293363477728,0.100628529989,0.381198521533,0.048977439203,0.975050985116
tagged_abstract_sents/15530629.txt,8,0.140209508461,-0.0513361462729,0.0616692308323,0.247294108221,0.100628529989,0.0,0.0,0.206923225397
tagged_abstract_sents/15530629.txt,9,0.149073327961,0.0128926394749,0.139250797795,0.194462959676,0.100628529989,0.280661534328,0.02917358466,0.708555956056
tagged_abstract_sents/15530629.txt,10,0.149879129734,0.11415846226,0.139250797795,0.194462959676,0.100628529989,0.501094537634,0.0370000732493,0.932811136578
tagged_abstract_sents/15530629.txt,11,0.176470588235,-0.00445382090952,0.139250797795,0.194462959676,0.100628529989,0.21367029024,0.036849650496,0.518813677509
tagged_abstract_sents/15530629.txt,12,0.176470588235,0.011486169714,0.139250797795,0.194462959676,0.100628529989,0.342785484625,0.0220979942999,0.859046789821
tagged_abstract_sents/15530629.txt,13,0.166800966962,0.0503984997656,0.139250797795,0.194462959676,0.100628529989,0.360587951268,0.0351383191718,0.80733582578
tagged_abstract_sents/15530629.txt,14,0.166800966962,0.00398499765588,0.139250797795,0.194462959676,0.100628529989,0.248397852546,0.0317729787491,0.709900468623
tagged_abstract_sents/15530629.txt,15,0.0954875100725,-0.0302390998594,0.139250797795,0.194462959676,0.100628529989,0.174434549662,0.025356480125,0.398167810657
tagged_abstract_sents/15530629.txt,16,0.0954875100725,-0.0485232067511,0.139250797795,0.194462959676,0.100628529989,0.0,0.0,0.194649653508
tagged_abstract_sents/15530629.txt,17,0.0342465753425,-0.0175808720113,0.139250797795,0.194462959676,0.100628529989,0.343436511559,0.0310449814647,0.80528472637
tagged_abstract_sents/15530629.txt,18,0.0342465753425,-0.00914205344585,0.139250797795,0.194462959676,0.100628529989,0.302364881368,0.0505420451216,0.607068592864
