tagged_abstract_sents/15550129.txt,2,0.0805801772764,-0.00610802278498,0.188769469584,0.123191979006,0.250758643079,0.16392479775,0.0670453142363,0.716730781248
tagged_abstract_sents/15550129.txt,3,0.123690572119,-0.0388442797337,0.188769469584,0.123191979006,0.250758643079,0.123972434646,0.0577670768682,0.816543375596
tagged_abstract_sents/15550129.txt,4,0.140209508461,0.017363255782,0.210342442448,0.141687475369,0.250758643079,0.145033067675,0.0543557566029,0.772731146484
tagged_abstract_sents/15550129.txt,5,0.149879129734,-0.04749159289,0.0616692308323,0.247294108221,0.250758643079,0.180362738094,0.0690684263718,0.720958082171
tagged_abstract_sents/15550129.txt,6,0.176470588235,0.0198339166838,0.0616692308323,0.247294108221,0.250758643079,0.161872070528,0.0859915365533,0.593384481619
tagged_abstract_sents/15550129.txt,7,0.166800966962,-0.00363736188319,0.139250797795,0.194462959676,0.250758643079,0.24826699336,0.0686377051727,0.777964783565
tagged_abstract_sents/15550129.txt,8,0.0954875100725,0.0717177956214,0.139250797795,0.194462959676,0.250758643079,0.179216076549,0.0807447833066,0.822312603305
tagged_abstract_sents/15550129.txt,9,0.0342465753425,0.00315695559673,0.139250797795,0.194462959676,0.250758643079,0.178551862872,0.0955744095391,0.680877853683
