tagged_abstract_sents/15564985.txt,1,0.125905068383,-0.0648880659822,0.0616692308323,0.142474783506,0.0,0.0,0.0,0.161323491978
tagged_abstract_sents/15564985.txt,2,0.239742558327,0.055462043427,0.188769469584,0.202456734834,0.334499916309,0.220870433552,0.00558884184066,0.918967402291
tagged_abstract_sents/15564985.txt,3,0.218020917136,0.0357683891601,0.188769469584,0.202456734834,0.216608204671,0.106214947367,0.0015760271163,0.661091345938
tagged_abstract_sents/15564985.txt,4,0.162510056315,-0.000336643662683,0.0616692308323,0.142474783506,0.204848509708,0.0778863181472,0.00724108896997,0.493493683613
tagged_abstract_sents/15564985.txt,5,0.162510056315,-0.0681703416933,0.0616692308323,0.142474783506,0.0,0.0,0.0,0.189951027181
tagged_abstract_sents/15564985.txt,6,0.101769911504,0.0543679515233,0.210342442448,0.226435992083,0.0914395207208,0.19648886726,0.00540275049116,0.558722676829
tagged_abstract_sents/15564985.txt,7,0.0711987127916,0.11235482242,0.0616692308323,0.142474783506,0.11980638518,0.144429406954,0.00653319612062,0.42377597344
tagged_abstract_sents/15564985.txt,8,0.0458567980692,-0.026594849352,0.0616692308323,0.142474783506,0.0,0.0287037344772,0.0,0.13364725353
tagged_abstract_sents/15564985.txt,9,0.0458567980692,-0.0681703416933,0.0616692308323,0.142474783506,0.0,0.0,0.0,0.0966284205845
tagged_abstract_sents/15564985.txt,10,0.0245374094932,-0.0112775626999,0.139250797795,0.0356431803763,0.162456260681,0.0936037188508,0.00299373187389,0.356746479471
tagged_abstract_sents/15564985.txt,11,0.00844730490748,0.00622790775964,0.139250797795,0.0356431803763,0.151810522374,0.104426228005,0.00297502104968,0.347533549917
tagged_abstract_sents/15564985.txt,12,0.00120675784393,-0.0648880659822,0.139250797795,0.0356431803763,0.0,0.0,0.0,0.068306146089
tagged_abstract_sents/15564985.txt,13,0.00120675784393,0.040144756775,0.139250797795,0.0356431803763,0.142131289458,0.206512193319,0.00899339833311,0.44694959175
