tagged_abstract_sents/15572415.txt,1,0.0954875100725,-0.0442197870042,0.188769469584,0.123191979006,0.208132654046,0.104055763108,0.0204360432698,0.564400080638
tagged_abstract_sents/15572415.txt,2,0.0253827558421,-0.0234218243556,0.188769469584,0.123191979006,0.208132654046,0.139422313422,0.0924707259953,0.568237714873
tagged_abstract_sents/15572415.txt,3,0.0805801772764,-0.0552554406544,0.188769469584,0.123191979006,0.208132654046,0.0924569191847,0.0306645199063,0.537360385639
tagged_abstract_sents/15572415.txt,5,0.140209508461,0.0130807223337,0.0616692308323,0.247294108221,0.208132654046,0.204945497293,0.0804458519622,0.683355737058
tagged_abstract_sents/15572415.txt,6,0.149879129734,0.0440654421979,0.210342442448,0.141687475369,0.208132654046,0.175088797632,0.0997050915084,0.632616436133
tagged_abstract_sents/15572415.txt,7,0.176470588235,-0.00474610279364,0.0616692308323,0.247294108221,0.208132654046,0.272988739797,0.122559279859,0.752787148431
tagged_abstract_sents/15572415.txt,8,0.166800966962,-0.0730822657818,0.0616692308323,0.247294108221,0.208132654046,0.0704733210312,0.0624908518735,0.632005159303
tagged_abstract_sents/15572415.txt,9,0.0954875100725,0.0580722333693,0.139250797795,0.194462959676,0.208132654046,0.188417068137,0.104541248017,0.596418056275
tagged_abstract_sents/15572415.txt,10,0.0342465753425,0.0491588208057,0.139250797795,0.194462959676,0.208132654046,0.217728129196,0.13362607338,0.61562883579
tagged_abstract_sents/15572415.txt,11,0.0342465753425,0.0347275814169,0.139250797795,0.194462959676,0.208132654046,0.224751381616,0.102420271387,0.697611370407
