tagged_abstract_sents/15579363.txt,1,0.162510056315,-0.182957393484,0.188769469584,0.202456734834,0.368934643081,0.0655628940682,0.013514173998,0.696550032745
tagged_abstract_sents/15579363.txt,2,0.0458567980692,0.0764411027569,0.188769469584,0.202456734834,0.264196579563,0.14600727539,0.0324465856724,0.649745854874
tagged_abstract_sents/15579363.txt,3,0.00120675784393,0.106516290727,0.188769469584,0.202456734834,0.355336127682,0.113942207899,0.0357608341479,0.682429589392
