tagged_abstract_sents/15605687.txt,1,0.0954875100725,-0.0501413703904,0.0616692308323,0.247294108221,0.222393503036,0.0,0.0,0.171384581862
tagged_abstract_sents/15605687.txt,3,0.0253827558421,-0.0512242074234,0.0616692308323,0.247294108221,0.222393503036,0.0,0.0,0.115084211071
tagged_abstract_sents/15605687.txt,4,0.0805801772764,0.0234915478554,0.0616692308323,0.247294108221,0.222393503036,0.817029260668,0.0836428741666,1.31618786977
tagged_abstract_sents/15605687.txt,5,0.0805801772764,0.0343199181856,0.210342442448,0.141687475369,0.222393503036,0.792043538283,0.0676619338298,1.36118751062
tagged_abstract_sents/15605687.txt,6,0.123690572119,-0.031733140829,0.0616692308323,0.247294108221,0.222393503036,0.282715207734,0.0486221315398,0.529046511526
tagged_abstract_sents/15605687.txt,7,0.123690572119,-0.0165734223666,0.0616692308323,0.247294108221,0.222393503036,0.465111072268,0.0580856237303,1.00575693831
tagged_abstract_sents/15605687.txt,8,0.140209508461,0.0121217590086,0.0616692308323,0.247294108221,0.222393503036,0.59754257518,0.0646399873333,1.03639556871
tagged_abstract_sents/15605687.txt,9,0.149073327961,-0.0512242074234,0.139250797795,0.194462959676,0.222393503036,0.0,0.0,0.236978107685
tagged_abstract_sents/15605687.txt,10,0.149879129734,0.0159116886242,0.139250797795,0.194462959676,0.222393503036,0.788751671452,0.0541740055456,1.31631975346
tagged_abstract_sents/15605687.txt,11,0.176470588235,-0.0176562593996,0.139250797795,0.194462959676,0.222393503036,0.410155853783,0.0731857225623,0.749036569055
tagged_abstract_sents/15605687.txt,12,0.176470588235,0.0256572219214,0.139250797795,0.194462959676,0.222393503036,0.720956376691,0.0566387062646,1.13494388495
tagged_abstract_sents/15605687.txt,13,0.166800966962,0.0646393551104,0.139250797795,0.194462959676,0.222393503036,0.755144890435,0.0691733069123,1.14702357147
tagged_abstract_sents/15605687.txt,14,0.166800966962,0.0700535402755,0.139250797795,0.194462959676,0.222393503036,0.54365270604,0.0456254745532,0.935170505457
tagged_abstract_sents/15605687.txt,15,0.0954875100725,-0.0495999518739,0.0616692308323,0.247294108221,0.222393503036,0.0,0.0,0.171492865566
tagged_abstract_sents/15605687.txt,16,0.0954875100725,-0.0165734223666,0.139250797795,0.194462959676,0.222393503036,0.242627268394,0.0643638836792,0.645624862496
tagged_abstract_sents/15605687.txt,17,0.0342465753425,-0.0084521446189,0.139250797795,0.194462959676,0.222393503036,0.443758274938,0.0658158525255,0.953396610923
tagged_abstract_sents/15605687.txt,18,0.0342465753425,-0.0214461890152,0.139250797795,0.194462959676,0.222393503036,0.355377603667,0.0669700208354,0.79581343681
