tagged_abstract_sents/15617591.txt,1,0.0954875100725,-0.0568406904358,0.0616692308323,0.247294108221,0.256688356075,0.0,0.0,0.170044717853
tagged_abstract_sents/15617591.txt,3,0.0253827558421,0.0869057724958,0.188769469584,0.123191979006,0.256688356075,0.215209668473,0.0102564102564,0.558512973152
tagged_abstract_sents/15617591.txt,4,0.0805801772764,-0.0579725523486,0.0616692308323,0.247294108221,0.256688356075,0.0,0.0,0.157892479234
tagged_abstract_sents/15617591.txt,5,0.123690572119,0.0427631578947,0.194899689933,0.293363477728,0.256688356075,0.238099291893,0.0188623636899,0.562353151076
tagged_abstract_sents/15617591.txt,6,0.123690572119,-0.000813525749859,0.210342442448,0.141687475369,0.256688356075,0.198047440594,0.0126262626263,0.616344647799
tagged_abstract_sents/15617591.txt,7,0.140209508461,-0.0217529711375,0.0616692308323,0.247294108221,0.256688356075,0.145752009301,0.0217948717949,0.464137574495
tagged_abstract_sents/15617591.txt,8,0.149073327961,-0.0274122807018,0.0616692308323,0.247294108221,0.256688356075,0.13845240845,0.0137201979307,0.591857258546
tagged_abstract_sents/15617591.txt,9,0.149879129734,-0.0160936615733,0.0616692308323,0.247294108221,0.256688356075,0.104450608525,0.0147198480532,0.505510857394
tagged_abstract_sents/15617591.txt,10,0.176470588235,-0.0579725523486,0.0616692308323,0.247294108221,0.256688356075,0.0,0.0,0.234604808001
tagged_abstract_sents/15617591.txt,11,0.176470588235,0.0195599886814,0.139250797795,0.194462959676,0.256688356075,0.124739012552,0.00576923076923,0.521313118343
tagged_abstract_sents/15617591.txt,12,0.166800966962,0.0371038483305,0.139250797795,0.194462959676,0.256688356075,0.337958458184,0.013431013431,0.808073675314
tagged_abstract_sents/15617591.txt,13,0.0954875100725,0.0167303338993,0.139250797795,0.194462959676,0.256688356075,0.346621912566,0.0124489037533,0.779199420895
tagged_abstract_sents/15617591.txt,14,0.0954875100725,-0.0115662139219,0.139250797795,0.194462959676,0.256688356075,0.116334847839,0.0104166666667,0.532558819316
tagged_abstract_sents/15617591.txt,15,0.0342465753425,-0.0562747594793,0.0616692308323,0.247294108221,0.256688356075,0.0,0.0,0.121165156261
tagged_abstract_sents/15617591.txt,16,0.0342465753425,0.0467246745897,0.139250797795,0.194462959676,0.256688356075,0.372201597318,0.0115995115995,0.805195946985
