tagged_abstract_sents/15617591.txt,1,0.206355591311,-0.0568406904358,0.0616692308323,0.106008497564,0.256688356075,0.0,0.0,0.216353499647
tagged_abstract_sents/15617591.txt,3,0.206355591311,0.0869057724958,0.188769469584,0.129715814208,0.256688356075,0.215209668473,0.0102564102564,0.705248392088
tagged_abstract_sents/15617591.txt,4,0.0048270313757,-0.0579725523486,0.0616692308323,0.106008497564,0.256688356075,0.0,0.0,0.0549042793161
tagged_abstract_sents/15617591.txt,5,0.0108608205953,0.0427631578947,0.194899689933,0.0581677376677,0.256688356075,0.238099291893,0.0188623636899,0.401530627839
tagged_abstract_sents/15617591.txt,6,0.0108608205953,-0.000813525749859,0.210342442448,0.0253702522065,0.256688356075,0.198047440594,0.0126262626263,0.491185679632
tagged_abstract_sents/15617591.txt,7,0.0261464199517,-0.0217529711375,0.0616692308323,0.106008497564,0.256688356075,0.145752009301,0.0217948717949,0.33050142049
tagged_abstract_sents/15617591.txt,8,0.0353982300885,-0.0274122807018,0.0616692308323,0.106008497564,0.256688356075,0.13845240845,0.0137201979307,0.45853149705
tagged_abstract_sents/15617591.txt,9,0.0518905872888,-0.0160936615733,0.0616692308323,0.106008497564,0.256688356075,0.104450608525,0.0147198480532,0.384734340241
tagged_abstract_sents/15617591.txt,10,0.0993563958166,-0.0579725523486,0.0616692308323,0.106008497564,0.256688356075,0.0,0.0,0.130527770869
tagged_abstract_sents/15617591.txt,11,0.0993563958166,0.0195599886814,0.139250797795,0.521468892835,0.256688356075,0.124739012552,0.00576923076923,0.557723544356
tagged_abstract_sents/15617591.txt,13,0.206355591311,0.0167303338993,0.139250797795,0.521468892835,0.256688356075,0.346621912566,0.0124489037533,0.965995665834
tagged_abstract_sents/15617591.txt,14,0.206355591311,-0.0115662139219,0.139250797795,0.521468892835,0.256688356075,0.116334847839,0.0104166666667,0.719355064255
tagged_abstract_sents/15617591.txt,15,0.262268704747,-0.0562747594793,0.0616692308323,0.106008497564,0.256688356075,0.0,0.0,0.261197176587
tagged_abstract_sents/15617591.txt,16,0.262268704747,0.0467246745897,0.139250797795,0.521468892835,0.256688356075,0.372201597318,0.0115995115995,1.08571543046
