tagged_abstract_sents/15625418.txt,1,0.0253827558421,-0.0897435897436,0.188769469584,0.123191979006,0.327873802008,0.314454674319,0.0654744077925,0.763287659172
tagged_abstract_sents/15625418.txt,2,0.123690572119,0.0728438228438,0.194899689933,0.293363477728,0.327873802008,0.629888183865,0.0644487704236,1.0992810967
tagged_abstract_sents/15625418.txt,3,0.149073327961,0.0273892773893,0.188769469584,0.123191979006,0.327873802008,0.378776077167,0.0632328887046,0.95221488734
tagged_abstract_sents/15625418.txt,4,0.176470588235,-0.0472027972028,0.188769469584,0.123191979006,0.327873802008,0.460204937329,0.0796368395949,1.20042677563
tagged_abstract_sents/15625418.txt,6,0.0342465753425,-0.039627039627,0.188769469584,0.123191979006,0.327873802008,0.337684990279,0.0716259631354,0.887998936265
