tagged_abstract_sents/15638939.txt,1,0.125905068383,-0.0482699611837,0.0616692308323,0.142474783506,0.0,0.0,0.0,0.164647112937
tagged_abstract_sents/15638939.txt,2,0.239742558327,-0.00623982637005,0.188769469584,0.202456734834,0.300438869547,0.300363582491,0.0350803806135,0.981550669282
tagged_abstract_sents/15638939.txt,3,0.239742558327,0.00169038774573,0.188769469584,0.202456734834,0.247718004525,0.232783164113,0.033783359826,0.861538407916
tagged_abstract_sents/15638939.txt,4,0.218020917136,0.0127926875078,0.0616692308323,0.142474783506,0.263771120022,0.340235523733,0.0303898602861,0.884948825719
tagged_abstract_sents/15638939.txt,5,0.218020917136,-0.0494594933011,0.0616692308323,0.142474783506,0.0,0.0,0.0,0.238101885516
tagged_abstract_sents/15638939.txt,6,0.162510056315,0.00486247339204,0.210342442448,0.226435992083,0.447234169967,0.263191321662,0.0266435696675,1.04115161988
tagged_abstract_sents/15638939.txt,7,0.162510056315,0.0433240118536,0.0616692308323,0.142474783506,0.409997566206,0.348277758263,0.0801711465143,1.05069636887
tagged_abstract_sents/15638939.txt,8,0.101769911504,-0.0494594933011,0.0616692308323,0.142474783506,0.0,0.0,0.0,0.145101081011
tagged_abstract_sents/15638939.txt,9,0.101769911504,-0.0316165115405,0.139250797795,0.0356431803763,0.621534193715,0.103209580759,0.00105717088901,0.881211925269
tagged_abstract_sents/15638939.txt,10,0.0711987127916,-0.0292374473058,0.139250797795,0.0356431803763,0.408689039591,0.14947337255,0.0236245808905,0.713216826814
tagged_abstract_sents/15638939.txt,11,0.0711987127916,-0.03637464001,0.139250797795,0.0356431803763,0.109063726735,0.0546387007329,0.0,0.29370482271
tagged_abstract_sents/15638939.txt,12,0.0458567980692,0.0223089444468,0.139250797795,0.0356431803763,0.355538339057,0.311177967035,0.0558771856438,0.844059072092
tagged_abstract_sents/15638939.txt,13,0.0458567980692,0.0770274218457,0.139250797795,0.0356431803763,0.176416535116,0.450900228911,0.0816096377478,0.84133567761
tagged_abstract_sents/15638939.txt,14,0.0245374094932,-0.0478734504779,0.139250797795,0.0356431803763,0.0,0.0,0.0,0.0903735905092
tagged_abstract_sents/15638939.txt,15,0.0245374094932,0.00525898409783,0.139250797795,0.0356431803763,0.322463002251,0.336162041296,0.0698728751101,0.829497996081
tagged_abstract_sents/15638939.txt,16,0.00844730490748,0.00803455903836,0.139250797795,0.0356431803763,0.40115494953,0.319168049874,0.0609637747846,0.869969882933
tagged_abstract_sents/15638939.txt,17,0.00844730490748,0.0623565257315,0.139250797795,0.0356431803763,0.404317389312,0.431572947299,0.0517794695892,0.987217308283
tagged_abstract_sents/15638939.txt,18,0.00120675784393,0.0393589047957,0.139250797795,0.0356431803763,0.37648722677,0.50960831468,0.0582400114735,1.03349109317
tagged_abstract_sents/15638939.txt,19,0.00120675784393,0.0215159230352,0.139250797795,0.0356431803763,0.529607819128,0.427793023163,0.0673749965141,1.1103627827
