tagged_abstract_sents/15644481.txt,1,0.125905068383,-0.0603892027621,0.0616692308323,0.142474783506,0.0,0.0,0.0,0.162223264622
tagged_abstract_sents/15644481.txt,2,0.239742558327,0.0714375392341,0.188769469584,0.202456734834,0.187718290946,0.305068521843,0.0352601705933,0.889250293133
tagged_abstract_sents/15644481.txt,3,0.229283990346,-0.0585059635907,0.0616692308323,0.142474783506,0.0,0.0,0.0,0.245303050026
tagged_abstract_sents/15644481.txt,4,0.218020917136,-0.0189579409918,0.0616692308323,0.142474783506,0.403362104116,0.191568010838,0.0399779095454,0.879110220478
tagged_abstract_sents/15644481.txt,5,0.162510056315,0.0557438794727,0.0616692308323,0.142474783506,0.300652492583,0.318737122565,0.0375070138457,0.871630500408
tagged_abstract_sents/15644481.txt,6,0.118262268705,-0.0440677966102,0.0616692308323,0.142474783506,0.0,0.0,0.0,0.15937330611
tagged_abstract_sents/15644481.txt,7,0.101769911504,-0.00138104205901,0.0616692308323,0.142474783506,0.16876702426,0.17942410794,0.0233286827113,0.526236586171
tagged_abstract_sents/15644481.txt,8,0.0711987127916,0.0331450094162,0.0616692308323,0.142474783506,0.473642195392,0.306813733722,0.0284546722897,0.946075623988
tagged_abstract_sents/15644481.txt,9,0.0571198712792,-0.00389202762084,0.0616692308323,0.142474783506,0.131507119954,0.263926780924,0.0267570631322,0.540685505978
tagged_abstract_sents/15644481.txt,10,0.0458567980692,-0.0572504708098,0.0616692308323,0.142474783506,0.0,0.0,0.0,0.0988123947613
tagged_abstract_sents/15644481.txt,11,0.0245374094932,-0.0403013182674,0.0616692308323,0.142474783506,0.552322887991,0.0882576742787,0.0216253923962,0.747352669075
tagged_abstract_sents/15644481.txt,12,0.0144810941271,0.050721908349,0.139250797795,0.0356431803763,0.391105496043,0.266894972226,0.0329475152828,0.792995593534
tagged_abstract_sents/15644481.txt,13,0.00844730490748,-0.0591337099812,0.139250797795,0.0356431803763,0.0,0.0,0.0,0.07524945494
tagged_abstract_sents/15644481.txt,14,0.00120675784393,0.0375392341494,0.139250797795,0.0356431803763,0.0534269243191,0.223257821093,0.0543763721045,0.419852723632
tagged_abstract_sents/15644481.txt,15,0.00120675784393,0.0952919020716,0.139250797795,0.0356431803763,0.167811817562,0.314363914993,0.0347242231692,0.617242095424
