tagged_abstract_sents/15708180.txt,1,0.0954875100725,-0.0611139155309,0.0616692308323,0.247294108221,0.142871193793,0.0,0.0,0.169190072834
tagged_abstract_sents/15708180.txt,3,0.0451248992748,-0.000538448594986,0.188769469584,0.123191979006,0.142871193793,0.128433703028,0.0680864558938,0.759442744761
tagged_abstract_sents/15708180.txt,4,0.0805801772764,-0.0626283022043,0.0616692308323,0.247294108221,0.142871193793,0.0,0.0,0.156961329263
tagged_abstract_sents/15708180.txt,5,0.123690572119,0.0438835604913,0.0616692308323,0.247294108221,0.142871193793,0.218418288205,0.0896725493476,0.808934315512
tagged_abstract_sents/15708180.txt,6,0.131345688961,0.00400471142521,0.210342442448,0.141687475369,0.142871193793,0.136661271033,0.0810273634907,0.703556928504
tagged_abstract_sents/15708180.txt,7,0.140209508461,-0.0121487464244,0.0616692308323,0.247294108221,0.142871193793,0.120583313486,0.0701600312256,0.802750703505
tagged_abstract_sents/15708180.txt,8,0.149879129734,-0.0626283022043,0.0616692308323,0.247294108221,0.142871193793,0.0,0.0,0.212400491229
tagged_abstract_sents/15708180.txt,9,0.150684931507,0.0600370183409,0.139250797795,0.194462959676,0.142871193793,0.136383889977,0.0876024590164,0.667852827655
tagged_abstract_sents/15708180.txt,10,0.176470588235,0.00400471142521,0.139250797795,0.194462959676,0.142871193793,0.140404412441,0.0763238355451,0.820329635212
tagged_abstract_sents/15708180.txt,11,0.166800966962,0.0761904761905,0.139250797795,0.194462959676,0.142871193793,0.0687368484437,0.0260763826338,0.382809488128
tagged_abstract_sents/15708180.txt,12,0.131345688961,0.0630657916877,0.139250797795,0.194462959676,0.142871193793,0.188057805931,0.0754110558158,0.786482365874
tagged_abstract_sents/15708180.txt,13,0.0954875100725,-0.0606091199731,0.0616692308323,0.247294108221,0.142871193793,0.0,0.0,0.169291031946
tagged_abstract_sents/15708180.txt,14,0.0342465753425,0.0060238936564,0.139250797795,0.194462959676,0.142871193793,0.133444044521,0.0644875508443,0.682012413178
tagged_abstract_sents/15708180.txt,15,0.0342465753425,0.017129395928,0.139250797795,0.194462959676,0.142871193793,0.169647244577,0.0782547370662,0.549560601696
