tagged_abstract_sents/15716561.txt,1,0.0954875100725,-0.0615240766713,0.0616692308323,0.247294108221,0.0,0.0,0.0,0.169108040606
tagged_abstract_sents/15716561.txt,2,0.0253827558421,0.00252454417952,0.188769469584,0.123191979006,0.0,0.595599218629,0.0557878399138,1.25336864383
tagged_abstract_sents/15716561.txt,3,0.0451248992748,-0.0629266012155,0.0616692308323,0.247294108221,0.0,0.0,0.0,0.128537447059
tagged_abstract_sents/15716561.txt,4,0.0805801772764,0.00766713417485,0.210342442448,0.141687475369,0.0,0.659216769358,0.0604895242017,1.20506461656
tagged_abstract_sents/15716561.txt,5,0.123690572119,0.037587657784,0.194899689933,0.293363477728,0.0,0.724967569433,0.0654081737698,1.57566878629
tagged_abstract_sents/15716561.txt,6,0.131345688961,0.00112201963534,0.0616692308323,0.247294108221,0.0,0.446014296431,0.0576050810764,1.05309765842
tagged_abstract_sents/15716561.txt,7,0.140209508461,-0.00869565217391,0.139250797795,0.194462959676,0.0,0.490843717773,0.0464340751555,1.04885152615
tagged_abstract_sents/15716561.txt,8,0.149879129734,-0.0629266012155,0.139250797795,0.194462959676,0.0,0.0,0.0,0.235282270344
tagged_abstract_sents/15716561.txt,9,0.150684931507,0.0675081813932,0.139250797795,0.194462959676,0.0,0.772960099514,0.065834378373,1.55294839996
tagged_abstract_sents/15716561.txt,11,0.166800966962,0.0600280504909,0.139250797795,0.194462959676,0.0,0.498949557353,0.0588297531627,1.18399294816
tagged_abstract_sents/15716561.txt,12,0.131345688961,-0.0610565684899,0.0616692308323,0.247294108221,0.0,0.0,0.0,0.197888085353
tagged_abstract_sents/15716561.txt,13,0.0954875100725,-0.0129032258065,0.139250797795,0.194462959676,0.0,0.657918586417,0.0520779346789,1.1834536845
tagged_abstract_sents/15716561.txt,14,0.0342465753425,-0.0348761103319,0.139250797795,0.194462959676,0.0,0.436880794958,0.0490919073377,0.736765855706
tagged_abstract_sents/15716561.txt,15,0.0342465753425,-0.0559139784946,0.139250797795,0.194462959676,0.0,0.310117897011,0.0340886612005,0.488385309587
