tagged_abstract_sents/15757807.txt,1,0.239742558327,-0.00507554296506,0.188769469584,0.202456734834,0.50252176466,0.117310414137,0.0500647109577,1.01579758306
tagged_abstract_sents/15757807.txt,2,0.218020917136,-0.0843956562795,0.188769469584,0.202456734834,0.0,0.0474448918523,0.0576287029048,0.417732952452
tagged_abstract_sents/15757807.txt,3,0.162510056315,0.0393059490085,0.188769469584,0.202456734834,0.0864480859809,0.112096165154,0.0891989464602,0.580734187691
tagged_abstract_sents/15757807.txt,4,0.0852775543041,0.0487488196412,0.188769469584,0.202456734834,0.495434607966,0.112646450669,0.0756209981381,0.916795619388
tagged_abstract_sents/15757807.txt,5,0.0458567980692,0.0430830972616,0.188769469584,0.202456734834,0.318265940435,0.125448391925,0.0685114425408,0.712649588051
tagged_abstract_sents/15757807.txt,6,0.0245374094932,-0.0787299338999,0.139250797795,0.0356431803763,0.195133944708,0.0389878361844,0.0237861793082,0.342110254025
tagged_abstract_sents/15757807.txt,7,0.00844730490748,0.0865203021719,0.139250797795,0.0356431803763,0.236409399566,0.0713989791488,0.0405234397469,0.452712075832
tagged_abstract_sents/15757807.txt,8,0.00120675784393,-0.0494570349386,0.139250797795,0.0356431803763,0.362364632448,0.0525302345973,0.0640458728789,0.550333092221
