tagged_abstract_sents/15757807.txt,2,0.0805801772764,-0.0843956562795,0.188769469584,0.123191979006,0.362364632448,0.0474448918523,0.0576287029048,0.284000933816
tagged_abstract_sents/15757807.txt,3,0.123690572119,0.0393059490085,0.188769469584,0.123191979006,0.362364632448,0.112096165154,0.0891989464602,0.525899173586
tagged_abstract_sents/15757807.txt,4,0.149073327961,0.0487488196412,0.188769469584,0.123191979006,0.362364632448,0.112646450669,0.0756209981381,0.944052811565
tagged_abstract_sents/15757807.txt,5,0.176470588235,0.0430830972616,0.188769469584,0.123191979006,0.362364632448,0.125448391925,0.0685114425408,0.793361193435
tagged_abstract_sents/15757807.txt,6,0.166800966962,-0.0787299338999,0.139250797795,0.194462959676,0.362364632448,0.0389878361844,0.0237861793082,0.50356703379
tagged_abstract_sents/15757807.txt,7,0.0954875100725,0.0865203021719,0.139250797795,0.194462959676,0.362364632448,0.0713989791488,0.0405234397469,0.569990173754
tagged_abstract_sents/15757807.txt,8,0.0342465753425,-0.0494570349386,0.139250797795,0.194462959676,0.362364632448,0.0525302345973,0.0640458728789,0.62441088001
