tagged_abstract_sents/15757807.txt,2,0.0048270313757,-0.0843956562795,0.188769469584,0.129715814208,0.362364632448,0.0474448918523,0.0576287029048,0.225355567656
tagged_abstract_sents/15757807.txt,3,0.0108608205953,0.0393059490085,0.188769469584,0.129715814208,0.362364632448,0.112096165154,0.0891989464602,0.437592522927
tagged_abstract_sents/15757807.txt,5,0.0993563958166,0.0430830972616,0.188769469584,0.129715814208,0.362364632448,0.125448391925,0.0685114425408,0.733626990061
tagged_abstract_sents/15757807.txt,6,0.172566371681,-0.0787299338999,0.139250797795,0.521468892835,0.362364632448,0.0389878361844,0.0237861793082,0.606281137513
tagged_abstract_sents/15757807.txt,7,0.206355591311,0.0865203021719,0.139250797795,0.521468892835,0.362364632448,0.0713989791488,0.0405234397469,0.756786418693
tagged_abstract_sents/15757807.txt,8,0.262268704747,-0.0494570349386,0.139250797795,0.521468892835,0.362364632448,0.0525302345973,0.0640458728789,0.904930363481
