tagged_abstract_sents/15765034.txt,1,0.206355591311,-0.056806383673,0.0616692308323,0.106008497564,0.235015208468,0.0,0.0,0.216360361
tagged_abstract_sents/15765034.txt,2,0.206355591311,0.0253923051823,0.188769469584,0.129715814208,0.235015208468,0.188034682305,0.0896910466583,0.730846398416
tagged_abstract_sents/15765034.txt,3,0.206355591311,-0.0547892379342,0.0616692308323,0.106008497564,0.235015208468,0.0,0.0,0.216763790148
tagged_abstract_sents/15765034.txt,4,0.0048270313757,-0.00688202663819,0.0616692308323,0.106008497564,0.235015208468,0.135095283652,0.112338222606,0.720797099876
tagged_abstract_sents/15765034.txt,5,0.0048270313757,-0.0305834890688,0.0616692308323,0.106008497564,0.235015208468,0.126859055023,0.0703432077461,0.402197738534
tagged_abstract_sents/15765034.txt,6,0.0108608205953,0.0869152502151,0.0616692308323,0.106008497564,0.235015208468,0.212273791087,0.132330189521,0.70349286558
tagged_abstract_sents/15765034.txt,8,0.0261464199517,0.014298003619,0.0616692308323,0.106008497564,0.235015208468,0.155196392626,0.106067142521,0.764984860477
tagged_abstract_sents/15765034.txt,9,0.0518905872888,0.0682566521314,0.0616692308323,0.106008497564,0.235015208468,0.239719244339,0.115421430112,0.642825097022
tagged_abstract_sents/15765034.txt,10,0.0518905872888,-0.0547892379342,0.0616692308323,0.106008497564,0.235015208468,0.0,0.0,0.0931917869295
tagged_abstract_sents/15765034.txt,11,0.0993563958166,0.0102637121414,0.139250797795,0.521468892835,0.235015208468,0.197085514951,0.102666423309,0.850787695697
tagged_abstract_sents/15765034.txt,13,0.172566371681,0.0309394559639,0.139250797795,0.521468892835,0.235015208468,0.134254344922,0.0923748921484,0.73460317758
tagged_abstract_sents/15765034.txt,14,0.206355591311,-0.027053484026,0.139250797795,0.521468892835,0.235015208468,0.02409471809,0.0601542277826,0.469988788864
tagged_abstract_sents/15765034.txt,15,0.206355591311,-0.0058734537688,0.139250797795,0.521468892835,0.235015208468,0.127879442517,0.0986444757277,1.02127448029
tagged_abstract_sents/15765034.txt,16,0.262268704747,-0.0527720921954,0.139250797795,0.521468892835,0.235015208468,0.0,0.0,0.425326612106
tagged_abstract_sents/15765034.txt,17,0.262268704747,-0.00234344872594,0.139250797795,0.521468892835,0.235015208468,0.129064402638,0.0830996548749,0.882591606781
