tagged_abstract_sents/15788823.txt,1,0.125905068383,-0.0648496240602,0.0616692308323,0.142474783506,0.0,0.0,0.0,0.161331180362
tagged_abstract_sents/15788823.txt,2,0.239742558327,0.084492481203,0.188769469584,0.202456734834,0.407279228562,0.53742089173,0.0567971814133,1.36531159985
tagged_abstract_sents/15788823.txt,3,0.218020917136,-0.0661654135338,0.0616692308323,0.142474783506,0.0,0.0,0.0,0.23476070147
tagged_abstract_sents/15788823.txt,4,0.218020917136,0.00554511278195,0.0616692308323,0.142474783506,0.454177983612,0.393239486944,0.0576624786723,1.15418275596
tagged_abstract_sents/15788823.txt,5,0.162510056315,0.0772556390977,0.0616692308323,0.142474783506,0.295091272458,0.347135473008,0.0587870327284,0.920050001535
tagged_abstract_sents/15788823.txt,6,0.101769911504,0.043045112782,0.0616692308323,0.142474783506,0.433393466494,0.388162603895,0.0663431496377,1.05150122226
tagged_abstract_sents/15788823.txt,7,0.0852775543041,-0.0661654135338,0.0616692308323,0.142474783506,0.0,0.0,0.0,0.128566011204
tagged_abstract_sents/15788823.txt,8,0.0711987127916,-0.0332706766917,0.139250797795,0.0356431803763,0.283125936849,0.176956161766,0.042129229542,0.632834516062
tagged_abstract_sents/15788823.txt,9,0.0458567980692,0.0384398496241,0.139250797795,0.0356431803763,0.433393579983,0.279400634755,0.0571805269339,0.894666503062
tagged_abstract_sents/15788823.txt,10,0.0245374094932,-0.0312969924812,0.139250797795,0.0356431803763,0.364486727186,0.182727081932,0.0652861796184,0.706188870845
tagged_abstract_sents/15788823.txt,11,0.0245374094932,-0.028007518797,0.139250797795,0.0356431803763,0.064739898462,0.0415334135671,0.00973320924461,0.210353298119
tagged_abstract_sents/15788823.txt,12,0.00844730490748,-0.0641917293233,0.0616692308323,0.142474783506,0.0,0.0,0.0,0.0674965485292
tagged_abstract_sents/15788823.txt,13,0.00120675784393,0.0713345864662,0.139250797795,0.0356431803763,0.423423340063,0.424439934914,0.051698464402,0.995112415957
tagged_abstract_sents/15788823.txt,14,0.00120675784393,0.0338345864662,0.139250797795,0.0356431803763,0.46129211604,0.374816868765,0.0477049125839,0.971864573968
