tagged_abstract_sents/15788927.txt,1,0.0954875100725,-0.0625647519282,0.0616692308323,0.247294108221,0.292200281213,0.0,0.0,0.168899905555
tagged_abstract_sents/15788927.txt,3,0.0805801772764,-0.0673995625648,0.188769469584,0.123191979006,0.292200281213,0.0,0.0,0.182326557802
tagged_abstract_sents/15788927.txt,4,0.0805801772764,0.0429952803039,0.188769469584,0.123191979006,0.292200281213,0.496751261486,0.00433582778465,0.910492248495
tagged_abstract_sents/15788927.txt,5,0.123690572119,-0.066593760792,0.0616692308323,0.247294108221,0.292200281213,0.0,0.0,0.19065655342
tagged_abstract_sents/15788927.txt,6,0.140209508461,0.0317140554852,0.139250797795,0.194462959676,0.292200281213,0.593768715566,0.0110362061485,1.1037602011
tagged_abstract_sents/15788927.txt,7,0.149073327961,0.0728099458962,0.139250797795,0.194462959676,0.292200281213,0.592554003977,0.00354749546017,1.2642240103
tagged_abstract_sents/15788927.txt,8,0.149879129734,-0.0649821572465,0.139250797795,0.194462959676,0.292200281213,0.0,0.0,0.234871159138
tagged_abstract_sents/15788927.txt,9,0.176470588235,0.0421894785311,0.139250797795,0.194462959676,0.292200281213,0.371732417234,0.00600345385567,0.801007157665
tagged_abstract_sents/15788927.txt,10,0.166800966962,0.0301024519397,0.139250797795,0.194462959676,0.292200281213,0.347307101491,0.00650374167698,1.02170366582
tagged_abstract_sents/15788927.txt,11,0.166800966962,-0.0617589501554,0.139250797795,0.194462959676,0.292200281213,0.0,0.0,0.249053270339
tagged_abstract_sents/15788927.txt,12,0.0954875100725,-0.0061586278347,0.139250797795,0.194462959676,0.292200281213,0.42347362232,0.0119707884037,0.638566980015
tagged_abstract_sents/15788927.txt,13,0.0342465753425,0.0164038218027,0.139250797795,0.194462959676,0.292200281213,0.445246403552,0.0119707884037,0.888878951854
tagged_abstract_sents/15788927.txt,14,0.0342465753425,0.0365488661218,0.139250797795,0.194462959676,0.292200281213,0.679808033371,0.0079805256025,1.14266016048
