tagged_abstract_sents/15836465.txt,1,0.206355591311,-0.0212550607287,0.188769469584,0.129715814208,0.369146751385,0.266025861639,0.0387498443531,0.907061237819
tagged_abstract_sents/15836465.txt,3,0.0048270313757,0.028677462888,0.188769469584,0.129715814208,0.369146751385,0.423928342105,0.0309851955252,0.736543670338
tagged_abstract_sents/15836465.txt,4,0.0108608205953,-0.0145074224022,0.0616692308323,0.106008497564,0.369146751385,0.241209373742,0.0300442926517,0.801021936936
tagged_abstract_sents/15836465.txt,5,0.0261464199517,-0.0421727395412,0.0616692308323,0.106008497564,0.369146751385,0.245023677547,0.0285234003949,0.34866683068
tagged_abstract_sents/15836465.txt,6,0.0353982300885,-0.00978407557355,0.139250797795,0.521468892835,0.369146751385,0.360592104874,0.0134665670527,1.06887409617
tagged_abstract_sents/15836465.txt,7,0.0518905872888,-0.0280026990553,0.139250797795,0.521468892835,0.369146751385,0.248104343576,0.0369529611218,0.727346078574
tagged_abstract_sents/15836465.txt,8,0.0993563958166,0.0239541160594,0.139250797795,0.521468892835,0.369146751385,0.518123831301,0.0265377910596,1.20446099879
tagged_abstract_sents/15836465.txt,10,0.206355591311,0.0232793522267,0.139250797795,0.521468892835,0.369146751385,0.391928095941,0.0211472211846,1.06778680598
tagged_abstract_sents/15836465.txt,11,0.262268704747,-0.00303643724696,0.139250797795,0.521468892835,0.369146751385,0.269129673765,0.0281331714606,1.02678134043
tagged_abstract_sents/15836465.txt,12,0.262268704747,0.000337381916329,0.139250797795,0.521468892835,0.369146751385,0.335334292476,0.0326089344965,1.17303848529
