tagged_abstract_sents/15846645.txt,1,0.206355591311,-0.0300653594771,0.0616692308323,0.106008497564,0.0,0.0,0.0,0.221708565839
tagged_abstract_sents/15846645.txt,2,0.206355591311,0.00974450386215,0.188769469584,0.129715814208,0.0,0.430107855518,0.0593157327586,0.800214108946
tagged_abstract_sents/15846645.txt,3,0.206355591311,-0.0300653594771,0.0616692308323,0.106008497564,0.0,0.0,0.0,0.221708565839
tagged_abstract_sents/15846645.txt,5,0.206355591311,-0.0285799168152,0.0616692308323,0.106008497564,0.0,0.0,0.0,0.222005654371
tagged_abstract_sents/15846645.txt,6,0.0048270313757,-0.00659536541889,0.0616692308323,0.106008497564,0.0,0.196477392922,0.0483117816092,0.311656539862
tagged_abstract_sents/15846645.txt,7,0.0048270313757,0.0038027332145,0.0616692308323,0.106008497564,0.0,0.340826141489,0.0384159482759,0.457475493606
tagged_abstract_sents/15846645.txt,8,0.0048270313757,-0.0208556149733,0.0616692308323,0.106008497564,0.0,0.145138963272,0.0344827586207,0.267044795203
tagged_abstract_sents/15846645.txt,9,0.0048270313757,-0.0276886512181,0.0616692308323,0.106008497564,0.0,0.0,0.0,0.0609610595422
tagged_abstract_sents/15846645.txt,10,0.0108608205953,0.0394533571004,0.0616692308323,0.106008497564,0.0,0.534747539423,0.0585039511494,0.933549487286
tagged_abstract_sents/15846645.txt,11,0.0108608205953,-0.0247177658942,0.0616692308323,0.106008497564,0.0,0.0,0.0,0.0663822679827
tagged_abstract_sents/15846645.txt,12,0.016894609815,0.00231729055258,0.0616692308323,0.106008497564,0.0,0.581962153621,0.0471384099617,0.848009019257
tagged_abstract_sents/15846645.txt,13,0.0261464199517,-0.00510992275698,0.0616692308323,0.106008497564,0.0,0.24229231195,0.0106296182266,0.342257550315
tagged_abstract_sents/15846645.txt,14,0.0261464199517,-5.94177064765e-05,0.0616692308323,0.106008497564,0.0,0.264823223033,0.0367097701149,0.385111080323
tagged_abstract_sents/15846645.txt,15,0.0353982300885,-0.0116458704694,0.0616692308323,0.106008497564,0.0,0.19807370923,0.0343584217507,0.321102581234
tagged_abstract_sents/15846645.txt,16,0.0518905872888,-0.0294711824124,0.0616692308323,0.106008497564,0.0,0.0,0.0,0.0982553980339
tagged_abstract_sents/15846645.txt,18,0.0683829444891,0.0471776589424,0.139250797795,0.521468892835,0.0,0.596993427508,0.0820996352785,1.1248112287
tagged_abstract_sents/15846645.txt,19,0.0993563958166,-0.00570409982175,0.139250797795,0.521468892835,0.0,0.24086138382,0.0429525862069,0.592811271787
tagged_abstract_sents/15846645.txt,20,0.0993563958166,-0.00867498514557,0.139250797795,0.521468892835,0.0,0.295139512191,0.0306824712644,0.635229101877
tagged_abstract_sents/15846645.txt,21,0.130329847144,0.036779560309,0.139250797795,0.521468892835,0.0,0.565114982031,0.060546875,1.15403517017
tagged_abstract_sents/15846645.txt,22,0.172566371681,0.0400475341652,0.139250797795,0.521468892835,0.0,0.593817091838,0.0590732758621,1.21525412689
tagged_abstract_sents/15846645.txt,23,0.172566371681,0.00944741532977,0.139250797795,0.521468892835,0.0,0.416719777057,0.0577983212341,1.20869747269
tagged_abstract_sents/15846645.txt,24,0.214802896219,0.018954248366,0.139250797795,0.521468892835,0.0,0.57474752252,0.0537528110945,1.33283988425
tagged_abstract_sents/15846645.txt,25,0.206355591311,0.00469399881165,0.139250797795,0.521468892835,0.0,0.359693943213,0.0517025862069,0.809727054817
tagged_abstract_sents/15846645.txt,26,0.206355591311,-0.0270944741533,0.139250797795,0.521468892835,0.0,0.0,0.0,0.385731644966
tagged_abstract_sents/15846645.txt,27,0.262268704747,-0.0181818181818,0.139250797795,0.521468892835,0.0,0.272307193981,0.0334913793103,0.738091013184
tagged_abstract_sents/15846645.txt,28,0.262268704747,0.0626262626263,0.139250797795,0.521468892835,0.0,0.649851098082,0.0682191890166,1.47144021274
tagged_abstract_sents/15846645.txt,29,0.262268704747,0.0139037433155,0.139250797795,0.521468892835,0.0,0.530321445485,0.0574494002999,1.42960162112
tagged_abstract_sents/15846645.txt,30,0.262268704747,-0.0229352346999,0.139250797795,0.521468892835,0.0,0.0503990243748,0.0525996767241,0.534292684704
