tagged_abstract_sents/15861313.txt,1,0.239742558327,-0.0400417827298,0.188769469584,0.202456734834,0.258911560933,0.488376721964,0.028350019253,1.11454574751
tagged_abstract_sents/15861313.txt,2,0.218020917136,-0.0212395543175,0.188769469584,0.202456734834,0.0,0.333499311871,0.0376133300662,0.696403220025
tagged_abstract_sents/15861313.txt,3,0.162510056315,0.0191504178273,0.188769469584,0.202456734834,0.115526330803,0.509108166096,0.0355598607367,0.949154241496
tagged_abstract_sents/15861313.txt,4,0.0852775543041,-0.00591922005571,0.188769469584,0.202456734834,0.201847192864,0.376098705861,0.0338489784757,0.833954831876
tagged_abstract_sents/15861313.txt,5,0.0458567980692,-0.0191504178273,0.188769469584,0.202456734834,0.166884519135,0.459403711408,0.0406099952661,0.854875335942
tagged_abstract_sents/15861313.txt,6,0.0245374094932,0.0567548746518,0.188769469584,0.202456734834,0.230507901971,0.49294174103,0.026724568234,0.936276869003
tagged_abstract_sents/15861313.txt,7,0.00844730490748,0.0128830083565,0.188769469584,0.202456734834,0.096745952385,0.363548432153,0.0264398348894,0.651190420267
tagged_abstract_sents/15861313.txt,8,0.00120675784393,-0.00243732590529,0.188769469584,0.202456734834,0.251698150723,0.503572682913,0.0379704502346,0.948840980207
