tagged_abstract_sents/15926710.txt,1,0.0954875100725,-0.0732485362407,0.0616692308323,0.247294108221,0.238587477412,0.0,0.0,0.166763148692
tagged_abstract_sents/15926710.txt,3,0.0805801772764,0.0306884716334,0.188769469584,0.123191979006,0.238587477412,0.413597868408,0.0487013859046,0.798464202146
tagged_abstract_sents/15926710.txt,4,0.123690572119,0.0201897839693,0.0616692308323,0.247294108221,0.238587477412,0.463733703881,0.0514926675978,1.0178404388
tagged_abstract_sents/15926710.txt,5,0.123690572119,-0.0727236018575,0.0616692308323,0.247294108221,0.238587477412,0.0,0.0,0.189430585206
tagged_abstract_sents/15926710.txt,6,0.140209508461,0.0590349283263,0.0616692308323,0.247294108221,0.238587477412,0.58783844915,0.0439826173939,1.15171942847
tagged_abstract_sents/15926710.txt,7,0.149879129734,-0.0086816071068,0.0616692308323,0.247294108221,0.238587477412,0.277161505573,0.0408795207292,0.54123085655
tagged_abstract_sents/15926710.txt,8,0.176470588235,0.0222895215021,0.0616692308323,0.247294108221,0.238587477412,0.272881684388,0.0406222434578,0.7205054189
tagged_abstract_sents/15926710.txt,9,0.176470588235,0.0249141934181,0.139250797795,0.194462959676,0.238587477412,0.343326537075,0.0334588292446,0.89112285033
tagged_abstract_sents/15926710.txt,10,0.166800966962,-0.014455885322,0.139250797795,0.194462959676,0.238587477412,0.253684040211,0.0253142458101,0.709546577364
tagged_abstract_sents/15926710.txt,11,0.0954875100725,0.0270139309509,0.139250797795,0.194462959676,0.238587477412,0.373420188418,0.0504189944134,0.926501674598
tagged_abstract_sents/15926710.txt,12,0.0342465753425,-0.0706238643247,0.0616692308323,0.247294108221,0.238587477412,0.0,0.0,0.118295335292
tagged_abstract_sents/15926710.txt,13,0.0342465753425,0.0333131435494,0.139250797795,0.194462959676,0.238587477412,0.439096561653,0.0375770564438,0.877285271294
