tagged_abstract_sents/15992389.txt,1,0.125905068383,-0.0492898913952,0.0616692308323,0.142474783506,0.0,0.0,0.0,0.164443126895
tagged_abstract_sents/15992389.txt,2,0.239742558327,-0.0298663324979,0.188769469584,0.202456734834,0.312624584182,0.0757193428131,0.0360390256853,0.765325488085
tagged_abstract_sents/15992389.txt,3,0.239742558327,-0.00292397660819,0.0616692308323,0.142474783506,0.471527959496,0.105441144265,0.0196036136629,0.861359019231
tagged_abstract_sents/15992389.txt,4,0.218020917136,-0.00167084377611,0.0616692308323,0.142474783506,0.422716774367,0.131265308457,0.0660668063602,0.867708504605
tagged_abstract_sents/15992389.txt,5,0.218020917136,0.0659983291562,0.0616692308323,0.142474783506,0.288544847546,0.177411773241,0.0606445530949,0.78779462389
tagged_abstract_sents/15992389.txt,6,0.162510056315,-0.0511695906433,0.0616692308323,0.142474783506,0.0,0.0,0.0,0.193351177391
tagged_abstract_sents/15992389.txt,7,0.162510056315,-0.00856307435255,0.0616692308323,0.142474783506,0.170974561094,0.136007994011,0.0499029335634,0.558757969318
tagged_abstract_sents/15992389.txt,8,0.101769911504,-0.0261069340017,0.0616692308323,0.142474783506,0.0,0.0900951776404,0.0509367681499,0.290803538661
tagged_abstract_sents/15992389.txt,9,0.0852775543041,0.0597326649958,0.139250797795,0.0356431803763,0.286043240375,0.194471173973,0.0638647375058,0.704866081307
tagged_abstract_sents/15992389.txt,10,0.0711987127916,0.0597326649958,0.139250797795,0.0356431803763,0.160056365551,0.248610514393,0.0566791859108,0.614569922097
tagged_abstract_sents/15992389.txt,11,0.0458567980692,-0.0505430242272,0.139250797795,0.0356431803763,0.0,0.0,0.0,0.10689518662
tagged_abstract_sents/15992389.txt,12,0.0458567980692,0.0265246449457,0.139250797795,0.0356431803763,0.436169851942,0.219111608482,0.0603010257885,0.837891206667
tagged_abstract_sents/15992389.txt,13,0.0245374094932,0.0822890559733,0.139250797795,0.0356431803763,0.152567526841,0.267776305783,0.0584555651424,0.595205489566
tagged_abstract_sents/15992389.txt,14,0.0245374094932,0.0190058479532,0.139250797795,0.0356431803763,0.285055714896,0.15807660654,0.0381138162584,0.584995587891
tagged_abstract_sents/15992389.txt,15,0.00844730490748,-0.0486633249791,0.0616692308323,0.142474783506,0.0,0.0,0.0,0.070602229398
tagged_abstract_sents/15992389.txt,16,0.00844730490748,0.015246449457,0.139250797795,0.0356431803763,0.428001027506,0.16515174746,0.0422872041115,0.725565465905
tagged_abstract_sents/15992389.txt,17,0.00120675784393,-0.0185881370092,0.139250797795,0.0356431803763,0.20813446828,0.111567629534,0.0496117342537,0.446879963951
tagged_abstract_sents/15992389.txt,18,0.00120675784393,-0.0411445279866,0.139250797795,0.0356431803763,0.0,0.103722853106,0.0520518766178,0.228829583412
