tagged_abstract_sents/16026361.txt,1,0.0954875100725,-0.0531093716025,0.0616692308323,0.247294108221,0.260202532389,0.0,0.0,0.17079098162
tagged_abstract_sents/16026361.txt,3,0.0253827558421,-0.0516416612307,0.0616692308323,0.247294108221,0.260202532389,0.0,0.0,0.11500072031
tagged_abstract_sents/16026361.txt,4,0.0805801772764,0.00119591215482,0.210342442448,0.141687475369,0.260202532389,0.422283158656,0.0258885608049,1.1196608645
tagged_abstract_sents/16026361.txt,5,0.0805801772764,0.0148945422918,0.0616692308323,0.247294108221,0.260202532389,0.401827631686,0.0315277202192,0.745689951967
tagged_abstract_sents/16026361.txt,6,0.123690572119,0.0794737986519,0.0616692308323,0.247294108221,0.260202532389,0.701401013548,0.04201944515,1.05548920648
tagged_abstract_sents/16026361.txt,7,0.123690572119,-0.0320721896064,0.0616692308323,0.247294108221,0.260202532389,0.187547620933,0.0381323073252,0.423279294168
tagged_abstract_sents/16026361.txt,8,0.140209508461,-0.0516416612307,0.0616692308323,0.247294108221,0.260202532389,0.0,0.0,0.206862122405
tagged_abstract_sents/16026361.txt,9,0.149073327961,0.0114698847576,0.139250797795,0.194462959676,0.260202532389,0.378638345723,0.0554401185963,0.888823705302
tagged_abstract_sents/16026361.txt,10,0.149879129734,0.00608828006088,0.139250797795,0.194462959676,0.260202532389,0.47832322364,0.0304819852064,0.950586940076
tagged_abstract_sents/16026361.txt,11,0.176470588235,0.0545227223309,0.139250797795,0.194462959676,0.260202532389,0.479027761839,0.0503136681778,1.12479860281
tagged_abstract_sents/16026361.txt,12,0.176470588235,-0.00271798217004,0.139250797795,0.194462959676,0.260202532389,0.571653632534,0.0339344156055,1.26848874417
tagged_abstract_sents/16026361.txt,13,0.166800966962,0.0192976734073,0.139250797795,0.194462959676,0.260202532389,0.389546911991,0.0465159782659,0.873510501784
tagged_abstract_sents/16026361.txt,14,0.166800966962,-0.0125027179822,0.139250797795,0.194462959676,0.260202532389,0.183888541195,0.016394257536,0.783914748166
tagged_abstract_sents/16026361.txt,15,0.0954875100725,-0.0159273755164,0.139250797795,0.194462959676,0.260202532389,0.282519087953,0.0295494313211,0.838087126164
tagged_abstract_sents/16026361.txt,16,0.0954875100725,-0.0496847140683,0.139250797795,0.194462959676,0.260202532389,0.0,0.0,0.194417352045
tagged_abstract_sents/16026361.txt,17,0.0342465753425,0.0119591215482,0.139250797795,0.194462959676,0.260202532389,0.56333958922,0.0360476815398,0.976542380658
tagged_abstract_sents/16026361.txt,18,0.0342465753425,0.0515873015873,0.139250797795,0.194462959676,0.260202532389,0.686446398688,0.0389490376203,1.15127697609
