tagged_abstract_sents/16034881.txt,1,0.125905068383,-0.0271691271691,0.0616692308323,0.142474783506,0.0,0.0,0.0,0.16886727974
tagged_abstract_sents/16034881.txt,2,0.125905068383,-0.0038073038073,0.188769469584,0.202456734834,0.434678286221,0.357792297976,0.0240716438223,1.07162657721
tagged_abstract_sents/16034881.txt,3,0.125905068383,0.0221186221186,0.188769469584,0.202456734834,0.23018457734,0.526120100735,0.0301662292213,1.04674044167
tagged_abstract_sents/16034881.txt,4,0.239742558327,-0.0038073038073,0.0616692308323,0.142474783506,0.322086081322,0.283017892628,0.0096374671916,0.87935107751
tagged_abstract_sents/16034881.txt,5,0.239742558327,-0.0271691271691,0.0616692308323,0.142474783506,0.0,0.0,0.0,0.259937271695
tagged_abstract_sents/16034881.txt,6,0.239742558327,0.0332297332297,0.0616692308323,0.142474783506,0.103830732303,0.821709612777,0.0396200474941,1.23717743635
tagged_abstract_sents/16034881.txt,7,0.218020917136,-0.0257446257446,0.0616692308323,0.142474783506,0.0,0.0,0.0,0.242844859028
tagged_abstract_sents/16034881.txt,8,0.218020917136,0.0121471121471,0.0616692308323,0.142474783506,0.302631627532,0.476332474948,0.0472892654723,1.07667657456
tagged_abstract_sents/16034881.txt,9,0.218020917136,-0.0200466200466,0.0616692308323,0.142474783506,0.0,0.0948078279519,0.0383038057743,0.377096093894
tagged_abstract_sents/16034881.txt,10,0.162510056315,-0.0248899248899,0.0616692308323,0.142474783506,0.0,0.0,0.0,0.198607110542
tagged_abstract_sents/16034881.txt,11,0.162510056315,-0.0157731157731,0.0616692308323,0.142474783506,0.437839075419,0.178921982943,0.0241688538933,0.841360384621
tagged_abstract_sents/16034881.txt,12,0.162510056315,0.0115773115773,0.0616692308323,0.142474783506,0.207630119792,0.595137101714,0.0433386331516,1.05200641249
tagged_abstract_sents/16034881.txt,13,0.162510056315,-0.0220409220409,0.0616692308323,0.142474783506,0.0,0.0,0.0,0.199176911112
tagged_abstract_sents/16034881.txt,14,0.101769911504,-0.0109298109298,0.0616692308323,0.142474783506,0.273911035181,0.366680761673,0.0340994702051,0.827498284545
tagged_abstract_sents/16034881.txt,15,0.101769911504,-0.016058016058,0.0616692308323,0.142474783506,0.420468165047,0.242141901477,0.0437697691635,0.858161212148
tagged_abstract_sents/16034881.txt,16,0.101769911504,-0.0163429163429,0.0616692308323,0.142474783506,0.403234971456,0.209660847818,0.033514690872,0.798134906549
tagged_abstract_sents/16034881.txt,17,0.0711987127916,-0.0038073038073,0.0616692308323,0.142474783506,0.241030358965,0.254503954538,0.0111704786902,0.636479352133
tagged_abstract_sents/16034881.txt,18,0.0711987127916,-0.00922040922041,0.0616692308323,0.142474783506,0.000112762399392,0.314009231525,0.0348794291339,0.477693361916
tagged_abstract_sents/16034881.txt,19,0.0711987127916,-0.0177674177674,0.0616692308323,0.142474783506,0.334173008906,0.339375945523,0.0486207606402,0.849152252217
tagged_abstract_sents/16034881.txt,20,0.0458567980692,0.00587930587931,0.0616692308323,0.142474783506,0.301284172268,0.368011404039,0.0302961261787,0.811030052585
tagged_abstract_sents/16034881.txt,21,0.0458567980692,-0.00893550893551,0.0616692308323,0.142474783506,0.00013121032688,0.221769575224,0.019731307625,0.350107480312
tagged_abstract_sents/16034881.txt,22,0.0458567980692,-0.00580160580161,0.0616692308323,0.142474783506,0.300607521973,0.351490093598,0.0322270571442,0.793426840478
tagged_abstract_sents/16034881.txt,23,0.0458567980692,-0.0265993265993,0.0616692308323,0.142474783506,0.0,0.0,0.0,0.104942623603
tagged_abstract_sents/16034881.txt,24,0.0245374094932,0.0631442631443,0.0616692308323,0.142474783506,0.058500678454,0.718888325709,0.0505531566619,0.933777991516
tagged_abstract_sents/16034881.txt,25,0.0245374094932,-0.0169127169127,0.0616692308323,0.142474783506,0.408225200409,0.24252868447,0.0296411265899,0.770219446148
tagged_abstract_sents/16034881.txt,26,0.0245374094932,0.0360787360787,0.0616692308323,0.142474783506,0.15031031389,0.715014418635,0.0463673811607,1.01211483896
tagged_abstract_sents/16034881.txt,27,0.00844730490748,0.0565915565916,0.139250797795,0.0356431803763,0.116781163454,0.879307244337,0.0376084746163,1.13209139066
tagged_abstract_sents/16034881.txt,28,0.00844730490748,0.0115773115773,0.139250797795,0.0356431803763,0.169589607778,0.574510312799,0.0335718251565,0.867063404985
tagged_abstract_sents/16034881.txt,29,0.00844730490748,0.026677026677,0.139250797795,0.0356431803763,0.197366238825,0.601659494035,0.0420777842584,0.93351511939
tagged_abstract_sents/16034881.txt,30,0.00120675784393,-0.0243201243201,0.0616692308323,0.142474783506,0.0,0.0,0.0,0.069678431879
tagged_abstract_sents/16034881.txt,31,0.00120675784393,0.0172753172753,0.139250797795,0.0356431803763,0.287793035536,0.613283908614,0.0363403648618,1.02215613175
tagged_abstract_sents/16034881.txt,32,0.00120675784393,0.00815850815851,0.139250797795,0.0356431803763,0.172166151994,0.527162055537,0.0336263305628,0.81586999901
tagged_abstract_sents/16034881.txt,33,0.00120675784393,0.0226884226884,0.139250797795,0.0356431803763,0.0774200165546,0.607445480069,0.0406986163767,0.811385556823
