tagged_abstract_sents/16048355.txt,1,0.0954875100725,-0.0066746003001,0.188769469584,0.123191979006,0.350440853725,0.118553412041,0.047897461514,0.835702347889
tagged_abstract_sents/16048355.txt,2,0.0253827558421,-0.0596057329125,0.188769469584,0.123191979006,0.350440853725,0.0831431521291,0.0258073462344,0.435734687579
tagged_abstract_sents/16048355.txt,4,0.123690572119,0.166347596626,0.188769469584,0.123191979006,0.350440853725,0.296766710672,0.0509280768125,0.751454384282
tagged_abstract_sents/16048355.txt,5,0.140209508461,0.0849588658354,0.188769469584,0.123191979006,0.350440853725,0.276431048822,0.0574214586611,0.832624249709
tagged_abstract_sents/16048355.txt,6,0.149879129734,-0.0413928700781,0.139250797795,0.194462959676,0.350440853725,0.112585112902,0.046439628483,0.581737722044
tagged_abstract_sents/16048355.txt,7,0.176470588235,-0.00781290422725,0.139250797795,0.194462959676,0.350440853725,0.210661521398,0.057227716201,0.671925002928
tagged_abstract_sents/16048355.txt,8,0.166800966962,-0.0465152377503,0.139250797795,0.194462959676,0.350440853725,0.146775394503,0.062273511648,0.475489259289
tagged_abstract_sents/16048355.txt,9,0.0954875100725,-0.0152118797537,0.139250797795,0.194462959676,0.350440853725,0.183719854099,0.0456046326409,0.637337147135
tagged_abstract_sents/16048355.txt,10,0.0342465753425,-0.0117969679723,0.139250797795,0.194462959676,0.350440853725,0.189057493611,0.063560540696,0.565094643662
tagged_abstract_sents/16048355.txt,11,0.0342465753425,-0.0186267915352,0.139250797795,0.194462959676,0.350440853725,0.137331844688,0.0480504540039,0.687459341184
