tagged_abstract_sents/16076830.txt,2,0.0805801772764,-0.0179524502669,0.188769469584,0.123191979006,0.269429151251,0.144858802525,0.0218990098196,0.648386303444
tagged_abstract_sents/16076830.txt,3,0.123690572119,0.0788452207666,0.139250797795,0.194462959676,0.269429151251,0.197419806006,0.0434857635893,0.690233875066
tagged_abstract_sents/16076830.txt,4,0.140209508461,-0.0783600194081,0.139250797795,0.194462959676,0.269429151251,0.0758748420097,0.00601811906816,0.306352850765
tagged_abstract_sents/16076830.txt,5,0.149879129734,0.0162542455119,0.139250797795,0.194462959676,0.269429151251,0.14013982167,0.0324917124563,0.596945491405
tagged_abstract_sents/16076830.txt,6,0.176470588235,0.107229500243,0.139250797795,0.194462959676,0.269429151251,0.141825410191,0.0303182820439,0.462730349672
tagged_abstract_sents/16076830.txt,7,0.166800966962,-0.0223192624939,0.139250797795,0.194462959676,0.269429151251,0.0934193135647,0.03494391717,0.385304438606
tagged_abstract_sents/16076830.txt,8,0.0954875100725,-0.0710819990296,0.139250797795,0.194462959676,0.269429151251,0.0680487441949,0.00030198446937,0.680984905563
tagged_abstract_sents/16076830.txt,9,0.0342465753425,-0.0114022319262,0.139250797795,0.194462959676,0.269429151251,0.165846474995,0.0303011627429,0.618657889678
