tagged_abstract_sents/16076830.txt,2,0.0048270313757,-0.0179524502669,0.188769469584,0.129715814208,0.269429151251,0.144858802525,0.0218990098196,0.589740937284
tagged_abstract_sents/16076830.txt,4,0.0261464199517,-0.0783600194081,0.139250797795,0.521468892835,0.269429151251,0.0758748420097,0.00601811906816,0.313204159906
tagged_abstract_sents/16076830.txt,5,0.0518905872888,0.0162542455119,0.139250797795,0.521468892835,0.269429151251,0.14013982167,0.0324917124563,0.616656437396
tagged_abstract_sents/16076830.txt,6,0.0993563958166,0.107229500243,0.139250797795,0.521468892835,0.269429151251,0.141825410191,0.0303182820439,0.499140775685
tagged_abstract_sents/16076830.txt,7,0.172566371681,-0.0223192624939,0.139250797795,0.521468892835,0.269429151251,0.0934193135647,0.03494391717,0.488018542329
tagged_abstract_sents/16076830.txt,8,0.206355591311,-0.0710819990296,0.139250797795,0.521468892835,0.269429151251,0.0680487441949,0.00030198446937,0.867781150502
tagged_abstract_sents/16076830.txt,9,0.262268704747,-0.0114022319262,0.139250797795,0.521468892835,0.269429151251,0.165846474995,0.0303011627429,0.899177373149
