tagged_abstract_sents/16105793.txt,1,0.125905068383,-0.0635977178655,0.0616692308323,0.142474783506,0.0,0.0,0.0,0.161581561601
tagged_abstract_sents/16105793.txt,2,0.239742558327,0.0217585859716,0.188769469584,0.202456734834,0.321401497769,0.738536582638,0.000613041434789,1.41181864094
tagged_abstract_sents/16105793.txt,3,0.218020917136,-0.0651638885781,0.0616692308323,0.142474783506,0.0,0.0,0.0,0.234961006461
tagged_abstract_sents/16105793.txt,4,0.218020917136,0.0828392437633,0.210342442448,0.226435992083,0.225019043575,0.926591655251,0.011492580739,1.52718988088
tagged_abstract_sents/16105793.txt,5,0.162510056315,0.0241078420405,0.0616692308323,0.142474783506,0.250136299497,0.84882843627,0.0128305555221,1.32020195522
tagged_abstract_sents/16105793.txt,6,0.101769911504,-0.0111309989932,0.139250797795,0.0356431803763,0.319143430923,0.559132125705,0.0090692290285,1.04685286807
tagged_abstract_sents/16105793.txt,7,0.0852775543041,-0.0651638885781,0.139250797795,0.0356431803763,0.0,0.0,0.0,0.135507618738
tagged_abstract_sents/16105793.txt,8,0.0711987127916,0.010012305627,0.139250797795,0.0356431803763,0.127324506322,0.41958289495,0.0105697425453,0.696756928187
tagged_abstract_sents/16105793.txt,9,0.0458567980692,-0.0205280232688,0.139250797795,0.0356431803763,0.249938736139,0.460830631819,0.0249068450818,0.848574399852
tagged_abstract_sents/16105793.txt,10,0.0245374094932,0.0154939031212,0.139250797795,0.0356431803763,0.0549952535878,0.523069380856,0.018533024643,0.699644720316
tagged_abstract_sents/16105793.txt,11,0.0245374094932,0.0687437073498,0.139250797795,0.0356431803763,0.154909395931,0.742153167838,0.0225836620949,1.03334324794
tagged_abstract_sents/16105793.txt,12,0.00844730490748,0.0233247566842,0.139250797795,0.0356431803763,0.178372870568,0.643358155943,0.0156616409162,0.9291338157
tagged_abstract_sents/16105793.txt,13,0.00120675784393,-0.0628146325092,0.0616692308323,0.142474783506,0.0,0.0,0.0,0.0619795302412
tagged_abstract_sents/16105793.txt,14,0.00120675784393,0.0421188052355,0.139250797795,0.0356431803763,0.309838445393,0.976372576729,0.0116653251003,1.38758386756
