tagged_abstract_sents/16186441.txt,2,0.123690572119,-0.0143939393939,0.188769469584,0.123191979006,0.140658260701,0.124919896664,0.0207678075856,0.373103702561
tagged_abstract_sents/16186441.txt,3,0.149073327961,-0.0325757575758,0.188769469584,0.123191979006,0.140658260701,0.174488473613,0.0350458976731,0.616817128173
tagged_abstract_sents/16186441.txt,4,0.176470588235,-0.0746212121212,0.188769469584,0.123191979006,0.140658260701,0.13097216479,0.0333950046253,0.616747136158
tagged_abstract_sents/16186441.txt,5,0.0954875100725,-0.0371212121212,0.188769469584,0.123191979006,0.140658260701,0.118883688715,0.0302329492894,0.349440454423
tagged_abstract_sents/16186441.txt,6,0.0342465753425,0.0912878787879,0.188769469584,0.123191979006,0.140658260701,0.304624202977,0.0368441918858,0.65912382009
