tagged_abstract_sents/16198776.txt,1,0.206355591311,-0.0427388346643,0.0616692308323,0.106008497564,0.419915733546,0.0,0.0,0.219173870802
tagged_abstract_sents/16198776.txt,2,0.206355591311,-0.0241052942916,0.188769469584,0.129715814208,0.419915733546,0.186851187545,0.0397652358629,0.892875613591
tagged_abstract_sents/16198776.txt,3,0.206355591311,0.0109435078379,0.188769469584,0.129715814208,0.419915733546,0.277588055757,0.0543510108409,0.852720615366
tagged_abstract_sents/16198776.txt,4,0.206355591311,-0.0152321798285,0.188769469584,0.129715814208,0.419915733546,0.204768071099,0.0420020337464,1.0314651912
tagged_abstract_sents/16198776.txt,5,0.0048270313757,-0.0431824903875,0.0616692308323,0.106008497564,0.419915733546,0.0,0.0,0.0578622917084
tagged_abstract_sents/16198776.txt,7,0.0108608205953,-0.0440698018338,0.0616692308323,0.106008497564,0.419915733546,0.0,0.0,0.0625118607948
tagged_abstract_sents/16198776.txt,8,0.0108608205953,0.0127181307306,0.0616692308323,0.106008497564,0.419915733546,0.319473541368,0.0424083162418,0.620271947267
tagged_abstract_sents/16198776.txt,10,0.0261464199517,-0.0178941141674,0.0616692308323,0.106008497564,0.419915733546,0.167058977383,0.0469088778201,0.511702312762
tagged_abstract_sents/16198776.txt,11,0.0518905872888,0.0144927536232,0.0616692308323,0.106008497564,0.419915733546,0.211664974002,0.0524120577032,0.534304610472
tagged_abstract_sents/16198776.txt,12,0.0518905872888,-0.0103519668737,0.0616692308323,0.106008497564,0.419915733546,0.202578311076,0.0191867491943,0.713848876244
tagged_abstract_sents/16198776.txt,13,0.0993563958166,0.0211475894706,0.0616692308323,0.106008497564,0.419915733546,0.249305289621,0.0270906903943,0.764631458272
tagged_abstract_sents/16198776.txt,14,0.0993563958166,-0.0440698018338,0.0616692308323,0.106008497564,0.419915733546,0.0,0.0,0.133308320972
tagged_abstract_sents/16198776.txt,15,0.172566371681,0.241200828157,0.139250797795,0.521468892835,0.419915733546,0.472185621469,0.0423617477765,1.04824198207
tagged_abstract_sents/16198776.txt,16,0.172566371681,-0.00414078674948,0.139250797795,0.521468892835,0.419915733546,0.221391360095,0.0385484293799,0.793619452245
tagged_abstract_sents/16198776.txt,17,0.206355591311,-0.0422951789411,0.139250797795,0.521468892835,0.419915733546,0.0,0.0,0.382691504009
tagged_abstract_sents/16198776.txt,18,0.206355591311,-0.0121265897663,0.139250797795,0.521468892835,0.419915733546,0.194617308873,0.0505512012892,1.00644231422
tagged_abstract_sents/16198776.txt,19,0.262268704747,-0.0422951789411,0.0616692308323,0.106008497564,0.419915733546,0.0,0.0,0.263993092694
tagged_abstract_sents/16198776.txt,20,0.262268704747,-0.0107956225969,0.139250797795,0.521468892835,0.419915733546,0.26221021489,0.0564825666569,1.11677066112
tagged_abstract_sents/16198776.txt,21,0.262268704747,0.0184856551316,0.139250797795,0.521468892835,0.419915733546,0.277941868747,0.0278521898065,1.16528795367
