tagged_abstract_sents/16198776.txt,1,0.125905068383,-0.0427388346643,0.0616692308323,0.142474783506,0.0,0.0,0.0,0.165753338241
tagged_abstract_sents/16198776.txt,2,0.125905068383,-0.0241052942916,0.188769469584,0.202456734834,0.372696296938,0.186851187545,0.0397652358629,0.850337471436
tagged_abstract_sents/16198776.txt,3,0.239742558327,0.0109435078379,0.188769469584,0.202456734834,0.220208895097,0.277588055757,0.0543510108409,0.901252465166
tagged_abstract_sents/16198776.txt,4,0.239742558327,-0.0152321798285,0.188769469584,0.202456734834,0.489357570215,0.204768071099,0.0420020337464,1.079997041
tagged_abstract_sents/16198776.txt,5,0.218020917136,-0.0431824903875,0.0616692308323,0.142474783506,0.0,0.0,0.0,0.239357286099
tagged_abstract_sents/16198776.txt,6,0.218020917136,0.0211475894706,0.0616692308323,0.142474783506,0.512439779438,0.280158386452,0.0474899892568,1.09231145722
tagged_abstract_sents/16198776.txt,7,0.162510056315,-0.0440698018338,0.0616692308323,0.142474783506,0.0,0.0,0.0,0.194771135153
tagged_abstract_sents/16198776.txt,8,0.162510056315,0.0127181307306,0.0616692308323,0.142474783506,0.184520642349,0.319473541368,0.0424083162418,0.752531221626
tagged_abstract_sents/16198776.txt,9,0.101769911504,0.0131617864537,0.210342442448,0.226435992083,0.322984950825,0.369373396378,0.0382008876735,0.987709540219
tagged_abstract_sents/16198776.txt,10,0.101769911504,-0.0178941141674,0.0616692308323,0.142474783506,0.217758979745,0.167058977383,0.0469088778201,0.583140991787
tagged_abstract_sents/16198776.txt,11,0.0711987127916,0.0144927536232,0.0616692308323,0.142474783506,0.163179393526,0.211664974002,0.0524120577032,0.560690996657
tagged_abstract_sents/16198776.txt,12,0.0711987127916,-0.0103519668737,0.0616692308323,0.142474783506,0.390004574832,0.202578311076,0.0191867491943,0.740235262429
tagged_abstract_sents/16198776.txt,13,0.0458567980692,0.0211475894706,0.0616692308323,0.142474783506,0.341883679025,0.249305289621,0.0270906903943,0.732771665857
tagged_abstract_sents/16198776.txt,14,0.0458567980692,-0.0440698018338,0.0616692308323,0.142474783506,0.0,0.0,0.0,0.101448528556
tagged_abstract_sents/16198776.txt,15,0.0245374094932,0.241200828157,0.139250797795,0.0356431803763,0.121335283101,0.472185621469,0.0423617477765,0.784071098582
tagged_abstract_sents/16198776.txt,16,0.0245374094932,-0.00414078674948,0.139250797795,0.0356431803763,0.170388656027,0.221391360095,0.0385484293799,0.529448568757
tagged_abstract_sents/16198776.txt,17,0.00844730490748,-0.0422951789411,0.139250797795,0.0356431803763,0.0,0.0,0.0,0.078617161148
tagged_abstract_sents/16198776.txt,18,0.00844730490748,-0.0121265897663,0.139250797795,0.0356431803763,0.372548582215,0.194617308873,0.0505512012892,0.70236797136
tagged_abstract_sents/16198776.txt,19,0.00120675784393,-0.0422951789411,0.0616692308323,0.142474783506,0.0,0.0,0.0,0.0660834209548
tagged_abstract_sents/16198776.txt,20,0.00120675784393,-0.0107956225969,0.139250797795,0.0356431803763,0.364355973549,0.26221021489,0.0564825666569,0.762173389862
tagged_abstract_sents/16198776.txt,21,0.00120675784393,0.0184856551316,0.139250797795,0.0356431803763,0.419915733546,0.277941868747,0.0278521898065,0.810690682412
