tagged_abstract_sents/16230875.txt,2,0.131345688961,-0.115925626516,0.0616692308323,0.247294108221,0.551217121531,0.212326101087,0.0436769541296,0.534326210144
tagged_abstract_sents/16230875.txt,3,0.150684931507,0.255941794665,0.139250797795,0.194462959676,0.551217121531,0.382682884,0.0583628208885,0.896364450888
tagged_abstract_sents/16230875.txt,4,0.131345688961,-0.0124494745352,0.139250797795,0.194462959676,0.551217121531,0.298983865036,0.0522001438351,1.03030192056
tagged_abstract_sents/16230875.txt,5,0.0342465753425,-0.0488278092158,0.139250797795,0.194462959676,0.551217121531,0.30213980369,0.0727924043922,1.07174531484
