tagged_abstract_sents/16235299.txt,1,0.206355591311,-0.0372684259629,0.0616692308323,0.106008497564,0.39687497886,0.0,0.0,0.220267952542
tagged_abstract_sents/16235299.txt,2,0.206355591311,0.00991270158603,0.188769469584,0.129715814208,0.39687497886,0.142416400188,0.0438497882046,0.820693094305
tagged_abstract_sents/16235299.txt,3,0.206355591311,-0.0372684259629,0.188769469584,0.129715814208,0.39687497886,0.0,0.0,0.290930266911
tagged_abstract_sents/16235299.txt,5,0.0048270313757,-0.0352692256431,0.0616692308323,0.106008497564,0.39687497886,0.0,0.0,0.0594449446572
tagged_abstract_sents/16235299.txt,6,0.0048270313757,0.0698887111822,0.0616692308323,0.106008497564,0.39687497886,0.116406572589,0.0279713644989,0.314615380064
tagged_abstract_sents/16235299.txt,7,0.0048270313757,-0.0264727442356,0.0616692308323,0.106008497564,0.39687497886,0.0982643729332,0.0393066610809,0.561356519582
tagged_abstract_sents/16235299.txt,8,0.0108608205953,-0.0340697054512,0.0616692308323,0.106008497564,0.39687497886,0.0,0.0,0.0645118800713
tagged_abstract_sents/16235299.txt,9,0.0108608205953,0.0303045448487,0.0616692308323,0.106008497564,0.39687497886,0.141450599591,0.0298947731585,0.4488631883
tagged_abstract_sents/16235299.txt,10,0.0261464199517,-0.00168266026923,0.0616692308323,0.106008497564,0.39687497886,0.194372778373,0.0452824174423,0.60047445327
tagged_abstract_sents/16235299.txt,11,0.0261464199517,-0.0300713048114,0.0616692308323,0.106008497564,0.39687497886,0.0,0.0,0.0775400396844
tagged_abstract_sents/16235299.txt,12,0.0353982300885,-0.0136778621885,0.0616692308323,0.106008497564,0.39687497886,0.134342452741,0.027082973952,0.605975247237
tagged_abstract_sents/16235299.txt,13,0.0518905872888,-0.0192756230841,0.0616692308323,0.106008497564,0.39687497886,0.144792825604,0.0343571538818,0.615402635744
tagged_abstract_sents/16235299.txt,14,0.0518905872888,-0.036468745835,0.0616692308323,0.106008497564,0.39687497886,0.0,0.0,0.0968558853493
tagged_abstract_sents/16235299.txt,15,0.0993563958166,0.00951286152206,0.0616692308323,0.106008497564,0.39687497886,0.152259757267,0.035972629521,0.58674932883
tagged_abstract_sents/16235299.txt,16,0.0993563958166,0.0219079035053,0.139250797795,0.521468892835,0.39687497886,0.120424852102,0.0416972140762,0.647270319221
tagged_abstract_sents/16235299.txt,17,0.172566371681,-0.0244735439158,0.139250797795,0.521468892835,0.39687497886,0.0756850440644,0.0301786190349,0.879708149489
tagged_abstract_sents/16235299.txt,18,0.172566371681,0.0454984672798,0.139250797795,0.521468892835,0.39687497886,0.192276127943,0.0324657869013,0.729689502076
tagged_abstract_sents/16235299.txt,20,0.206355591311,0.0115120618419,0.139250797795,0.521468892835,0.39687497886,0.147052990114,0.0300749429782,0.839950422786
tagged_abstract_sents/16235299.txt,21,0.206355591311,0.00551446088231,0.139250797795,0.521468892835,0.39687497886,0.143649541443,0.0259693711307,0.773716358789
tagged_abstract_sents/16235299.txt,22,0.262268704747,0.0634912701586,0.139250797795,0.521468892835,0.39687497886,0.161768771664,0.0399830220713,0.757720674035
tagged_abstract_sents/16235299.txt,23,0.262268704747,-0.0332700253232,0.139250797795,0.521468892835,0.39687497886,0.0,0.0,0.429227025481
tagged_abstract_sents/16235299.txt,24,0.262268704747,0.0339031054245,0.139250797795,0.521468892835,0.39687497886,0.170599066711,0.031464942682,1.04160063988
