tagged_abstract_sents/16242361.txt,1,0.0954875100725,-0.0532181482458,0.0616692308323,0.247294108221,5.32391349539e-05,0.0,0.0,0.170769226291
tagged_abstract_sents/16242361.txt,3,0.0253827558421,-0.0548997625956,0.0616692308323,0.247294108221,5.32391349539e-05,0.0,0.0,0.114349100037
tagged_abstract_sents/16242361.txt,4,0.0805801772764,0.0140464257452,0.0616692308323,0.247294108221,5.32391349539e-05,0.336753588113,0.0825497035228,0.622934625847
tagged_abstract_sents/16242361.txt,5,0.0805801772764,0.02805987866,0.0616692308323,0.247294108221,5.32391349539e-05,0.284999842779,0.0889510733424,0.599081321973
tagged_abstract_sents/16242361.txt,6,0.123690572119,0.00227512529676,0.0616692308323,0.247294108221,5.32391349539e-05,0.283867042168,0.0919832260519,0.740425885577
tagged_abstract_sents/16242361.txt,7,0.140209508461,-0.0139804800844,0.0616692308323,0.247294108221,5.32391349539e-05,0.163793802256,0.0967096849204,0.474959813875
tagged_abstract_sents/16242361.txt,8,0.140209508461,-0.054339224479,0.0616692308323,0.247294108221,5.32391349539e-05,0.0,0.0,0.206322609755
tagged_abstract_sents/16242361.txt,9,0.149879129734,0.0061988921129,0.139250797795,0.194462959676,5.32391349539e-05,0.267358067556,0.0861859916621,0.71678477527
tagged_abstract_sents/16242361.txt,10,0.149879129734,-0.00220917963598,0.139250797795,0.194462959676,5.32391349539e-05,0.259652325426,0.0707725015364,0.577880279241
tagged_abstract_sents/16242361.txt,11,0.176470588235,0.0336652598259,0.139250797795,0.194462959676,5.32391349539e-05,0.303309966056,0.0452999651203,0.667257046332
tagged_abstract_sents/16242361.txt,12,0.166800966962,0.0549657082564,0.139250797795,0.194462959676,5.32391349539e-05,0.379508326814,0.119307832423,0.811351959623
tagged_abstract_sents/16242361.txt,13,0.166800966962,0.0487997889739,0.139250797795,0.194462959676,5.32391349539e-05,0.34306143225,0.109030345309,0.861783681823
tagged_abstract_sents/16242361.txt,14,0.0954875100725,-0.0526576101293,0.0616692308323,0.247294108221,5.32391349539e-05,0.0,0.0,0.170881333915
tagged_abstract_sents/16242361.txt,15,0.0954875100725,-0.0240701661831,0.139250797795,0.194462959676,5.32391349539e-05,0.119164264876,0.0131067049449,0.331811231442
tagged_abstract_sents/16242361.txt,16,0.0342465753425,0.00844104457927,0.139250797795,0.194462959676,5.32391349539e-05,0.365083607728,0.0685320828327,0.59066544655
tagged_abstract_sents/16242361.txt,17,0.0342465753425,-0.00949617515168,0.139250797795,0.194462959676,5.32391349539e-05,0.182647526684,0.051565481442,0.387728559304
