tagged_abstract_sents/16242361.txt,1,0.125905068383,-0.0532181482458,0.0616692308323,0.142474783506,0.0,0.0,0.0,0.163657475525
tagged_abstract_sents/16242361.txt,2,0.239742558327,0.0684186230546,0.188769469584,0.202456734834,0.0998129526659,0.421645736187,0.0863752811421,0.96843349651
tagged_abstract_sents/16242361.txt,3,0.239742558327,-0.0548997625956,0.0616692308323,0.142474783506,0.0,0.0,0.0,0.25439114461
tagged_abstract_sents/16242361.txt,4,0.218020917136,0.0140464257452,0.0616692308323,0.142474783506,0.0313350593587,0.336753588113,0.0825497035228,0.70144142032
tagged_abstract_sents/16242361.txt,5,0.218020917136,0.02805987866,0.0616692308323,0.142474783506,0.0500314404163,0.284999842779,0.0889510733424,0.677588116446
tagged_abstract_sents/16242361.txt,6,0.162510056315,0.00227512529676,0.0616692308323,0.142474783506,0.16014528672,0.283867042168,0.0919832260519,0.740035675519
tagged_abstract_sents/16242361.txt,7,0.101769911504,-0.0139804800844,0.0616692308323,0.142474783506,6.19680642173e-05,0.163793802256,0.0967096849204,0.412762338895
tagged_abstract_sents/16242361.txt,8,0.101769911504,-0.054339224479,0.0616692308323,0.142474783506,0.0,0.0,0.0,0.144125134776
tagged_abstract_sents/16242361.txt,9,0.0711987127916,0.0061988921129,0.139250797795,0.0356431803763,0.114133347042,0.267358067556,0.0861859916621,0.606194507926
tagged_abstract_sents/16242361.txt,10,0.0711987127916,-0.00220917963598,0.139250797795,0.0356431803763,2.96976183584e-05,0.259652325426,0.0707725015364,0.467290011897
tagged_abstract_sents/16242361.txt,11,0.0458567980692,0.0336652598259,0.139250797795,0.0356431803763,0.042773305802,0.303309966056,0.0452999651203,0.515120080409
tagged_abstract_sents/16242361.txt,12,0.0245374094932,0.0549657082564,0.139250797795,0.0356431803763,0.0401375983654,0.379508326814,0.119307832423,0.649895179858
tagged_abstract_sents/16242361.txt,13,0.0245374094932,0.0487997889739,0.139250797795,0.0356431803763,0.1385268861,0.34306143225,0.109030345309,0.700326902058
tagged_abstract_sents/16242361.txt,14,0.00844730490748,-0.0526576101293,0.0616692308323,0.142474783506,0.0,0.0,0.0,0.069803372368
tagged_abstract_sents/16242361.txt,15,0.00844730490748,-0.0240701661831,0.139250797795,0.0356431803763,0.0,0.119164264876,0.0131067049449,0.21453313352
tagged_abstract_sents/16242361.txt,16,0.00120675784393,0.00844104457927,0.139250797795,0.0356431803763,0.0,0.365083607728,0.0685320828327,0.516587658762
tagged_abstract_sents/16242361.txt,17,0.00120675784393,-0.00949617515168,0.139250797795,0.0356431803763,5.32391349539e-05,0.182647526684,0.051565481442,0.313650771516
