tagged_abstract_sents/16274376.txt,1,0.0954875100725,-0.05616359447,0.0616692308323,0.247294108221,0.108943115816,0.0,0.0,0.170180137047
tagged_abstract_sents/16274376.txt,3,0.0253827558421,-0.0584677419355,0.188769469584,0.123191979006,0.108943115816,0.0,0.0,0.139954984781
tagged_abstract_sents/16274376.txt,4,0.0805801772764,-0.0388824884793,0.0616692308323,0.247294108221,0.108943115816,0.0868305583213,0.0539100684262,0.302451118755
tagged_abstract_sents/16274376.txt,5,0.123690572119,-0.0578917050691,0.0616692308323,0.247294108221,0.108943115816,0.0,0.0,0.192396964564
tagged_abstract_sents/16274376.txt,6,0.123690572119,-0.0325460829493,0.0616692308323,0.247294108221,0.108943115816,0.0426276505117,0.0184164222874,0.258510161787
tagged_abstract_sents/16274376.txt,7,0.140209508461,0.0216013824885,0.139250797795,0.194462959676,0.108943115816,0.131015194521,0.0554325513196,0.430925688056
tagged_abstract_sents/16274376.txt,8,0.149073327961,-0.00892857142857,0.139250797795,0.194462959676,0.108943115816,0.154533493932,0.0504265529192,0.582131785181
tagged_abstract_sents/16274376.txt,9,0.149879129734,0.184619815668,0.139250797795,0.194462959676,0.108943115816,0.385370066181,0.0618175578711,0.845980598617
tagged_abstract_sents/16274376.txt,10,0.176470588235,-0.0578917050691,0.139250797795,0.194462959676,0.108943115816,0.0,0.0,0.257562416375
tagged_abstract_sents/16274376.txt,11,0.176470588235,0.00892857142857,0.139250797795,0.194462959676,0.108943115816,0.0839234501806,0.0475073313783,0.402378036537
tagged_abstract_sents/16274376.txt,12,0.166800966962,0.0538594470046,0.139250797795,0.194462959676,0.108943115816,0.28529194222,0.0503014011079,0.700707289059
tagged_abstract_sents/16274376.txt,13,0.0954875100725,0.0745967741935,0.139250797795,0.194462959676,0.108943115816,0.178575424162,0.0567787051658,0.852564033893
tagged_abstract_sents/16274376.txt,14,0.0954875100725,-0.05616359447,0.139250797795,0.194462959676,0.108943115816,0.0,0.0,0.193121575964
tagged_abstract_sents/16274376.txt,15,0.0342465753425,0.0141129032258,0.139250797795,0.194462959676,0.108943115816,0.160831187037,0.0412214713757,0.582284192602
tagged_abstract_sents/16274376.txt,16,0.0342465753425,-0.00316820276498,0.139250797795,0.194462959676,0.108943115816,0.143652222933,0.0697360703812,0.477059315651
