tagged_abstract_sents/16291385.txt,1,0.0954875100725,-0.0523030789079,0.0616692308323,0.247294108221,0.296087076836,0.0,0.0,0.170952240159
tagged_abstract_sents/16291385.txt,2,0.0253827558421,0.0330555458698,0.188769469584,0.123191979006,0.296087076836,0.0,0.0,0.611613014801
tagged_abstract_sents/16291385.txt,4,0.0805801772764,-0.0031033160152,0.0616692308323,0.247294108221,0.296087076836,0.0,0.0,0.63412408921
tagged_abstract_sents/16291385.txt,5,0.0805801772764,-0.0540813835908,0.0616692308323,0.247294108221,0.296087076836,0.0,0.0,0.158670712985
tagged_abstract_sents/16291385.txt,6,0.123690572119,-0.028592349803,0.0616692308323,0.247294108221,0.296087076836,0.0,0.0,0.225989544125
tagged_abstract_sents/16291385.txt,7,0.140209508461,0.0567662749747,0.139250797795,0.194462959676,0.296087076836,0.0,0.0,0.443271196174
tagged_abstract_sents/16291385.txt,8,0.140209508461,0.0099375849925,0.139250797795,0.194462959676,0.296087076836,0.0,0.0,0.533187848933
tagged_abstract_sents/16291385.txt,9,0.149879129734,-0.00547438892569,0.139250797795,0.194462959676,0.296087076836,0.0,0.0,0.299234860369
tagged_abstract_sents/16291385.txt,10,0.149879129734,-0.0540813835908,0.139250797795,0.194462959676,0.296087076836,0.0,0.0,0.237051313869
tagged_abstract_sents/16291385.txt,11,0.176470588235,0.0455036786499,0.139250797795,0.194462959676,0.296087076836,0.0,0.0,0.67377542533
tagged_abstract_sents/16291385.txt,12,0.166800966962,0.043725373967,0.139250797795,0.194462959676,0.296087076836,0.0,0.0,0.662392377156
tagged_abstract_sents/16291385.txt,13,0.166800966962,-0.0149586805677,0.139250797795,0.194462959676,0.296087076836,0.0,0.0,0.258469295152
tagged_abstract_sents/16291385.txt,14,0.0954875100725,0.0212001813173,0.139250797795,0.194462959676,0.296087076836,0.0,0.0,0.472820021942
tagged_abstract_sents/16291385.txt,15,0.0954875100725,-0.0517103106803,0.0616692308323,0.247294108221,0.296087076836,0.0,0.0,0.171070793804
tagged_abstract_sents/16291385.txt,16,0.0342465753425,0.0336483140974,0.139250797795,0.194462959676,0.296087076836,0.0,0.0,0.705976083226
tagged_abstract_sents/16291385.txt,17,0.0342465753425,0.00638097562677,0.139250797795,0.194462959676,0.296087076836,0.0,0.0,0.452724819036
