tagged_abstract_sents/16352624.txt,1,0.125905068383,-0.067700010653,0.0616692308323,0.142474783506,0.0,0.0,0.0,0.160761103044
tagged_abstract_sents/16352624.txt,2,0.239742558327,0.0821881325237,0.188769469584,0.202456734834,0.214930249828,0.212042382906,0.0085251192815,0.798851180425
tagged_abstract_sents/16352624.txt,3,0.218020917136,-0.0654628741877,0.0616692308323,0.142474783506,0.0,0.0,0.0,0.234901209339
tagged_abstract_sents/16352624.txt,4,0.218020917136,0.035953978907,0.210342442448,0.226435992083,0.0819303595632,0.146125431818,0.00838685179376,0.591152191515
tagged_abstract_sents/16352624.txt,5,0.162510056315,0.0918823905401,0.0616692308323,0.142474783506,0.166375823114,0.132659449769,0.00338665918234,0.524383505693
tagged_abstract_sents/16352624.txt,6,0.101769911504,-0.0654628741877,0.0616692308323,0.142474783506,0.0,0.0,0.0,0.141900404834
tagged_abstract_sents/16352624.txt,7,0.0852775543041,0.0277511452008,0.139250797795,0.0356431803763,0.154629644316,0.133486148274,0.00734675009493,0.449553168179
tagged_abstract_sents/16352624.txt,8,0.0711987127916,0.0180568871844,0.139250797795,0.0356431803763,7.79178663603e-06,0.120256244061,0.0125923846945,0.273745121223
tagged_abstract_sents/16352624.txt,9,0.0458567980692,-0.0095344625546,0.139250797795,0.0356431803763,0.188244589459,0.0845768140419,0.00321485979639,0.391133162252
tagged_abstract_sents/16352624.txt,10,0.0245374094932,-0.0162458719506,0.139250797795,0.0356431803763,0.180056511644,0.0696380517112,0.0220475878629,0.368441257433
tagged_abstract_sents/16352624.txt,11,0.0245374094932,0.00687120485778,0.139250797795,0.0356431803763,0.0193633754295,0.0663431502495,0.000810802382512,0.187839849638
tagged_abstract_sents/16352624.txt,12,0.00844730490748,-0.0632257377224,0.139250797795,0.0356431803763,0.0,0.0,0.0,0.0744310493918
tagged_abstract_sents/16352624.txt,13,0.00120675784393,-0.0393629487589,0.139250797795,0.0356431803763,0.0363929531849,0.0521726338915,0.0011928150435,0.163169571653
tagged_abstract_sents/16352624.txt,14,0.00120675784393,0.0642910408011,0.139250797795,0.0356431803763,0.151811493488,0.186791500188,0.00690741260486,0.439652373727
