tagged_abstract_sents/16418463.txt,1,0.125905068383,-0.044252044252,0.0616692308323,0.142474783506,0.0,0.0,0.0,0.165450696324
tagged_abstract_sents/16418463.txt,2,0.125905068383,-0.0257335257335,0.188769469584,0.202456734834,0.404071694252,0.160846255265,0.0260376314333,0.841654685753
tagged_abstract_sents/16418463.txt,3,0.239742558327,-0.010582010582,0.188769469584,0.202456734834,0.181791245138,0.346290355398,0.0412470023981,0.914128002721
tagged_abstract_sents/16418463.txt,4,0.239742558327,-0.0434102934103,0.0616692308323,0.142474783506,0.0,0.0,0.0,0.256689038447
tagged_abstract_sents/16418463.txt,5,0.218020917136,0.0382395382395,0.188769469584,0.202456734834,0.335695411733,0.422470443385,0.0437697841727,1.13912203589
tagged_abstract_sents/16418463.txt,6,0.218020917136,-0.0333092833093,0.0616692308323,0.142474783506,0.0,0.0,0.0,0.241331927515
tagged_abstract_sents/16418463.txt,7,0.162510056315,0.0348725348725,0.0616692308323,0.142474783506,0.155901976126,0.370917294772,0.0403531720078,0.7777320454
tagged_abstract_sents/16418463.txt,8,0.162510056315,-0.0417267917268,0.0616692308323,0.142474783506,0.0,0.0,0.0,0.195239737175
tagged_abstract_sents/16418463.txt,9,0.101769911504,0.0416065416065,0.194899689933,0.13295610691,0.276104632058,0.341242506466,0.0378057553957,0.882226808483
tagged_abstract_sents/16418463.txt,10,0.101769911504,-0.0383597883598,0.0616692308323,0.142474783506,0.0,0.0,0.0,0.147321021999
tagged_abstract_sents/16418463.txt,11,0.0711987127916,-0.0021645021645,0.139250797795,0.0356431803763,0.273977190582,0.309953769854,0.0204136690647,0.741189052311
tagged_abstract_sents/16418463.txt,12,0.0711987127916,0.00499037999038,0.139250797795,0.0356431803763,0.119069191439,0.341330976053,0.0267446043165,0.62542017105
tagged_abstract_sents/16418463.txt,13,0.0458567980692,-0.044252044252,0.0616692308323,0.142474783506,0.0,0.0,0.0,0.101412080073
tagged_abstract_sents/16418463.txt,14,0.0458567980692,0.0559163059163,0.139250797795,0.0356431803763,0.176326155278,0.464730708618,0.0348201438849,0.804064060429
tagged_abstract_sents/16418463.txt,15,0.0245374094932,0.0517075517076,0.139250797795,0.0356431803763,0.199025319556,0.403970679863,0.0344228964654,0.74770868683
tagged_abstract_sents/16418463.txt,16,0.0245374094932,-0.0122655122655,0.139250797795,0.0356431803763,0.298972780755,0.312010282214,0.0334343051874,0.741912546308
tagged_abstract_sents/16418463.txt,17,0.00844730490748,0.0209836459836,0.139250797795,0.0356431803763,0.260637160327,0.433355162821,0.0332517985612,0.818517047842
tagged_abstract_sents/16418463.txt,18,0.00844730490748,0.0714886964887,0.139250797795,0.0356431803763,0.317700930733,0.335392637542,0.0399794450154,0.794446949524
tagged_abstract_sents/16418463.txt,19,0.00120675784393,-0.0425685425685,0.0616692308323,0.142474783506,0.0,0.0,0.0,0.0660287482293
tagged_abstract_sents/16418463.txt,20,0.00120675784393,-0.00847763347763,0.139250797795,0.0356431803763,0.341505325714,0.271017130863,0.034570238546,0.726680927713
tagged_abstract_sents/16418463.txt,21,0.00120675784393,0.0272967772968,0.139250797795,0.0356431803763,0.265730024082,0.268873069032,0.0479174555093,0.669263663369
