tagged_abstract_sents/16426091.txt,1,0.125905068383,-0.0659431079069,0.0616692308323,0.142474783506,0.0,0.0,0.0,0.161112483593
tagged_abstract_sents/16426091.txt,2,0.239742558327,0.0262126792571,0.188769469584,0.202456734834,0.211148325295,0.388040324539,0.0395095674908,0.99085655508
tagged_abstract_sents/16426091.txt,3,0.218020917136,-0.0675887469634,0.0616692308323,0.142474783506,0.0,0.0,0.0,0.234476034784
tagged_abstract_sents/16426091.txt,4,0.218020917136,0.0508972651046,0.210342442448,0.226435992083,0.239038117819,0.382445106937,0.0378614573238,1.01704288766
tagged_abstract_sents/16426091.txt,5,0.162510056315,-0.0193166679727,0.0616692308323,0.142474783506,0.178269101486,0.307215561364,0.0372179900381,0.722424414813
tagged_abstract_sents/16426091.txt,6,0.101769911504,-0.00066609199906,0.0616692308323,0.142474783506,0.306782060634,0.256414511042,0.0318891004981,0.749945433447
tagged_abstract_sents/16426091.txt,7,0.0852775543041,0.113980095604,0.0616692308323,0.142474783506,0.07057320684,0.259549229394,0.0244537141271,0.519171263393
tagged_abstract_sents/16426091.txt,8,0.0711987127916,-0.0423556147637,0.0616692308323,0.142474783506,0.0,0.0643359674952,0.0302245092294,0.216625374473
tagged_abstract_sents/16426091.txt,9,0.0458567980692,-0.0670402006112,0.139250797795,0.0356431803763,0.0,0.0,0.0,0.103595751343
tagged_abstract_sents/16426091.txt,10,0.0245374094932,0.0415719771178,0.139250797795,0.0356431803763,0.115886717327,0.328211016588,0.0338511839757,0.586211593919
tagged_abstract_sents/16426091.txt,11,0.0245374094932,0.112883002899,0.139250797795,0.0356431803763,0.0664222147269,0.382063861391,0.0335540580135,0.604565015316
tagged_abstract_sents/16426091.txt,12,0.00844730490748,-0.0472925319332,0.139250797795,0.0356431803763,0.213193379851,0.163259967657,0.0164654053828,0.47053644344
tagged_abstract_sents/16426091.txt,13,0.00120675784393,-0.0653945615547,0.0616692308323,0.142474783506,0.0,0.0,0.0,0.0614635444321
tagged_abstract_sents/16426091.txt,14,0.00120675784393,0.0300525037223,0.139250797795,0.0356431803763,0.352835961196,0.424635809161,0.036073943853,0.90083997424
