tagged_abstract_sents/16422868.txt,1,0.206355591311,-0.0611167171208,0.0616692308323,0.106008497564,0.206192347539,0.0,0.0,0.21549829431
tagged_abstract_sents/16422868.txt,2,0.206355591311,-0.0313488059199,0.188769469584,0.129715814208,0.206192347539,0.152690503787,0.0179527475162,0.635272492699
tagged_abstract_sents/16422868.txt,4,0.0048270313757,-0.0570803901783,0.0616692308323,0.106008497564,0.206192347539,0.0,0.0,0.0550827117502
tagged_abstract_sents/16422868.txt,5,0.0108608205953,0.00447359569458,0.210342442448,0.0253702522065,0.206192347539,0.286113746485,0.026427591099,0.549901952428
tagged_abstract_sents/16422868.txt,6,0.016894609815,-0.00612176252943,0.0616692308323,0.106008497564,0.206192347539,0.286505447666,0.0233746785168,0.609512781613
tagged_abstract_sents/16422868.txt,7,0.0261464199517,0.00346451395896,0.0616692308323,0.106008497564,0.206192347539,0.271677455906,0.0241804212651,0.55854332902
tagged_abstract_sents/16422868.txt,8,0.0518905872888,-0.00258997645476,0.0616692308323,0.106008497564,0.206192347539,0.320044175881,0.0271205684149,0.596493049379
tagged_abstract_sents/16422868.txt,9,0.0683829444891,-0.0187352842247,0.0616692308323,0.106008497564,0.206192347539,0.171888799528,0.0144667447993,0.628581045245
tagged_abstract_sents/16422868.txt,10,0.0993563958166,-0.0626303397242,0.0616692308323,0.106008497564,0.206192347539,0.0,0.0,0.129596213394
tagged_abstract_sents/16422868.txt,11,0.172566371681,0.0402959973091,0.139250797795,0.521468892835,0.206192347539,0.284264995293,0.0292954275176,0.767119515989
tagged_abstract_sents/16422868.txt,13,0.206355591311,0.0281870164817,0.139250797795,0.521468892835,0.206192347539,0.327900637137,0.0289369776624,0.787802448272
tagged_abstract_sents/16422868.txt,14,0.262268704747,-0.0606121762529,0.0616692308323,0.106008497564,0.206192347539,0.0,0.0,0.260329693232
tagged_abstract_sents/16422868.txt,15,0.262268704747,0.064513958964,0.139250797795,0.521468892835,0.206192347539,0.393894285443,0.0230512490605,1.07192170438
