tagged_abstract_sents/16452102.txt,1,0.206355591311,-0.0491780045351,0.0616692308323,0.106008497564,7.00172644739e-05,0.0,0.0,0.217886036827
tagged_abstract_sents/16452102.txt,3,0.206355591311,-0.0510912698413,0.188769469584,0.129715814208,7.00172644739e-05,0.0,0.0,0.288165698135
tagged_abstract_sents/16452102.txt,4,0.0048270313757,-0.0389739229025,0.0616692308323,0.106008497564,7.00172644739e-05,0.0270337630835,0.0337871805614,0.119691414143
tagged_abstract_sents/16452102.txt,5,0.0048270313757,-0.0504535147392,0.0616692308323,0.106008497564,7.00172644739e-05,0.0,0.0,0.056408086838
tagged_abstract_sents/16452102.txt,6,0.0108608205953,-0.00198412698413,0.0616692308323,0.106008497564,7.00172644739e-05,0.115177868912,0.0212006210109,0.20738568354
tagged_abstract_sents/16452102.txt,7,0.0108608205953,-0.047264739229,0.0616692308323,0.106008497564,7.00172644739e-05,0.0,0.0,0.0618728733158
tagged_abstract_sents/16452102.txt,8,0.0261464199517,-0.016014739229,0.210342442448,0.0253702522065,7.00172644739e-05,0.0819164396848,0.00945747800587,0.221946052949
tagged_abstract_sents/16452102.txt,9,0.0353982300885,-0.0415249433107,0.0616692308323,0.106008497564,7.00172644739e-05,0.0,0.0,0.082650760094
tagged_abstract_sents/16452102.txt,10,0.0518905872888,0.00120464852608,0.0616692308323,0.106008497564,7.00172644739e-05,0.13302854676,0.0153341565056,0.252816858899
tagged_abstract_sents/16452102.txt,11,0.0993563958166,-0.0504535147392,0.0616692308323,0.106008497564,7.00172644739e-05,0.0,0.0,0.132031578391
tagged_abstract_sents/16452102.txt,12,0.0993563958166,0.00885770975057,0.139250797795,0.521468892835,7.00172644739e-05,0.166496112466,0.0305112839475,0.504406238413
tagged_abstract_sents/16452102.txt,14,0.172566371681,0.093679138322,0.139250797795,0.521468892835,7.00172644739e-05,0.188239230422,0.0210861718926,0.592235994992
tagged_abstract_sents/16452102.txt,15,0.206355591311,0.0171485260771,0.139250797795,0.521468892835,7.00172644739e-05,0.117751894219,0.0204626914304,0.621262641411
tagged_abstract_sents/16452102.txt,16,0.206355591311,-0.0479024943311,0.139250797795,0.521468892835,7.00172644739e-05,0.0,0.0,0.381570040931
tagged_abstract_sents/16452102.txt,17,0.262268704747,0.078373015873,0.139250797795,0.521468892835,7.00172644739e-05,0.186413716159,0.0259192420483,0.725327219029
tagged_abstract_sents/16452102.txt,18,0.262268704747,0.0573270975057,0.139250797795,0.521468892835,7.00172644739e-05,0.2152456061,0.0218879563151,0.684550029726
