1||BACKGROUND.||[]||other
2||Conservative methods to treat cervical intraepithelial neoplasia and microinvasive cervical cancer are commonly used in young women because of the advent of effective screening programmes.||['phsu', 'cnce', 'popg', 'inpr', 'clna', 'gngm', 'topp', 'lbpr', 'qlco', 'neop', 'spco', 'mamm', 'dsyn', 'geoa', 'qnco', 'hlca', 'ftcn', 'tmco', 'diap']||background
3||In a meta-analysis, we investigated the effect of these procedures on subsequent fertility and pregnancy outcomes.||['bpoc', 'idcn', 'inpr', 'dsyn', 'clna', 'orch', 'euka', 'gngm', 'orgf', 'topp', 'lbpr', 'qlco', 'bacs', 'aapp', 'qnco', 'geoa', 'ftcn', 'tmco', 'genf', 'diap', 'phsu']||background
4||METHODS.||[]||other
5||We searched for studies in MEDLINE and EMBASE and classified them by the conservative method used and the outcome measure studied regarding both fertility and pregnancy.||['bpoc', 'acty', 'inpr', 'dsyn', 'gngm', 'orgf', 'idcn', 'genf', 'fndg', 'qnco', 'geoa', 'ftcn', 'tmco', 'clas', 'bsoj']||other
6||Pooled relative risks and 95% CIs were calculated with a random-effects model and interstudy heterogeneity was assessed with Cochrane's Q test.||['acty', 'resa', 'dsyn', 'clna', 'gngm', 'topp', 'lbpr', 'qlco', 'mamm', 'qnco', 'geoa', 'ftcn', 'tmco', 'comd', 'famg']||other
7||FINDINGS.||[]||other
8||We identified 27 studies.||['qlco', 'gngm', 'dsyn', 'qnco']||outcome
9||Cold knife conisation was significantly associated with preterm delivery (&lt;37 weeks; relative risk 2.59, 95% CI 1.80-3.72, 100/704 [14%] vs 1494/27 674 [5%]), low birthweight (&lt;2500 g; 2.53, 1.19-5.36, 32/261 [12%] vs 905/13 229 [7%]), and caesarean section (3.17, 1.07-9.40, 31/350 [9%] vs 22/670 [3%]).||['dsyn', 'gngm', 'elii', 'idcn', 'qnco', 'famg', 'phsu', 'spco', 'fndg', 'mamm', 'geoa', 'diap', 'clna', 'topp', 'mnob', 'comd', 'bpoc', 'orga', 'orgf', 'qlco', 'orch', 'genf', 'tmco']||outcome
10||Large loop excision of the transformation zone (LLETZ) was also significantly associated with preterm delivery (1.70, 1.24-2.35, 156/1402 [11%] vs 120/1739 [7%]), low birthweight (1.82, 1.09-3.06, 77/996 [8%] vs 49/1192 [4%]), and premature rupture of the membranes (2.69, 1.62-4.46, 48/905 [5%] vs 22/1038 [2%]).||['dsyn', 'gngm', 'elii', 'idcn', 'qnco', 'inpr', 'phsu', 'spco', 'biof', 'inpo', 'fndg', 'mamm', 'geoa', 'food', 'euka', 'topp', 'bodm', 'comd', 'bpoc', 'orga', 'orgf', 'qlco', 'tisu', 'orch', 'genf', 'tmco']||outcome
11||Similar but marginally non-significant adverse effects were recorded for laser conisation (preterm delivery 1.71, 0.93-3.14).||['bpoc', 'phsu', 'spco', 'dsyn', 'clna', 'tmco', 'gngm', 'elii', 'topp', 'idcn', 'qlco', 'fndg', 'orch', 'qnco', 'geoa', 'ftcn', 'mnob', 'inpr', 'comd', 'diap']||outcome
12||We did not detect significantly increased risks for obstetric outcomes after laser ablation.||['dsyn', 'clna', 'fish', 'gngm', 'elii', 'topp', 'idcn', 'qlco', 'fndg', 'qnco', 'geoa', 'ftcn', 'mnob']||outcome
13||Although severe outcomes such as admission to a neonatal intensive care unit or perinatal mortality showed adverse trends, these changes were not significant.||['phsu', 'hcro', 'cnce', 'tmco', 'dsyn', 'grpa', 'gngm', 'elii', 'idcn', 'qlco', 'fndg', 'spco', 'geoa', 'qnco', 'hlca', 'ftcn', 'mnob', 'inpr', 'genf', 'aggp']||outcome
14||INTERPRETATION.||[]||outcome
15||All the excisional procedures to treat cervical intraepithelial neoplasia present similar pregnancy-related morbidity without apparent neonatal morbidity.||['dsyn', 'gngm', 'elii', 'idcn', 'neop', 'bacs', 'aapp', 'qnco', 'inpr', 'famg', 'phsu', 'spco', 'mamm', 'geoa', 'ftcn', 'diap', 'euka', 'topp', 'orgf', 'qlco', 'aggp', 'orch', 'tmco']||outcome
16||Caution in the treatment of young women with mild cervical abnormalities should be recommended.||['spco', 'popg', 'dsyn', 'cgab', 'fish', 'gngm', 'elii', 'idcn', 'qlco', 'tmco', 'qnco', 'geoa', 'ftcn', 'inpr']||outcome
17||Clinicians now have the evidence base to counsel women appropriately.||['tmco', 'popg', 'gngm', 'lbpr', 'qlco', 'mamm', 'prog', 'qnco', 'geoa', 'ftcn', 'inpr', 'chvf']||outcome
