tagged_abstract_sents/16498075.txt,1,0.239742558327,0.0822784810127,0.188769469584,0.202456734834,0.247802897429,0.173653405159,0.0351526364477,0.819980437142
tagged_abstract_sents/16498075.txt,2,0.162510056315,-0.0981012658228,0.0616692308323,0.142474783506,2.87669108585e-06,0.102226827598,0.0218751700495,0.308069716695
tagged_abstract_sents/16498075.txt,3,0.0852775543041,-0.0348101265823,0.139250797795,0.0356431803763,0.106246672636,0.112152340527,0.0322849213691,0.39226230567
tagged_abstract_sents/16498075.txt,4,0.0458567980692,0.0643459915612,0.139250797795,0.0356431803763,0.297677875174,0.131280707818,0.0363299974771,0.595161570246
tagged_abstract_sents/16498075.txt,5,0.00844730490748,-0.0432489451477,0.139250797795,0.0356431803763,0.061592306729,0.0962296263661,0.0201080870539,0.256356428056
tagged_abstract_sents/16498075.txt,6,0.00120675784393,0.0295358649789,0.139250797795,0.0356431803763,0.272171410988,0.145753392902,0.036386062288,0.541501798459
