tagged_abstract_sents/16543212.txt,1,0.206355591311,-0.0112602365787,0.188769469584,0.129715814208,0.309896053216,0.115945128417,0.00728768642919,0.56417375421
tagged_abstract_sents/16543212.txt,2,0.0048270313757,0.00784804367607,0.188769469584,0.129715814208,0.309896053216,0.160191541101,0.0294840138479,0.563720466824
tagged_abstract_sents/16543212.txt,3,0.0108608205953,0.0742720655141,0.188769469584,0.129715814208,0.309896053216,0.165944717042,0.0287678083528,0.654158228044
tagged_abstract_sents/16543212.txt,5,0.0993563958166,-0.0403776160146,0.188769469584,0.129715814208,0.309896053216,0.0824694873827,0.030974148802,0.50149088224
tagged_abstract_sents/16543212.txt,7,0.206355591311,-0.0230891719745,0.139250797795,0.521468892835,0.309896053216,0.118016929954,0.032993525279,0.85987115411
tagged_abstract_sents/16543212.txt,8,0.262268704747,0.0415150136488,0.139250797795,0.521468892835,0.309896053216,0.176340259748,0.0169145199063,0.947334866145
