tagged_abstract_sents/16585303.txt,1,0.206355591311,-0.0421024979701,0.0616692308323,0.106008497564,0.428541479537,0.0,0.0,0.21930113814
tagged_abstract_sents/16585303.txt,2,0.206355591311,-0.0110092181306,0.188769469584,0.129715814208,0.428541479537,0.150407817728,0.0568171242438,1.00484018858
tagged_abstract_sents/16585303.txt,4,0.206355591311,0.058198404738,0.188769469584,0.129715814208,0.428541479537,0.397397204767,0.0596918463368,1.09174716761
tagged_abstract_sents/16585303.txt,5,0.0048270313757,-0.0436070115107,0.0616692308323,0.106008497564,0.428541479537,0.0,0.0,0.0577773874837
tagged_abstract_sents/16585303.txt,6,0.0048270313757,0.0346276926016,0.139250797795,0.521468892835,0.428541479537,0.260112740289,0.0686808925525,0.714634904679
tagged_abstract_sents/16585303.txt,7,0.0108608205953,0.0561923866839,0.139250797795,0.521468892835,0.428541479537,0.404870689303,0.0530823983593,0.998490813874
tagged_abstract_sents/16585303.txt,8,0.0108608205953,0.0321201700339,0.139250797795,0.521468892835,0.428541479537,0.316956287808,0.0593880874826,1.02600575485
tagged_abstract_sents/16585303.txt,9,0.0261464199517,-0.0436070115107,0.139250797795,0.521468892835,0.428541479537,0.0,0.0,0.238261800407
tagged_abstract_sents/16585303.txt,10,0.0261464199517,-0.0185317858337,0.139250797795,0.521468892835,0.428541479537,0.128684815431,0.0563828137118,0.890809772172
tagged_abstract_sents/16585303.txt,12,0.0518905872888,0.0100539714381,0.139250797795,0.521468892835,0.428541479537,0.260949187398,0.0608681040277,0.904703079958
tagged_abstract_sents/16585303.txt,13,0.0993563958166,0.0115584849787,0.139250797795,0.521468892835,0.428541479537,0.303208830148,0.0456977875545,1.04640009064
tagged_abstract_sents/16585303.txt,14,0.0993563958166,0.000525385680852,0.139250797795,0.521468892835,0.428541479537,0.233323837998,0.0516382448745,1.07057797732
tagged_abstract_sents/16585303.txt,15,0.172566371681,0.0100539714381,0.139250797795,0.521468892835,0.428541479537,0.23358828246,0.0555684814642,1.02559227216
tagged_abstract_sents/16585303.txt,16,0.172566371681,-0.00499116396809,0.139250797795,0.521468892835,0.428541479537,0.181511274726,0.0353497750892,0.866563039197
tagged_abstract_sents/16585303.txt,17,0.206355591311,-0.00549266848164,0.139250797795,0.521468892835,0.428541479537,0.257164266952,0.0548427840191,1.14978379073
tagged_abstract_sents/16585303.txt,18,0.206355591311,-0.0416009934566,0.139250797795,0.521468892835,0.428541479537,0.0,0.0,0.382830341106
tagged_abstract_sents/16585303.txt,19,0.262268704747,0.0085494578975,0.139250797795,0.521468892835,0.428541479537,0.283496921551,0.0552637993308,1.21016035601
tagged_abstract_sents/16585303.txt,20,0.262268704747,-0.0074986865358,0.139250797795,0.521468892835,0.428541479537,0.23461201782,0.0449175327025,1.1638175956
tagged_abstract_sents/16585303.txt,21,0.262268704747,-0.00699718202226,0.139250797795,0.521468892835,0.428541479537,0.244722762421,0.0571012221107,1.16484705821
