tagged_abstract_sents/16594812.txt,1,0.206355591311,0.0748483675313,0.188769469584,0.129715814208,0.421395911763,0.334598335866,0.0425963362284,1.03195938212
tagged_abstract_sents/16594812.txt,3,0.0261464199517,-0.0434894825139,0.139250797795,0.521468892835,0.421395911763,0.302805997779,0.0481313346259,0.743483657959
tagged_abstract_sents/16594812.txt,4,0.0518905872888,-0.0163892115112,0.139250797795,0.521468892835,0.421395911763,0.367012840351,0.0354397524209,0.815906034946
tagged_abstract_sents/16594812.txt,5,0.172566371681,-0.098593366886,0.0616692308323,0.106008497564,0.421395911763,0.198216974495,0.0297532656023,0.582113985439
tagged_abstract_sents/16594812.txt,6,0.206355591311,0.103755323268,0.139250797795,0.521468892835,0.421395911763,0.267834846572,0.0428823631406,1.1173689471
