tagged_abstract_sents/16625602.txt,1,0.206355591311,-0.0345217103813,0.0616692308323,0.106008497564,0.24255072549,0.0,0.0,0.220817295658
tagged_abstract_sents/16625602.txt,3,0.206355591311,-0.0209113951951,0.0616692308323,0.106008497564,0.24255072549,0.0447454985134,0.00959536820193,0.277880225411
tagged_abstract_sents/16625602.txt,4,0.206355591311,0.00881639850121,0.188769469584,0.129715814208,0.24255072549,0.110472302819,0.0478447014052,0.642740596029
tagged_abstract_sents/16625602.txt,5,0.206355591311,-0.0345217103813,0.0616692308323,0.106008497564,0.24255072549,0.0,0.0,0.220817295658
tagged_abstract_sents/16625602.txt,7,0.0048270313757,-0.0327308794358,0.0616692308323,0.106008497564,0.24255072549,0.0,0.0,0.0599526138987
tagged_abstract_sents/16625602.txt,8,0.0108608205953,0.0521545073837,0.0616692308323,0.106008497564,0.24255072549,0.126471967526,0.0368225158916,0.245067323184
tagged_abstract_sents/16625602.txt,9,0.0108608205953,-0.0316563808684,0.0616692308323,0.106008497564,0.24255072549,0.0,0.0,0.0649945449879
tagged_abstract_sents/16625602.txt,10,0.0108608205953,0.0116817280141,0.0616692308323,0.106008497564,0.24255072549,0.141238333694,0.0486641809442,0.488738019723
tagged_abstract_sents/16625602.txt,11,0.0261464199517,-0.0280747189773,0.0616692308323,0.106008497564,0.24255072549,0.0,0.0,0.0779393568512
tagged_abstract_sents/16625602.txt,12,0.0261464199517,-0.0209113951951,0.0616692308323,0.106008497564,0.24255072549,0.0556753167279,0.0192676176283,0.154429835665
tagged_abstract_sents/16625602.txt,13,0.0353982300885,-0.00192858717214,0.0616692308323,0.106008497564,0.24255072549,0.0958596406946,0.0264929742389,0.212967917697
tagged_abstract_sents/16625602.txt,14,0.0518905872888,-0.0119572404673,0.0616692308323,0.106008497564,0.24255072549,0.0727218921798,0.0203942232631,0.194921854504
tagged_abstract_sents/16625602.txt,15,0.0518905872888,-0.00765924619793,0.0616692308323,0.106008497564,0.24255072549,0.065095599509,0.0149297423888,0.182704630277
tagged_abstract_sents/16625602.txt,16,0.0993563958166,-0.0338053780031,0.0616692308323,0.106008497564,0.24255072549,0.0,0.0,0.135361205738
tagged_abstract_sents/16625602.txt,17,0.0993563958166,-0.0219858937624,0.0616692308323,0.106008497564,0.24255072549,0.0865636977907,0.0494417029107,0.273786951831
tagged_abstract_sents/16625602.txt,18,0.0993563958166,-0.00157042098303,0.0616692308323,0.106008497564,0.24255072549,0.105888660289,0.0450905772145,0.490982938301
tagged_abstract_sents/16625602.txt,19,0.172566371681,0.0313808684153,0.0616692308323,0.106008497564,0.24255072549,0.158212311839,0.0295221973322,0.433815006102
tagged_abstract_sents/16625602.txt,20,0.172566371681,0.0707791492175,0.139250797795,0.521468892835,0.24255072549,0.163746494911,0.0685778409725,0.688329715831
tagged_abstract_sents/16625602.txt,21,0.206355591311,-0.00407758430681,0.139250797795,0.521468892835,0.24255072549,0.0736036143432,0.0260904566745,0.647626887871
tagged_abstract_sents/16625602.txt,22,0.206355591311,-0.0158970685475,0.139250797795,0.521468892835,0.24255072549,0.0643722511034,0.0219442442803,0.474287621471
tagged_abstract_sents/16625602.txt,23,0.206355591311,-0.0309400484902,0.139250797795,0.521468892835,0.24255072549,0.0,0.0,0.384962530099
tagged_abstract_sents/16625602.txt,24,0.262268704747,0.0704209830284,0.139250797795,0.521468892835,0.24255072549,0.193447070383,0.0612587822014,0.884827197095
tagged_abstract_sents/16625602.txt,25,0.262268704747,0.0586014987877,0.139250797795,0.521468892835,0.24255072549,0.199817014855,0.0833723653396,0.846193183807
tagged_abstract_sents/16625602.txt,26,0.262268704747,0.0192032179855,0.139250797795,0.521468892835,0.24255072549,0.160514320607,0.0292340855865,0.872020805826
