tagged_abstract_sents/16651493.txt,1,0.125905068383,-0.0430891499654,0.0616692308323,0.142474783506,0.0,0.0,0.0,0.165683275181
tagged_abstract_sents/16651493.txt,2,0.250201126307,0.0253282653766,0.188769469584,0.202456734834,0.555945608037,0.179665169257,0.0774136260898,1.17337271275
tagged_abstract_sents/16651493.txt,3,0.239742558327,-0.0410158949551,0.0616692308323,0.142474783506,0.0,0.0,0.0,0.257167918138
tagged_abstract_sents/16651493.txt,4,0.229283990346,0.0377677954388,0.0616692308323,0.142474783506,0.0734366310805,0.197155353267,0.0590384582703,0.59418824445
tagged_abstract_sents/16651493.txt,5,0.218020917136,-0.0389426399447,0.0616692308323,0.142474783506,0.0,0.0,0.0,0.240205256188
tagged_abstract_sents/16651493.txt,6,0.206757843926,0.00321354526607,0.0616692308323,0.142474783506,0.400453461607,0.144180912971,0.0743360510171,0.858596460257
tagged_abstract_sents/16651493.txt,7,0.162510056315,0.0108154803041,0.0616692308323,0.142474783506,0.449366532372,0.146179597869,0.077849531805,0.879143853627
tagged_abstract_sents/16651493.txt,8,0.118262268705,-0.0133724948169,0.0616692308323,0.142474783506,0.334472526913,0.128627599488,0.052966003967,0.681578496837
tagged_abstract_sents/16651493.txt,9,0.101769911504,-0.0265031098825,0.0616692308323,0.142474783506,0.477205091909,0.0945173115777,0.0671886772145,0.788603438396
tagged_abstract_sents/16651493.txt,10,0.0852775543041,-0.0389426399447,0.0616692308323,0.142474783506,0.0,0.0,0.0,0.134010565922
tagged_abstract_sents/16651493.txt,11,0.0711987127916,-0.0382515549413,0.0616692308323,0.142474783506,0.0,0.0163411039851,0.0358007749435,0.175027588641
tagged_abstract_sents/16651493.txt,12,0.0571198712792,-0.0396337249482,0.0616692308323,0.142474783506,0.0,0.0,0.0,0.111346202502
tagged_abstract_sents/16651493.txt,13,0.0458567980692,0.0495162404976,0.139250797795,0.0356431803763,0.38882194321,0.195733540955,0.081799591002,0.793262114731
tagged_abstract_sents/16651493.txt,14,0.0345937248592,-0.0265031098825,0.139250797795,0.0356431803763,0.0,0.0787270506136,0.0373822173951,0.21880197893
tagged_abstract_sents/16651493.txt,15,0.0245374094932,0.00390463026952,0.139250797795,0.0356431803763,0.503577072506,0.17495490976,0.0782540978936,0.857515286819
tagged_abstract_sents/16651493.txt,16,0.0144810941271,0.0840704906704,0.139250797795,0.0356431803763,0.371566747511,0.333021782639,0.0795621072502,0.892867963846
tagged_abstract_sents/16651493.txt,17,0.00844730490748,-0.0417069799585,0.139250797795,0.0356431803763,0.0,0.0,0.0,0.0787348009446
tagged_abstract_sents/16651493.txt,18,0.00120675784393,0.0232550103663,0.139250797795,0.0356431803763,0.617822293176,0.331568629912,0.0782370035518,1.113562688
tagged_abstract_sents/16651493.txt,19,0.00120675784393,0.0294747753974,0.139250797795,0.0356431803763,0.527531903697,0.203132107632,0.089042027089,0.906884752783
tagged_abstract_sents/16651493.txt,20,0.00120675784393,0.0806150656531,0.139250797795,0.0356431803763,0.577045255721,0.451514211583,0.0739238965748,1.19989013629
