tagged_abstract_sents/16696822.txt,1,0.206355591311,-0.0530613502604,0.0616692308323,0.106008497564,0.24226745604,0.0,0.0,0.217109367682
tagged_abstract_sents/16696822.txt,3,0.206355591311,0.0642775706406,0.188769469584,0.129715814208,0.24226745604,0.217898259287,0.0647571798348,0.823571893508
tagged_abstract_sents/16696822.txt,4,0.0048270313757,0.00508427572181,0.188769469584,0.129715814208,0.24226745604,0.139678049422,0.043828834381,0.525012085477
tagged_abstract_sents/16696822.txt,5,0.0048270313757,0.0689920808554,0.188769469584,0.129715814208,0.24226745604,0.251288918579,0.0437282437297,0.659460776669
tagged_abstract_sents/16696822.txt,6,0.0108608205953,-0.0546328536653,0.0616692308323,0.106008497564,0.24226745604,0.0,0.0,0.0603992504285
tagged_abstract_sents/16696822.txt,7,0.0261464199517,-0.00591624811266,0.0616692308323,0.106008497564,0.24226745604,0.100045630458,0.0517957290768,0.293838643482
tagged_abstract_sents/16696822.txt,8,0.0261464199517,-0.018488275352,0.0616692308323,0.106008497564,0.24226745604,0.0965414304125,0.0403221167673,0.342334333245
tagged_abstract_sents/16696822.txt,10,0.0518905872888,0.0522293778695,0.139250797795,0.521468892835,0.24226745604,0.253417055202,0.0559854156809,0.7269183121
tagged_abstract_sents/16696822.txt,11,0.0993563958166,-0.026869626845,0.139250797795,0.521468892835,0.24226745604,0.0887368321484,0.0223612309462,0.638085036369
tagged_abstract_sents/16696822.txt,12,0.172566371681,-0.013249930669,0.139250797795,0.521468892835,0.24226745604,0.117123183421,0.0413135055575,0.748412920331
tagged_abstract_sents/16696822.txt,13,0.172566371681,-0.0525375157921,0.139250797795,0.521468892835,0.24226745604,0.0,0.0,0.353611660935
tagged_abstract_sents/16696822.txt,14,0.206355591311,0.00456044125351,0.139250797795,0.521468892835,0.24226745604,0.118744862729,0.0311520821034,0.90222885806
tagged_abstract_sents/16696822.txt,15,0.206355591311,0.00822728253166,0.139250797795,0.521468892835,0.24226745604,0.190883445161,0.0486022433132,0.83850576492
tagged_abstract_sents/16696822.txt,16,0.262268704747,-0.00382091023942,0.139250797795,0.521468892835,0.24226745604,0.146267235413,0.0489305662776,0.992291288729
tagged_abstract_sents/16696822.txt,17,0.262268704747,-0.00539241364435,0.139250797795,0.521468892835,0.24226745604,0.122635102299,0.0437038634838,0.843408969639
