tagged_abstract_sents/16754904.txt,1,0.125905068383,-0.0607622114868,0.0616692308323,0.142474783506,0.0,0.0,0.0,0.162148662877
tagged_abstract_sents/16754904.txt,2,0.239742558327,-0.00118089103596,0.188769469584,0.202456734834,0.346968809997,0.363771165692,0.0332765650942,1.09069616448
tagged_abstract_sents/16754904.txt,3,0.229283990346,0.0294149221685,0.188769469584,0.202456734834,0.401804149384,0.458325723226,0.0377429436468,1.24230474821
tagged_abstract_sents/16754904.txt,4,0.218020917136,-0.0242619431025,0.0616692308323,0.142474783506,0.157528394248,0.239010309954,0.0199645147638,0.659644614522
tagged_abstract_sents/16754904.txt,5,0.162510056315,-0.062372517445,0.0616692308323,0.142474783506,0.0,0.0,0.0,0.191110592031
tagged_abstract_sents/16754904.txt,6,0.118262268705,0.0251207729469,0.0616692308323,0.142474783506,0.335431891525,0.404751587109,0.0427381730488,0.956132671703
tagged_abstract_sents/16754904.txt,7,0.101769911504,-0.0307031669351,0.0616692308323,0.142474783506,0.171041988045,0.279248252098,0.0489575462242,0.648100132653
tagged_abstract_sents/16754904.txt,8,0.0711987127916,0.0149221685454,0.210342442448,0.226435992083,3.34808535243e-05,0.301247762051,0.0266767122905,0.561003377986
tagged_abstract_sents/16754904.txt,9,0.0571198712792,-0.041975308642,0.0616692308323,0.142474783506,0.222772790932,0.189057125014,0.0335763708896,0.556284172598
tagged_abstract_sents/16754904.txt,10,0.0458567980692,-0.062372517445,0.0616692308323,0.142474783506,0.0,0.0,0.0,0.0977879854342
tagged_abstract_sents/16754904.txt,11,0.0245374094932,-0.0221148684917,0.139250797795,0.0356431803763,0.135845735473,0.287162253254,0.0347128625842,0.553246158217
tagged_abstract_sents/16754904.txt,12,0.0144810941271,0.0932903918411,0.139250797795,0.0356431803763,0.160056260444,0.452087249628,0.0456474195304,0.768352236282
tagged_abstract_sents/16754904.txt,13,0.00844730490748,0.126570048309,0.139250797795,0.0356431803763,0.130241446402,0.484557106211,0.0354722140834,0.762660973295
tagged_abstract_sents/16754904.txt,14,0.00120675784393,-0.058615136876,0.139250797795,0.0356431803763,0.0,0.0,0.0,0.0695607319102
tagged_abstract_sents/16754904.txt,15,0.00120675784393,0.075040257649,0.139250797795,0.0356431803763,0.36813055537,0.466183554374,0.0376829970599,0.968288917619
