tagged_abstract_sents/16816220.txt,1,0.206355591311,-0.0662120873388,0.0616692308323,0.106008497564,0.273015680643,0.0,0.0,0.214479220267
tagged_abstract_sents/16816220.txt,3,0.0048270313757,0.0568969371786,0.0616692308323,0.106008497564,0.273015680643,0.17931843486,0.0168421052632,0.498487131547
tagged_abstract_sents/16816220.txt,4,0.0048270313757,-0.0677770325658,0.0616692308323,0.106008497564,0.273015680643,0.0,0.0,0.0529433832727
tagged_abstract_sents/16816220.txt,5,0.0108608205953,0.175311126015,0.210342442448,0.0253702522065,0.273015680643,0.243135366975,0.0142066585344,0.49838579371
tagged_abstract_sents/16816220.txt,6,0.0261464199517,0.00473209628139,0.139250797795,0.521468892835,0.273015680643,0.0739782370044,0.0568917169974,0.573216381064
tagged_abstract_sents/16816220.txt,7,0.0353982300885,0.0522021014979,0.139250797795,0.521468892835,0.273015680643,0.168800493028,0.0285716853609,0.544506185033
tagged_abstract_sents/16816220.txt,8,0.0518905872888,-0.0672553841568,0.139250797795,0.521468892835,0.273015680643,0.0,0.0,0.254127459748
tagged_abstract_sents/16816220.txt,9,0.0993563958166,-0.0156121916685,0.139250797795,0.521468892835,0.273015680643,0.0745679608602,0.0268190969226,0.55928447329
tagged_abstract_sents/16816220.txt,10,0.172566371681,-0.0349131828005,0.139250797795,0.521468892835,0.273015680643,0.0678962729116,0.0292571966429,0.628441426631
tagged_abstract_sents/16816220.txt,11,0.172566371681,-0.0286534018928,0.139250797795,0.521468892835,0.273015680643,0.0623563994717,0.00030198446937,0.421046867656
tagged_abstract_sents/16816220.txt,12,0.206355591311,0.00368879946345,0.139250797795,0.521468892835,0.273015680643,0.169161559135,0.0184965487489,0.764648838423
tagged_abstract_sents/16816220.txt,13,0.262268704747,-0.0651687905209,0.139250797795,0.521468892835,0.273015680643,0.0,0.0,0.422847272441
