tagged_abstract_sents/16848101.txt,1,0.0954875100725,-0.0650622638869,0.0616692308323,0.247294108221,0.327970554653,0.0,0.0,0.168400403163
tagged_abstract_sents/16848101.txt,2,0.0253827558421,-0.0391073177557,0.188769469584,0.123191979006,0.327970554653,0.119327421014,0.0349462365591,0.748056298262
tagged_abstract_sents/16848101.txt,3,0.0805801772764,-0.0660416958164,0.0616692308323,0.247294108221,0.327970554653,0.0,0.0,0.15627865054
tagged_abstract_sents/16848101.txt,5,0.123690572119,-0.0165803833776,0.188769469584,0.123191979006,0.327970554653,0.131679907473,0.0533647167773,0.673035101437
tagged_abstract_sents/16848101.txt,6,0.140209508461,0.0534489995802,0.188769469584,0.123191979006,0.327970554653,0.206274700808,0.0605676581483,0.906920542944
tagged_abstract_sents/16848101.txt,7,0.149073327961,-0.063103400028,0.0616692308323,0.247294108221,0.327970554653,0.0,0.0,0.211660830246
tagged_abstract_sents/16848101.txt,8,0.149879129734,0.0789142297467,0.210342442448,0.141687475369,0.327970554653,0.244591781006,0.0589809384164,0.862491535913
tagged_abstract_sents/16848101.txt,9,0.176470588235,0.0363089408143,0.0616692308323,0.247294108221,0.327970554653,0.170989376992,0.043348973607,0.539683241576
tagged_abstract_sents/16848101.txt,10,0.166800966962,0.0186791660837,0.0616692308323,0.247294108221,0.327970554653,0.140344557098,0.0429269655076,0.605821628563
tagged_abstract_sents/16848101.txt,11,0.166800966962,0.0196585980132,0.139250797795,0.194462959676,0.327970554653,0.210624297505,0.0508483452032,0.670423382852
tagged_abstract_sents/16848101.txt,12,0.0954875100725,-0.0660416958164,0.139250797795,0.194462959676,0.327970554653,0.0,0.0,0.191145955695
tagged_abstract_sents/16848101.txt,13,0.0342465753425,0.0319014971317,0.139250797795,0.194462959676,0.327970554653,0.137821188805,0.0480058651026,0.682543687623
tagged_abstract_sents/16848101.txt,14,0.0342465753425,0.0872394011473,0.139250797795,0.194462959676,0.327970554653,0.293335396174,0.0594832369026,0.853598615034
