tagged_abstract_sents/16848844.txt,1,0.125905068383,-0.0284863945578,0.188769469584,0.202456734834,0.307891814626,0.191607297858,0.0524576969152,0.802105340437
tagged_abstract_sents/16848844.txt,2,0.239742558327,-0.0046768707483,0.188769469584,0.202456734834,0.319484342964,0.300423829119,0.0724846707965,1.03837327063
tagged_abstract_sents/16848844.txt,3,0.218020917136,0.0722789115646,0.188769469584,0.202456734834,0.31590864626,0.382280621652,0.0512462147682,1.09342975394
tagged_abstract_sents/16848844.txt,4,0.218020917136,0.0331632653061,0.188769469584,0.202456734834,0.161400797439,0.372197008322,0.0776579814316,0.947426929204
tagged_abstract_sents/16848844.txt,5,0.162510056315,0.046343537415,0.210342442448,0.226435992083,0.23041849096,0.325115363166,0.0583616547521,0.926274280262
tagged_abstract_sents/16848844.txt,6,0.101769911504,-0.0144557823129,0.0616692308323,0.142474783506,0.216852831706,0.259390826017,0.0676770542709,0.696022535202
tagged_abstract_sents/16848844.txt,7,0.0852775543041,-0.030612244898,0.0616692308323,0.142474783506,0.398499750904,0.238686899191,0.0656914495358,0.838554744563
tagged_abstract_sents/16848844.txt,8,0.0711987127916,-0.0454931972789,0.0616692308323,0.142474783506,0.0,0.107390692253,0.0466252824743,0.275453355973
tagged_abstract_sents/16848844.txt,9,0.0458567980692,-0.0170068027211,0.0616692308323,0.142474783506,0.159665721911,0.145891148882,0.0459718478586,0.458389847031
tagged_abstract_sents/16848844.txt,10,0.0245374094932,-0.0123299319728,0.194899689933,0.13295610691,0.156086483289,0.255382888985,0.0459044624139,0.611874452927
tagged_abstract_sents/16848844.txt,11,0.0245374094932,-0.0238095238095,0.0616692308323,0.142474783506,0.0,0.139855409012,0.0293616237012,0.257662106014
tagged_abstract_sents/16848844.txt,12,0.00844730490748,0.0110544217687,0.139250797795,0.0356431803763,0.0833732932655,0.355197160129,0.0656072177299,0.593464752415
tagged_abstract_sents/16848844.txt,13,0.00120675784393,-0.00127551020408,0.139250797795,0.0356431803763,0.367373407336,0.37291677006,0.0634359089548,0.884754743595
tagged_abstract_sents/16848844.txt,14,0.00120675784393,0.015306122449,0.139250797795,0.0356431803763,0.218621929604,0.264524862819,0.0647798742138,0.632271650412
