tagged_abstract_sents/16875507.txt,1,0.125905068383,-0.0633581385599,0.0616692308323,0.142474783506,0.0,0.0,0.0,0.161629477462
tagged_abstract_sents/16875507.txt,2,0.239742558327,0.0650351116235,0.188769469584,0.202456734834,0.328689585567,0.570732014417,0.0187473672272,1.27809179144
tagged_abstract_sents/16875507.txt,3,0.218020917136,0.0510952730322,0.0616692308323,0.142474783506,0.340834400471,0.49147352955,0.0400604221347,1.13058119094
tagged_abstract_sents/16875507.txt,4,0.218020917136,-0.0655591657059,0.0616692308323,0.142474783506,0.0,0.0,0.0,0.234881951035
tagged_abstract_sents/16875507.txt,5,0.162510056315,0.0892464102295,0.210342442448,0.226435992083,0.0984633966072,0.609519183766,0.0313593613298,1.06030128765
tagged_abstract_sents/16875507.txt,6,0.101769911504,0.000471648674143,0.0616692308323,0.142474783506,0.0,0.306452047988,0.0189066440224,0.480446001417
tagged_abstract_sents/16875507.txt,7,0.0852775543041,-0.0384131642385,0.0616692308323,0.142474783506,0.0,0.20657127058,0.0119245911569,0.3526123228
tagged_abstract_sents/16875507.txt,8,0.0711987127916,-0.0178702442092,0.0616692308323,0.142474783506,0.180002027762,0.360192829586,0.0202376018787,0.687394431086
tagged_abstract_sents/16875507.txt,9,0.0458567980692,-0.0655591657059,0.139250797795,0.0356431803763,0.0,0.0,0.0,0.103891958324
tagged_abstract_sents/16875507.txt,10,0.0245374094932,0.0268839744262,0.139250797795,0.0356431803763,0.140907473093,0.38666532679,0.0120133420822,0.644911217455
tagged_abstract_sents/16875507.txt,11,0.0245374094932,0.00340635153548,0.139250797795,0.0356431803763,0.245314938894,0.419592864349,0.0293088363955,0.794846190551
tagged_abstract_sents/16875507.txt,12,0.00844730490748,0.0107431086888,0.139250797795,0.0356431803763,0.38076649101,0.413031031399,0.0199896887889,0.903012029872
tagged_abstract_sents/16875507.txt,13,0.00120675784393,-0.0633581385599,0.0616692308323,0.142474783506,0.0,0.0,0.0,0.061870829031
tagged_abstract_sents/16875507.txt,14,0.00120675784393,0.0672361387695,0.139250797795,0.0356431803763,0.33081522496,0.546956352717,0.0307789050407,1.00328146976
