tagged_abstract_sents/16879663.txt,1,0.239742558327,0.0847729516288,0.188769469584,0.202456734834,0.453118700917,0.541824528521,0.0324151223264,1.39122874399
tagged_abstract_sents/16879663.txt,2,0.218020917136,-0.0341806515301,0.188769469584,0.202456734834,0.220970222734,0.234924841026,0.0164261646645,0.79502358707
tagged_abstract_sents/16879663.txt,3,0.162510056315,-0.0652764067127,0.205068369407,0.26003320229,0.250774356329,0.295438678381,0.0294423797554,0.873152323566
tagged_abstract_sents/16879663.txt,4,0.0852775543041,0.00925468904245,0.210342442448,0.226435992083,0.128927289969,0.391214266251,0.0258760078567,0.789192564177
tagged_abstract_sents/16879663.txt,5,0.0458567980692,0.0206071076012,0.0616692308323,0.142474783506,0.173748311552,0.460417040194,0.0285344069834,0.777083669173
tagged_abstract_sents/16879663.txt,6,0.0245374094932,0.0487413622902,0.139250797795,0.0356431803763,0.293200198114,0.465344225426,0.0291218450463,0.897362821649
tagged_abstract_sents/16879663.txt,7,0.00844730490748,-0.0282576505429,0.139250797795,0.0356431803763,0.237831700646,0.355716993647,0.0195484178142,0.694521778935
tagged_abstract_sents/16879663.txt,8,0.00120675784393,-0.0356614017769,0.139250797795,0.0356431803763,0.17371925883,0.326714894627,0.0149463535781,0.589531985964
