tagged_abstract_sents/16932162.txt,1,0.0954875100725,-0.0606093979442,0.0616692308323,0.247294108221,0.369637827724,0.0,0.0,0.169290976352
tagged_abstract_sents/16932162.txt,3,0.0451248992748,-0.00499265785609,0.188769469584,0.123191979006,0.369637827724,0.247954281904,0.0452495463594,0.822702222462
tagged_abstract_sents/16932162.txt,4,0.0805801772764,-0.00334067547724,0.188769469584,0.123191979006,0.369637827724,0.300212094304,0.0654102311784,0.833389016855
tagged_abstract_sents/16932162.txt,5,0.123690572119,0.00436857562408,0.188769469584,0.123191979006,0.369637827724,0.202510383481,0.0575864779874,0.65428261074
tagged_abstract_sents/16932162.txt,6,0.131345688961,0.039610866373,0.0616692308323,0.247294108221,0.369637827724,0.36305155246,0.0476010781671,0.980568896661
tagged_abstract_sents/16932162.txt,7,0.140209508461,-0.0622613803231,0.0616692308323,0.247294108221,0.369637827724,0.0,0.0,0.204738178587
tagged_abstract_sents/16932162.txt,8,0.149879129734,0.0142804698972,0.210342442448,0.141687475369,0.369637827724,0.412603260782,0.0538085255066,1.0717617221
tagged_abstract_sents/16932162.txt,9,0.150684931507,0.00106461086637,0.0616692308323,0.247294108221,0.369637827724,0.235374228615,0.0453479085555,0.553693665537
tagged_abstract_sents/16932162.txt,10,0.176470588235,-0.0622613803231,0.0616692308323,0.247294108221,0.369637827724,0.0,0.0,0.233747042406
tagged_abstract_sents/16932162.txt,11,0.166800966962,0.061637298091,0.139250797795,0.194462959676,0.369637827724,0.335865462791,0.0621942697414,0.848158699516
tagged_abstract_sents/16932162.txt,12,0.131345688961,0.0654919236417,0.139250797795,0.194462959676,0.369637827724,0.360810698544,0.0663621842867,0.890415511171
tagged_abstract_sents/16932162.txt,13,0.0954875100725,-0.0600587371512,0.139250797795,0.194462959676,0.369637827724,0.0,0.0,0.192342547428
tagged_abstract_sents/16932162.txt,14,0.0342465753425,0.0577826725404,0.139250797795,0.194462959676,0.369637827724,0.382315545039,0.058716848025,0.845395458009
tagged_abstract_sents/16932162.txt,15,0.0342465753425,0.00271659324523,0.139250797795,0.194462959676,0.369637827724,0.303383335158,0.0543276430069,0.883253671612
