tagged_abstract_sents/16941030.txt,2,0.206355591311,-0.0599812558575,0.194899689933,0.0581677376677,1.81937965332e-05,0.177714421785,0.019445413324,0.465148223253
tagged_abstract_sents/16941030.txt,3,0.0048270313757,-0.0648645982341,0.0616692308323,0.106008497564,1.81937965332e-05,0.109920126735,0.0237680003986,0.187213997272
tagged_abstract_sents/16941030.txt,4,0.0108608205953,-0.0632368174419,0.194899689933,0.0581677376677,1.81937965332e-05,0.0585284803164,4.3599581444e-05,0.169513539152
tagged_abstract_sents/16941030.txt,6,0.0518905872888,-0.0214571104425,0.139250797795,0.521468892835,1.81937965332e-05,0.242880343416,0.0148761771887,0.521043635095
tagged_abstract_sents/16941030.txt,7,0.0993563958166,-0.0399052927539,0.139250797795,0.521468892835,1.81937965332e-05,0.226375685562,0.0155616967616,0.539507507174
tagged_abstract_sents/16941030.txt,8,0.172566371681,-0.0133182064815,0.139250797795,0.521468892835,1.81937965332e-05,0.270266327503,0.018780519707,0.650502370007
tagged_abstract_sents/16941030.txt,9,0.206355591311,0.0116410989987,0.139250797795,0.521468892835,1.81937965332e-05,0.326934282803,0.0184251831182,0.738855866186
tagged_abstract_sents/16941030.txt,10,0.262268704747,0.0360578108815,0.139250797795,0.521468892835,1.81937965332e-05,0.413453444203,0.0209168991978,0.955496032635
tagged_abstract_sents/16941030.txt,11,0.262268704747,-0.0046367089232,0.139250797795,0.521468892835,1.81937965332e-05,0.33931876764,0.0193582141611,0.793648864358
