tagged_abstract_sents/16941030.txt,1,0.125905068383,0.164109899867,0.210342442448,0.226435992083,0.0659070771103,0.530032392182,0.0197857713469,0.922373294167
tagged_abstract_sents/16941030.txt,2,0.239742558327,-0.0599812558575,0.194899689933,0.13295610691,0.0,0.177714421785,0.019445413324,0.514294307638
tagged_abstract_sents/16941030.txt,3,0.218020917136,-0.0648645982341,0.0616692308323,0.142474783506,0.0,0.109920126735,0.0237680003986,0.368708991663
tagged_abstract_sents/16941030.txt,4,0.162510056315,-0.0632368174419,0.194899689933,0.13295610691,0.0,0.0585284803164,4.3599581444e-05,0.313269438501
tagged_abstract_sents/16941030.txt,5,0.101769911504,0.0555911803877,0.139250797795,0.0356431803763,1.25683410253e-05,0.456872038408,0.0197231588058,0.649460283846
tagged_abstract_sents/16941030.txt,6,0.0711987127916,-0.0214571104425,0.139250797795,0.0356431803763,0.0,0.242880343416,0.0148761771887,0.39074242176
tagged_abstract_sents/16941030.txt,7,0.0458567980692,-0.0399052927539,0.139250797795,0.0356431803763,0.0,0.226375685562,0.0155616967616,0.350960115239
tagged_abstract_sents/16941030.txt,8,0.0245374094932,-0.0133182064815,0.139250797795,0.0356431803763,0.0,0.270266327503,0.018780519707,0.386331486519
tagged_abstract_sents/16941030.txt,9,0.00844730490748,0.0116410989987,0.139250797795,0.0356431803763,1.7640667841e-05,0.326934282803,0.0184251831182,0.434781523326
tagged_abstract_sents/16941030.txt,10,0.00120675784393,0.0360578108815,0.139250797795,0.0356431803763,0.0780330965132,0.413453444203,0.0209168991978,0.600898761375
tagged_abstract_sents/16941030.txt,11,0.00120675784393,-0.0046367089232,0.139250797795,0.0356431803763,1.81937965332e-05,0.33931876764,0.0193582141611,0.439051593098
