tagged_abstract_sents/16988643.txt,1,0.125905068383,0.0677300046232,0.188769469584,0.202456734834,0.0964442320009,1.15856896123,0.00707910758846,1.53148411169
tagged_abstract_sents/16988643.txt,2,0.239742558327,-0.0466173524426,0.0616692308323,0.142474783506,0.221130510404,0.334552819633,0.0118437334276,0.823574690106
tagged_abstract_sents/16988643.txt,3,0.218020917136,0.0184671495351,0.188769469584,0.202456734834,0.24646224619,0.674434796511,0.00588834096298,1.26001730252
tagged_abstract_sents/16988643.txt,4,0.218020917136,0.0576616838753,0.188769469584,0.202456734834,0.0686613229222,0.809306238219,0.0112932144751,1.23033160134
tagged_abstract_sents/16988643.txt,5,0.162510056315,0.0997328812863,0.188769469584,0.202456734834,0.198591754858,0.706436314895,0.00588834096298,1.21599278727
tagged_abstract_sents/16988643.txt,6,0.101769911504,-0.0469769353264,0.0616692308323,0.142474783506,3.16040044386e-05,0.323922129299,0.000309351246244,0.469860677156
tagged_abstract_sents/16988643.txt,7,0.0852775543041,0.00767966301947,0.139250797795,0.0356431803763,0.435853249453,0.494777317648,0.00801367037888,1.08872056654
tagged_abstract_sents/16988643.txt,8,0.0711987127916,-0.0412236091848,0.139250797795,0.0356431803763,0.0648177763031,0.283955273739,0.000206234164162,0.478011885613
tagged_abstract_sents/16988643.txt,9,0.0458567980692,-0.0113782298248,0.139250797795,0.0356431803763,0.414616205058,0.380474179343,0.00935124624359,0.919169776146
tagged_abstract_sents/16988643.txt,10,0.0245374094932,-0.023244464992,0.139250797795,0.0356431803763,0.199389874074,0.623825535365,0.0143737846915,0.932888581737
tagged_abstract_sents/16988643.txt,11,0.0245374094932,-0.0268402938306,0.139250797795,0.0356431803763,0.21865999665,0.321464399516,0.0089201941774,0.643624812182
tagged_abstract_sents/16988643.txt,12,0.00844730490748,-0.0218061334566,0.139250797795,0.0356431803763,0.365342532046,0.383082714547,0.00682132495919,0.837961541798
tagged_abstract_sents/16988643.txt,13,0.00120675784393,-0.0113782298248,0.139250797795,0.0356431803763,0.414616205058,0.380474179343,0.00935124624359,0.883449743965
tagged_abstract_sents/16988643.txt,14,0.00120675784393,-0.0218061334566,0.139250797795,0.0356431803763,0.0,0.503932695141,0.00701343468269,0.587868662418
