tagged_abstract_sents/17015497.txt,1,0.125905068383,-0.0196313176927,0.0616692308323,0.142474783506,0.0,0.0,0.0,0.170374841636
tagged_abstract_sents/17015497.txt,2,0.125905068383,-0.0107468162119,0.188769469584,0.202456734834,0.0,0.0723728064977,0.023838326336,0.34990757954
tagged_abstract_sents/17015497.txt,3,0.125905068383,-0.00219137034159,0.188769469584,0.202456734834,0.165127359413,0.154135883549,0.0346680762962,0.609338855139
tagged_abstract_sents/17015497.txt,4,0.125905068383,-0.00564645425077,0.188769469584,0.202456734834,0.191726699446,0.164079561946,0.0315785047515,0.642101285242
tagged_abstract_sents/17015497.txt,5,0.239742558327,0.0131097155419,0.188769469584,0.202456734834,0.441375760054,0.140760477442,0.0319703977798,0.963644380289
tagged_abstract_sents/17015497.txt,6,0.239742558327,0.0238040228799,0.210342442448,0.226435992083,0.267710219631,0.181857607508,0.0366944187481,0.855919115974
tagged_abstract_sents/17015497.txt,7,0.239742558327,-0.0199603733031,0.0616692308323,0.142474783506,0.0,0.0,0.0,0.261379022469
tagged_abstract_sents/17015497.txt,8,0.239742558327,0.0213361058019,0.210342442448,0.226435992083,1.79882914755e-05,0.177933850559,0.0202405180389,0.56735564356
tagged_abstract_sents/17015497.txt,9,0.239742558327,0.00652860333396,0.0616692308323,0.142474783506,4.5525545204e-05,0.14110891073,0.0360777058279,0.4439089599
tagged_abstract_sents/17015497.txt,10,0.218020917136,0.00636407552876,0.0616692308323,0.142474783506,0.000120584336988,0.154463483422,0.0547801954712,0.458630862512
tagged_abstract_sents/17015497.txt,11,0.218020917136,0.00817388138595,0.0616692308323,0.142474783506,0.0078433741597,0.125309906841,0.0275509793669,0.410332820821
tagged_abstract_sents/17015497.txt,12,0.218020917136,-0.00827889913395,0.0616692308323,0.142474783506,0.000156151291477,0.11363927967,0.0282876478894,0.388421083201
tagged_abstract_sents/17015497.txt,13,0.218020917136,-0.00219137034159,0.0616692308323,0.142474783506,0.337211704345,0.114301995919,0.0378815911193,0.736950801492
tagged_abstract_sents/17015497.txt,14,0.218020917136,0.00159276917799,0.0616692308323,0.142474783506,0.421169909965,0.0908991134555,0.0351526364477,0.795533997881
tagged_abstract_sents/17015497.txt,15,0.162510056315,-0.00663362108196,0.0616692308323,0.142474783506,2.85715140744e-05,0.0999662806079,0.019368640148,0.321621863574
tagged_abstract_sents/17015497.txt,16,0.162510056315,-0.00811437132875,0.0616692308323,0.142474783506,0.0749668266189,0.0470894990606,0.0457909343201,0.369809481254
tagged_abstract_sents/17015497.txt,17,0.162510056315,-0.00564645425077,0.0616692308323,0.142474783506,0.232861658481,0.0617725907964,0.0390663915178,0.536156445465
tagged_abstract_sents/17015497.txt,18,0.162510056315,-0.00383664839358,0.0616692308323,0.142474783506,7.50917686906e-05,0.145365891034,0.0346060045412,0.382864753186
tagged_abstract_sents/17015497.txt,19,0.101769911504,0.00142824137279,0.0616692308323,0.142474783506,0.00720138658502,0.134221916692,0.0341434698511,0.330845401074
tagged_abstract_sents/17015497.txt,20,0.101769911504,0.0136032989575,0.0616692308323,0.142474783506,0.00316968024925,0.17036025704,0.0236077705828,0.354851347335
tagged_abstract_sents/17015497.txt,21,0.101769911504,0.0290689126462,0.0616692308323,0.142474783506,0.0668689684747,0.172131886147,0.031991982732,0.431799599554
tagged_abstract_sents/17015497.txt,22,0.101769911504,0.00109918576239,0.0616692308323,0.142474783506,0.165415794812,0.131182552929,0.0392424168655,0.49105358143
tagged_abstract_sents/17015497.txt,23,0.101769911504,-0.0100887049911,0.0616692308323,0.142474783506,0.0,0.087093625009,0.0383595436324,0.278428407315
tagged_abstract_sents/17015497.txt,24,0.0711987127916,0.0111353818795,0.139250797795,0.0356431803763,0.0123162697635,0.136900199867,0.0321847055196,0.32090557477
tagged_abstract_sents/17015497.txt,25,0.0711987127916,0.00669313113916,0.139250797795,0.0356431803763,0.320217890912,0.176810610559,0.0479968689959,0.683641319938
tagged_abstract_sents/17015497.txt,26,0.0711987127916,0.00619954772357,0.139250797795,0.0356431803763,0.00587383354734,0.195737725221,0.0363328973811,0.376461688938
tagged_abstract_sents/17015497.txt,27,0.0711987127916,-0.0199603733031,0.0616692308323,0.142474783506,0.0,0.0,0.0,0.126543946041
tagged_abstract_sents/17015497.txt,28,0.0711987127916,-0.0102532327963,0.139250797795,0.0356431803763,0.207283062649,0.0883322576431,0.0372670807453,0.468109077722
tagged_abstract_sents/17015497.txt,29,0.0458567980692,-0.00186231473119,0.139250797795,0.0356431803763,0.159733468364,0.19018998391,0.0336451159763,0.500199896769
tagged_abstract_sents/17015497.txt,30,0.0458567980692,-0.0125566220691,0.139250797795,0.0356431803763,0.186592658065,0.100016738112,0.0451301704771,0.446232033705
tagged_abstract_sents/17015497.txt,31,0.0458567980692,-0.00153325912079,0.139250797795,0.0356431803763,0.296047710152,0.148766560531,0.0515395797542,0.613050990079
tagged_abstract_sents/17015497.txt,32,0.0458567980692,0.00257993600919,0.139250797795,0.0356431803763,0.119372640712,0.0990018486829,0.0277520814061,0.363646349469
tagged_abstract_sents/17015497.txt,33,0.0245374094932,-0.00367212058838,0.139250797795,0.0356431803763,1.56572254818e-05,0.108896455051,0.0409207161125,0.249046684877
tagged_abstract_sents/17015497.txt,34,0.0245374094932,-0.000546092289597,0.139250797795,0.0356431803763,0.279808692324,0.126004058922,0.0357693493679,0.541421162761
tagged_abstract_sents/17015497.txt,35,0.0245374094932,-0.00235589814679,0.139250797795,0.0356431803763,0.281357761873,0.0675979203885,0.0248447204969,0.473277503734
tagged_abstract_sents/17015497.txt,36,0.0245374094932,-5.25088739997e-05,0.139250797795,0.0356431803763,0.187606679001,0.0977127417718,0.0435360777058,0.428793277309
tagged_abstract_sents/17015497.txt,37,0.0245374094932,0.00850293699635,0.139250797795,0.0356431803763,0.268566844317,0.133432433673,0.0368706224395,0.540518768434
tagged_abstract_sents/17015497.txt,38,0.00844730490748,0.00109918576239,0.139250797795,0.0356431803763,0.19280358972,0.131486618387,0.0354341793026,0.447020421499
tagged_abstract_sents/17015497.txt,39,0.00844730490748,-0.00136873131559,0.139250797795,0.0356431803763,0.0,0.135371568428,0.025153076957,0.247327096058
tagged_abstract_sents/17015497.txt,40,0.00844730490748,0.00175729698319,0.139250797795,0.0356431803763,0.19153753177,0.123037167036,0.0282987133126,0.430301068451
tagged_abstract_sents/17015497.txt,41,0.00844730490748,0.00323804722998,0.139250797795,0.0356431803763,0.196296212498,0.108955880389,0.0466429719071,0.439618871176
tagged_abstract_sents/17015497.txt,42,0.00844730490748,-0.0193022620823,0.139250797795,0.0356431803763,0.0,0.0,0.0,0.0832157445198
tagged_abstract_sents/17015497.txt,43,0.00120675784393,-0.00120420351039,0.139250797795,0.0356431803763,0.176181852301,0.159710366143,0.0437095282146,0.460644665242
tagged_abstract_sents/17015497.txt,44,0.00120675784393,-0.00597550986117,0.139250797795,0.0356431803763,0.168319145912,0.137459161317,0.0447928331467,0.430659797689
tagged_abstract_sents/17015497.txt,45,0.00120675784393,-0.0100887049911,0.139250797795,0.0356431803763,0.37977686957,0.0910942566516,0.0297110518583,0.579848196367
tagged_abstract_sents/17015497.txt,46,0.00120675784393,-5.25088739997e-05,0.139250797795,0.0356431803763,0.169657284624,0.135770459829,0.0382898282589,0.424990830222
tagged_abstract_sents/17015497.txt,47,0.00120675784393,0.0264364677631,0.139250797795,0.0356431803763,0.116637485505,0.227894343954,0.0378383217451,0.468941204042
