tagged_abstract_sents/17053529.txt,1,0.206355591311,-0.0662148070907,0.0616692308323,0.106008497564,0.307179313265,0.0,0.0,0.214478676316
tagged_abstract_sents/17053529.txt,3,0.0048270313757,-0.0672575599583,0.0616692308323,0.106008497564,0.307179313265,0.0,0.0,0.0530472777942
tagged_abstract_sents/17053529.txt,4,0.0048270313757,0.014598540146,0.0616692308323,0.106008497564,0.307179313265,0.373378967126,0.040506885438,0.619794197681
tagged_abstract_sents/17053529.txt,5,0.0108608205953,0.0323253388947,0.0616692308323,0.106008497564,0.307179313265,0.361021936005,0.0320714913566,0.743141468792
tagged_abstract_sents/17053529.txt,6,0.0261464199517,-0.0672575599583,0.0616692308323,0.106008497564,0.307179313265,0.0,0.0,0.070102788655
tagged_abstract_sents/17053529.txt,8,0.0518905872888,0.102711157456,0.139250797795,0.521468892835,0.307179313265,0.444408648402,0.0347066228256,0.863229181915
tagged_abstract_sents/17053529.txt,9,0.0993563958166,0.0250260688217,0.139250797795,0.521468892835,0.307179313265,0.243222728283,0.0416573309664,0.660572422838
tagged_abstract_sents/17053529.txt,10,0.172566371681,0.0114702815433,0.139250797795,0.521468892835,0.307179313265,0.425174015195,0.0313197277378,1.06911963965
tagged_abstract_sents/17053529.txt,11,0.172566371681,-0.0656934306569,0.139250797795,0.521468892835,0.307179313265,0.0,0.0,0.350980477962
tagged_abstract_sents/17053529.txt,12,0.206355591311,-0.0172054223149,0.139250797795,0.521468892835,0.307179313265,0.297912036069,0.0311579564205,0.891202487585
tagged_abstract_sents/17053529.txt,13,0.262268704747,-0.029197080292,0.139250797795,0.521468892835,0.307179313265,0.241965776624,0.0171963599386,0.916243903067
tagged_abstract_sents/17053529.txt,14,0.262268704747,-0.0302398331595,0.139250797795,0.521468892835,0.307179313265,0.27733899386,0.0299508415535,1.04430221259
