tagged_abstract_sents/17054180.txt,1,0.0954875100725,-0.0207538245751,0.0616692308323,0.247294108221,0.0947882508095,0.0,0.0,0.177262091025
tagged_abstract_sents/17054180.txt,2,0.0954875100725,-0.00299279120592,0.188769469584,0.123191979006,0.0947882508095,0.398363233152,0.0527928666598,1.06898330357
tagged_abstract_sents/17054180.txt,3,0.0954875100725,-0.00388981309326,0.188769469584,0.123191979006,0.0947882508095,0.48078503612,0.0545383247702,1.25894574315
tagged_abstract_sents/17054180.txt,5,0.0253827558421,-0.0207538245751,0.0616692308323,0.247294108221,0.0947882508095,0.0,0.0,0.121178287641
tagged_abstract_sents/17054180.txt,6,0.0253827558421,0.00651564079982,0.139250797795,0.194462959676,0.0947882508095,0.580256121388,0.0639501423041,1.26290522569
tagged_abstract_sents/17054180.txt,7,0.0253827558421,0.00543921453502,0.139250797795,0.194462959676,0.0947882508095,0.405623466853,0.05657989136,0.6168953665
tagged_abstract_sents/17054180.txt,8,0.0253827558421,0.00490100140262,0.139250797795,0.194462959676,0.0947882508095,0.359455897485,0.0621578030348,0.910358969915
tagged_abstract_sents/17054180.txt,9,0.0805801772764,-0.0198568026878,0.0616692308323,0.247294108221,0.0947882508095,0.0,0.0,0.165515629166
tagged_abstract_sents/17054180.txt,10,0.0805801772764,-0.0090925400398,0.0616692308323,0.247294108221,0.0947882508095,0.329507984958,0.0539039844697,0.579086128165
tagged_abstract_sents/17054180.txt,11,0.0805801772764,0.0253531004338,0.0616692308323,0.247294108221,0.0947882508095,0.424006970531,0.0643999180076,0.667375846441
tagged_abstract_sents/17054180.txt,12,0.0805801772764,-0.0193185895554,0.0616692308323,0.247294108221,0.0947882508095,0.0,0.0,0.165623271793
tagged_abstract_sents/17054180.txt,13,0.0805801772764,5.70832110122e-05,0.194899689933,0.293363477728,0.0947882508095,0.472627720785,0.0627847605915,0.941264657415
tagged_abstract_sents/17054180.txt,14,0.123690572119,-0.00945134879473,0.0616692308323,0.247294108221,0.0947882508095,0.404755349882,0.0555652352157,0.662405620916
tagged_abstract_sents/17054180.txt,15,0.123690572119,-0.0175245457807,0.0616692308323,0.247294108221,0.0947882508095,0.0,0.0,0.200470396422
tagged_abstract_sents/17054180.txt,16,0.123690572119,0.000774700720879,0.0616692308323,0.247294108221,0.0947882508095,0.456115790638,0.0506209993757,0.710867035735
tagged_abstract_sents/17054180.txt,17,0.123690572119,-0.00765730502006,0.0616692308323,0.247294108221,0.0947882508095,0.430982114653,0.0512110963069,1.1388743889
tagged_abstract_sents/17054180.txt,18,0.140209508461,-0.0126806275891,0.0616692308323,0.247294108221,0.0947882508095,0.250369856758,0.088449318438,0.553473504329
tagged_abstract_sents/17054180.txt,19,0.140209508461,-0.0203950158202,0.0616692308323,0.247294108221,0.0947882508095,0.0,0.0,0.213111451487
tagged_abstract_sents/17054180.txt,20,0.140209508461,-0.00855432690739,0.0616692308323,0.247294108221,0.0947882508095,0.523041463423,0.0790671654539,0.849111958141
tagged_abstract_sents/17054180.txt,21,0.140209508461,-0.00550445249046,0.0616692308323,0.247294108221,0.0947882508095,0.464709276442,0.0429388690637,1.01722014688
tagged_abstract_sents/17054180.txt,22,0.149073327961,-0.00873373128486,0.0616692308323,0.247294108221,0.0947882508095,0.530363932032,0.0766543678043,0.862228424212
tagged_abstract_sents/17054180.txt,23,0.149879129734,-0.00711909188766,0.0616692308323,0.247294108221,0.0947882508095,0.485412899819,0.0793136862113,0.794592604808
tagged_abstract_sents/17054180.txt,24,0.149879129734,-0.0159099063835,0.0616692308323,0.247294108221,0.0947882508095,0.222614379024,0.036391455219,0.480750004636
tagged_abstract_sents/17054180.txt,25,0.149879129734,0.00238934011808,0.139250797795,0.194462959676,0.0947882508095,0.410875642521,0.0589972700252,0.915337289098
tagged_abstract_sents/17054180.txt,26,0.149879129734,-0.00137815180872,0.139250797795,0.194462959676,0.0947882508095,0.515964562891,0.0584507889542,0.934479176849
tagged_abstract_sents/17054180.txt,27,0.176470588235,0.0199709691098,0.139250797795,0.194462959676,0.0947882508095,0.520755974829,0.0535985998218,1.03532416673
tagged_abstract_sents/17054180.txt,28,0.176470588235,0.0400642593861,0.139250797795,0.194462959676,0.0947882508095,0.419610667704,0.0564303483746,0.924001440333
tagged_abstract_sents/17054180.txt,29,0.176470588235,-0.00245457807352,0.139250797795,0.194462959676,0.0947882508095,0.469589614656,0.0616523179939,0.906041448426
tagged_abstract_sents/17054180.txt,30,0.176470588235,0.0214062041296,0.139250797795,0.194462959676,0.0947882508095,0.579302470709,0.0583702489001,1.11786677853
tagged_abstract_sents/17054180.txt,31,0.166800966962,-0.00263398245099,0.139250797795,0.194462959676,0.0947882508095,0.559888926644,0.0741676587223,0.99393226274
tagged_abstract_sents/17054180.txt,32,0.166800966962,0.0126153896337,0.139250797795,0.194462959676,0.0947882508095,0.571072134786,0.0545029941873,1.02927641106
tagged_abstract_sents/17054180.txt,33,0.166800966962,-0.0119630100793,0.139250797795,0.194462959676,0.0947882508095,0.373163799379,0.051870991407,0.848219218512
tagged_abstract_sents/17054180.txt,34,0.166800966962,0.0251736960564,0.139250797795,0.194462959676,0.0947882508095,0.771849911987,0.056595264938,1.32856745484
tagged_abstract_sents/17054180.txt,35,0.166800966962,-0.0108865838145,0.139250797795,0.194462959676,0.0947882508095,0.271081111912,0.056684090055,0.617969029471
tagged_abstract_sents/17054180.txt,36,0.0954875100725,0.00292755325048,0.139250797795,0.194462959676,0.0947882508095,0.519866037877,0.0661464901453,1.11763073416
tagged_abstract_sents/17054180.txt,37,0.0954875100725,0.0291205923606,0.139250797795,0.194462959676,0.0947882508095,0.584445417587,0.0488623552321,1.16533470055
tagged_abstract_sents/17054180.txt,38,0.0954875100725,0.0133330071436,0.139250797795,0.194462959676,0.0947882508095,0.731796822596,0.0515828756428,1.11211553349
tagged_abstract_sents/17054180.txt,39,0.0954875100725,5.70832110122e-05,0.139250797795,0.194462959676,0.0947882508095,0.388630892372,0.0602234293328,0.816196650573
tagged_abstract_sents/17054180.txt,40,0.0342465753425,0.00346576638288,0.139250797795,0.194462959676,0.0947882508095,0.464709843684,0.0548078302757,0.675576693366
tagged_abstract_sents/17054180.txt,41,0.0342465753425,-0.0189597808005,0.139250797795,0.194462959676,0.0947882508095,0.0,0.0,0.151569590914
tagged_abstract_sents/17054180.txt,42,0.0342465753425,0.00113350947581,0.139250797795,0.194462959676,0.0947882508095,0.618174425922,0.0689522052543,0.951433127441
tagged_abstract_sents/17054180.txt,43,0.0342465753425,0.0176387122028,0.139250797795,0.194462959676,0.0947882508095,0.851043280524,0.0547920529472,1.40479221249
tagged_abstract_sents/17054180.txt,44,0.0342465753425,0.0178181165802,0.139250797795,0.194462959676,0.0947882508095,0.592753390623,0.0597823405039,0.906249152327
