tagged_abstract_sents/17133159.txt,1,0.206355591311,-0.0602150537634,0.0616692308323,0.106008497564,0.418581380518,0.0,0.0,0.215678626982
tagged_abstract_sents/17133159.txt,3,0.0048270313757,0.0787878787879,0.188769469584,0.129715814208,0.418581380518,0.262208740893,0.0619833999173,0.924021521193
tagged_abstract_sents/17133159.txt,4,0.0048270313757,-0.0608015640274,0.0616692308323,0.106008497564,0.418581380518,0.0,0.0,0.0543384769804
tagged_abstract_sents/17133159.txt,5,0.0108608205953,0.0389051808407,0.0616692308323,0.106008497564,0.418581380518,0.212837745956,0.0803852909386,0.718145348142
tagged_abstract_sents/17133159.txt,6,0.016894609815,-0.0619745845552,0.0616692308323,0.106008497564,0.418581380518,0.0,0.0,0.0637579356262
tagged_abstract_sents/17133159.txt,7,0.0261464199517,0.0254154447703,0.0616692308323,0.106008497564,0.418581380518,0.180841836555,0.0596274882904,0.78372095589
tagged_abstract_sents/17133159.txt,8,0.0518905872888,0.010752688172,0.139250797795,0.521468892835,0.418581380518,0.183981984182,0.0752341920375,0.934032741712
tagged_abstract_sents/17133159.txt,9,0.0683829444891,0.0840664711632,0.139250797795,0.521468892835,0.418581380518,0.250402831748,0.085933368588,0.971686423587
tagged_abstract_sents/17133159.txt,10,0.0993563958166,0.0383186705767,0.139250797795,0.521468892835,0.418581380518,0.187343425821,0.0724043715847,0.870896506038
tagged_abstract_sents/17133159.txt,11,0.172566371681,-0.0619745845552,0.0616692308323,0.106008497564,0.418581380518,0.0,0.0,0.188295345119
tagged_abstract_sents/17133159.txt,13,0.206355591311,-0.0250244379277,0.139250797795,0.521468892835,0.418581380518,0.0697045552493,0.0510943974059,0.68878838736
tagged_abstract_sents/17133159.txt,14,0.262268704747,-0.0596285434995,0.139250797795,0.521468892835,0.418581380518,0.0,0.0,0.423955321845
tagged_abstract_sents/17133159.txt,15,0.262268704747,-0.00273704789834,0.139250797795,0.521468892835,0.418581380518,0.177921476717,0.0890262401533,1.12086271835
