tagged_abstract_sents/17186396.txt,1,0.0954875100725,-0.0604972892129,0.0616692308323,0.247294108221,0.317783793194,0.0,0.0,0.169313398098
tagged_abstract_sents/17186396.txt,2,0.0253827558421,0.0230697326603,0.188769469584,0.123191979006,0.317783793194,0.172333586386,0.106133959671,0.608133994409
tagged_abstract_sents/17186396.txt,3,0.0451248992748,-0.054888764255,0.0616692308323,0.247294108221,0.317783793194,0.0,0.0,0.130145014451
tagged_abstract_sents/17186396.txt,5,0.123690572119,-0.0419891568517,0.0616692308323,0.247294108221,0.317783793194,0.0753270604976,0.0773141871071,0.348272913121
tagged_abstract_sents/17186396.txt,6,0.131345688961,-0.0375023368854,0.0616692308323,0.247294108221,0.317783793194,0.0936718051159,0.0736842105263,0.370011890893
tagged_abstract_sents/17186396.txt,7,0.140209508461,-0.0621798467003,0.139250797795,0.194462959676,0.317783793194,0.0,0.0,0.227695924229
tagged_abstract_sents/17186396.txt,8,0.149879129734,0.0600859973827,0.139250797795,0.194462959676,0.317783793194,0.194056006765,0.0985364138945,0.631510774152
tagged_abstract_sents/17186396.txt,9,0.150684931507,0.0443821275005,0.139250797795,0.194462959676,0.317783793194,0.15392300273,0.0853915012942,0.602000651767
tagged_abstract_sents/17186396.txt,10,0.176470588235,-0.00833800710413,0.139250797795,0.194462959676,0.317783793194,0.115784497679,0.0972480813769,0.63378007252
tagged_abstract_sents/17186396.txt,11,0.166800966962,0.0101701252571,0.139250797795,0.194462959676,0.317783793194,0.147962121959,0.0789767824927,0.490416130352
tagged_abstract_sents/17186396.txt,12,0.131345688961,-0.0599364367171,0.0616692308323,0.247294108221,0.317783793194,0.0,0.0,0.198112111707
tagged_abstract_sents/17186396.txt,13,0.0954875100725,-0.016750794541,0.139250797795,0.194462959676,0.317783793194,0.123622210598,0.0942736478816,0.69481240049
tagged_abstract_sents/17186396.txt,14,0.0342465753425,0.00960927276126,0.139250797795,0.194462959676,0.317783793194,0.139943753155,0.0902423719507,0.530611008554
tagged_abstract_sents/17186396.txt,15,0.0342465753425,0.0281174051225,0.139250797795,0.194462959676,0.317783793194,0.215962467082,0.108556226632,0.803287515007
