tagged_abstract_sents/17197574.txt,1,0.0954875100725,-0.0449633699634,0.0616692308323,0.247294108221,0.254021406973,0.0,0.0,0.172420181948
tagged_abstract_sents/17197574.txt,2,0.00564061240935,-0.00512820512821,0.188769469584,0.123191979006,0.254021406973,0.219437699076,0.0608802762259,0.415181965717
tagged_abstract_sents/17197574.txt,3,0.0253827558421,-0.0032967032967,0.188769469584,0.123191979006,0.254021406973,0.233520517581,0.0535136724493,0.697525149706
tagged_abstract_sents/17197574.txt,5,0.0805801772764,-0.0440476190476,0.0616692308323,0.247294108221,0.254021406973,0.0,0.0,0.160677465894
tagged_abstract_sents/17197574.txt,6,0.116035455278,-0.0371794871795,0.0616692308323,0.247294108221,0.254021406973,0.131476418184,0.0320574371508,0.353949170004
tagged_abstract_sents/17197574.txt,7,0.123690572119,-0.046336996337,0.0616692308323,0.247294108221,0.254021406973,0.0,0.0,0.194707906311
tagged_abstract_sents/17197574.txt,8,0.131345688961,0.0658424908425,0.210342442448,0.141687475369,0.254021406973,0.377955048115,0.0556266811504,0.829172262798
tagged_abstract_sents/17197574.txt,9,0.140209508461,-0.0321428571429,0.0616692308323,0.247294108221,0.254021406973,0.0889630345642,0.0147084497207,0.314433367508
tagged_abstract_sents/17197574.txt,10,0.149073327961,-0.00879120879121,0.0616692308323,0.247294108221,0.254021406973,0.14809469033,0.0362816739824,0.71962767755
tagged_abstract_sents/17197574.txt,11,0.149879129734,0.00448717948718,0.0616692308323,0.247294108221,0.254021406973,0.174060806104,0.0488499476257,0.701461739769
tagged_abstract_sents/17197574.txt,12,0.150684931507,-0.0119963369963,0.0616692308323,0.247294108221,0.254021406973,0.181324032969,0.0508685405028,0.725172685608
tagged_abstract_sents/17197574.txt,13,0.176470588235,-0.046336996337,0.0616692308323,0.247294108221,0.254021406973,0.0,0.0,0.236931919203
tagged_abstract_sents/17197574.txt,14,0.202256244964,0.121703296703,0.139250797795,0.194462959676,0.254021406973,0.40877978523,0.0484943893277,0.826015972179
tagged_abstract_sents/17197574.txt,15,0.166800966962,0.0850732600733,0.139250797795,0.194462959676,0.254021406973,0.32396246086,0.0398226547952,0.711899925946
tagged_abstract_sents/17197574.txt,16,0.131345688961,-0.0449633699634,0.0616692308323,0.247294108221,0.254021406973,0.0,0.0,0.201106725058
tagged_abstract_sents/17197574.txt,17,0.0954875100725,0.0145604395604,0.139250797795,0.194462959676,0.254021406973,0.337672924092,0.0451012569832,0.771604728321
tagged_abstract_sents/17197574.txt,18,0.0342465753425,-0.0413003663004,0.0616692308323,0.247294108221,0.254021406973,0.0,0.0,0.124160034896
tagged_abstract_sents/17197574.txt,19,0.0342465753425,0.0475274725275,0.139250797795,0.194462959676,0.254021406973,0.322285614791,0.0478124240952,0.730353149507
tagged_abstract_sents/17197574.txt,20,0.0342465753425,0.000824175824176,0.139250797795,0.194462959676,0.254021406973,0.213803781865,0.0425783674736,0.665929938551
