tagged_abstract_sents/17243048.txt,1,0.0954875100725,-0.0531998075304,0.0616692308323,0.247294108221,0.315976861765,0.0,0.0,0.170772894434
tagged_abstract_sents/17243048.txt,2,0.0253827558421,-3.00733790449e-05,0.188769469584,0.123191979006,0.315976861765,0.12924476788,0.026935483871,0.460926801712
tagged_abstract_sents/17243048.txt,4,0.0805801772764,-0.0266149404547,0.0616692308323,0.247294108221,0.315976861765,0.0929988224708,0.0435850439883,0.671514619971
tagged_abstract_sents/17243048.txt,5,0.0805801772764,-0.0547335498617,0.0616692308323,0.247294108221,0.315976861765,0.0,0.0,0.158540279731
tagged_abstract_sents/17243048.txt,6,0.123690572119,0.0378022374594,0.210342442448,0.141687475369,0.315976861765,0.228042171828,0.0262107882342,0.755632510589
tagged_abstract_sents/17243048.txt,7,0.140209508461,-0.0547335498617,0.139250797795,0.194462959676,0.315976861765,0.0,0.0,0.229185183597
tagged_abstract_sents/17243048.txt,8,0.140209508461,-0.0199687236858,0.139250797795,0.194462959676,0.315976861765,0.0918808949451,0.0214442815249,0.555328816128
tagged_abstract_sents/17243048.txt,9,0.149879129734,0.00252616383977,0.139250797795,0.194462959676,0.315976861765,0.100198209744,0.0301319648094,0.554053611921
tagged_abstract_sents/17243048.txt,10,0.149879129734,0.106820642367,0.139250797795,0.194462959676,0.315976861765,0.26652278883,0.0310892333473,0.653433472206
tagged_abstract_sents/17243048.txt,11,0.176470588235,0.0229760615903,0.139250797795,0.194462959676,0.315976861765,0.199483944021,0.0228964583803,0.624386521212
tagged_abstract_sents/17243048.txt,12,0.166800966962,0.0378022374594,0.139250797795,0.194462959676,0.315976861765,0.196385580984,0.0319752827817,0.62215494637
tagged_abstract_sents/17243048.txt,13,0.166800966962,0.0178635871527,0.139250797795,0.194462959676,0.315976861765,0.192892201983,0.0295792916761,0.756167135762
tagged_abstract_sents/17243048.txt,14,0.0954875100725,-0.0353061469987,0.139250797795,0.194462959676,0.315976861765,0.0668035174893,0.031830400782,0.690635529841
tagged_abstract_sents/17243048.txt,15,0.0954875100725,-0.0526885600866,0.0616692308323,0.247294108221,0.315976861765,0.0,0.0,0.170875143923
tagged_abstract_sents/17243048.txt,16,0.0342465753425,0.021442319259,0.139250797795,0.194462959676,0.315976861765,0.182547641659,0.0271966981644,0.665559649558
tagged_abstract_sents/17243048.txt,17,0.0342465753425,0.0173523397089,0.139250797795,0.194462959676,0.315976861765,0.180124347435,0.0398299120235,0.69476313624
