tagged_abstract_sents/17253478.txt,1,0.0954875100725,-0.0376403123475,0.0616692308323,0.247294108221,0.490939900656,0.0,0.0,0.173884793471
tagged_abstract_sents/17253478.txt,2,0.0954875100725,-0.0208028306491,0.188769469584,0.123191979006,0.490939900656,0.106434265502,0.0302052785924,0.890851735713
tagged_abstract_sents/17253478.txt,3,0.0253827558421,0.0161664226452,0.188769469584,0.123191979006,0.490939900656,0.150556987466,0.051047339757,0.717213118268
tagged_abstract_sents/17253478.txt,4,0.0253827558421,-0.0376403123475,0.0616692308323,0.247294108221,0.490939900656,0.0,0.0,0.117800990087
tagged_abstract_sents/17253478.txt,6,0.0805801772764,-0.0358101512933,0.0616692308323,0.247294108221,0.490939900656,0.0,0.0,0.162324959445
tagged_abstract_sents/17253478.txt,7,0.0805801772764,0.0593582235237,0.0616692308323,0.247294108221,0.490939900656,0.0866505788462,0.0428836754643,0.434923117383
tagged_abstract_sents/17253478.txt,8,0.123690572119,-0.0347120546608,0.0616692308323,0.247294108221,0.490939900656,0.0,0.0,0.197032894646
tagged_abstract_sents/17253478.txt,9,0.123690572119,0.0443509028795,0.0616692308323,0.247294108221,0.490939900656,0.195612351213,0.0525941800135,0.858583903997
tagged_abstract_sents/17253478.txt,10,0.140209508461,0.0348340653978,0.194899689933,0.293363477728,0.490939900656,0.150290592608,0.0476319648094,0.719339248489
tagged_abstract_sents/17253478.txt,11,0.140209508461,-0.0310517325525,0.0616692308323,0.247294108221,0.490939900656,0.0,0.0,0.210980108141
tagged_abstract_sents/17253478.txt,12,0.149073327961,-0.0240971205466,0.0616692308323,0.247294108221,0.490939900656,0.157805412689,0.0546432062561,0.820808577473
tagged_abstract_sents/17253478.txt,13,0.149879129734,-0.0369082479258,0.0616692308323,0.247294108221,0.490939900656,0.0,0.0,0.217544502085
tagged_abstract_sents/17253478.txt,14,0.149879129734,-0.0255612493899,0.0616692308323,0.247294108221,0.490939900656,0.064736227557,0.0472629521017,0.451872196969
tagged_abstract_sents/17253478.txt,15,0.176470588235,-0.00323328452904,0.139250797795,0.194462959676,0.490939900656,0.123439268487,0.0588302378625,0.717913251505
tagged_abstract_sents/17253478.txt,16,0.176470588235,0.110602733041,0.139250797795,0.194462959676,0.490939900656,0.179221694994,0.0571337498406,0.609223403966
tagged_abstract_sents/17253478.txt,17,0.166800966962,0.0615544167887,0.139250797795,0.194462959676,0.490939900656,0.122338599852,0.0514662756598,0.56117446832
tagged_abstract_sents/17253478.txt,18,0.166800966962,-0.0219009272816,0.139250797795,0.194462959676,0.490939900656,0.0432189383938,0.016715542522,0.696863388707
tagged_abstract_sents/17253478.txt,19,0.166800966962,-0.0134821864324,0.139250797795,0.194462959676,0.490939900656,0.112387039573,0.0538123167155,0.730211211305
tagged_abstract_sents/17253478.txt,20,0.0954875100725,0.0267813567594,0.139250797795,0.194462959676,0.490939900656,0.138377574904,0.0692004939034,0.585092194178
tagged_abstract_sents/17253478.txt,21,0.0954875100725,0.00152513421181,0.139250797795,0.194462959676,0.490939900656,0.133673144804,0.0449683593147,0.746621493453
tagged_abstract_sents/17253478.txt,22,0.0342465753425,-0.00359931673987,0.139250797795,0.194462959676,0.490939900656,0.0779916747407,0.0226595984661,0.665327508304
tagged_abstract_sents/17253478.txt,23,0.0342465753425,-0.0339799902391,0.0616692308323,0.247294108221,0.490939900656,0.0,0.0,0.125624110109
tagged_abstract_sents/17253478.txt,24,0.0342465753425,0.00298926305515,0.139250797795,0.194462959676,0.490939900656,0.145917250886,0.0500879765396,0.842904527766
