tagged_abstract_sents/1728471.txt,1,0.0954875100725,-0.0850046357293,0.0616692308323,0.247294108221,0.269774295885,0.0,0.0,0.164411928795
tagged_abstract_sents/1728471.txt,3,0.0805801772764,0.0185917142439,0.188769469584,0.123191979006,0.269774295885,0.234844165892,0.039681085044,0.716269123643
tagged_abstract_sents/1728471.txt,4,0.123690572119,-0.0801737178549,0.0616692308323,0.247294108221,0.269774295885,0.0,0.0,0.187940562007
tagged_abstract_sents/1728471.txt,5,0.140209508461,0.00624603523154,0.139250797795,0.194462959676,0.269774295885,0.214001339782,0.0473000303367,0.738424754232
tagged_abstract_sents/1728471.txt,6,0.149879129734,0.0942760942761,0.139250797795,0.194462959676,0.269774295885,0.188188427033,0.0317421527099,0.678789396837
tagged_abstract_sents/1728471.txt,7,0.176470588235,0.0524081393647,0.139250797795,0.194462959676,0.269774295885,0.139573835582,0.0257575757576,0.675326357843
tagged_abstract_sents/1728471.txt,8,0.166800966962,0.044356609574,0.139250797795,0.194462959676,0.269774295885,0.18901469689,0.0257738677094,0.795519306222
tagged_abstract_sents/1728471.txt,9,0.0954875100725,-0.0474308300395,0.139250797795,0.194462959676,0.269774295885,0.12806988122,0.0472947214076,0.605344851299
tagged_abstract_sents/1728471.txt,10,0.0342465753425,-0.0844678670766,0.0616692308323,0.247294108221,0.269774295885,0.0,0.0,0.115526534741
tagged_abstract_sents/1728471.txt,11,0.0342465753425,0.023959400771,0.139250797795,0.194462959676,0.269774295885,0.226330243202,0.0448191593353,0.701077125651
