tagged_abstract_sents/17636675.txt,1,0.0954875100725,-0.0405569497288,0.0616692308323,0.247294108221,8.98102788292e-05,0.0,0.0,0.173301465995
tagged_abstract_sents/17636675.txt,2,0.0954875100725,-0.00627377964867,0.188769469584,0.123191979006,8.98102788292e-05,0.12222506961,0.0438802284303,0.547218947042
tagged_abstract_sents/17636675.txt,3,0.0253827558421,0.00797377155347,0.188769469584,0.123191979006,8.98102788292e-05,0.140275598797,0.0488828375925,0.463626502058
tagged_abstract_sents/17636675.txt,4,0.0253827558421,-0.0165142070752,0.0616692308323,0.247294108221,8.98102788292e-05,0.0786758718743,0.0362170087977,0.237018607273
tagged_abstract_sents/17636675.txt,5,0.0805801772764,-0.0405569497288,0.0616692308323,0.247294108221,8.98102788292e-05,0.0,0.0,0.161375599758
tagged_abstract_sents/17636675.txt,7,0.123690572119,-0.0383307698535,0.0616692308323,0.247294108221,8.98102788292e-05,0.0,0.0,0.196309151607
tagged_abstract_sents/17636675.txt,8,0.123690572119,0.00797377155347,0.0616692308323,0.247294108221,8.98102788292e-05,0.108743508081,0.0566499913748,0.601100177146
tagged_abstract_sents/17636675.txt,9,0.140209508461,0.0101999514288,0.0616692308323,0.247294108221,8.98102788292e-05,0.141862532978,0.063133640553,0.424308744498
tagged_abstract_sents/17636675.txt,10,0.140209508461,-0.0369950619283,0.0616692308323,0.247294108221,8.98102788292e-05,0.0,0.0,0.209791442266
tagged_abstract_sents/17636675.txt,11,0.149073327961,0.0956852586416,0.0616692308323,0.247294108221,8.98102788292e-05,0.211723187402,0.0553696025887,0.722245634186
tagged_abstract_sents/17636675.txt,12,0.149879129734,-0.0325427021776,0.0616692308323,0.247294108221,8.98102788292e-05,0.0,0.0,0.218417611234
tagged_abstract_sents/17636675.txt,13,0.149879129734,0.000404759977333,0.0616692308323,0.247294108221,8.98102788292e-05,0.173784484936,0.0623167155425,0.676293352523
tagged_abstract_sents/17636675.txt,14,0.176470588235,-0.0396664777787,0.0616692308323,0.247294108221,8.98102788292e-05,0.0,0.0,0.238266022915
tagged_abstract_sents/17636675.txt,15,0.176470588235,-0.0191856229256,0.194899689933,0.293363477728,8.98102788292e-05,0.105926254905,0.0494652406417,0.478280005015
tagged_abstract_sents/17636675.txt,16,0.166800966962,0.0253379745811,0.139250797795,0.194462959676,8.98102788292e-05,0.201873177682,0.0479417834257,0.948040420969
tagged_abstract_sents/17636675.txt,17,0.166800966962,0.0297903343317,0.139250797795,0.194462959676,8.98102788292e-05,0.139652602221,0.041195363776,0.579373945443
tagged_abstract_sents/17636675.txt,18,0.0954875100725,0.031571278232,0.139250797795,0.194462959676,8.98102788292e-05,0.219040527473,0.0510801564027,0.850901340021
tagged_abstract_sents/17636675.txt,19,0.0954875100725,-0.00404759977333,0.139250797795,0.194462959676,8.98102788292e-05,0.102733425969,0.0358229472141,0.404197602229
tagged_abstract_sents/17636675.txt,20,0.0342465753425,-0.0361045899781,0.0616692308323,0.247294108221,8.98102788292e-05,0.0,0.0,0.125199190161
tagged_abstract_sents/17636675.txt,21,0.0342465753425,0.0213308508055,0.139250797795,0.194462959676,8.98102788292e-05,0.167364942857,0.0482404692082,0.718165886983
tagged_abstract_sents/17636675.txt,22,0.0342465753425,-0.00404759977333,0.139250797795,0.194462959676,8.98102788292e-05,0.100833727575,0.0301686217009,0.285644186674
