tagged_abstract_sents/17636675.txt,1,0.206355591311,-0.0405569497288,0.0616692308323,0.106008497564,8.98102788292e-05,0.0,0.0,0.219610247789
tagged_abstract_sents/17636675.txt,2,0.206355591311,-0.00627377964867,0.188769469584,0.129715814208,8.98102788292e-05,0.12222506961,0.0438802284303,0.637870562594
tagged_abstract_sents/17636675.txt,3,0.206355591311,0.00797377155347,0.188769469584,0.129715814208,8.98102788292e-05,0.140275598797,0.0488828375925,0.610361920994
tagged_abstract_sents/17636675.txt,4,0.206355591311,-0.0165142070752,0.0616692308323,0.106008497564,8.98102788292e-05,0.0786758718743,0.0362170087977,0.339411192452
tagged_abstract_sents/17636675.txt,5,0.0048270313757,-0.0405569497288,0.0616692308323,0.106008497564,8.98102788292e-05,0.0,0.0,0.0583873998401
tagged_abstract_sents/17636675.txt,7,0.0108608205953,-0.0383307698535,0.0616692308323,0.106008497564,8.98102788292e-05,0.0,0.0,0.0636596671909
tagged_abstract_sents/17636675.txt,8,0.0108608205953,0.00797377155347,0.0616692308323,0.106008497564,8.98102788292e-05,0.108743508081,0.0566499913748,0.46845069273
tagged_abstract_sents/17636675.txt,9,0.0261464199517,0.0101999514288,0.0616692308323,0.106008497564,8.98102788292e-05,0.141862532978,0.063133640553,0.290672590493
tagged_abstract_sents/17636675.txt,10,0.0261464199517,-0.0369950619283,0.0616692308323,0.106008497564,8.98102788292e-05,0.0,0.0,0.076155288261
tagged_abstract_sents/17636675.txt,11,0.0353982300885,0.0956852586416,0.0616692308323,0.106008497564,8.98102788292e-05,0.211723187402,0.0553696025887,0.58891987269
tagged_abstract_sents/17636675.txt,12,0.0518905872888,-0.0325427021776,0.0616692308323,0.106008497564,8.98102788292e-05,0.0,0.0,0.0976410940808
tagged_abstract_sents/17636675.txt,13,0.0518905872888,0.000404759977333,0.0616692308323,0.106008497564,8.98102788292e-05,0.173784484936,0.0623167155425,0.55551683537
tagged_abstract_sents/17636675.txt,14,0.0993563958166,-0.0396664777787,0.0616692308323,0.106008497564,8.98102788292e-05,0.0,0.0,0.134188985783
tagged_abstract_sents/17636675.txt,15,0.0993563958166,-0.0191856229256,0.194899689933,0.0581677376677,8.98102788292e-05,0.105926254905,0.0494652406417,0.346029929062
tagged_abstract_sents/17636675.txt,17,0.172566371681,0.0297903343317,0.139250797795,0.521468892835,8.98102788292e-05,0.139652602221,0.041195363776,0.682088049167
tagged_abstract_sents/17636675.txt,18,0.206355591311,0.031571278232,0.139250797795,0.521468892835,8.98102788292e-05,0.219040527473,0.0510801564027,1.03769758496
tagged_abstract_sents/17636675.txt,19,0.206355591311,-0.00404759977333,0.139250797795,0.521468892835,8.98102788292e-05,0.102733425969,0.0358229472141,0.590993847168
tagged_abstract_sents/17636675.txt,20,0.262268704747,-0.0361045899781,0.0616692308323,0.106008497564,8.98102788292e-05,0.0,0.0,0.265231210487
tagged_abstract_sents/17636675.txt,21,0.262268704747,0.0213308508055,0.139250797795,0.521468892835,8.98102788292e-05,0.167364942857,0.0482404692082,0.998685370454
tagged_abstract_sents/17636675.txt,22,0.262268704747,-0.00404759977333,0.139250797795,0.521468892835,8.98102788292e-05,0.100833727575,0.0301686217009,0.566163670145
