tagged_abstract_sents/1790394.txt,2,0.0108608205953,-0.0188583078491,0.188769469584,0.129715814208,0.289785069194,0.314280481556,0.0395973727903,0.642708261626
tagged_abstract_sents/1790394.txt,4,0.0993563958166,-0.0453618756371,0.188769469584,0.129715814208,0.289785069194,0.302856718858,0.0488817267311,0.654308347651
tagged_abstract_sents/1790394.txt,5,0.206355591311,-0.00560652395515,0.188769469584,0.129715814208,0.289785069194,0.369868502626,0.0351054247919,0.846700418956
tagged_abstract_sents/1790394.txt,6,0.262268704747,0.025993883792,0.188769469584,0.129715814208,0.289785069194,0.341046758151,0.0559390565485,1.0350841035
