tagged_abstract_sents/17968921.txt,1,0.125905068383,-0.0567660550459,0.0616692308323,0.142474783506,0.0,0.0,0.0,0.162947894165
tagged_abstract_sents/17968921.txt,2,0.239742558327,0.00802752293578,0.188769469584,0.202456734834,0.380052689891,0.364478478859,0.121418126694,1.21447060193
tagged_abstract_sents/17968921.txt,3,0.239742558327,-0.0579128440367,0.0616692308323,0.142474783506,0.0,0.0,0.0,0.253788528322
tagged_abstract_sents/17968921.txt,4,0.218020917136,-0.000573394495413,0.0616692308323,0.142474783506,0.207674355504,0.27340631767,0.0889471097441,0.817906888196
tagged_abstract_sents/17968921.txt,5,0.162510056315,0.102637614679,0.194899689933,0.13295610691,0.328883854517,0.556231061526,0.103682161408,1.27666932248
tagged_abstract_sents/17968921.txt,6,0.162510056315,0.0200688073394,0.0616692308323,0.142474783506,0.212072210879,0.236295695363,0.0647476731592,0.720714436389
tagged_abstract_sents/17968921.txt,7,0.101769911504,-0.00688073394495,0.0616692308323,0.142474783506,0.323188296558,0.262808321775,0.0817845101068,0.821397961322
tagged_abstract_sents/17968921.txt,8,0.0852775543041,-0.0160550458716,0.0616692308323,0.142474783506,0.226764471413,0.303877513733,0.0709365190094,0.740166588893
tagged_abstract_sents/17968921.txt,9,0.0711987127916,-0.0579128440367,0.0616692308323,0.142474783506,0.0,0.0,0.0,0.118953451894
tagged_abstract_sents/17968921.txt,10,0.0458567980692,-0.0395642201835,0.139250797795,0.0356431803763,0.247713020217,0.100730102817,0.0483301360307,0.505864206494
tagged_abstract_sents/17968921.txt,11,0.0458567980692,0.0338302752294,0.139250797795,0.0356431803763,0.299047239459,0.257086673366,0.114380387663,0.794284147
tagged_abstract_sents/17968921.txt,12,0.0245374094932,0.0435779816514,0.139250797795,0.0356431803763,0.125090209351,0.285790544082,0.0536729803916,0.573217610759
tagged_abstract_sents/17968921.txt,13,0.00844730490748,0.081995412844,0.139250797795,0.0356431803763,0.193607490807,0.302020758604,0.0748244642938,0.673927993209
tagged_abstract_sents/17968921.txt,14,0.00844730490748,-0.0561926605505,0.139250797795,0.0356431803763,0.0,0.0,0.0,0.0758376648262
tagged_abstract_sents/17968921.txt,15,0.00120675784393,-0.0212155963303,0.139250797795,0.0356431803763,0.387287577651,0.179765075469,0.095728331008,0.739821624147
tagged_abstract_sents/17968921.txt,16,0.00120675784393,0.0229357798165,0.139250797795,0.0356431803763,0.405847046153,0.366317697484,0.0907944514502,0.948830110336
