tagged_abstract_sents/18162929.txt,2,0.0048270313757,-0.035478128179,0.188769469584,0.129715814208,0.28817750348,0.128752589901,0.0464460270912,0.629152840842
tagged_abstract_sents/18162929.txt,3,0.0108608205953,0.0194557477111,0.188769469584,0.129715814208,0.28817750348,0.168176632761,0.0493796526055,0.665808842344
tagged_abstract_sents/18162929.txt,4,0.0353982300885,-0.0120803662258,0.188769469584,0.129715814208,0.28817750348,0.15645051848,0.0369101572914,0.673101925193
tagged_abstract_sents/18162929.txt,5,0.0993563958166,-0.0527721261445,0.188769469584,0.129715814208,0.28817750348,0.0796389139331,0.0227531481801,0.518616039544
tagged_abstract_sents/18162929.txt,7,0.206355591311,-0.0151322482197,0.188769469584,0.129715814208,0.28817750348,0.213701368024,0.0475073313783,0.853547498837
tagged_abstract_sents/18162929.txt,8,0.262268704747,0.00114445574771,0.188769469584,0.129715814208,0.28817750348,0.169498947683,0.0287448680352,0.829764653199
