tagged_abstract_sents/1830233.txt,1,0.125905068383,-0.0547178988327,0.0616692308323,0.142474783506,0.0,0.0,0.0,0.163357525408
tagged_abstract_sents/1830233.txt,2,0.239742558327,0.00831712062257,0.188769469584,0.202456734834,0.536740243093,0.122112970193,0.0256686798965,1.03310111921
tagged_abstract_sents/1830233.txt,3,0.239742558327,-0.0570525291829,0.0616692308323,0.142474783506,0.0,0.0,0.0,0.253960591293
tagged_abstract_sents/1830233.txt,4,0.218020917136,0.00831712062257,0.0616692308323,0.142474783506,0.166433548288,0.126518067036,0.0668572044866,0.609466028112
tagged_abstract_sents/1830233.txt,5,0.162510056315,-0.0554961089494,0.0616692308323,0.142474783506,0.0,0.0,0.0,0.19248587373
tagged_abstract_sents/1830233.txt,6,0.162510056315,0.041780155642,0.210342442448,0.226435992083,0.468394012931,0.164885190246,0.0536414620755,0.998386760282
tagged_abstract_sents/1830233.txt,7,0.101769911504,-0.0251459143969,0.0616692308323,0.142474783506,0.242056356667,0.0800017469399,0.0452206335511,0.51724253395
tagged_abstract_sents/1830233.txt,8,0.0852775543041,-0.0453793774319,0.0616692308323,0.142474783506,0.0,0.0,0.0,0.132723218425
tagged_abstract_sents/1830233.txt,9,0.0711987127916,0.107149805447,0.0616692308323,0.142474783506,0.307915157663,0.15885397136,0.0443973440372,0.663132454851
tagged_abstract_sents/1830233.txt,10,0.0458567980692,-0.0562743190661,0.0616692308323,0.142474783506,0.0,0.0,0.0,0.09900762511
tagged_abstract_sents/1830233.txt,11,0.0458567980692,0.0168774319066,0.139250797795,0.0356431803763,0.172223073908,0.0797558750559,0.018149882904,0.390508109715
tagged_abstract_sents/1830233.txt,12,0.0245374094932,0.0480058365759,0.139250797795,0.0356431803763,0.346557006958,0.125279370917,0.0339221652059,0.615307991001
tagged_abstract_sents/1830233.txt,13,0.00844730490748,0.0433365758755,0.139250797795,0.0356431803763,0.147425899783,0.0976654494356,0.0334609577222,0.374295819052
tagged_abstract_sents/1830233.txt,14,0.00844730490748,-0.0531614785992,0.0616692308323,0.142474783506,0.0,0.0,0.0,0.069702598674
tagged_abstract_sents/1830233.txt,15,0.00120675784393,0.0729085603113,0.139250797795,0.0356431803763,0.595119045194,0.176035913326,0.0400815750255,0.907102004894
tagged_abstract_sents/1830233.txt,16,0.00120675784393,0.000535019455253,0.139250797795,0.0356431803763,0.184564727972,0.090401192748,0.0171021816837,0.373458865581
