tagged_abstract_sents/18697868.txt,1,0.206355591311,-0.0480938591516,0.0616692308323,0.106008497564,0.164969848384,0.0,0.0,0.218102865904
tagged_abstract_sents/18697868.txt,3,0.206355591311,-0.0469594292026,0.0616692308323,0.106008497564,0.164969848384,0.0,0.0,0.218329751894
tagged_abstract_sents/18697868.txt,4,0.0048270313757,0.00182105860226,0.0616692308323,0.106008497564,0.164969848384,0.157240212379,0.0518664047151,0.275991184202
tagged_abstract_sents/18697868.txt,5,0.0048270313757,-0.0452577842792,0.0616692308323,0.106008497564,0.164969848384,0.0,0.0,0.05744723293
tagged_abstract_sents/18697868.txt,7,0.0108608205953,-0.0435561393558,0.0616692308323,0.106008497564,0.164969848384,0.0,0.0,0.0626145932904
tagged_abstract_sents/18697868.txt,8,0.0261464199517,-0.0282413350449,0.0616692308323,0.106008497564,0.164969848384,0.0821626913271,0.056806062307,0.216907457876
tagged_abstract_sents/18697868.txt,9,0.0261464199517,0.00692599337254,0.0616692308323,0.106008497564,0.164969848384,0.160074090065,0.0571065361312,0.513095041181
tagged_abstract_sents/18697868.txt,10,0.0518905872888,0.0681852106159,0.0616692308323,0.106008497564,0.164969848384,0.211550389402,0.0582191362921,0.559487488933
tagged_abstract_sents/18697868.txt,11,0.0518905872888,-0.0435561393558,0.0616692308323,0.106008497564,0.164969848384,0.0,0.0,0.0954384066452
tagged_abstract_sents/18697868.txt,12,0.0993563958166,0.064781920769,0.0616692308323,0.106008497564,0.164969848384,0.18453898064,0.0504490597811,0.53686762679
tagged_abstract_sents/18697868.txt,13,0.0993563958166,0.00806042332149,0.0616692308323,0.106008497564,0.164969848384,0.129591868514,0.0664367908264,0.579824312828
tagged_abstract_sents/18697868.txt,14,0.172566371681,-0.0441233543302,0.0616692308323,0.106008497564,0.164969848384,0.0,0.0,0.191865591164
tagged_abstract_sents/18697868.txt,15,0.172566371681,0.00125384362779,0.0616692308323,0.106008497564,0.164969848384,0.107136271151,0.064011066116,0.605386516101
tagged_abstract_sents/18697868.txt,16,0.206355591311,0.0466310415858,0.0616692308323,0.106008497564,0.164969848384,0.127446571825,0.0625711974377,0.427065615315
tagged_abstract_sents/18697868.txt,17,0.206355591311,0.0562736961519,0.139250797795,0.521468892835,0.164969848384,0.212442753016,0.053269716531,0.775504800421
tagged_abstract_sents/18697868.txt,18,0.262268704747,-0.0458249992537,0.139250797795,0.521468892835,0.164969848384,0.0,0.0,0.426716030694
tagged_abstract_sents/18697868.txt,19,0.262268704747,0.0211063677344,0.139250797795,0.521468892835,0.164969848384,0.153840387215,0.0565017652185,0.81541430491
