tagged_abstract_sents/1882277.txt,1,0.239742558327,-0.0123626373626,0.188769469584,0.202456734834,0.105411900792,0.176857743203,0.084881885755,0.711594804181
tagged_abstract_sents/1882277.txt,2,0.218020917136,-0.00869963369963,0.188769469584,0.202456734834,0.045644613542,0.163573233499,0.0781924072476,0.6152088165
tagged_abstract_sents/1882277.txt,3,0.162510056315,0.160714285714,0.188769469584,0.202456734834,0.157509505855,0.261925014173,0.0940473141101,0.830754491576
tagged_abstract_sents/1882277.txt,4,0.0852775543041,-0.0563186813187,0.188769469584,0.202456734834,0.305789554553,0.0802135385345,0.0868905684479,0.684973723957
tagged_abstract_sents/1882277.txt,5,0.0458567980692,-0.0196886446886,0.188769469584,0.202456734834,0.153397785881,0.120923933554,0.0663683506189,0.528559534815
tagged_abstract_sents/1882277.txt,6,0.0245374094932,-0.0608974358974,0.188769469584,0.202456734834,0.265367722701,0.0669952838184,0.0614022248244,0.556337427002
tagged_abstract_sents/1882277.txt,7,0.00844730490748,-0.0224358974359,0.188769469584,0.202456734834,0.0,0.159967258263,0.108102393963,0.425462071907
tagged_abstract_sents/1882277.txt,8,0.00120675784393,0.0196886446886,0.188769469584,0.202456734834,5.51728126252e-06,0.165916034972,0.082466201831,0.40841264454
