tagged_abstract_sents/1969567.txt,2,0.0805801772764,-0.0173221927858,0.188769469584,0.123191979006,0.13539039405,0.134193640749,0.0276792855239,0.703482221059
tagged_abstract_sents/1969567.txt,3,0.140209508461,0.0126350112085,0.139250797795,0.194462959676,0.13539039405,0.18593798096,0.0283253037285,0.738957247198
tagged_abstract_sents/1969567.txt,4,0.149879129734,-0.000917057265131,0.139250797795,0.194462959676,0.13539039405,0.166119061981,0.0140762463343,0.631273423631
tagged_abstract_sents/1969567.txt,5,0.166800966962,-0.0187487263094,0.139250797795,0.194462959676,0.13539039405,0.159223585795,0.0133112329466,0.635649167954
tagged_abstract_sents/1969567.txt,6,0.0954875100725,-0.00377012431221,0.139250797795,0.194462959676,0.13539039405,0.179503621789,0.0147390029326,0.667945986145
tagged_abstract_sents/1969567.txt,7,0.0342465753425,0.0112084776849,0.139250797795,0.194462959676,0.13539039405,0.251981276008,0.0271038834089,0.572078796078
