tagged_abstract_sents/1972071.txt,2,0.016894609815,0.00961281708945,0.188769469584,0.129715814208,0.221111637559,0.261396450286,0.0605446927374,0.899484657824
tagged_abstract_sents/1972071.txt,4,0.214802896219,-0.0558077436582,0.188769469584,0.129715814208,0.221111637559,0.393628994709,0.0648942537909,1.05460783784
tagged_abstract_sents/1972071.txt,5,0.262268704747,-0.0424566088117,0.188769469584,0.129715814208,0.221111637559,0.294217694005,0.0446213179279,0.894573770582
