tagged_abstract_sents/1973768.txt,2,0.0805801772764,-0.0852011882258,0.0616692308323,0.247294108221,0.418881320166,0.118656629157,0.0149028694769,0.425393531127
tagged_abstract_sents/1973768.txt,3,0.140209508461,-0.00297056440724,0.139250797795,0.194462959676,0.418881320166,0.202214430749,0.0431433310056,0.759423210967
tagged_abstract_sents/1973768.txt,4,0.149879129734,-0.063462057791,0.139250797795,0.194462959676,0.418881320166,0.0999130862492,0.0115048882682,0.524147482264
tagged_abstract_sents/1973768.txt,5,0.166800966962,-0.00675128274372,0.139250797795,0.194462959676,0.418881320166,0.221383811083,0.0206416365429,0.806854271846
tagged_abstract_sents/1973768.txt,6,0.0954875100725,-0.0256548744261,0.139250797795,0.194462959676,0.418881320166,0.183799566802,0.0399848696462,0.513911875146
tagged_abstract_sents/1973768.txt,7,0.0342465753425,0.0395625168782,0.139250797795,0.194462959676,0.418881320166,0.291125771158,0.0344506517691,0.907731793543
