tagged_abstract_sents/2002132.txt,2,0.123690572119,0.00570776255708,0.139250797795,0.194462959676,0.404147338633,0.160858436661,0.0570730344924,0.786770467797
tagged_abstract_sents/2002132.txt,3,0.149073327961,-0.00228310502283,0.139250797795,0.194462959676,0.404147338633,0.144157674696,0.0474841796574,0.723121030999
tagged_abstract_sents/2002132.txt,4,0.176470588235,0.0114155251142,0.139250797795,0.194462959676,0.404147338633,0.0764325028525,0.040886532822,0.688907731215
tagged_abstract_sents/2002132.txt,5,0.0954875100725,0.0182648401826,0.139250797795,0.194462959676,0.404147338633,0.10697613103,0.0504307184751,0.747399719149
tagged_abstract_sents/2002132.txt,6,0.0342465753425,-0.0228310502283,0.139250797795,0.194462959676,0.404147338633,0.105271873758,0.0551686217009,0.71538317112
