tagged_abstract_sents/2040866.txt,2,0.0805801772764,0.0370060047479,0.139250797795,0.194462959676,0.215320071666,0.221216494451,0.038913846461,0.503903829466
tagged_abstract_sents/2040866.txt,3,0.140209508461,-0.0138248847926,0.139250797795,0.194462959676,0.215320071666,0.262938096474,0.0504465937318,0.887544861865
tagged_abstract_sents/2040866.txt,4,0.149879129734,-0.0519480519481,0.139250797795,0.194462959676,0.215320071666,0.253284492498,0.064652590596,0.699004455219
tagged_abstract_sents/2040866.txt,5,0.166800966962,-0.0177349532188,0.139250797795,0.194462959676,0.215320071666,0.240513345171,0.0650593990217,0.613981941876
tagged_abstract_sents/2040866.txt,6,0.0954875100725,-0.00795978215333,0.139250797795,0.194462959676,0.215320071666,0.29671165382,0.0477892128836,0.79116245923
tagged_abstract_sents/2040866.txt,7,0.0342465753425,-0.021645021645,0.139250797795,0.194462959676,0.215320071666,0.194585602592,0.0574922631526,0.618430480156
