tagged_abstract_sents/2046107.txt,1,0.125905068383,-0.026996490855,0.0616692308323,0.142474783506,0.0,0.0,0.0,0.168901807003
tagged_abstract_sents/2046107.txt,2,0.125905068383,0.0312765844322,0.188769469584,0.202456734834,0.370673926994,0.184849904597,0.070317616241,0.887942574666
tagged_abstract_sents/2046107.txt,3,0.125905068383,-0.0282725435985,0.0616692308323,0.142474783506,0.0,0.0,0.0,0.168646596455
tagged_abstract_sents/2046107.txt,4,0.239742558327,-0.00657964695874,0.0616692308323,0.142474783506,0.199340361743,0.109857744304,0.0924699938915,0.665723267675
tagged_abstract_sents/2046107.txt,5,0.239742558327,-0.027847192684,0.0616692308323,0.142474783506,0.0,0.0,0.0,0.259801658592
tagged_abstract_sents/2046107.txt,6,0.239742558327,-0.00445289238622,0.0616692308323,0.142474783506,0.350840702245,0.111659755236,0.0561636573424,0.783144633475
tagged_abstract_sents/2046107.txt,7,0.218020917136,-0.0257204381114,0.0616692308323,0.142474783506,0.0,0.0,0.0,0.242849696554
tagged_abstract_sents/2046107.txt,8,0.218020917136,0.0231949170566,0.210342442448,0.226435992083,0.227249032799,0.186904990016,0.0888967528585,0.855208511643
tagged_abstract_sents/2046107.txt,9,0.218020917136,0.013411846023,0.0616692308323,0.142474783506,0.0517806890882,0.100152702952,0.0627561044064,0.465365649828
tagged_abstract_sents/2046107.txt,10,0.162510056315,0.014262547852,0.0616692308323,0.142474783506,0.272565452113,0.166517372057,0.0738609785761,0.719381407836
tagged_abstract_sents/2046107.txt,11,0.162510056315,0.00873298596342,0.0616692308323,0.142474783506,0.0455179367551,0.10394734088,0.0603950322762,0.415192002624
tagged_abstract_sents/2046107.txt,12,0.162510056315,-0.00487824330072,0.0616692308323,0.142474783506,0.176903805155,0.0748848677893,0.0659988341717,0.520396953976
tagged_abstract_sents/2046107.txt,13,0.101769911504,-0.0252950871969,0.0616692308323,0.142474783506,0.0,0.0,0.0,0.149933962232
tagged_abstract_sents/2046107.txt,14,0.101769911504,0.01596395151,0.0616692308323,0.142474783506,0.316784179561,0.167599046593,0.0637337449715,0.706302741099
tagged_abstract_sents/2046107.txt,15,0.101769911504,0.012561144194,0.0616692308323,0.142474783506,0.217929695452,0.112465635313,0.0867576893233,0.574658228599
tagged_abstract_sents/2046107.txt,16,0.0852775543041,0.00362877498937,0.194899689933,0.13295610691,0.190738938972,0.0922777424462,0.0872364662958,0.576537623194
tagged_abstract_sents/2046107.txt,17,0.0711987127916,-0.0218922798809,0.0616692308323,0.142474783506,0.0,0.0,0.0,0.126157564725
tagged_abstract_sents/2046107.txt,18,0.0711987127916,-0.027847192684,0.0616692308323,0.142474783506,0.0,0.0,0.0,0.124966582164
tagged_abstract_sents/2046107.txt,19,0.0711987127916,-0.0167880689068,0.0616692308323,0.142474783506,0.372891991556,0.0299003635452,0.0657451585742,0.595715920595
tagged_abstract_sents/2046107.txt,20,0.0458567980692,-0.026996490855,0.0616692308323,0.142474783506,0.0,0.0,0.0,0.104863190752
tagged_abstract_sents/2046107.txt,21,0.0458567980692,0.012561144194,0.139250797795,0.0356431803763,0.324323790333,0.0971866822305,0.0912152680326,0.6322417609
tagged_abstract_sents/2046107.txt,22,0.0458567980692,-0.027847192684,0.0616692308323,0.142474783506,0.0,0.0,0.0,0.104693050386
tagged_abstract_sents/2046107.txt,23,0.0245374094932,-0.0176387707359,0.0616692308323,0.142474783506,0.326047028805,0.068428135675,0.0552904855459,0.539444873941
tagged_abstract_sents/2046107.txt,24,0.0245374094932,0.0567976393024,0.139250797795,0.0356431803763,0.319435444431,0.19823158118,0.0718287751687,0.700803609245
tagged_abstract_sents/2046107.txt,25,0.0245374094932,0.017665355168,0.139250797795,0.0356431803763,0.31940466921,0.12499581619,0.0900926185798,0.637974455618
tagged_abstract_sents/2046107.txt,26,0.00844730490748,0.00405412590387,0.139250797795,0.0356431803763,0.243421915768,0.0952483399092,0.0744807746281,0.501038052422
tagged_abstract_sents/2046107.txt,27,0.00844730490748,0.019366758826,0.139250797795,0.0356431803763,0.322335855471,0.206693773602,0.0843442375859,0.704323415361
tagged_abstract_sents/2046107.txt,28,0.00844730490748,-0.00445289238622,0.139250797795,0.0356431803763,0.331929933897,0.0994287073434,0.0789486718066,0.596492931507
tagged_abstract_sents/2046107.txt,29,0.00120675784393,-0.00785569970225,0.139250797795,0.0356431803763,0.402709531978,0.0703385669112,0.0656749929834,0.618435711217
tagged_abstract_sents/2046107.txt,30,0.00120675784393,-0.0265711399405,0.139250797795,0.0356431803763,0.0,0.0,0.0,0.0759695312973
tagged_abstract_sents/2046107.txt,31,0.00120675784393,0.0861468524032,0.139250797795,0.0356431803763,0.260664425801,0.22204260839,0.0884376784384,0.669657842396
tagged_abstract_sents/2046107.txt,32,0.00120675784393,0.00830763504892,0.139250797795,0.0356431803763,0.303541282617,0.166366464071,0.0789503227617,0.631803355745
