tagged_abstract_sents/20556779.txt,1,0.125905068383,-0.0307728092109,0.0616692308323,0.142474783506,0.0,0.0,0.0,0.168146543332
tagged_abstract_sents/20556779.txt,2,0.125905068383,0.00598941675874,0.188769469584,0.202456734834,0.0606354571792,0.256998195677,0.0270637037951,0.601741049952
tagged_abstract_sents/20556779.txt,3,0.239742558327,0.00969936616852,0.188769469584,0.202456734834,0.247872369682,0.313620153294,0.0467916788749,0.957139876989
tagged_abstract_sents/20556779.txt,4,0.239742558327,-0.0307728092109,0.0616692308323,0.142474783506,0.0,0.0,0.0,0.259216535287
tagged_abstract_sents/20556779.txt,5,0.239742558327,0.0191428737571,0.0616692308323,0.142474783506,0.226613617162,0.462124037486,0.0335810339776,0.991518360507
tagged_abstract_sents/20556779.txt,6,0.218020917136,-0.0290864685701,0.0616692308323,0.142474783506,0.0,0.0,0.0,0.242176490463
tagged_abstract_sents/20556779.txt,7,0.218020917136,0.113915217771,0.0616692308323,0.142474783506,0.0367483402142,0.26616066865,0.0322443598008,0.605930196395
tagged_abstract_sents/20556779.txt,8,0.218020917136,-0.0230156422632,0.0616692308323,0.142474783506,4.55225041834e-05,0.119502629456,0.0285872199877,0.391526027672
tagged_abstract_sents/20556779.txt,9,0.162510056315,-0.0280746641856,0.0616692308323,0.142474783506,0.0,0.0,0.0,0.197970162683
tagged_abstract_sents/20556779.txt,10,0.162510056315,0.00194219922079,0.0616692308323,0.142474783506,0.207387070273,0.302210725125,0.0474969653845,0.761068296147
tagged_abstract_sents/20556779.txt,11,0.162510056315,-0.024701982904,0.0616692308323,0.142474783506,0.0,0.0,0.0,0.198644698939
tagged_abstract_sents/20556779.txt,12,0.101769911504,-0.00547769959877,0.0616692308323,0.142474783506,0.234945405724,0.282344793581,0.0316656900088,0.702853329066
tagged_abstract_sents/20556779.txt,13,0.101769911504,-0.0112112577775,0.0616692308323,0.142474783506,0.179866521489,0.133382533648,0.0150039066315,0.481003689884
tagged_abstract_sents/20556779.txt,14,0.101769911504,-0.0112112577775,0.0616692308323,0.142474783506,0.0,0.12673032781,0.00860069342709,0.288081749353
tagged_abstract_sents/20556779.txt,15,0.0711987127916,0.0238646275513,0.0616692308323,0.142474783506,0.249360683111,0.246835830571,0.02968140392,0.661186863814
tagged_abstract_sents/20556779.txt,16,0.0711987127916,-0.0300982729546,0.0616692308323,0.142474783506,0.0,0.0,0.0,0.12451636611
tagged_abstract_sents/20556779.txt,17,0.0711987127916,-0.0169448159563,0.0616692308323,0.142474783506,3.80570129661e-05,0.107855745173,0.0159097568122,0.250950616508
tagged_abstract_sents/20556779.txt,18,0.0458567980692,0.0110484386812,0.0616692308323,0.142474783506,0.179884969873,0.255775588109,0.0318707881629,0.580003522804
tagged_abstract_sents/20556779.txt,19,0.0458567980692,-0.0162702796999,0.0616692308323,0.142474783506,4.66105530628e-05,0.111503810227,0.0312841275338,0.249842981297
tagged_abstract_sents/20556779.txt,20,0.0458567980692,0.0258882363203,0.139250797795,0.0356431803763,0.205680154124,0.450230953537,0.0390994516764,0.817191998067
tagged_abstract_sents/20556779.txt,21,0.0245374094932,0.0387044251904,0.139250797795,0.0356431803763,0.126171269763,0.282983178519,0.0243334309991,0.541177044924
tagged_abstract_sents/20556779.txt,22,0.0245374094932,0.00598941675874,0.139250797795,0.0356431803763,0.256385685696,0.250057143946,0.0220399127519,0.629628906351
tagged_abstract_sents/20556779.txt,23,0.0245374094932,0.00396580798977,0.139250797795,0.0356431803763,0.263480678826,0.421300397194,0.0328706416642,0.818393159887
tagged_abstract_sents/20556779.txt,24,0.00844730490748,-0.0274001279293,0.0616692308323,0.142474783506,0.0,0.0,0.0,0.074854868808
tagged_abstract_sents/20556779.txt,25,0.00844730490748,-0.00682677211141,0.0616692308323,0.142474783506,3.29582671371e-05,0.210942365996,0.0425822834261,0.332527147661
tagged_abstract_sents/20556779.txt,26,0.00844730490748,0.00598941675874,0.0616692308323,0.142474783506,0.219113535745,0.225548084274,0.0358232364144,0.562017634179
tagged_abstract_sents/20556779.txt,27,0.00120675784393,-0.00851311275222,0.0616692308323,0.142474783506,0.266809415876,0.224321322674,0.0381672153186,0.602137788061
tagged_abstract_sents/20556779.txt,28,0.00120675784393,0.00261673547712,0.139250797795,0.0356431803763,0.241489468189,0.308570844054,0.036144887196,0.66801230582
tagged_abstract_sents/20556779.txt,29,0.00120675784393,0.031621794499,0.139250797795,0.0356431803763,0.170761243359,0.351133910726,0.032329329036,0.641832601306
