tagged_abstract_sents/2154431.txt,1,0.239742558327,0.0682137834037,0.188769469584,0.202456734834,0.238978793422,0.464149057513,0.0489622236077,1.11264863313
tagged_abstract_sents/2154431.txt,2,0.218020917136,0.0101969057665,0.194899689933,0.13295610691,9.25988342891e-06,0.240710395029,0.0340594221678,0.588571868981
tagged_abstract_sents/2154431.txt,3,0.162510056315,-0.0583684950774,0.0616692308323,0.142474783506,1.41226659943e-05,0.134141134061,0.027912791945,0.353979445177
tagged_abstract_sents/2154431.txt,4,0.101769911504,-0.0488748241913,0.0616692308323,0.142474783506,0.208310871019,0.24423237087,0.0281745686233,0.625935825345
tagged_abstract_sents/2154431.txt,5,0.0711987127916,0.0386779184248,0.210342442448,0.226435992083,0.297644512834,0.463129512465,0.0494262822647,1.04799688033
tagged_abstract_sents/2154431.txt,6,0.0458567980692,0.0228551336146,0.194899689933,0.13295610691,0.300421958559,0.373310954616,0.0397311553514,0.892057210744
tagged_abstract_sents/2154431.txt,7,0.0245374094932,-0.0467651195499,0.139250797795,0.0356431803763,0.198463893266,0.282617800125,0.0457686929889,0.617445643075
tagged_abstract_sents/2154431.txt,8,0.00844730490748,0.00175808720113,0.139250797795,0.0356431803763,0.256683334002,0.28223641442,0.0436025478838,0.669950110682
tagged_abstract_sents/2154431.txt,9,0.00120675784393,0.0123066104079,0.139250797795,0.0356431803763,0.446757673256,0.369642552605,0.0340790554187,0.934224362647
