tagged_abstract_sents/2169839.txt,1,0.125905068383,-0.0483144259393,0.0616692308323,0.142474783506,0.0,0.0,0.0,0.164638219986
tagged_abstract_sents/2169839.txt,2,0.239742558327,0.0421996942634,0.188769469584,0.202456734834,0.200718349844,0.208619604633,0.060500789533,0.825194484766
tagged_abstract_sents/2169839.txt,3,0.239742558327,-0.0504867648242,0.0616692308323,0.142474783506,0.0,0.0,0.0,0.255273744164
tagged_abstract_sents/2169839.txt,4,0.218020917136,-0.010660551935,0.0616692308323,0.142474783506,4.46919974631e-05,0.101451155547,0.0588984604106,0.406255981744
tagged_abstract_sents/2169839.txt,5,0.218020917136,0.0190280794915,0.0616692308323,0.142474783506,4.10369539645e-05,0.129316002189,0.043455780213,0.424612219431
tagged_abstract_sents/2169839.txt,6,0.162510056315,-0.0236945852442,0.0616692308323,0.142474783506,0.113185906022,0.0665261684076,0.0466642228739,0.425222475775
tagged_abstract_sents/2169839.txt,7,0.162510056315,-0.049038538901,0.0616692308323,0.142474783506,0.0,0.0,0.0,0.19377738774
tagged_abstract_sents/2169839.txt,8,0.101769911504,0.0168557406066,0.210342442448,0.226435992083,0.288818371387,0.16579335024,0.0479727145225,0.760473532323
tagged_abstract_sents/2169839.txt,9,0.0852775543041,-0.0461420870545,0.0616692308323,0.142474783506,0.0,0.0,0.0,0.1325706765
tagged_abstract_sents/2169839.txt,10,0.0711987127916,0.0306138868775,0.0616692308323,0.142474783506,0.122023520329,0.131740315157,0.0601091560769,0.45053178964
tagged_abstract_sents/2169839.txt,11,0.0458567980692,-0.037452731515,0.0616692308323,0.142474783506,0.0,0.0,0.0,0.10277194262
tagged_abstract_sents/2169839.txt,12,0.0458567980692,-0.0077641000885,0.0616692308323,0.142474783506,4.36880161352e-05,0.112028562854,0.0572882525444,0.27807017232
tagged_abstract_sents/2169839.txt,13,0.0245374094932,0.000925255450961,0.139250797795,0.0356431803763,4.85079040215e-05,0.0935403708304,0.0578787878788,0.251600998308
tagged_abstract_sents/2169839.txt,14,0.0245374094932,0.0689918738434,0.139250797795,0.0356431803763,1.83170286453e-05,0.142308092393,0.0683431085044,0.324416173299
tagged_abstract_sents/2169839.txt,15,0.00844730490748,0.0675436479202,0.139250797795,0.0356431803763,1.83170143873e-05,0.155394641611,0.0672461946655,0.323244079811
tagged_abstract_sents/2169839.txt,16,0.00844730490748,0.021924531338,0.139250797795,0.0356431803763,0.174101859676,0.158285801331,0.0538989602773,0.477747724489
tagged_abstract_sents/2169839.txt,17,0.00120675784393,-0.0468662000161,0.139250797795,0.0356431803763,0.0,0.0,0.0,0.0719105192822
tagged_abstract_sents/2169839.txt,18,0.00120675784393,0.0523372757261,0.139250797795,0.0356431803763,0.211329515263,0.182971723951,0.0566428662502,0.542695319896
