tagged_abstract_sents/2172402.txt,2,0.0805801772764,0.00397170162592,0.210342442448,0.141687475369,0.155134887999,0.408734708923,0.010946632174,0.758958684082
tagged_abstract_sents/2172402.txt,3,0.140209508461,-0.0577137892516,0.0616692308323,0.247294108221,0.155134887999,0.262754945046,0.010756848785,0.479159490632
tagged_abstract_sents/2172402.txt,4,0.149879129734,-0.0438128335609,0.139250797795,0.194462959676,0.155134887999,0.315255479238,0.0111551662919,0.565533873426
tagged_abstract_sents/2172402.txt,5,0.166800966962,0.0343800421993,0.139250797795,0.194462959676,0.155134887999,0.439179946359,0.0150358673782,0.865973251588
tagged_abstract_sents/2172402.txt,6,0.0954875100725,0.0100533697406,0.139250797795,0.194462959676,0.155134887999,0.467549329116,0.0143259557344,0.850686681554
tagged_abstract_sents/2172402.txt,7,0.0342465753425,0.0178726573166,0.139250797795,0.194462959676,0.155134887999,0.344328010576,0.0125622153976,0.67096119251
