tagged_abstract_sents/2193173.txt,2,0.123690572119,-0.0366161616162,0.0616692308323,0.247294108221,0.163054401264,0.478158522116,0.066971036408,1.01079363996
tagged_abstract_sents/2193173.txt,3,0.149073327961,0.0606060606061,0.139250797795,0.194462959676,0.163054401264,0.553008418174,0.0571960318383,1.00200119092
tagged_abstract_sents/2193173.txt,4,0.176470588235,-0.0833333333333,0.139250797795,0.194462959676,0.163054401264,0.226557415563,0.0336163778062,0.721718567457
tagged_abstract_sents/2193173.txt,5,0.0954875100725,0.0530303030303,0.139250797795,0.194462959676,0.163054401264,0.571304222465,0.0704315458881,1.17949377855
tagged_abstract_sents/2193173.txt,6,0.0342465753425,-0.010101010101,0.139250797795,0.194462959676,0.163054401264,0.391490813318,0.043089159009,0.750975718644
