tagged_abstract_sents/2194334.txt,1,0.0954875100725,0.0073734001113,0.188769469584,0.123191979006,0.27425662693,0.711710761832,0.0191030938224,1.35588612663
tagged_abstract_sents/2194334.txt,3,0.0805801772764,-0.0282415136338,0.139250797795,0.194462959676,0.27425662693,0.344257081175,0.0390075006119,0.855156517983
tagged_abstract_sents/2194334.txt,4,0.123690572119,0.00236505286589,0.139250797795,0.194462959676,0.27425662693,0.632174281738,0.018966496569,1.34701655138
tagged_abstract_sents/2194334.txt,5,0.140209508461,0.0157206455203,0.139250797795,0.194462959676,0.27425662693,0.652157693634,0.0241687077453,1.12784587903
tagged_abstract_sents/2194334.txt,6,0.149073327961,-0.00431274346132,0.139250797795,0.194462959676,0.27425662693,0.537464967228,0.0369772246296,1.12505169885
tagged_abstract_sents/2194334.txt,7,0.149879129734,-0.0237896494157,0.139250797795,0.194462959676,0.27425662693,0.506777112834,0.0286681128903,1.26731761701
tagged_abstract_sents/2194334.txt,8,0.176470588235,-0.009877573734,0.139250797795,0.194462959676,0.27425662693,0.518953520323,0.0212531227292,1.26758856429
tagged_abstract_sents/2194334.txt,9,0.166800966962,0.0101558152476,0.139250797795,0.194462959676,0.27425662693,0.576608318651,0.047117567172,1.1972423869
tagged_abstract_sents/2194334.txt,10,0.0954875100725,-0.0215637173066,0.139250797795,0.194462959676,0.27425662693,0.437316323715,0.0525279949731,0.948080078704
tagged_abstract_sents/2194334.txt,11,0.0342465753425,0.00403450194769,0.139250797795,0.194462959676,0.27425662693,0.637872259571,0.027879892564,1.12544349793
tagged_abstract_sents/2194334.txt,12,0.0342465753425,0.000695603784085,0.139250797795,0.194462959676,0.27425662693,0.572720745527,0.0276462091437,1.03012424943
