tagged_abstract_sents/2298897.txt,2,0.149073327961,-0.0511782032401,0.139250797795,0.194462959676,0.201462374491,0.140783016142,0.00780384490062,0.608261069815
tagged_abstract_sents/2298897.txt,3,0.166800966962,0.172680412371,0.139250797795,0.194462959676,0.201462374491,0.186705660532,0.00556011730205,0.633276646383
tagged_abstract_sents/2298897.txt,4,0.0342465753425,-0.0555964653903,0.139250797795,0.194462959676,0.201462374491,0.12710535274,0.0,0.472809981228
