tagged_abstract_sents/2462391.txt,1,0.206355591311,-0.0416212919807,0.0616692308323,0.106008497564,0.413326837341,0.0,0.0,0.219397379338
tagged_abstract_sents/2462391.txt,2,0.206355591311,0.0312105240232,0.188769469584,0.129715814208,0.413326837341,0.799522199678,0.0611854202877,1.29622010043
tagged_abstract_sents/2462391.txt,3,0.206355591311,-0.0358714117698,0.0616692308323,0.106008497564,0.413326837341,0.0,0.0,0.22054735538
tagged_abstract_sents/2462391.txt,4,0.206355591311,0.0647514919197,0.0616692308323,0.106008497564,0.413326837341,0.804523340445,0.0666938713822,1.35691293016
tagged_abstract_sents/2462391.txt,5,0.0048270313757,-0.0377880385068,0.0616692308323,0.106008497564,0.413326837341,0.0,0.0,0.0589411820845
tagged_abstract_sents/2462391.txt,6,0.0048270313757,0.00246112296903,0.0616692308323,0.106008497564,0.413326837341,0.481430552916,0.0583012166553,0.853761118952
tagged_abstract_sents/2462391.txt,7,0.0108608205953,-0.0171843010846,0.0616692308323,0.106008497564,0.413326837341,0.314565437957,0.0538106947085,0.926456303826
tagged_abstract_sents/2462391.txt,8,0.0108608205953,-0.0377880385068,0.0616692308323,0.106008497564,0.413326837341,0.0,0.0,0.0637682134602
tagged_abstract_sents/2462391.txt,9,0.0261464199517,0.00964847323257,0.0616692308323,0.106008497564,0.413326837341,0.751009750051,0.050467266178,1.15129273304
tagged_abstract_sents/2462391.txt,10,0.0261464199517,-0.0282049048221,0.0616692308323,0.106008497564,0.413326837341,0.195607917148,0.0565673358691,0.789509879769
tagged_abstract_sents/2462391.txt,11,0.0353982300885,-0.0334756283487,0.0616692308323,0.106008497564,0.413326837341,0.0,0.0,0.0842606230864
tagged_abstract_sents/2462391.txt,12,0.0518905872888,0.00581521975868,0.139250797795,0.521468892835,0.413326837341,0.731732884692,0.0629005997403,1.29082328625
tagged_abstract_sents/2462391.txt,14,0.0993563958166,-0.0114344208738,0.139250797795,0.521468892835,0.413326837341,0.513890683323,0.0678384253271,1.14228606786
tagged_abstract_sents/2462391.txt,15,0.0993563958166,0.0173149801803,0.139250797795,0.521468892835,0.413326837341,0.727055655588,0.0551469810323,1.47324777039
tagged_abstract_sents/2462391.txt,16,0.172566371681,0.0168358234961,0.139250797795,0.521468892835,0.413326837341,0.56583589634,0.0922987144932,1.42583244055
tagged_abstract_sents/2462391.txt,17,0.172566371681,0.0201899202858,0.139250797795,0.521468892835,0.413326837341,0.537932138337,0.0730077163992,1.20074839467
tagged_abstract_sents/2462391.txt,18,0.206355591311,-0.000413817136385,0.139250797795,0.521468892835,0.413326837341,0.546307168805,0.0722058490138,1.36727397187
tagged_abstract_sents/2462391.txt,20,0.262268704747,-0.0397046652437,0.0616692308323,0.106008497564,0.413326837341,0.0,0.0,0.264511195434
tagged_abstract_sents/2462391.txt,21,0.262268704747,0.0508559480768,0.139250797795,0.521468892835,0.413326837341,0.895078951873,0.0640850175347,1.59718259398
tagged_abstract_sents/2462391.txt,22,0.262268704747,0.0101276299168,0.139250797795,0.521468892835,0.413326837341,0.806125263672,0.0580034761581,1.7153621337
