tagged_abstract_sents/2568506.txt,1,0.206355591311,-0.00871080139373,0.188769469584,0.129715814208,0.176993951573,0.108312241408,0.0625404443486,0.467494477582
tagged_abstract_sents/2568506.txt,3,0.0261464199517,0.0309233449477,0.139250797795,0.521468892835,0.176993951573,0.132793848813,0.0748166522865,0.547755975927
tagged_abstract_sents/2568506.txt,4,0.0518905872888,0.0095818815331,0.139250797795,0.521468892835,0.176993951573,0.146273190915,0.0650293767205,0.565798045026
tagged_abstract_sents/2568506.txt,6,0.206355591311,-0.019381533101,0.139250797795,0.521468892835,0.176993951573,0.114330007604,0.0492945236766,0.717933465004
tagged_abstract_sents/2568506.txt,7,0.262268704747,-0.00261324041812,0.139250797795,0.521468892835,0.176993951573,0.0869616119364,0.0487797362258,0.748093682197
