tagged_abstract_sents/2611126.txt,1,0.162510056315,0.125,0.210342442448,0.226435992083,0.169519344153,0.221229476921,0.0359894613583,0.754848346334
tagged_abstract_sents/2611126.txt,2,0.0458567980692,-0.103070175439,0.139250797795,0.0356431803763,6.67948390851e-06,0.105140205372,0.0274102263856,0.228946867619
tagged_abstract_sents/2611126.txt,3,0.00120675784393,-0.0219298245614,0.139250797795,0.0356431803763,0.135531438807,0.181491158104,0.0216373078098,0.415557699094
