tagged_abstract_sents/2631530.txt,1,0.239742558327,0.0550356506239,0.210342442448,0.226435992083,0.101613794974,0.466903845405,0.0456783468104,0.990099182824
tagged_abstract_sents/2631530.txt,2,0.218020917136,0.0176024955437,0.139250797795,0.0356431803763,0.160944642893,0.323854228688,0.0542236093378,0.797278066747
tagged_abstract_sents/2631530.txt,3,0.162510056315,-0.00913547237077,0.139250797795,0.0356431803763,0.168357984114,0.217479542778,0.047331075633,0.641667906113
tagged_abstract_sents/2631530.txt,4,0.0852775543041,-0.0100267379679,0.139250797795,0.0356431803763,0.0866192931217,0.318997807599,0.0537669295531,0.605919079134
tagged_abstract_sents/2631530.txt,5,0.0458567980692,-0.0216131907308,0.139250797795,0.0356431803763,0.0877229936499,0.258831503713,0.0531243944119,0.512360045094
tagged_abstract_sents/2631530.txt,6,0.0245374094932,-0.0144830659537,0.139250797795,0.0356431803763,0.0819697131026,0.301606569724,0.0576598729528,0.538287823194
tagged_abstract_sents/2631530.txt,7,0.00844730490748,-0.0367647058824,0.139250797795,0.0356431803763,0.0973516935648,0.211951669615,0.0354896675651,0.424516286505
tagged_abstract_sents/2631530.txt,8,0.00120675784393,0.019385026738,0.139250797795,0.0356431803763,0.166422543005,0.364767571314,0.0410944251915,0.657445304143
