tagged_abstract_sents/2642673.txt,1,0.239742558327,-0.0935596170583,0.188769469584,0.202456734834,0.268739443598,0.485710497462,0.0476232564795,1.13027707603
tagged_abstract_sents/2642673.txt,2,0.162510056315,0.0256744995648,0.188769469584,0.202456734834,0.279796867455,0.494259774477,0.0404008518734,1.10472219401
tagged_abstract_sents/2642673.txt,3,0.0852775543041,0.062228024369,0.139250797795,0.0356431803763,0.302167859189,0.620804489856,0.0210958610066,1.10505421138
tagged_abstract_sents/2642673.txt,4,0.0458567980692,0.032637075718,0.139250797795,0.0356431803763,0.279856506162,0.593796844041,0.0618997112722,1.05908426808
tagged_abstract_sents/2642673.txt,5,0.00844730490748,-0.0517841601393,0.139250797795,0.0356431803763,0.324576365811,0.442711680612,0.0328237953909,0.876831206722
tagged_abstract_sents/2642673.txt,6,0.00120675784393,0.0248041775457,0.139250797795,0.0356431803763,0.188925085386,0.419005880776,0.0416539444293,0.735829505386
