tagged_abstract_sents/2656959.txt,1,0.0954875100725,-0.0472727272727,0.0616692308323,0.247294108221,0.0,0.0,0.0,0.171958310486
tagged_abstract_sents/2656959.txt,3,0.0451248992748,-0.0581818181818,0.0616692308323,0.247294108221,0.0,0.0,0.0,0.129486403666
tagged_abstract_sents/2656959.txt,4,0.0805801772764,-0.00484848484848,0.0616692308323,0.247294108221,0.0,0.144229844675,0.0164319248826,0.329179062292
tagged_abstract_sents/2656959.txt,5,0.123690572119,-0.0569696969697,0.0616692308323,0.247294108221,0.0,0.0,0.0,0.192581366184
tagged_abstract_sents/2656959.txt,6,0.131345688961,-0.00969696969697,0.0616692308323,0.247294108221,0.0,0.220145829876,0.0173373574782,0.445643192465
tagged_abstract_sents/2656959.txt,7,0.140209508461,-0.0557575757576,0.0616692308323,0.247294108221,0.0,0.0,0.0,0.2060389395
tagged_abstract_sents/2656959.txt,8,0.149879129734,0.0169696969697,0.210342442448,0.141687475369,0.0,0.307983424909,0.01202527666,0.591067488013
tagged_abstract_sents/2656959.txt,9,0.150684931507,0.107878787879,0.139250797795,0.194462959676,0.0,0.34860022549,0.0132042253521,0.738528865475
tagged_abstract_sents/2656959.txt,10,0.176470588235,-0.049696969697,0.139250797795,0.194462959676,0.0,0.0,0.0,0.259201363449
tagged_abstract_sents/2656959.txt,11,0.166800966962,0.0327272727273,0.139250797795,0.194462959676,0.0,0.113691674681,0.00154049295775,0.383182682555
tagged_abstract_sents/2656959.txt,12,0.131345688961,-0.0193939393939,0.139250797795,0.194462959676,0.0,0.130434506597,0.00136932707355,0.36096588376
tagged_abstract_sents/2656959.txt,13,0.0954875100725,0.0254545454545,0.139250797795,0.194462959676,0.0,0.267038932748,0.00850100603622,0.485030927453
tagged_abstract_sents/2656959.txt,14,0.0342465753425,0.105454545455,0.139250797795,0.194462959676,0.0,0.330722768111,0.0149333501006,0.522157766014
tagged_abstract_sents/2656959.txt,15,0.0342465753425,-0.030303030303,0.139250797795,0.194462959676,0.0,0.0,0.0,0.149300941014
