tagged_abstract_sents/2661788.txt,1,0.206355591311,-0.0316912138141,0.188769469584,0.129715814208,0.591647925838,0.120699105205,0.0535267788239,0.924040696357
tagged_abstract_sents/2661788.txt,3,0.0048270313757,0.00853224987303,0.194899689933,0.0581677376677,0.591647925838,0.149764530959,0.0601239669421,0.624738336318
tagged_abstract_sents/2661788.txt,4,0.0108608205953,-0.0294565769426,0.139250797795,0.521468892835,0.591647925838,0.129450751379,0.0356524926686,0.914795025269
tagged_abstract_sents/2661788.txt,5,0.0261464199517,0.0258506856272,0.139250797795,0.521468892835,0.591647925838,0.178793367164,0.0504046920821,0.798059033307
tagged_abstract_sents/2661788.txt,6,0.0518905872888,0.0068562722194,0.139250797795,0.521468892835,0.591647925838,0.132250086759,0.0381964809384,0.638154287287
tagged_abstract_sents/2661788.txt,7,0.0993563958166,-0.0356018283393,0.139250797795,0.521468892835,0.591647925838,0.0828674168563,0.0328864683703,0.562027089758
tagged_abstract_sents/2661788.txt,8,0.172566371681,-0.00375825292026,0.139250797795,0.521468892835,0.591647925838,0.115341519944,0.0435728250244,0.84538838991
tagged_abstract_sents/2661788.txt,9,0.206355591311,0.00462163534789,0.139250797795,0.521468892835,0.591647925838,0.10482875797,0.0416939796446,0.767229646317
tagged_abstract_sents/2661788.txt,10,0.262268704747,0.0571356018283,0.139250797795,0.521468892835,0.591647925838,0.152209797301,0.0517128765662,1.11235252005
