tagged_abstract_sents/2669155.txt,1,0.239742558327,0.209706959707,0.210342442448,0.226435992083,0.0714651212539,0.772558181366,0.0499061407118,1.30076690078
tagged_abstract_sents/2669155.txt,2,0.218020917136,-0.0467032967033,0.0616692308323,0.142474783506,0.202553505822,0.262021797444,0.0412613512799,0.744489779382
tagged_abstract_sents/2669155.txt,3,0.101769911504,-0.0285409035409,0.0616692308323,0.142474783506,0.165378177329,0.486428599361,0.0501019244076,0.851193500061
tagged_abstract_sents/2669155.txt,4,0.0711987127916,-0.0114468864469,0.139250797795,0.0356431803763,0.251689298444,0.497441620041,0.0406513187834,0.924770183223
tagged_abstract_sents/2669155.txt,5,0.0245374094932,-0.0456349206349,0.139250797795,0.0356431803763,0.317034863582,0.297208528568,0.0135627589855,0.718627447613
tagged_abstract_sents/2669155.txt,6,0.00844730490748,-0.0573870573871,0.139250797795,0.0356431803763,0.262959734791,0.479982343504,0.0331584721937,0.851699335947
tagged_abstract_sents/2669155.txt,7,0.00120675784393,-0.0199938949939,0.139250797795,0.0356431803763,0.192311994357,0.521920230963,0.0396650060076,0.831182211614
