tagged_abstract_sents/2765809.txt,1,0.239742558327,-0.0562804947237,0.210342442448,0.226435992083,0.432822956359,0.264966798378,0.0355115907274,1.08694131203
tagged_abstract_sents/2765809.txt,2,0.218020917136,-0.0356291841598,0.139250797795,0.0356431803763,0.507752460005,0.513123576838,0.0492505995204,1.31773588625
tagged_abstract_sents/2765809.txt,3,0.101769911504,0.182003857937,0.139250797795,0.0356431803763,0.283310662684,0.484375739046,0.0471622701839,1.01298372571
tagged_abstract_sents/2765809.txt,4,0.0711987127916,-0.0531033700216,0.139250797795,0.0356431803763,0.0,0.334288179149,0.0648481215028,0.525792949891
tagged_abstract_sents/2765809.txt,5,0.0245374094932,-0.0570747758992,0.139250797795,0.0356431803763,0.463598758131,0.294985929693,0.0389488409273,0.886066854176
tagged_abstract_sents/2765809.txt,6,0.00844730490748,-0.0864631793941,0.139250797795,0.0356431803763,0.47663901203,0.216111486665,0.0296402877698,0.792174347523
tagged_abstract_sents/2765809.txt,7,0.00120675784393,0.106547146261,0.139250797795,0.0356431803763,0.566124907697,0.524618967412,0.0458752997602,1.23921236341
