tagged_abstract_sents/2918052.txt,2,0.0253827558421,-0.0123777988016,0.188769469584,0.123191979006,0.324174468004,0.192071284378,0.0419221590848,0.693296563404
tagged_abstract_sents/2918052.txt,3,0.0805801772764,-0.0173446862189,0.0616692308323,0.247294108221,0.324174468004,0.31018903903,0.0391946771967,0.958482864704
tagged_abstract_sents/2918052.txt,4,0.0805801772764,-0.0416272469253,0.139250797795,0.194462959676,0.324174468004,0.129344117953,0.0131946450929,0.734116229314
tagged_abstract_sents/2918052.txt,5,0.123690572119,0.0036266162094,0.139250797795,0.194462959676,0.324174468004,0.272782318538,0.0332755465665,0.834898522506
tagged_abstract_sents/2918052.txt,6,0.140209508461,-0.0167928098392,0.139250797795,0.194462959676,0.324174468004,0.175796918329,0.0224461931551,0.904068414288
tagged_abstract_sents/2918052.txt,7,0.149073327961,0.00859350362662,0.139250797795,0.194462959676,0.324174468004,0.144945662621,0.0406497800892,0.808240819868
tagged_abstract_sents/2918052.txt,8,0.149879129734,-0.0432828760643,0.139250797795,0.194462959676,0.324174468004,0.173133552053,0.0182570066455,0.564757146431
tagged_abstract_sents/2918052.txt,9,0.176470588235,0.00583412172816,0.139250797795,0.194462959676,0.324174468004,0.337408280015,0.0440583967383,0.93727124844
tagged_abstract_sents/2918052.txt,10,0.166800966962,0.05605487228,0.139250797795,0.194462959676,0.324174468004,0.345072716816,0.0440373687759,0.908451933998
tagged_abstract_sents/2918052.txt,11,0.166800966962,-0.0245190791548,0.139250797795,0.194462959676,0.324174468004,0.307188875415,0.0459364666602,1.11464713244
tagged_abstract_sents/2918052.txt,12,0.0954875100725,-0.00520340586566,0.139250797795,0.194462959676,0.324174468004,0.260057734563,0.046680325357,0.820738029505
tagged_abstract_sents/2918052.txt,13,0.0342465753425,0.0102491327657,0.139250797795,0.194462959676,0.324174468004,0.401475182918,0.0495803817248,1.09013980933
tagged_abstract_sents/2918052.txt,14,0.0342465753425,0.0174235257017,0.139250797795,0.194462959676,0.324174468004,0.441964842108,0.044197556179,0.969183118505
