tagged_abstract_sents/2967893.txt,1,0.206355591311,-0.101235741445,0.188769469584,0.129715814208,3.60145168014e-05,0.0445180247792,0.00825813042738,0.580928105397
tagged_abstract_sents/2967893.txt,2,0.0048270313757,-0.0755703422053,0.188769469584,0.129715814208,3.60145168014e-05,0.130189471497,0.0152739151547,0.26753200031
tagged_abstract_sents/2967893.txt,5,0.0993563958166,-0.0689163498099,0.0616692308323,0.106008497564,3.60145168014e-05,0.0909870736335,0.0484987797264,0.267824864737
tagged_abstract_sents/2967893.txt,6,0.172566371681,0.152566539924,0.139250797795,0.521468892835,3.60145168014e-05,0.37447066356,0.0430550517352,0.909326425125
tagged_abstract_sents/2967893.txt,7,0.206355591311,0.050855513308,0.139250797795,0.521468892835,3.60145168014e-05,0.238510589457,0.0418529002781,0.681700390127
tagged_abstract_sents/2967893.txt,8,0.262268704747,-0.0365969581749,0.139250797795,0.521468892835,3.60145168014e-05,0.141019679136,0.0291517679778,0.598769100541
