tagged_abstract_sents/3041808.txt,1,0.239742558327,-0.0568346627991,0.188769469584,0.202456734834,0.168598709725,0.14690965319,0.0736115009199,0.724668733179
tagged_abstract_sents/3041808.txt,2,0.218020917136,0.0287345902828,0.0616692308323,0.142474783506,0.120890660571,0.182338453994,0.0793786379333,0.636348454731
tagged_abstract_sents/3041808.txt,3,0.162510056315,0.107052211748,0.210342442448,0.226435992083,0.0383522250719,0.236809742235,0.104899977741,0.704582451298
tagged_abstract_sents/3041808.txt,4,0.0852775543041,-0.0394307469181,0.0616692308323,0.142474783506,0.143232995926,0.101400167915,0.0951071194686,0.473653227837
tagged_abstract_sents/3041808.txt,5,0.0458567980692,0.00697969543147,0.139250797795,0.0356431803763,0.268130323297,0.172447454988,0.0844921286965,0.643469637533
tagged_abstract_sents/3041808.txt,6,0.0245374094932,-0.049583031182,0.139250797795,0.0356431803763,0.13446801469,0.130345455968,0.0626500764025,0.417495221429
tagged_abstract_sents/3041808.txt,7,0.00844730490748,-0.0532088469906,0.139250797795,0.0356431803763,0.121302211477,0.138377472841,0.0481114377299,0.384225549585
tagged_abstract_sents/3041808.txt,8,0.00120675784393,0.0562907904278,0.139250797795,0.0356431803763,0.154954572477,0.219415944149,0.0758544010017,0.542766834999
