tagged_abstract_sents/3201166.txt,2,0.0048270313757,-0.0494741873805,0.139250797795,0.521468892835,0.236212921756,0.255519006001,0.0581521418891,0.896693754685
tagged_abstract_sents/3201166.txt,3,0.0108608205953,0.0289196940727,0.139250797795,0.521468892835,0.236212921756,0.344026066536,0.0458625498399,0.783959936704
tagged_abstract_sents/3201166.txt,4,0.0353982300885,-0.0523422562141,0.139250797795,0.521468892835,0.236212921756,0.345383808633,0.0550976666077,0.854967710341
tagged_abstract_sents/3201166.txt,5,0.0993563958166,0.0432600382409,0.139250797795,0.521468892835,0.236212921756,0.361879044245,0.0565327126667,0.971648689247
tagged_abstract_sents/3201166.txt,6,0.172566371681,-0.0150573613767,0.139250797795,0.521468892835,0.236212921756,0.437379011098,0.0567817369125,1.18007281522
tagged_abstract_sents/3201166.txt,8,0.262268704747,-0.0150573613767,0.139250797795,0.521468892835,0.236212921756,0.535301492327,0.0762272213725,1.28061119372
