tagged_abstract_sents/3339302.txt,1,0.250201126307,0.0264367816092,0.210342442448,0.226435992083,0.449779608982,0.360829201795,0.0282312034451,1.21739029044
tagged_abstract_sents/3339302.txt,2,0.229283990346,-0.0317106152806,0.0616692308323,0.142474783506,0.308859864415,0.188099498347,0.0133616819633,0.760983164414
tagged_abstract_sents/3339302.txt,3,0.206757843926,-0.0256254225828,0.0616692308323,0.142474783506,0.116290500251,0.224438256221,0.0315446054469,0.606131603011
tagged_abstract_sents/3339302.txt,4,0.118262268705,-0.00872210953347,0.210342442448,0.226435992083,0.334019863729,0.276124984251,0.00984544986769,0.885957709754
tagged_abstract_sents/3339302.txt,5,0.0852775543041,-0.0303583502366,0.0616692308323,0.142474783506,0.254466619893,0.316387437362,0.0203470005321,0.72692848165
tagged_abstract_sents/3339302.txt,6,0.0571198712792,-0.00601757944557,0.139250797795,0.0356431803763,0.519473309376,0.221210127009,0.0249268942039,0.890421064734
tagged_abstract_sents/3339302.txt,7,0.0345937248592,0.083908045977,0.139250797795,0.0356431803763,0.252537019995,0.33757117356,0.0232232414931,0.738106377142
tagged_abstract_sents/3339302.txt,8,0.0144810941271,-0.0175118323191,0.139250797795,0.0356431803763,0.373772869138,0.257443726009,0.0248729438237,0.74449040082
tagged_abstract_sents/3339302.txt,9,0.00120675784393,0.00412440838404,0.139250797795,0.0356431803763,0.454802152634,0.333886754114,0.02437388903,0.895171436739
tagged_abstract_sents/3339302.txt,10,0.00120675784393,0.00547667342799,0.139250797795,0.0356431803763,0.212443839401,0.335854399442,0.031595194261,0.662272527075
