tagged_abstract_sents/3350949.txt,2,0.131345688961,-0.0357963875205,0.139250797795,0.194462959676,0.329278112335,0.233493193377,0.0285807483093,0.571849845823
tagged_abstract_sents/3350949.txt,3,0.150684931507,-0.0193760262726,0.139250797795,0.194462959676,0.329278112335,0.308435003037,0.0165534535297,0.939933867653
tagged_abstract_sents/3350949.txt,4,0.131345688961,-0.0341543513957,0.139250797795,0.194462959676,0.329278112335,0.168179058049,0.0123254189944,0.740624989507
tagged_abstract_sents/3350949.txt,5,0.0342465753425,0.0873563218391,0.139250797795,0.194462959676,0.329278112335,0.291538755809,0.0319126142712,0.825562293857
