tagged_abstract_sents/3355306.txt,2,0.123690572119,-0.0778567199526,0.0616692308323,0.247294108221,0.283195892039,0.157247850783,0.0293102004939,0.495154137479
tagged_abstract_sents/3355306.txt,3,0.149073327961,0.0606867969213,0.139250797795,0.194462959676,0.283195892039,0.371684281257,0.0465761165292,0.925334547426
tagged_abstract_sents/3355306.txt,4,0.176470588235,0.00384843102427,0.139250797795,0.194462959676,0.283195892039,0.364686292639,0.0660032905858,0.757788495031
tagged_abstract_sents/3355306.txt,5,0.0954875100725,0.0544701006513,0.139250797795,0.194462959676,0.283195892039,0.451045864788,0.0736961617345,1.01410479824
tagged_abstract_sents/3355306.txt,6,0.0342465753425,-0.00414446417999,0.139250797795,0.194462959676,0.283195892039,0.47084371458,0.0805107920695,0.989083052927
