tagged_abstract_sents/3361039.txt,2,0.0805801772764,0.0213414634146,0.139250797795,0.194462959676,0.480423911996,0.180413943405,0.0307126107348,0.715313276055
tagged_abstract_sents/3361039.txt,3,0.123690572119,0.0359756097561,0.139250797795,0.194462959676,0.480423911996,0.171459158917,0.0143166671238,0.748890858469
tagged_abstract_sents/3361039.txt,4,0.149073327961,0.000853658536585,0.139250797795,0.194462959676,0.480423911996,0.164110717363,0.0151699380464,0.826866488368
tagged_abstract_sents/3361039.txt,5,0.176470588235,0.0203658536585,0.139250797795,0.194462959676,0.480423911996,0.168402991105,0.0238144867118,0.548732579083
tagged_abstract_sents/3361039.txt,6,0.166800966962,-0.0498780487805,0.139250797795,0.194462959676,0.480423911996,0.131039721533,0.0273058884836,0.409779995618
tagged_abstract_sents/3361039.txt,7,0.0954875100725,-0.0362195121951,0.139250797795,0.194462959676,0.480423911996,0.0643508946246,0.020380985467,0.449492307796
tagged_abstract_sents/3361039.txt,8,0.0342465753425,-0.0430487804878,0.139250797795,0.194462959676,0.480423911996,0.12106414394,0.0169359041167,0.765175751029
