tagged_abstract_sents/3517206.txt,1,0.206355591311,-0.0299781181619,0.188769469584,0.129715814208,0.137005697235,0.105328674784,0.0728048990857,0.572872206301
tagged_abstract_sents/3517206.txt,3,0.0048270313757,-0.0350838803793,0.0616692308323,0.106008497564,0.137005697235,0.0935782029639,0.0627107771261,0.432635782763
tagged_abstract_sents/3517206.txt,5,0.0353982300885,-0.0234135667396,0.139250797795,0.521468892835,0.137005697235,0.077881078871,0.0626392961877,0.679662668617
tagged_abstract_sents/3517206.txt,6,0.0683829444891,-0.00444930707513,0.139250797795,0.521468892835,0.137005697235,0.082888753107,0.0429199832426,0.517547781335
tagged_abstract_sents/3517206.txt,7,0.130329847144,-0.0496717724289,0.139250797795,0.521468892835,0.137005697235,0.0829185406218,0.0639086719732,0.621265872269
tagged_abstract_sents/3517206.txt,8,0.214802896219,0.0137855579869,0.139250797795,0.521468892835,0.137005697235,0.148548154987,0.0495934417489,0.701176449517
tagged_abstract_sents/3517206.txt,9,0.262268704747,0.0305616338439,0.139250797795,0.521468892835,0.137005697235,0.0995204688785,0.0340434707607,0.664837193406
tagged_abstract_sents/3517206.txt,10,0.262268704747,-0.00444930707513,0.139250797795,0.521468892835,0.137005697235,0.15728476964,0.0708150048876,0.800096640893
