tagged_abstract_sents/3517206.txt,1,0.250201126307,-0.0299781181619,0.188769469584,0.202456734834,0.10235030396,0.105328674784,0.0728048990857,0.629770910486
tagged_abstract_sents/3517206.txt,2,0.229283990346,0.112253829322,0.210342442448,0.226435992083,0.100365344959,0.19091959802,0.0700408462505,0.74030576622
tagged_abstract_sents/3517206.txt,3,0.206757843926,-0.0350838803793,0.0616692308323,0.142474783506,0.216864788963,0.0935782029639,0.0627107771261,0.605120318586
tagged_abstract_sents/3517206.txt,4,0.118262268705,-0.00955506929249,0.139250797795,0.0356431803763,0.300458838568,0.119854444313,0.0611583577713,0.654488794768
tagged_abstract_sents/3517206.txt,5,0.0852775543041,-0.0234135667396,0.139250797795,0.0356431803763,0.289440356087,0.077881078871,0.0626392961877,0.573818414252
tagged_abstract_sents/3517206.txt,6,0.0571198712792,-0.00444930707513,0.139250797795,0.0356431803763,0.111856484062,0.082888753107,0.0429199832426,0.36278960903
tagged_abstract_sents/3517206.txt,7,0.0345937248592,-0.0496717724289,0.139250797795,0.0356431803763,0.154043069697,0.0829185406218,0.0639086719732,0.398929260704
tagged_abstract_sents/3517206.txt,8,0.0144810941271,0.0137855579869,0.139250797795,0.0356431803763,0.102369357461,0.148548154987,0.0495934417489,0.395171294106
tagged_abstract_sents/3517206.txt,9,0.00120675784393,0.0305616338439,0.139250797795,0.0356431803763,0.0892798964523,0.0995204688785,0.0340434707607,0.310239922146
tagged_abstract_sents/3517206.txt,10,0.00120675784393,-0.00444930707513,0.139250797795,0.0356431803763,0.137005697235,0.15728476964,0.0708150048876,0.445499369634
