tagged_abstract_sents/3534506.txt,1,0.250201126307,-0.0309542280838,0.188769469584,0.202456734834,0.214506246352,0.246622302287,0.0371944832402,0.847414842551
tagged_abstract_sents/3534506.txt,2,0.229283990346,-0.0534522885958,0.188769469584,0.202456734834,0.275234422583,0.121897816505,0.0127516876164,0.737742416504
tagged_abstract_sents/3534506.txt,3,0.206757843926,-0.00535298681148,0.188769469584,0.202456734834,0.208700908875,0.282051634903,0.0349241366176,0.845134113416
tagged_abstract_sents/3534506.txt,4,0.118262268705,0.0124903025601,0.188769469584,0.202456734834,0.0470511835687,0.27695227385,0.0502959563714,0.626529044508
tagged_abstract_sents/3534506.txt,5,0.0852775543041,0.0404189294026,0.139250797795,0.0356431803763,0.143890968025,0.249892894169,0.0407279109086,0.591135955437
tagged_abstract_sents/3534506.txt,6,0.0571198712792,0.00938712179984,0.139250797795,0.0356431803763,0.164624163435,0.169908654686,0.0376105679702,0.500035060485
tagged_abstract_sents/3534506.txt,7,0.0345937248592,-0.0262994569434,0.139250797795,0.0356431803763,0.145707891593,0.171635536901,0.0379015363128,0.457978406316
tagged_abstract_sents/3534506.txt,8,0.0144810941271,-0.0177657098526,0.139250797795,0.0356431803763,0.142131703243,0.209538419997,0.0387929263884,0.478813135969
tagged_abstract_sents/3534506.txt,9,0.00120675784393,-0.00147401086113,0.139250797795,0.0356431803763,0.185825722401,0.171799978676,0.0345088454376,0.473123503627
tagged_abstract_sents/3534506.txt,10,0.00120675784393,0.0730023273856,0.139250797795,0.0356431803763,0.16597369157,0.355262630724,0.0349416608473,0.652062207904
