tagged_abstract_sents/3545282.txt,1,0.239742558327,0.0172637030643,0.188769469584,0.202456734834,0.336327768697,0.365017703616,0.0625579890614,1.11427200389
tagged_abstract_sents/3545282.txt,2,0.218020917136,-0.046180405697,0.188769469584,0.202456734834,0.353794524531,0.21187377079,0.0383689203047,0.924339623438
tagged_abstract_sents/3545282.txt,3,0.101769911504,-0.0633002445691,0.139250797795,0.0356431803763,0.233382494823,0.167428464821,0.0399784437654,0.58986363671
tagged_abstract_sents/3545282.txt,4,0.0711987127916,0.10386994677,0.139250797795,0.0356431803763,0.3356197492,0.367681200412,0.0521506006446,0.913502862854
tagged_abstract_sents/3545282.txt,5,0.0245374094932,-0.0371169615883,0.139250797795,0.0356431803763,0.37071691248,0.143934121675,0.0300444379334,0.637220360376
tagged_abstract_sents/3545282.txt,6,0.00844730490748,-0.0643072939145,0.139250797795,0.0356431803763,0.509450483811,0.191410726095,0.0621363693441,0.837212317403
tagged_abstract_sents/3545282.txt,7,0.00120675784393,0.0897712559344,0.139250797795,0.0356431803763,0.335922823446,0.355296829478,0.0581294560016,0.848587119398
