tagged_abstract_sents/3598228.txt,1,0.0253827558421,0.041144200627,0.188769469584,0.123191979006,7.53020069837e-05,0.207519705195,0.0237903747002,0.391226136958
tagged_abstract_sents/3598228.txt,2,0.0805801772764,-0.0539446185998,0.188769469584,0.123191979006,7.53020069837e-05,0.0770774798586,0.0359237290976,0.298079708493
tagged_abstract_sents/3598228.txt,4,0.149073327961,-0.0476750261233,0.0616692308323,0.247294108221,7.53020069837e-05,0.189839080041,0.0411101917084,0.445742197092
tagged_abstract_sents/3598228.txt,5,0.176470588235,-0.0424503657262,0.0616692308323,0.247294108221,7.53020069837e-05,0.148920901913,0.0217790654103,0.408452312912
tagged_abstract_sents/3598228.txt,6,0.166800966962,0.0442789968652,0.139250797795,0.194462959676,7.53020069837e-05,0.244939349426,0.0348569641321,0.550078770234
tagged_abstract_sents/3598228.txt,7,0.0954875100725,0.083986415883,0.139250797795,0.194462959676,7.53020069837e-05,0.175291138614,0.0143331083313,0.440759918404
tagged_abstract_sents/3598228.txt,8,0.0342465753425,-0.0748432601881,0.139250797795,0.194462959676,7.53020069837e-05,0.10071523252,0.0256502319436,0.266833661507
