tagged_abstract_sents/361152.txt,1,0.239742558327,0.00114942528736,0.210342442448,0.226435992083,0.307726804008,0.350577804489,0.0403838265456,1.06381438561
tagged_abstract_sents/361152.txt,2,0.162510056315,-0.0344827586207,0.139250797795,0.0356431803763,0.131398257491,0.273392289647,0.0453962789335,0.65361667241
tagged_abstract_sents/361152.txt,3,0.0852775543041,-0.0114942528736,0.139250797795,0.0356431803763,0.130391541288,0.248913582003,0.0441153792774,0.569662048447
tagged_abstract_sents/361152.txt,4,0.0458567980692,0.0712643678161,0.139250797795,0.0356431803763,0.319109945903,0.458150162102,0.0411070574558,0.94962383049
tagged_abstract_sents/361152.txt,5,0.00844730490748,-0.0609195402299,0.139250797795,0.0356431803763,0.371758444711,0.221751761959,0.0219575670878,0.690360062647
tagged_abstract_sents/361152.txt,6,0.00120675784393,0.0344827586207,0.139250797795,0.0356431803763,0.139166707589,0.248269353589,0.0396664456336,0.515282817822
