tagged_abstract_sents/3681544.txt,2,0.149073327961,0.0293959007551,0.139250797795,0.194462959676,0.30486961553,0.197014295126,0.0582149731201,0.648322707454
tagged_abstract_sents/3681544.txt,3,0.166800966962,-0.0115965480043,0.139250797795,0.194462959676,0.30486961553,0.206431563804,0.0758890053001,0.634540702215
tagged_abstract_sents/3681544.txt,4,0.0342465753425,-0.0029665587918,0.139250797795,0.194462959676,0.30486961553,0.166761986304,0.0495847713546,0.675984608505
