tagged_abstract_sents/3681544.txt,1,0.218020917136,-0.014832793959,0.139250797795,0.0356431803763,0.148483202568,0.166696551708,0.0496926229508,0.616640905154
tagged_abstract_sents/3681544.txt,2,0.0852775543041,0.0293959007551,0.139250797795,0.0356431803763,0.139991309888,0.197014295126,0.0582149731201,0.549640154738
tagged_abstract_sents/3681544.txt,3,0.0245374094932,-0.0115965480043,0.139250797795,0.0356431803763,0.0931343823422,0.206431563804,0.0758890053001,0.47308392245
tagged_abstract_sents/3681544.txt,4,0.00120675784393,-0.0029665587918,0.139250797795,0.0356431803763,0.30486961553,0.166761986304,0.0495847713546,0.601906820716
