tagged_abstract_sents/3773200.txt,2,0.123690572119,0.0270727580372,0.139250797795,0.194462959676,0.244541993618,0.177174165383,0.0702933563417,0.75018495298
tagged_abstract_sents/3773200.txt,3,0.149073327961,-0.00761421319797,0.139250797795,0.194462959676,0.244541993618,0.205742660896,0.0930201422153,0.904799706815
tagged_abstract_sents/3773200.txt,4,0.176470588235,0.000846023688663,0.139250797795,0.194462959676,0.244541993618,0.207914206566,0.10083143776,0.768755157459
tagged_abstract_sents/3773200.txt,5,0.0954875100725,-0.0169204737733,0.139250797795,0.194462959676,0.244541993618,0.140068316191,0.0836430609942,0.757189079299
tagged_abstract_sents/3773200.txt,6,0.0342465753425,-0.0296108291032,0.139250797795,0.194462959676,0.244541993618,0.110682982186,0.0975086281277,0.602172985185
