tagged_abstract_sents/3882737.txt,2,0.0048270313757,0.0209335219236,0.139250797795,0.521468892835,0.222789155426,0.194364060382,0.0359562104722,0.652401834861
tagged_abstract_sents/3882737.txt,3,0.0048270313757,-0.060396039604,0.139250797795,0.521468892835,0.222789155426,0.129710706654,0.0328971808313,0.606574842645
tagged_abstract_sents/3882737.txt,4,0.016894609815,0.0046676096181,0.139250797795,0.521468892835,0.222789155426,0.247696510561,0.0491669074449,0.611033692864
tagged_abstract_sents/3882737.txt,5,0.0353982300885,-0.0024045261669,0.139250797795,0.521468892835,0.222789155426,0.250135899244,0.0574290392262,0.685720077596
tagged_abstract_sents/3882737.txt,6,0.0683829444891,-0.0384724186704,0.139250797795,0.521468892835,0.222789155426,0.308482998579,0.051137101198,0.801974225584
tagged_abstract_sents/3882737.txt,8,0.214802896219,-0.0229137199434,0.139250797795,0.521468892835,0.222789155426,0.273286237626,0.0552388957474,0.9799264693
tagged_abstract_sents/3882737.txt,9,0.262268704747,-0.0476661951909,0.139250797795,0.521468892835,0.222789155426,0.220121483802,0.0513981187197,0.991153971139
tagged_abstract_sents/3882737.txt,10,0.262268704747,0.0492220650636,0.139250797795,0.521468892835,0.222789155426,0.425621346266,0.0480561173713,1.14219206262
