tagged_abstract_sents/3888742.txt,1,0.0954875100725,-0.00641025641026,0.188769469584,0.123191979006,0.160838483994,0.105214337683,0.0296052631579,0.569528392188
tagged_abstract_sents/3888742.txt,2,0.0253827558421,0.0018315018315,0.188769469584,0.123191979006,0.160838483994,0.0905967149437,0.0301476932447,0.573561279045
tagged_abstract_sents/3888742.txt,4,0.123690572119,-0.047619047619,0.139250797795,0.194462959676,0.160838483994,0.0568820565023,0.0354085086613,0.309769668266
tagged_abstract_sents/3888742.txt,5,0.140209508461,0.0347985347985,0.139250797795,0.194462959676,0.160838483994,0.205198700151,0.062790503493,0.952562249553
tagged_abstract_sents/3888742.txt,6,0.149073327961,-0.00297619047619,0.139250797795,0.194462959676,0.160838483994,0.155427691459,0.0507277638144,0.583673360953
tagged_abstract_sents/3888742.txt,7,0.149879129734,-0.0634157509158,0.139250797795,0.194462959676,0.160838483994,0.0706841462776,0.0669296191298,0.372824335796
tagged_abstract_sents/3888742.txt,8,0.176470588235,-0.00778388278388,0.139250797795,0.194462959676,0.160838483994,0.105945382827,0.0621679306117,0.900332535958
tagged_abstract_sents/3888742.txt,9,0.166800966962,-0.025641025641,0.139250797795,0.194462959676,0.160838483994,0.0651955329827,0.045646114024,0.592365775898
tagged_abstract_sents/3888742.txt,10,0.0954875100725,0.0931776556777,0.139250797795,0.194462959676,0.160838483994,0.225842520606,0.0816749700799,0.831682804201
tagged_abstract_sents/3888742.txt,11,0.0342465753425,-0.0201465201465,0.139250797795,0.194462959676,0.160838483994,0.0753688340908,0.0562697727926,0.48335444786
tagged_abstract_sents/3888742.txt,12,0.0342465753425,-0.003663003663,0.139250797795,0.194462959676,0.160838483994,0.12482486365,0.0504177830253,0.490710077011
