tagged_abstract_sents/3905544.txt,1,0.239742558327,0.325136612022,0.188769469584,0.202456734834,0.464465652721,0.132411714706,0.102791558815,1.11161205055
tagged_abstract_sents/3905544.txt,2,0.162510056315,-0.021174863388,0.210342442448,0.226435992083,0.475386596263,0.100233769497,0.0483288678988,0.922824324883
tagged_abstract_sents/3905544.txt,3,0.0852775543041,-0.105191256831,0.0616692308323,0.142474783506,0.365151474886,0.0670469526986,0.0399626114466,0.592921881576
tagged_abstract_sents/3905544.txt,4,0.0458567980692,-0.0498633879781,0.0616692308323,0.142474783506,0.366234372875,0.0591154060982,0.069209910021,0.594849500322
tagged_abstract_sents/3905544.txt,5,0.00844730490748,-0.0785519125683,0.0616692308323,0.142474783506,0.346413983968,0.0666555259778,0.0369859073914,0.514679929218
tagged_abstract_sents/3905544.txt,6,0.00120675784393,-0.0703551912568,0.139250797795,0.0356431803763,0.245956032388,0.0487613477906,0.0293854118272,0.39131551304
