tagged_abstract_sents/3941176.txt,2,0.131345688961,0.0189679218968,0.139250797795,0.194462959676,0.311871631906,0.225460227792,0.0358666977033,0.789890879714
tagged_abstract_sents/3941176.txt,3,0.150684931507,0.0482566248257,0.139250797795,0.194462959676,0.311871631906,0.193155167904,0.0314082140363,0.552353170258
tagged_abstract_sents/3941176.txt,4,0.131345688961,-0.081450488145,0.139250797795,0.194462959676,0.311871631906,0.195541502221,0.0271528020251,0.825766157898
tagged_abstract_sents/3941176.txt,5,0.0342465753425,0.0608089260809,0.139250797795,0.194462959676,0.311871631906,0.292107691247,0.0559651155409,0.827467770985
