tagged_abstract_sents/4396080.txt,1,0.239742558327,0.050654853621,0.188769469584,0.202456734834,0.227643555126,0.474947889854,0.0262987330084,1.08593695062
tagged_abstract_sents/4396080.txt,2,0.218020917136,0.068374422188,0.188769469584,0.202456734834,0.0769622628994,0.478823193097,0.0377211908123,0.936720020197
tagged_abstract_sents/4396080.txt,3,0.162510056315,0.00057781201849,0.188769469584,0.202456734834,0.0865673555567,0.4553114953,0.0393898329915,0.866514046547
tagged_abstract_sents/4396080.txt,4,0.0852775543041,-0.0710708782743,0.188769469584,0.202456734834,0.385111254841,0.170211509997,0.0191390063204,0.78359139419
tagged_abstract_sents/4396080.txt,5,0.0458567980692,-0.0417950693374,0.188769469584,0.202456734834,0.330676803355,0.245190036855,0.0367019891265,0.796017009167
tagged_abstract_sents/4396080.txt,6,0.0245374094932,-0.0456471494607,0.188769469584,0.202456734834,0.240821352201,0.244637951262,0.029625288928,0.680706845336
tagged_abstract_sents/4396080.txt,7,0.00844730490748,0.086093990755,0.188769469584,0.202456734834,0.175988952667,0.455226620115,0.0467843539408,0.857098324042
tagged_abstract_sents/4396080.txt,8,0.00120675784393,-0.04718798151,0.188769469584,0.202456734834,0.166730418597,0.26558047313,0.0161954292411,0.595155886184
