tagged_abstract_sents/4817186.txt,2,0.149073327961,-0.0804431599229,0.210342442448,0.141687475369,0.310536520449,0.097022577859,0.000714732422049,0.411739161617
tagged_abstract_sents/4817186.txt,3,0.166800966962,-0.0380539499037,0.139250797795,0.194462959676,0.310536520449,0.18442540625,0.0399168653341,0.822561403981
tagged_abstract_sents/4817186.txt,4,0.0342465753425,-0.0380539499037,0.139250797795,0.194462959676,0.310536520449,0.202400948005,0.0419174321613,0.702605657708
