tagged_abstract_sents/6110782.txt,1,0.0253827558421,-0.037897511946,0.188769469584,0.123191979006,0.220052125266,0.145778038186,0.0272265362861,0.365883053546
tagged_abstract_sents/6110782.txt,2,0.0805801772764,-0.0205964738837,0.188769469584,0.123191979006,0.220052125266,0.156091944195,0.0246469279324,0.599943041259
tagged_abstract_sents/6110782.txt,4,0.149879129734,-0.00790904597133,0.210342442448,0.141687475369,0.220052125266,0.136248801051,0.0345844118493,0.5818286214
tagged_abstract_sents/6110782.txt,5,0.166800966962,-0.0102158510463,0.0616692308323,0.247294108221,0.220052125266,0.106603070563,0.0160852952052,0.559565107446
tagged_abstract_sents/6110782.txt,6,0.0954875100725,-0.0125226561213,0.139250797795,0.194462959676,0.220052125266,0.116949491905,0.0319510353753,0.57604274666
tagged_abstract_sents/6110782.txt,7,0.0342465753425,0.045147470753,0.139250797795,0.194462959676,0.220052125266,0.177849696705,0.0305454477248,0.592838310921
