tagged_abstract_sents/6243391.txt,2,0.016894609815,-0.0371161548732,0.139250797795,0.521468892835,0.164487499203,0.134558194716,0.0161522737174,0.382868992059
tagged_abstract_sents/6243391.txt,4,0.214802896219,-0.0331108144192,0.139250797795,0.521468892835,0.164487499203,0.185234413524,0.0306006449567,0.944346933435
tagged_abstract_sents/6243391.txt,5,0.262268704747,-0.0357810413885,0.139250797795,0.521468892835,0.164487499203,0.178323483891,0.0327234342013,0.804259239563
