tagged_abstract_sents/6543133.txt,1,0.239742558327,0.0438596491228,0.188769469584,0.202456734834,0.515813832712,0.16721304725,0.106965993365,1.14568060506
tagged_abstract_sents/6543133.txt,2,0.162510056315,-0.0512820512821,0.210342442448,0.226435992083,0.173349582386,0.165449885055,0.20245635512,0.834109476206
tagged_abstract_sents/6543133.txt,3,0.0852775543041,-0.00168690958165,0.139250797795,0.0356431803763,0.208415503221,0.0971472423447,0.0767466822795,0.530512442382
tagged_abstract_sents/6543133.txt,4,0.0458567980692,0.129892037787,0.139250797795,0.0356431803763,0.315389588532,0.228193461551,0.161838029765,0.848403278871
tagged_abstract_sents/6543133.txt,5,0.00844730490748,-0.0907557354926,0.139250797795,0.0356431803763,0.187617866086,0.0687968496593,0.00452771272443,0.329867478308
tagged_abstract_sents/6543133.txt,6,0.00120675784393,-0.0300269905533,0.139250797795,0.0356431803763,0.421929372771,0.155730465702,0.0865983606557,0.739536560303
