tagged_abstract_sents/6863528.txt,3,0.0353982300885,0.0397027600849,0.0616692308323,0.106008497564,0.226646350468,0.136802719222,0.0,0.500334604171
tagged_abstract_sents/6863528.txt,4,0.0993563958166,-0.0609341825902,0.139250797795,0.521468892835,0.226646350468,0.0777144091242,0.0126366302319,0.645695796262
tagged_abstract_sents/6863528.txt,5,0.206355591311,-0.0354564755839,0.139250797795,0.521468892835,0.226646350468,0.12195874659,0.0,0.731249825597
tagged_abstract_sents/6863528.txt,6,0.262268704747,-0.00106157112527,0.139250797795,0.521468892835,0.226646350468,0.181492570089,0.0060436057631,0.849851242641
