tagged_abstract_sents/6881172.txt,2,0.131345688961,-0.00550774526678,0.139250797795,0.194462959676,0.115905144789,0.297108418644,0.0218115472149,0.668168090034
tagged_abstract_sents/6881172.txt,3,0.150684931507,-0.0752151462995,0.139250797795,0.194462959676,0.115905144789,0.252204386347,0.0171962212814,0.712814543947
tagged_abstract_sents/6881172.txt,4,0.131345688961,0.036660929432,0.139250797795,0.194462959676,0.115905144789,0.309312843626,0.0223318337037,0.661941004763
tagged_abstract_sents/6881172.txt,5,0.0342465753425,0.0418244406196,0.139250797795,0.194462959676,0.115905144789,0.417767368408,0.0239300835336,0.721329031929
