tagged_abstract_sents/7017311.txt,1,0.206355591311,-0.0630522088353,0.188769469584,0.129715814208,0.265367734957,0.30984881306,0.0199969569848,0.76470026771
tagged_abstract_sents/7017311.txt,2,0.0108608205953,-0.0281124497992,0.210342442448,0.0253702522065,0.265367734957,0.46929656713,0.0296793127209,0.993469995907
tagged_abstract_sents/7017311.txt,5,0.206355591311,0.0152610441767,0.139250797795,0.521468892835,0.265367734957,0.770900329426,0.0257306035775,1.41511075877
tagged_abstract_sents/7017311.txt,6,0.262268704747,-0.0220883534137,0.139250797795,0.521468892835,0.265367734957,0.585021301036,0.0171046434963,1.29895703935
