tagged_abstract_sents/7091901.txt,2,0.0805801772764,-0.00672043010753,0.210342442448,0.141687475369,0.335880477081,0.229281451669,0.0535777947543,1.04944595091
tagged_abstract_sents/7091901.txt,3,0.123690572119,-0.0895161290323,0.194899689933,0.293363477728,0.335880477081,0.0785083658364,0.031746031746,0.376789159068
tagged_abstract_sents/7091901.txt,4,0.149073327961,-0.0325268817204,0.139250797795,0.194462959676,0.335880477081,0.166394508396,0.0511841100076,1.0392480286
tagged_abstract_sents/7091901.txt,5,0.176470588235,-0.0583333333333,0.139250797795,0.194462959676,0.335880477081,0.166905777747,0.0652288887583,0.950066701807
tagged_abstract_sents/7091901.txt,6,0.166800966962,-0.0411290322581,0.139250797795,0.194462959676,0.335880477081,0.185819825821,0.033122339845,0.846290408138
tagged_abstract_sents/7091901.txt,7,0.0954875100725,-0.0443548387097,0.139250797795,0.194462959676,0.335880477081,0.183849890057,0.0596893302776,0.854164787968
tagged_abstract_sents/7091901.txt,8,0.0342465753425,0.0427419354839,0.139250797795,0.194462959676,0.335880477081,0.344835283676,0.0744297719088,0.919055466837
