tagged_abstract_sents/7091901.txt,3,0.0108608205953,-0.0895161290323,0.194899689933,0.0581677376677,0.335880477081,0.0785083658364,0.031746031746,0.215966635831
tagged_abstract_sents/7091901.txt,4,0.0353982300885,-0.0325268817204,0.139250797795,0.521468892835,0.335880477081,0.166394508396,0.0511841100076,1.04640973025
tagged_abstract_sents/7091901.txt,5,0.0993563958166,-0.0583333333333,0.139250797795,0.521468892835,0.335880477081,0.166905777747,0.0652288887583,0.98647712782
tagged_abstract_sents/7091901.txt,6,0.172566371681,-0.0411290322581,0.139250797795,0.521468892835,0.335880477081,0.185819825821,0.033122339845,0.949004511862
tagged_abstract_sents/7091901.txt,7,0.206355591311,-0.0443548387097,0.139250797795,0.521468892835,0.335880477081,0.183849890057,0.0596893302776,1.04096103291
tagged_abstract_sents/7091901.txt,8,0.262268704747,0.0427419354839,0.139250797795,0.521468892835,0.335880477081,0.344835283676,0.0744297719088,1.19957495031
