tagged_abstract_sents/7224353.txt,2,0.0108608205953,-0.131628787879,0.139250797795,0.521468892835,0.20402519915,0.0967893796828,0.0350140056022,0.497184883358
tagged_abstract_sents/7224353.txt,3,0.0353982300885,0.0407196969697,0.139250797795,0.521468892835,0.20402519915,0.386083965759,0.0598138245197,0.75536684113
tagged_abstract_sents/7224353.txt,5,0.206355591311,-0.0284090909091,0.139250797795,0.521468892835,0.20402519915,0.297401876258,0.0504548927009,0.776179407942
tagged_abstract_sents/7224353.txt,6,0.262268704747,0.117424242424,0.139250797795,0.521468892835,0.20402519915,0.43720727014,0.0689168229275,1.16951517125
