tagged_abstract_sents/7370875.txt,2,0.0048270313757,-0.087899050906,0.0616692308323,0.106008497564,0.394768177027,0.226124141175,0.0249730383448,0.491676784289
tagged_abstract_sents/7370875.txt,3,0.0108608205953,-0.0542493528904,0.139250797795,0.521468892835,0.394768177027,0.345619994245,0.0139111751126,0.90414615231
tagged_abstract_sents/7370875.txt,4,0.0353982300885,0.00873597929249,0.139250797795,0.521468892835,0.394768177027,0.34578985254,0.0189304326956,0.753771881234
tagged_abstract_sents/7370875.txt,5,0.0993563958166,-0.0913503019845,0.139250797795,0.521468892835,0.394768177027,0.25698877063,0.0276612915988,0.888464844574
tagged_abstract_sents/7370875.txt,7,0.206355591311,0.0216781708369,0.139250797795,0.521468892835,0.394768177027,0.567670220246,0.0391261690377,1.27767705264
tagged_abstract_sents/7370875.txt,8,0.262268704747,0.0320319240725,0.139250797795,0.521468892835,0.394768177027,0.548272814784,0.0333521909072,1.41868059808
