tagged_abstract_sents/7393077.txt,1,0.239742558327,0.00878709305676,0.210342442448,0.226435992083,0.18307565751,0.665345662703,0.0379845416875,1.25305934602
tagged_abstract_sents/7393077.txt,2,0.162510056315,-0.0672716796312,0.139250797795,0.0356431803763,0.419220219707,0.307674002167,0.0215662072276,0.945332491238
tagged_abstract_sents/7393077.txt,3,0.0852775543041,-0.0223278594065,0.139250797795,0.0356431803763,0.314412620588,0.514857941553,0.0312287657484,1.00457415246
tagged_abstract_sents/7393077.txt,4,0.0458567980692,0.0459521751657,0.139250797795,0.0356431803763,0.397214042256,0.555116281711,0.0478125214291,1.1263370719
tagged_abstract_sents/7393077.txt,5,0.00844730490748,0.0278017862288,0.139250797795,0.0356431803763,0.333780715718,0.705919516825,0.0335794867429,1.16591627347
tagged_abstract_sents/7393077.txt,6,0.00120675784393,0.00705848458657,0.139250797795,0.0356431803763,0.0967415201186,0.730624072546,0.0404890360628,0.95055008493
