tagged_abstract_sents/7441727.txt,1,0.0451248992748,-0.0222222222222,0.188769469584,0.123191979006,0.0,0.115589957719,0.0210310612597,0.542890668529
tagged_abstract_sents/7441727.txt,3,0.150684931507,-0.0234567901235,0.188769469584,0.123191979006,0.0,0.144135621903,0.0362608419236,0.427595379502
tagged_abstract_sents/7441727.txt,4,0.131345688961,-0.0395061728395,0.188769469584,0.123191979006,0.0,0.0748051049845,0.0290300546448,0.540779462361
tagged_abstract_sents/7441727.txt,5,0.0342465753425,0.020987654321,0.188769469584,0.123191979006,0.0,0.175272387429,0.0314363956934,0.369645902754
