tagged_abstract_sents/7464862.txt,1,0.206355591311,0.00369458128079,0.210342442448,0.0253702522065,0.330174722644,0.209246517397,0.0363807432962,0.909796788896
tagged_abstract_sents/7464862.txt,3,0.0261464199517,-0.0192939244663,0.188769469584,0.129715814208,0.330174722644,0.230717205289,0.0486285988966,0.761805108642
tagged_abstract_sents/7464862.txt,5,0.172566371681,-0.0470717022441,0.139250797795,0.521468892835,0.330174722644,0.11958842011,0.02801561166,0.873620832371
tagged_abstract_sents/7464862.txt,6,0.206355591311,-0.00971538040504,0.139250797795,0.521468892835,0.330174722644,0.105676828007,0.0429998238268,1.02975555773
tagged_abstract_sents/7464862.txt,7,0.262268704747,-0.00875752599891,0.139250797795,0.521468892835,0.330174722644,0.181191981418,0.0276427438886,0.973138973295
