tagged_abstract_sents/7484689.txt,1,0.206355591311,-0.102675343456,0.188769469584,0.129715814208,0.139552849559,0.0841612012122,0.0256338291702,0.711750703811
tagged_abstract_sents/7484689.txt,4,0.0993563958166,-0.111352133044,0.188769469584,0.129715814208,0.139552849559,0.103305876181,0.025780842789,0.758767156086
tagged_abstract_sents/7484689.txt,5,0.206355591311,-0.0256688358641,0.188769469584,0.129715814208,0.139552849559,0.174666035862,0.0265693703808,0.784374517492
tagged_abstract_sents/7484689.txt,6,0.262268704747,-0.0603759942155,0.188769469584,0.129715814208,0.139552849559,0.120946357201,0.0348516616863,0.626390112456
