tagged_abstract_sents/7487259.txt,1,0.125905068383,-0.0775499474238,0.0616692308323,0.142474783506,0.0,0.0,0.0,0.158791115689
tagged_abstract_sents/7487259.txt,2,0.239742558327,0.0381177707676,0.188769469584,0.202456734834,0.4570875559,0.575273426358,0.0498950941318,1.43679543245
tagged_abstract_sents/7487259.txt,3,0.218020917136,0.0444269190326,0.188769469584,0.202456734834,0.227803451725,0.602539985227,0.0443136158906,1.2130809256
tagged_abstract_sents/7487259.txt,4,0.162510056315,-0.0113038906414,0.188769469584,0.202456734834,0.10758006236,0.492914274436,0.0451377001788,0.928501059141
tagged_abstract_sents/7487259.txt,5,0.101769911504,-0.07912723449,0.0616692308323,0.142474783506,0.0,0.0,0.0,0.139167532773
tagged_abstract_sents/7487259.txt,6,0.0852775543041,0.0486330178759,0.210342442448,0.226435992083,0.532959537542,0.554684297353,0.0521443233057,1.39083882407
tagged_abstract_sents/7487259.txt,7,0.0711987127916,0.0722923238696,0.0616692308323,0.142474783506,0.321287144799,0.779208907697,0.0595442062798,1.30503474425
tagged_abstract_sents/7487259.txt,8,0.0458567980692,-0.07912723449,0.139250797795,0.0356431803763,0.0,0.0,0.0,0.101178344568
tagged_abstract_sents/7487259.txt,9,0.0245374094932,0.0402208201893,0.139250797795,0.0356431803763,0.121489767105,0.620567114799,0.0655394907533,0.9155888173
tagged_abstract_sents/7487259.txt,10,0.00844730490748,-0.0770241850683,0.0616692308323,0.142474783506,0.0,0.0,0.0,0.0649300573802
tagged_abstract_sents/7487259.txt,11,0.00120675784393,0.0034174553102,0.139250797795,0.0356431803763,0.514345370362,0.556083382188,0.045042146174,1.19743814907
tagged_abstract_sents/7487259.txt,12,0.00120675784393,0.0770241850683,0.139250797795,0.0356431803763,0.422395183435,0.69278292281,0.0682838032343,1.28015050578
