tagged_abstract_sents/7543434.txt,1,0.125905068383,-0.0502364066194,0.0616692308323,0.142474783506,0.0,0.0,0.0,0.16425382385
tagged_abstract_sents/7543434.txt,2,0.239742558327,0.0763593380615,0.188769469584,0.202456734834,0.61247522741,0.121174285475,0.036960742019,1.13279792442
tagged_abstract_sents/7543434.txt,3,0.239742558327,-0.0518321513002,0.0616692308323,0.142474783506,0.0,0.0,0.0,0.255004666869
tagged_abstract_sents/7543434.txt,4,0.218020917136,0.035401891253,0.210342442448,0.226435992083,0.383719183327,0.117068353672,0.059404659189,0.914791326995
tagged_abstract_sents/7543434.txt,5,0.218020917136,-0.0513002364066,0.0616692308323,0.142474783506,0.0,0.0,0.0,0.237733736895
tagged_abstract_sents/7543434.txt,6,0.162510056315,-0.00927895981087,0.0616692308323,0.142474783506,0.0214036119421,0.038817881479,0.0428661071457,0.304816904125
tagged_abstract_sents/7543434.txt,7,0.162510056315,-0.00768321513002,0.139250797795,0.0356431803763,0.0601367951549,0.0501324383892,0.0359325568018,0.354991545383
tagged_abstract_sents/7543434.txt,8,0.101769911504,0.00827423167849,0.139250797795,0.0356431803763,0.0272765812684,0.0795651858141,0.0605982168536,0.330829112486
tagged_abstract_sents/7543434.txt,9,0.0852775543041,0.0279550827423,0.139250797795,0.0356431803763,0.500005048517,0.105601745118,0.0478861087144,0.807624315351
tagged_abstract_sents/7543434.txt,10,0.0711987127916,0.0024231678487,0.139250797795,0.0356431803763,0.103899594577,0.0391651416899,0.0308651658954,0.311691858976
tagged_abstract_sents/7543434.txt,11,0.0458567980692,0.0178486997636,0.139250797795,0.0356431803763,0.142650711705,0.091902075335,0.0643334771355,0.419459795594
tagged_abstract_sents/7543434.txt,12,0.0458567980692,-0.0289598108747,0.139250797795,0.0356431803763,0.0345119640402,0.040818217677,0.0397678249274,0.226309835935
tagged_abstract_sents/7543434.txt,13,0.0245374094932,-0.00183215130024,0.139250797795,0.0356431803763,0.239272948784,0.091861712869,0.0546268334771,0.485343345475
tagged_abstract_sents/7543434.txt,14,0.0245374094932,0.00348699763593,0.139250797795,0.0356431803763,0.109106596843,0.0474092053138,0.0240411012628,0.281202583552
tagged_abstract_sents/7543434.txt,15,0.00844730490748,-0.0209810874704,0.139250797795,0.0356431803763,0.12262463068,0.0380038053818,0.0257981018119,0.269306517315
tagged_abstract_sents/7543434.txt,16,0.00844730490748,-0.0491725768322,0.139250797795,0.0356431803763,0.0,0.0,0.0,0.0772416815698
tagged_abstract_sents/7543434.txt,17,0.00120675784393,0.0550827423168,0.139250797795,0.0356431803763,0.550655822378,0.0967929056855,0.050741003908,0.79049003972
tagged_abstract_sents/7543434.txt,18,0.00120675784393,0.0444444444444,0.139250797795,0.0356431803763,0.403155656425,0.111483528988,0.0798442395895,0.684656073176
