tagged_abstract_sents/7556315.txt,1,0.0954875100725,0.0768380727862,0.188769469584,0.123191979006,0.245255787828,0.242483109283,0.0555614698965,0.627062080202
tagged_abstract_sents/7556315.txt,3,0.0805801772764,-0.0398556063062,0.210342442448,0.141687475369,0.245255787828,0.156893288319,0.0468394299436,0.556868564188
tagged_abstract_sents/7556315.txt,4,0.123690572119,0.0103875055253,0.139250797795,0.194462959676,0.245255787828,0.126730138489,0.0610284716375,0.549358000321
tagged_abstract_sents/7556315.txt,5,0.140209508461,-0.046338588478,0.139250797795,0.194462959676,0.245255787828,0.0992996076107,0.032954439143,0.634165936213
tagged_abstract_sents/7556315.txt,6,0.149879129734,0.0598202445852,0.139250797795,0.194462959676,0.245255787828,0.161477736743,0.0536466059901,0.658602483864
tagged_abstract_sents/7556315.txt,7,0.176470588235,-0.0422867246206,0.139250797795,0.194462959676,0.245255787828,0.124041854157,0.090342096236,0.475073773578
tagged_abstract_sents/7556315.txt,8,0.166800966962,0.0274053337262,0.139250797795,0.194462959676,0.245255787828,0.125439343588,0.0431889848277,0.601501608661
tagged_abstract_sents/7556315.txt,9,0.0954875100725,-0.0819949904229,0.139250797795,0.194462959676,0.245255787828,0.0,0.0,0.187955296774
tagged_abstract_sents/7556315.txt,10,0.0342465753425,-0.0098718137616,0.139250797795,0.194462959676,0.245255787828,0.170723635093,0.0264856640619,0.629912159692
tagged_abstract_sents/7556315.txt,11,0.0342465753425,0.052526889642,0.139250797795,0.194462959676,0.245255787828,0.185212402257,0.0662095879609,0.662544703049
