tagged_abstract_sents/7573593.txt,1,0.206355591311,-0.101826060043,0.0616692308323,0.106008497564,0.422826754958,0.0,0.0,0.207356425726
tagged_abstract_sents/7573593.txt,3,0.0108608205953,-0.104611575364,0.0616692308323,0.106008497564,0.422826754958,0.0,0.0,0.0504035060888
tagged_abstract_sents/7573593.txt,5,0.0518905872888,-0.103683070257,0.0616692308323,0.106008497564,0.422826754958,0.0,0.0,0.083413020465
tagged_abstract_sents/7573593.txt,6,0.0993563958166,0.0216651191582,0.139250797795,0.521468892835,0.422826754958,0.382761508876,0.0224084383241,1.04701713775
tagged_abstract_sents/7573593.txt,7,0.172566371681,0.0708758898174,0.139250797795,0.521468892835,0.422826754958,0.321508804722,0.0249447300429,0.885478154746
tagged_abstract_sents/7573593.txt,8,0.206355591311,-0.0999690498298,0.139250797795,0.521468892835,0.422826754958,0.0,0.0,0.371156729831
tagged_abstract_sents/7573593.txt,9,0.262268704747,0.103373568555,0.139250797795,0.521468892835,0.422826754958,0.438452008569,0.0281617554728,1.34599626326
