tagged_abstract_sents/7576395.txt,2,0.123690572119,-0.0292022792023,0.188769469584,0.123191979006,0.148260485039,0.185320592278,0.0172406880237,0.723015401184
tagged_abstract_sents/7576395.txt,3,0.149073327961,-0.0477207977208,0.139250797795,0.194462959676,0.148260485039,0.113780738587,0.0164187482459,0.502581734013
tagged_abstract_sents/7576395.txt,4,0.176470588235,-0.0690883190883,0.139250797795,0.194462959676,0.148260485039,0.151915069009,0.00340096745968,0.602170643927
tagged_abstract_sents/7576395.txt,5,0.0954875100725,0.0178062678063,0.139250797795,0.194462959676,0.148260485039,0.127118043267,0.0115422396857,0.693501603523
tagged_abstract_sents/7576395.txt,6,0.0342465753425,0.0405982905983,0.139250797795,0.194462959676,0.148260485039,0.118659025311,0.0150809243147,0.445481639858
