tagged_abstract_sents/7594291.txt,2,0.0805801772764,-0.025538707103,0.210342442448,0.141687475369,0.420305978981,0.443378897132,0.0574569514038,1.0666541149
tagged_abstract_sents/7594291.txt,3,0.140209508461,0.00686352753392,0.139250797795,0.194462959676,0.420305978981,0.441364433909,0.0466823749304,1.17052955546
tagged_abstract_sents/7594291.txt,4,0.149879129734,-0.0791699920192,0.139250797795,0.194462959676,0.420305978981,0.279186719266,0.0328459919073,0.846443244945
tagged_abstract_sents/7594291.txt,5,0.166800966962,0.0325618515563,0.139250797795,0.194462959676,0.420305978981,0.484280480951,0.0467975357247,1.17943038088
tagged_abstract_sents/7594291.txt,6,0.0954875100725,-0.0121308858739,0.139250797795,0.194462959676,0.420305978981,0.514027844168,0.0475503062117,1.11024805582
tagged_abstract_sents/7594291.txt,7,0.0342465753425,0.0146847565842,0.139250797795,0.194462959676,0.420305978981,0.508166378136,0.0586920384952,1.145462894
