tagged_abstract_sents/7625417.txt,1,0.125905068383,-0.0674876847291,0.0616692308323,0.142474783506,0.0,0.0,0.0,0.160803568228
tagged_abstract_sents/7625417.txt,2,0.239742558327,0.00147783251232,0.188769469584,0.202456734834,0.386246705024,0.25276100881,0.0327559595267,1.01897504177
tagged_abstract_sents/7625417.txt,3,0.218020917136,-0.0610837438424,0.0616692308323,0.142474783506,0.0,0.0,0.0,0.235777035408
tagged_abstract_sents/7625417.txt,4,0.218020917136,0.0857142857143,0.210342442448,0.226435992083,0.26842836962,0.286281911747,0.0315355595181,0.950907450586
tagged_abstract_sents/7625417.txt,5,0.162510056315,0.0334975369458,0.0616692308323,0.142474783506,0.137679958718,0.367184340605,0.0364934151,0.751642317333
tagged_abstract_sents/7625417.txt,6,0.101769911504,-0.0674876847291,0.139250797795,0.0356431803763,0.0,0.0,0.0,0.148236745268
tagged_abstract_sents/7625417.txt,7,0.0852775543041,0.0192118226601,0.139250797795,0.0356431803763,2.63596178923e-05,0.224107216621,0.0231024429476,0.399618780172
tagged_abstract_sents/7625417.txt,8,0.0711987127916,-0.023645320197,0.139250797795,0.0356431803763,4.05699822886e-05,0.160012281634,0.0308178802197,0.32341899104
tagged_abstract_sents/7625417.txt,9,0.0458567980692,0.0655172413793,0.139250797795,0.0356431803763,1.77410405965e-05,0.305446803022,0.0337359433569,0.469307727161
tagged_abstract_sents/7625417.txt,10,0.0245374094932,0.0330049261084,0.139250797795,0.0356431803763,2.42667205502e-05,0.351344163766,0.0294881051391,0.487405801452
tagged_abstract_sents/7625417.txt,11,0.0245374094932,-0.0192118226601,0.139250797795,0.0356431803763,4.23423735817e-05,0.23899852141,0.026369168357,0.361515948214
tagged_abstract_sents/7625417.txt,12,0.00844730490748,-0.0655172413793,0.0616692308323,0.142474783506,0.0,0.0,0.0,0.067231446118
tagged_abstract_sents/7625417.txt,13,0.00120675784393,0.0231527093596,0.139250797795,0.0356431803763,3.15290762657e-05,0.27629534068,0.0260435865643,0.388284757478
tagged_abstract_sents/7625417.txt,14,0.00120675784393,0.0428571428571,0.139250797795,0.0356431803763,0.191310567492,0.368687161536,0.0334050467478,0.683257963633
