tagged_abstract_sents/7650803.txt,1,0.125905068383,-0.0611962071481,0.0616692308323,0.142474783506,0.0,0.0,0.0,0.162061863745
tagged_abstract_sents/7650803.txt,2,0.239742558327,0.00499635302699,0.188769469584,0.202456734834,0.552187888318,0.121696294032,0.0931249509765,1.11492420584
tagged_abstract_sents/7650803.txt,3,0.229283990346,-0.0617432530999,0.0616692308323,0.142474783506,0.0,0.0,0.0,0.244655592125
tagged_abstract_sents/7650803.txt,4,0.218020917136,0.0214077315828,0.210342442448,0.226435992083,0.269142329771,0.112260388586,0.100538230823,0.833741248054
tagged_abstract_sents/7650803.txt,5,0.162510056315,0.040007293946,0.194899689933,0.13295610691,0.265252820757,0.174328970128,0.0927226205706,0.807650592337
tagged_abstract_sents/7650803.txt,6,0.118262268705,-0.0546316557257,0.0616692308323,0.142474783506,0.0,0.0,0.0,0.157260534287
tagged_abstract_sents/7650803.txt,7,0.101769911504,0.0919766593727,0.210342442448,0.226435992083,0.408693744455,0.194168753757,0.108455565142,0.984231343281
tagged_abstract_sents/7650803.txt,8,0.0711987127916,-0.0595550692925,0.0616692308323,0.142474783506,0.0,0.0,0.0,0.118625006843
tagged_abstract_sents/7650803.txt,9,0.0571198712792,0.0482129832239,0.139250797795,0.0356431803763,0.302654360792,0.146321933943,0.103891285591,0.688524427004
tagged_abstract_sents/7650803.txt,10,0.0458567980692,0.0318016046681,0.139250797795,0.0356431803763,0.239565499802,0.168643860645,0.0912501540737,0.62282362692
tagged_abstract_sents/7650803.txt,11,0.0245374094932,-0.0136032093363,0.139250797795,0.0356431803763,0.324165758896,0.0934823422115,0.0854752281913,0.600350968036
tagged_abstract_sents/7650803.txt,12,0.0144810941271,0.0405543398979,0.139250797795,0.0356431803763,0.33049187931,0.165306420379,0.0982913225687,0.694103718549
tagged_abstract_sents/7650803.txt,13,0.00844730490748,-0.0606491611962,0.0616692308323,0.142474783506,0.0,0.0,0.0,0.0682050621546
tagged_abstract_sents/7650803.txt,14,0.00120675784393,0.0132020423049,0.139250797795,0.0356431803763,0.281323934855,0.16189652331,0.0941424599751,0.621287085886
tagged_abstract_sents/7650803.txt,15,0.00120675784393,0.0192195477753,0.139250797795,0.0356431803763,0.30934718881,0.176679772556,0.0987920621225,0.66994669233
