tagged_abstract_sents/7657281.txt,2,0.0253827558421,-0.0235574927356,0.210342442448,0.141687475369,0.044262160588,0.15378751984,0.0567476580796,0.373839153251
tagged_abstract_sents/7657281.txt,3,0.0805801772764,-0.071502698215,0.139250797795,0.194462959676,0.044262160588,0.0865608461879,0.0640954332553,0.562683606802
tagged_abstract_sents/7657281.txt,4,0.123690572119,0.0135429638854,0.139250797795,0.194462959676,0.044262160588,0.150614270604,0.0571305312461,0.544296359422
tagged_abstract_sents/7657281.txt,5,0.140209508461,-0.00186799501868,0.139250797795,0.194462959676,0.044262160588,0.0887297562291,0.0241960907945,0.352702287958
tagged_abstract_sents/7657281.txt,6,0.149879129734,-0.00129721876297,0.139250797795,0.194462959676,0.044262160588,0.113708652787,0.108352849336,0.469703848994
tagged_abstract_sents/7657281.txt,7,0.176470588235,-0.0726442507264,0.139250797795,0.194462959676,0.044262160588,0.076507880007,0.0361899882904,0.36734899479
tagged_abstract_sents/7657281.txt,8,0.166800966962,-0.0172789539228,0.139250797795,0.194462959676,0.044262160588,0.152115485128,0.0324429156909,0.44253788457
tagged_abstract_sents/7657281.txt,9,0.0954875100725,-0.00415110004151,0.139250797795,0.194462959676,0.044262160588,0.20849838599,0.0660128805621,0.589783644521
tagged_abstract_sents/7657281.txt,10,0.0342465753425,0.0940224159402,0.139250797795,0.194462959676,0.044262160588,0.207553267643,0.104616618961,0.58717182654
tagged_abstract_sents/7657281.txt,11,0.0342465753425,-0.00415110004151,0.139250797795,0.194462959676,0.044262160588,0.100114007681,0.0354703356753,0.33437783101
