tagged_abstract_sents/7668955.txt,1,0.206355591311,-0.0509495136637,0.0616692308323,0.106008497564,0.523382664947,0.0,0.0,0.217531735002
tagged_abstract_sents/7668955.txt,3,0.206355591311,-0.0533117183881,0.0616692308323,0.106008497564,0.523382664947,0.0,0.0,0.217059294057
tagged_abstract_sents/7668955.txt,4,0.0048270313757,-0.0375636868921,0.0616692308323,0.106008497564,0.523382664947,0.0757740617676,0.0124654898352,0.14722560401
tagged_abstract_sents/7668955.txt,5,0.0048270313757,-0.0525243168133,0.0616692308323,0.106008497564,0.523382664947,0.0,0.0,0.0559939264232
tagged_abstract_sents/7668955.txt,6,0.0108608205953,-0.0289022695692,0.0616692308323,0.106008497564,0.523382664947,0.0783761879872,0.0185392788421,0.162460834077
tagged_abstract_sents/7668955.txt,7,0.0261464199517,-0.0517369152385,0.0616692308323,0.106008497564,0.523382664947,0.0,0.0,0.073206917599
tagged_abstract_sents/7668955.txt,8,0.0261464199517,0.0183418249189,0.210342442448,0.0253702522065,0.523382664947,0.12799041643,0.0408684012382,0.839979515693
tagged_abstract_sents/7668955.txt,9,0.0518905872888,-0.0485873089393,0.0616692308323,0.106008497564,0.523382664947,0.0,0.0,0.0944321727285
tagged_abstract_sents/7668955.txt,10,0.0518905872888,0.0325150532654,0.0616692308323,0.106008497564,0.523382664947,0.208088996796,0.0485903120556,0.724973641235
tagged_abstract_sents/7668955.txt,11,0.0993563958166,-0.0485873089393,0.0616692308323,0.106008497564,0.523382664947,0.0,0.0,0.132404819551
tagged_abstract_sents/7668955.txt,13,0.172566371681,0.0710977304308,0.139250797795,0.521468892835,0.523382664947,0.157864153407,0.0133664545109,1.02464941011
tagged_abstract_sents/7668955.txt,14,0.206355591311,0.0663733209819,0.139250797795,0.521468892835,0.523382664947,0.236961954977,0.0291610892663,1.05521564026
tagged_abstract_sents/7668955.txt,15,0.206355591311,0.0254284390922,0.139250797795,0.521468892835,0.523382664947,0.263380840598,0.040452556828,1.23993319469
tagged_abstract_sents/7668955.txt,16,0.262268704747,-0.0493747105141,0.139250797795,0.521468892835,0.523382664947,0.0,0.0,0.426006088442
tagged_abstract_sents/7668955.txt,17,0.262268704747,0.100231588698,0.139250797795,0.521468892835,0.523382664947,0.337431998755,0.0393206726345,1.35606268462
