tagged_abstract_sents/7710148.txt,1,0.125905068383,-0.0516926255563,0.0616692308323,0.142474783506,0.0,0.0,0.0,0.163962580063
tagged_abstract_sents/7710148.txt,2,0.239742558327,0.0996106166561,0.188769469584,0.202456734834,0.380175961134,0.669973361291,0.0347997459758,1.45178699364
tagged_abstract_sents/7710148.txt,3,0.239742558327,-0.0580499046408,0.0616692308323,0.142474783506,0.0,0.0,0.0,0.253761116201
tagged_abstract_sents/7710148.txt,4,0.218020917136,-0.0421567069294,0.0616692308323,0.142474783506,0.0,0.139869016674,0.0417263676109,0.421157827076
tagged_abstract_sents/7710148.txt,5,0.162510056315,-0.0574141767324,0.0616692308323,0.142474783506,0.0,0.0,0.0,0.192102260174
tagged_abstract_sents/7710148.txt,6,0.162510056315,-0.0427924348379,0.0616692308323,0.142474783506,0.0,0.270575158388,0.0341622997305,0.499764066671
tagged_abstract_sents/7710148.txt,7,0.101769911504,-0.0542355371901,0.0616692308323,0.142474783506,0.0,0.0,0.0,0.144145872233
tagged_abstract_sents/7710148.txt,8,0.0852775543041,-0.0014701207883,0.210342442448,0.226435992083,0.321590671201,0.423755079172,0.0394301774496,1.02580596596
tagged_abstract_sents/7710148.txt,9,0.0711987127916,-0.0574141767324,0.0616692308323,0.142474783506,0.0,0.0,0.0,0.119053185355
tagged_abstract_sents/7710148.txt,10,0.0458567980692,0.163183407502,0.139250797795,0.0356431803763,0.252329005593,0.761870139489,0.0388400565781,1.20267967463
tagged_abstract_sents/7710148.txt,11,0.0458567980692,-0.0574141767324,0.139250797795,0.0356431803763,0.0,0.0,0.0,0.105520956119
tagged_abstract_sents/7710148.txt,12,0.0245374094932,0.057652574698,0.139250797795,0.0356431803763,0.273414953591,0.509088174425,0.0290249917337,0.923006915293
tagged_abstract_sents/7710148.txt,13,0.00844730490748,-0.0199062301335,0.139250797795,0.0356431803763,0.404656813319,0.403513043121,0.0409710976778,0.932235905027
tagged_abstract_sents/7710148.txt,14,0.00844730490748,-0.0014701207883,0.139250797795,0.0356431803763,2.00700352283e-05,0.32632622939,0.0440417622717,0.457170234476
tagged_abstract_sents/7710148.txt,15,0.00120675784393,0.0392164653528,0.139250797795,0.0356431803763,0.296938016626,0.504316350874,0.0404359087402,0.930817328596
tagged_abstract_sents/7710148.txt,16,0.00120675784393,0.0843531468531,0.139250797795,0.0356431803763,0.329741578544,0.850114949181,0.0346081781109,1.31261909449
