tagged_abstract_sents/7718463.txt,2,0.0048270313757,-0.0412421154779,0.188769469584,0.129715814208,0.255434990198,0.0876085265865,0.0436094819159,0.501528689394
tagged_abstract_sents/7718463.txt,4,0.0261464199517,0.0577389616691,0.210342442448,0.0253702522065,0.255434990198,0.206477664767,0.039984209339,0.640709122628
tagged_abstract_sents/7718463.txt,5,0.0518905872888,-0.0434255215915,0.0616692308323,0.106008497564,0.255434990198,0.12385877019,0.0322580645161,0.423597681816
tagged_abstract_sents/7718463.txt,6,0.0993563958166,0.0482775351771,0.139250797795,0.521468892835,0.255434990198,0.160909172244,0.037613461807,0.712633114138
tagged_abstract_sents/7718463.txt,7,0.172566371681,0.0417273168365,0.139250797795,0.521468892835,0.255434990198,0.155540290384,0.0298093841642,0.774838438629
tagged_abstract_sents/7718463.txt,8,0.206355591311,-0.0718098010674,0.139250797795,0.521468892835,0.255434990198,0.0689448959226,0.020701146361,0.721771745481
tagged_abstract_sents/7718463.txt,9,0.262268704747,0.0424551188743,0.139250797795,0.521468892835,0.255434990198,0.193430283533,0.0376588465298,0.930896174581
