tagged_abstract_sents/773493.txt,1,0.239742558327,-0.0526024363234,0.210342442448,0.226435992083,0.280750530821,0.201516033886,0.0642391658521,0.900881308804
tagged_abstract_sents/773493.txt,2,0.162510056315,0.0669988925803,0.0616692308323,0.142474783506,0.129017035633,0.165877444628,0.0489552785924,0.56083463289
tagged_abstract_sents/773493.txt,3,0.0852775543041,0.102436323367,0.139250797795,0.0356431803763,0.313485669023,0.209882033637,0.052461248429,0.744856612216
tagged_abstract_sents/773493.txt,4,0.0458567980692,-0.0747508305648,0.139250797795,0.0356431803763,0.110864736486,0.113708315396,0.0519978005865,0.378624477821
tagged_abstract_sents/773493.txt,5,0.00844730490748,0.047065337763,0.139250797795,0.0356431803763,0.260567182012,0.182085210438,0.0634671779833,0.602608834922
tagged_abstract_sents/773493.txt,6,0.00120675784393,-0.0891472868217,0.139250797795,0.0356431803763,0.0,0.0827224283444,0.0399120234604,0.186088753726
