tagged_abstract_sents/7751991.txt,1,0.239742558327,0.106368863335,0.188769469584,0.202456734834,0.22801221211,0.345217973183,0.0568715083799,0.998291268243
tagged_abstract_sents/7751991.txt,2,0.218020917136,-0.0252100840336,0.210342442448,0.226435992083,0.272603435088,0.374208277531,0.0772165321746,1.06650498054
tagged_abstract_sents/7751991.txt,3,0.101769911504,-0.0909995577178,0.139250797795,0.0356431803763,0.238700005237,0.233275486786,0.0542395618936,0.669749424586
tagged_abstract_sents/7751991.txt,4,0.0711987127916,0.047545333923,0.139250797795,0.0356431803763,0.264392303329,0.279973455061,0.0422610734238,0.733413221842
tagged_abstract_sents/7751991.txt,5,0.0245374094932,-0.0445599292349,0.139250797795,0.0356431803763,0.280431114682,0.240381562074,0.040548735666,0.652397707181
tagged_abstract_sents/7751991.txt,6,0.00844730490748,0.0343874391862,0.139250797795,0.0356431803763,0.30140224184,0.295936992913,0.0416177310818,0.732910650608
tagged_abstract_sents/7751991.txt,7,0.00120675784393,-0.0275320654578,0.139250797795,0.0356431803763,0.239576318633,0.294751176684,0.0547073387506,0.664812180261
