tagged_abstract_sents/7798064.txt,1,0.0954875100725,-0.0808542463021,0.0616692308323,0.247294108221,0.0784597782996,0.0,0.0,0.16524200668
tagged_abstract_sents/7798064.txt,2,0.0253827558421,-0.0250955625727,0.188769469584,0.123191979006,0.0784597782996,0.271250727758,0.0255315962863,0.770900827905
tagged_abstract_sents/7798064.txt,4,0.123690572119,0.000498587335882,0.0616692308323,0.247294108221,0.0784597782996,0.338249292102,0.0706869749996,0.860765148498
tagged_abstract_sents/7798064.txt,5,0.140209508461,-0.0835964766495,0.0616692308323,0.247294108221,0.0784597782996,0.0,0.0,0.200471159321
tagged_abstract_sents/7798064.txt,6,0.149879129734,0.0379757354163,0.0616692308323,0.247294108221,0.0784597782996,0.373217057484,0.0582770160293,1.02029495504
tagged_abstract_sents/7798064.txt,7,0.176470588235,0.0334053515041,0.0616692308323,0.247294108221,0.0784597782996,0.412550682873,0.0313163274607,0.996908879224
tagged_abstract_sents/7798064.txt,8,0.166800966962,0.0827654977564,0.0616692308323,0.247294108221,0.0784597782996,0.432089884188,0.033629368535,0.720742995831
tagged_abstract_sents/7798064.txt,9,0.0954875100725,-0.0835964766495,0.0616692308323,0.247294108221,0.0784597782996,0.0,0.0,0.164693560611
tagged_abstract_sents/7798064.txt,10,0.0342465753425,0.0553431942829,0.139250797795,0.194462959676,0.0784597782996,0.347016228903,0.0387364208119,0.990816294515
tagged_abstract_sents/7798064.txt,11,0.0342465753425,0.0562572710653,0.139250797795,0.194462959676,0.0784597782996,0.335550765851,0.0284231092856,0.609046654723
