tagged_abstract_sents/7847013.txt,1,0.206355591311,-0.0137362637363,0.188769469584,0.129715814208,0.270724478635,0.499411416184,0.0125036056034,1.08638659414
tagged_abstract_sents/7847013.txt,3,0.0048270313757,-0.0419413919414,0.0616692308323,0.106008497564,0.270724478635,0.167485919942,0.00584193262624,0.617984840093
tagged_abstract_sents/7847013.txt,4,0.0048270313757,-0.0336080586081,0.0616692308323,0.106008497564,0.270724478635,0.240480456607,0.00927423906091,0.688444587951
tagged_abstract_sents/7847013.txt,5,0.0108608205953,0.00485347985348,0.139250797795,0.521468892835,0.270724478635,0.284091921263,0.0231103502765,0.957239694667
tagged_abstract_sents/7847013.txt,6,0.0261464199517,-0.0336080586081,0.139250797795,0.521468892835,0.270724478635,0.216955333521,0.00440698797296,0.786533864956
tagged_abstract_sents/7847013.txt,8,0.0518905872888,-0.000915750915751,0.139250797795,0.521468892835,0.270724478635,0.272335639154,0.0218593626547,0.93131851833
tagged_abstract_sents/7847013.txt,9,0.0993563958166,0.0375457875458,0.139250797795,0.521468892835,0.270724478635,0.397397791964,0.0123662221371,1.04413529442
tagged_abstract_sents/7847013.txt,10,0.172566371681,0.0157509157509,0.139250797795,0.521468892835,0.270724478635,0.330462921726,0.029233605478,0.998556993273
tagged_abstract_sents/7847013.txt,11,0.172566371681,0.0247252747253,0.139250797795,0.521468892835,0.270724478635,0.32041962413,0.00981037661312,0.981006370146
tagged_abstract_sents/7847013.txt,12,0.206355591311,-0.0047619047619,0.139250797795,0.521468892835,0.270724478635,0.348829368746,0.0233990397277,1.08439668739
tagged_abstract_sents/7847013.txt,13,0.262268704747,0.00934065934066,0.139250797795,0.521468892835,0.270724478635,0.214089263782,0.00940592196847,1.08231843822
tagged_abstract_sents/7847013.txt,14,0.262268704747,0.0266483516484,0.139250797795,0.521468892835,0.270724478635,0.373572778506,0.00927765939617,1.09478561741
