tagged_abstract_sents/7864949.txt,1,0.125905068383,-0.0686957022036,0.0616692308323,0.142474783506,0.0,0.0,0.0,0.160561964734
tagged_abstract_sents/7864949.txt,2,0.239742558327,0.0487313733387,0.188769469584,0.202456734834,0.340833501996,0.304611530972,0.0410541963559,1.0431613059
tagged_abstract_sents/7864949.txt,3,0.218020917136,0.0352683965249,0.194899689933,0.13295610691,0.16074803737,0.304487874426,0.0455055060043,0.829548507853
tagged_abstract_sents/7864949.txt,4,0.162510056315,-0.0709395316725,0.0616692308323,0.142474783506,0.0,0.0,0.0,0.189397189186
tagged_abstract_sents/7864949.txt,5,0.162510056315,0.104827110063,0.210342442448,0.226435992083,0.226260923917,0.447874828724,0.0535257528194,1.05173699137
tagged_abstract_sents/7864949.txt,6,0.101769911504,0.00460272711582,0.194899689933,0.13295610691,4.49906988391e-05,0.236156123989,0.0500010258725,0.505875292226
tagged_abstract_sents/7864949.txt,7,0.0711987127916,-0.0402738622634,0.0616692308323,0.142474783506,0.000127846243618,0.0854310996958,0.00745068402899,0.215490878217
tagged_abstract_sents/7864949.txt,8,0.0458567980692,-0.0709395316725,0.139250797795,0.0356431803763,0.0,0.0,0.0,0.102815885131
tagged_abstract_sents/7864949.txt,9,0.0458567980692,0.0532190322766,0.139250797795,0.0356431803763,0.297898035004,0.256932708549,0.032516108898,0.714994450372
tagged_abstract_sents/7864949.txt,10,0.0245374094932,0.0464875438697,0.139250797795,0.0356431803763,0.0386206240737,0.242555454825,0.0379025694687,0.428324437746
tagged_abstract_sents/7864949.txt,11,0.00844730490748,-0.0679477590472,0.0616692308323,0.142474783506,0.0,0.0,0.0,0.0667453425844
tagged_abstract_sents/7864949.txt,12,0.00120675784393,0.0300327944307,0.139250797795,0.0356431803763,0.352116831368,0.270232027869,0.0280964881685,0.737735665578
tagged_abstract_sents/7864949.txt,13,0.00120675784393,-0.00437259076003,0.139250797795,0.0356431803763,2.96432031694e-05,0.217642016546,0.0241285213074,0.32220942219
