tagged_abstract_sents/7915824.txt,1,0.125905068383,-0.0611334674715,0.0616692308323,0.142474783506,0.0,0.0,0.0,0.16207441168
tagged_abstract_sents/7915824.txt,2,0.239742558327,0.0143192488263,0.188769469584,0.202456734834,0.358937008423,0.430942033285,0.0422678095605,1.18192650294
tagged_abstract_sents/7915824.txt,3,0.229283990346,-0.00630449362844,0.188769469584,0.202456734834,2.99001399776e-05,0.249482714699,0.0428355874759,0.629636251108
tagged_abstract_sents/7915824.txt,4,0.218020917136,-0.0626425217975,0.0616692308323,0.142474783506,0.0,0.0,0.0,0.235465279817
tagged_abstract_sents/7915824.txt,5,0.162510056315,0.105365526492,0.194899689933,0.13295610691,0.213722435286,0.536334242571,0.0595497982814,1.09802430353
tagged_abstract_sents/7915824.txt,6,0.118262268705,0.0213615023474,0.194899689933,0.13295610691,0.189594110717,0.272283278285,0.0344706819714,0.732566863446
tagged_abstract_sents/7915824.txt,7,0.101769911504,0.0173373574782,0.0616692308323,0.142474783506,0.164815408403,0.228128031637,0.0491187518058,0.600522643013
tagged_abstract_sents/7915824.txt,8,0.0711987127916,-0.0626425217975,0.0616692308323,0.142474783506,0.0,0.0,0.0,0.118007516342
tagged_abstract_sents/7915824.txt,9,0.0571198712792,0.0238765928907,0.139250797795,0.0356431803763,0.217465994205,0.375434737785,0.0395125935914,0.763202894193
tagged_abstract_sents/7915824.txt,10,0.0458567980692,0.0243796109993,0.139250797795,0.0356431803763,0.150223502866,0.315034952478,0.0442229285049,0.631361097514
tagged_abstract_sents/7915824.txt,11,0.0245374094932,-0.00781354795439,0.139250797795,0.0356431803763,0.139681985022,0.243554605777,0.0453240874506,0.526946249264
tagged_abstract_sents/7915824.txt,12,0.0144810941271,0.0656270959088,0.139250797795,0.0356431803763,0.0831193723069,0.444824634085,0.0544500470683,0.687422700954
tagged_abstract_sents/7915824.txt,13,0.00844730490748,-0.00177733065057,0.139250797795,0.0356431803763,0.141585984184,0.302080933095,0.0493490613838,0.579736709469
tagged_abstract_sents/7915824.txt,14,0.00120675784393,-0.0606304493628,0.139250797795,0.0356431803763,0.0,0.0,0.0,0.0691576694129
tagged_abstract_sents/7915824.txt,15,0.00120675784393,-0.00932260228035,0.139250797795,0.0356431803763,0.323676752011,0.320442786266,0.0373647629137,0.760903540021
