tagged_abstract_sents/7924745.txt,2,0.0805801772764,0.0154709128743,0.139250797795,0.194462959676,0.454923795239,0.282614541263,0.0530947152928,0.699423245574
tagged_abstract_sents/7924745.txt,3,0.140209508461,-0.0510268705329,0.139250797795,0.194462959676,0.454923795239,0.181993660761,0.0422196383465,0.868721717686
tagged_abstract_sents/7924745.txt,4,0.149879129734,0.00660454175337,0.139250797795,0.194462959676,0.454923795239,0.207114770773,0.0577378613528,0.869452509684
tagged_abstract_sents/7924745.txt,5,0.166800966962,0.0262372206641,0.139250797795,0.194462959676,0.454923795239,0.204680789811,0.0599577966965,0.699986970355
tagged_abstract_sents/7924745.txt,6,0.0954875100725,-0.02442775717,0.139250797795,0.194462959676,0.454923795239,0.220997883419,0.0455400671511,0.754235857213
tagged_abstract_sents/7924745.txt,7,0.0342465753425,-0.00289514159052,0.139250797795,0.194462959676,0.454923795239,0.239362197837,0.0511206447215,0.900189156554
