tagged_abstract_sents/7935681.txt,1,0.125905068383,-0.0718044170813,0.0616692308323,0.142474783506,0.0,0.0,0.0,0.159940221758
tagged_abstract_sents/7935681.txt,2,0.239742558327,-0.000608512009163,0.188769469584,0.202456734834,0.0864164184765,0.494392258145,0.0293459687936,0.956948744917
tagged_abstract_sents/7935681.txt,3,0.218020917136,-0.00851916812829,0.188769469584,0.202456734834,0.204416931101,0.569817881684,0.0385549294898,1.1406243976
tagged_abstract_sents/7935681.txt,4,0.162510056315,-0.07320041522,0.0616692308323,0.142474783506,0.0,0.0,0.0,0.188945012476
tagged_abstract_sents/7935681.txt,5,0.162510056315,0.0161434656549,0.210342442448,0.226435992083,0.0870143586166,0.370949177457,0.0376665617459,0.801968854851
tagged_abstract_sents/7935681.txt,6,0.101769911504,0.0910620324301,0.194899689933,0.13295610691,0.0842381522271,0.423881910584,0.0310201512144,0.776105226754
tagged_abstract_sents/7935681.txt,7,0.0711987127916,-0.07320041522,0.139250797795,0.0356431803763,0.0,0.0,0.0,0.1226372402
tagged_abstract_sents/7935681.txt,8,0.0458567980692,0.0180047965064,0.139250797795,0.0356431803763,0.187091506453,0.461433776783,0.0479746882013,0.817104722204
tagged_abstract_sents/7935681.txt,9,0.0458567980692,0.107814010094,0.139250797795,0.0356431803763,0.225078825694,0.478392207769,0.0439181461475,0.885955773095
tagged_abstract_sents/7935681.txt,10,0.0245374094932,0.0482514228443,0.139250797795,0.0356431803763,0.176899946091,0.498625978411,0.0428976123027,0.828022101978
tagged_abstract_sents/7935681.txt,11,0.00844730490748,0.00916347496152,0.139250797795,0.0356431803763,0.248114531802,0.419874879028,0.0381694320788,0.795067734837
tagged_abstract_sents/7935681.txt,12,0.00120675784393,-0.0713390843684,0.0616692308323,0.142474783506,0.0,0.0,0.0,0.0602746398693
tagged_abstract_sents/7935681.txt,13,0.00120675784393,0.00823280953574,0.139250797795,0.0356431803763,0.131552275631,0.427914672165,0.0423310400648,0.684728309053
