tagged_abstract_sents/7935033.txt,1,0.0954875100725,-0.0705720376621,0.0616692308323,0.247294108221,0.525751958975,0.0,0.0,0.167298448408
tagged_abstract_sents/7935033.txt,3,0.0805801772764,0.031621957719,0.188769469584,0.123191979006,0.525751958975,0.344957934947,0.0569272237197,0.905345476652
tagged_abstract_sents/7935033.txt,4,0.123690572119,0.0397050985966,0.188769469584,0.123191979006,0.525751958975,0.376671138725,0.0758550464211,1.10973659175
tagged_abstract_sents/7935033.txt,5,0.123690572119,-0.0723041392787,0.0616692308323,0.247294108221,0.525751958975,0.0,0.0,0.189514477722
tagged_abstract_sents/7935033.txt,6,0.140209508461,0.00910463670279,0.0616692308323,0.247294108221,0.525751958975,0.291581980333,0.0584363724525,0.965807210718
tagged_abstract_sents/7935033.txt,7,0.149879129734,0.00217623023628,0.0616692308323,0.247294108221,0.525751958975,0.309613193686,0.050499864516,1.03133376285
tagged_abstract_sents/7935033.txt,8,0.176470588235,-0.0538283887014,0.0616692308323,0.247294108221,0.525751958975,0.154160410198,0.0456608381137,0.635847713893
tagged_abstract_sents/7935033.txt,9,0.176470588235,0.0235388168414,0.139250797795,0.194462959676,0.525751958975,0.257999979933,0.0382017237363,0.715909963075
tagged_abstract_sents/7935033.txt,10,0.166800966962,0.0495203410908,0.139250797795,0.194462959676,0.525751958975,0.265551458223,0.0341134357307,0.728737559455
tagged_abstract_sents/7935033.txt,11,0.0954875100725,-0.0376621069462,0.139250797795,0.194462959676,0.525751958975,0.154560052288,0.0468917126599,0.522883439935
tagged_abstract_sents/7935033.txt,12,0.0342465753425,-0.0584473263457,0.139250797795,0.194462959676,0.525751958975,0.0979456512551,0.0755315962863,0.317149329346
tagged_abstract_sents/7935033.txt,13,0.0342465753425,0.141321726772,0.139250797795,0.194462959676,0.525751958975,0.489172448924,0.0633604690208,1.26191076935
