tagged_abstract_sents/7963870.txt,2,0.206355591311,-0.0230605680641,0.0616692308323,0.106008497564,0.521123760976,0.101826821252,0.0361388074291,0.630763940857
tagged_abstract_sents/7963870.txt,3,0.0048270313757,0.00670555525268,0.0616692308323,0.106008497564,0.521123760976,0.136169623855,0.0412177805217,0.443216742387
tagged_abstract_sents/7963870.txt,4,0.0108608205953,-0.0308564575042,0.210342442448,0.0253702522065,0.521123760976,0.0884012331671,0.0359350327092,0.506132727559
tagged_abstract_sents/7963870.txt,5,0.0108608205953,-0.0329826091697,0.139250797795,0.521468892835,0.521123760976,0.109288544005,0.0397751710655,0.721333512532
tagged_abstract_sents/7963870.txt,6,0.0261464199517,0.0789947118792,0.139250797795,0.521468892835,0.521123760976,0.130718090894,0.0336591723688,0.599716417848
tagged_abstract_sents/7963870.txt,7,0.0518905872888,-0.0159733958458,0.139250797795,0.521468892835,0.521123760976,0.10481165554,0.0289442815249,0.647607071184
tagged_abstract_sents/7963870.txt,8,0.0993563958166,-0.0336913263915,0.139250797795,0.521468892835,0.521123760976,0.0890754168589,0.0310117302053,0.418932599994
tagged_abstract_sents/7963870.txt,10,0.172566371681,0.0371803957913,0.139250797795,0.521468892835,0.521123760976,0.149493934468,0.0404325513196,0.793738225286
tagged_abstract_sents/7963870.txt,11,0.206355591311,-0.0251867197296,0.139250797795,0.521468892835,0.521123760976,0.0497682505727,0.030742913001,0.704150536575
tagged_abstract_sents/7963870.txt,12,0.262268704747,0.0208798996893,0.139250797795,0.521468892835,0.521123760976,0.121881784733,0.0403570812489,0.935768415578
tagged_abstract_sents/7963870.txt,13,0.262268704747,-0.0344000436134,0.139250797795,0.521468892835,0.521123760976,0.0429154978683,0.0390355164549,1.03207579712
