tagged_abstract_sents/7968073.txt,1,0.206355591311,-0.000288564597246,0.188769469584,0.129715814208,0.257134498552,0.202954509364,0.0333606557377,0.630546164319
tagged_abstract_sents/7968073.txt,4,0.0108608205953,0.0522301921016,0.139250797795,0.521468892835,0.257134498552,0.188823389171,0.0351227068696,0.611140589499
tagged_abstract_sents/7968073.txt,5,0.0108608205953,-0.0265479429467,0.139250797795,0.521468892835,0.257134498552,0.154938511003,0.0502488290398,0.613082459359
tagged_abstract_sents/7968073.txt,6,0.0261464199517,-0.0276197543079,0.139250797795,0.521468892835,0.257134498552,0.103336617596,0.0645282703245,0.454498807814
tagged_abstract_sents/7968073.txt,7,0.0518905872888,-0.0179734520571,0.139250797795,0.521468892835,0.257134498552,0.139223754614,0.0457259953162,0.488616738086
tagged_abstract_sents/7968073.txt,8,0.0993563958166,0.0307939648776,0.139250797795,0.521468892835,0.257134498552,0.213589800074,0.0550513921416,0.702073969389
tagged_abstract_sents/7968073.txt,9,0.0993563958166,-0.0142221122929,0.139250797795,0.521468892835,0.257134498552,0.155346668692,0.0473699617897,0.689522529022
tagged_abstract_sents/7968073.txt,10,0.172566371681,-0.00136037595845,0.139250797795,0.521468892835,0.257134498552,0.0890024511514,0.0336260733802,0.520476094199
tagged_abstract_sents/7968073.txt,11,0.206355591311,-0.0142221122929,0.139250797795,0.521468892835,0.257134498552,0.142301472988,0.0443989071038,0.754564129419
tagged_abstract_sents/7968073.txt,12,0.262268704747,-0.00403990436145,0.139250797795,0.521468892835,0.257134498552,0.203022510281,0.0449414519906,0.809257810719
tagged_abstract_sents/7968073.txt,13,0.262268704747,-0.0206529804601,0.139250797795,0.521468892835,0.257134498552,0.150443181815,0.0499121779859,0.889240292806
