tagged_abstract_sents/7972972.txt,1,0.250201126307,0.0518987341772,0.210342442448,0.226435992083,0.580521680436,0.393952887904,0.0959946175299,1.4541118526
tagged_abstract_sents/7972972.txt,2,0.229283990346,-0.0186256781193,0.194899689933,0.13295610691,0.388371204064,0.308787447061,0.0860106498172,1.10020803463
tagged_abstract_sents/7972972.txt,3,0.206757843926,-0.0376130198915,0.0616692308323,0.142474783506,0.31844974915,0.168722519274,0.0565027102256,0.77513570028
tagged_abstract_sents/7972972.txt,4,0.118262268705,-0.00958408679928,0.210342442448,0.226435992083,0.371700131717,0.261609437971,0.0669394332594,0.9660440194
tagged_abstract_sents/7972972.txt,5,0.0852775543041,0.00216998191682,0.0616692308323,0.142474783506,0.522481479916,0.265871372232,0.0626245238793,0.993210466321
tagged_abstract_sents/7972972.txt,6,0.0571198712792,-0.0358047016275,0.139250797795,0.0356431803763,0.375751146821,0.137506310492,0.0349399355406,0.667050702561
tagged_abstract_sents/7972972.txt,7,0.0345937248592,-0.00415913200723,0.139250797795,0.0356431803763,0.554082893439,0.210406940546,0.0714999741473,0.943151314628
tagged_abstract_sents/7972972.txt,8,0.0144810941271,0.0518987341772,0.139250797795,0.0356431803763,0.383124027808,0.352749038956,0.0676296513331,0.905785693245
tagged_abstract_sents/7972972.txt,9,0.00120675784393,0.0175406871609,0.139250797795,0.0356431803763,0.549350781334,0.354803065304,0.114522292216,1.10346803557
tagged_abstract_sents/7972972.txt,10,0.00120675784393,-0.0177215189873,0.139250797795,0.0356431803763,0.561595979222,0.276266334532,0.0563087659484,0.971910535191
