tagged_abstract_sents/7993150.txt,1,0.125905068383,-0.0627296587927,0.0616692308323,0.142474783506,0.0,0.0,0.0,0.161755173416
tagged_abstract_sents/7993150.txt,2,0.239742558327,0.0550226676211,0.188769469584,0.202456734834,0.573519760001,0.531117179896,0.0429265129055,1.50548378823
tagged_abstract_sents/7993150.txt,3,0.229283990346,-0.00152708184204,0.188769469584,0.202456734834,0.444712098661,0.46779526207,0.042652418123,1.29340331001
tagged_abstract_sents/7993150.txt,4,0.218020917136,-0.0638033882128,0.0616692308323,0.142474783506,0.0,0.0,0.0,0.235233106534
tagged_abstract_sents/7993150.txt,5,0.162510056315,0.0321164399905,0.0616692308323,0.142474783506,0.615973321084,0.552711218543,0.0398742394295,1.41856716257
tagged_abstract_sents/7993150.txt,6,0.118262268705,-0.00868527797662,0.139250797795,0.0356431803763,0.224971507829,0.427948348247,0.0535216004783,0.879632568933
tagged_abstract_sents/7993150.txt,7,0.101769911504,0.0052732044858,0.139250797795,0.0356431803763,0.0720832599689,0.311347365257,0.0360092906744,0.582228839011
tagged_abstract_sents/7993150.txt,8,0.0711987127916,-0.0638033882128,0.139250797795,0.0356431803763,0.0,0.0,0.0,0.124516645601
tagged_abstract_sents/7993150.txt,9,0.0571198712792,0.118730613219,0.139250797795,0.0356431803763,0.409460503993,0.410946193215,0.0409319329794,1.01109900286
tagged_abstract_sents/7993150.txt,10,0.0458567980692,0.0507277499403,0.139250797795,0.0356431803763,0.324122187745,0.382023161329,0.0432004775831,0.876495168111
tagged_abstract_sents/7993150.txt,11,0.0245374094932,-0.000453352421856,0.139250797795,0.0356431803763,0.263087190491,0.277316010074,0.0394782736402,0.679739084325
tagged_abstract_sents/7993150.txt,12,0.0144810941271,0.0163684084944,0.139250797795,0.0356431803763,0.359138445547,0.465021680442,0.0541477735147,0.973484809514
tagged_abstract_sents/7993150.txt,13,0.00844730490748,-0.0623717489859,0.139250797795,0.0356431803763,0.0,0.0,0.0,0.0746018471391
tagged_abstract_sents/7993150.txt,14,0.00120675784393,-0.0272965879265,0.139250797795,0.0356431803763,0.544657340832,0.307912269408,0.0458335409504,0.97422759289
tagged_abstract_sents/7993150.txt,15,0.00120675784393,0.0124314006204,0.139250797795,0.0356431803763,0.432851441215,0.458282465186,0.0579934570559,1.03289740287
