tagged_abstract_sents/8036464.txt,1,0.239742558327,0.00171434694096,0.188769469584,0.202456734834,0.150228633021,0.366628803953,0.0768343723079,0.940950480574
tagged_abstract_sents/8036464.txt,2,0.218020917136,0.0335369120326,0.210342442448,0.226435992083,0.112817087275,0.388686628607,0.0730699832453,0.928799834091
tagged_abstract_sents/8036464.txt,3,0.162510056315,-0.0175720561449,0.0616692308323,0.142474783506,0.08521558071,0.259675573949,0.0550144532617,0.599976292211
tagged_abstract_sents/8036464.txt,4,0.101769911504,0.0296796314154,0.139250797795,0.0356431803763,0.353132132778,0.408481048403,0.0743042036074,1.00358759329
tagged_abstract_sents/8036464.txt,5,0.0711987127916,0.0171434694096,0.139250797795,0.0356431803763,0.293888997638,0.325028300927,0.0646507281866,0.824274043877
tagged_abstract_sents/8036464.txt,6,0.0458567980692,0.0258223507982,0.139250797795,0.0356431803763,0.201349874577,0.41301036891,0.069293723418,0.80582222853
tagged_abstract_sents/8036464.txt,7,0.0245374094932,-0.0320368584592,0.139250797795,0.0356431803763,0.338531952211,0.360297321774,0.0688018215406,0.861172004439
tagged_abstract_sents/8036464.txt,8,0.00844730490748,-0.0281795778421,0.139250797795,0.0356431803763,0.275381782106,0.436670548766,0.0778515272587,0.871344139499
tagged_abstract_sents/8036464.txt,9,0.00120675784393,-0.0301082181506,0.139250797795,0.0356431803763,0.50254821966,0.406160018179,0.0393905888578,1.02336094235
