tagged_abstract_sents/8067245.txt,1,0.239742558327,0.0527139444856,0.188769469584,0.202456734834,0.189486616368,0.184686112776,0.029191273801,0.760822593746
tagged_abstract_sents/8067245.txt,2,0.218020917136,0.0749526398155,0.210342442448,0.226435992083,0.124048637765,0.164718388939,0.0346896955504,0.685966002775
tagged_abstract_sents/8067245.txt,3,0.162510056315,-0.0525492134091,0.194899689933,0.13295610691,0.0,0.0648054106866,0.0279892011449,0.349629491241
tagged_abstract_sents/8067245.txt,4,0.101769911504,-0.0258627790133,0.0616692308323,0.142474783506,7.59738848645e-06,0.0693610431002,0.000573282591725,0.219762346949
tagged_abstract_sents/8067245.txt,5,0.0711987127916,-0.0295692282349,0.0616692308323,0.142474783506,0.12500559418,0.109549353258,0.0335412538281,0.392718376321
tagged_abstract_sents/8067245.txt,6,0.0458567980692,-0.0332756774566,0.0616692308323,0.142474783506,0.248073122117,0.0848797568235,0.0160106287155,0.452570861088
tagged_abstract_sents/8067245.txt,7,0.0245374094932,0.0149081624248,0.139250797795,0.0356431803763,0.0923245609085,0.079138764913,0.00311036299766,0.277503601909
tagged_abstract_sents/8067245.txt,8,0.00844730490748,-0.00584795321637,0.139250797795,0.0356431803763,0.134018354492,0.0979036770977,0.0103825136612,0.328211151544
tagged_abstract_sents/8067245.txt,9,0.00120675784393,0.00453010460423,0.139250797795,0.0356431803763,0.058130181067,0.0966682314837,0.023931498829,0.260919691586
