tagged_abstract_sents/8100060.txt,1,0.125905068383,-0.0638066202091,0.0616692308323,0.142474783506,0.0,0.0,0.0,0.161539781132
tagged_abstract_sents/8100060.txt,2,0.239742558327,0.0398519163763,0.188769469584,0.202456734834,0.0957445764137,0.172621771436,0.0709749784297,0.694227511458
tagged_abstract_sents/8100060.txt,3,0.218020917136,-0.0660932055749,0.0616692308323,0.142474783506,0.0,0.0,0.0,0.234775143062
tagged_abstract_sents/8100060.txt,4,0.218020917136,0.060431184669,0.210342442448,0.226435992083,7.02436153741e-06,0.170202987673,0.0761000862813,0.605915087807
tagged_abstract_sents/8100060.txt,5,0.162510056315,-0.0234102787456,0.0616692308323,0.142474783506,0.18897722981,0.0776395680234,0.0446173757218,0.510137213326
tagged_abstract_sents/8100060.txt,6,0.101769911504,0.0185104529617,0.0616692308323,0.142474783506,0.0,0.142085760117,0.0761530316103,0.376933861991
tagged_abstract_sents/8100060.txt,7,0.0852775543041,-0.065331010453,0.0616692308323,0.142474783506,0.0,0.0,0.0,0.128732891821
tagged_abstract_sents/8100060.txt,8,0.0711987127916,-0.00664198606272,0.139250797795,0.0356431803763,7.71195684821e-06,0.0797626820321,0.0696223534878,0.285341673508
tagged_abstract_sents/8100060.txt,9,0.0458567980692,0.0154616724739,0.139250797795,0.0356431803763,5.96835020687e-06,0.105704928652,0.0644698776836,0.290276900647
tagged_abstract_sents/8100060.txt,10,0.0245374094932,0.00326655052265,0.139250797795,0.0356431803763,0.0,0.108667284372,0.0678790983607,0.277147973442
tagged_abstract_sents/8100060.txt,11,0.0245374094932,0.04518728223,0.139250797795,0.0356431803763,0.104167857778,0.160575667043,0.0664856067143,0.440214868586
tagged_abstract_sents/8100060.txt,12,0.00844730490748,-0.0622822299652,0.0616692308323,0.142474783506,0.0,0.0,0.0,0.0678784484008
tagged_abstract_sents/8100060.txt,13,0.00120675784393,0.0848214285714,0.139250797795,0.0356431803763,0.0962607201806,0.170464925678,0.0675420621225,0.432515752981
tagged_abstract_sents/8100060.txt,14,0.00120675784393,0.0200348432056,0.139250797795,0.0356431803763,0.117577540773,0.131023819236,0.0650191051399,0.398911193076
