tagged_abstract_sents/8173141.txt,1,0.0954875100725,-0.0361479198767,0.0616692308323,0.247294108221,0.0221599638371,0.0,0.0,0.174183271965
tagged_abstract_sents/8173141.txt,2,0.0954875100725,-0.0145762711864,0.188769469584,0.123191979006,0.0221599638371,0.0661877358355,0.0392290249433,0.629021947295
tagged_abstract_sents/8173141.txt,4,0.0253827558421,-0.0349922958398,0.0616692308323,0.247294108221,0.0221599638371,0.0,0.0,0.118330593388
tagged_abstract_sents/8173141.txt,5,0.0451248992748,-0.0122650231125,0.0616692308323,0.247294108221,0.0221599638371,0.071749505261,0.0196145124717,0.230070286694
tagged_abstract_sents/8173141.txt,6,0.0805801772764,-0.0338366718028,0.0616692308323,0.247294108221,0.0221599638371,0.0,0.0,0.162719655343
tagged_abstract_sents/8173141.txt,7,0.0805801772764,-0.0138058551618,0.0616692308323,0.247294108221,0.0221599638371,0.0632910401063,0.0,0.230016858778
tagged_abstract_sents/8173141.txt,8,0.123690572119,-0.0338366718028,0.0616692308323,0.247294108221,0.0221599638371,0.0,0.0,0.197207971217
tagged_abstract_sents/8173141.txt,9,0.123690572119,-0.0184283513097,0.0616692308323,0.247294108221,0.0221599638371,0.0612262683286,0.0,0.261553993247
tagged_abstract_sents/8173141.txt,10,0.131345688961,0.00969183359014,0.0616692308323,0.247294108221,0.0221599638371,0.0827234121825,0.0168124392614,0.31160402036
tagged_abstract_sents/8173141.txt,11,0.140209508461,6.16332819723e-05,0.0616692308323,0.247294108221,0.0221599638371,0.082893470902,0.0168124392614,0.340718117882
tagged_abstract_sents/8173141.txt,12,0.140209508461,-0.0342218798151,0.0616692308323,0.247294108221,0.0221599638371,0.0,0.0,0.210346078688
tagged_abstract_sents/8173141.txt,13,0.149879129734,0.00160246533128,0.139250797795,0.194462959676,0.0221599638371,0.0743604844186,0.00102040816327,0.323602831421
tagged_abstract_sents/8173141.txt,14,0.149879129734,0.0231741140216,0.139250797795,0.194462959676,0.0221599638371,0.130811915581,0.00980725623583,0.451539064576
tagged_abstract_sents/8173141.txt,15,0.150684931507,0.0208628659476,0.139250797795,0.194462959676,0.0221599638371,0.0819100291667,0.0138455382153,0.54456942682
tagged_abstract_sents/8173141.txt,16,0.176470588235,0.0123882896764,0.139250797795,0.194462959676,0.0221599638371,0.109633192695,0.0,0.572707247776
tagged_abstract_sents/8173141.txt,17,0.176470588235,-0.00841294298921,0.139250797795,0.194462959676,0.0221599638371,0.0753567375051,0.01810570382,0.385367684224
tagged_abstract_sents/8173141.txt,18,0.166800966962,0.00121725731895,0.139250797795,0.194462959676,0.0221599638371,0.073869169666,0.0,0.358497316768
tagged_abstract_sents/8173141.txt,19,0.166800966962,0.0328043143297,0.139250797795,0.194462959676,0.0221599638371,0.161989296071,0.000510204081633,0.611564969555
tagged_abstract_sents/8173141.txt,20,0.131345688961,-0.0353775038521,0.0616692308323,0.247294108221,0.0221599638371,0.0,0.0,0.20302389828
tagged_abstract_sents/8173141.txt,21,0.0954875100725,6.16332819723e-05,0.139250797795,0.194462959676,0.0221599638371,0.116335829485,0.000583090379009,0.343660486933
tagged_abstract_sents/8173141.txt,22,0.0954875100725,0.0197072419106,0.139250797795,0.194462959676,0.0221599638371,0.14350943922,0.0112554112554,0.403645719256
tagged_abstract_sents/8173141.txt,23,0.0342465753425,0.0724807395994,0.139250797795,0.194462959676,0.0221599638371,0.168957166693,0.00941496598639,0.36522287747
tagged_abstract_sents/8173141.txt,24,0.0342465753425,0.0193220338983,0.139250797795,0.194462959676,0.0221599638371,0.119660470801,0.0130763416478,0.545008793853
tagged_abstract_sents/8173141.txt,25,0.0342465753425,0.00853620955316,0.139250797795,0.194462959676,0.0221599638371,0.106819246941,0.01238811314,0.298436112903
