tagged_abstract_sents/8214994.txt,1,0.125905068383,-0.0461227032077,0.0616692308323,0.142474783506,0.0,0.0,0.0,0.165076564533
tagged_abstract_sents/8214994.txt,2,0.239742558327,0.0982559950171,0.188769469584,0.202456734834,0.456016460368,0.398924755021,0.0656199783989,1.2871281947
tagged_abstract_sents/8214994.txt,3,0.239742558327,-0.048489567113,0.0616692308323,0.142474783506,0.0,0.0,0.0,0.255673183707
tagged_abstract_sents/8214994.txt,4,0.218020917136,0.0053565867331,0.0616692308323,0.142474783506,0.344280297242,0.344888598445,0.0575706646295,0.99580466184
tagged_abstract_sents/8214994.txt,5,0.218020917136,-0.0478978511367,0.0616692308323,0.142474783506,0.0,0.0,0.0,0.238414213949
tagged_abstract_sents/8214994.txt,6,0.162510056315,-0.0313298037994,0.0616692308323,0.142474783506,0.0696504738061,0.191291952529,0.0538354379185,0.512096999013
tagged_abstract_sents/8214994.txt,7,0.162510056315,-0.0473061351604,0.0616692308323,0.142474783506,0.0,0.0,0.0,0.194123868488
tagged_abstract_sents/8214994.txt,8,0.101769911504,-0.0248209280598,0.0616692308323,0.142474783506,0.264568914408,0.15098630235,0.0346470138858,0.600231024703
tagged_abstract_sents/8214994.txt,9,0.101769911504,0.0402678293367,0.0616692308323,0.142474783506,0.475007746449,0.241497258734,0.0440271802501,0.923578730972
tagged_abstract_sents/8214994.txt,10,0.0711987127916,-0.0478978511367,0.0616692308323,0.142474783506,0.0,0.0,0.0,0.120956450474
tagged_abstract_sents/8214994.txt,11,0.0711987127916,0.0124571784491,0.139250797795,0.0356431803763,0.220115078847,0.256816413517,0.0503819709702,0.667082222267
tagged_abstract_sents/8214994.txt,12,0.0458567980692,0.0177826222361,0.139250797795,0.0356431803763,0.324627274128,0.189455887479,0.040446481623,0.675089959143
tagged_abstract_sents/8214994.txt,13,0.0458567980692,0.0272500778574,0.139250797795,0.0356431803763,0.27303613364,0.326587586688,0.0685222705683,0.790599797933
tagged_abstract_sents/8214994.txt,14,0.0245374094932,0.0118654624727,0.139250797795,0.0356431803763,0.465155337308,0.265799886222,0.0564589472152,0.889735543845
tagged_abstract_sents/8214994.txt,15,0.0245374094932,0.00594830270944,0.139250797795,0.0356431803763,0.470174526895,0.315960261914,0.0557677616501,0.943040491605
tagged_abstract_sents/8214994.txt,16,0.00844730490748,-0.0455309872314,0.139250797795,0.0356431803763,0.0,0.0,0.0,0.07796999949
tagged_abstract_sents/8214994.txt,17,0.00844730490748,0.0189660541887,0.139250797795,0.0356431803763,0.295669207051,0.282822215644,0.0567400513925,0.726100881861
tagged_abstract_sents/8214994.txt,18,0.00120675784393,0.0556524447213,0.139250797795,0.0356431803763,0.41651635951,0.302820176814,0.0579373567609,0.869688141315
tagged_abstract_sents/8214994.txt,19,0.00120675784393,0.0455932731236,0.139250797795,0.0356431803763,0.277530425178,0.327978719637,0.051398013751,0.747309572477
