tagged_abstract_sents/8226711.txt,2,0.0805801772764,-0.0514884568651,0.188769469584,0.123191979006,0.223191882552,0.144276703541,0.0439475995316,0.69911386121
tagged_abstract_sents/8226711.txt,3,0.123690572119,0.00440461725395,0.188769469584,0.123191979006,0.223191882552,0.15827843938,0.0867411277247,0.656712742628
tagged_abstract_sents/8226711.txt,4,0.149073327961,-0.0198967193196,0.188769469584,0.123191979006,0.223191882552,0.151063151147,0.0706113387978,0.654789214351
tagged_abstract_sents/8226711.txt,5,0.176470588235,0.103432563791,0.210342442448,0.141687475369,0.223191882552,0.223167013014,0.157607463927,0.892910116841
tagged_abstract_sents/8226711.txt,6,0.166800966962,-0.0326549210207,0.139250797795,0.194462959676,0.223191882552,0.0905194980937,0.0236172337788,0.519759892819
tagged_abstract_sents/8226711.txt,7,0.0954875100725,-0.00956865127582,0.139250797795,0.194462959676,0.223191882552,0.127932672407,0.0760465456674,0.580498184363
tagged_abstract_sents/8226711.txt,8,0.0342465753425,0.00136695018226,0.139250797795,0.194462959676,0.223191882552,0.134884253458,0.103093286495,0.616804359615
