tagged_abstract_sents/8238175.txt,1,0.125905068383,-0.0710510863183,0.0616692308323,0.142474783506,0.0,0.0,0.0,0.160090887911
tagged_abstract_sents/8238175.txt,2,0.239742558327,0.0992366412214,0.188769469584,0.202456734834,0.589076757159,0.693986468233,0.0549791835565,1.7048055391
tagged_abstract_sents/8238175.txt,3,0.218020917136,-0.0692894891368,0.0616692308323,0.142474783506,0.0,0.0,0.0,0.234135886349
tagged_abstract_sents/8238175.txt,4,0.162510056315,0.04873752202,0.210342442448,0.226435992083,0.572728227422,0.495243780316,0.0489968181015,1.42982639414
tagged_abstract_sents/8238175.txt,5,0.162510056315,0.0275983558426,0.0616692308323,0.142474783506,0.317179765556,0.46946443329,0.0582994520064,1.05404841754
tagged_abstract_sents/8238175.txt,6,0.101769911504,-0.0381679389313,0.0616692308323,0.142474783506,0.296313913729,0.211346426883,0.0570708856284,0.712090618125
tagged_abstract_sents/8238175.txt,7,0.0711987127916,-0.0176159718144,0.0616692308323,0.142474783506,0.578543871669,0.383484095682,0.0587039482578,1.14774474195
tagged_abstract_sents/8238175.txt,8,0.0458567980692,-0.0722254844392,0.139250797795,0.0356431803763,0.0,0.0,0.0,0.102558694578
tagged_abstract_sents/8238175.txt,9,0.0458567980692,0.0140927774516,0.139250797795,0.0356431803763,0.533941446086,0.528019783593,0.055450206502,1.23723378314
tagged_abstract_sents/8238175.txt,10,0.0245374094932,0.0710510863183,0.139250797795,0.0356431803763,0.223182091049,0.541217565083,0.0542138059042,0.932771959905
tagged_abstract_sents/8238175.txt,11,0.00844730490748,0.030534351145,0.139250797795,0.0356431803763,0.262211984646,0.621217100007,0.0568081379466,1.03342028976
tagged_abstract_sents/8238175.txt,12,0.00120675784393,-0.0704638872578,0.139250797795,0.0356431803763,0.0,0.0,0.0,0.0671909818339
tagged_abstract_sents/8238175.txt,13,0.00120675784393,0.047563123899,0.139250797795,0.0356431803763,0.435343780432,0.630561813442,0.04905780449,1.20575978243
