tagged_abstract_sents/8308945.txt,2,0.0805801772764,-0.0529431475483,0.139250797795,0.194462959676,0.0400318825699,0.155601193204,0.0132757636666,0.350716755982
tagged_abstract_sents/8308945.txt,3,0.140209508461,-0.0443426784318,0.139250797795,0.194462959676,0.0400318825699,0.168549520761,0.04163626889,0.441449147534
tagged_abstract_sents/8308945.txt,4,0.149879129734,-0.0388696526304,0.139250797795,0.194462959676,0.0400318825699,0.160117091193,0.0219280875456,0.546364287792
tagged_abstract_sents/8308945.txt,5,0.166800966962,0.0432257343907,0.139250797795,0.194462959676,0.0400318825699,0.198336329175,0.0258748546919,0.604317369992
tagged_abstract_sents/8308945.txt,6,0.0954875100725,0.0666815592539,0.139250797795,0.194462959676,0.0400318825699,0.184742061309,0.0192229749291,0.52953810372
tagged_abstract_sents/8308945.txt,7,0.0342465753425,0.0393164302468,0.139250797795,0.194462959676,0.0400318825699,0.256537319245,0.0318952040395,0.491689238978
