tagged_abstract_sents/8309029.txt,1,0.125905068383,-0.0480232840165,0.0616692308323,0.142474783506,0.0,0.0,0.0,0.164696448371
tagged_abstract_sents/8309029.txt,2,0.239742558327,0.0929905408683,0.188769469584,0.202456734834,0.224809318052,0.229312420482,0.191410170626,1.01104581924
tagged_abstract_sents/8309029.txt,3,0.239742558327,-0.0494057724958,0.0616692308323,0.142474783506,0.0,0.0,0.0,0.25548994263
tagged_abstract_sents/8309029.txt,4,0.218020917136,0.0164928450158,0.0616692308323,0.142474783506,0.132731603289,0.137418040949,0.138230223784,0.659672221201
tagged_abstract_sents/8309029.txt,5,0.218020917136,-0.0489449430027,0.0616692308323,0.142474783506,0.0,0.0,0.0,0.238204795576
tagged_abstract_sents/8309029.txt,6,0.162510056315,-0.0397283531409,0.0616692308323,0.142474783506,0.0,0.0456355468837,0.0473360655738,0.288611037349
tagged_abstract_sents/8309029.txt,7,0.162510056315,-0.0484841135096,0.0616692308323,0.142474783506,0.0,0.0,0.0,0.193888272818
tagged_abstract_sents/8309029.txt,8,0.101769911504,0.0353868542324,0.210342442448,0.226435992083,0.0,0.141505347716,0.133719471395,0.53682013801
tagged_abstract_sents/8309029.txt,9,0.101769911504,-0.0447974775649,0.0616692308323,0.142474783506,0.0,0.0,0.0,0.146033484158
tagged_abstract_sents/8309029.txt,10,0.0711987127916,0.0155711860296,0.139250797795,0.0356431803763,0.0,0.200804143498,0.129412010706,0.470607714654
tagged_abstract_sents/8309029.txt,11,0.0711987127916,-0.0489449430027,0.139250797795,0.0356431803763,0.0,0.0,0.0,0.127488334643
tagged_abstract_sents/8309029.txt,12,0.0458567980692,0.0717923841863,0.139250797795,0.0356431803763,0.38245500953,0.176001745127,0.197580439874,0.887399462833
tagged_abstract_sents/8309029.txt,13,0.0458567980692,-0.0199126849382,0.139250797795,0.0356431803763,0.415367166476,0.145018399109,0.200950634784,0.874357454846
tagged_abstract_sents/8309029.txt,14,0.0245374094932,0.0455251030803,0.139250797795,0.0356431803763,0.103407844109,0.164429116021,0.0762015069748,0.453091768325
tagged_abstract_sents/8309029.txt,15,0.0245374094932,0.0842347804996,0.139250797795,0.0356431803763,0.0687834454553,0.236941407578,0.0849632245316,0.50748331427
tagged_abstract_sents/8309029.txt,16,0.00844730490748,0.00451127819549,0.139250797795,0.0356431803763,0.526810091007,0.117413706172,0.130369950234,0.862572199989
tagged_abstract_sents/8309029.txt,17,0.00844730490748,-0.0475624545234,0.139250797795,0.0356431803763,0.0,0.0,0.0,0.0775637060316
tagged_abstract_sents/8309029.txt,18,0.00120675784393,-0.0199126849382,0.139250797795,0.0356431803763,0.506535686769,0.108726144378,0.189100312256,0.881663365701
tagged_abstract_sents/8309029.txt,19,0.00120675784393,0.049211739025,0.139250797795,0.0356431803763,0.395495469363,0.253946538474,0.119049143735,0.859617258664
