tagged_abstract_sents/8326947.txt,1,0.162510056315,0.212705210564,0.210342442448,0.226435992083,0.378466883312,0.403436640105,0.0734201613378,1.20097479077
tagged_abstract_sents/8326947.txt,2,0.0458567980692,-0.102069950036,0.139250797795,0.0356431803763,0.305087749028,0.272084946691,0.0645803712055,0.738342868382
tagged_abstract_sents/8326947.txt,3,0.00120675784393,-0.110635260528,0.139250797795,0.0356431803763,0.089726103833,0.272905289192,0.0548680735169,0.476656173722
