tagged_abstract_sents/8394375.txt,2,0.149073327961,-0.0326725403818,0.139250797795,0.194462959676,0.256716600695,0.373162572889,0.0566238168559,0.894454801977
tagged_abstract_sents/8394375.txt,3,0.166800966962,-0.0121145374449,0.139250797795,0.194462959676,0.256716600695,0.382318402506,0.0499635955646,1.18113501517
tagged_abstract_sents/8394375.txt,4,0.0342465753425,-0.0796622613803,0.139250797795,0.194462959676,0.256716600695,0.420035948642,0.0479841240226,0.864165768157
