tagged_abstract_sents/8411526.txt,1,0.0954875100725,-0.057379672299,0.0616692308323,0.247294108221,0.483155102025,0.0,0.0,0.169936921481
tagged_abstract_sents/8411526.txt,3,0.0253827558421,-0.0589157706093,0.0616692308323,0.247294108221,0.483155102025,0.0,0.0,0.113545898434
tagged_abstract_sents/8411526.txt,4,0.0805801772764,0.0706285202253,0.0616692308323,0.247294108221,0.483155102025,0.47395026878,0.0478160829011,1.17475489098
tagged_abstract_sents/8411526.txt,5,0.123690572119,-0.0584037378392,0.0616692308323,0.247294108221,0.483155102025,0.0,0.0,0.19229455801
tagged_abstract_sents/8411526.txt,6,0.123690572119,0.0204493087558,0.139250797795,0.194462959676,0.483155102025,0.367266382598,0.0324380885943,0.938062592899
tagged_abstract_sents/8411526.txt,7,0.140209508461,-0.0558435739887,0.139250797795,0.194462959676,0.483155102025,0.0,0.0,0.228963178771
tagged_abstract_sents/8411526.txt,8,0.149073327961,-0.00771249359959,0.139250797795,0.194462959676,0.483155102025,0.251061435764,0.0385282617076,0.771758462678
tagged_abstract_sents/8411526.txt,9,0.149879129734,-0.0584037378392,0.139250797795,0.194462959676,0.483155102025,0.0,0.0,0.23618684302
tagged_abstract_sents/8411526.txt,10,0.176470588235,0.00764848950333,0.139250797795,0.194462959676,0.483155102025,0.347417619868,0.0378899319088,0.78216283718
tagged_abstract_sents/8411526.txt,11,0.176470588235,0.0926459293395,0.139250797795,0.194462959676,0.483155102025,0.384038055922,0.0500592954308,0.721769023272
tagged_abstract_sents/8411526.txt,12,0.166800966962,0.04297875064,0.139250797795,0.194462959676,0.483155102025,0.419431934116,0.0473611729189,0.808293849558
tagged_abstract_sents/8411526.txt,13,0.0954875100725,-0.0184651817716,0.139250797795,0.194462959676,0.483155102025,0.222641706722,0.0490161882681,0.529280894415
tagged_abstract_sents/8411526.txt,14,0.0954875100725,0.0414426523297,0.139250797795,0.194462959676,0.483155102025,0.258952988403,0.0278670166872,0.639050382224
tagged_abstract_sents/8411526.txt,15,0.0342465753425,-0.0563556067588,0.0616692308323,0.247294108221,0.483155102025,0.0,0.0,0.121148986805
tagged_abstract_sents/8411526.txt,16,0.0342465753425,0.0424667178699,0.139250797795,0.194462959676,0.483155102025,0.452968518117,0.0277804505491,1.12775896134
