tagged_abstract_sents/8421475.txt,1,0.0954875100725,-0.0565087145969,0.0616692308323,0.247294108221,0.194444779613,0.0,0.0,0.170111113021
tagged_abstract_sents/8421475.txt,2,0.0253827558421,0.0420751633987,0.188769469584,0.123191979006,0.194444779613,0.371411750077,0.0445355991796,1.0013515054
tagged_abstract_sents/8421475.txt,4,0.0805801772764,-0.0581427015251,0.0616692308323,0.247294108221,0.194444779613,0.0,0.0,0.157858449399
tagged_abstract_sents/8421475.txt,5,0.123690572119,0.0126633986928,0.210342442448,0.141687475369,0.194444779613,0.308660355276,0.0603474682364,0.929334406976
tagged_abstract_sents/8421475.txt,6,0.123690572119,-0.00313180827887,0.194899689933,0.293363477728,0.194444779613,0.315154124283,0.0774278826945,0.992209941873
tagged_abstract_sents/8421475.txt,7,0.140209508461,0.0153867102397,0.0616692308323,0.247294108221,0.194444779613,0.250726108794,0.0418602542101,0.512865905593
tagged_abstract_sents/8421475.txt,8,0.149073327961,-0.00585511982571,0.0616692308323,0.247294108221,0.194444779613,0.305456405931,0.0686590487352,0.922051407086
tagged_abstract_sents/8421475.txt,9,0.149879129734,-0.0581427015251,0.0616692308323,0.247294108221,0.194444779613,0.0,0.0,0.213297611365
tagged_abstract_sents/8421475.txt,10,0.176470588235,0.0829248366013,0.139250797795,0.194462959676,0.194444779613,0.393820454529,0.0796790051112,0.925832301822
tagged_abstract_sents/8421475.txt,11,0.176470588235,0.0132080610022,0.139250797795,0.194462959676,0.194444779613,0.282995060982,0.0685823113306,0.623406006692
tagged_abstract_sents/8421475.txt,12,0.166800966962,0.0181100217865,0.139250797795,0.194462959676,0.194444779613,0.311688455081,0.0576950024841,0.634447265557
tagged_abstract_sents/8421475.txt,13,0.0954875100725,0.00503812636166,0.139250797795,0.194462959676,0.194444779613,0.299238458266,0.061379618038,0.930341705066
tagged_abstract_sents/8421475.txt,14,0.0954875100725,0.0295479302832,0.139250797795,0.194462959676,0.194444779613,0.43039823168,0.107610859088,1.05067124407
tagged_abstract_sents/8421475.txt,15,0.0342465753425,-0.0559640522876,0.0616692308323,0.247294108221,0.194444779613,0.0,0.0,0.121227297699
tagged_abstract_sents/8421475.txt,16,0.0342465753425,-0.0025871459695,0.139250797795,0.194462959676,0.194444779613,0.338103327774,0.0419777322004,0.729369957467
