tagged_abstract_sents/8424029.txt,2,0.0048270313757,-0.0382151286951,0.139250797795,0.521468892835,0.207801659836,0.225609815528,0.0154510837727,0.579243243763
tagged_abstract_sents/8424029.txt,4,0.0518905872888,-0.0287737439586,0.139250797795,0.521468892835,0.207801659836,0.214616611664,0.0339655340754,0.510412438969
tagged_abstract_sents/8424029.txt,5,0.172566371681,-0.0397886928178,0.139250797795,0.521468892835,0.207801659836,0.251102023434,0.0358379839464,0.896989803473
tagged_abstract_sents/8424029.txt,6,0.206355591311,-0.00202315387209,0.139250797795,0.521468892835,0.207801659836,0.24403328919,0.0263735253914,0.869457324559
tagged_abstract_sents/8424029.txt,7,0.262268704747,0.0168596156008,0.139250797795,0.521468892835,0.207801659836,0.348728469246,0.0453280609256,1.04111114367
