tagged_abstract_sents/8439114.txt,1,0.0954875100725,-0.0521300889834,0.0616692308323,0.247294108221,0.126999516394,0.0,0.0,0.170986838144
tagged_abstract_sents/8439114.txt,3,0.0253827558421,-0.0541381211119,0.0616692308323,0.247294108221,0.126999516394,0.0,0.0,0.114501428334
tagged_abstract_sents/8439114.txt,4,0.0805801772764,-0.0340577998268,0.210342442448,0.141687475369,0.126999516394,0.257482642464,0.0263028804646,0.489115568619
tagged_abstract_sents/8439114.txt,5,0.0805801772764,-0.0501220568549,0.0616692308323,0.247294108221,0.126999516394,0.0,0.0,0.159462578333
tagged_abstract_sents/8439114.txt,6,0.123690572119,0.0415780770139,0.210342442448,0.141687475369,0.126999516394,0.67875481104,0.049476100777,1.14898810643
tagged_abstract_sents/8439114.txt,7,0.140209508461,-0.0440979604693,0.0616692308323,0.247294108221,0.126999516394,0.0,0.0,0.208370862557
tagged_abstract_sents/8439114.txt,8,0.140209508461,0.0315379163714,0.0616692308323,0.247294108221,0.126999516394,0.664195791808,0.0382010831175,1.01128011363
tagged_abstract_sents/8439114.txt,9,0.149879129734,0.0188203795574,0.0616692308323,0.247294108221,0.126999516394,0.500218008366,0.0334911330599,0.814456841748
tagged_abstract_sents/8439114.txt,10,0.149879129734,-0.0534687770691,0.0616692308323,0.247294108221,0.126999516394,0.0,0.0,0.214232396256
tagged_abstract_sents/8439114.txt,11,0.176470588235,0.00878021891488,0.139250797795,0.194462959676,0.126999516394,0.486259095621,0.0324658236264,0.929648996327
tagged_abstract_sents/8439114.txt,12,0.166800966962,0.0188203795574,0.139250797795,0.194462959676,0.126999516394,0.537200200295,0.0442076760066,0.846577012583
tagged_abstract_sents/8439114.txt,13,0.166800966962,0.024844475943,0.139250797795,0.194462959676,0.126999516394,0.562889534803,0.0275370850012,1.00113709904
tagged_abstract_sents/8439114.txt,14,0.0954875100725,-0.0507914008977,0.139250797795,0.194462959676,0.126999516394,0.0,0.0,0.194196014679
tagged_abstract_sents/8439114.txt,15,0.0954875100725,0.0154736593433,0.139250797795,0.194462959676,0.126999516394,0.550493269595,0.029149988227,0.924021993897
tagged_abstract_sents/8439114.txt,16,0.0342465753425,0.0301992282857,0.139250797795,0.194462959676,0.126999516394,0.541587455878,0.0560619821274,0.759050830737
tagged_abstract_sents/8439114.txt,17,0.0342465753425,0.0609890542562,0.139250797795,0.194462959676,0.126999516394,0.58936890756,0.0398152197069,0.923743001587
