tagged_abstract_sents/8441133.txt,1,0.00564061240935,0.0056338028169,0.188769469584,0.123191979006,0.0483635975067,0.280893430922,0.0473195567535,0.490343553173
tagged_abstract_sents/8441133.txt,2,0.0451248992748,0.0117957746479,0.210342442448,0.141687475369,0.0483635975067,0.337931575426,0.0495740574357,0.573665792096
tagged_abstract_sents/8441133.txt,3,0.116035455278,-0.0674295774648,0.0616692308323,0.247294108221,0.0483635975067,0.158094967795,0.0490333100396,0.391493574446
tagged_abstract_sents/8441133.txt,4,0.131345688961,-0.0401408450704,0.139250797795,0.194462959676,0.0483635975067,0.227280402152,0.064465408805,0.546020587071
tagged_abstract_sents/8441133.txt,6,0.150684931507,0.0338028169014,0.139250797795,0.194462959676,0.0483635975067,0.392147157174,0.0664461324839,0.978784399117
tagged_abstract_sents/8441133.txt,7,0.202256244964,0.0355633802817,0.139250797795,0.194462959676,0.0483635975067,0.439604054147,0.046832884097,0.909825961898
tagged_abstract_sents/8441133.txt,8,0.131345688961,0.00739436619718,0.139250797795,0.194462959676,0.0483635975067,0.314190514827,0.04648098233,0.843272231287
tagged_abstract_sents/8441133.txt,9,0.0342465753425,-0.0119718309859,0.139250797795,0.194462959676,0.0483635975067,0.272722281023,0.054921339605,0.767806554736
tagged_abstract_sents/8441133.txt,10,0.0342465753425,-0.0181338028169,0.139250797795,0.194462959676,0.0483635975067,0.266186372455,0.0504442447839,0.516729001256
