tagged_abstract_sents/8458042.txt,1,0.0954875100725,0.0536797969767,0.210342442448,0.141687475369,0.274698790688,0.245427857154,0.0508234494221,0.760045505892
tagged_abstract_sents/8458042.txt,2,0.0253827558421,0.0313362021406,0.194899689933,0.293363477728,0.274698790688,0.144785247747,0.038012295082,0.496554494153
tagged_abstract_sents/8458042.txt,3,0.0253827558421,0.0323292508,0.0616692308323,0.247294108221,0.274698790688,0.184621627904,0.0395081967213,0.594731939313
tagged_abstract_sents/8458042.txt,4,0.0805801772764,-0.012854463202,0.0616692308323,0.247294108221,0.274698790688,0.142010629524,0.0403005464481,0.664202709917
tagged_abstract_sents/8458042.txt,5,0.0805801772764,-0.0307293390709,0.0616692308323,0.247294108221,0.274698790688,0.0986551826949,0.0316982581967,0.293694562781
tagged_abstract_sents/8458042.txt,6,0.123690572119,-0.0123579388723,0.139250797795,0.194462959676,0.274698790688,0.121876690305,0.0342419754787,0.582946987791
tagged_abstract_sents/8458042.txt,8,0.140209508461,0.0109787046232,0.139250797795,0.194462959676,0.274698790688,0.179701110231,0.0300949495978,0.854417872994
tagged_abstract_sents/8458042.txt,9,0.149073327961,-0.00739269557542,0.139250797795,0.194462959676,0.274698790688,0.203811596727,0.0307160204701,0.662860702672
tagged_abstract_sents/8458042.txt,10,0.149879129734,-0.0332119607194,0.139250797795,0.194462959676,0.274698790688,0.0712430170051,0.00846018735363,0.584384222709
tagged_abstract_sents/8458042.txt,11,0.176470588235,-0.0292397660819,0.139250797795,0.194462959676,0.274698790688,0.108147133556,0.0248226339716,0.604522920893
tagged_abstract_sents/8458042.txt,12,0.176470588235,0.00204126668873,0.139250797795,0.194462959676,0.274698790688,0.149405133942,0.0310165049626,0.624811929508
tagged_abstract_sents/8458042.txt,13,0.166800966962,-0.00441354959726,0.139250797795,0.194462959676,0.274698790688,0.167430789964,0.0384354375133,0.794973341545
tagged_abstract_sents/8458042.txt,14,0.166800966962,0.00799955864504,0.139250797795,0.194462959676,0.274698790688,0.133841767478,0.0328022926168,0.628638491428
tagged_abstract_sents/8458042.txt,15,0.0954875100725,-0.0302328147413,0.139250797795,0.194462959676,0.274698790688,0.117584680453,0.0425570843091,0.523470750471
tagged_abstract_sents/8458042.txt,16,0.0954875100725,-0.00292397660819,0.139250797795,0.194462959676,0.274698790688,0.135909265046,0.0360763589301,0.556296655341
tagged_abstract_sents/8458042.txt,17,0.0342465753425,-0.0262606201037,0.139250797795,0.194462959676,0.274698790688,0.0929759213951,0.022080963533,0.470402431098
tagged_abstract_sents/8458042.txt,18,0.0342465753425,0.0278605318327,0.139250797795,0.194462959676,0.274698790688,0.173826348908,0.0279694023012,0.637428195338
