tagged_abstract_sents/8481068.txt,1,0.125905068383,-0.0614062773979,0.0616692308323,0.142474783506,0.0,0.0,0.0,0.162019849695
tagged_abstract_sents/8481068.txt,2,0.239742558327,-0.0261616692969,0.188769469584,0.202456734834,0.250023856042,0.19453191991,0.0351441011818,0.821383345178
tagged_abstract_sents/8481068.txt,3,0.229283990346,-0.0629843941785,0.0616692308323,0.142474783506,0.0,0.0,0.0,0.244407363909
tagged_abstract_sents/8481068.txt,4,0.218020917136,0.0574785200772,0.194899689933,0.13295610691,0.270159533773,0.419219633794,0.0702126385145,1.08284092085
tagged_abstract_sents/8481068.txt,5,0.162510056315,0.0180256005611,0.0616692308323,0.142474783506,0.0824439996038,0.32506871096,0.0577418388739,0.67244476507
tagged_abstract_sents/8481068.txt,6,0.118262268705,-0.0624583552516,0.0616692308323,0.142474783506,0.0,0.0,0.0,0.155695194381
tagged_abstract_sents/8481068.txt,7,0.101769911504,-0.0351043310538,0.0616692308323,0.142474783506,6.3565224692e-05,0.129983740367,0.0406409104522,0.318660329505
tagged_abstract_sents/8481068.txt,8,0.0711987127916,-0.0624583552516,0.0616692308323,0.142474783506,0.0,0.0,0.0,0.118044349651
tagged_abstract_sents/8481068.txt,9,0.0571198712792,0.0853585832018,0.139250797795,0.0356431803763,0.18899317532,0.377260824738,0.0549956378504,0.764335604582
tagged_abstract_sents/8481068.txt,10,0.0458567980692,0.0132912502192,0.139250797795,0.0356431803763,0.168567462271,0.270201466671,0.0612084456424,0.619639416093
tagged_abstract_sents/8481068.txt,11,0.0245374094932,0.03170261266,0.139250797795,0.0356431803763,0.0919255015346,0.332226148405,0.0540010553488,0.584441508425
tagged_abstract_sents/8481068.txt,12,0.0144810941271,0.0380150797826,0.139250797795,0.0356431803763,2.25689459867e-05,0.329467014322,0.0487385729973,0.477734400534
tagged_abstract_sents/8481068.txt,13,0.00844730490748,-0.0603541995441,0.139250797795,0.0356431803763,0.0,0.0,0.0,0.0750053570274
tagged_abstract_sents/8481068.txt,14,0.00120675784393,-0.0235314746625,0.139250797795,0.0356431803763,0.458843811709,0.162321226588,0.0369462822293,0.734688784879
tagged_abstract_sents/8481068.txt,15,0.00120675784393,0.150587410135,0.139250797795,0.0356431803763,0.342775684119,0.404377288291,0.0650194669063,0.923573680628
