tagged_abstract_sents/8501736.txt,2,0.123690572119,-0.00849256900212,0.188769469584,0.123191979006,0.368858886369,0.140492823131,0.0225496233834,0.637995596029
tagged_abstract_sents/8501736.txt,3,0.149073327961,0.0329087048832,0.139250797795,0.194462959676,0.368858886369,0.191514320547,0.0239916623241,0.752162791527
tagged_abstract_sents/8501736.txt,4,0.176470588235,-0.031847133758,0.139250797795,0.194462959676,0.368858886369,0.131584875047,0.0245440333507,0.47559633924
tagged_abstract_sents/8501736.txt,5,0.0954875100725,-0.0265392781316,0.139250797795,0.194462959676,0.368858886369,0.149104512217,0.0238405419489,0.561427114032
tagged_abstract_sents/8501736.txt,6,0.0342465753425,0.0382165605096,0.139250797795,0.194462959676,0.368858886369,0.198234458753,0.0228200451624,0.752918249461
