tagged_abstract_sents/8511292.txt,2,0.0048270313757,-0.0858057009889,0.0616692308323,0.106008497564,0.133862805373,0.0184781922422,0.00685483870968,0.0746706805399
tagged_abstract_sents/8511292.txt,3,0.0108608205953,-0.0788248981966,0.0616692308323,0.106008497564,0.133862805373,0.0275293714148,0.00548387096774,0.0885740839048
tagged_abstract_sents/8511292.txt,4,0.0261464199517,-0.0308318789994,0.139250797795,0.521468892835,0.133862805373,0.0799264086873,0.0220207944548,0.481865762763
tagged_abstract_sents/8511292.txt,5,0.0518905872888,-0.0194880744619,0.139250797795,0.521468892835,0.133862805373,0.0516393132026,0.0121151026393,0.327435337529
tagged_abstract_sents/8511292.txt,7,0.172566371681,0.0250145433392,0.139250797795,0.521468892835,0.133862805373,0.0684954302028,0.00758064516129,0.547163447191
tagged_abstract_sents/8511292.txt,8,0.206355591311,0.0154159394997,0.139250797795,0.521468892835,0.133862805373,0.0769582782706,0.0195281258331,0.592107369635
tagged_abstract_sents/8511292.txt,9,0.262268704747,-0.0500290866783,0.139250797795,0.521468892835,0.133862805373,0.0502962487273,0.00947580645161,0.619510073761
