tagged_abstract_sents/8511292.txt,2,0.0805801772764,-0.0858057009889,0.0616692308323,0.247294108221,0.133862805373,0.0184781922422,0.00685483870968,0.177658880458
tagged_abstract_sents/8511292.txt,3,0.123690572119,-0.0788248981966,0.0616692308323,0.247294108221,0.133862805373,0.0275293714148,0.00548387096774,0.221223568321
tagged_abstract_sents/8511292.txt,4,0.140209508461,-0.0308318789994,0.139250797795,0.194462959676,0.133862805373,0.0799264086873,0.0220207944548,0.475014453623
tagged_abstract_sents/8511292.txt,5,0.149879129734,-0.0194880744619,0.139250797795,0.194462959676,0.133862805373,0.0516393132026,0.0121151026393,0.307724391537
tagged_abstract_sents/8511292.txt,6,0.176470588235,0.0485747527632,0.139250797795,0.194462959676,0.133862805373,0.0979706874897,0.0239792465599,0.502192487956
tagged_abstract_sents/8511292.txt,7,0.166800966962,0.0250145433392,0.139250797795,0.194462959676,0.133862805373,0.0684954302028,0.00758064516129,0.444449343468
tagged_abstract_sents/8511292.txt,8,0.0954875100725,0.0154159394997,0.139250797795,0.194462959676,0.133862805373,0.0769582782706,0.0195281258331,0.405311124697
tagged_abstract_sents/8511292.txt,9,0.0342465753425,-0.0500290866783,0.139250797795,0.194462959676,0.133862805373,0.0502962487273,0.00947580645161,0.33899059029
