tagged_abstract_sents/8607590.txt,1,0.125905068383,-0.0507331092601,0.0616692308323,0.142474783506,0.0,0.0,0.0,0.164154483322
tagged_abstract_sents/8607590.txt,2,0.239742558327,0.0325636903892,0.188769469584,0.202456734834,0.399413630784,0.642480863483,0.0416769025367,1.43699993679
tagged_abstract_sents/8607590.txt,3,0.239742558327,-0.0520483218861,0.0616692308323,0.142474783506,0.0,0.0,0.0,0.254961432752
tagged_abstract_sents/8607590.txt,4,0.218020917136,0.0505382629451,0.0616692308323,0.142474783506,0.41374867793,0.595128907036,0.0400801068091,1.30705912854
tagged_abstract_sents/8607590.txt,5,0.218020917136,0.0294948609284,0.0616692308323,0.142474783506,0.352213812156,0.573051548994,0.0382602444285,1.21741836194
tagged_abstract_sents/8607590.txt,6,0.162510056315,0.0461542208583,0.0616692308323,0.142474783506,0.357392607107,0.412352516795,0.0340147565175,1.01657582011
tagged_abstract_sents/8607590.txt,7,0.162510056315,-0.0485410882167,0.0616692308323,0.142474783506,0.0,0.0,0.0,0.193876877877
tagged_abstract_sents/8607590.txt,8,0.101769911504,0.0360709240586,0.205068369407,0.26003320229,0.383999211047,0.507888882508,0.031964242178,1.19302659514
tagged_abstract_sents/8607590.txt,9,0.0852775543041,-0.0485410882167,0.0616692308323,0.142474783506,0.0,0.0,0.0,0.132090876268
tagged_abstract_sents/8607590.txt,10,0.0711987127916,-0.0187296020264,0.0616692308323,0.142474783506,0.506286458952,0.565626848657,0.0421588785047,1.24086228641
tagged_abstract_sents/8607590.txt,11,0.0458567980692,-0.0489794924253,0.0616692308323,0.142474783506,0.0,0.0,0.0,0.100466590438
tagged_abstract_sents/8607590.txt,12,0.0458567980692,0.0290564567198,0.139250797795,0.0356431803763,0.317623956373,0.554323063848,0.0526786484543,1.04744075148
tagged_abstract_sents/8607590.txt,13,0.0245374094932,0.0180963515028,0.139250797795,0.0356431803763,0.436869412474,0.507360863587,0.0429408099688,1.09073863693
tagged_abstract_sents/8607590.txt,14,0.0245374094932,0.0514150713625,0.139250797795,0.0356431803763,0.468509170184,0.685086577708,0.0395115264798,1.30333856925
tagged_abstract_sents/8607590.txt,15,0.00844730490748,0.00450582103366,0.139250797795,0.0356431803763,0.411194667398,0.385120998247,0.0359044652129,0.920197492
tagged_abstract_sents/8607590.txt,16,0.00844730490748,0.0277412440937,0.139250797795,0.0356431803763,0.343285747375,0.621995425523,0.0396742323097,1.09757985096
tagged_abstract_sents/8607590.txt,17,0.00120675784393,-0.0507331092601,0.0616692308323,0.142474783506,0.0,0.0,0.0,0.064395834891
tagged_abstract_sents/8607590.txt,18,0.00120675784393,-0.00733109260071,0.139250797795,0.0356431803763,0.395281015778,0.477227968335,0.0373797790994,0.989706303977
