tagged_abstract_sents/8624180.txt,1,0.206355591311,-0.039517151759,0.0616692308323,0.106008497564,0.411027241595,0.0,0.0,0.219818207383
tagged_abstract_sents/8624180.txt,2,0.206355591311,0.00333484680058,0.188769469584,0.129715814208,0.411027241595,0.259536872007,0.0692041522491,1.09108300513
tagged_abstract_sents/8624180.txt,3,0.206355591311,-0.0398772525872,0.0616692308323,0.106008497564,0.411027241595,0.0,0.0,0.219746187217
tagged_abstract_sents/8624180.txt,4,0.206355591311,-0.00350706893582,0.188769469584,0.129715814208,0.411027241595,0.290047310103,0.0670022019503,0.961465679333
tagged_abstract_sents/8624180.txt,5,0.0048270313757,-0.0405974542437,0.0616692308323,0.106008497564,0.411027241595,0.0,0.0,0.0583792989371
tagged_abstract_sents/8624180.txt,6,0.0048270313757,0.0126974683346,0.210342442448,0.0253702522065,0.411027241595,0.315974185474,0.0567499727164,0.818310843677
tagged_abstract_sents/8624180.txt,7,0.0108608205953,0.0292621064333,0.0616692308323,0.106008497564,0.411027241595,0.334758353373,0.0646804176216,0.908790596207
tagged_abstract_sents/8624180.txt,9,0.0108608205953,-0.0405974542437,0.0616692308323,0.106008497564,0.411027241595,0.0,0.0,0.0632063303128
tagged_abstract_sents/8624180.txt,10,0.0261464199517,-0.0182712028933,0.139250797795,0.521468892835,0.411027241595,0.124102225312,0.0346956964604,0.626784002775
tagged_abstract_sents/8624180.txt,11,0.0261464199517,0.0231403923533,0.139250797795,0.521468892835,0.411027241595,0.131642979602,0.0533486121721,0.638788985713
tagged_abstract_sents/8624180.txt,12,0.0518905872888,-0.0182712028933,0.139250797795,0.521468892835,0.411027241595,0.184552936224,0.0649350649351,0.970186309512
tagged_abstract_sents/8624180.txt,13,0.0518905872888,-0.0225924128321,0.139250797795,0.521468892835,0.411027241595,0.0743193861681,0.0342925048807,0.952670927504
tagged_abstract_sents/8624180.txt,14,0.0993563958166,-0.0168307995804,0.139250797795,0.521468892835,0.411027241595,0.0989438151627,0.0584762830752,0.524210845303
tagged_abstract_sents/8624180.txt,15,0.0993563958166,0.0108969641935,0.139250797795,0.521468892835,0.411027241595,0.282912125821,0.0641711229947,1.06617880794
tagged_abstract_sents/8624180.txt,16,0.0993563958166,0.0299823080897,0.139250797795,0.521468892835,0.411027241595,0.291402610595,0.0660809778457,1.03240860339
tagged_abstract_sents/8624180.txt,18,0.172566371681,0.0713939033364,0.139250797795,0.521468892835,0.411027241595,0.404540099662,0.068449197861,1.13760538696
tagged_abstract_sents/8624180.txt,19,0.206355591311,-0.0391570509308,0.139250797795,0.521468892835,0.411027241595,0.0,0.0,0.383319129611
tagged_abstract_sents/8624180.txt,20,0.206355591311,0.0188191824146,0.139250797795,0.521468892835,0.411027241595,0.352686617274,0.0770490014187,1.23930296157
tagged_abstract_sents/8624180.txt,21,0.262268704747,-0.00422727059229,0.139250797795,0.521468892835,0.411027241595,0.208176049091,0.0616995461286,0.831365141551
tagged_abstract_sents/8624180.txt,22,0.262268704747,-0.0153903962675,0.139250797795,0.521468892835,0.411027241595,0.171367212971,0.0641711229947,0.99360585794
tagged_abstract_sents/8624180.txt,23,0.262268704747,0.0361040221697,0.139250797795,0.521468892835,0.411027241595,0.363333648625,0.0668449197861,1.28430764499
