tagged_abstract_sents/8647965.txt,1,0.125905068383,-0.0534539473684,0.0616692308323,0.142474783506,0.0,0.0,0.0,0.163610315701
tagged_abstract_sents/8647965.txt,2,0.239742558327,0.121710526316,0.188769469584,0.202456734834,0.242078866173,0.437998596684,0.038817098922,1.09015246895
tagged_abstract_sents/8647965.txt,3,0.239742558327,0.0189144736842,0.188769469584,0.202456734834,0.375317890584,0.241156489873,0.0386541079954,1.00582718509
tagged_abstract_sents/8647965.txt,4,0.218020917136,-0.0542763157895,0.0616692308323,0.142474783506,0.0,0.0,0.0,0.237138521019
tagged_abstract_sents/8647965.txt,5,0.162510056315,0.0230263157895,0.0616692308323,0.142474783506,0.461574776017,0.245728552241,0.0416659485359,0.957159635472
tagged_abstract_sents/8647965.txt,6,0.162510056315,-0.0559210526316,0.0616692308323,0.142474783506,0.0,0.0,0.0,0.192400884994
tagged_abstract_sents/8647965.txt,7,0.101769911504,0.015625,0.210342442448,0.226435992083,0.383321097017,0.258927616142,0.0371292769476,0.937020938159
tagged_abstract_sents/8647965.txt,8,0.0852775543041,-0.0123355263158,0.0616692308323,0.142474783506,0.415813023818,0.180240918748,0.0322506383157,0.76763656953
tagged_abstract_sents/8647965.txt,9,0.0711987127916,0.00164473684211,0.0616692308323,0.142474783506,0.227237094294,0.231099335562,0.0389182903604,0.628119688286
tagged_abstract_sents/8647965.txt,10,0.0458567980692,-0.0263157894737,0.0616692308323,0.142474783506,0.199659997751,0.160498674612,0.0182447204129,0.483402723805
tagged_abstract_sents/8647965.txt,11,0.0458567980692,-0.0559210526316,0.139250797795,0.0356431803763,0.0,0.0,0.0,0.105819580939
tagged_abstract_sents/8647965.txt,12,0.0245374094932,0.0476973684211,0.139250797795,0.0356431803763,0.466259296465,0.300634706855,0.0363536478172,0.912735405426
tagged_abstract_sents/8647965.txt,13,0.00844730490748,0.0361842105263,0.139250797795,0.0356431803763,0.244033930906,0.269528247297,0.0345940358759,0.64246925312
tagged_abstract_sents/8647965.txt,14,0.00844730490748,0.015625,0.139250797795,0.0356431803763,0.325748630854,0.226271654389,0.0427226779959,0.684944160175
tagged_abstract_sents/8647965.txt,15,0.00120675784393,-0.0534539473684,0.0616692308323,0.142474783506,0.0,0.0,0.0,0.0638516672693
tagged_abstract_sents/8647965.txt,16,0.00120675784393,0.03125,0.139250797795,0.0356431803763,0.484004196098,0.316598168805,0.0365549091011,0.924691033289
