tagged_abstract_sents/8668411.txt,1,0.206355591311,-0.0541896091152,0.0616692308323,0.106008497564,0.234469308799,0.0,0.0,0.216883715911
tagged_abstract_sents/8668411.txt,2,0.206355591311,0.0375620127569,0.188769469584,0.129715814208,0.234469308799,0.330689359839,0.0228925054487,1.07071085375
tagged_abstract_sents/8668411.txt,3,0.206355591311,-0.0532628250559,0.0616692308323,0.106008497564,0.234469308799,0.0,0.0,0.217069072723
tagged_abstract_sents/8668411.txt,4,0.0048270313757,0.0408057569645,0.139250797795,0.521468892835,0.234469308799,0.393951256145,0.0259516743234,0.976085483888
tagged_abstract_sents/8668411.txt,6,0.0108608205953,0.0292209562231,0.139250797795,0.521468892835,0.234469308799,0.386681051065,0.0225637272838,0.891302912062
tagged_abstract_sents/8668411.txt,7,0.0261464199517,-0.0361173199586,0.139250797795,0.521468892835,0.234469308799,0.155495035603,0.011464812782,0.634219623229
tagged_abstract_sents/8668411.txt,8,0.0261464199517,0.0565610859729,0.139250797795,0.521468892835,0.234469308799,0.384470999289,0.0325649469447,0.864504743093
tagged_abstract_sents/8668411.txt,9,0.0518905872888,-0.0551163931745,0.139250797795,0.521468892835,0.234469308799,0.0,0.0,0.256555257944
tagged_abstract_sents/8668411.txt,10,0.0518905872888,0.0264406040451,0.139250797795,0.521468892835,0.234469308799,0.292825105314,0.0593182095377,0.755030791602
tagged_abstract_sents/8668411.txt,11,0.0993563958166,-0.0342637518399,0.139250797795,0.521468892835,0.234469308799,0.159641822401,0.0174692973815,0.652803665534
tagged_abstract_sents/8668411.txt,13,0.172566371681,-0.00460666194189,0.139250797795,0.521468892835,0.234469308799,0.260981631856,0.0298752736213,0.984632936647
tagged_abstract_sents/8668411.txt,14,0.206355591311,0.0236602518672,0.139250797795,0.521468892835,0.234469308799,0.24624317444,0.0243932186852,0.945559271771
tagged_abstract_sents/8668411.txt,15,0.206355591311,0.0120754511258,0.139250797795,0.521468892835,0.234469308799,0.358130688586,0.0209147457007,1.1433185976
tagged_abstract_sents/8668411.txt,16,0.262268704747,-0.0532628250559,0.139250797795,0.521468892835,0.234469308799,0.0,0.0,0.425228465534
tagged_abstract_sents/8668411.txt,17,0.262268704747,0.00466117865126,0.139250797795,0.521468892835,0.234469308799,0.257120413103,0.0224485370845,0.950851525263
