tagged_abstract_sents/8682668.txt,1,0.239742558327,-0.0166283524904,0.210342442448,0.226435992083,0.163035062118,0.177633498192,0.0627984918307,0.765037447153
tagged_abstract_sents/8682668.txt,2,0.218020917136,-0.0462835249042,0.0616692308323,0.142474783506,0.207698542566,0.112575370683,0.0288856304985,0.587896622943
tagged_abstract_sents/8682668.txt,3,0.162510056315,0.0233716475096,0.139250797795,0.0356431803763,0.32246461998,0.128238332394,0.0487781036168,0.714481783556
tagged_abstract_sents/8682668.txt,4,0.101769911504,0.0385440613027,0.139250797795,0.0356431803763,0.18081439269,0.113066123619,0.0347782258065,0.49810183659
tagged_abstract_sents/8682668.txt,5,0.0711987127916,-0.00352490421456,0.139250797795,0.0356431803763,0.165575649821,0.134732523362,0.0555178268251,0.492398342409
tagged_abstract_sents/8682668.txt,6,0.0458567980692,0.0495785440613,0.139250797795,0.0356431803763,0.180750044058,0.177189582887,0.0417633558587,0.526622483082
tagged_abstract_sents/8682668.txt,7,0.0245374094932,-0.0483524904215,0.139250797795,0.0356431803763,0.217763407619,0.108939106754,0.0417247067449,0.458705003638
tagged_abstract_sents/8682668.txt,8,0.00844730490748,0.0144061302682,0.139250797795,0.0356431803763,0.254721447797,0.183720272765,0.0579667644184,0.58636590797
tagged_abstract_sents/8682668.txt,9,0.00120675784393,-0.0111111111111,0.139250797795,0.0356431803763,0.199690981273,0.144312731066,0.0564149560117,0.479480205413
