tagged_abstract_sents/8698945.txt,1,0.250201126307,0.230655957162,0.188769469584,0.202456734834,0.27088736927,0.185351071251,0.0597536656891,0.917405953931
tagged_abstract_sents/8698945.txt,2,0.229283990346,0.0311914323963,0.188769469584,0.202456734834,0.155277200609,0.080261983106,0.0423076923077,0.622634110021
tagged_abstract_sents/8698945.txt,3,0.206757843926,-0.0451137884873,0.188769469584,0.202456734834,0.0,0.0264219623004,0.0386049434437,0.37653217843
tagged_abstract_sents/8698945.txt,4,0.118262268705,-0.0678714859438,0.0616692308323,0.142474783506,0.0,0.0172571890834,0.0450391006843,0.216908858011
tagged_abstract_sents/8698945.txt,5,0.0852775543041,-0.0303882195448,0.0616692308323,0.142474783506,0.340891309399,0.0406493883571,0.0281036168133,0.545365764571
tagged_abstract_sents/8698945.txt,6,0.0571198712792,-0.0129852744311,0.0616692308323,0.142474783506,0.0,0.0617931900636,0.05,0.228469082669
tagged_abstract_sents/8698945.txt,7,0.0345937248592,-0.0451137884873,0.0616692308323,0.142474783506,0.0,0.0264219623004,0.0386049434437,0.157256178402
tagged_abstract_sents/8698945.txt,8,0.0144810941271,-0.0678714859438,0.139250797795,0.0356431803763,0.0,0.0172571890834,0.0450391006843,0.140625220891
tagged_abstract_sents/8698945.txt,9,0.00120675784393,-0.0357429718876,0.139250797795,0.0356431803763,0.354092752813,0.03148461514,0.031616568915,0.491329101776
tagged_abstract_sents/8698945.txt,10,0.00120675784393,0.0432396251673,0.139250797795,0.0356431803763,1.41551409766e-05,0.0824750956363,0.0442138506655,0.216634785762
