tagged_abstract_sents/8699062.txt,2,0.131345688961,-0.0553459119497,0.139250797795,0.194462959676,0.226639281581,0.269064333662,0.020771970947,0.716458019045
tagged_abstract_sents/8699062.txt,3,0.150684931507,-0.0689727463312,0.139250797795,0.194462959676,0.226639281581,0.363094585206,0.0296716175708,0.811952905469
tagged_abstract_sents/8699062.txt,4,0.131345688961,0.00754716981132,0.139250797795,0.194462959676,0.226639281581,0.33318847725,0.0257965069619,0.80307796312
tagged_abstract_sents/8699062.txt,5,0.0342465753425,-0.011320754717,0.139250797795,0.194462959676,0.226639281581,0.438105716232,0.0386861161107,0.856528510055
