tagged_abstract_sents/8745894.txt,1,0.239742558327,0.00614552605703,0.188769469584,0.202456734834,0.250827862591,0.22506830363,0.0450984499372,0.869139523273
tagged_abstract_sents/8745894.txt,2,0.218020917136,-0.00491642084562,0.188769469584,0.202456734834,0.316486213855,0.255766131382,0.0328583211144,0.933665871134
tagged_abstract_sents/8745894.txt,3,0.162510056315,0.0464110127827,0.139250797795,0.0356431803763,0.211828076592,0.238745324148,0.0347270835304,0.704909084889
tagged_abstract_sents/8745894.txt,4,0.101769911504,-0.0248279252704,0.139250797795,0.0356431803763,0.213302704057,0.184642960867,0.0321542033236,0.586868565407
tagged_abstract_sents/8745894.txt,5,0.0711987127916,0.0154375614553,0.139250797795,0.0356431803763,0.15209479687,0.200741176028,0.0447496052335,0.537950413667
tagged_abstract_sents/8745894.txt,6,0.0458567980692,-0.0451819075713,0.139250797795,0.0356431803763,0.244714757577,0.154512829492,0.0322434017595,0.539438398779
tagged_abstract_sents/8745894.txt,7,0.0245374094932,0.0406588003933,0.139250797795,0.0356431803763,0.178924003735,0.252505121375,0.0349019428152,0.574411108608
tagged_abstract_sents/8745894.txt,8,0.00844730490748,-0.0664208456244,0.139250797795,0.0356431803763,0.258160850316,0.137092544119,0.0330838092298,0.502129231476
tagged_abstract_sents/8745894.txt,9,0.00120675784393,0.0326941986234,0.139250797795,0.0356431803763,0.230412375606,0.256207909472,0.0336754643206,0.608118348409
