tagged_abstract_sents/8759176.txt,1,0.125905068383,-0.0379560915275,0.0616692308323,0.142474783506,0.0,0.0,0.0,0.166709886869
tagged_abstract_sents/8759176.txt,2,0.125905068383,0.0210420531849,0.188769469584,0.202456734834,0.357453188877,0.398772225304,0.0557112908056,1.07199092557
tagged_abstract_sents/8759176.txt,3,0.239742558327,0.0392238713667,0.188769469584,0.202456734834,0.259788500411,0.426981687627,0.0678706199461,1.10940138416
tagged_abstract_sents/8759176.txt,4,0.239742558327,-0.0368429189858,0.0616692308323,0.142474783506,0.0,0.0,0.0,0.258002513332
tagged_abstract_sents/8759176.txt,5,0.218020917136,0.0373685837972,0.0616692308323,0.142474783506,0.138971554144,0.4080269447,0.046668740065,0.849134739845
tagged_abstract_sents/8759176.txt,6,0.218020917136,-0.0279375386518,0.0616692308323,0.142474783506,7.982815857e-05,0.0878778616423,0.0366127583109,0.366976724558
tagged_abstract_sents/8759176.txt,7,0.218020917136,-0.035729746444,0.0616692308323,0.142474783506,0.0,0.0,0.0,0.240847834888
tagged_abstract_sents/8759176.txt,8,0.162510056315,0.0540661719233,0.0616692308323,0.142474783506,0.112654420702,0.39904855787,0.0668301387641,0.792931447241
tagged_abstract_sents/8759176.txt,9,0.162510056315,-0.0364718614719,0.0616692308323,0.142474783506,0.0,0.0,0.0,0.196290723226
tagged_abstract_sents/8759176.txt,10,0.101769911504,-0.0405534941249,0.0616692308323,0.142474783506,0.0,0.0,0.0,0.146882280846
tagged_abstract_sents/8759176.txt,11,0.101769911504,0.00842609771181,0.0616692308323,0.142474783506,0.302720969445,0.314698586455,0.0529153071358,0.827013062249
tagged_abstract_sents/8759176.txt,12,0.0852775543041,-0.0405534941249,0.0616692308323,0.142474783506,0.0,0.0,0.0,0.133688395086
tagged_abstract_sents/8759176.txt,13,0.0711987127916,0.0247526283241,0.139250797795,0.0356431803763,0.243615664661,0.396628105878,0.0586025495788,0.841074169026
tagged_abstract_sents/8759176.txt,14,0.0711987127916,-0.0386982065553,0.139250797795,0.0356431803763,0.0,0.0,0.0,0.129537681933
tagged_abstract_sents/8759176.txt,15,0.0458567980692,0.00137600494743,0.139250797795,0.0356431803763,0.40137701793,0.291014569023,0.0533005655092,0.862971144918
tagged_abstract_sents/8759176.txt,16,0.0458567980692,0.00582869511441,0.139250797795,0.0356431803763,0.152861695679,0.370489834282,0.0485515532685,0.690072613718
tagged_abstract_sents/8759176.txt,17,0.0245374094932,0.0473871366729,0.139250797795,0.0356431803763,0.195726873077,0.410482256222,0.0576956673655,0.773330504604
tagged_abstract_sents/8759176.txt,18,0.0245374094932,0.00471552257267,0.139250797795,0.0356431803763,0.293513703914,0.311601622508,0.0554767421699,0.761483453711
tagged_abstract_sents/8759176.txt,19,0.0245374094932,0.0110235003092,0.139250797795,0.0356431803763,0.352179777538,0.336194839775,0.0543148076841,0.844842405664
tagged_abstract_sents/8759176.txt,20,0.00844730490748,0.046645021645,0.139250797795,0.0356431803763,0.105673115964,0.255862891847,0.0546758011381,0.512617010215
tagged_abstract_sents/8759176.txt,21,0.00844730490748,-0.000850340136054,0.139250797795,0.0356431803763,0.212792498606,0.177480312508,0.0617450334431,0.538923973466
tagged_abstract_sents/8759176.txt,22,0.00120675784393,-0.0372139764997,0.0616692308323,0.142474783506,0.0,0.0,0.0,0.0670996614431
tagged_abstract_sents/8759176.txt,23,0.00120675784393,0.0332869511441,0.139250797795,0.0356431803763,0.28381918252,0.3921803613,0.0499128753846,0.813853568719
tagged_abstract_sents/8759176.txt,24,0.00120675784393,-0.00233457019171,0.139250797795,0.0356431803763,0.287612072398,0.344708744046,0.0506269776163,0.763764639307
