tagged_abstract_sents/8805732.txt,1,0.206355591311,-0.0444102850755,0.0616692308323,0.106008497564,0.181650956512,0.0,0.0,0.218839580719
tagged_abstract_sents/8805732.txt,3,0.206355591311,-0.0460871995528,0.0616692308323,0.106008497564,0.181650956512,0.0,0.0,0.218504197824
tagged_abstract_sents/8805732.txt,4,0.0048270313757,0.0193124650643,0.0616692308323,0.106008497564,0.181650956512,0.22417874391,0.056587696554,0.62859558171
tagged_abstract_sents/8805732.txt,5,0.0048270313757,-0.0455282280604,0.0616692308323,0.106008497564,0.181650956512,0.0,0.0,0.0573931441738
tagged_abstract_sents/8805732.txt,6,0.0048270313757,0.0394354387926,0.0616692308323,0.106008497564,0.181650956512,0.218986700955,0.0436966794915,0.568142616142
tagged_abstract_sents/8805732.txt,7,0.0108608205953,-0.00472330911124,0.0616692308323,0.106008497564,0.181650956512,0.0933330598748,0.00861631537861,0.574660167029
tagged_abstract_sents/8805732.txt,8,0.016894609815,-0.037702627166,0.0616692308323,0.106008497564,0.181650956512,0.0,0.0,0.0686123271041
tagged_abstract_sents/8805732.txt,9,0.0261464199517,0.00366126327557,0.0616692308323,0.106008497564,0.181650956512,0.104119566696,0.0134385977752,0.508370057876
tagged_abstract_sents/8805732.txt,10,0.0353982300885,-0.0231693683622,0.0616692308323,0.106008497564,0.181650956512,0.0847654175688,0.0134773013871,0.473783678109
tagged_abstract_sents/8805732.txt,11,0.0518905872888,-0.0455282280604,0.0616692308323,0.106008497564,0.181650956512,0.0,0.0,0.0950439889043
tagged_abstract_sents/8805732.txt,12,0.0683829444891,0.0243432084964,0.139250797795,0.521468892835,0.181650956512,0.169604013603,0.0308413836846,0.637521518979
tagged_abstract_sents/8805732.txt,14,0.130329847144,0.0606763555059,0.139250797795,0.521468892835,0.181650956512,0.199360280637,0.050556206089,0.671203809997
tagged_abstract_sents/8805732.txt,15,0.172566371681,0.0221073225266,0.139250797795,0.521468892835,0.181650956512,0.132633550293,0.0543845953682,0.555562836
tagged_abstract_sents/8805732.txt,16,0.214802896219,0.0304918949134,0.139250797795,0.521468892835,0.181650956512,0.14516797193,0.0360289812646,0.713472904935
tagged_abstract_sents/8805732.txt,17,0.206355591311,0.047261039687,0.139250797795,0.521468892835,0.181650956512,0.186160853789,0.0495950429352,0.774434034477
tagged_abstract_sents/8805732.txt,18,0.262268704747,-0.0432923420906,0.139250797795,0.521468892835,0.181650956512,0.0,0.0,0.427222562127
tagged_abstract_sents/8805732.txt,19,0.262268704747,-0.00472330911124,0.139250797795,0.521468892835,0.181650956512,0.101960887256,0.020431533269,0.82828188141
tagged_abstract_sents/8805732.txt,20,0.262268704747,0.022666294019,0.139250797795,0.521468892835,0.181650956512,0.13823350446,0.0338992974239,0.794198047745
