tagged_abstract_sents/8844728.txt,1,0.125905068383,0.00317128750475,0.188769469584,0.202456734834,0.282342201646,0.338963515816,0.0288362278358,0.906622012748
tagged_abstract_sents/8844728.txt,2,0.250201126307,0.0145651348272,0.188769469584,0.202456734834,0.249996162125,0.171042686046,0.0472802773344,0.826514808759
tagged_abstract_sents/8844728.txt,3,0.239742558327,-0.00556399544246,0.188769469584,0.202456734834,0.291282814113,0.228938655691,0.0296325583306,0.89565703095
tagged_abstract_sents/8844728.txt,4,0.229283990346,0.0100075958982,0.188769469584,0.202456734834,0.271852775067,0.157341751333,0.0178072625698,0.787552255669
tagged_abstract_sents/8844728.txt,5,0.218020917136,0.000892518040258,0.188769469584,0.202456734834,0.234154817719,0.221952779465,0.0235581662833,0.809382756027
tagged_abstract_sents/8844728.txt,6,0.206757843926,-0.0218951766046,0.188769469584,0.202456734834,0.294642515858,0.275243130301,0.00634923551897,0.892383876741
tagged_abstract_sents/8844728.txt,7,0.162510056315,-0.00670338017471,0.188769469584,0.202456734834,0.294201685149,0.25340921293,0.0494355214153,0.880835543754
tagged_abstract_sents/8844728.txt,8,0.118262268705,0.0111469806305,0.188769469584,0.202456734834,0.312609290394,0.197583913073,0.0376931302374,0.799847300037
tagged_abstract_sents/8844728.txt,9,0.101769911504,0.0202620584884,0.139250797795,0.0356431803763,0.249303062416,0.270088622119,0.032513415172,0.717691793618
tagged_abstract_sents/8844728.txt,10,0.0852775543041,-0.00936194454994,0.139250797795,0.0356431803763,0.307693623053,0.235883842056,0.0281026924271,0.718348165079
tagged_abstract_sents/8844728.txt,11,0.0711987127916,0.000892518040258,0.139250797795,0.0356431803763,0.182340665768,0.222172877541,0.0291344889911,0.571103859152
tagged_abstract_sents/8844728.txt,12,0.0571198712792,-0.0291112799088,0.139250797795,0.0356431803763,0.23785234525,0.147222997688,0.032290211825,0.537557548815
tagged_abstract_sents/8844728.txt,13,0.0458567980692,-0.0253133308014,0.139250797795,0.0356431803763,0.361399423021,0.188558577904,0.00722183426443,0.669120960495
tagged_abstract_sents/8844728.txt,14,0.0345937248592,-0.0207557918724,0.139250797795,0.0356431803763,0.217611723234,0.169025708901,0.0422735434956,0.532753150154
tagged_abstract_sents/8844728.txt,15,0.0245374094932,-0.0367071781238,0.139250797795,0.0356431803763,0.342538493861,0.135217123501,0.0313081936685,0.601670656011
tagged_abstract_sents/8844728.txt,16,0.0144810941271,0.0673566274212,0.139250797795,0.0356431803763,0.231147237877,0.39870192727,0.0340335971446,0.769257316088
tagged_abstract_sents/8844728.txt,17,0.00844730490748,-0.00442461071022,0.139250797795,0.0356431803763,0.291099873868,0.265339882677,0.0191901279036,0.661821159243
tagged_abstract_sents/8844728.txt,18,0.00120675784393,0.00772882643373,0.139250797795,0.0356431803763,0.338144742385,0.375942951262,0.0290240921788,0.825941310397
tagged_abstract_sents/8844728.txt,19,0.00120675784393,-0.00898214963919,0.139250797795,0.0356431803763,0.368193781327,0.219047490289,0.0295606720342,0.696289273008
tagged_abstract_sents/8844728.txt,20,0.00120675784393,0.0327952905431,0.139250797795,0.0356431803763,0.377221681222,0.346852900381,0.0272419110801,0.839159310077
