tagged_abstract_sents/8875918.txt,1,0.0954875100725,-0.0706084959816,0.0616692308323,0.247294108221,2.02932746506e-05,0.0,0.0,0.167291156744
tagged_abstract_sents/8875918.txt,2,0.0253827558421,0.0533869115959,0.188769469584,0.123191979006,2.02932746506e-05,0.410707931411,0.0335756262309,0.69786666139
tagged_abstract_sents/8875918.txt,3,0.0805801772764,-0.0723306544202,0.0616692308323,0.247294108221,2.02932746506e-05,0.0,0.0,0.15502085882
tagged_abstract_sents/8875918.txt,5,0.123690572119,-0.0723306544202,0.0616692308323,0.247294108221,2.02932746506e-05,0.0,0.0,0.189509174694
tagged_abstract_sents/8875918.txt,6,0.140209508461,0.0510907003444,0.139250797795,0.194462959676,2.02932746506e-05,0.344158951749,0.0367568913187,0.769804334919
tagged_abstract_sents/8875918.txt,7,0.149879129734,-0.01205510907,0.139250797795,0.194462959676,2.02932746506e-05,0.308117359111,0.0510278333637,0.604601761248
tagged_abstract_sents/8875918.txt,8,0.176470588235,0.048794489093,0.139250797795,0.194462959676,2.02932746506e-05,0.417851342012,0.0364388480673,0.733189845286
tagged_abstract_sents/8875918.txt,9,0.176470588235,0.0137772675086,0.139250797795,0.194462959676,2.02932746506e-05,0.462969396095,0.0481254237849,0.782999276219
tagged_abstract_sents/8875918.txt,10,0.166800966962,0.0516647531573,0.139250797795,0.194462959676,2.02932746506e-05,0.475024683261,0.0469201382572,1.00336749781
tagged_abstract_sents/8875918.txt,11,0.0954875100725,-0.0700344431688,0.139250797795,0.194462959676,2.02932746506e-05,0.0,0.0,0.190347406224
tagged_abstract_sents/8875918.txt,12,0.0342465753425,-0.00746268656716,0.139250797795,0.194462959676,2.02932746506e-05,0.24847084216,0.0368928506458,0.632883187039
tagged_abstract_sents/8875918.txt,13,0.0342465753425,0.0459242250287,0.139250797795,0.194462959676,2.02932746506e-05,0.415067989653,0.0462676611485,0.625902336156
