tagged_abstract_sents/8896541.txt,2,0.0805801772764,0.058056099152,0.194899689933,0.293363477728,0.461785758519,0.303666691889,0.0763153488761,1.01714413009
tagged_abstract_sents/8896541.txt,3,0.140209508461,-0.104044357469,0.139250797795,0.194462959676,0.461785758519,0.159574571587,0.0652538934842,0.91214641625
tagged_abstract_sents/8896541.txt,4,0.149879129734,-0.00815394651011,0.139250797795,0.194462959676,0.461785758519,0.32075878298,0.0942685720374,1.07789340321
tagged_abstract_sents/8896541.txt,5,0.166800966962,0.151663405088,0.139250797795,0.194462959676,0.461785758519,0.327918850606,0.0727332658552,1.01893812688
tagged_abstract_sents/8896541.txt,6,0.0954875100725,-0.0321265492498,0.139250797795,0.194462959676,0.461785758519,0.250512837463,0.0899705374874,1.04216016614
tagged_abstract_sents/8896541.txt,7,0.0342465753425,-0.0469667318982,0.139250797795,0.194462959676,0.461785758519,0.31717767322,0.0719241935913,0.996855826025
