tagged_abstract_sents/8900550.txt,1,0.0954875100725,-0.0589958158996,0.0616692308323,0.247294108221,0.179778464971,0.0,0.0,0.169613692761
tagged_abstract_sents/8900550.txt,3,0.0451248992748,-0.0610878661088,0.0616692308323,0.247294108221,0.179778464971,0.0,0.0,0.128905194081
tagged_abstract_sents/8900550.txt,4,0.0805801772764,0.0302649930265,0.210342442448,0.141687475369,0.179778464971,0.258962489677,0.0610295830422,0.990806016281
tagged_abstract_sents/8900550.txt,5,0.123690572119,0.0330543933054,0.0616692308323,0.247294108221,0.179778464971,0.153135233488,0.0483216992651,0.561366248985
tagged_abstract_sents/8900550.txt,6,0.131345688961,0.00306834030683,0.0616692308323,0.247294108221,0.179778464971,0.111641701306,0.0395464074709,0.553215406447
tagged_abstract_sents/8900550.txt,7,0.140209508461,0.0149232914923,0.0616692308323,0.247294108221,0.179778464971,0.249557245539,0.0743970544193,0.695199764807
tagged_abstract_sents/8900550.txt,8,0.149879129734,0.00655509065551,0.0616692308323,0.247294108221,0.179778464971,0.213153742634,0.0544873714685,0.664049408874
tagged_abstract_sents/8900550.txt,9,0.150684931507,-0.0610878661088,0.139250797795,0.194462959676,0.179778464971,0.0,0.0,0.236294658784
tagged_abstract_sents/8900550.txt,10,0.176470588235,0.00167364016736,0.139250797795,0.194462959676,0.179778464971,0.122010729623,0.0262735168396,0.417759731885
tagged_abstract_sents/8900550.txt,11,0.166800966962,0.0595536959554,0.139250797795,0.194462959676,0.179778464971,0.280184600749,0.0515991235952,0.796588698832
tagged_abstract_sents/8900550.txt,12,0.131345688961,-0.0582984658298,0.0616692308323,0.247294108221,0.179778464971,0.0,0.0,0.198439705885
tagged_abstract_sents/8900550.txt,13,0.0954875100725,0.028870292887,0.139250797795,0.194462959676,0.179778464971,0.259217495472,0.0561860626409,0.982591988771
tagged_abstract_sents/8900550.txt,14,0.0342465753425,0.0114365411437,0.139250797795,0.194462959676,0.179778464971,0.222549594121,0.0450293324877,0.840625891686
tagged_abstract_sents/8900550.txt,15,0.0342465753425,0.0142259414226,0.139250797795,0.194462959676,0.179778464971,0.113732645141,0.0222440033761,0.473961848847
