tagged_abstract_sents/8901851.txt,1,0.125905068383,-0.0327340635523,0.0616692308323,0.142474783506,0.0,0.0,0.0,0.167754292464
tagged_abstract_sents/8901851.txt,2,0.125905068383,0.0528795912838,0.188769469584,0.202456734834,0.271617243645,0.583101178806,0.110108002084,1.23124815274
tagged_abstract_sents/8901851.txt,3,0.239742558327,-0.00537020551922,0.188769469584,0.202456734834,0.34110041275,0.320417696291,0.0512431459545,1.0586030158
tagged_abstract_sents/8901851.txt,4,0.239742558327,0.0247029453884,0.188769469584,0.202456734834,0.0,0.294826205416,0.0406812886303,0.687363885028
tagged_abstract_sents/8901851.txt,5,0.239742558327,-0.0335468514146,0.0616692308323,0.142474783506,0.0,0.0,0.0,0.258661726846
tagged_abstract_sents/8901851.txt,6,0.218020917136,-0.0126852962805,0.0616692308323,0.142474783506,0.0,0.217919170422,0.0374029446235,0.500778839967
tagged_abstract_sents/8901851.txt,7,0.218020917136,-0.00970507411851,0.0616692308323,0.142474783506,0.269029613805,0.275068294055,0.0670312856073,0.85718196282
tagged_abstract_sents/8901851.txt,8,0.218020917136,-0.0335468514146,0.0616692308323,0.142474783506,0.0,0.0,0.0,0.241284413894
tagged_abstract_sents/8901851.txt,9,0.162510056315,-0.00293184193211,0.194899689933,0.13295610691,0.22984183595,0.323952120426,0.0550311832908,0.875583493372
tagged_abstract_sents/8901851.txt,10,0.162510056315,0.0152204203274,0.210342442448,0.226435992083,0.185545808703,0.281556808299,0.0543591496565,0.827615914625
tagged_abstract_sents/8901851.txt,11,0.162510056315,0.0135948446027,0.194899689933,0.13295610691,0.261908701981,0.316871952056,0.0643788455904,0.913223190639
tagged_abstract_sents/8901851.txt,12,0.101769911504,0.0114274103031,0.0616692308323,0.142474783506,0.185545640281,0.319186483495,0.0643605332552,0.726371118764
tagged_abstract_sents/8901851.txt,13,0.101769911504,0.00655068312885,0.139250797795,0.0356431803763,0.218047770419,0.332514596902,0.0627886372832,0.776395423444
tagged_abstract_sents/8901851.txt,14,0.0852775543041,-0.00807949839378,0.139250797795,0.0356431803763,0.351644025829,0.283398706605,0.059677865677,0.841645094885
tagged_abstract_sents/8901851.txt,15,0.0711987127916,0.0287668847002,0.139250797795,0.0356431803763,0.0,0.253673166559,0.0278673047498,0.424571171492
tagged_abstract_sents/8901851.txt,16,0.0711987127916,-0.000764407632465,0.139250797795,0.0356431803763,0.0,0.251136858825,0.0620055669499,0.450266867492
tagged_abstract_sents/8901851.txt,17,0.0458567980692,-0.0270445485157,0.139250797795,0.0356431803763,0.0,0.088203647854,0.0316620275418,0.231460557158
tagged_abstract_sents/8901851.txt,18,0.0458567980692,-0.0335468514146,0.139250797795,0.0356431803763,0.0,0.0,0.0,0.110294421183
tagged_abstract_sents/8901851.txt,19,0.0458567980692,0.0756376514301,0.139250797795,0.0356431803763,0.0757967567575,0.367674502868,0.0517044803119,0.627307061689
tagged_abstract_sents/8901851.txt,20,0.0245374094932,-0.00753763981886,0.139250797795,0.0356431803763,0.0,0.259131639988,0.0228863495784,0.380458742207
tagged_abstract_sents/8901851.txt,21,0.0245374094932,-0.00211905406974,0.139250797795,0.0356431803763,0.195241287503,0.335213790922,0.0706123644887,0.700591912704
tagged_abstract_sents/8901851.txt,22,0.0245374094932,0.0447517126601,0.139250797795,0.0356431803763,0.154853065192,0.399825373979,0.0473278640492,0.710904926357
tagged_abstract_sents/8901851.txt,23,0.00844730490748,-0.00157719549483,0.139250797795,0.0356431803763,0.405113379928,0.277607835045,0.0525523325846,0.822034305395
tagged_abstract_sents/8901851.txt,24,0.00844730490748,-0.00347370050702,0.139250797795,0.0356431803763,0.13436804766,0.284803013752,0.0538586124947,0.559411130741
tagged_abstract_sents/8901851.txt,25,0.00844730490748,-0.00753763981886,0.139250797795,0.0356431803763,0.484219810372,0.227838457563,0.072864781717,0.870491718625
tagged_abstract_sents/8901851.txt,26,0.00120675784393,-0.0278573363781,0.0616692308323,0.142474783506,0.0,0.0,0.0,0.0689709894674
tagged_abstract_sents/8901851.txt,27,0.00120675784393,-0.0126852962805,0.139250797795,0.0356431803763,0.325040591236,0.209290299889,0.0573856263865,0.670463217541
tagged_abstract_sents/8901851.txt,28,0.00120675784393,-0.0107887912683,0.139250797795,0.0356431803763,0.34776735519,0.259339166081,0.0696428879199,0.755875410223
