tagged_abstract_sents/8901851.txt,1,0.0954875100725,-0.0327340635523,0.0616692308323,0.247294108221,0.34776735519,0.0,0.0,0.17486604323
tagged_abstract_sents/8901851.txt,3,0.0253827558421,-0.00537020551922,0.188769469584,0.123191979006,0.34776735519,0.320417696291,0.0512431459545,0.86333574706
tagged_abstract_sents/8901851.txt,4,0.0253827558421,0.0247029453884,0.188769469584,0.123191979006,0.34776735519,0.294826205416,0.0406812886303,0.492096616292
tagged_abstract_sents/8901851.txt,5,0.0253827558421,-0.0335468514146,0.0616692308323,0.247294108221,0.34776735519,0.0,0.0,0.118619682273
tagged_abstract_sents/8901851.txt,6,0.0805801772764,-0.0126852962805,0.0616692308323,0.247294108221,0.34776735519,0.217919170422,0.0374029446235,0.422272045494
tagged_abstract_sents/8901851.txt,7,0.0805801772764,-0.00970507411851,0.0616692308323,0.247294108221,0.34776735519,0.275068294055,0.0670312856073,0.778675168347
tagged_abstract_sents/8901851.txt,8,0.0805801772764,-0.0335468514146,0.0616692308323,0.247294108221,0.34776735519,0.0,0.0,0.162777619421
tagged_abstract_sents/8901851.txt,9,0.123690572119,-0.00293184193211,0.194899689933,0.293363477728,0.34776735519,0.323952120426,0.0550311832908,0.89265011726
tagged_abstract_sents/8901851.txt,10,0.123690572119,0.0152204203274,0.210342442448,0.141687475369,0.34776735519,0.281556808299,0.0543591496565,0.771135772254
tagged_abstract_sents/8901851.txt,11,0.123690572119,0.0135948446027,0.194899689933,0.293363477728,0.34776735519,0.316871952056,0.0643788455904,0.930289814528
tagged_abstract_sents/8901851.txt,12,0.140209508461,0.0114274103031,0.0616692308323,0.247294108221,0.34776735519,0.319186483495,0.0643605332552,0.788568593744
tagged_abstract_sents/8901851.txt,13,0.140209508461,0.00655068312885,0.139250797795,0.194462959676,0.34776735519,0.332514596902,0.0627886372832,0.854793034799
tagged_abstract_sents/8901851.txt,14,0.149073327961,-0.00807949839378,0.139250797795,0.194462959676,0.34776735519,0.283398706605,0.059677865677,0.940327647601
tagged_abstract_sents/8901851.txt,15,0.149879129734,0.0287668847002,0.139250797795,0.194462959676,0.34776735519,0.253673166559,0.0278673047498,0.535161438836
tagged_abstract_sents/8901851.txt,16,0.149879129734,-0.000764407632465,0.139250797795,0.194462959676,0.34776735519,0.251136858825,0.0620055669499,0.560857134835
tagged_abstract_sents/8901851.txt,17,0.176470588235,-0.0270445485157,0.139250797795,0.194462959676,0.34776735519,0.088203647854,0.0316620275418,0.383597523081
tagged_abstract_sents/8901851.txt,18,0.176470588235,-0.0335468514146,0.139250797795,0.194462959676,0.34776735519,0.0,0.0,0.262431387106
tagged_abstract_sents/8901851.txt,19,0.176470588235,0.0756376514301,0.139250797795,0.194462959676,0.34776735519,0.367674502868,0.0517044803119,0.779444027612
tagged_abstract_sents/8901851.txt,20,0.166800966962,-0.00753763981886,0.139250797795,0.194462959676,0.34776735519,0.259131639988,0.0228863495784,0.541915521972
tagged_abstract_sents/8901851.txt,21,0.166800966962,-0.00211905406974,0.139250797795,0.194462959676,0.34776735519,0.335213790922,0.0706123644887,0.862048692469
tagged_abstract_sents/8901851.txt,22,0.166800966962,0.0447517126601,0.139250797795,0.194462959676,0.34776735519,0.399825373979,0.0473278640492,0.872361706122
tagged_abstract_sents/8901851.txt,23,0.0954875100725,-0.00157719549483,0.139250797795,0.194462959676,0.34776735519,0.277607835045,0.0525523325846,0.939312403317
tagged_abstract_sents/8901851.txt,24,0.0954875100725,-0.00347370050702,0.139250797795,0.194462959676,0.34776735519,0.284803013752,0.0538586124947,0.676689228663
tagged_abstract_sents/8901851.txt,25,0.0954875100725,-0.00753763981886,0.139250797795,0.194462959676,0.34776735519,0.227838457563,0.072864781717,0.987769816547
tagged_abstract_sents/8901851.txt,26,0.0342465753425,-0.0278573363781,0.0616692308323,0.247294108221,0.34776735519,0.0,0.0,0.126848640881
tagged_abstract_sents/8901851.txt,27,0.0342465753425,-0.0126852962805,0.139250797795,0.194462959676,0.34776735519,0.209290299889,0.0573856263865,0.74454100533
tagged_abstract_sents/8901851.txt,28,0.0342465753425,-0.0107887912683,0.139250797795,0.194462959676,0.34776735519,0.259339166081,0.0696428879199,0.829953198011
