tagged_abstract_sents/8916634.txt,1,0.239742558327,0.000525762355415,0.210342442448,0.226435992083,0.144705990389,0.225006534751,0.0319762205008,0.766689963623
tagged_abstract_sents/8916634.txt,2,0.162510056315,-0.0068349106204,0.139250797795,0.0356431803763,0.162970593406,0.198561250015,0.0128524139795,0.583343673338
tagged_abstract_sents/8916634.txt,3,0.0852775543041,-0.0289169295478,0.139250797795,0.0356431803763,0.198533231911,0.194625420484,0.0233572779679,0.559272940908
tagged_abstract_sents/8916634.txt,4,0.0458567980692,0.0499474237645,0.139250797795,0.0356431803763,0.157311984226,0.215516632431,0.0247477931904,0.524569686066
tagged_abstract_sents/8916634.txt,5,0.00844730490748,0.000525762355415,0.139250797795,0.0356431803763,0.178755797092,0.234199092853,0.02399980484,0.524136044192
tagged_abstract_sents/8916634.txt,6,0.00120675784393,-0.015247108307,0.139250797795,0.0356431803763,0.183710334086,0.202247892501,0.0220433255269,0.486235889738
