tagged_abstract_sents/8916634.txt,2,0.123690572119,-0.0068349106204,0.139250797795,0.194462959676,0.183710334086,0.198561250015,0.0128524139795,0.599934019771
tagged_abstract_sents/8916634.txt,3,0.149073327961,-0.0289169295478,0.139250797795,0.194462959676,0.183710334086,0.194625420484,0.0233572779679,0.657955493623
tagged_abstract_sents/8916634.txt,4,0.176470588235,0.0499474237645,0.139250797795,0.194462959676,0.183710334086,0.215516632431,0.0247477931904,0.676706651989
tagged_abstract_sents/8916634.txt,5,0.0954875100725,0.000525762355415,0.139250797795,0.194462959676,0.183710334086,0.234199092853,0.02399980484,0.641414142114
tagged_abstract_sents/8916634.txt,6,0.0342465753425,-0.015247108307,0.139250797795,0.194462959676,0.183710334086,0.202247892501,0.0220433255269,0.560313677527
