tagged_abstract_sents/8926740.txt,2,0.0805801772764,-0.0452475811042,0.188769469584,0.123191979006,0.192453100855,0.338272159534,0.0495573210647,0.665589203389
tagged_abstract_sents/8926740.txt,3,0.140209508461,0.0643141718839,0.188769469584,0.123191979006,0.192453100855,0.673086795784,0.098489850689,1.185083398
tagged_abstract_sents/8926740.txt,4,0.149879129734,-0.0701479795105,0.188769469584,0.123191979006,0.192453100855,0.392718868843,0.0875264175547,0.909910263792
tagged_abstract_sents/8926740.txt,5,0.166800966962,-0.0203471826978,0.188769469584,0.123191979006,0.192453100855,0.677631267936,0.0704662979451,1.29573141391
tagged_abstract_sents/8926740.txt,6,0.0954875100725,0.00853727945361,0.188769469584,0.123191979006,0.192453100855,0.450080807313,0.094848389466,0.975359290831
tagged_abstract_sents/8926740.txt,7,0.0342465753425,-0.0123790552077,0.188769469584,0.123191979006,0.192453100855,0.529685649178,0.0887726195294,0.967175147289
