tagged_abstract_sents/8942775.txt,1,0.125905068383,-0.0344454742045,0.0616692308323,0.142474783506,0.0,0.0,0.0,0.167412010333
tagged_abstract_sents/8942775.txt,2,0.125905068383,0.0455107141854,0.188769469584,0.202456734834,0.340914896298,0.56851446207,0.0610028906523,1.23538020181
tagged_abstract_sents/8942775.txt,3,0.239742558327,-0.00231696014829,0.0616692308323,0.142474783506,0.434325755952,0.334411978906,0.0506281130831,1.08427355304
tagged_abstract_sents/8942775.txt,4,0.239742558327,-0.0355407644564,0.0616692308323,0.142474783506,0.0,0.0,0.0,0.258262944238
tagged_abstract_sents/8942775.txt,5,0.239742558327,0.0148425871317,0.210342442448,0.226435992083,0.184345508259,0.291370716698,0.063564892383,0.907145700277
tagged_abstract_sents/8942775.txt,6,0.218020917136,-0.00377734715084,0.0616692308323,0.142474783506,0.411997724504,0.252610379769,0.0742547824646,0.986101201485
tagged_abstract_sents/8942775.txt,7,0.218020917136,-0.0136349594181,0.0616692308323,0.142474783506,0.352541251722,0.284667302759,0.0440520685655,0.926527415339
tagged_abstract_sents/8942775.txt,8,0.162510056315,0.000968910607465,0.210342442448,0.226435992083,0.240342323886,0.418224989693,0.0572355856542,1.01910674526
tagged_abstract_sents/8942775.txt,9,0.162510056315,0.000238717106187,0.0616692308323,0.142474783506,0.25314420968,0.376198069576,0.060149503802,0.893124622
tagged_abstract_sents/8942775.txt,10,0.162510056315,0.0389389726739,0.210342442448,0.226435992083,0.420116622189,0.512011552209,0.0666088647787,1.30963489761
tagged_abstract_sents/8942775.txt,11,0.101769911504,0.0122869098773,0.0616692308323,0.142474783506,0.186447696035,0.394863813038,0.0638541621916,0.802616032912
tagged_abstract_sents/8942775.txt,12,0.101769911504,-0.00815850815851,0.0616692308323,0.142474783506,0.240344277729,0.361730951033,0.0733872618515,0.828823768653
tagged_abstract_sents/8942775.txt,13,0.0852775543041,-0.019841604179,0.0616692308323,0.142474783506,0.263655170223,0.258959854605,0.0518108003609,0.712256598264
tagged_abstract_sents/8942775.txt,14,0.0711987127916,-0.0216670879321,0.0616692308323,0.142474783506,0.431745835996,0.0943552536947,0.00929386662084,0.661597559427
tagged_abstract_sents/8942775.txt,15,0.0711987127916,-0.0351756677058,0.139250797795,0.0356431803763,0.0,0.0,0.0,0.130242189702
tagged_abstract_sents/8942775.txt,16,0.0458567980692,0.00863594237088,0.139250797795,0.0356431803763,0.0,0.324278040425,0.0740994329166,0.517108453281
tagged_abstract_sents/8942775.txt,17,0.0458567980692,-0.00925379841042,0.139250797795,0.0356431803763,0.380816095559,0.323078094687,0.0447625338317,0.863809755862
tagged_abstract_sents/8942775.txt,18,0.0458567980692,-0.0103490886623,0.139250797795,0.0356431803763,0.354153446663,0.297765677441,0.067869570821,0.834722668658
tagged_abstract_sents/8942775.txt,19,0.0245374094932,0.0250652961496,0.139250797795,0.0356431803763,0.247109831988,0.335776426632,0.0646426730249,0.75249027148
tagged_abstract_sents/8942775.txt,20,0.0245374094932,-0.0234925716853,0.139250797795,0.0356431803763,0.290802267864,0.0938370641144,0.025824848563,0.505713946809
tagged_abstract_sents/8942775.txt,21,0.00844730490748,0.0608447777122,0.139250797795,0.0356431803763,0.176774789423,0.549973317466,0.0680219884902,0.894015247858
tagged_abstract_sents/8942775.txt,22,0.00844730490748,-0.00158676664701,0.139250797795,0.0356431803763,0.338676036606,0.328175690595,0.0574967968886,0.811107367696
tagged_abstract_sents/8942775.txt,23,0.00844730490748,-0.0209368944309,0.0616692308323,0.142474783506,0.270624608657,0.234944755526,0.0375643173684,0.619281197059
tagged_abstract_sents/8942775.txt,24,0.00120675784393,0.0356531019182,0.139250797795,0.0356431803763,0.358800815964,0.436130557929,0.073222884861,0.956568638423
tagged_abstract_sents/8942775.txt,25,0.00120675784393,-0.032985087202,0.139250797795,0.0356431803763,0.0,0.0,0.0,0.074686741845
tagged_abstract_sents/8942775.txt,26,0.00120675784393,0.0301766506586,0.139250797795,0.0356431803763,0.379627481148,0.546211613998,0.0528109292435,1.06596911381
