tagged_abstract_sents/8942774.txt,1,0.125905068383,-0.0451391957578,0.0616692308323,0.142474783506,0.0,0.0,0.0,0.165273266023
tagged_abstract_sents/8942774.txt,2,0.250201126307,0.038820150243,0.188769469584,0.202456734834,0.348376760836,0.553894361145,0.0658083700035,1.33112617832
tagged_abstract_sents/8942774.txt,3,0.239742558327,0.0207026071586,0.0616692308323,0.142474783506,0.200996124721,0.337132369748,0.0611585786525,0.868798691683
tagged_abstract_sents/8942774.txt,4,0.229283990346,-0.0464648696421,0.0616692308323,0.142474783506,0.0,0.0,0.0,0.247711268816
tagged_abstract_sents/8942774.txt,5,0.218020917136,0.00346884666372,0.139250797795,0.0356431803763,0.183021688904,0.393707276239,0.0582956295236,0.890453450718
tagged_abstract_sents/8942774.txt,6,0.206757843926,0.00921343349536,0.139250797795,0.0356431803763,0.290107366189,0.427066141016,0.072573171555,1.03731399361
tagged_abstract_sents/8942774.txt,7,0.162510056315,0.0379363676536,0.139250797795,0.0356431803763,0.20955791156,0.37994364332,0.0805719673588,0.887987193832
tagged_abstract_sents/8942774.txt,8,0.118262268705,-0.00890410958904,0.139250797795,0.0356431803763,0.268437620033,0.305421004559,0.0459144219616,0.79292039261
tagged_abstract_sents/8942774.txt,9,0.101769911504,0.00258506407424,0.139250797795,0.0356431803763,0.202558838339,0.466566318871,0.0580307861278,0.889407238367
tagged_abstract_sents/8942774.txt,10,0.0852775543041,0.0158418029165,0.139250797795,0.0356431803763,0.516753703385,0.364015753864,0.0591646892034,1.09164290349
tagged_abstract_sents/8942774.txt,11,0.0711987127916,0.00346884666372,0.139250797795,0.0356431803763,0.23092697017,0.40788051344,0.0574744740874,0.834253050274
tagged_abstract_sents/8942774.txt,12,0.0571198712792,-0.0323243482103,0.139250797795,0.0356431803763,0.323354045861,0.167128927115,0.0155596433467,0.625591996714
tagged_abstract_sents/8942774.txt,13,0.0458567980692,-0.0460229783473,0.139250797795,0.0356431803763,0.0,0.0,0.0,0.107799195796
tagged_abstract_sents/8942774.txt,14,0.0345937248592,0.0277728678745,0.139250797795,0.0356431803763,0.476120469902,0.406886684276,0.0693795320884,1.06593459274
tagged_abstract_sents/8942774.txt,15,0.0245374094932,0.00391073795846,0.139250797795,0.0356431803763,0.291642603084,0.465677190157,0.066135179423,0.92418540086
tagged_abstract_sents/8942774.txt,16,0.0144810941271,-0.00448519664163,0.139250797795,0.0356431803763,0.404003913179,0.45656413314,0.0766335868024,1.02820782211
tagged_abstract_sents/8942774.txt,17,0.00844730490748,0.0374944763588,0.139250797795,0.0356431803763,0.309403195701,0.481657502739,0.0674546916331,0.953090482281
tagged_abstract_sents/8942774.txt,18,0.00120675784393,-0.0433716305789,0.139250797795,0.0356431803763,0.0,0.0,0.0,0.0726094331696
tagged_abstract_sents/8942774.txt,19,0.00120675784393,-0.0128811312417,0.139250797795,0.0356431803763,0.204744992011,0.34027476815,0.0524552133007,0.676182506499
tagged_abstract_sents/8942774.txt,20,0.00120675784393,0.0383782589483,0.139250797795,0.0356431803763,0.226813200466,0.529289330829,0.0773778837479,0.922439826118
