tagged_abstract_sents/8967711.txt,1,0.0954875100725,-0.0626057529611,0.0616692308323,0.247294108221,0.379178353565,0.0,0.0,0.168891705348
tagged_abstract_sents/8967711.txt,3,0.0451248992748,-0.0600676818951,0.0616692308323,0.247294108221,0.379178353565,0.0,0.0,0.129109230923
tagged_abstract_sents/8967711.txt,4,0.0805801772764,0.014551607445,0.0616692308323,0.247294108221,0.379178353565,0.280400284337,0.0028644347464,0.651187028854
tagged_abstract_sents/8967711.txt,5,0.123690572119,-0.0585448392555,0.0616692308323,0.247294108221,0.379178353565,0.0,0.0,0.192266337727
tagged_abstract_sents/8967711.txt,6,0.131345688961,0.0881556683587,0.0616692308323,0.247294108221,0.379178353565,0.584808099019,0.00329412749571,0.99945391284
tagged_abstract_sents/8967711.txt,7,0.140209508461,0.00947546531303,0.139250797795,0.194462959676,0.379178353565,0.24360756614,0.00433544535599,0.679491107002
tagged_abstract_sents/8967711.txt,8,0.149879129734,-0.0585448392555,0.0616692308323,0.247294108221,0.379178353565,0.0,0.0,0.213217183819
tagged_abstract_sents/8967711.txt,9,0.150684931507,-0.0108291032149,0.0616692308323,0.247294108221,0.379178353565,0.196731919498,0.00388744715583,0.561642547899
tagged_abstract_sents/8967711.txt,10,0.176470588235,-0.0590524534687,0.0616692308323,0.247294108221,0.379178353565,0.0,0.0,0.234388827777
tagged_abstract_sents/8967711.txt,11,0.166800966962,0.0155668358714,0.139250797795,0.194462959676,0.379178353565,0.370511272221,0.00269111708429,0.910068091436
tagged_abstract_sents/8967711.txt,12,0.131345688961,0.0693739424704,0.139250797795,0.194462959676,0.379178353565,0.376401857499,0.00281344058813,0.877291752181
tagged_abstract_sents/8967711.txt,13,0.0954875100725,0.00135363790186,0.139250797795,0.194462959676,0.379178353565,0.373326680394,0.005063758774,0.879531051623
tagged_abstract_sents/8967711.txt,14,0.0342465753425,-0.0610829103215,0.0616692308323,0.247294108221,0.379178353565,0.0,0.0,0.120203526092
tagged_abstract_sents/8967711.txt,15,0.0342465753425,0.075972927242,0.139250797795,0.194462959676,0.379178353565,0.498112310997,0.00200844966589,1.04985524675
