tagged_abstract_sents/8967711.txt,1,0.206355591311,-0.0626057529611,0.0616692308323,0.106008497564,0.379178353565,0.0,0.0,0.215200487142
tagged_abstract_sents/8967711.txt,3,0.0048270313757,-0.0600676818951,0.0616692308323,0.106008497564,0.379178353565,0.0,0.0,0.0544852534068
tagged_abstract_sents/8967711.txt,4,0.0048270313757,0.014551607445,0.0616692308323,0.106008497564,0.379178353565,0.280400284337,0.0028644347464,0.548198828937
tagged_abstract_sents/8967711.txt,5,0.0108608205953,-0.0585448392555,0.0616692308323,0.106008497564,0.379178353565,0.0,0.0,0.0596168533105
tagged_abstract_sents/8967711.txt,6,0.016894609815,0.0881556683587,0.0616692308323,0.106008497564,0.379178353565,0.584808099019,0.00329412749571,0.865507366326
tagged_abstract_sents/8967711.txt,7,0.0261464199517,0.00947546531303,0.139250797795,0.521468892835,0.379178353565,0.24360756614,0.00433544535599,0.686342416142
tagged_abstract_sents/8967711.txt,8,0.0518905872888,-0.0585448392555,0.0616692308323,0.106008497564,0.379178353565,0.0,0.0,0.0924406666652
tagged_abstract_sents/8967711.txt,9,0.0683829444891,-0.0108291032149,0.0616692308323,0.106008497564,0.379178353565,0.196731919498,0.00388744715583,0.453415275088
tagged_abstract_sents/8967711.txt,10,0.0993563958166,-0.0590524534687,0.0616692308323,0.106008497564,0.379178353565,0.0,0.0,0.130311790645
tagged_abstract_sents/8967711.txt,11,0.172566371681,0.0155668358714,0.139250797795,0.521468892835,0.379178353565,0.370511272221,0.00269111708429,1.01278219516
tagged_abstract_sents/8967711.txt,12,0.214802896219,0.0693739424704,0.139250797795,0.521468892835,0.379178353565,0.376401857499,0.00281344058813,1.04215929794
tagged_abstract_sents/8967711.txt,13,0.206355591311,0.00135363790186,0.139250797795,0.521468892835,0.379178353565,0.373326680394,0.005063758774,1.06632729656
tagged_abstract_sents/8967711.txt,14,0.262268704747,-0.0610829103215,0.0616692308323,0.106008497564,0.379178353565,0.0,0.0,0.260235546418
