tagged_abstract_sents/8967711.txt,1,0.125905068383,-0.0626057529611,0.0616692308323,0.142474783506,0.0,0.0,0.0,0.161779954582
tagged_abstract_sents/8967711.txt,2,0.239742558327,0.0962774957699,0.188769469584,0.202456734834,0.113583659832,0.644291575534,0.00188906194581,1.12593559837
tagged_abstract_sents/8967711.txt,3,0.229283990346,-0.0600676818951,0.0616692308323,0.142474783506,0.0,0.0,0.0,0.244990706366
tagged_abstract_sents/8967711.txt,4,0.218020917136,0.014551607445,0.0616692308323,0.142474783506,0.195524998578,0.280400284337,0.0028644347464,0.729693823327
tagged_abstract_sents/8967711.txt,5,0.162510056315,-0.0585448392555,0.0616692308323,0.142474783506,0.0,0.0,0.0,0.191876127669
tagged_abstract_sents/8967711.txt,6,0.118262268705,0.0881556683587,0.0616692308323,0.142474783506,0.183621153603,0.584808099019,0.00329412749571,0.95754137922
tagged_abstract_sents/8967711.txt,7,0.101769911504,0.00947546531303,0.139250797795,0.0356431803763,0.189521108875,0.24360756614,0.00433544535599,0.601093495647
tagged_abstract_sents/8967711.txt,8,0.0711987127916,-0.0585448392555,0.0616692308323,0.142474783506,0.0,0.0,0.0,0.11882705285
tagged_abstract_sents/8967711.txt,9,0.0571198712792,-0.0108291032149,0.0616692308323,0.142474783506,0.137618208801,0.196731919498,0.00388744715583,0.455344702303
tagged_abstract_sents/8967711.txt,10,0.0458567980692,-0.0590524534687,0.0616692308323,0.142474783506,0.0,0.0,0.0,0.0984519982295
tagged_abstract_sents/8967711.txt,11,0.0245374094932,0.0155668358714,0.139250797795,0.0356431803763,0.272347274587,0.370511272221,0.00269111708429,0.748611311671
tagged_abstract_sents/8967711.txt,12,0.0144810941271,0.0693739424704,0.139250797795,0.0356431803763,0.251160827631,0.376401857499,0.00281344058813,0.736154142524
tagged_abstract_sents/8967711.txt,13,0.00844730490748,0.00135363790186,0.139250797795,0.0356431803763,0.296515590016,0.373326680394,0.005063758774,0.762252953701
tagged_abstract_sents/8967711.txt,14,0.00120675784393,-0.0610829103215,0.0616692308323,0.142474783506,0.0,0.0,0.0,0.0623258746787
tagged_abstract_sents/8967711.txt,15,0.00120675784393,0.075972927242,0.139250797795,0.0356431803763,0.379178353565,0.498112310997,0.00200844966589,0.975777458962
