tagged_abstract_sents/8981292.txt,1,0.125905068383,0.050954084675,0.188769469584,0.202456734834,0.267635834056,0.350257666082,0.11165368368,0.995583810703
tagged_abstract_sents/8981292.txt,2,0.239742558327,0.0344066785927,0.210342442448,0.226435992083,0.236778261087,0.352847402154,0.105915840351,1.06731890482
tagged_abstract_sents/8981292.txt,3,0.229283990346,-0.036702444842,0.0616692308323,0.142474783506,0.245837549557,0.120310902306,0.0312733569186,0.647085562558
tagged_abstract_sents/8981292.txt,4,0.218020917136,-0.0420691711389,0.0616692308323,0.142474783506,0.204376021338,0.141962590029,0.0200034879665,0.605922049283
tagged_abstract_sents/8981292.txt,5,0.162510056315,-0.044305307096,0.139250797795,0.0356431803763,0.408763860672,0.136413891146,0.0390187187536,0.785661807215
tagged_abstract_sents/8981292.txt,6,0.118262268705,-0.0492248062016,0.139250797795,0.0356431803763,0.376141403904,0.0859735576926,0.0460120916173,0.673210259948
tagged_abstract_sents/8981292.txt,7,0.101769911504,0.015175909362,0.139250797795,0.0356431803763,0.274256155153,0.299199785635,0.0770259272178,0.815251332091
tagged_abstract_sents/8981292.txt,8,0.0711987127916,0.0218843172332,0.139250797795,0.0356431803763,0.212972708121,0.308657543266,0.0838995465644,0.747183984641
tagged_abstract_sents/8981292.txt,9,0.0571198712792,0.0031007751938,0.139250797795,0.0356431803763,0.221880199886,0.193164584552,0.0639702747743,0.605649464284
tagged_abstract_sents/8981292.txt,10,0.0458567980692,-0.0317829457364,0.139250797795,0.0356431803763,0.187978934454,0.201539551085,0.0406807042021,0.54084639206
tagged_abstract_sents/8981292.txt,11,0.0245374094932,-0.00539654144305,0.139250797795,0.0356431803763,0.282500604724,0.306647259897,0.0797472677596,0.767764104697
tagged_abstract_sents/8981292.txt,12,0.0144810941271,-0.0268634466309,0.139250797795,0.0356431803763,0.424954934378,0.222602473978,0.0697375305197,0.803825477861
tagged_abstract_sents/8981292.txt,13,0.00844730490748,-0.0206022659511,0.139250797795,0.0356431803763,0.531947650165,0.237581791627,0.0884722706662,0.940957456205
tagged_abstract_sents/8981292.txt,14,0.00120675784393,-2.98151460942e-05,0.139250797795,0.0356431803763,0.535407393814,0.30668466159,0.101259155912,1.02462900757
tagged_abstract_sents/8981292.txt,15,0.00120675784393,0.131454979129,0.139250797795,0.0356431803763,0.24149132816,0.405839789649,0.104124239117,0.859030112038
