tagged_abstract_sents/8994481.txt,1,0.125905068383,-0.0409601634321,0.0616692308323,0.142474783506,0.0,0.0,0.0,0.166109072488
tagged_abstract_sents/8994481.txt,2,0.125905068383,-0.00185903983657,0.188769469584,0.202456734834,0.376448623226,0.135078484738,0.0424382069543,0.8094393169
tagged_abstract_sents/8994481.txt,3,0.239742558327,-0.0423084780388,0.0616692308323,0.142474783506,0.0,0.0,0.0,0.256909401521
tagged_abstract_sents/8994481.txt,4,0.239742558327,-0.0207354443309,0.0616692308323,0.142474783506,0.261042951428,0.101828816403,0.0230899830221,0.647185759116
tagged_abstract_sents/8994481.txt,5,0.218020917136,-0.0418590398366,0.0616692308323,0.142474783506,0.0,0.0,0.0,0.239621976209
tagged_abstract_sents/8994481.txt,6,0.218020917136,-0.0238815117467,0.0616692308323,0.142474783506,0.335573662675,0.12610994715,0.0320625610948,0.736963652747
tagged_abstract_sents/8994481.txt,7,0.162510056315,-0.0396118488253,0.0616692308323,0.142474783506,0.0,0.0,0.0,0.195662725755
tagged_abstract_sents/8994481.txt,8,0.162510056315,0.0215117466803,0.210342442448,0.226435992083,0.257737919453,0.0963088333285,0.0160772813524,0.677536447372
tagged_abstract_sents/8994481.txt,9,0.101769911504,0.0313993871297,0.0616692308323,0.142474783506,0.153426721515,0.162089211666,0.0332618993909,0.510050689669
tagged_abstract_sents/8994481.txt,10,0.101769911504,-0.0396118488253,0.0616692308323,0.142474783506,0.0,0.0,0.0,0.147070609906
tagged_abstract_sents/8994481.txt,11,0.0852775543041,0.0296016343207,0.194899689933,0.13295610691,0.271953061026,0.210608678689,0.0538274850844,0.747868272147
tagged_abstract_sents/8994481.txt,12,0.0711987127916,-0.0396118488253,0.0616692308323,0.142474783506,0.0,0.0,0.0,0.122613650936
tagged_abstract_sents/8994481.txt,13,0.0711987127916,0.0655566905005,0.139250797795,0.0356431803763,0.09393277793,0.241093990035,0.0511088709677,0.536524300276
tagged_abstract_sents/8994481.txt,14,0.0458567980692,0.0390398365679,0.139250797795,0.0356431803763,0.279072135089,0.185811687465,0.0310745705907,0.620770151925
tagged_abstract_sents/8994481.txt,15,0.0458567980692,0.0349948927477,0.139250797795,0.0356431803763,0.330399318833,0.148591186036,0.032347316078,0.635340590963
tagged_abstract_sents/8994481.txt,16,0.0245374094932,-0.0418590398366,0.139250797795,0.0356431803763,0.0,0.0,0.0,0.0915764726375
tagged_abstract_sents/8994481.txt,17,0.0245374094932,0.0107252298264,0.139250797795,0.0356431803763,0.379149199658,0.163680694186,0.0430615835777,0.687984803992
tagged_abstract_sents/8994481.txt,18,0.00844730490748,0.0107252298264,0.139250797795,0.0356431803763,0.401918151238,0.160681722585,0.0380175953079,0.689838712032
tagged_abstract_sents/8994481.txt,19,0.00844730490748,0.00802860061287,0.139250797795,0.0356431803763,0.375241406851,0.132470791264,0.0254732071448,0.621867322319
tagged_abstract_sents/8994481.txt,20,0.00120675784393,0.0961184882533,0.139250797795,0.0356431803763,0.168789944206,0.252198881531,0.0464895635674,0.567985846241
tagged_abstract_sents/8994481.txt,21,0.00120675784393,-0.0400612870276,0.0616692308323,0.142474783506,0.0,0.0,0.0,0.0665301993375
tagged_abstract_sents/8994481.txt,22,0.00120675784393,0.024657814096,0.139250797795,0.0356431803763,0.339120623166,0.145256443842,0.0468315695525,0.617423958665
