tagged_abstract_sents/9002122.txt,1,0.0954875100725,-0.0631078452561,0.0616692308323,0.247294108221,0.377958400294,0.0,0.0,0.168791286889
tagged_abstract_sents/9002122.txt,2,0.0253827558421,0.0261508536849,0.188769469584,0.123191979006,0.377958400294,0.473711832442,0.0490460709457,1.07156248096
tagged_abstract_sents/9002122.txt,3,0.0805801772764,-0.00183704344067,0.188769469584,0.123191979006,0.377958400294,0.396243846964,0.053022977391,1.00026086191
tagged_abstract_sents/9002122.txt,5,0.123690572119,-0.0638642749081,0.0616692308323,0.247294108221,0.377958400294,0.0,0.0,0.191202450596
tagged_abstract_sents/9002122.txt,6,0.140209508461,0.028420142641,0.0616692308323,0.247294108221,0.377958400294,0.494353158114,0.0536069354967,1.09374689221
tagged_abstract_sents/9002122.txt,7,0.149073327961,-0.0653771342122,0.0616692308323,0.247294108221,0.377958400294,0.0,0.0,0.211206083409
tagged_abstract_sents/9002122.txt,8,0.149879129734,0.0178301275124,0.139250797795,0.194462959676,0.377958400294,0.476555164152,0.0509076990376,0.959081915016
tagged_abstract_sents/9002122.txt,9,0.176470588235,0.0352280095094,0.139250797795,0.194462959676,0.377958400294,0.545780455813,0.0626822688831,1.23720018928
tagged_abstract_sents/9002122.txt,10,0.166800966962,0.0586773287227,0.139250797795,0.194462959676,0.377958400294,0.634936532606,0.0627616860392,1.32109417299
tagged_abstract_sents/9002122.txt,11,0.166800966962,-0.0146963475254,0.139250797795,0.194462959676,0.377958400294,0.304487292065,0.0461231408574,0.830257711837
tagged_abstract_sents/9002122.txt,12,0.0954875100725,-0.0631078452561,0.139250797795,0.194462959676,0.377958400294,0.0,0.0,0.191732725807
tagged_abstract_sents/9002122.txt,13,0.0342465753425,0.0178301275124,0.139250797795,0.194462959676,0.377958400294,0.407015112124,0.0666499746742,0.988146576164
tagged_abstract_sents/9002122.txt,14,0.0342465753425,0.0117786902961,0.139250797795,0.194462959676,0.377958400294,0.359880240665,0.0453120443278,0.94086797042
