tagged_abstract_sents/900673.txt,2,0.0048270313757,-0.0942146089205,0.0616692308323,0.106008497564,0.281253598959,0.0742776922096,0.0294569672131,0.151412104298
tagged_abstract_sents/900673.txt,3,0.0261464199517,-0.0105042016807,0.139250797795,0.521468892835,0.281253598959,0.134000453444,0.0886227441796,0.827561879615
tagged_abstract_sents/900673.txt,4,0.0518905872888,-0.0308661926309,0.139250797795,0.521468892835,0.281253598959,0.0828900852173,0.077868852459,0.849973579108
tagged_abstract_sents/900673.txt,6,0.206355591311,0.0087265675501,0.139250797795,0.521468892835,0.281253598959,0.14715447084,0.111318254653,0.988758141361
tagged_abstract_sents/900673.txt,7,0.262268704747,0.108274078862,0.139250797795,0.521468892835,0.281253598959,0.25245610318,0.11731069477,1.10855624323
