tagged_abstract_sents/9058407.txt,2,0.206355591311,-0.0349062702004,0.188769469584,0.129715814208,0.24209962362,0.0672227261789,0.0426441837732,0.594306689268
tagged_abstract_sents/9058407.txt,4,0.0108608205953,0.0218164188752,0.188769469584,0.129715814208,0.24209962362,0.134491074885,0.0496299399525,0.535290438973
tagged_abstract_sents/9058407.txt,5,0.0108608205953,0.018315018315,0.188769469584,0.129715814208,0.24209962362,0.152926816104,0.0488880742913,0.585603497542
tagged_abstract_sents/9058407.txt,6,0.0261464199517,0.017614738203,0.188769469584,0.129715814208,0.24209962362,0.1948435964,0.0690767519466,0.689169803559
tagged_abstract_sents/9058407.txt,7,0.0518905872888,0.00991165697048,0.188769469584,0.129715814208,0.24209962362,0.123168562534,0.0388563049853,0.69941430324
tagged_abstract_sents/9058407.txt,8,0.0993563958166,-0.0552143934497,0.188769469584,0.129715814208,0.24209962362,0.0608238801906,0.0330156402737,0.295584341424
tagged_abstract_sents/9058407.txt,9,0.0993563958166,0.0778388278388,0.188769469584,0.129715814208,0.24209962362,0.192218892603,0.0527454747699,0.632577919726
tagged_abstract_sents/9058407.txt,10,0.172566371681,-0.0117970265029,0.188769469584,0.129715814208,0.24209962362,0.0781328200285,0.0286010005175,0.77864470669
tagged_abstract_sents/9058407.txt,11,0.206355591311,0.017614738203,0.188769469584,0.129715814208,0.24209962362,0.110635973117,0.041063864451,0.788363293606
tagged_abstract_sents/9058407.txt,12,0.262268704747,0.0204158586512,0.188769469584,0.129715814208,0.24209962362,0.158613926792,0.0434369501466,0.750443522504
tagged_abstract_sents/9058407.txt,13,0.262268704747,-0.0517129928895,0.188769469584,0.129715814208,0.24209962362,0.092576934023,0.0290420332356,0.696490435153
