tagged_abstract_sents/9076817.txt,1,0.0954875100725,-0.0386281726861,0.0616692308323,0.247294108221,0.166673403675,0.0,0.0,0.173687221403
tagged_abstract_sents/9076817.txt,2,0.0954875100725,0.0164864657618,0.188769469584,0.123191979006,0.166673403675,0.115457824325,0.0263277940697,0.7531650305
tagged_abstract_sents/9076817.txt,3,0.0253827558421,0.0257457250211,0.188769469584,0.123191979006,0.166673403675,0.179594248532,0.0565115969075,0.569753769225
tagged_abstract_sents/9076817.txt,4,0.0253827558421,-0.0403918411165,0.0616692308323,0.247294108221,0.166673403675,0.0,0.0,0.117250684333
tagged_abstract_sents/9076817.txt,5,0.0805801772764,-0.016582317307,0.0616692308323,0.247294108221,0.166673403675,0.0767438838462,0.0333088954057,0.27628693598
tagged_abstract_sents/9076817.txt,6,0.0805801772764,-0.0395100069013,0.0616692308323,0.247294108221,0.166673403675,0.0,0.0,0.161584988323
tagged_abstract_sents/9076817.txt,8,0.123690572119,0.0275093934514,0.194899689933,0.293363477728,0.166673403675,0.137923891822,0.0488115449915,0.68071374304
tagged_abstract_sents/9076817.txt,9,0.123690572119,-0.0262824936738,0.0616692308323,0.247294108221,0.166673403675,0.0611745207432,0.0481964809384,0.308179268688
tagged_abstract_sents/9076817.txt,10,0.140209508461,-0.00159113564911,0.210342442448,0.141687475369,0.166673403675,0.0835858945007,0.0389296187683,0.69927251397
tagged_abstract_sents/9076817.txt,11,0.140209508461,-0.0099685606932,0.0616692308323,0.247294108221,0.166673403675,0.0817030198947,0.0478457026844,0.600265638508
tagged_abstract_sents/9076817.txt,12,0.149879129734,0.0129591289012,0.139250797795,0.194462959676,0.166673403675,0.123307570657,0.0543010752688,0.6701856878
tagged_abstract_sents/9076817.txt,13,0.149879129734,-0.0399509240089,0.0616692308323,0.247294108221,0.166673403675,0.0,0.0,0.216935966868
tagged_abstract_sents/9076817.txt,14,0.176470588235,0.0323594816348,0.139250797795,0.194462959676,0.166673403675,0.128270717472,0.0657322753148,0.628670609201
tagged_abstract_sents/9076817.txt,15,0.176470588235,0.00943179204049,0.139250797795,0.194462959676,0.166673403675,0.107120983485,0.0441642228739,0.565180998083
tagged_abstract_sents/9076817.txt,16,0.176470588235,0.0156046315467,0.139250797795,0.194462959676,0.166673403675,0.116849580736,0.0617485337243,0.653828625622
tagged_abstract_sents/9076817.txt,17,0.166800966962,0.0433824093244,0.139250797795,0.194462959676,0.166673403675,0.17279598511,0.0577979205545,0.874618632284
tagged_abstract_sents/9076817.txt,18,0.166800966962,0.00325895253431,0.139250797795,0.194462959676,0.166673403675,0.0883216852777,0.0370356793744,0.425508793878
tagged_abstract_sents/9076817.txt,19,0.0954875100725,0.0156046315467,0.139250797795,0.194462959676,0.166673403675,0.109331016988,0.0346865835777,0.645087922119
tagged_abstract_sents/9076817.txt,20,0.0954875100725,-0.0381872555786,0.0616692308323,0.247294108221,0.166673403675,0.0,0.0,0.173775404825
tagged_abstract_sents/9076817.txt,21,0.0342465753425,0.0239820565908,0.139250797795,0.194462959676,0.166673403675,0.170086258707,0.045964250803,0.545179369354
tagged_abstract_sents/9076817.txt,22,0.0342465753425,-0.00335480407944,0.139250797795,0.194462959676,0.166673403675,0.10324208819,0.0472727272727,0.507340311731
tagged_abstract_sents/9076817.txt,23,0.0342465753425,0.0288321447742,0.139250797795,0.194462959676,0.166673403675,0.148083714389,0.053882139366,0.529767233459
