tagged_abstract_sents/9099655.txt,1,0.0954875100725,-0.0610601427115,0.0616692308323,0.247294108221,0.427286932185,0.0,0.0,0.169200827398
tagged_abstract_sents/9099655.txt,3,0.0451248992748,-0.00193679918451,0.0616692308323,0.247294108221,0.427286932185,0.2017382203,0.0302487237971,0.624941888278
tagged_abstract_sents/9099655.txt,4,0.0805801772764,-0.0625891946993,0.0616692308323,0.247294108221,0.427286932185,0.0,0.0,0.156969150764
tagged_abstract_sents/9099655.txt,5,0.123690572119,-0.00346585117227,0.210342442448,0.141687475369,0.427286932185,0.0899077441869,0.0315738025415,0.504856990772
tagged_abstract_sents/9099655.txt,6,0.131345688961,0.0240570846075,0.194899689933,0.293363477728,0.427286932185,0.147616883273,0.0421100404971,0.678080105409
tagged_abstract_sents/9099655.txt,7,0.140209508461,0.053618756371,0.210342442448,0.141687475369,0.427286932185,0.214857236391,0.0403023561533,0.693592354216
tagged_abstract_sents/9099655.txt,8,0.149879129734,-0.0335372069317,0.0616692308323,0.247294108221,0.427286932185,0.0835914278379,0.02051738584,0.750509809506
tagged_abstract_sents/9099655.txt,9,0.150684931507,-0.0625891946993,0.139250797795,0.194462959676,0.427286932185,0.0,0.0,0.235994393066
tagged_abstract_sents/9099655.txt,10,0.176470588235,-0.000917431192661,0.139250797795,0.194462959676,0.427286932185,0.111386583651,0.0266258409522,0.541727076045
tagged_abstract_sents/9099655.txt,11,0.166800966962,0.0989806320082,0.139250797795,0.194462959676,0.427286932185,0.190951243823,0.0338878863072,0.639852386085
tagged_abstract_sents/9099655.txt,12,0.131345688961,0.142303771662,0.139250797795,0.194462959676,0.427286932185,0.238378746252,0.037470927293,0.669886724253
tagged_abstract_sents/9099655.txt,13,0.0954875100725,-0.0605504587156,0.139250797795,0.194462959676,0.427286932185,0.0,0.0,0.192244203115
tagged_abstract_sents/9099655.txt,14,0.0342465753425,0.00417940876656,0.139250797795,0.194462959676,0.427286932185,0.203670877035,0.0317919983243,0.612400680089
tagged_abstract_sents/9099655.txt,15,0.0342465753425,-0.0197757390418,0.139250797795,0.194462959676,0.427286932185,0.146186424431,0.0231744868035,0.748054242686
