tagged_abstract_sents/9099655.txt,1,0.206355591311,-0.0610601427115,0.0616692308323,0.106008497564,0.427286932185,0.0,0.0,0.215509609192
tagged_abstract_sents/9099655.txt,3,0.0048270313757,-0.00193679918451,0.0616692308323,0.106008497564,0.427286932185,0.2017382203,0.0302487237971,0.550317910762
tagged_abstract_sents/9099655.txt,4,0.0048270313757,-0.0625891946993,0.0616692308323,0.106008497564,0.427286932185,0.0,0.0,0.053980950846
tagged_abstract_sents/9099655.txt,5,0.0108608205953,-0.00346585117227,0.210342442448,0.0253702522065,0.427286932185,0.0899077441869,0.0315738025415,0.379698022604
tagged_abstract_sents/9099655.txt,6,0.016894609815,0.0240570846075,0.194899689933,0.0581677376677,0.427286932185,0.147616883273,0.0421100404971,0.515960520075
tagged_abstract_sents/9099655.txt,7,0.0261464199517,0.053618756371,0.210342442448,0.0253702522065,0.427286932185,0.214857236391,0.0403023561533,0.56744671646
tagged_abstract_sents/9099655.txt,9,0.0683829444891,-0.0625891946993,0.139250797795,0.521468892835,0.427286932185,0.0,0.0,0.268254583399
tagged_abstract_sents/9099655.txt,10,0.0993563958166,-0.000917431192661,0.139250797795,0.521468892835,0.427286932185,0.111386583651,0.0266258409522,0.578137502057
tagged_abstract_sents/9099655.txt,11,0.172566371681,0.0989806320082,0.139250797795,0.521468892835,0.427286932185,0.190951243823,0.0338878863072,0.742566489809
tagged_abstract_sents/9099655.txt,12,0.214802896219,0.142303771662,0.139250797795,0.521468892835,0.427286932185,0.238378746252,0.037470927293,0.834754270007
tagged_abstract_sents/9099655.txt,13,0.206355591311,-0.0605504587156,0.139250797795,0.521468892835,0.427286932185,0.0,0.0,0.379040448054
tagged_abstract_sents/9099655.txt,14,0.262268704747,0.00417940876656,0.139250797795,0.521468892835,0.427286932185,0.203670877035,0.0317919983243,0.89292016356
tagged_abstract_sents/9099655.txt,15,0.262268704747,-0.0197757390418,0.139250797795,0.521468892835,0.427286932185,0.146186424431,0.0231744868035,1.02857372616
