tagged_abstract_sents/9099150.txt,1,0.125905068383,0.0153958944282,0.0616692308323,0.142474783506,0.440528260249,0.216477035997,0.0401035332273,0.874489113533
tagged_abstract_sents/9099150.txt,2,0.239742558327,-0.0315249266862,0.188769469584,0.202456734834,0.419381981134,0.214745717429,0.0375116043092,1.01225011944
tagged_abstract_sents/9099150.txt,3,0.218020917136,-0.0496089931574,0.0616692308323,0.142474783506,0.152955803553,0.120828184103,0.0311535223127,0.543009495513
tagged_abstract_sents/9099150.txt,4,0.162510056315,-0.0261485826002,0.139250797795,0.0356431803763,0.218418584347,0.175747129877,0.0318832444569,0.631145640223
tagged_abstract_sents/9099150.txt,5,0.101769911504,0.000244379276637,0.139250797795,0.0356431803763,0.451271525515,0.23403807501,0.0411710097368,0.888263768331
tagged_abstract_sents/9099150.txt,6,0.0852775543041,0.0193059628543,0.139250797795,0.0356431803763,0.257567751891,0.221103537023,0.0421218074656,0.673194685403
tagged_abstract_sents/9099150.txt,7,0.0711987127916,0.0119745845552,0.139250797795,0.0356431803763,0.256294533761,0.192366221221,0.0460042221382,0.634337217275
tagged_abstract_sents/9099150.txt,8,0.0458567980692,0.02761485826,0.139250797795,0.0356431803763,0.381331404233,0.203142800178,0.0394499017682,0.746450869296
tagged_abstract_sents/9099150.txt,9,0.0245374094932,-0.00708699902248,0.139250797795,0.0356431803763,0.295164532759,0.214163975305,0.0339493512382,0.641808740102
tagged_abstract_sents/9099150.txt,10,0.00844730490748,0.00366568914956,0.139250797795,0.0356431803763,0.0974685684364,0.176759139827,0.0409533164936,0.402990359523
tagged_abstract_sents/9099150.txt,11,0.00120675784393,0.0261485826002,0.139250797795,0.0356431803763,0.536679725959,0.242947745734,0.0538470791067,0.919988026606
tagged_abstract_sents/9099150.txt,12,0.00120675784393,0.0100195503421,0.139250797795,0.0356431803763,0.336308675842,0.223359345339,0.0405988903042,0.683554580839
