tagged_abstract_sents/9112711.txt,1,0.206355591311,-0.0453486657821,0.0616692308323,0.106008497564,0.537333241835,0.0,0.0,0.218651904578
tagged_abstract_sents/9112711.txt,2,0.206355591311,-0.0403066489754,0.0616692308323,0.106008497564,0.537333241835,0.0537639017556,0.0199094046592,0.293333614354
tagged_abstract_sents/9112711.txt,3,0.206355591311,-0.0375055285272,0.0616692308323,0.106008497564,0.537333241835,0.0,0.0,0.220220532029
tagged_abstract_sents/9112711.txt,5,0.0048270313757,-0.0464691139614,0.0616692308323,0.106008497564,0.537333241835,0.0,0.0,0.0572049669936
tagged_abstract_sents/9112711.txt,6,0.0108608205953,0.0173964322571,0.210342442448,0.0253702522065,0.537333241835,0.148013585723,0.0534404659189,0.786958057881
tagged_abstract_sents/9112711.txt,7,0.0108608205953,-0.0481497862303,0.0616692308323,0.106008497564,0.537333241835,0.0,0.0,0.0616958639155
tagged_abstract_sents/9112711.txt,9,0.0261464199517,-0.0190181335692,0.0616692308323,0.106008497564,0.537333241835,0.0743784518232,0.0195460277427,0.29179687019
tagged_abstract_sents/9112711.txt,10,0.0518905872888,-0.0481497862303,0.0616692308323,0.106008497564,0.537333241835,0.0,0.0,0.0945196772703
tagged_abstract_sents/9112711.txt,11,0.0518905872888,0.0173964322571,0.139250797795,0.521468892835,0.537333241835,0.126066115118,0.0501869427668,0.87069716957
tagged_abstract_sents/9112711.txt,12,0.0993563958166,-0.0234999262863,0.139250797795,0.521468892835,0.537333241835,0.0815992143797,0.0044633968275,0.52563864007
tagged_abstract_sents/9112711.txt,13,0.0993563958166,0.0739790653103,0.139250797795,0.521468892835,0.537333241835,0.20452273215,0.0347368421053,0.991497854098
tagged_abstract_sents/9112711.txt,14,0.172566371681,0.0123544154504,0.139250797795,0.521468892835,0.537333241835,0.199005556597,0.0520276100086,0.970087694454
tagged_abstract_sents/9112711.txt,15,0.172566371681,0.0835028748341,0.139250797795,0.521468892835,0.537333241835,0.191964971617,0.0409117054932,1.08546430793
tagged_abstract_sents/9112711.txt,16,0.206355591311,-0.00725342768686,0.139250797795,0.521468892835,0.537333241835,0.0943726901611,0.050086281277,0.739169822915
tagged_abstract_sents/9112711.txt,17,0.206355591311,-0.0459088898717,0.0616692308323,0.106008497564,0.537333241835,0.0,0.0,0.21853985976
tagged_abstract_sents/9112711.txt,18,0.262268704747,0.0549314462627,0.139250797795,0.521468892835,0.537333241835,0.164264619743,0.0547510972728,1.15048041212
tagged_abstract_sents/9112711.txt,19,0.262268704747,0.0398053958425,0.139250797795,0.521468892835,0.537333241835,0.17470147678,0.0639603106126,1.21983713894
