tagged_abstract_sents/9154395.txt,1,0.239742558327,0.0443719124912,0.188769469584,0.202456734834,0.180660343668,0.16349799775,0.0394567797794,0.739405305599
tagged_abstract_sents/9154395.txt,2,0.218020917136,-0.0325511644319,0.210342442448,0.226435992083,0.265688264577,0.151623584579,0.022917888563,0.78123825739
tagged_abstract_sents/9154395.txt,3,0.162510056315,0.0401376146789,0.194899689933,0.13295610691,0.121802325266,0.151279085621,0.0345967741935,0.583050430108
tagged_abstract_sents/9154395.txt,4,0.0852775543041,-0.09394848271,0.194899689933,0.13295610691,1.00800034796e-05,0.0405624450877,0.0312133431085,0.25855489214
tagged_abstract_sents/9154395.txt,5,0.0458567980692,0.0281404375441,0.0616692308323,0.142474783506,0.176348743309,0.155431768423,0.0315179444212,0.479189032585
tagged_abstract_sents/9154395.txt,6,0.0245374094932,0.011203246295,0.139250797795,0.0356431803763,0.133249350268,0.158296634106,0.0330278592375,0.426762773476
tagged_abstract_sents/9154395.txt,7,0.00844730490748,-0.0283168666196,0.139250797795,0.0356431803763,0.0975932446518,0.117503149615,0.0330461876833,0.329555405562
tagged_abstract_sents/9154395.txt,8,0.00120675784393,0.0309633027523,0.139250797795,0.0356431803763,0.241458029847,0.181949126784,0.0334183348209,0.544301911287
