tagged_abstract_sents/9164801.txt,1,0.206355591311,-0.0556549471064,0.0616692308323,0.106008497564,0.130958108767,0.0,0.0,0.216590648313
tagged_abstract_sents/9164801.txt,2,0.206355591311,0.000972308649658,0.188769469584,0.129715814208,0.130958108767,0.24154297094,0.0527096809762,0.77387105855
tagged_abstract_sents/9164801.txt,3,0.206355591311,-0.00151680149347,0.188769469584,0.129715814208,0.130958108767,0.19953677037,0.0422177949392,0.539888302805
tagged_abstract_sents/9164801.txt,5,0.0108608205953,-0.0575217797138,0.0616692308323,0.106008497564,0.130958108767,0.0,0.0,0.0598214652188
tagged_abstract_sents/9164801.txt,6,0.0108608205953,0.00719508400747,0.0616692308323,0.106008497564,0.130958108767,0.384781318047,0.0419770328988,0.535800878752
tagged_abstract_sents/9164801.txt,7,0.0261464199517,0.0177738021157,0.0616692308323,0.106008497564,0.130958108767,0.162444157242,0.0363361266294,0.285927020207
tagged_abstract_sents/9164801.txt,8,0.0353982300885,-0.0201851275669,0.0616692308323,0.106008497564,0.130958108767,0.208691481424,0.0377337445686,0.466096706015
tagged_abstract_sents/9164801.txt,10,0.0993563958166,-0.0575217797138,0.0616692308323,0.106008497564,0.130958108767,0.0,0.0,0.130617925396
tagged_abstract_sents/9164801.txt,11,0.0993563958166,0.0146624144368,0.139250797795,0.521468892835,0.130958108767,0.223309103664,0.0300667287399,0.666736445345
tagged_abstract_sents/9164801.txt,12,0.172566371681,0.178321406347,0.139250797795,0.521468892835,0.130958108767,0.344927490003,0.0494203910615,0.870293662253
tagged_abstract_sents/9164801.txt,13,0.206355591311,-0.0550326695706,0.139250797795,0.521468892835,0.130958108767,0.0,0.0,0.380144005883
tagged_abstract_sents/9164801.txt,14,0.206355591311,-0.00773957685128,0.139250797795,0.521468892835,0.130958108767,0.230066352542,0.0481164649286,0.851373197492
tagged_abstract_sents/9164801.txt,15,0.262268704747,-0.0208074051027,0.139250797795,0.521468892835,0.130958108767,0.118215736553,0.0507667015829,0.600767650988
tagged_abstract_sents/9164801.txt,16,0.262268704747,-0.0264079029247,0.139250797795,0.521468892835,0.130958108767,0.149330694318,0.041157472067,0.752045725112
