tagged_abstract_sents/9167925.txt,2,0.0048270313757,0.0353037766831,0.210342442448,0.0253702522065,0.462609107165,0.16859546519,0.0781724347298,0.633752029966
tagged_abstract_sents/9167925.txt,4,0.0518905872888,-0.072249589491,0.139250797795,0.521468892835,0.462609107165,0.141890327085,0.0473421615336,0.760342620361
tagged_abstract_sents/9167925.txt,5,0.172566371681,0.000821018062397,0.139250797795,0.521468892835,0.462609107165,0.138708389589,0.0546717716422,0.794794162139
tagged_abstract_sents/9167925.txt,6,0.206355591311,-0.0114942528736,0.139250797795,0.521468892835,0.462609107165,0.138770083094,0.05494391717,0.803887661222
tagged_abstract_sents/9167925.txt,7,0.262268704747,0.0632183908046,0.139250797795,0.521468892835,0.462609107165,0.203716477618,0.0646652024995,1.17951549599
