tagged_abstract_sents/9167925.txt,1,0.239742558327,-0.0188834154351,0.188769469584,0.202456734834,0.430040459091,0.134400623432,0.0461863675582,0.953766568898
tagged_abstract_sents/9167925.txt,2,0.218020917136,0.0353037766831,0.210342442448,0.226435992083,0.263279452723,0.16859546519,0.0781724347298,0.864626860537
tagged_abstract_sents/9167925.txt,3,0.101769911504,0.00328407224959,0.194899689933,0.13295610691,0.380895930953,0.161740369161,0.0865218689852,0.848567589792
tagged_abstract_sents/9167925.txt,4,0.0711987127916,-0.072249589491,0.139250797795,0.0356431803763,0.317981513062,0.141890327085,0.0473421615336,0.630041407026
tagged_abstract_sents/9167925.txt,5,0.0245374094932,0.000821018062397,0.139250797795,0.0356431803763,0.237130633202,0.138708389589,0.0546717716422,0.530623278651
tagged_abstract_sents/9167925.txt,6,0.00844730490748,-0.0114942528736,0.139250797795,0.0356431803763,0.221321971736,0.138770083094,0.05494391717,0.499813318361
tagged_abstract_sents/9167925.txt,7,0.00120675784393,0.0632183908046,0.139250797795,0.0356431803763,0.462609107165,0.203716477618,0.0646652024995,0.824918224729
