tagged_abstract_sents/9169398.txt,1,0.0954875100725,-0.075931408833,0.0616692308323,0.247294108221,0.193593770755,0.0,0.0,0.166226574174
tagged_abstract_sents/9169398.txt,2,0.0253827558421,0.00178879842092,0.188769469584,0.123191979006,0.193593770755,0.263988919192,0.118253691141,0.74482092095
tagged_abstract_sents/9169398.txt,3,0.0805801772764,-0.077411793733,0.0616692308323,0.247294108221,0.193593770755,0.0,0.0,0.154004630957
tagged_abstract_sents/9169398.txt,5,0.140209508461,-0.077411793733,0.0616692308323,0.247294108221,0.193593770755,0.0,0.0,0.201708095905
tagged_abstract_sents/9169398.txt,6,0.149073327961,0.164631137429,0.139250797795,0.194462959676,0.193593770755,0.40137294331,0.119893505587,0.919162351277
tagged_abstract_sents/9169398.txt,7,0.149879129734,0.0484209227733,0.139250797795,0.194462959676,0.193593770755,0.247541075128,0.0927540947181,0.597857779388
tagged_abstract_sents/9169398.txt,8,0.176470588235,0.0513816925734,0.139250797795,0.194462959676,0.193593770755,0.239327989157,0.127081878492,0.735641402313
tagged_abstract_sents/9169398.txt,9,0.166800966962,-0.00783370342956,0.139250797795,0.194462959676,0.193593770755,0.210730735801,0.102551792365,0.709645871839
tagged_abstract_sents/9169398.txt,10,0.0954875100725,-0.0744510239329,0.0616692308323,0.247294108221,0.193593770755,0.0,0.0,0.166522651154
tagged_abstract_sents/9169398.txt,11,0.0342465753425,0.00104860597089,0.139250797795,0.194462959676,0.193593770755,0.368695599509,0.117942898582,0.813320233279
tagged_abstract_sents/9169398.txt,12,0.0342465753425,-0.00709351097952,0.139250797795,0.194462959676,0.193593770755,0.171075151019,0.107318217528,0.62592998418
