tagged_abstract_sents/9182472.txt,1,0.0954875100725,-0.044472361809,0.0616692308323,0.247294108221,0.353857217544,0.0,0.0,0.172518383579
tagged_abstract_sents/9182472.txt,3,0.0253827558421,-0.0449748743719,0.0616692308323,0.247294108221,0.353857217544,0.0,0.0,0.116334077682
tagged_abstract_sents/9182472.txt,4,0.0451248992748,0.0143216080402,0.188769469584,0.123191979006,0.353857217544,0.58985189391,0.0376988577362,1.20417385731
tagged_abstract_sents/9182472.txt,5,0.0805801772764,-0.0464824120603,0.0616692308323,0.247294108221,0.353857217544,0.0,0.0,0.160190507292
tagged_abstract_sents/9182472.txt,6,0.116035455278,-0.0298994974874,0.0616692308323,0.247294108221,0.353857217544,0.168692717851,0.0331663551402,0.807454220639
tagged_abstract_sents/9182472.txt,7,0.123690572119,-0.0459798994975,0.0616692308323,0.247294108221,0.353857217544,0.0,0.0,0.194779325678
tagged_abstract_sents/9182472.txt,8,0.131345688961,-0.036432160804,0.0616692308323,0.247294108221,0.353857217544,0.143992383112,0.00860643821391,0.355411788216
tagged_abstract_sents/9182472.txt,9,0.140209508461,-0.0454773869347,0.0616692308323,0.247294108221,0.353857217544,0.0,0.0,0.208094977264
tagged_abstract_sents/9182472.txt,10,0.149073327961,-0.0128140703518,0.210342442448,0.141687475369,0.353857217544,0.52513527071,0.0407943925234,1.2548119436
tagged_abstract_sents/9182472.txt,11,0.149879129734,-0.0434673366834,0.0616692308323,0.247294108221,0.353857217544,0.0,0.0,0.216232684333
tagged_abstract_sents/9182472.txt,12,0.150684931507,0.0253768844221,0.194899689933,0.293363477728,0.353857217544,0.468084505223,0.0451894647409,1.32723185505
tagged_abstract_sents/9182472.txt,13,0.176470588235,-0.0434673366834,0.0616692308323,0.247294108221,0.353857217544,0.0,0.0,0.237505851134
tagged_abstract_sents/9182472.txt,14,0.202256244964,0.0545226130653,0.0616692308323,0.247294108221,0.353857217544,0.873809154479,0.0429847515986,1.55374549506
tagged_abstract_sents/9182472.txt,15,0.166800966962,-0.0459798994975,0.0616692308323,0.247294108221,0.353857217544,0.0,0.0,0.229267641553
tagged_abstract_sents/9182472.txt,16,0.131345688961,0.0183417085427,0.139250797795,0.194462959676,0.353857217544,0.51625673601,0.0326168224299,1.14413512334
tagged_abstract_sents/9182472.txt,17,0.0954875100725,-0.00175879396985,0.139250797795,0.194462959676,0.353857217544,0.363871895449,0.0495775700935,1.02829956434
tagged_abstract_sents/9182472.txt,18,0.0342465753425,0.29824120603,0.139250797795,0.194462959676,0.353857217544,0.752217859079,0.0437831775701,1.33255588467
tagged_abstract_sents/9182472.txt,19,0.0342465753425,-0.0439698492462,0.0616692308323,0.247294108221,0.353857217544,0.0,0.0,0.123626138307
tagged_abstract_sents/9182472.txt,20,0.0342465753425,0.0253768844221,0.139250797795,0.194462959676,0.353857217544,0.619822111896,0.0377286496938,1.17184490309
