tagged_abstract_sents/9194763.txt,2,0.206355591311,-0.0230685937574,0.0616692308323,0.106008497564,0.103524886742,0.296610124206,0.0178853415723,0.5376270291
tagged_abstract_sents/9194763.txt,4,0.0108608205953,-0.0318723223954,0.139250797795,0.521468892835,0.103524886742,0.176041297343,0.0143666323378,0.418788188426
tagged_abstract_sents/9194763.txt,5,0.0261464199517,-0.0593192410903,0.139250797795,0.521468892835,0.103524886742,0.244628339381,0.00407985423433,0.632098525718
tagged_abstract_sents/9194763.txt,6,0.0518905872888,0.0131820535756,0.139250797795,0.521468892835,0.103524886742,0.391637177548,0.0190301347781,0.771679622035
tagged_abstract_sents/9194763.txt,7,0.0993563958166,-0.0386045854715,0.139250797795,0.521468892835,0.103524886742,0.250089447609,0.0236077002297,0.571559705349
tagged_abstract_sents/9194763.txt,8,0.172566371681,0.107433736641,0.139250797795,0.521468892835,0.103524886742,0.439547796131,0.0148142279965,0.89530445189
tagged_abstract_sents/9194763.txt,9,0.206355591311,0.0168071183089,0.139250797795,0.521468892835,0.103524886742,0.276635304036,0.0247470769976,0.695913058172
tagged_abstract_sents/9194763.txt,10,0.262268704747,-0.0313544560049,0.139250797795,0.521468892835,0.103524886742,0.18119103627,0.0134818837188,0.624283059333
tagged_abstract_sents/9194763.txt,11,0.262268704747,-0.0246221929288,0.139250797795,0.521468892835,0.103524886742,0.373949984867,0.0191506056594,0.927582069227
