tagged_abstract_sents/9207819.txt,1,0.125905068383,-0.0766354096897,0.0616692308323,0.142474783506,0.0,0.0,0.0,0.158974023236
tagged_abstract_sents/9207819.txt,2,0.239742558327,0.0425876311677,0.188769469584,0.202456734834,0.323290020689,0.378842977189,0.0414884266042,1.09905475262
tagged_abstract_sents/9207819.txt,3,0.218020917136,-0.0779749944184,0.0616692308323,0.142474783506,0.0,0.0,0.0,0.232398785293
tagged_abstract_sents/9207819.txt,4,0.162510056315,0.0238334449654,0.210342442448,0.226435992083,0.347126861705,0.385152960023,0.0380571019305,1.07821367655
tagged_abstract_sents/9207819.txt,5,0.101769911504,0.0600022326412,0.194899689933,0.13295610691,0.148242534426,0.348920772234,0.0533721332872,0.781288492718
tagged_abstract_sents/9207819.txt,6,0.0852775543041,0.00976780531369,0.0616692308323,0.142474783506,0.204773640175,0.32011995223,0.0385004904521,0.70714673783
tagged_abstract_sents/9207819.txt,7,0.0711987127916,-0.0779749944184,0.0616692308323,0.142474783506,0.0,0.0,0.0,0.114941021817
tagged_abstract_sents/9207819.txt,8,0.0458567980692,0.0271824067872,0.139250797795,0.0356431803763,0.196261021376,0.405573646921,0.0431213234466,0.767396264566
tagged_abstract_sents/9207819.txt,9,0.0245374094932,0.0600022326412,0.139250797795,0.0356431803763,0.122494137208,0.398295959275,0.0530108191989,0.685749642815
tagged_abstract_sents/9207819.txt,10,0.00844730490748,0.0600022326412,0.139250797795,0.0356431803763,0.159918195762,0.470378871107,0.0452630409085,0.774636751242
tagged_abstract_sents/9207819.txt,11,0.00120675784393,-0.0759656173253,0.0616692308323,0.142474783506,0.0,0.0,0.0,0.0593493332779
tagged_abstract_sents/9207819.txt,12,0.00120675784393,0.0251730296941,0.139250797795,0.0356431803763,0.201825212287,0.355277248083,0.047416739916,0.690837565511
