tagged_abstract_sents/9215014.txt,2,0.0048270313757,0.0285135135135,0.210342442448,0.0253702522065,0.547180565036,0.107415018097,0.0320822548174,0.488308346587
tagged_abstract_sents/9215014.txt,3,0.0108608205953,-0.0233783783784,0.139250797795,0.521468892835,0.547180565036,0.0726961444034,0.0246333045729,0.878308637425
tagged_abstract_sents/9215014.txt,4,0.0353982300885,-0.045,0.139250797795,0.521468892835,0.547180565036,0.0642764068552,0.03494391717,0.966719876201
tagged_abstract_sents/9215014.txt,6,0.172566371681,-0.0460810810811,0.139250797795,0.521468892835,0.547180565036,0.0891496451419,0.0400378310214,1.0781669018
tagged_abstract_sents/9215014.txt,7,0.206355591311,0.0458108108108,0.139250797795,0.521468892835,0.547180565036,0.138769072737,0.0419542709232,1.05750148278
tagged_abstract_sents/9215014.txt,8,0.262268704747,0.0436486486486,0.139250797795,0.521468892835,0.547180565036,0.112490368446,0.0238415469725,1.12812324073
