tagged_abstract_sents/9220205.txt,2,0.0451248992748,0.0164221486039,0.188769469584,0.123191979006,0.295694918389,0.213635181434,0.10076395709,0.846236599382
tagged_abstract_sents/9220205.txt,3,0.116035455278,-0.0649787032655,0.0616692308323,0.247294108221,0.295694918389,0.130684347869,0.108826112412,0.64087596499
tagged_abstract_sents/9220205.txt,4,0.131345688961,0.0656412683389,0.188769469584,0.123191979006,0.295694918389,0.262782452744,0.14395106619,0.887242814062
tagged_abstract_sents/9220205.txt,5,0.149073327961,-0.0432087079981,0.188769469584,0.123191979006,0.295694918389,0.141158206007,0.0802224824356,0.657933604908
tagged_abstract_sents/9220205.txt,6,0.150684931507,0.0116895409371,0.188769469584,0.123191979006,0.295694918389,0.226244779044,0.128930465629,0.926430990457
tagged_abstract_sents/9220205.txt,7,0.202256244964,-0.0115002366304,0.188769469584,0.123191979006,0.295694918389,0.234620623809,0.0823984112919,0.843001759174
tagged_abstract_sents/9220205.txt,8,0.131345688961,0.0519167061051,0.188769469584,0.123191979006,0.295694918389,0.230456813395,0.138096051262,0.873135517775
tagged_abstract_sents/9220205.txt,9,0.0342465753425,-0.0578797917653,0.188769469584,0.123191979006,0.295694918389,0.15255514397,0.114296692037,0.627240572102
tagged_abstract_sents/9220205.txt,10,0.0342465753425,0.0646947468055,0.139250797795,0.194462959676,0.295694918389,0.2520772872,0.107451420976,0.823524123001
