tagged_abstract_sents/9220205.txt,1,0.250201126307,-0.0327969711311,0.188769469584,0.202456734834,0.409542018784,0.234824019221,0.0920366097259,1.08512590979
tagged_abstract_sents/9220205.txt,2,0.229283990346,0.0164221486039,0.188769469584,0.202456734834,0.361110783223,0.213635181434,0.10076395709,1.01734329899
tagged_abstract_sents/9220205.txt,3,0.206757843926,-0.0649787032655,0.0616692308323,0.142474783506,0.216510033257,0.130684347869,0.108826112412,0.682008078494
tagged_abstract_sents/9220205.txt,4,0.118262268705,0.0656412683389,0.188769469584,0.202456734834,0.230962161798,0.262782452744,0.14395106619,0.900555504606
tagged_abstract_sents/9220205.txt,5,0.0852775543041,-0.0432087079981,0.188769469584,0.202456734834,0.194593667202,0.141158206007,0.0802224824356,0.630676412731
tagged_abstract_sents/9220205.txt,6,0.0571198712792,0.0116895409371,0.188769469584,0.202456734834,0.317027563897,0.226244779044,0.128930465629,0.875358369023
tagged_abstract_sents/9220205.txt,7,0.0345937248592,-0.0115002366304,0.188769469584,0.202456734834,0.235135446933,0.234620623809,0.0823984112919,0.732651169838
tagged_abstract_sents/9220205.txt,8,0.0144810941271,0.0519167061051,0.188769469584,0.202456734834,0.257780432235,0.230456813395,0.138096051262,0.803423268657
tagged_abstract_sents/9220205.txt,9,0.00120675784393,-0.0578797917653,0.188769469584,0.202456734834,0.213225105679,0.15255514397,0.114296692037,0.624588144852
tagged_abstract_sents/9220205.txt,10,0.00120675784393,0.0646947468055,0.139250797795,0.0356431803763,0.295694918389,0.2520772872,0.107451420976,0.749446335212
