tagged_abstract_sents/9236642.txt,1,0.125905068383,-0.0509121370067,0.0616692308323,0.142474783506,0.0,0.0,0.0,0.164118677773
tagged_abstract_sents/9236642.txt,2,0.239742558327,0.0163346984363,0.188769469584,0.202456734834,0.434018748166,0.128679846223,0.0507331378299,0.96361447381
tagged_abstract_sents/9236642.txt,3,0.239742558327,-0.0532855547282,0.0616692308323,0.142474783506,0.0,0.0,0.0,0.254713986184
tagged_abstract_sents/9236642.txt,4,0.218020917136,-0.023222263589,0.0616692308323,0.142474783506,0.0,0.0415385031922,0.0473769957641,0.332264830415
tagged_abstract_sents/9236642.txt,5,0.218020917136,-0.0524944154877,0.0616692308323,0.142474783506,0.0,0.0,0.0,0.237494901079
tagged_abstract_sents/9236642.txt,6,0.162510056315,-0.00581720029784,0.0616692308323,0.142474783506,0.000100002497512,0.037244277978,0.0196664222874,0.259432358223
tagged_abstract_sents/9236642.txt,7,0.101769911504,-0.0485387192852,0.0616692308323,0.142474783506,0.0,0.0,0.0,0.145285235814
tagged_abstract_sents/9236642.txt,8,0.101769911504,0.0622207743857,0.210342442448,0.226435992083,5.83104527773e-05,0.11304114256,0.038330170778,0.418391726721
tagged_abstract_sents/9236642.txt,9,0.0711987127916,-0.0524944154877,0.139250797795,0.0356431803763,0.0,0.0,0.0,0.126778440146
tagged_abstract_sents/9236642.txt,10,0.0711987127916,0.0653853313477,0.139250797795,0.0356431803763,0.267436140396,0.14278925449,0.0388856304985,0.599465414898
tagged_abstract_sents/9236642.txt,11,0.0458567980692,0.0266195085629,0.139250797795,0.0356431803763,0.155746940711,0.0813527653896,0.0601801424382,0.419607541717
tagged_abstract_sents/9236642.txt,12,0.0245374094932,0.0163346984363,0.139250797795,0.0356431803763,0.0,0.117367389456,0.0384897360704,0.259072345819
tagged_abstract_sents/9236642.txt,13,0.0245374094932,0.0598473566642,0.139250797795,0.0356431803763,0.0,0.171888905466,0.0391095707811,0.322916228185
tagged_abstract_sents/9236642.txt,14,0.00844730490748,0.0479802680566,0.139250797795,0.0356431803763,0.172848750526,0.102508681972,0.0448289345064,0.416858617552
tagged_abstract_sents/9236642.txt,15,0.00844730490748,-0.0501209977662,0.139250797795,0.0356431803763,0.0,0.0,0.0,0.077051997383
tagged_abstract_sents/9236642.txt,16,0.00120675784393,0.0527271034996,0.139250797795,0.0356431803763,0.37920253063,0.140140876954,0.0445161290323,0.655688716601
tagged_abstract_sents/9236642.txt,17,0.00120675784393,-0.0105640357409,0.139250797795,0.0356431803763,6.28794146828e-05,0.0593536601632,0.0413223140496,0.179909805765
