tagged_abstract_sents/9262298.txt,1,0.206355591311,0.00936799641416,0.188769469584,0.129715814208,0.336554143882,0.205779848429,0.0531616568915,0.776750467634
tagged_abstract_sents/9262298.txt,3,0.0048270313757,0.0398476019722,0.139250797795,0.521468892835,0.336554143882,0.165869810308,0.0836754643206,0.573571569783
tagged_abstract_sents/9262298.txt,4,0.016894609815,0.0573285522187,0.139250797795,0.521468892835,0.336554143882,0.159584104603,0.0530960974509,0.610573810485
tagged_abstract_sents/9262298.txt,5,0.0353982300885,0.10484087853,0.139250797795,0.521468892835,0.336554143882,0.205527382033,0.0455003665689,0.643214073536
tagged_abstract_sents/9262298.txt,7,0.130329847144,0.00712684894666,0.139250797795,0.521468892835,0.336554143882,0.113480432203,0.0458944281525,0.577670649055
tagged_abstract_sents/9262298.txt,8,0.214802896219,-0.0547288211564,0.139250797795,0.521468892835,0.336554143882,0.0919699072948,0.0577108849405,0.755404198502
tagged_abstract_sents/9262298.txt,9,0.262268704747,-0.0489018377409,0.139250797795,0.521468892835,0.336554143882,0.108416550972,0.0349050779441,0.641104913864
tagged_abstract_sents/9262298.txt,10,0.262268704747,-0.0287315105334,0.139250797795,0.521468892835,0.336554143882,0.118716498876,0.0582600195503,0.943665390747
