tagged_abstract_sents/9269212.txt,1,0.125905068383,-0.0508385744235,0.0616692308323,0.142474783506,0.0,0.0,0.0,0.16413339029
tagged_abstract_sents/9269212.txt,2,0.239742558327,-0.0113874595007,0.188769469584,0.202456734834,0.249896843504,0.282128756056,0.0410543278795,0.917718237444
tagged_abstract_sents/9269212.txt,3,0.239742558327,0.0456451305508,0.188769469584,0.202456734834,0.156334585314,0.476349767907,0.0580513654687,1.0467805467
tagged_abstract_sents/9269212.txt,4,0.218020917136,-0.0521250238231,0.0616692308323,0.142474783506,0.0,0.0,0.0,0.237568779412
tagged_abstract_sents/9269212.txt,5,0.218020917136,0.0259195730894,0.210342442448,0.226435992083,0.192832858903,0.34727252615,0.0606471246304,0.953455176859
tagged_abstract_sents/9269212.txt,6,0.162510056315,-0.0152468076996,0.0616692308323,0.142474783506,0.000108209342662,0.191043697503,0.0477078590908,0.439395499916
tagged_abstract_sents/9269212.txt,7,0.162510056315,-0.00366876310273,0.0616692308323,0.142474783506,0.000102136908318,0.212266686137,0.0204658658072,0.435686031752
tagged_abstract_sents/9269212.txt,8,0.101769911504,0.00533638269487,0.0616692308323,0.142474783506,4.50281374419e-05,0.366724372351,0.0577141110078,0.580543767706
tagged_abstract_sents/9269212.txt,9,0.0852775543041,-0.0516962073566,0.0616692308323,0.142474783506,0.0,0.0,0.0,0.13145985244
tagged_abstract_sents/9269212.txt,10,0.0711987127916,0.0400705164856,0.139250797795,0.0356431803763,0.188769316704,0.450716888663,0.0603466050287,0.845124236937
tagged_abstract_sents/9269212.txt,11,0.0458567980692,0.055936725748,0.139250797795,0.0356431803763,0.111476390892,0.366926813429,0.0669753754825,0.673569716418
tagged_abstract_sents/9269212.txt,12,0.0458567980692,-0.0075281113017,0.139250797795,0.0356431803763,6.35668142228e-05,0.235110053598,0.0551292850864,0.405801074704
tagged_abstract_sents/9269212.txt,13,0.0245374094932,0.00876691442729,0.139250797795,0.0356431803763,4.20180587692e-05,0.323693964954,0.052045400639,0.477483047142
tagged_abstract_sents/9269212.txt,14,0.0245374094932,0.0495044787498,0.139250797795,0.0356431803763,0.0394720639735,0.401487746104,0.0670348666862,0.617843853118
tagged_abstract_sents/9269212.txt,15,0.00844730490748,-0.00495521250238,0.139250797795,0.0356431803763,0.256742536197,0.300606431598,0.0482273659537,0.691661488184
tagged_abstract_sents/9269212.txt,16,0.00844730490748,-0.0491233085573,0.139250797795,0.0356431803763,0.0,0.0,0.0,0.0772515352248
tagged_abstract_sents/9269212.txt,17,0.00120675784393,0.0314941871546,0.139250797795,0.0356431803763,0.0368345870732,0.338116395369,0.0601210611832,0.522654640342
tagged_abstract_sents/9269212.txt,18,0.00120675784393,-0.0161044406327,0.139250797795,0.0356431803763,0.279985597064,0.229507021486,0.0469475953288,0.634503085037
