tagged_abstract_sents/9284865.txt,2,0.0253827558421,-0.0138469284995,0.210342442448,0.141687475369,0.289871232398,0.0832220350153,0.0387886307241,0.510887166274
tagged_abstract_sents/9284865.txt,3,0.0805801772764,0.013947633434,0.194899689933,0.293363477728,0.289871232398,0.158530261874,0.0342175419888,0.712460203177
tagged_abstract_sents/9284865.txt,4,0.123690572119,0.100956696878,0.139250797795,0.194462959676,0.289871232398,0.210355382853,0.0556478766156,0.698795582464
tagged_abstract_sents/9284865.txt,5,0.140209508461,-0.00599194360524,0.139250797795,0.194462959676,0.289871232398,0.12000686263,0.03982771261,0.574992533629
tagged_abstract_sents/9284865.txt,6,0.149073327961,-0.0525176233635,0.139250797795,0.194462959676,0.289871232398,0.0562507035679,0.0390681003584,0.578043985908
tagged_abstract_sents/9284865.txt,7,0.149879129734,0.0296576032226,0.139250797795,0.194462959676,0.289871232398,0.192711583891,0.0523812316716,0.724136660347
tagged_abstract_sents/9284865.txt,8,0.176470588235,-0.0476837865055,0.139250797795,0.194462959676,0.289871232398,0.0941605426862,0.0309609745094,0.782385005952
tagged_abstract_sents/9284865.txt,9,0.166800966962,-0.0241188318228,0.139250797795,0.194462959676,0.289871232398,0.0921057444312,0.0271035416197,0.712137188797
tagged_abstract_sents/9284865.txt,10,0.0954875100725,-0.0229103726083,0.139250797795,0.194462959676,0.289871232398,0.102432234683,0.0374528697109,0.727862383151
tagged_abstract_sents/9284865.txt,11,0.0342465753425,-0.010221550856,0.139250797795,0.194462959676,0.289871232398,0.111603103755,0.0282991202346,0.432479796386
tagged_abstract_sents/9284865.txt,12,0.0342465753425,-0.0210976837865,0.139250797795,0.194462959676,0.289871232398,0.117587641809,0.0389204545455,0.59752133907
