tagged_abstract_sents/9288011.txt,1,0.0954875100725,-0.0375716625717,0.0616692308323,0.247294108221,0.500057289512,0.0,0.0,0.173898523426
tagged_abstract_sents/9288011.txt,2,0.0954875100725,0.0295864045864,0.188769469584,0.123191979006,0.500057289512,0.195829353991,0.057492604462,0.859286307282
tagged_abstract_sents/9288011.txt,3,0.0253827558421,0.0189393939394,0.188769469584,0.123191979006,0.500057289512,0.224049051024,0.041818586657,0.765661198212
tagged_abstract_sents/9288011.txt,4,0.0253827558421,0.000511875511876,0.0616692308323,0.247294108221,0.500057289512,0.140141074393,0.0385226292258,0.536274698497
tagged_abstract_sents/9288011.txt,5,0.0805801772764,0.0410524160524,0.0616692308323,0.247294108221,0.500057289512,0.164307271548,0.0522401175982,0.471326779789
tagged_abstract_sents/9288011.txt,6,0.0805801772764,-0.0388001638002,0.0616692308323,0.247294108221,0.500057289512,0.0,0.0,0.161726956944
tagged_abstract_sents/9288011.txt,7,0.0805801772764,-0.00972563472563,0.0616692308323,0.247294108221,0.500057289512,0.14614463302,0.0159914503098,0.771045840826
tagged_abstract_sents/9288011.txt,8,0.123690572119,-0.0383906633907,0.0616692308323,0.247294108221,0.500057289512,0.0,0.0,0.1962971729
tagged_abstract_sents/9288011.txt,9,0.123690572119,-0.0281531531532,0.0616692308323,0.247294108221,0.500057289512,0.0629930418235,0.0606896339209,0.807339181079
tagged_abstract_sents/9288011.txt,10,0.140209508461,-0.0363431613432,0.0616692308323,0.247294108221,0.500057289512,0.0,0.0,0.209921822383
tagged_abstract_sents/9288011.txt,12,0.149073327961,-0.0363431613432,0.0616692308323,0.247294108221,0.500057289512,0.0,0.0,0.217012877983
tagged_abstract_sents/9288011.txt,13,0.149879129734,0.00829238329238,0.139250797795,0.194462959676,0.500057289512,0.141204266598,0.0579772667592,0.730330846292
tagged_abstract_sents/9288011.txt,14,0.149879129734,0.0570229320229,0.139250797795,0.194462959676,0.500057289512,0.196075304647,0.0609527444083,0.58199326702
tagged_abstract_sents/9288011.txt,15,0.176470588235,-0.0383906633907,0.139250797795,0.194462959676,0.500057289512,0.0,0.0,0.26146262471
tagged_abstract_sents/9288011.txt,16,0.176470588235,0.0259009009009,0.139250797795,0.194462959676,0.500057289512,0.2037072441,0.0271929824561,0.78618776069
tagged_abstract_sents/9288011.txt,17,0.166800966962,-0.0101351351351,0.139250797795,0.194462959676,0.500057289512,0.0980533332269,0.0352357509009,0.392718313231
tagged_abstract_sents/9288011.txt,18,0.166800966962,-0.00481162981163,0.139250797795,0.194462959676,0.500057289512,0.0762769160851,0.0209232096635,0.471926350906
tagged_abstract_sents/9288011.txt,19,0.166800966962,0.0787264537265,0.139250797795,0.194462959676,0.500057289512,0.158266822325,0.0379465056083,0.684851374343
tagged_abstract_sents/9288011.txt,20,0.0954875100725,0.00747338247338,0.139250797795,0.194462959676,0.500057289512,0.153847982103,0.0469201335484,0.553717899097
tagged_abstract_sents/9288011.txt,21,0.0954875100725,-0.0371621621622,0.0616692308323,0.247294108221,0.500057289512,0.0,0.0,0.173980423508
tagged_abstract_sents/9288011.txt,22,0.0342465753425,0.0115683865684,0.139250797795,0.194462959676,0.500057289512,0.149942949371,0.0343530779908,0.563023723776
tagged_abstract_sents/9288011.txt,23,0.0342465753425,0.0127968877969,0.139250797795,0.194462959676,0.500057289512,0.146670494949,0.0322219483134,0.336837931996
tagged_abstract_sents/9288011.txt,24,0.0342465753425,0.0304054054054,0.139250797795,0.194462959676,0.500057289512,0.177467807845,0.0281932061483,0.86716093166
