tagged_abstract_sents/9288011.txt,1,0.125905068383,-0.0375716625717,0.0616692308323,0.142474783506,0.0,0.0,0.0,0.16678677266
tagged_abstract_sents/9288011.txt,2,0.125905068383,0.0295864045864,0.188769469584,0.202456734834,0.392314731359,0.195829353991,0.057492604462,0.907399780678
tagged_abstract_sents/9288011.txt,3,0.239742558327,0.0189393939394,0.188769469584,0.202456734834,0.344357148575,0.224049051024,0.041818586657,0.960928466948
tagged_abstract_sents/9288011.txt,4,0.239742558327,0.000511875511876,0.0616692308323,0.142474783506,0.23217956722,0.140141074393,0.0385226292258,0.67631674307
tagged_abstract_sents/9288011.txt,5,0.218020917136,0.0410524160524,0.0616692308323,0.142474783506,0.0770819177294,0.164307271548,0.0522401175982,0.549833574262
tagged_abstract_sents/9288011.txt,6,0.218020917136,-0.0388001638002,0.0616692308323,0.142474783506,0.0,0.0,0.0,0.240233751417
tagged_abstract_sents/9288011.txt,7,0.218020917136,-0.00972563472563,0.0616692308323,0.142474783506,0.441367894738,0.14614463302,0.0159914503098,0.849552635299
tagged_abstract_sents/9288011.txt,8,0.162510056315,-0.0383906633907,0.0616692308323,0.142474783506,0.0,0.0,0.0,0.195906962842
tagged_abstract_sents/9288011.txt,9,0.162510056315,-0.0281531531532,0.0616692308323,0.142474783506,0.485311830387,0.0629930418235,0.0606896339209,0.806948971021
tagged_abstract_sents/9288011.txt,10,0.101769911504,-0.0363431613432,0.0616692308323,0.142474783506,0.0,0.0,0.0,0.147724347403
tagged_abstract_sents/9288011.txt,11,0.101769911504,-0.00644963144963,0.0616692308323,0.142474783506,0.616772613519,0.139506073612,0.0578187271457,0.967800467658
tagged_abstract_sents/9288011.txt,12,0.0852775543041,-0.0363431613432,0.0616692308323,0.142474783506,0.0,0.0,0.0,0.134530461643
tagged_abstract_sents/9288011.txt,13,0.0711987127916,0.00829238329238,0.139250797795,0.0356431803763,0.281623245689,0.141204266598,0.0579772667592,0.619740578948
tagged_abstract_sents/9288011.txt,14,0.0711987127916,0.0570229320229,0.139250797795,0.0356431803763,0.0656930409724,0.196075304647,0.0609527444083,0.471402999676
tagged_abstract_sents/9288011.txt,15,0.0458567980692,-0.0383906633907,0.139250797795,0.0356431803763,0.0,0.0,0.0,0.109325658788
tagged_abstract_sents/9288011.txt,16,0.0458567980692,0.0259009009009,0.139250797795,0.0356431803763,0.280966596565,0.2037072441,0.0271929824561,0.634050794767
tagged_abstract_sents/9288011.txt,17,0.0245374094932,-0.0101351351351,0.139250797795,0.0356431803763,5.11957605465e-05,0.0980533332269,0.0352357509009,0.231261533466
tagged_abstract_sents/9288011.txt,18,0.0245374094932,-0.00481162981163,0.139250797795,0.0356431803763,0.11428349075,0.0762769160851,0.0209232096635,0.310469571141
tagged_abstract_sents/9288011.txt,19,0.0245374094932,0.0787264537265,0.139250797795,0.0356431803763,0.211487695294,0.158266822325,0.0379465056083,0.523394594578
tagged_abstract_sents/9288011.txt,20,0.00844730490748,0.00747338247338,0.139250797795,0.0356431803763,0.147100812093,0.153847982103,0.0469201335484,0.436439801175
tagged_abstract_sents/9288011.txt,21,0.00844730490748,-0.0371621621622,0.0616692308323,0.142474783506,0.0,0.0,0.0,0.0729024619614
tagged_abstract_sents/9288011.txt,22,0.00120675784393,0.0115683865684,0.139250797795,0.0356431803763,0.221052472026,0.149942949371,0.0343530779908,0.488945935987
tagged_abstract_sents/9288011.txt,23,0.00120675784393,0.0127968877969,0.139250797795,0.0356431803763,2.45640995693e-05,0.146670494949,0.0322219483134,0.262760144207
tagged_abstract_sents/9288011.txt,24,0.00120675784393,0.0304054054054,0.139250797795,0.0356431803763,0.500057289512,0.177467807845,0.0281932061483,0.793083143872
