tagged_abstract_sents/9314468.txt,1,0.239742558327,0.0443133316596,0.188769469584,0.202456734834,0.253544691644,0.379259981565,0.0338489647305,1.02243210617
tagged_abstract_sents/9314468.txt,2,0.218020917136,-0.00401707255837,0.139250797795,0.0356431803763,0.12642089321,0.431715169625,0.0424944513614,0.854562186404
tagged_abstract_sents/9314468.txt,3,0.101769911504,-0.0664072307306,0.139250797795,0.0356431803763,0.168685757568,0.174313770894,0.0488505747126,0.540302939242
tagged_abstract_sents/9314468.txt,4,0.0711987127916,0.00652774290736,0.139250797795,0.0356431803763,0.147440925027,0.197151370232,0.0329388616812,0.516114028764
tagged_abstract_sents/9314468.txt,5,0.0245374094932,0.053100677881,0.139250797795,0.0356431803763,0.138674194532,0.238187878157,0.0312091585403,0.51863964741
tagged_abstract_sents/9314468.txt,6,0.00844730490748,0.0434345970374,0.139250797795,0.0356431803763,0.166665442212,0.272363622897,0.0319359270802,0.566728108533
tagged_abstract_sents/9314468.txt,7,0.00120675784393,-0.0769520461963,0.139250797795,0.0356431803763,0.0944905308846,0.175834371363,0.0433966690124,0.379614921306
