tagged_abstract_sents/9314443.txt,1,0.125905068383,0.0465912265996,0.188769469584,0.202456734834,0.276682409925,0.159361837917,0.0682774985329,0.769485801643
tagged_abstract_sents/9314443.txt,2,0.239742558327,0.0407236658284,0.188769469584,0.202456734834,0.213197976186,0.186533077255,0.0491495930396,0.803941181551
tagged_abstract_sents/9314443.txt,3,0.218020917136,-0.0171137189159,0.188769469584,0.202456734834,0.0,0.110157380679,0.0411521190008,0.477425244848
tagged_abstract_sents/9314443.txt,4,0.162510056315,0.0432383347304,0.210342442448,0.226435992083,0.101449286188,0.190479346502,0.050275171143,0.653961534681
tagged_abstract_sents/9314443.txt,5,0.101769911504,-0.0556719754121,0.0616692308323,0.142474783506,0.159898863697,0.0618691041042,0.0320266941092,0.397653246499
tagged_abstract_sents/9314443.txt,6,0.0852775543041,-0.0187901648505,0.0616692308323,0.142474783506,0.151532405653,0.119517242954,0.0435521949448,0.452642904493
tagged_abstract_sents/9314443.txt,7,0.0711987127916,-0.0548337524448,0.0616692308323,0.142474783506,0.0,0.0857615905699,0.0631490317148,0.268479892497
tagged_abstract_sents/9314443.txt,8,0.0458567980692,0.03401788209,0.0616692308323,0.142474783506,0.485494786517,0.149364776979,0.0415084863436,0.793434115181
tagged_abstract_sents/9314443.txt,9,0.0245374094932,0.0457530036323,0.0616692308323,0.142474783506,0.412952825682,0.162791476444,0.0607889163881,0.738890797302
tagged_abstract_sents/9314443.txt,10,0.00844730490748,-0.0154372729813,0.139250797795,0.0356431803763,0.239427961826,0.166642982554,0.0338354071164,0.523895093836
tagged_abstract_sents/9314443.txt,11,0.00120675784393,-0.0313635093602,0.139250797795,0.0356431803763,0.0,0.137965451492,0.0495295212491,0.262506030154
tagged_abstract_sents/9314443.txt,12,0.00120675784393,-0.0171137189159,0.139250797795,0.0356431803763,0.347151414105,0.134111915716,0.0530947152928,0.612219060616
