tagged_abstract_sents/9346984.txt,1,0.206355591311,-0.0378826969384,0.0616692308323,0.106008497564,0.118103744455,0.0,0.0,0.220145098347
tagged_abstract_sents/9346984.txt,3,0.206355591311,-0.0389146886825,0.0616692308323,0.106008497564,0.118103744455,0.0,0.0,0.219938699998
tagged_abstract_sents/9346984.txt,4,0.206355591311,0.0202528379773,0.0616692308323,0.106008497564,0.118103744455,0.137032408829,0.0247804902807,0.603442311163
tagged_abstract_sents/9346984.txt,5,0.0048270313757,-0.0389146886825,0.0616692308323,0.106008497564,0.118103744455,0.0,0.0,0.0587158520494
tagged_abstract_sents/9346984.txt,6,0.0048270313757,0.00924492604059,0.139250797795,0.521468892835,0.118103744455,0.143740615638,0.0383611098497,0.574975378338
tagged_abstract_sents/9346984.txt,7,0.0048270313757,-0.015522875817,0.139250797795,0.521468892835,0.118103744455,0.0943165886663,0.0107067220959,0.345540730345
tagged_abstract_sents/9346984.txt,8,0.0108608205953,-0.0196508427933,0.139250797795,0.521468892835,0.118103744455,0.158893411995,0.0237153676541,0.413433334314
tagged_abstract_sents/9346984.txt,10,0.0261464199517,0.0350447196422,0.139250797795,0.521468892835,0.118103744455,0.112064497822,0.017728106126,0.583079260319
tagged_abstract_sents/9346984.txt,11,0.0261464199517,-0.0196508427933,0.139250797795,0.521468892835,0.118103744455,0.0611777057665,0.0264883520276,0.347182797371
tagged_abstract_sents/9346984.txt,12,0.0353982300885,-0.0199948400413,0.139250797795,0.521468892835,0.118103744455,0.0866420878579,0.023817227495,0.360844998163
tagged_abstract_sents/9346984.txt,13,0.0518905872888,-0.0120829033368,0.139250797795,0.521468892835,0.118103744455,0.110215686515,0.0287020060397,0.404079648466
tagged_abstract_sents/9346984.txt,14,0.0518905872888,0.047428620571,0.139250797795,0.521468892835,0.118103744455,0.182367714226,0.0258429017057,0.606688960367
tagged_abstract_sents/9346984.txt,15,0.0993563958166,-0.00382696938424,0.139250797795,0.521468892835,0.118103744455,0.16202227075,0.0332799211143,0.660724651912
tagged_abstract_sents/9346984.txt,16,0.0993563958166,0.0553405572755,0.139250797795,0.521468892835,0.118103744455,0.20852331064,0.0266356252417,0.637435979967
tagged_abstract_sents/9346984.txt,17,0.172566371681,-0.0375386996904,0.139250797795,0.521468892835,0.118103744455,0.0,0.0,0.356611424155
tagged_abstract_sents/9346984.txt,18,0.172566371681,0.0360767113863,0.139250797795,0.521468892835,0.118103744455,0.168198660071,0.0265408710658,0.725443837666
tagged_abstract_sents/9346984.txt,19,0.172566371681,-0.0062349501204,0.139250797795,0.521468892835,0.118103744455,0.121628599371,0.0135488567731,0.747587654864
tagged_abstract_sents/9346984.txt,20,0.206355591311,0.0116529067767,0.139250797795,0.521468892835,0.118103744455,0.132871757405,0.0229780663912,0.766895632174
tagged_abstract_sents/9346984.txt,21,0.206355591311,-0.0227468180255,0.139250797795,0.521468892835,0.118103744455,0.0466691305831,0.011135677308,0.444405984083
tagged_abstract_sents/9346984.txt,22,0.262268704747,-0.00829893360853,0.139250797795,0.521468892835,0.118103744455,0.116406941233,0.0253571086185,0.680508523886
tagged_abstract_sents/9346984.txt,23,0.262268704747,-0.0117389060888,0.139250797795,0.521468892835,0.118103744455,0.10224757275,0.0207075064711,0.556488328549
tagged_abstract_sents/9346984.txt,24,0.262268704747,0.061876504988,0.139250797795,0.521468892835,0.118103744455,0.195240923195,0.0332016990775,0.794802698271
