tagged_abstract_sents/9358138.txt,1,0.206355591311,-0.047529538131,0.0616692308323,0.106008497564,0.475717754532,0.0,0.0,0.218215730108
tagged_abstract_sents/9358138.txt,3,0.206355591311,0.0424519089933,0.188769469584,0.129715814208,0.475717754532,0.381725767842,0.0964905428488,1.22340131539
tagged_abstract_sents/9358138.txt,4,0.0048270313757,-0.0489210038082,0.0616692308323,0.106008497564,0.475717754532,0.0,0.0,0.0567145890242
tagged_abstract_sents/9358138.txt,5,0.0048270313757,0.0735279757836,0.194899689933,0.0581677376677,0.475717754532,0.544925211762,0.101286167354,1.10960133703
tagged_abstract_sents/9358138.txt,6,0.0108608205953,-0.0294404843277,0.0616692308323,0.106008497564,0.475717754532,0.183545658783,0.0395224034496,0.492397063435
tagged_abstract_sents/9358138.txt,7,0.0108608205953,0.00117176057026,0.0616692308323,0.106008497564,0.475717754532,0.43054872245,0.0654147171821,0.934145417943
tagged_abstract_sents/9358138.txt,8,0.0261464199517,-0.0183087589103,0.0616692308323,0.106008497564,0.475717754532,0.321354671526,0.101602431275,0.801789583859
tagged_abstract_sents/9358138.txt,9,0.0261464199517,-0.0489210038082,0.0616692308323,0.106008497564,0.475717754532,0.0,0.0,0.073770099885
tagged_abstract_sents/9358138.txt,10,0.0518905872888,-0.00671321160043,0.139250797795,0.521468892835,0.475717754532,0.402207330383,0.0993622246083,1.16216322726
tagged_abstract_sents/9358138.txt,11,0.0518905872888,0.0526559906259,0.139250797795,0.521468892835,0.475717754532,0.496011015272,0.0863976377953,1.25824076319
tagged_abstract_sents/9358138.txt,13,0.0993563958166,0.0563665657651,0.139250797795,0.521468892835,0.475717754532,0.397797247081,0.10660741271,1.13232824691
tagged_abstract_sents/9358138.txt,14,0.172566371681,0.0132311297725,0.139250797795,0.521468892835,0.475717754532,0.426844834502,0.0729344973183,1.30059570151
tagged_abstract_sents/9358138.txt,15,0.172566371681,-0.0359339908212,0.139250797795,0.521468892835,0.475717754532,0.231356857754,0.0626298665792,0.828285897349
tagged_abstract_sents/9358138.txt,16,0.206355591311,-0.0470657162386,0.139250797795,0.521468892835,0.475717754532,0.0,0.0,0.381737396549
tagged_abstract_sents/9358138.txt,17,0.206355591311,0.0234352114051,0.139250797795,0.521468892835,0.475717754532,0.408049689572,0.0921394058697,1.41287005284
tagged_abstract_sents/9358138.txt,18,0.262268704747,-0.00949614295479,0.139250797795,0.521468892835,0.475717754532,0.433840419969,0.0834973753281,1.37318775232
tagged_abstract_sents/9358138.txt,19,0.262268704747,0.0141587735573,0.139250797795,0.521468892835,0.475717754532,0.377587590971,0.0859580052493,1.37797613601
