tagged_abstract_sents/9364387.txt,1,0.0253827558421,-0.0523540489642,0.0616692308323,0.247294108221,0.376800345925,0.0543108517933,7.63791899441e-05,0.323461794571
tagged_abstract_sents/9364387.txt,2,0.0805801772764,-0.015065913371,0.188769469584,0.123191979006,0.376800345925,0.208505099849,0.0344027275715,0.834973785796
tagged_abstract_sents/9364387.txt,3,0.123690572119,0.0662900188324,0.188769469584,0.123191979006,0.376800345925,0.233473114045,0.0298257865334,0.642295608753
tagged_abstract_sents/9364387.txt,5,0.149879129734,-0.0546139359699,0.210342442448,0.141687475369,0.376800345925,0.133953891566,0.0149333906317,0.695399082555
tagged_abstract_sents/9364387.txt,6,0.176470588235,-0.0218455743879,0.0616692308323,0.247294108221,0.376800345925,0.170442100404,0.00967760707635,0.913762664699
tagged_abstract_sents/9364387.txt,7,0.166800966962,0.0278719397363,0.139250797795,0.194462959676,0.376800345925,0.26228096445,0.0189856843575,0.920325728033
tagged_abstract_sents/9364387.txt,8,0.0954875100725,-0.0218455743879,0.139250797795,0.194462959676,0.376800345925,0.170780589074,0.0231843575419,0.944975549661
tagged_abstract_sents/9364387.txt,9,0.0342465753425,0.0482109227872,0.139250797795,0.194462959676,0.376800345925,0.29211542355,0.0288415756729,0.86276107678
