tagged_abstract_sents/9371164.txt,1,0.125905068383,-0.0443181818182,0.0616692308323,0.142474783506,0.0,0.0,0.0,0.165437468811
tagged_abstract_sents/9371164.txt,2,0.250201126307,0.0326446280992,0.188769469584,0.202456734834,0.338818159891,0.279001457564,0.099769457338,1.0794006567
tagged_abstract_sents/9371164.txt,3,0.239742558327,-0.013326446281,0.188769469584,0.202456734834,0.305441097523,0.176800427075,0.0852927531986,0.911784790444
tagged_abstract_sents/9371164.txt,4,0.229283990346,0.0403925619835,0.188769469584,0.202456734834,0.310130594759,0.331315166097,0.0974916877922,1.08556490856
tagged_abstract_sents/9371164.txt,5,0.218020917136,-0.045867768595,0.0616692308323,0.142474783506,0.0,0.0,0.0,0.238820230458
tagged_abstract_sents/9371164.txt,6,0.206757843926,-0.00661157024793,0.0616692308323,0.142474783506,3.6139262143e-05,0.170624696802,0.0404441002888,0.448765947912
tagged_abstract_sents/9371164.txt,7,0.162510056315,-0.0138429752066,0.0616692308323,0.142474783506,4.4458025608e-05,0.142397478784,0.0312652602793,0.374523697567
tagged_abstract_sents/9371164.txt,8,0.118262268705,-0.0453512396694,0.0616692308323,0.142474783506,0.0,0.0,0.0,0.159116617498
tagged_abstract_sents/9371164.txt,9,0.101769911504,0.0248966942149,0.0616692308323,0.142474783506,0.223063450072,0.286632133176,0.0928531774793,0.762521079242
tagged_abstract_sents/9371164.txt,10,0.0852775543041,0.0047520661157,0.139250797795,0.0356431803763,0.146224212032,0.141127644954,0.0882898720578,0.52513253872
tagged_abstract_sents/9371164.txt,11,0.0711987127916,-0.0376033057851,0.139250797795,0.0356431803763,0.0,0.0177787587161,0.0,0.147535420803
tagged_abstract_sents/9371164.txt,12,0.0571198712792,0.0135330578512,0.139250797795,0.0356431803763,2.93341724141e-05,0.160797979396,0.0442687622954,0.333816937468
tagged_abstract_sents/9371164.txt,13,0.0458567980692,0.0636363636364,0.139250797795,0.0356431803763,0.124536737436,0.276550013643,0.0992821564606,0.630099971733
tagged_abstract_sents/9371164.txt,14,0.0345937248592,-0.0117768595041,0.139250797795,0.0356431803763,0.280774333215,0.182450923744,0.0904472395463,0.659310457502
tagged_abstract_sents/9371164.txt,15,0.0245374094932,-0.0117768595041,0.139250797795,0.0356431803763,0.079503405643,0.0950016213446,0.027615001465,0.299712937157
tagged_abstract_sents/9371164.txt,16,0.0144810941271,-0.0107438016529,0.139250797795,0.0356431803763,0.0,0.135646752006,0.0305632874304,0.255964507417
tagged_abstract_sents/9371164.txt,17,0.00844730490748,0.0657024793388,0.139250797795,0.0356431803763,0.273726265855,0.220179648891,0.0608529670292,0.65497557458
tagged_abstract_sents/9371164.txt,18,0.00120675784393,-0.00816115702479,0.139250797795,0.0356431803763,0.241923848102,0.156022287565,0.0610044926262,0.538602156174
tagged_abstract_sents/9371164.txt,19,0.00120675784393,-0.0422520661157,0.0616692308323,0.142474783506,0.0,0.0,0.0,0.0660920435199
tagged_abstract_sents/9371164.txt,20,0.00120675784393,0.0460743801653,0.139250797795,0.0356431803763,0.386468743819,0.335833171718,0.0682683855845,0.881068936439
