tagged_abstract_sents/9382560.txt,1,0.0954875100725,-0.0693733171427,0.0616692308323,0.247294108221,0.32607126843,0.0,0.0,0.167538192512
tagged_abstract_sents/9382560.txt,3,0.0805801772764,0.00200622987171,0.0616692308323,0.247294108221,0.32607126843,0.430782431711,0.0625564745951,0.843179429384
tagged_abstract_sents/9382560.txt,4,0.123690572119,-0.0680006335463,0.139250797795,0.194462959676,0.32607126843,0.0,0.0,0.213316617786
tagged_abstract_sents/9382560.txt,5,0.123690572119,-0.00417084631223,0.139250797795,0.194462959676,0.32607126843,0.304139295521,0.0799723708904,0.891729677011
tagged_abstract_sents/9382560.txt,6,0.140209508461,-0.00485718811045,0.139250797795,0.194462959676,0.32607126843,0.279639913499,0.0797015824471,0.881985733301
tagged_abstract_sents/9382560.txt,7,0.149879129734,-0.0302518346444,0.139250797795,0.194462959676,0.32607126843,0.338942234387,0.0991249816578,1.01958894113
tagged_abstract_sents/9382560.txt,8,0.176470588235,-0.00691621350509,0.139250797795,0.194462959676,0.32607126843,0.249545755222,0.0888798419208,0.931519382257
tagged_abstract_sents/9382560.txt,9,0.176470588235,0.050736497545,0.139250797795,0.194462959676,0.32607126843,0.501753781188,0.0760770139709,1.08836979191
tagged_abstract_sents/9382560.txt,10,0.166800966962,-0.0686869753445,0.0616692308323,0.247294108221,0.32607126843,0.0,0.0,0.224726226383
tagged_abstract_sents/9382560.txt,11,0.0954875100725,0.000633546275276,0.139250797795,0.194462959676,0.32607126843,0.489726873954,0.0804288896075,1.1582892625
tagged_abstract_sents/9382560.txt,12,0.0342465753425,-0.00966158069796,0.139250797795,0.194462959676,0.32607126843,0.285053792848,0.0850397349459,0.856704034548
tagged_abstract_sents/9382560.txt,13,0.0342465753425,0.006124280661,0.139250797795,0.194462959676,0.32607126843,0.520767394965,0.0828392084735,1.08626427507
