tagged_abstract_sents/9394980.txt,1,0.0253827558421,-0.0116618075802,0.188769469584,0.123191979006,1.83513080885e-05,0.0907876258966,0.0167762565304,0.256907911397
tagged_abstract_sents/9394980.txt,3,0.140209508461,-0.0116618075802,0.139250797795,0.194462959676,1.83513080885e-05,0.128999379015,0.023531133765,0.390353301475
tagged_abstract_sents/9394980.txt,4,0.149879129734,-0.0728862973761,0.139250797795,0.194462959676,1.83513080885e-05,0.0510572256507,0.00737338992974,0.291736283942
tagged_abstract_sents/9394980.txt,5,0.166800966962,0.0495626822157,0.139250797795,0.194462959676,1.83513080885e-05,0.172324969409,0.0243462138954,0.468007673949
tagged_abstract_sents/9394980.txt,6,0.0954875100725,-0.030612244898,0.139250797795,0.194462959676,1.83513080885e-05,0.0796546804765,0.0254949968065,0.303396207467
tagged_abstract_sents/9394980.txt,7,0.0342465753425,0.0889212827988,0.139250797795,0.194462959676,1.83513080885e-05,0.140727481139,0.027016824849,0.34090846093
