tagged_abstract_sents/9400035.txt,1,0.125905068383,-0.065157191725,0.0616692308323,0.142474783506,0.0,0.0,0.0,0.161269666829
tagged_abstract_sents/9400035.txt,2,0.239742558327,-0.0127056523864,0.188769469584,0.202456734834,0.418108488971,0.308589807774,0.0592107054371,1.13028367361
tagged_abstract_sents/9400035.txt,3,0.218020917136,0.0294836292556,0.188769469584,0.202456734834,0.466510805154,0.312503790411,0.0645272601794,1.17897707055
tagged_abstract_sents/9400035.txt,4,0.218020917136,-0.0668675680078,0.0616692308323,0.142474783506,0.0,0.0,0.0,0.234620270575
tagged_abstract_sents/9400035.txt,5,0.162510056315,0.0813650431666,0.210342442448,0.226435992083,0.502698722555,0.420153643601,0.0588138096271,1.30104924832
tagged_abstract_sents/9400035.txt,6,0.101769911504,-0.0668675680078,0.0616692308323,0.142474783506,0.0,0.0,0.0,0.14161946607
tagged_abstract_sents/9400035.txt,7,0.0852775543041,0.0203616224141,0.139250797795,0.0356431803763,0.185852177085,0.316807377268,0.054200359389,0.709472634678
tagged_abstract_sents/9400035.txt,8,0.0711987127916,0.068252158332,0.139250797795,0.0356431803763,0.0983300253314,0.282855307207,0.0416434917783,0.573756579227
tagged_abstract_sents/9400035.txt,9,0.0458567980692,0.0118097410002,0.139250797795,0.0356431803763,0.256502109643,0.223519844752,0.0559860736748,0.655373767735
tagged_abstract_sents/9400035.txt,10,0.0245374094932,-0.0417820491937,0.139250797795,0.0356431803763,0.406571913718,0.154113364411,0.0375237096935,0.689800858588
tagged_abstract_sents/9400035.txt,11,0.0245374094932,0.0768040397459,0.139250797795,0.0356431803763,0.246835999801,0.413641571922,0.0544773884397,0.830264048717
tagged_abstract_sents/9400035.txt,12,0.00844730490748,-0.00244339468969,0.139250797795,0.0356431803763,0.306316823165,0.220788441546,0.0571840371369,0.670876819846
tagged_abstract_sents/9400035.txt,13,0.00120675784393,-0.0645870662974,0.0616692308323,0.142474783506,0.0,0.0,0.0,0.0616250434835
tagged_abstract_sents/9400035.txt,14,0.00120675784393,0.0323342563935,0.139250797795,0.0356431803763,0.536034013849,0.334992331495,0.0519956982221,1.01077265413
