tagged_abstract_sents/9416884.txt,1,0.206355591311,-0.0615598885794,0.0616692308323,0.106008497564,0.291775862853,0.0,0.0,0.215409660018
tagged_abstract_sents/9416884.txt,2,0.206355591311,0.0229340761374,0.188769469584,0.129715814208,0.291775862853,0.168971687464,0.0365700010861,0.765544786748
tagged_abstract_sents/9416884.txt,4,0.0048270313757,-0.0573816155989,0.0616692308323,0.106008497564,0.291775862853,0.0,0.0,0.0550224666661
tagged_abstract_sents/9416884.txt,5,0.0108608205953,-0.0211699164345,0.210342442448,0.0253702522065,0.291775862853,0.101909762438,0.0284783317041,0.647119005647
tagged_abstract_sents/9416884.txt,6,0.016894609815,-0.0239554317549,0.0616692308323,0.106008497564,0.291775862853,0.0881859972596,0.0468817204301,0.327772570852
tagged_abstract_sents/9416884.txt,7,0.0261464199517,-0.00863509749304,0.139250797795,0.521468892835,0.291775862853,0.138635267564,0.0408957611304,0.667104287759
tagged_abstract_sents/9416884.txt,8,0.0518905872888,0.0591457753018,0.139250797795,0.521468892835,0.291775862853,0.273355319418,0.0481092761229,0.731112963431
tagged_abstract_sents/9416884.txt,10,0.0993563958166,0.107428040854,0.139250797795,0.521468892835,0.291775862853,0.268650353471,0.051963180189,0.771100972638
tagged_abstract_sents/9416884.txt,11,0.172566371681,0.00900649953575,0.139250797795,0.521468892835,0.291775862853,0.0793157845847,0.0339198435973,0.54654498366
tagged_abstract_sents/9416884.txt,12,0.214802896219,-0.061095636026,0.0616692308323,0.106008497564,0.291775862853,0.0,0.0,0.222260354455
tagged_abstract_sents/9416884.txt,13,0.206355591311,0.030826369545,0.139250797795,0.521468892835,0.291775862853,0.207893640028,0.0366771159875,1.01455597403
tagged_abstract_sents/9416884.txt,14,0.262268704747,-0.0309192200557,0.139250797795,0.521468892835,0.291775862853,0.0951808094752,0.0115998696644,0.830040850061
tagged_abstract_sents/9416884.txt,15,0.262268704747,0.030826369545,0.139250797795,0.521468892835,0.291775862853,0.221882019271,0.0535373900293,1.00924157661
