tagged_abstract_sents/9469693.txt,3,0.0108608205953,-0.00887096774194,0.0616692308323,0.106008497564,0.147116825434,0.112193379828,0.0514705882353,0.2332295458
tagged_abstract_sents/9469693.txt,4,0.0353982300885,0.00403225806452,0.0616692308323,0.106008497564,0.147116825434,0.113105257039,0.059899779584,0.264786476806
tagged_abstract_sents/9469693.txt,5,0.0993563958166,0.0104838709677,0.139250797795,0.521468892835,0.147116825434,0.0970034576278,0.0519906323185,0.53157958412
tagged_abstract_sents/9469693.txt,6,0.172566371681,-0.0271505376344,0.139250797795,0.521468892835,0.147116825434,0.125396911745,0.0745109519218,0.655919743897
tagged_abstract_sents/9469693.txt,7,0.206355591311,0.0180107526882,0.139250797795,0.521468892835,0.147116825434,0.111667033319,0.062637760022,0.569072073048
tagged_abstract_sents/9469693.txt,8,0.262268704747,0.0147849462366,0.139250797795,0.521468892835,0.147116825434,0.117947609002,0.0442640170822,0.74816647131
