tagged_abstract_sents/9489291.txt,1,0.0954875100725,-0.0480995088618,0.188769469584,0.123191979006,0.137765137229,0.0760804897676,0.0781011482047,0.775646087494
tagged_abstract_sents/9489291.txt,2,0.0253827558421,0.0345398248986,0.188769469584,0.123191979006,0.137765137229,0.183180952357,0.0699223468507,0.707432722443
tagged_abstract_sents/9489291.txt,4,0.123690572119,-0.00645953448644,0.205068369407,0.0,0.137765137229,0.150716460118,0.0723824886521,0.765590576571
tagged_abstract_sents/9489291.txt,5,0.140209508461,0.0159619901772,0.0616692308323,0.247294108221,0.137765137229,0.164758734786,0.0803411428951,0.791624244328
tagged_abstract_sents/9489291.txt,6,0.149073327961,0.0640081144565,0.139250797795,0.194462959676,0.137765137229,0.200703921181,0.0625323554789,0.78808230572
tagged_abstract_sents/9489291.txt,7,0.149879129734,-0.0154281443519,0.139250797795,0.194462959676,0.137765137229,0.0905110296136,0.0679608858211,0.403301861304
tagged_abstract_sents/9489291.txt,8,0.176470588235,-0.009021994448,0.139250797795,0.194462959676,0.137765137229,0.132401109068,0.0575311228892,0.457311600753
tagged_abstract_sents/9489291.txt,9,0.166800966962,-0.0186312193039,0.139250797795,0.194462959676,0.137765137229,0.109485530453,0.0759402121504,0.897683528868
tagged_abstract_sents/9489291.txt,10,0.0954875100725,-0.00389707452488,0.139250797795,0.194462959676,0.137765137229,0.147187037325,0.0663091222841,0.538707488597
tagged_abstract_sents/9489291.txt,11,0.0342465753425,-0.0218342942558,0.139250797795,0.194462959676,0.137765137229,0.100118297086,0.0758133279196,0.510546334525
tagged_abstract_sents/9489291.txt,12,0.0342465753425,0.00379030535981,0.139250797795,0.194462959676,0.137765137229,0.127435370614,0.0694666995357,0.490786815525
