tagged_abstract_sents/9508226.txt,1,0.206355591311,-0.0662907853473,0.0616692308323,0.106008497564,0.423198593905,0.0,0.0,0.214463480665
tagged_abstract_sents/9508226.txt,3,0.0048270313757,0.00750650563822,0.188769469584,0.129715814208,0.423198593905,0.237067109035,0.0585006362894,0.834433930482
tagged_abstract_sents/9508226.txt,4,0.0048270313757,-0.0620871421899,0.0616692308323,0.106008497564,0.423198593905,0.0,0.0,0.0540813613479
tagged_abstract_sents/9508226.txt,5,0.0108608205953,-0.0392006405551,0.139250797795,0.521468892835,0.423198593905,0.0926421506484,0.0811845564832,0.400741302245
tagged_abstract_sents/9508226.txt,6,0.0261464199517,-0.000433709214653,0.139250797795,0.521468892835,0.423198593905,0.1351754049,0.11050120188,0.492573067647
tagged_abstract_sents/9508226.txt,7,0.0353982300885,0.0261893641156,0.139250797795,0.521468892835,0.423198593905,0.235245084922,0.0799160477882,0.878727722142
tagged_abstract_sents/9508226.txt,8,0.0518905872888,0.103723226797,0.139250797795,0.521468892835,0.423198593905,0.244120696269,0.0621569260575,1.08839338176
tagged_abstract_sents/9508226.txt,9,0.0993563958166,-0.0219189964636,0.139250797795,0.521468892835,0.423198593905,0.163950009887,0.0774943493704,0.961842080715
tagged_abstract_sents/9508226.txt,10,0.172566371681,-0.0676919997331,0.139250797795,0.521468892835,0.423198593905,0.0,0.0,0.350580764146
tagged_abstract_sents/9508226.txt,12,0.206355591311,0.0967171548676,0.139250797795,0.521468892835,0.423198593905,0.232833397109,0.0947153158971,0.914201887566
tagged_abstract_sents/9508226.txt,13,0.262268704747,-0.0658237138854,0.139250797795,0.521468892835,0.423198593905,0.0,0.0,0.422716287768
tagged_abstract_sents/9508226.txt,14,0.262268704747,0.0560819376793,0.139250797795,0.521468892835,0.423198593905,0.272390948884,0.0919295713119,1.23461653218
