tagged_abstract_sents/9540955.txt,1,0.0954875100725,-0.0510449556458,0.0616692308323,0.247294108221,0.189262275132,0.0,0.0,0.171203864811
tagged_abstract_sents/9540955.txt,3,0.0253827558421,-0.0496917756728,0.0616692308323,0.247294108221,0.189262275132,0.0,0.0,0.115390697422
tagged_abstract_sents/9540955.txt,4,0.0805801772764,-0.00864531649376,0.0616692308323,0.247294108221,0.189262275132,0.213726760844,0.024302430243,0.588738685131
tagged_abstract_sents/9540955.txt,5,0.0805801772764,0.0531499022703,0.0616692308323,0.247294108221,0.189262275132,0.225530127066,0.0241662324127,0.507805520104
tagged_abstract_sents/9540955.txt,6,0.123690572119,-0.0433769357991,0.0616692308323,0.247294108221,0.189262275132,0.0,0.0,0.195299918418
tagged_abstract_sents/9540955.txt,7,0.123690572119,0.081566681702,0.0616692308323,0.247294108221,0.189262275132,0.251410891011,0.0295540832279,0.501262804351
tagged_abstract_sents/9540955.txt,8,0.140209508461,-0.0384152758984,0.0616692308323,0.247294108221,0.189262275132,0.0630986940375,0.0255341323606,0.29814022587
tagged_abstract_sents/9540955.txt,9,0.149073327961,-0.0388663358893,0.0616692308323,0.247294108221,0.189262275132,0.0,0.0,0.216508243074
tagged_abstract_sents/9540955.txt,10,0.149879129734,0.0405202225229,0.0616692308323,0.247294108221,0.189262275132,0.215607911083,0.017916077322,0.466558733736
tagged_abstract_sents/9540955.txt,11,0.176470588235,0.00127800330777,0.0616692308323,0.247294108221,0.189262275132,0.150535721875,0.0210468415263,0.418037482534
tagged_abstract_sents/9540955.txt,12,0.176470588235,0.0432265824688,0.139250797795,0.194462959676,0.189262275132,0.293643739974,0.0254183313068,0.707752903266
tagged_abstract_sents/9540955.txt,13,0.166800966962,0.0188693429559,0.139250797795,0.194462959676,0.189262275132,0.184869314955,0.0226391060159,0.472687349932
tagged_abstract_sents/9540955.txt,14,0.166800966962,0.0134566230642,0.139250797795,0.194462959676,0.189262275132,0.201252845926,0.022681769562,0.488031000471
tagged_abstract_sents/9540955.txt,15,0.0954875100725,0.0342053826492,0.139250797795,0.194462959676,0.189262275132,0.192413899803,0.0260262868392,0.42963555803
tagged_abstract_sents/9540955.txt,16,0.0954875100725,-0.0505938956548,0.0616692308323,0.247294108221,0.189262275132,0.0,0.0,0.17129407681
tagged_abstract_sents/9540955.txt,17,0.0342465753425,0.00443542324462,0.139250797795,0.194462959676,0.189262275132,0.190294262493,0.0202796595449,0.366831166588
tagged_abstract_sents/9540955.txt,18,0.0342465753425,-0.0104495564577,0.139250797795,0.194462959676,0.189262275132,0.17146539169,0.027158753027,0.541158055631
