tagged_abstract_sents/9574657.txt,1,0.206355591311,-0.0598370927318,0.0616692308323,0.106008497564,0.414420829999,0.0,0.0,0.215754219188
tagged_abstract_sents/9574657.txt,3,0.0048270313757,0.0228696741855,0.188769469584,0.129715814208,0.414420829999,0.254367751954,0.0346995776063,0.74510230987
tagged_abstract_sents/9574657.txt,4,0.0108608205953,-0.062656641604,0.0616692308323,0.106008497564,0.414420829999,0.0,0.0,0.0587944928408
tagged_abstract_sents/9574657.txt,5,0.0261464199517,0.0191102756892,0.139250797795,0.521468892835,0.414420829999,0.29792785808,0.0416064721179,1.02748352237
tagged_abstract_sents/9574657.txt,6,0.0353982300885,0.0106516290727,0.139250797795,0.521468892835,0.414420829999,0.334751738211,0.035041895406,0.958986585757
tagged_abstract_sents/9574657.txt,7,0.0518905872888,-0.0711152882206,0.139250797795,0.521468892835,0.414420829999,0.0,0.0,0.253355478935
tagged_abstract_sents/9574657.txt,8,0.0993563958166,0.0426065162907,0.139250797795,0.521468892835,0.414420829999,0.416838393356,0.037172832249,1.23905909011
tagged_abstract_sents/9574657.txt,10,0.206355591311,-0.0729949874687,0.0616692308323,0.106008497564,0.414420829999,0.0,0.0,0.213122640241
tagged_abstract_sents/9574657.txt,11,0.262268704747,0.0426065162907,0.139250797795,0.521468892835,0.414420829999,0.315189747697,0.0459204147806,1.24271212011
tagged_abstract_sents/9574657.txt,12,0.262268704747,0.0285087719298,0.139250797795,0.521468892835,0.414420829999,0.338096992196,0.0281028283412,1.22220343547
