tagged_abstract_sents/9576405.txt,1,0.0954875100725,-0.0539484532387,0.0616692308323,0.247294108221,0.393219652069,0.0,0.0,0.170623165293
tagged_abstract_sents/9576405.txt,3,0.0253827558421,-0.0460264544575,0.0616692308323,0.247294108221,0.393219652069,0.0,0.0,0.116123761665
tagged_abstract_sents/9576405.txt,4,0.0805801772764,0.00577122988135,0.139250797795,0.194462959676,0.393219652069,0.228727628734,0.0959399888128,0.856338736432
tagged_abstract_sents/9576405.txt,5,0.0805801772764,0.0203964584005,0.139250797795,0.194462959676,0.393219652069,0.270547124817,0.0793194817768,1.01209306775
tagged_abstract_sents/9576405.txt,6,0.123690572119,0.0100369215328,0.139250797795,0.194462959676,0.393219652069,0.323148202045,0.0562329554419,0.975458433875
tagged_abstract_sents/9576405.txt,7,0.140209508461,-0.00824461411621,0.139250797795,0.194462959676,0.393219652069,0.226066228854,0.0675325626615,0.769633747833
tagged_abstract_sents/9576405.txt,8,0.140209508461,-0.0228698426354,0.139250797795,0.194462959676,0.393219652069,0.189306104132,0.0342884019307,0.85263577046
tagged_abstract_sents/9576405.txt,9,0.149879129734,-0.0539484532387,0.139250797795,0.194462959676,0.393219652069,0.0,0.0,0.23707789994
tagged_abstract_sents/9576405.txt,10,0.149879129734,0.0593970677851,0.139250797795,0.194462959676,0.393219652069,0.287478799688,0.0837532962203,1.02651078883
tagged_abstract_sents/9576405.txt,11,0.176470588235,0.011255690576,0.139250797795,0.194462959676,0.393219652069,0.324346430316,0.0916771845207,0.877631283827
tagged_abstract_sents/9576405.txt,12,0.166800966962,-0.018604150984,0.139250797795,0.194462959676,0.393219652069,0.1886050789,0.0685960800037,0.734958996968
tagged_abstract_sents/9576405.txt,13,0.166800966962,-0.00215076889988,0.139250797795,0.194462959676,0.393219652069,0.227105066667,0.0662074154969,0.780943812362
tagged_abstract_sents/9576405.txt,14,0.0954875100725,0.0764598343908,0.139250797795,0.194462959676,0.393219652069,0.446899982103,0.0838727148425,1.23954770306
tagged_abstract_sents/9576405.txt,15,0.0954875100725,-0.0515109151522,0.0616692308323,0.247294108221,0.393219652069,0.0,0.0,0.17111067291
tagged_abstract_sents/9576405.txt,16,0.0342465753425,0.0496469154389,0.139250797795,0.194462959676,0.393219652069,0.396612982049,0.118002246313,1.08361390185
tagged_abstract_sents/9576405.txt,17,0.0342465753425,0.0143026131842,0.139250797795,0.194462959676,0.393219652069,0.335657970544,0.102372736053,0.989472428376
