tagged_abstract_sents/9583926.txt,1,0.206355591311,-0.0381003328578,0.0616692308323,0.106008497564,0.107509355813,0.0,0.0,0.220101571163
tagged_abstract_sents/9583926.txt,3,0.206355591311,-0.0391702330005,0.0616692308323,0.106008497564,0.107509355813,0.0,0.0,0.219887591134
tagged_abstract_sents/9583926.txt,4,0.206355591311,0.0367926771279,0.210342442448,0.0253702522065,0.107509355813,0.142072519864,0.00386119257087,0.480500713405
tagged_abstract_sents/9583926.txt,5,0.0048270313757,-0.0363171659534,0.0616692308323,0.106008497564,0.107509355813,0.00736873766754,0.0,0.0666040942627
tagged_abstract_sents/9583926.txt,6,0.0048270313757,-0.0384569662387,0.0616692308323,0.106008497564,0.107509355813,0.0,0.0,0.0588073965381
tagged_abstract_sents/9583926.txt,8,0.0108608205953,-0.0366737993343,0.0616692308323,0.106008497564,0.107509355813,0.0,0.0,0.0639910612947
tagged_abstract_sents/9583926.txt,9,0.0108608205953,0.0175344745602,0.194899689933,0.0581677376677,0.107509355813,0.130776002552,0.0,0.257894537188
tagged_abstract_sents/9583926.txt,10,0.0261464199517,-0.0338207322872,0.0616692308323,0.106008497564,0.107509355813,0.0,0.0,0.0767901541892
tagged_abstract_sents/9583926.txt,11,0.0261464199517,0.00148597242035,0.0616692308323,0.106008497564,0.107509355813,0.0883359122681,0.0126366302319,0.184824037631
tagged_abstract_sents/9583926.txt,12,0.0353982300885,0.0635401806942,0.139250797795,0.521468892835,0.107509355813,0.203964175373,0.00267313331829,0.551057047587
tagged_abstract_sents/9583926.txt,13,0.0518905872888,-0.0388135996196,0.139250797795,0.521468892835,0.107509355813,0.0,0.0,0.259815816655
tagged_abstract_sents/9583926.txt,14,0.0518905872888,0.0285901093676,0.139250797795,0.521468892835,0.107509355813,0.115571374177,0.00501675743611,0.453419060115
tagged_abstract_sents/9583926.txt,15,0.0993563958166,-0.00778649548264,0.139250797795,0.521468892835,0.107509355813,0.0690524555335,0.00772238514174,0.432138410544
tagged_abstract_sents/9583926.txt,16,0.0993563958166,0.0111150737042,0.139250797795,0.521468892835,0.107509355813,0.158885491955,0.00408832154563,0.514881461474
tagged_abstract_sents/9583926.txt,17,0.172566371681,-0.0113528292915,0.139250797795,0.521468892835,0.107509355813,0.0656950995583,0.0,0.518056316924
tagged_abstract_sents/9583926.txt,18,0.172566371681,-0.00029719448407,0.139250797795,0.521468892835,0.107509355813,0.0845600002339,0.0,0.62776621726
tagged_abstract_sents/9583926.txt,19,0.172566371681,0.0186043747028,0.139250797795,0.521468892835,0.107509355813,0.193742202833,0.00289589442815,0.564501126462
tagged_abstract_sents/9583926.txt,20,0.206355591311,0.0153946742748,0.139250797795,0.521468892835,0.107509355813,0.0963304574117,0.0,0.49059784896
tagged_abstract_sents/9583926.txt,21,0.206355591311,-0.0042201616738,0.139250797795,0.521468892835,0.107509355813,0.145351672834,0.00408832154563,0.539793805441
tagged_abstract_sents/9583926.txt,22,0.262268704747,0.0175344745602,0.139250797795,0.521468892835,0.107509355813,0.173902926743,0.0,0.61331850038
tagged_abstract_sents/9583926.txt,23,0.262268704747,-0.00635996195911,0.139250797795,0.521468892835,0.107509355813,0.119843113522,0.00463343108504,0.858285998097
tagged_abstract_sents/9583926.txt,24,0.262268704747,0.0114717070851,0.139250797795,0.521468892835,0.107509355813,0.123917297482,0.0,0.669602025257
