tagged_abstract_sents/9625682.txt,1,0.0954875100725,-0.0394567264796,0.0616692308323,0.247294108221,0.392194555257,0.0,0.0,0.173521510645
tagged_abstract_sents/9625682.txt,3,0.0253827558421,-0.0400019827501,0.0616692308323,0.247294108221,0.392194555257,0.0,0.0,0.117328656006
tagged_abstract_sents/9625682.txt,4,0.0253827558421,0.041786457817,0.188769469584,0.123191979006,0.392194555257,0.277837730415,0.0914720681202,0.81398668559
tagged_abstract_sents/9625682.txt,5,0.0805801772764,-0.0416377515614,0.0616692308323,0.247294108221,0.392194555257,0.0,0.0,0.161159439391
tagged_abstract_sents/9625682.txt,6,0.0805801772764,-0.0340041637752,0.0616692308323,0.247294108221,0.392194555257,0.088135362035,0.0634756805573,0.314297199541
tagged_abstract_sents/9625682.txt,7,0.123690572119,-0.041092495291,0.0616692308323,0.247294108221,0.392194555257,0.0,0.0,0.19575680652
tagged_abstract_sents/9625682.txt,8,0.123690572119,-0.0138296817686,0.0616692308323,0.247294108221,0.392194555257,0.156968246405,0.0330372117883,0.831883852714
tagged_abstract_sents/9625682.txt,9,0.140209508461,-0.0405472390205,0.0616692308323,0.247294108221,0.392194555257,0.0,0.0,0.209081006847
tagged_abstract_sents/9625682.txt,10,0.140209508461,0.0248835134331,0.210342442448,0.141687475369,0.392194555257,0.28291784744,0.110357496114,1.12200994147
tagged_abstract_sents/9625682.txt,11,0.149073327961,-0.0383662139387,0.0616692308323,0.247294108221,0.392194555257,0.0,0.0,0.216608267464
tagged_abstract_sents/9625682.txt,12,0.149879129734,0.0357886388421,0.0616692308323,0.247294108221,0.392194555257,0.323680851805,0.056895884402,0.969883013822
tagged_abstract_sents/9625682.txt,13,0.149879129734,-0.041092495291,0.0616692308323,0.247294108221,0.392194555257,0.0,0.0,0.216707652612
tagged_abstract_sents/9625682.txt,14,0.176470588235,0.0232477446218,0.139250797795,0.194462959676,0.392194555257,0.301387287156,0.111759772933,1.03953994275
tagged_abstract_sents/9625682.txt,15,0.176470588235,0.00525428769704,0.139250797795,0.194462959676,0.392194555257,0.233726018468,0.066694620049,0.874574300906
tagged_abstract_sents/9625682.txt,16,0.166800966962,-0.00456032517101,0.139250797795,0.194462959676,0.392194555257,0.242476019286,0.0702184438001,0.95625385476
tagged_abstract_sents/9625682.txt,17,0.166800966962,0.0603251710122,0.139250797795,0.194462959676,0.392194555257,0.348069249279,0.0663553089924,0.954668041843
tagged_abstract_sents/9625682.txt,18,0.0954875100725,0.0886784970754,0.139250797795,0.194462959676,0.392194555257,0.294237781425,0.090148255765,0.989692380838
tagged_abstract_sents/9625682.txt,19,0.0954875100725,-0.0389114702092,0.0616692308323,0.247294108221,0.392194555257,0.0,0.0,0.173630561899
tagged_abstract_sents/9625682.txt,20,0.0342465753425,0.0303360761376,0.139250797795,0.194462959676,0.392194555257,0.285098629188,0.0921347392125,0.998934359996
tagged_abstract_sents/9625682.txt,21,0.0342465753425,0.0123426192128,0.139250797795,0.194462959676,0.392194555257,0.168739507116,0.0741839762611,0.717782584876
tagged_abstract_sents/9625682.txt,22,0.0342465753425,0.00907108159017,0.139250797795,0.194462959676,0.392194555257,0.282411805784,0.101498424166,0.9332805486
