tagged_abstract_sents/9669244.txt,1,0.206355591311,-0.057645631068,0.0616692308323,0.106008497564,0.255389134397,0.0,0.0,0.216192511521
tagged_abstract_sents/9669244.txt,3,0.206355591311,-0.057645631068,0.0616692308323,0.106008497564,0.255389134397,0.0,0.0,0.216192511521
tagged_abstract_sents/9669244.txt,4,0.0048270313757,-0.0241063548102,0.188769469584,0.129715814208,0.255389134397,0.0800067130709,0.0680372345402,0.3931995694
tagged_abstract_sents/9669244.txt,5,0.0108608205953,-0.0589695498676,0.0616692308323,0.106008497564,0.255389134397,0.0,0.0,0.059531911188
tagged_abstract_sents/9669244.txt,6,0.0108608205953,0.0553287731686,0.210342442448,0.0253702522065,0.255389134397,0.130848935801,0.040430972651,0.606285224072
tagged_abstract_sents/9669244.txt,8,0.0353982300885,-0.0589695498676,0.139250797795,0.521468892835,0.255389134397,0.0,0.0,0.242590740845
tagged_abstract_sents/9669244.txt,9,0.0518905872888,0.045178729038,0.139250797795,0.521468892835,0.255389134397,0.164878856323,0.045507397458,0.721873551824
tagged_abstract_sents/9669244.txt,10,0.0993563958166,0.0213481906443,0.139250797795,0.521468892835,0.255389134397,0.132158323213,0.0439236598372,0.67563639588
tagged_abstract_sents/9669244.txt,11,0.0993563958166,0.0301743159753,0.139250797795,0.521468892835,0.255389134397,0.150053598891,0.0501942478987,0.707420531167
tagged_abstract_sents/9669244.txt,12,0.172566371681,0.0562113857017,0.139250797795,0.521468892835,0.255389134397,0.133711944258,0.0395312938535,0.722388124584
tagged_abstract_sents/9669244.txt,13,0.206355591311,0.101665931156,0.139250797795,0.521468892835,0.255389134397,0.158877917078,0.0422779577986,0.767140263479
tagged_abstract_sents/9669244.txt,14,0.206355591311,-0.0572043248014,0.139250797795,0.521468892835,0.255389134397,0.0,0.0,0.379709674837
tagged_abstract_sents/9669244.txt,15,0.262268704747,-0.0104258605472,0.139250797795,0.521468892835,0.255389134397,0.109797393054,0.0435400879409,0.799809280875
tagged_abstract_sents/9669244.txt,16,0.262268704747,0.0407656663725,0.139250797795,0.521468892835,0.255389134397,0.148503704782,0.0312096547853,0.879136657784
