tagged_abstract_sents/9679792.txt,1,0.0954875100725,-0.0526576101293,0.0616692308323,0.247294108221,0.522401429533,0.0,0.0,0.170881333915
tagged_abstract_sents/9679792.txt,3,0.0253827558421,-0.054339224479,0.0616692308323,0.247294108221,0.522401429533,0.0,0.0,0.11446120766
tagged_abstract_sents/9679792.txt,4,0.0805801772764,0.0813109997362,0.0616692308323,0.247294108221,0.522401429533,0.233882556977,0.144540398126,0.76970214239
tagged_abstract_sents/9679792.txt,5,0.0805801772764,0.0106831970456,0.0616692308323,0.247294108221,0.522401429533,0.179875957178,0.153570302648,0.971735618857
tagged_abstract_sents/9679792.txt,6,0.123690572119,-0.0184647850171,0.0616692308323,0.247294108221,0.522401429533,0.081628348922,0.0232728337237,0.584900485121
tagged_abstract_sents/9679792.txt,7,0.140209508461,-0.00949617515168,0.0616692308323,0.247294108221,0.522401429533,0.142164942989,0.0771624579982,0.667143577122
tagged_abstract_sents/9679792.txt,8,0.140209508461,0.00283566341335,0.0616692308323,0.247294108221,0.522401429533,0.167864839565,0.118750636391,0.82666098623
tagged_abstract_sents/9679792.txt,9,0.149879129734,0.0667370087048,0.0616692308323,0.247294108221,0.522401429533,0.178828012909,0.0987763466042,0.807698386058
tagged_abstract_sents/9679792.txt,10,0.149879129734,-0.054339224479,0.0616692308323,0.247294108221,0.522401429533,0.0,0.0,0.214058306774
tagged_abstract_sents/9679792.txt,11,0.176470588235,-0.0319176998154,0.0616692308323,0.247294108221,0.522401429533,0.108116740298,0.0315157771478,0.702485502766
tagged_abstract_sents/9679792.txt,12,0.166800966962,0.0443154840412,0.139250797795,0.194462959676,0.522401429533,0.172418886297,0.112101141686,0.956247946776
tagged_abstract_sents/9679792.txt,13,0.166800966962,-0.0279939329992,0.139250797795,0.194462959676,0.522401429533,0.0762959622136,0.0478044496487,0.717147362197
tagged_abstract_sents/9679792.txt,14,0.0954875100725,-0.0408863096808,0.139250797795,0.194462959676,0.522401429533,0.0673636673402,0.0349301605888,0.694541082345
tagged_abstract_sents/9679792.txt,15,0.0954875100725,-0.0520970720127,0.0616692308323,0.247294108221,0.522401429533,0.0,0.0,0.170993441538
tagged_abstract_sents/9679792.txt,16,0.0342465753425,0.0297414930098,0.139250797795,0.194462959676,0.522401429533,0.178343564796,0.11431498829,0.989031721946
tagged_abstract_sents/9679792.txt,17,0.0342465753425,0.0263782643102,0.139250797795,0.194462959676,0.522401429533,0.223315514645,0.156197003957,1.06255114807
