tagged_abstract_sents/9694707.txt,1,0.206355591311,-0.0222153972154,0.188769469584,0.129715814208,0.0,0.210661248959,0.0153445025809,0.708075389796
tagged_abstract_sents/9694707.txt,2,0.206355591311,0.0301494676495,0.210342442448,0.0253702522065,0.0,0.359549174123,0.0112246680643,0.703233954878
tagged_abstract_sents/9694707.txt,5,0.0261464199517,-0.0295352170352,0.139250797795,0.521468892835,0.0,0.308945531102,0.0147538657966,0.768096765768
tagged_abstract_sents/9694707.txt,6,0.0518905872888,0.0498566748567,0.139250797795,0.521468892835,0.0,0.384582680463,0.00956642937775,0.719578799463
tagged_abstract_sents/9694707.txt,7,0.0993563958166,0.0177620802621,0.139250797795,0.521468892835,0.0,0.259127269388,0.0101910086187,0.651486899265
tagged_abstract_sents/9694707.txt,8,0.172566371681,0.0250819000819,0.139250797795,0.521468892835,0.0,0.313444959692,0.00945438209589,0.844626338443
tagged_abstract_sents/9694707.txt,9,0.206355591311,0.00931613431613,0.139250797795,0.521468892835,0.0,0.297962541463,0.0124502631241,0.854213992354
tagged_abstract_sents/9694707.txt,10,0.262268704747,-0.0481162981163,0.139250797795,0.521468892835,0.0,0.25296781919,0.0153445025809,0.69459931908
tagged_abstract_sents/9694707.txt,11,0.262268704747,-0.0779586404586,0.139250797795,0.521468892835,0.0,0.22800331132,0.0169411999601,0.665233813733
