tagged_abstract_sents/9694707.txt,1,0.0954875100725,-0.0222153972154,0.188769469584,0.123191979006,0.0,0.210661248959,0.0153445025809,0.617423774244
tagged_abstract_sents/9694707.txt,2,0.0253827558421,0.0301494676495,0.210342442448,0.141687475369,0.0,0.359549174123,0.0112246680643,0.593350853451
tagged_abstract_sents/9694707.txt,4,0.123690572119,-0.00813882063882,0.139250797795,0.194462959676,0.0,0.343339173271,0.0111006940375,0.769781593536
tagged_abstract_sents/9694707.txt,5,0.140209508461,-0.0295352170352,0.139250797795,0.194462959676,0.0,0.308945531102,0.0147538657966,0.761245456627
tagged_abstract_sents/9694707.txt,6,0.149879129734,0.0498566748567,0.139250797795,0.194462959676,0.0,0.384582680463,0.00956642937775,0.699867853471
tagged_abstract_sents/9694707.txt,7,0.176470588235,0.0177620802621,0.139250797795,0.194462959676,0.0,0.259127269388,0.0101910086187,0.615076473252
tagged_abstract_sents/9694707.txt,8,0.166800966962,0.0250819000819,0.139250797795,0.194462959676,0.0,0.313444959692,0.00945438209589,0.74191223472
tagged_abstract_sents/9694707.txt,9,0.0954875100725,0.00931613431613,0.139250797795,0.194462959676,0.0,0.297962541463,0.0124502631241,0.667417747415
tagged_abstract_sents/9694707.txt,10,0.0342465753425,-0.0481162981163,0.139250797795,0.194462959676,0.0,0.25296781919,0.0153445025809,0.414079835609
tagged_abstract_sents/9694707.txt,11,0.0342465753425,-0.0779586404586,0.139250797795,0.194462959676,0.0,0.22800331132,0.0169411999601,0.384714330262
