tagged_abstract_sents/9708386.txt,1,0.125905068383,-0.0188852813853,0.188769469584,0.202456734834,0.193452856478,0.381090640385,0.119028776978,0.945641027513
tagged_abstract_sents/9708386.txt,2,0.239742558327,-0.0254329004329,0.210342442448,0.226435992083,0.373497302546,0.256107483267,0.106089414183,1.09550368542
tagged_abstract_sents/9708386.txt,3,0.218020917136,0.0144480519481,0.0616692308323,0.142474783506,0.102009636969,0.368362599951,0.113489208633,0.834744840119
tagged_abstract_sents/9708386.txt,4,0.162510056315,-0.0325757575758,0.0616692308323,0.142474783506,0.188788147217,0.305336687609,0.118839928058,0.810034706888
tagged_abstract_sents/9708386.txt,5,0.101769911504,0.041829004329,0.139250797795,0.0356431803763,0.243257258782,0.30184650166,0.109500634786,0.824704478309
tagged_abstract_sents/9708386.txt,6,0.0711987127916,-0.0313852813853,0.139250797795,0.0356431803763,0.147273109988,0.335586729974,0.107711330935,0.721571437865
tagged_abstract_sents/9708386.txt,7,0.0458567980692,0.0388528138528,0.139250797795,0.0356431803763,0.221785593981,0.499070766802,0.133962829736,0.979593544755
tagged_abstract_sents/9708386.txt,8,0.0245374094932,-0.0170995670996,0.139250797795,0.0356431803763,0.38503000105,0.2899920918,0.120023980815,0.89157444085
tagged_abstract_sents/9708386.txt,9,0.00844730490748,0.0227813852814,0.139250797795,0.0356431803763,0.246574996036,0.357260134408,0.132904202953,0.82837180739
tagged_abstract_sents/9708386.txt,10,0.00120675784393,0.0352813852814,0.139250797795,0.0356431803763,0.292607649515,0.610861102549,0.127061427781,1.11887021619
tagged_abstract_sents/9708386.txt,11,0.00120675784393,-0.0278138528139,0.139250797795,0.0356431803763,0.165783549921,0.313840357149,0.126637637259,0.681982533052
