tagged_abstract_sents/9708388.txt,1,0.206355591311,-0.000103391232423,0.210342442448,0.0253702522065,0.483840161801,0.46444536857,0.0557956749971,1.1647788276
tagged_abstract_sents/9708388.txt,2,0.0048270313757,-0.0464226633581,0.0616692308323,0.106008497564,0.483840161801,0.470230609467,0.0764460550386,0.96321396845
tagged_abstract_sents/9708388.txt,3,0.0108608205953,-0.0480769230769,0.139250797795,0.521468892835,0.483840161801,0.348289198168,0.0555123866096,0.93332366961
tagged_abstract_sents/9708388.txt,5,0.0993563958166,0.0958436724566,0.139250797795,0.521468892835,0.483840161801,0.454281625484,0.0445846257854,1.19056041884
tagged_abstract_sents/9708388.txt,7,0.206355591311,0.0338089330025,0.139250797795,0.521468892835,0.483840161801,0.36403568379,0.045298613989,1.0561229796
tagged_abstract_sents/9708388.txt,8,0.262268704747,0.00568651778329,0.139250797795,0.521468892835,0.483840161801,0.505664258362,0.0527326662292,1.47925542049
