tagged_abstract_sents/9713397.txt,2,0.0108608205953,-0.0304107424961,0.188769469584,0.129715814208,0.294389198117,0.336184738126,0.0285304456109,0.854023847304
tagged_abstract_sents/9713397.txt,4,0.0993563958166,-0.0552922590837,0.188769469584,0.129715814208,0.294389198117,0.298604181234,0.0536421416925,0.835516225872
tagged_abstract_sents/9713397.txt,5,0.206355591311,0.0620063191153,0.188769469584,0.129715814208,0.294389198117,0.353921118814,0.0315507116163,0.755694133164
tagged_abstract_sents/9713397.txt,6,0.262268704747,-0.0529225908373,0.188769469584,0.129715814208,0.294389198117,0.306674057464,0.0340895477688,0.967682728034
