tagged_abstract_sents/9732337.txt,1,0.206355591311,-0.0517182570137,0.0616692308323,0.106008497564,0.454583697057,0.0,0.0,0.217377986332
tagged_abstract_sents/9732337.txt,2,0.206355591311,-0.0014496461158,0.188769469584,0.129715814208,0.454583697057,0.611063540492,0.0469061959155,1.26146132043
tagged_abstract_sents/9732337.txt,3,0.206355591311,-0.0528694465763,0.0616692308323,0.106008497564,0.454583697057,0.0,0.0,0.217147748419
tagged_abstract_sents/9732337.txt,4,0.0048270313757,0.0649356186578,0.194899689933,0.0581677376677,0.454583697057,0.578483023299,0.0465287049399,0.910220729754
tagged_abstract_sents/9732337.txt,5,0.0048270313757,-0.029078195617,0.210342442448,0.0253702522065,0.454583697057,0.29777456455,0.0283613707165,0.655216701684
tagged_abstract_sents/9732337.txt,6,0.0108608205953,-0.0521019868679,0.0616692308323,0.106008497564,0.454583697057,0.0,0.0,0.060905423788
tagged_abstract_sents/9732337.txt,7,0.0108608205953,0.0384582587192,0.210342442448,0.0253702522065,0.454583697057,0.563509007904,0.0347543925234,0.960407498571
tagged_abstract_sents/9732337.txt,8,0.0261464199517,-0.0471134987635,0.0616692308323,0.106008497564,0.454583697057,0.0,0.0,0.074131600894
tagged_abstract_sents/9732337.txt,10,0.0518905872888,-0.0160313805747,0.139250797795,0.521468892835,0.454583697057,0.463135361538,0.0468411214953,1.06015222862
tagged_abstract_sents/9732337.txt,11,0.0993563958166,-0.0524857167221,0.139250797795,0.521468892835,0.454583697057,0.0,0.0,0.295054040057
tagged_abstract_sents/9732337.txt,12,0.0993563958166,0.0261789033854,0.139250797795,0.521468892835,0.454583697057,0.479664640226,0.0303388866315,0.970794563795
tagged_abstract_sents/9732337.txt,13,0.172566371681,0.105227253347,0.139250797795,0.521468892835,0.454583697057,0.749574393136,0.0412982158029,1.32065972051
tagged_abstract_sents/9732337.txt,14,0.172566371681,-0.0321480344504,0.139250797795,0.521468892835,0.454583697057,0.323487227505,0.0541044529962,1.1371767601
tagged_abstract_sents/9732337.txt,15,0.206355591311,0.0979363861175,0.139250797795,0.521468892835,0.454583697057,0.800029584717,0.0448473520249,1.38156382218
tagged_abstract_sents/9732337.txt,16,0.206355591311,0.0123646286348,0.139250797795,0.521468892835,0.454583697057,0.471909215907,0.0366593033135,1.0908951396
tagged_abstract_sents/9732337.txt,17,0.262268704747,-0.0513345271595,0.139250797795,0.521468892835,0.454583697057,0.0,0.0,0.425614125113
