tagged_abstract_sents/9739977.txt,1,0.125905068383,-0.0447403142617,0.0616692308323,0.142474783506,0.0,0.0,0.0,0.165353042322
tagged_abstract_sents/9739977.txt,2,0.125905068383,0.020031186278,0.188769469584,0.202456734834,0.169539361023,0.208256564713,0.0630554775938,0.700703450534
tagged_abstract_sents/9739977.txt,3,0.239742558327,-0.0436607892527,0.0616692308323,0.142474783506,0.0,0.0,0.0,0.256638939279
tagged_abstract_sents/9739977.txt,4,0.239742558327,0.0358642197433,0.194899689933,0.13295610691,0.28478574652,0.159244041999,0.0867113053473,0.867044661515
tagged_abstract_sents/9739977.txt,5,0.218020917136,-0.0429411059134,0.0616692308323,0.142474783506,0.0,0.0,0.0,0.239405562994
tagged_abstract_sents/9739977.txt,6,0.218020917136,0.016792611251,0.0616692308323,0.142474783506,0.21109056508,0.109423464747,0.0707082046964,0.64257454095
tagged_abstract_sents/9739977.txt,7,0.162510056315,-0.0418615809044,0.0616692308323,0.142474783506,0.0,0.0,0.0,0.195212779339
tagged_abstract_sents/9739977.txt,8,0.162510056315,0.113590020391,0.210342442448,0.226435992083,0.0814847084319,0.227195182889,0.0763713474912,0.710879306792
tagged_abstract_sents/9739977.txt,9,0.101769911504,0.031905961377,0.0616692308323,0.142474783506,0.179524618648,0.194467693117,0.0833822366239,0.618748720335
tagged_abstract_sents/9739977.txt,10,0.101769911504,-0.0418615809044,0.0616692308323,0.142474783506,0.0,0.0,0.0,0.146620663491
tagged_abstract_sents/9739977.txt,11,0.0711987127916,0.000599736116109,0.0616692308323,0.142474783506,0.122617266792,0.215604366225,0.073166519139,0.54204412008
tagged_abstract_sents/9739977.txt,12,0.0711987127916,-0.0328655391628,0.0616692308323,0.142474783506,3.77089944785e-05,0.0499053415059,0.0599681915988,0.233874154968
tagged_abstract_sents/9739977.txt,13,0.0458567980692,-0.0447403142617,0.139250797795,0.0356431803763,0.0,0.0,0.0,0.108055728613
tagged_abstract_sents/9739977.txt,14,0.0458567980692,-0.0321458558234,0.139250797795,0.0356431803763,0.429952610755,0.0392879387081,0.0158925063149,0.595707676079
tagged_abstract_sents/9739977.txt,15,0.0245374094932,0.0175122945904,0.139250797795,0.0356431803763,0.0467269587423,0.115290762856,0.0715358835086,0.33700434463
tagged_abstract_sents/9739977.txt,16,0.0245374094932,-0.00479788892887,0.139250797795,0.0356431803763,0.0499405633765,0.0588392847622,0.048582655066,0.256351206024
tagged_abstract_sents/9739977.txt,17,0.00844730490748,0.0761664867458,0.139250797795,0.0356431803763,0.102647611956,0.175888528942,0.0639685658153,0.444814200998
tagged_abstract_sents/9739977.txt,18,0.00844730490748,0.0225500779657,0.139250797795,0.0356431803763,0.225527250468,0.166281030346,0.0787102005177,0.56210469386
tagged_abstract_sents/9739977.txt,19,0.00120675784393,-0.000479788892887,0.139250797795,0.0356431803763,0.0976258057142,0.0731593195797,0.0496988276949,0.301671754496
tagged_abstract_sents/9739977.txt,20,0.00120675784393,-0.0433009475831,0.0616692308323,0.142474783506,0.0,0.0,0.0,0.0658822672264
tagged_abstract_sents/9739977.txt,21,0.00120675784393,0.038383111431,0.139250797795,0.0356431803763,0.178747294335,0.197881197066,0.065028249277,0.53061712225
