tagged_abstract_sents/9739977.txt,1,0.0954875100725,-0.0447403142617,0.0616692308323,0.247294108221,0.178747294335,0.0,0.0,0.172464793088
tagged_abstract_sents/9739977.txt,2,0.0954875100725,0.020031186278,0.188769469584,0.123191979006,0.178747294335,0.208256564713,0.0630554775938,0.652589977137
tagged_abstract_sents/9739977.txt,3,0.0253827558421,-0.0436607892527,0.0616692308323,0.247294108221,0.178747294335,0.0,0.0,0.116596894706
tagged_abstract_sents/9739977.txt,5,0.0805801772764,-0.0429411059134,0.0616692308323,0.247294108221,0.178747294335,0.0,0.0,0.160898768521
tagged_abstract_sents/9739977.txt,6,0.0805801772764,0.016792611251,0.0616692308323,0.247294108221,0.178747294335,0.109423464747,0.0707082046964,0.564067746477
tagged_abstract_sents/9739977.txt,7,0.123690572119,-0.0418615809044,0.0616692308323,0.247294108221,0.178747294335,0.0,0.0,0.195602989397
tagged_abstract_sents/9739977.txt,8,0.123690572119,0.113590020391,0.210342442448,0.141687475369,0.178747294335,0.227195182889,0.0763713474912,0.654399164421
tagged_abstract_sents/9739977.txt,9,0.140209508461,0.031905961377,0.0616692308323,0.247294108221,0.178747294335,0.194467693117,0.0833822366239,0.680946195315
tagged_abstract_sents/9739977.txt,10,0.140209508461,-0.0418615809044,0.0616692308323,0.247294108221,0.178747294335,0.0,0.0,0.20881813847
tagged_abstract_sents/9739977.txt,11,0.149879129734,0.000599736116109,0.0616692308323,0.247294108221,0.178747294335,0.215604366225,0.073166519139,0.636434251049
tagged_abstract_sents/9739977.txt,12,0.149879129734,-0.0328655391628,0.0616692308323,0.247294108221,0.178747294335,0.0499053415059,0.0599681915988,0.328264285936
tagged_abstract_sents/9739977.txt,13,0.176470588235,-0.0447403142617,0.139250797795,0.194462959676,0.178747294335,0.0,0.0,0.260192694536
tagged_abstract_sents/9739977.txt,14,0.176470588235,-0.0321458558234,0.139250797795,0.194462959676,0.178747294335,0.0392879387081,0.0158925063149,0.747844642002
tagged_abstract_sents/9739977.txt,15,0.166800966962,0.0175122945904,0.139250797795,0.194462959676,0.178747294335,0.115290762856,0.0715358835086,0.498461124395
tagged_abstract_sents/9739977.txt,16,0.166800966962,-0.00479788892887,0.139250797795,0.194462959676,0.178747294335,0.0588392847622,0.048582655066,0.417807985789
tagged_abstract_sents/9739977.txt,17,0.0954875100725,0.0761664867458,0.139250797795,0.194462959676,0.178747294335,0.175888528942,0.0639685658153,0.56209229892
tagged_abstract_sents/9739977.txt,18,0.0954875100725,0.0225500779657,0.139250797795,0.194462959676,0.178747294335,0.166281030346,0.0787102005177,0.679382791782
tagged_abstract_sents/9739977.txt,19,0.0342465753425,-0.000479788892887,0.139250797795,0.194462959676,0.178747294335,0.0731593195797,0.0496988276949,0.375749542284
tagged_abstract_sents/9739977.txt,20,0.0342465753425,-0.0433009475831,0.0616692308323,0.247294108221,0.178747294335,0.0,0.0,0.12375991864
tagged_abstract_sents/9739977.txt,21,0.0342465753425,0.038383111431,0.139250797795,0.194462959676,0.178747294335,0.197881197066,0.065028249277,0.604694910039
