tagged_abstract_sents/9742977.txt,1,0.125905068383,-0.0520512548228,0.0616692308323,0.142474783506,0.0,0.0,0.0,0.16389085421
tagged_abstract_sents/9742977.txt,2,0.239742558327,0.00720328483947,0.188769469584,0.202456734834,0.345678937499,0.800689270632,0.0434791698832,1.53820383689
tagged_abstract_sents/9742977.txt,3,0.239742558327,-0.0186011114651,0.0616692308323,0.142474783506,0.217873454556,0.435967917641,0.0387767935258,0.954269040559
tagged_abstract_sents/9742977.txt,4,0.218020917136,-0.0530069732045,0.0616692308323,0.142474783506,0.0,0.0,0.0,0.237392389536
tagged_abstract_sents/9742977.txt,5,0.218020917136,0.0333262539379,0.0616692308323,0.142474783506,0.205540486643,0.641724225479,0.0387610492654,1.14068479635
tagged_abstract_sents/9742977.txt,6,0.162510056315,0.0202647693887,0.210342442448,0.226435992083,0.155093367314,0.68935176417,0.0460010207057,1.19760916997
tagged_abstract_sents/9742977.txt,7,0.162510056315,0.0110261583661,0.0616692308323,0.142474783506,0.0989579775643,0.686289154598,0.0454724409449,1.0365099003
tagged_abstract_sents/9742977.txt,8,0.101769911504,-0.0122296555874,0.0616692308323,0.142474783506,0.266716480054,0.487534007463,0.0328332537978,0.939630789869
tagged_abstract_sents/9742977.txt,9,0.0852775543041,0.0377862730523,0.210342442448,0.226435992083,0.186796569566,0.74267804365,0.0493680965661,1.22772402668
tagged_abstract_sents/9742977.txt,10,0.0711987127916,-0.0526884004106,0.0616692308323,0.142474783506,0.0,0.0,0.0,0.119998340619
tagged_abstract_sents/9742977.txt,11,0.0458567980692,-0.0195568298467,0.139250797795,0.0356431803763,0.177125722668,0.4375120133,0.0387439851269,0.766474146592
tagged_abstract_sents/9742977.txt,12,0.0458567980692,0.0240876429153,0.139250797795,0.0356431803763,0.100306417094,0.678063984102,0.0418193954204,0.942011116665
tagged_abstract_sents/9742977.txt,13,0.0245374094932,0.0199461965948,0.139250797795,0.0356431803763,0.126051773296,0.765805138074,0.0452636291557,1.04105806045
tagged_abstract_sents/9742977.txt,14,0.0245374094932,0.0129375951294,0.139250797795,0.0356431803763,0.233844016378,0.570140334859,0.0358902012248,0.942410352093
tagged_abstract_sents/9742977.txt,15,0.00844730490748,-0.00107960780149,0.139250797795,0.0356431803763,0.153266849563,0.66303725195,0.0404335233958,0.943597900284
tagged_abstract_sents/9742977.txt,16,0.00844730490748,0.0454320201055,0.139250797795,0.0356431803763,0.252115584717,0.828473948636,0.0409605049369,1.21771263925
tagged_abstract_sents/9742977.txt,17,0.00120675784393,-0.0507769636473,0.139250797795,0.0356431803763,0.0,0.0,0.0,0.071128366556
tagged_abstract_sents/9742977.txt,18,0.00120675784393,0.0479806024566,0.139250797795,0.0356431803763,0.256989188114,0.912783157592,0.0363094004697,1.29696162595
