tagged_abstract_sents/9745406.txt,1,0.0954875100725,-0.0239035087719,0.188769469584,0.123191979006,3.61972291653e-05,0.0682314031802,0.0215268032557,0.39647916383
tagged_abstract_sents/9745406.txt,2,0.0253827558421,0.000584795321637,0.188769469584,0.123191979006,3.61972291653e-05,0.164665006682,0.0420291888858,0.479350151895
tagged_abstract_sents/9745406.txt,4,0.0805801772764,-0.0293859649123,0.0616692308323,0.247294108221,3.61972291653e-05,0.120547307555,0.0418186921134,0.58621026914
tagged_abstract_sents/9745406.txt,5,0.123690572119,-0.010014619883,0.194899689933,0.293363477728,3.61972291653e-05,0.206616620642,0.0296281833823,0.717145515124
tagged_abstract_sents/9745406.txt,6,0.131345688961,-0.0293859649123,0.139250797795,0.194462959676,3.61972291653e-05,0.10160445515,0.0224930836775,0.562965009646
tagged_abstract_sents/9745406.txt,7,0.140209508461,-0.0359649122807,0.139250797795,0.194462959676,3.61972291653e-05,0.108071719582,0.0295256806062,0.576086425203
tagged_abstract_sents/9745406.txt,8,0.149879129734,0.022149122807,0.139250797795,0.194462959676,3.61972291653e-05,0.277304701838,0.0344537245831,0.65196345185
tagged_abstract_sents/9745406.txt,9,0.150684931507,0.0652777777778,0.139250797795,0.194462959676,3.61972291653e-05,0.273229514091,0.045786677248,0.675357672844
tagged_abstract_sents/9745406.txt,10,0.176470588235,0.0269005847953,0.139250797795,0.194462959676,3.61972291653e-05,0.124249992363,0.0412924501824,0.516668037813
tagged_abstract_sents/9745406.txt,11,0.166800966962,0.0250730994152,0.139250797795,0.194462959676,3.61972291653e-05,0.129553448533,0.0298203760876,0.456293843774
tagged_abstract_sents/9745406.txt,12,0.131345688961,-0.0125730994152,0.139250797795,0.194462959676,3.61972291653e-05,0.0902790843618,0.02649920479,0.469636054848
tagged_abstract_sents/9745406.txt,13,0.0954875100725,0.0115497076023,0.139250797795,0.194462959676,3.61972291653e-05,0.135515624894,0.0371960178964,0.529073790887
tagged_abstract_sents/9745406.txt,14,0.0342465753425,-0.025,0.139250797795,0.194462959676,3.61972291653e-05,0.0759011546122,0.0313321256347,0.417920165035
tagged_abstract_sents/9745406.txt,15,0.0342465753425,-0.0286549707602,0.139250797795,0.194462959676,3.61972291653e-05,0.123468652276,0.0642365983722,0.3373720008
