tagged_abstract_sents/9762064.txt,1,0.206355591311,-0.0397107200668,0.0616692308323,0.106008497564,0.223050622025,0.0,0.0,0.219779493721
tagged_abstract_sents/9762064.txt,3,0.206355591311,-0.0379875724505,0.0616692308323,0.106008497564,0.223050622025,0.0,0.0,0.220124123244
tagged_abstract_sents/9762064.txt,4,0.206355591311,0.0102605608062,0.0616692308323,0.106008497564,0.223050622025,0.460595880103,0.084776660748,1.08895058809
tagged_abstract_sents/9762064.txt,5,0.0048270313757,0.025768889353,0.0616692308323,0.106008497564,0.223050622025,0.465262784808,0.0787390131242,0.906065353062
tagged_abstract_sents/9762064.txt,6,0.0048270313757,0.00107044018589,0.0616692308323,0.106008497564,0.223050622025,0.204769432201,0.0507154276182,0.567311585046
tagged_abstract_sents/9762064.txt,7,0.0108608205953,-0.0362644248342,0.0616692308323,0.106008497564,0.223050622025,0.0,0.0,0.0640729361947
tagged_abstract_sents/9762064.txt,8,0.0108608205953,-0.0224792439037,0.0616692308323,0.106008497564,0.223050622025,0.264287909446,0.0761364426218,0.407254324448
tagged_abstract_sents/9762064.txt,10,0.0261464199517,0.030938332202,0.0616692308323,0.106008497564,0.223050622025,0.316008102714,0.0540688739062,0.696771158128
tagged_abstract_sents/9762064.txt,11,0.0353982300885,-0.0282230692914,0.0616692308323,0.106008497564,0.223050622025,0.128348827782,0.0471953847223,0.60393392869
tagged_abstract_sents/9762064.txt,12,0.0518905872888,-0.0362644248342,0.0616692308323,0.106008497564,0.223050622025,0.0,0.0,0.0968967495495
tagged_abstract_sents/9762064.txt,13,0.0518905872888,0.0866534384627,0.0616692308323,0.106008497564,0.223050622025,0.517327117258,0.0698493832573,0.838752863135
tagged_abstract_sents/9762064.txt,14,0.0993563958166,-0.036838807373,0.0616692308323,0.106008497564,0.223050622025,0.0,0.0,0.134754519864
tagged_abstract_sents/9762064.txt,15,0.0993563958166,0.0263432718918,0.139250797795,0.521468892835,0.223050622025,0.441389967508,0.0644392129368,1.03151997015
tagged_abstract_sents/9762064.txt,16,0.172566371681,0.0131324735001,0.139250797795,0.521468892835,0.223050622025,0.305711298944,0.0648806213943,1.07441595194
tagged_abstract_sents/9762064.txt,17,0.172566371681,0.0430003655162,0.139250797795,0.521468892835,0.223050622025,0.346488987092,0.0896797262961,1.08979871245
tagged_abstract_sents/9762064.txt,18,0.206355591311,-0.0259255391363,0.139250797795,0.521468892835,0.223050622025,0.209428093008,0.0774194295776,0.74693028518
tagged_abstract_sents/9762064.txt,19,0.206355591311,-0.0385619549893,0.0616692308323,0.106008497564,0.223050622025,0.0,0.0,0.220009246737
tagged_abstract_sents/9762064.txt,20,0.262268704747,0.0125580909613,0.139250797795,0.521468892835,0.223050622025,0.363857474738,0.071898241468,1.25482103
tagged_abstract_sents/9762064.txt,21,0.262268704747,0.00107044018589,0.139250797795,0.521468892835,0.223050622025,0.262675626233,0.0560010773615,1.05530326163
tagged_abstract_sents/9762064.txt,22,0.262268704747,0.0137068560388,0.139250797795,0.521468892835,0.223050622025,0.281386975377,0.0631310673988,1.00619106655
