tagged_abstract_sents/9794949.txt,1,0.125905068383,-0.065026522773,0.0616692308323,0.142474783506,0.0,0.0,0.0,0.16129580062
tagged_abstract_sents/9794949.txt,2,0.239742558327,-0.00676788000732,0.188769469584,0.202456734834,0.123493846836,0.469377261298,0.0505193111821,0.988952645219
tagged_abstract_sents/9794949.txt,3,0.218020917136,-0.0669471373697,0.0616692308323,0.142474783506,0.0,0.0,0.0,0.234604356703
tagged_abstract_sents/9794949.txt,4,0.218020917136,0.0790195719773,0.210342442448,0.226435992083,0.228581798981,0.554972694416,0.0472555882587,1.19413274861
tagged_abstract_sents/9794949.txt,5,0.162510056315,-0.00228644594842,0.0616692308323,0.142474783506,1.5720327008e-05,0.431320470054,0.0652582853203,0.699722282031
tagged_abstract_sents/9794949.txt,6,0.101769911504,0.00795683190049,0.0616692308323,0.142474783506,0.0,0.445308597579,0.0442370969258,0.646130040556
tagged_abstract_sents/9794949.txt,7,0.0852775543041,-0.0663069325041,0.0616692308323,0.142474783506,0.0,0.0,0.0,0.12853770741
tagged_abstract_sents/9794949.txt,8,0.0711987127916,0.0322846167917,0.139250797795,0.0356431803763,0.180868790243,0.572312966215,0.0422520085912,0.939168011651
tagged_abstract_sents/9794949.txt,9,0.0458567980692,0.0393268703128,0.139250797795,0.0356431803763,0.164057559739,0.671065195524,0.0458510145134,1.0058429353
tagged_abstract_sents/9794949.txt,10,0.0245374094932,-0.00292665081397,0.139250797795,0.0356431803763,0.0,0.46412882387,0.04708871004,0.610580484352
tagged_abstract_sents/9794949.txt,11,0.0245374094932,-0.0637461130419,0.139250797795,0.0356431803763,0.0,0.0,0.0,0.0871990579964
tagged_abstract_sents/9794949.txt,12,0.00844730490748,0.00667642216938,0.139250797795,0.0356431803763,0.218221225102,0.551301986542,0.0522357807653,0.91017047378
tagged_abstract_sents/9794949.txt,13,0.00120675784393,0.0482897384306,0.139250797795,0.0356431803763,0.11170454731,0.603648524683,0.0480906966946,0.854385475659
tagged_abstract_sents/9794949.txt,14,0.00120675784393,0.0604536308762,0.139250797795,0.0356431803763,8.1581738921e-06,0.642041576445,0.0406116117595,0.776035831839
