tagged_abstract_sents/9794737.txt,1,0.125905068383,-0.0698758605735,0.0616692308323,0.142474783506,0.0,0.0,0.0,0.16032593306
tagged_abstract_sents/9794737.txt,2,0.239742558327,0.0478126524638,0.188769469584,0.202456734834,0.768391792157,0.229434961369,0.0621569260575,1.41646201198
tagged_abstract_sents/9794737.txt,3,0.218020917136,-0.0719900254784,0.0616692308323,0.142474783506,0.0,0.0,0.0,0.233595779081
tagged_abstract_sents/9794737.txt,4,0.162510056315,-0.0578955927793,0.205068369407,0.26003320229,0.0,0.0449337359613,0.0710364869228,0.414943294771
tagged_abstract_sents/9794737.txt,5,0.162510056315,-0.062123922589,0.0616692308323,0.142474783506,0.0,0.0,0.0,0.191160311002
tagged_abstract_sents/9794737.txt,6,0.101769911504,0.0259662817802,0.0616692308323,0.142474783506,0.483835824645,0.253800437533,0.0710364869228,0.968858985128
tagged_abstract_sents/9794737.txt,7,0.0711987127916,0.0964384452757,0.139250797795,0.0356431803763,0.298214243957,0.287800463892,0.0789294299143,0.821509150062
tagged_abstract_sents/9794737.txt,8,0.0458567980692,-0.0712853038434,0.139250797795,0.0356431803763,0.0,0.0,0.0,0.102746730697
tagged_abstract_sents/9794737.txt,9,0.0458567980692,0.151406732802,0.139250797795,0.0356431803763,0.713549609049,0.26367900087,0.0710364869228,1.19555023487
tagged_abstract_sents/9794737.txt,10,0.0245374094932,0.0287851683201,0.139250797795,0.0356431803763,0.64386927053,0.184354207941,0.0591970724357,0.993125865175
tagged_abstract_sents/9794737.txt,11,0.00844730490748,-0.0684664173036,0.139250797795,0.0356431803763,0.0,0.0,0.0,0.0733829134755
tagged_abstract_sents/9794737.txt,12,0.00120675784393,0.0280804466851,0.139250797795,0.0356431803763,0.571850203337,0.219307356552,0.0757722527177,0.953829661229
tagged_abstract_sents/9794737.txt,13,0.00120675784393,0.0231473952404,0.139250797795,0.0356431803763,0.487434284539,0.248005014028,0.0532773651921,0.874629902092
