tagged_abstract_sents/9798179.txt,1,0.125905068383,-0.037430982145,0.0616692308323,0.142474783506,0.0,0.0,0.0,0.166814908745
tagged_abstract_sents/9798179.txt,2,0.125905068383,-4.78045748978e-05,0.188769469584,0.202456734834,0.459202771667,0.283470230667,0.00550171613164,1.0040109675
tagged_abstract_sents/9798179.txt,3,0.239742558327,0.0312880942706,0.188769469584,0.202456734834,0.431381493834,0.44854540346,0.020707567804,1.25380788586
tagged_abstract_sents/9798179.txt,4,0.239742558327,-0.0379807347563,0.0616692308323,0.142474783506,0.0,0.0,0.0,0.257774950178
tagged_abstract_sents/9798179.txt,5,0.218020917136,0.0389846308292,0.0616692308323,0.142474783506,0.407003985054,0.555032603097,0.0082139868386,1.22604128533
tagged_abstract_sents/9798179.txt,6,0.218020917136,-0.0396299925903,0.0616692308323,0.142474783506,0.0,0.0,0.0,0.240067785659
tagged_abstract_sents/9798179.txt,7,0.162510056315,-0.0143413724693,0.0616692308323,0.142474783506,0.225919342018,0.257790310266,0.0123168197725,0.696743293083
tagged_abstract_sents/9798179.txt,8,0.162510056315,0.0279895786027,0.0616692308323,0.142474783506,0.174695157916,0.413685215708,0.00836006610285,0.805923450967
tagged_abstract_sents/9798179.txt,9,0.162510056315,-0.039080239979,0.0616692308323,0.142474783506,0.0,0.0,0.0,0.195769047524
tagged_abstract_sents/9798179.txt,10,0.101769911504,-0.0220379090279,0.0616692308323,0.142474783506,0.334215568593,0.284350173187,0.000117773739821,0.769268913386
tagged_abstract_sents/9798179.txt,11,0.101769911504,-0.0363314769223,0.0616692308323,0.142474783506,0.0,0.0,0.0,0.147726684287
tagged_abstract_sents/9798179.txt,12,0.0711987127916,-0.00829409374477,0.0616692308323,0.142474783506,0.439885738315,0.301623177027,0.010693975753,0.881080093048
tagged_abstract_sents/9798179.txt,13,0.0711987127916,-0.035781724311,0.0616692308323,0.142474783506,0.0,0.0,0.0,0.123379675839
tagged_abstract_sents/9798179.txt,14,0.0458567980692,0.0142457633195,0.194899689933,0.13295610691,0.304630139933,0.398624438257,0.00250887756677,0.882634723916
tagged_abstract_sents/9798179.txt,15,0.0458567980692,-0.0313837034204,0.0616692308323,0.142474783506,0.0,0.0,0.0,0.103985748239
tagged_abstract_sents/9798179.txt,16,0.0458567980692,0.0307383416593,0.139250797795,0.0356431803763,0.463584716733,0.332615483067,0.00434893554972,0.923700595147
tagged_abstract_sents/9798179.txt,17,0.0245374094932,-0.039080239979,0.139250797795,0.0356431803763,0.0,0.0,0.0,0.092132232609
tagged_abstract_sents/9798179.txt,18,0.0245374094932,0.0230418051007,0.139250797795,0.0356431803763,0.259378260874,0.286102674324,0.0112515983579,0.661289175181
tagged_abstract_sents/9798179.txt,19,0.00844730490748,0.052178693501,0.139250797795,0.0356431803763,0.327621275559,0.631538182791,0.010544955919,1.06721634991
tagged_abstract_sents/9798179.txt,20,0.00844730490748,0.047230919999,0.139250797795,0.0356431803763,0.234100916546,0.607493844208,0.0109361329834,0.949053274674
tagged_abstract_sents/9798179.txt,21,0.00120675784393,-0.037430982145,0.0616692308323,0.142474783506,0.0,0.0,0.0,0.067056260314
tagged_abstract_sents/9798179.txt,22,0.00120675784393,0.0186437842101,0.139250797795,0.0356431803763,0.420598236178,0.445784624666,0.00567815536216,0.957073532333
tagged_abstract_sents/9798179.txt,23,0.00120675784393,0.094509644573,0.139250797795,0.0356431803763,0.363458434162,0.694982544036,0.0117563429571,1.17038300935
