tagged_abstract_sents/9834256.txt,1,0.125905068383,-0.0601291837933,0.0616692308323,0.142474783506,0.0,0.0,0.0,0.162275268416
tagged_abstract_sents/9834256.txt,2,0.239742558327,0.0139166177334,0.188769469584,0.202456734834,0.219725054829,0.312064179057,0.0602370706641,0.941725430001
tagged_abstract_sents/9834256.txt,3,0.218020917136,0.00093951849677,0.0616692308323,0.142474783506,0.109793442797,0.303223028534,0.0619613324016,0.723159491609
tagged_abstract_sents/9834256.txt,4,0.162510056315,-0.0708162066941,0.0616692308323,0.142474783506,0.0,0.0,0.0,0.189421854181
tagged_abstract_sents/9834256.txt,5,0.162510056315,0.118496770405,0.210342442448,0.226435992083,0.396300527245,0.414198912481,0.0592243186583,1.19653317637
tagged_abstract_sents/9834256.txt,6,0.101769911504,-0.015854374633,0.0616692308323,0.142474783506,0.137158068341,0.216338261752,0.0618847958471,0.567203230684
tagged_abstract_sents/9834256.txt,7,0.0711987127916,-0.0708162066941,0.0616692308323,0.142474783506,0.0,0.0,0.0,0.116372779362
tagged_abstract_sents/9834256.txt,8,0.0458567980692,0.0772753963594,0.139250797795,0.0356431803763,0.257517957163,0.353529716188,0.0637844236227,0.807290967711
tagged_abstract_sents/9834256.txt,9,0.0458567980692,-0.00135055783911,0.139250797795,0.0356431803763,1.44034154512e-05,0.164374888438,0.077380952381,0.358503924133
tagged_abstract_sents/9834256.txt,10,0.0245374094932,-0.0677627715796,0.0616692308323,0.142474783506,0.0,0.0,0.0,0.0796544237465
tagged_abstract_sents/9834256.txt,11,0.00844730490748,-0.00287727539636,0.139250797795,0.0356431803763,0.348488434703,0.260767517952,0.065335804133,0.761092498645
tagged_abstract_sents/9834256.txt,12,0.00120675784393,0.014679976512,0.139250797795,0.0356431803763,0.25869151974,0.27109526781,0.061087328013,0.675093870151
tagged_abstract_sents/9834256.txt,13,0.00120675784393,0.0642982971227,0.139250797795,0.0356431803763,0.230240841333,0.319402665057,0.0825885468388,0.726375471939
