tagged_abstract_sents/9834256.txt,1,0.206355591311,-0.0601291837933,0.0616692308323,0.106008497564,0.230240841333,0.0,0.0,0.215695800976
tagged_abstract_sents/9834256.txt,2,0.206355591311,0.0139166177334,0.188769469584,0.129715814208,0.230240841333,0.312064179057,0.0602370706641,0.893193580201
tagged_abstract_sents/9834256.txt,3,0.0048270313757,0.00093951849677,0.0616692308323,0.106008497564,0.230240841333,0.303223028534,0.0619613324016,0.541664497219
tagged_abstract_sents/9834256.txt,4,0.0108608205953,-0.0708162066941,0.0616692308323,0.106008497564,0.230240841333,0.0,0.0,0.0571625798227
tagged_abstract_sents/9834256.txt,6,0.0261464199517,-0.015854374633,0.0616692308323,0.106008497564,0.230240841333,0.216338261752,0.0618847958471,0.49576455166
tagged_abstract_sents/9834256.txt,7,0.0518905872888,-0.0708162066941,0.0616692308323,0.106008497564,0.230240841333,0.0,0.0,0.0899863931775
tagged_abstract_sents/9834256.txt,9,0.0993563958166,-0.00135055783911,0.139250797795,0.521468892835,0.230240841333,0.164374888438,0.077380952381,0.547051316068
tagged_abstract_sents/9834256.txt,10,0.172566371681,-0.0677627715796,0.0616692308323,0.106008497564,0.230240841333,0.0,0.0,0.187137707715
tagged_abstract_sents/9834256.txt,11,0.206355591311,-0.00287727539636,0.139250797795,0.521468892835,0.230240841333,0.260767517952,0.065335804133,1.06516684151
tagged_abstract_sents/9834256.txt,12,0.262268704747,0.014679976512,0.139250797795,0.521468892835,0.230240841333,0.27109526781,0.061087328013,1.02969114141
tagged_abstract_sents/9834256.txt,13,0.262268704747,0.0642982971227,0.139250797795,0.521468892835,0.230240841333,0.319402665057,0.0825885468388,1.0809727432
