tagged_abstract_sents/9841303.txt,1,0.0954875100725,-0.0616068690586,0.0616692308323,0.247294108221,0.397101826021,0.0,0.0,0.169091482129
tagged_abstract_sents/9841303.txt,3,0.0451248992748,-0.0629868138608,0.0616692308323,0.247294108221,0.397101826021,0.0,0.0,0.12852540453
tagged_abstract_sents/9841303.txt,4,0.0805801772764,0.0271695798835,0.210342442448,0.141687475369,0.397101826021,0.206693655709,0.0413630843959,0.707887626485
tagged_abstract_sents/9841303.txt,5,0.123690572119,0.0096902790555,0.194899689933,0.293363477728,0.397101826021,0.225219670629,0.0329576502732,0.73561750306
tagged_abstract_sents/9841303.txt,6,0.131345688961,-0.0349279362159,0.194899689933,0.293363477728,0.397101826021,0.156323763383,0.0478849531616,0.605809464248
tagged_abstract_sents/9841303.txt,7,0.140209508461,-0.0353879178166,0.0616692308323,0.247294108221,0.397101826021,0.0841247485284,0.0279932669789,0.659859077239
tagged_abstract_sents/9841303.txt,8,0.149879129734,-0.0629868138608,0.139250797795,0.194462959676,0.397101826021,0.0,0.0,0.235270227815
tagged_abstract_sents/9841303.txt,9,0.150684931507,0.0492486967188,0.139250797795,0.194462959676,0.397101826021,0.249849186758,0.0492827868852,0.795878862862
tagged_abstract_sents/9841303.txt,10,0.176470588235,0.0257896350813,0.139250797795,0.194462959676,0.397101826021,0.209402658466,0.0518208430913,0.606499740002
tagged_abstract_sents/9841303.txt,11,0.166800966962,0.138945108862,0.139250797795,0.194462959676,0.397101826021,0.234261276668,0.0365095628415,0.694740252198
tagged_abstract_sents/9841303.txt,12,0.131345688961,-0.0358478994174,0.139250797795,0.194462959676,0.397101826021,0.144611206384,0.0430653135571,0.543550979414
tagged_abstract_sents/9841303.txt,13,0.0954875100725,-0.0284881938056,0.139250797795,0.194462959676,0.397101826021,0.146514536123,0.0374090965118,0.49185576738
tagged_abstract_sents/9841303.txt,14,0.0342465753425,-0.0611468874578,0.0616692308323,0.247294108221,0.397101826021,0.0,0.0,0.120190730665
tagged_abstract_sents/9841303.txt,15,0.0342465753425,0.0842072983747,0.139250797795,0.194462959676,0.397101826021,0.311357952369,0.0410586681078,0.921721453247
