tagged_abstract_sents/9862624.txt,1,0.206355591311,-0.0597614563716,0.0616692308323,0.106008497564,0.387112201598,0.0,0.0,0.21576934646
tagged_abstract_sents/9862624.txt,3,0.0048270313757,0.0576271186441,0.0616692308323,0.106008497564,0.387112201598,0.155354116001,0.0233593251011,0.677539319881
tagged_abstract_sents/9862624.txt,4,0.0048270313757,-0.061644695543,0.0616692308323,0.106008497564,0.387112201598,0.0,0.0,0.0541698506773
tagged_abstract_sents/9862624.txt,5,0.0108608205953,0.028750784683,0.0616692308323,0.106008497564,0.387112201598,0.135469110446,0.0143223067916,0.480078920341
tagged_abstract_sents/9862624.txt,6,0.016894609815,0.00991839296924,0.0616692308323,0.106008497564,0.387112201598,0.159437135312,0.0225282557784,0.59185105592
tagged_abstract_sents/9862624.txt,7,0.0261464199517,-0.061644695543,0.139250797795,0.521468892835,0.387112201598,0.0,0.0,0.234654263601
tagged_abstract_sents/9862624.txt,8,0.0518905872888,0.139234149404,0.139250797795,0.521468892835,0.387112201598,0.208100808972,0.0241022638564,0.84558312353
tagged_abstract_sents/9862624.txt,9,0.0683829444891,-0.00891399874451,0.139250797795,0.521468892835,0.387112201598,0.0882403610441,0.014825192372,0.562641184063
tagged_abstract_sents/9862624.txt,10,0.0993563958166,-0.0346516007533,0.139250797795,0.521468892835,0.387112201598,0.0615532647534,0.012082180115,0.595172554053
tagged_abstract_sents/9862624.txt,12,0.214802896219,-0.0591337099812,0.0616692308323,0.106008497564,0.387112201598,0.0,0.0,0.222652739664
tagged_abstract_sents/9862624.txt,13,0.206355591311,0.0224733207784,0.139250797795,0.521468892835,0.387112201598,0.14417568055,0.0330865952939,0.963121146627
tagged_abstract_sents/9862624.txt,14,0.262268704747,-0.0208411801632,0.139250797795,0.521468892835,0.387112201598,0.107523867345,0.0133288202576,0.761083694806
tagged_abstract_sents/9862624.txt,15,0.262268704747,0.0362837413685,0.139250797795,0.521468892835,0.387112201598,0.131370237684,0.0226214871194,0.98424170522
