tagged_abstract_sents/9866667.txt,1,0.206355591311,-0.0753507498791,0.0616692308323,0.106008497564,0.361403788815,0.0,0.0,0.212651487759
tagged_abstract_sents/9866667.txt,2,0.206355591311,0.0487421383648,0.188769469584,0.129715814208,0.361403788815,0.16199115508,0.0364794017458,0.883585013298
tagged_abstract_sents/9866667.txt,4,0.0108608205953,-0.0775278180939,0.0616692308323,0.106008497564,0.361403788815,0.0,0.0,0.0558202575428
tagged_abstract_sents/9866667.txt,6,0.0353982300885,-0.0775278180939,0.0616692308323,0.106008497564,0.361403788815,0.0,0.0,0.0754501851373
tagged_abstract_sents/9866667.txt,7,0.0518905872888,0.0603531688437,0.139250797795,0.521468892835,0.361403788815,0.158134822503,0.0405584364893,0.549542803705
tagged_abstract_sents/9866667.txt,8,0.0993563958166,-0.0405176584422,0.139250797795,0.521468892835,0.361403788815,0.0963405132116,0.0182962529274,0.595525260562
tagged_abstract_sents/9866667.txt,9,0.172566371681,0.0276971456217,0.139250797795,0.521468892835,0.361403788815,0.151299307405,0.0394068022142,0.635333391272
tagged_abstract_sents/9866667.txt,10,0.206355591311,0.0567247218191,0.139250797795,0.521468892835,0.361403788815,0.241704426839,0.0505854800937,0.800277398323
tagged_abstract_sents/9866667.txt,11,0.262268704747,-0.0746250604741,0.139250797795,0.521468892835,0.361403788815,0.0,0.0,0.42095601845
tagged_abstract_sents/9866667.txt,12,0.262268704747,0.0436623125302,0.139250797795,0.521468892835,0.361403788815,0.145932775976,0.034850005576,0.986800063418
