tagged_abstract_sents/9915442.txt,1,0.125905068383,-0.0610447411572,0.0616692308323,0.142474783506,0.0,0.0,0.0,0.162092156943
tagged_abstract_sents/9915442.txt,2,0.239742558327,0.0239868821738,0.188769469584,0.202456734834,0.175900222069,0.338606079822,0.0345755258971,0.900795006126
tagged_abstract_sents/9915442.txt,3,0.229283990346,-0.0512063715156,0.0616692308323,0.142474783506,0.0,0.0,0.0,0.246762968441
tagged_abstract_sents/9915442.txt,4,0.218020917136,0.0619348793628,0.210342442448,0.226435992083,0.258617332417,0.482869622351,0.0316542658332,1.13304694903
tagged_abstract_sents/9915442.txt,5,0.162510056315,-0.0245022253455,0.139250797795,0.0356431803763,0.398698909641,0.347015529585,0.0346086706735,0.985749062893
tagged_abstract_sents/9915442.txt,6,0.118262268705,0.0802061372687,0.139250797795,0.0356431803763,0.33197983944,0.556565519709,0.0472087678982,1.12672352247
tagged_abstract_sents/9915442.txt,7,0.101769911504,-0.0610447411572,0.139250797795,0.0356431803763,0.0,0.0,0.0,0.149525333982
tagged_abstract_sents/9915442.txt,8,0.0711987127916,0.0106348090888,0.139250797795,0.0356431803763,0.404586878561,0.375239306407,0.0489069589299,0.968137428959
tagged_abstract_sents/9915442.txt,9,0.0571198712792,-0.00201452330757,0.139250797795,0.0356431803763,0.286693999283,0.418985723983,0.0321353144218,0.863426383059
tagged_abstract_sents/9915442.txt,10,0.0458567980692,0.00782384633404,0.139250797795,0.0356431803763,0.303281245401,0.346487820377,0.0233725914796,0.79171021799
tagged_abstract_sents/9915442.txt,11,0.0245374094932,0.00431014289061,0.139250797795,0.0356431803763,0.261696524471,0.366563065434,0.0289802327153,0.758050131803
tagged_abstract_sents/9915442.txt,12,0.0144810941271,0.016959475287,0.139250797795,0.0356431803763,0.329992422845,0.340005319872,0.0369401782279,0.802233044314
tagged_abstract_sents/9915442.txt,13,0.00844730490748,9.36987584915e-05,0.139250797795,0.0356431803763,0.243873431894,0.289504104488,0.0266105204677,0.647082993537
tagged_abstract_sents/9915442.txt,14,0.00120675784393,-0.0582337784024,0.0616692308323,0.142474783506,0.0,0.0,0.0,0.0628957010625
tagged_abstract_sents/9915442.txt,15,0.00120675784393,0.0520965097212,0.139250797795,0.0356431803763,0.283346189825,0.478573492205,0.0262506628955,0.879873406156
