tagged_abstract_sents/9918479.txt,1,0.0954875100725,-0.0461183891315,0.0616692308323,0.247294108221,0.303233991817,0.0,0.0,0.172189178114
tagged_abstract_sents/9918479.txt,3,0.0253827558421,0.0431586608443,0.188769469584,0.123191979006,0.303233991817,0.37379427417,0.0538542029997,0.84799223361
tagged_abstract_sents/9918479.txt,4,0.0451248992748,-0.0451479864144,0.0616692308323,0.247294108221,0.303233991817,0.0,0.0,0.132093170019
tagged_abstract_sents/9918479.txt,5,0.0805801772764,0.04121785541,0.188769469584,0.123191979006,0.303233991817,0.303068521139,0.0356810669856,0.937937379708
tagged_abstract_sents/9918479.txt,6,0.116035455278,-0.0466035904901,0.0616692308323,0.247294108221,0.303233991817,0.0,0.0,0.188530494007
tagged_abstract_sents/9918479.txt,7,0.123690572119,-0.0131246967492,0.0616692308323,0.247294108221,0.303233991817,0.228231687416,0.0351976856316,0.638197736419
tagged_abstract_sents/9918479.txt,8,0.131345688961,-0.0436923823387,0.0616692308323,0.247294108221,0.303233991817,0.0,0.0,0.201360922583
tagged_abstract_sents/9918479.txt,9,0.140209508461,0.0290878214459,0.210342442448,0.141687475369,0.303233991817,0.215792763189,0.0524938960586,0.896381006443
tagged_abstract_sents/9918479.txt,10,0.149073327961,-0.0436923823387,0.0616692308323,0.247294108221,0.303233991817,0.0,0.0,0.215543033784
tagged_abstract_sents/9918479.txt,11,0.149879129734,-0.042236778263,0.194899689933,0.293363477728,0.303233991817,0.10794894317,0.025,0.711129681169
tagged_abstract_sents/9918479.txt,12,0.150684931507,-0.0393255701116,0.0616692308323,0.247294108221,0.303233991817,0.0,0.0,0.217705679066
tagged_abstract_sents/9918479.txt,13,0.176470588235,0.00288694808345,0.139250797795,0.194462959676,0.303233991817,0.388044260562,0.0309959485927,0.826407008014
tagged_abstract_sents/9918479.txt,14,0.202256244964,-0.0461183891315,0.139250797795,0.194462959676,0.303233991817,0.0,0.0,0.280545604945
tagged_abstract_sents/9918479.txt,15,0.166800966962,0.094590004852,0.139250797795,0.194462959676,0.303233991817,0.413354735804,0.0384645196295,0.981860239991
tagged_abstract_sents/9918479.txt,16,0.131345688961,-0.0165211062591,0.139250797795,0.194462959676,0.303233991817,0.316898718787,0.0446023718172,0.893658083546
tagged_abstract_sents/9918479.txt,17,0.0954875100725,0.0640223192625,0.139250797795,0.194462959676,0.303233991817,0.383204403413,0.043937914196,0.918421254073
tagged_abstract_sents/9918479.txt,18,0.0342465753425,0.00919456574478,0.139250797795,0.194462959676,0.303233991817,0.41072290283,0.032880543606,0.736956544492
tagged_abstract_sents/9918479.txt,19,0.0342465753425,-0.0441775836972,0.0616692308323,0.247294108221,0.303233991817,0.0,0.0,0.123584591417
tagged_abstract_sents/9918479.txt,20,0.0342465753425,0.0829451722465,0.139250797795,0.194462959676,0.303233991817,0.422916248142,0.0505875419458,0.948688363428
