tagged_abstract_sents/9972386.txt,1,0.206355591311,-0.0609654123907,0.0616692308323,0.106008497564,6.10525701553e-05,0.0,0.0,0.215528555256
tagged_abstract_sents/9972386.txt,3,0.0048270313757,-0.0598251615355,0.0616692308323,0.106008497564,6.10525701553e-05,0.0,0.0,0.0545337574787
tagged_abstract_sents/9972386.txt,4,0.0048270313757,0.037666286583,0.0616692308323,0.106008497564,6.10525701553e-05,0.191374407419,0.00549348230912,0.270945443088
tagged_abstract_sents/9972386.txt,6,0.016894609815,0.0131508931965,0.139250797795,0.521468892835,6.10525701553e-05,0.132914184942,0.0332358589385,0.408408677934
tagged_abstract_sents/9972386.txt,7,0.0261464199517,-0.0621056632459,0.139250797795,0.521468892835,6.10525701553e-05,0.0,0.0,0.23456207006
tagged_abstract_sents/9972386.txt,8,0.0518905872888,0.00916001520334,0.139250797795,0.521468892835,6.10525701553e-05,0.217171458018,0.0144080676964,0.501035118882
tagged_abstract_sents/9972386.txt,9,0.0683829444891,0.0764348156594,0.139250797795,0.521468892835,6.10525701553e-05,0.234958040655,0.0289416511484,0.559969780184
tagged_abstract_sents/9972386.txt,10,0.0993563958166,0.0182820220448,0.139250797795,0.521468892835,6.10525701553e-05,0.187211188591,0.0144902234637,0.510930157194
tagged_abstract_sents/9972386.txt,11,0.172566371681,-0.0598251615355,0.139250797795,0.521468892835,6.10525701553e-05,0.0,0.0,0.352154131786
tagged_abstract_sents/9972386.txt,12,0.214802896219,-0.0187761307488,0.139250797795,0.521468892835,6.10525701553e-05,0.15481283201,0.0136911796304,0.714993646917
tagged_abstract_sents/9972386.txt,13,0.206355591311,0.0274040288864,0.139250797795,0.521468892835,6.10525701553e-05,0.275286338266,0.0267414455307,0.698703316331
tagged_abstract_sents/9972386.txt,14,0.262268704747,-0.0062333713417,0.139250797795,0.521468892835,6.10525701553e-05,0.136935313817,0.00944192271881,0.961749106508
tagged_abstract_sents/9972386.txt,15,0.262268704747,-0.00167236792094,0.139250797795,0.521468892835,6.10525701553e-05,0.132712790665,0.0168397928305,0.585160193027
