('transdermal drug delivery systems', '', '', '', 0.0)||('have', '', '', '', 0.0)||('been', '', '', '', 0.0)||('available', 'adj', 'C0470187', ['ftcn'], 0.0)||('in', '', '', '', 0.0)||('the', '', '', '', 0.0)||('united states', 'noun', 'C0041703', ['geoa'], 0.0)||('for', '', '', '', 0.0)||('>', '', '', '', 0.0)||('20', '', '', '', 0.0)||('years', 'noun', 'C0439234', ['tmco'], 0.0)||('.', '', '', '', 0.0)||
('since', '', '', '', 0.0)||('the', '', '', '', 0.0)||('introduction', 'noun', 'C1293116', ['hlca'], 0.0)||('of', '', '', '', 0.0)||('the', '', '', '', 0.0)||('first', 'adj', 'C0205435', ['qnco'], 0.0)||('transdermal', 'adj', 'C0040652', ['ftcn'], 0.0)||('patch', 'noun', 'C0332461', ['bdsu'], 0.0)||('(', '', '', '', 0.0)||('scopolamine', 'noun', 'C0036442', ['orch', 'phsu'], 0.0)||(')', '', '', '', 0.0)||('for', '', '', '', 0.0)||('the', '', '', '', 0.0)||('treatment', 'noun', 'C0039798', ['ftcn'], 0.0)||('of', '', '', '', 0.0)||('motion sickness', 'noun', 'C0026603', ['dsyn'], 0.0)||(',', '', '', '', 0.0)||('>', '', '', '', 0.0)||('35', '', '', '', 0.0)||('transdermal', 'adj', 'C0040652', ['ftcn'], 0.0)||('patch', 'noun', 'C0332461', ['bdsu'], 0.0)||('products', 'noun', 'C1514468', ['enty'], 0.0)||('have', '', '', '', 0.0)||('been', '', '', '', 0.0)||('approved', 'verb', 'C0205540', ['qlco'], 0.0)||('by', '', '', '', 0.0)||('the', '', '', '', 0.0)||('us', '', '', '', 0.0)||('food and drug administration', 'noun', 'C0041714', ['hcro'], 0.0)||('for', '', '', '', 0.0)||('a', '', '', '', 0.0)||('variety', 'noun', 'C1883525', ['cnce'], 0.0)||('of', '', '', '', 0.0)||('indications', 'noun', 'C0392360', ['idcn'], 0.0)||('that', '', '', '', 0.0)||('include', 'verb', 'C1552866', ['idcn'], 0.0)||('hormone replacement therapy', 'noun', 'C0282402', ['topp'], 0.0)||(',', '', '', '', 0.0)||('nicotine', 'noun', 'C0028040', ['hops', 'orch', 'phsu'], 0.0)||('replacement therapy', 'noun', 'C0279033', ['topp'], 0.0)||(',', '', '', '', 0.0)||('chronic pain', 'noun', 'C0150055', ['dsyn'], 0.0)||('(', '', '', '', 0.0)||('fentanyl', 'noun', 'C0015846', ['orch', 'phsu'], 0.0)||(')', '', '', '', 0.0)||(',', '', '', '', 0.0)||('angina', 'noun', 'C0002962', ['sosy'], 0.0)||('(', '', '', '', 0.0)||('nitroglycerin', 'noun', 'C0017887', ['orch', 'phsu'], 0.0)||(')', '', '', '', 0.0)||(',', '', '', '', 0.0)||('hypertension', 'noun', 'C0020538', ['dsyn'], 0.0)||('(', '', '', '', 0.0)||('clonidine', 'noun', 'C0009014', ['orch', 'phsu'], 0.0)||(')', '', '', '', 0.0)||(',', '', '', '', 0.0)||('and', '', '', '', 0.0)||('more', '', '', '', 0.0)||('recently', 'adv', 'C0332185', ['tmco'], 0.0)||(',', '', '', '', 0.0)||('overactive', 'adj', 'C0443272', ['qlco'], 0.0)||('bladder', 'noun', 'C0005682', ['bpoc'], 0.0)||('(', '', '', '', 0.0)||('oxybutynin', 'noun', 'C0069805', ['orch', 'phsu'], 0.0)||(')', '', '', '', 0.0)||(',', '', '', '', 0.0)||('and', '', '', '', 0.0)||('contraception', 'noun', 'C0700589', ['topp'], 0.0)||('(', '', '', '', 0.0)||('ethinyl estradiol', '', '', '', 0.0)||('/', '', '', '', 0.0)||('norelgestromin', 'noun', 'C1120952', ['horm', 'phsu', 'strd'], 0.0)||(')', '', '', '', 0.0)||('.', '', '', '', 0.0)||
('clinical', 'adj', 'C0205210', ['qlco'], 0.0)||('data', 'noun', 'C1511726', ['idcn'], 0.0)||('demonstrated', '', '', '', 0.0)||('the', '', '', '', 0.0)||('efficacy', 'noun', 'C1707887', ['resa'], 0.0)||('and', '', '', '', 0.0)||('safety', 'noun', 'C0036043', ['hcpp'], 0.0)||('of', '', '', '', 0.0)||('the', '', '', '', 0.0)||('contraceptive', 'adj', 'C0009871', ['phsu'], 0.0)||('patch', 'noun', 'C0332461', ['bdsu'], 0.0)||(';', '', '', '', 0.0)||
('however', '', '', '', 0.0)||(',', '', '', '', 0.0)||('concerns', '', '', '', 0.0)||('regarding', '', '', '', 0.0)||('estrogen levels', '', '', '', 0.0)||('and', '', '', '', 0.0)||('reports', 'verb', 'C0684224', ['inpr'], 0.0)||('of', '', '', '', 0.0)||('venous thromboembolism', 'noun', 'C1861172', ['patf'], 0.0)||('led', '', '', '', 0.0)||('to', '', '', '', 0.0)||('the', '', '', '', 0.0)||('development', 'noun', 'C0020119', ['phsf'], 0.0)||('of', '', '', '', 0.0)||('2', '', '', '', 0.0)||('epidemiologic studies', 'noun', 'C0002783', ['resa'], 0.0)||('and', '', '', '', 0.0)||(',', '', '', '', 0.0)||('subsequently', '', '', '', 0.0)||(',', '', '', '', 0.0)||('revised', 'adj', 'C1527075', ['ftcn'], 0.0)||('product', 'noun', 'C1514468', ['enty'], 0.0)||('labeling', 'noun', 'C1167624', ['menp'], 0.0)||('.', '', '', '', 0.0)||
('despite', '', '', '', 0.0)||('this', '', '', '', 0.0)||(',', '', '', '', 0.0)||('the', '', '', '', 0.0)||('contraceptive', 'adj', 'C0009871', ['phsu'], 0.0)||('patch', 'noun', 'C0332461', ['bdsu'], 0.0)||('may', '', '', '', 0.0)||('be', '', '', '', 0.0)||('an', '', '', '', 0.0)||('appropriate', 'adj', 'C1548787', ['qlco'], 0.0)||('option', 'noun', 'C1518601', ['ftcn'], 0.0)||('for', '', '', '', 0.0)||('some', '', '', '', 0.0)||('patients', 'noun', 'C0030705', ['podg'], 0.0)||('.', '', '', '', 0.0)||
