('a 1', '', '', '', 0.0)||('-', '', '', '', 0.0)||('year', 'noun', 'C0439234', ['tmco'], 0.0)||(',', '', '', '', 0.0)||('open - label', '', '', '', 0.0)||(',', '', '', '', 0.0)||('randomized', 'adj', 'C0034656', ['resa'], 0.0)||('phase iii study', '', '', '', 0.0)||('of', '', '', '', 0.0)||('1030', '', '', '', 0.0)||('women', 'noun', 'C0043210', ['popg'], 0.0)||('compared', 'verb', 'C1707455', ['acty'], 0.0)||('the', '', '', '', 0.0)||('nuvaring', 'noun', 'C1744678', ['phsu'], 0.0)||('with', '', '', '', 0.0)||('a', '', '', '', 0.0)||('combination', 'noun', 'C0205195', ['qlco'], 0.0)||('oc', 'noun', 'C0029151', ['topp'], 0.0)||('containing', 'adj', 'C0332256', ['ftcn'], 0.0)||('levonorgestrel', 'noun', 'C0023566', ['horm', 'phsu', 'strd'], 0.0)||('and', '', '', '', 0.0)||('30', '', '', '', 0.0)||('g', '', '', '', 0.0)||('ee', '', '', '', 0.0)||('.', '', '', '', 0.0)||
('one', 'noun', 'C0205447', ['qnco'], 0.0)||('case', 'noun', 'C0868928', ['ftcn'], 0.0)||('of', '', '', '', 0.0)||('deep venous thrombosis', '', '', '', 0.0)||('occurred', 'verb', 'C1709305', ['cnce'], 0.0)||('in', '', '', '', 0.0)||('the', '', '', '', 0.0)||('nuvaring', 'noun', 'C1744678', ['phsu'], 0.0)||('group', 'noun', 'C0441833', ['idcn'], 0.0)||('.', '', '', '', 0.0)||
('in', '', '', '', 0.0)||('reviewing', 'noun', 'C1704362', ['qlco'], 0.0)||('the', '', '', '', 0.0)||('data', 'noun', 'C1511726', ['idcn'], 0.0)||(',', '', '', '', 0.0)||('the', '', '', '', 0.0)||('authors', 'noun', 'C0341628', ['prog'], 0.0)||('concluded', '', '', '', 0.0)||('that', '', '', '', 0.0)||('the', '', '', '', 0.0)||('nuvaring', 'noun', 'C1744678', ['phsu'], 0.0)||('demonstrated', '', '', '', 0.0)||('comparable', '', '', '', 0.0)||('safety', 'noun', 'C0036043', ['hcpp'], 0.0)||('and', '', '', '', 0.0)||('tolerability', '', '', '', 0.0)||('to', '', '', '', 0.0)||('the', '', '', '', 0.0)||('oc', 'noun', 'C0029151', ['topp'], 0.0)||('.', '', '', '', 0.0)||
