('although', '', '', '', 0.0)||('the', '', '', '', 0.0)||('performance', 'noun', 'C0597198', ['inbe'], 0.0)||('of', '', '', '', 0.0)||('perineal', 'adj', 'C0031066', ['blor'], 0.0)||('massage', 'noun', 'C0024875', ['topp'], 0.0)||('by', '', '', '', 0.0)||('a', '', '', '', 0.0)||('woman', 'noun', 'C0043210', ['popg'], 0.0)||('or', '', '', '', 0.0)||('her', '', '', '', 0.0)||('partner', 'noun', 'C0682323', ['famg'], 0.0)||('during', '', '', '', 0.0)||('the', '', '', '', 0.0)||('last', '', '', '', 0.0)||('weeks', 'noun', 'C0439230', ['tmco'], 0.0)||('of', '', '', '', 0.0)||('pregnancy', 'noun', 'C0032961', ['orgf'], 0.0)||('may', '', '', '', 0.0)||('help', 'verb', 'C1552861', ['idcn'], 0.0)||('to', '', '', '', 0.0)||('prevent', 'verb', 'C0309872', ['phsu'], 0.0)||('perineal', 'adj', 'C0031066', ['blor'], 0.0)||('trauma', 'noun', 'C0043251', ['inpo'], 0.0)||('at', '', '', '', 0.0)||('delivery', 'noun', 'C0011209', ['topp'], 0.0)||(',', '', '', '', 0.0)||('the', '', '', '', 0.0)||('technique', 'noun', 'C0449851', ['ftcn'], 0.0)||('has', '', '', '', 0.0)||('never', 'adv', 'C2003901', ['tmco'], 0.0)||('been', '', '', '', 0.0)||('evaluated', 'verb', 'C0220825', ['ftcn'], 0.0)||('rigorously', '', '', '', 0.0)||('.', '', '', '', 0.0)||
('this', '', '', '', 0.0)||('study', 'noun', 'C0008976', ['resa'], 0.0)||('examined', 'verb', 'C0332128', ['fndg'], 0.0)||('the', '', '', '', 0.0)||('feasibility', '', '', '', 0.0)||('of', '', '', '', 0.0)||('a', '', '', '', 0.0)||('randomized', 'adj', 'C0034656', ['resa'], 0.0)||(',', '', '', '', 0.0)||('controlled', 'adj', 'C2587213', ['ftcn'], 0.0)||('trial', 'noun', 'C0008976', ['resa'], 0.0)||(',', '', '', '', 0.0)||('and', '', '', '', 0.0)||('more', '', '', '', 0.0)||('specifically', '', '', '', 0.0)||('assessed', 'verb', 'C1516048', ['acty'], 0.0)||('the', '', '', '', 0.0)||('participation', 'noun', 'C0679823', ['ftcn'], 0.0)||('rate', 'noun', 'C0871208', ['acty'], 0.0)||(',', '', '', '', 0.0)||('the', '', '', '', 0.0)||('acceptability', 'noun', 'C0814633', ['qlco'], 0.0)||('of', '', '', '', 0.0)||('the', '', '', '', 0.0)||('intervention', 'noun', 'C1273869', ['hlca'], 0.0)||(',', '', '', '', 0.0)||('and', '', '', '', 0.0)||('whether', '', '', '', 0.0)||('or', '', '', '', 0.0)||('not', 'adv', 'C1518422', ['ftcn'], 0.0)||('an', '', '', '', 0.0)||('attending physician', 'noun', 'C1320929', ['prog'], 0.0)||('could', '', '', '', 0.0)||('remain', '', '', '', 0.0)||('blind', 'noun', 'C0150108', ['resa'], 0.0)||('to', '', '', '', 0.0)||('participants', '', '', '', 0.0)||("'", '', '', '', 0.0)||('groups', 'noun', 'C0441833', ['idcn'], 0.0)||('.', '', '', '', 0.0)||
('the', '', '', '', 0.0)||('pilot study', 'noun', 'C0031928', ['resa'], 0.0)||('was', '', '', '', 0.0)||('a', '', '', '', 0.0)||('single', 'adj', 'C0037179', ['popg'], 0.0)||('-', '', '', '', 0.0)||('blinded', 'adj', 'C0150108', ['resa'], 0.0)||(',', '', '', '', 0.0)||('randomized', 'verb', 'C0034656', ['resa'], 0.0)||(',', '', '', '', 0.0)||('controlled', 'adj', 'C2587213', ['ftcn'], 0.0)||('trial', 'noun', 'C0008976', ['resa'], 0.0)||('.', '', '', '', 0.0)||
('nulliparous', 'adj', 'C0425979', ['fndg'], 0.0)||('women', 'noun', 'C0043210', ['popg'], 0.0)||(',', '', '', '', 0.0)||('32', '', '', '', 0.0)||('to', '', '', '', 0.0)||('34', '', '', '', 0.0)||('weeks', 'noun', 'C0439230', ['tmco'], 0.0)||('pregnant', 'adj', 'C0549206', ['fndg'], 0.0)||(',', '', '', '', 0.0)||('were', '', '', '', 0.0)||('recruited', '', '', '', 0.0)||('from', '', '', '', 0.0)||('june', '', '', '', 0.0)||('8', '', '', '', 0.0)||('to', '', '', '', 0.0)||('july', '', '', '', 0.0)||('31', '', '', '', 0.0)||(',', '', '', '', 0.0)||('1992', '', '', '', 0.0)||(',', '', '', '', 0.0)||('at', '', '', '', 0.0)||('the', '', '', '', 0.0)||('offices', '', '', '', 0.0)||('of', '', '', '', 0.0)||('family physicians', '', '', '', 0.0)||('and', '', '', '', 0.0)||('obstetricians', 'noun', 'C0334897', ['prog'], 0.0)||('who', '', '', '', 0.0)||('practice', 'verb', 'C0237607', ['menp'], 0.0)||('at', '', '', '', 0.0)||('the', '', '', '', 0.0)||('ha', '', '', '', 0.0)||('pital', '', '', '', 0.0)||('du', 'noun', 'C0013295', ['dsyn'], 0.0)||('saint', 'noun', 'C0242823', ['cnce'], 0.0)||('-', '', '', '', 0.0)||('sacrement', '', '', '', 0.0)||('in', '', '', '', 0.0)||('quebec', 'noun', 'C0034390', ['geoa'], 0.0)||('city', 'noun', 'C0008848', ['geoa'], 0.0)||('.', '', '', '', 0.0)||
('women', 'noun', 'C0043210', ['popg'], 0.0)||('assigned', 'verb', 'C1516050', ['ftcn'], 0.0)||('to', '', '', '', 0.0)||('the', '', '', '', 0.0)||('intervention', 'noun', 'C1273869', ['hlca'], 0.0)||('group', 'noun', 'C0441833', ['idcn'], 0.0)||('practiced', '', '', '', 0.0)||('daily', 'adv', 'C0332173', ['tmco'], 0.0)||('10', '', '', '', 0.0)||('-', '', '', '', 0.0)||('minute', 'noun', 'C0439232', ['tmco'], 0.0)||('perineal', 'adj', 'C0031066', ['blor'], 0.0)||('massage', 'noun', 'C0024875', ['topp'], 0.0)||('and', '', '', '', 0.0)||('completed', 'verb', 'C0205197', ['qlco'], 0.0)||('a', '', '', '', 0.0)||('diary', '', '', '', 0.0)||(',', '', '', '', 0.0)||('and', '', '', '', 0.0)||('those', '', '', '', 0.0)||('in', '', '', '', 0.0)||('the', '', '', '', 0.0)||('control group', 'noun', 'C0009932', ['grup'], 0.0)||('had', '', '', '', 0.0)||('standard care', '', '', '', 0.0)||('.', '', '', '', 0.0)||
('women', 'noun', 'C0043210', ['popg'], 0.0)||('and', '', '', '', 0.0)||('attending physicians', '', '', '', 0.0)||('completed', 'verb', 'C0205197', ['qlco'], 0.0)||('a', '', '', '', 0.0)||('questionnaire', 'noun', 'C0034394', ['inpr'], 0.0)||('about', '', '', '', 0.0)||('the', '', '', '', 0.0)||('aspect', 'noun', 'C1547011', ['qnco'], 0.0)||('of', '', '', '', 0.0)||('blindness', 'noun', 'C0456909', ['dsyn'], 0.0)||('.', '', '', '', 0.0)||
('among', '', '', '', 0.0)||('the', '', '', '', 0.0)||('174', '', '', '', 0.0)||('women', 'noun', 'C0043210', ['popg'], 0.0)||('who', '', '', '', 0.0)||('delivered', 'verb', 'C1705822', ['acty'], 0.0)||('during', '', '', '', 0.0)||('the', '', '', '', 0.0)||('study', 'noun', 'C0008976', ['resa'], 0.0)||('period', 'noun', 'C1948053', ['tmco'], 0.0)||(',', '', '', '', 0.0)||('104', '', '', '', 0.0)||('(', '', '', '', 0.0)||('59 . 8 %', '', '', '', 0.0)||(')', '', '', '', 0.0)||('were', '', '', '', 0.0)||('approached', '', '', '', 0.0)||('by', '', '', '', 0.0)||('a', '', '', '', 0.0)||('midwife', 'noun', 'C0026083', ['prog'], 0.0)||('and', '', '', '', 0.0)||('46', '', '', '', 0.0)||('(', '', '', '', 0.0)||('26 . 4 %', '', '', '', 0.0)||(')', '', '', '', 0.0)||('were', '', '', '', 0.0)||('randomized', 'verb', 'C0034656', ['resa'], 0.0)||('.', '', '', '', 0.0)||
('twenty', '', '', '', 0.0)||('(', '', '', '', 0.0)||('91 . 0 %', '', '', '', 0.0)||(')', '', '', '', 0.0)||('of', '', '', '', 0.0)||('the', '', '', '', 0.0)||('22', '', '', '', 0.0)||('women', 'noun', 'C0043210', ['popg'], 0.0)||('in', '', '', '', 0.0)||('the', '', '', '', 0.0)||('massage', 'noun', 'C0024875', ['topp'], 0.0)||('group', 'noun', 'C0441833', ['idcn'], 0.0)||('returned', '', '', '', 0.0)||('their', '', '', '', 0.0)||('perineal', 'adj', 'C0031066', ['blor'], 0.0)||('massage', 'noun', 'C0024875', ['topp'], 0.0)||('diaries', 'noun', 'C0376660', ['inpr'], 0.0)||('.', '', '', '', 0.0)||
('based', 'verb', 'C1527178', ['ftcn'], 0.0)||('on', '', '', '', 0.0)||('the', '', '', '', 0.0)||('postpartum', 'noun', 'C0086839', ['tmco'], 0.0)||('questionnaire', 'noun', 'C0034394', ['inpr'], 0.0)||(',', '', '', '', 0.0)||('20', '', '', '', 0.0)||('women', 'noun', 'C0043210', ['popg'], 0.0)||('practiced', '', '', '', 0.0)||('the', '', '', '', 0.0)||('technique', 'noun', 'C0449851', ['ftcn'], 0.0)||('at', '', '', '', 0.0)||('least', '', '', '', 0.0)||('four', '', 'C0205450', ['qnco'], 0.0)||('times', '', '', '', 0.0)||('a', '', '', '', 0.0)||('week', 'noun', 'C0439230', ['tmco'], 0.0)||('for', '', '', '', 0.0)||('three', '', 'C0205449', ['qnco'], 0.0)||('weeks', 'noun', 'C0439230', ['tmco'], 0.0)||('or', '', '', '', 0.0)||('longer', '', '', '', 0.0)||('.', '', '', '', 0.0)||
('no', '', '', '', 0.0)||('woman', 'noun', 'C0043210', ['popg'], 0.0)||('in', '', '', '', 0.0)||('the', '', '', '', 0.0)||('control group', 'noun', 'C0009932', ['grup'], 0.0)||('practiced', '', '', '', 0.0)||('massage', 'noun', 'C0024875', ['topp'], 0.0)||('.', '', '', '', 0.0)||
('the', '', '', '', 0.0)||('attending physician', 'noun', 'C1320929', ['prog'], 0.0)||('was', '', '', '', 0.0)||('aware', 'adj', 'C0004448', ['menp'], 0.0)||('of', '', '', '', 0.0)||('the', '', '', '', 0.0)||('woman', 'noun', 'C0043210', ['popg'], 0.0)||("' s", '', '', '', 0.0)||('group', 'noun', 'C0441833', ['idcn'], 0.0)||('in', '', '', '', 0.0)||('only', '', '', '', 0.0)||('three', '', 'C0205449', ['qnco'], 0.0)||('instances', '', '', '', 0.0)||('(', '', '', '', 0.0)||('6 . 7 %', '', '', '', 0.0)||(')', '', '', '', 0.0)||('.', '', '', '', 0.0)||
('based', 'verb', 'C1527178', ['ftcn'], 0.0)||('on', '', '', '', 0.0)||('the', '', '', '', 0.0)||('results', 'noun', 'C1274040', ['ftcn'], 0.0)||('of', '', '', '', 0.0)||('this', '', '', '', 0.0)||('pilot study', 'noun', 'C0031928', ['resa'], 0.0)||(',', '', '', '', 0.0)||('a', '', '', '', 0.0)||('randomized', 'adj', 'C0034656', ['resa'], 0.0)||(',', '', '', '', 0.0)||('controlled', 'adj', 'C2587213', ['ftcn'], 0.0)||('trial', 'noun', 'C0008976', ['resa'], 0.0)||('to', '', '', '', 0.0)||('evaluate', 'verb', 'C0220825', ['ftcn'], 0.0)||('the', '', '', '', 0.0)||('efficacy', 'noun', 'C1707887', ['resa'], 0.0)||('of', '', '', '', 0.0)||('perineal', 'adj', 'C0031066', ['blor'], 0.0)||('massage', 'noun', 'C0024875', ['topp'], 0.0)||('in', '', '', '', 0.0)||('preventing', 'noun', 'C1292733', ['ftcn'], 0.0)||('perineal', 'adj', 'C0031066', ['blor'], 0.0)||('trauma', 'noun', 'C0043251', ['inpo'], 0.0)||('at', '', '', '', 0.0)||('birth', 'noun', 'C0005615', ['orgf'], 0.0)||('appears', '', '', '', 0.0)||('feasible', '', '', '', 0.0)||('.', '', '', '', 0.0)||
