('to', '', '', '', 0.0)||('test', 'verb', 'C0022885', ['lbpr'], 0.0)||('the', '', '', '', 0.0)||('hypothesis', 'noun', 'C1512571', ['idcn'], 0.0)||('that', '', '', '', 0.0)||('desmopressin', 'noun', 'C0011701', ['aapp', 'horm', 'phsu'], 0.0)||('facilitates', '', '', '', 0.0)||('acquisition', 'noun', 'C1706701', ['acty'], 0.0)||('of', '', '', '', 0.0)||('continence', '', '', '', 0.0)||(',', '', '', '', 0.0)||('we', '', '', '', 0.0)||('aimed', '', '', '', 0.0)||('to', '', '', '', 0.0)||('establish', '', '', '', 0.0)||('whether', '', '', '', 0.0)||(',', '', '', '', 0.0)||('in', '', '', '', 0.0)||('children', 'noun', 'C0008059', ['aggp'], 0.0)||('with', '', '', '', 0.0)||('nocturnal enuresis', 'noun', 'C0270327', ['sosy'], 0.0)||('who', '', '', '', 0.0)||('are', '', '', '', 0.0)||('desmopressin', 'adj', 'C0011701', ['aapp', 'horm', 'phsu'], 0.0)||('nonresponders', '', '', '', 0.0)||(',', '', '', '', 0.0)||('adjunct', '', '', '', 0.0)||('desmopressin', 'noun', 'C0011701', ['aapp', 'horm', 'phsu'], 0.0)||('increases', '', '', '', 0.0)||('the', '', '', '', 0.0)||('rate', 'noun', 'C0871208', ['acty'], 0.0)||('of', '', '', '', 0.0)||('sustained', 'adj', 'C0443318', ['ftcn'], 0.0)||('continence', '', '', '', 0.0)||('after', '', '', '', 0.0)||('treatment', 'noun', 'C0039798', ['ftcn'], 0.0)||('with', '', '', '', 0.0)||('a', '', '', '', 0.0)||('conditioning', 'adj', 'C0009647', ['menp'], 0.0)||('alarm', 'noun', 'C0336648', ['medd'], 0.0)||('.', '', '', '', 0.0)||
('study design', 'noun', 'C0035171', ['resa'], 0.0)||('patients', 'noun', 'C0030705', ['podg'], 0.0)||('with', '', '', '', 0.0)||('nocturnal enuresis', 'noun', 'C0270327', ['sosy'], 0.0)||('(', '', '', '', 0.0)||('n =', '', '', '', 0.0)||('358', '', '', '', 0.0)||(';', '', '', '', 0.0)||('age', 'noun', 'C0001779', ['orga'], 0.0)||('range', 'noun', 'C1514721', ['qnco'], 0.0)||(',', '', '', '', 0.0)||('6', '', '', '', 0.0)||('-', '', '', '', 0.0)||('16', '', '', '', 0.0)||('years', 'noun', 'C0439234', ['tmco'], 0.0)||(')', '', '', '', 0.0)||('completed', 'verb', 'C0205197', ['qlco'], 0.0)||('a', '', '', '', 0.0)||('4', '', '', '', 0.0)||('-', '', '', '', 0.0)||('week', 'noun', 'C0439230', ['tmco'], 0.0)||('"', '', '', '', 0.0)||('run - in', '', '', '', 0.0)||('"', '', '', '', 0.0)||('course', 'noun', 'C0750729', ['tmco'], 0.0)||('of', '', '', '', 0.0)||('intranasal', 'adj', 'C0442118', ['spco'], 0.0)||('desmopressin', 'noun', 'C0011701', ['aapp', 'horm', 'phsu'], 0.0)||('(', '', '', '', 0.0)||('20', '', '', '', 0.0)||('-', '', '', '', 0.0)||('40', '', '', '', 0.0)||('microg', 'noun', 'C0439211', ['qnco'], 0.0)||(')', '', '', '', 0.0)||('.', '', '', '', 0.0)||
('of', '', '', '', 0.0)||('these', '', '', '', 0.0)||(',', '', '', '', 0.0)||('207', '', '', '', 0.0)||('defined', 'verb', 'C1704788', ['cnce'], 0.0)||('as', '', '', '', 0.0)||('nonresponders', '', '', '', 0.0)||('(', '', '', '', 0.0)||('<', '', '', '', 0.0)||('50 %', '', '', '', 0.0)||('reduction', 'noun', 'C0301630', ['npop'], 0.0)||('in', '', '', '', 0.0)||('wet', 'noun', 'C0205381', ['qlco'], 0.0)||('nights', '', '', '', 0.0)||(')', '', '', '', 0.0)||('were', '', '', '', 0.0)||('randomly', '', '', '', 0.0)||('assigned', 'verb', 'C1516050', ['ftcn'], 0.0)||('to', '', '', '', 0.0)||('receive', 'verb', 'C1514756', ['qlco'], 0.0)||('either', '', '', '', 0.0)||('desmopressin', 'noun', 'C0011701', ['aapp', 'horm', 'phsu'], 0.0)||('(', '', '', '', 0.0)||('n =', '', '', '', 0.0)||('101', '', '', '', 0.0)||(')', '', '', '', 0.0)||('or', '', '', '', 0.0)||('placebo', 'noun', 'C0032042', ['topp'], 0.0)||('(', '', '', '', 0.0)||('n =', '', '', '', 0.0)||('106', '', '', '', 0.0)||(')', '', '', '', 0.0)||('nasal spray', 'noun', 'C0461725', ['bodm'], 0.0)||(',', '', '', '', 0.0)||('together with', '', '', '', 0.0)||('conditioning', 'adj', 'C0009647', ['menp'], 0.0)||('alarm', 'noun', 'C0336648', ['medd'], 0.0)||('therapy', 'noun', 'C0039798', ['ftcn'], 0.0)||('for', '', '', '', 0.0)||('8', '', '', '', 0.0)||('weeks', 'noun', 'C0439230', ['tmco'], 0.0)||('.', '', '', '', 0.0)||
('principal', 'adj', 'C0205225', ['qlco'], 0.0)||('outcome', 'noun', 'C1274040', ['ftcn'], 0.0)||('measures', 'noun', 'C0079809', ['qnco'], 0.0)||('were', '', '', '', 0.0)||('remission', 'noun', 'C0544452', ['fndg'], 0.0)||('(', '', '', '', 0.0)||('28', '', '', '', 0.0)||('continuous', 'adj', 'C0549178', ['idcn'], 0.0)||('dry', 'adj', 'C0151908', ['sosy'], 0.0)||('nights', '', '', '', 0.0)||(')', '', '', '', 0.0)||('and', '', '', '', 0.0)||('relapse', 'noun', 'C0035020', ['phpr'], 0.0)||('(', '', '', '', 0.0)||('>', '', '', '', 0.0)||('2', '', '', '', 0.0)||('wet', 'noun', 'C0205381', ['qlco'], 0.0)||('nights', '', '', '', 0.0)||('in', '', '', '', 0.0)||('2', '', '', '', 0.0)||('weeks', 'noun', 'C0439230', ['tmco'], 0.0)||('after', '', '', '', 0.0)||('having', '', '', '', 0.0)||('achieved', '', '', '', 0.0)||('remission', 'noun', 'C0544452', ['fndg'], 0.0)||(')', '', '', '', 0.0)||('.', '', '', '', 0.0)||
('remission', 'noun', 'C0544452', ['fndg'], 0.0)||('rates', '', '', '', 0.0)||('were', '', '', '', 0.0)||('similar', 'adj', 'C2348205', ['qlco'], 0.0)||('in', '', '', '', 0.0)||('both', '', '', '', 0.0)||('groups', 'noun', 'C0441833', ['idcn'], 0.0)||('(', '', '', '', 0.0)||('51 . 5 %', '', '', '', 0.0)||('desmopressin', 'noun', 'C0011701', ['aapp', 'horm', 'phsu'], 0.0)||(',', '', '', '', 0.0)||('48 . 1 %', '', '', '', 0.0)||('placebo', 'noun', 'C0032042', ['topp'], 0.0)||(';', '', '', '', 0.0)||('95 %', '', '', '', 0.0)||('ci', 'noun', 'C1417638', ['gngm'], 0.0)||('on', '', '', '', 0.0)||('difference', 'noun', 'C1705242', ['qlco'], 0.0)||(',', '', '', '', 0.0)||('-', '', '', '', 0.0)||('10 %', '', '', '', 0.0)||(',', '', '', '', 0.0)||('17 %', '', '', '', 0.0)||(';', '', '', '', 0.0)||('p', '', '', '', 0.0)||('=', '', '', '', 0.0)||('.', '', '', '', 0.0)||('63', '', '', '', 0.0)||(')', '', '', '', 0.0)||(',', '', '', '', 0.0)||('and', '', '', '', 0.0)||('relapse rates', '', '', '', 0.0)||('were', '', '', '', 0.0)||('not', 'adv', 'C1518422', ['ftcn'], 0.0)||('significantly', '', '', '', 0.0)||('different', 'adj', 'C1705242', ['qlco'], 0.0)||('(', '', '', '', 0.0)||('13 . 5 %', '', '', '', 0.0)||('vs', '', '', '', 0.0)||('5 . 9 %', '', '', '', 0.0)||(';', '', '', '', 0.0)||('95 %', '', '', '', 0.0)||('ci', 'noun', 'C1417638', ['gngm'], 0.0)||('on', '', '', '', 0.0)||('difference', 'noun', 'C1705242', ['qlco'], 0.0)||(',', '', '', '', 0.0)||('-', '', '', '', 0.0)||('3 . 7 %', '', '', '', 0.0)||(',', '', '', '', 0.0)||('19 %', '', '', '', 0.0)||(';', '', '', '', 0.0)||('p', '', '', '', 0.0)||('=', '', '', '', 0.0)||('.', '', '', '', 0.0)||('19', '', '', '', 0.0)||(')', '', '', '', 0.0)||('.', '', '', '', 0.0)||
('although', '', '', '', 0.0)||('remission', 'noun', 'C0544452', ['fndg'], 0.0)||('rates', '', '', '', 0.0)||('were', '', '', '', 0.0)||('similar', 'adj', 'C2348205', ['qlco'], 0.0)||(',', '', '', '', 0.0)||('children', 'noun', 'C0008059', ['aggp'], 0.0)||('treated', 'verb', 'C1522326', ['ftcn'], 0.0)||('with', '', '', '', 0.0)||('desmopressin', 'noun', 'C0011701', ['aapp', 'horm', 'phsu'], 0.0)||('had', '', '', '', 0.0)||('significantly', '', '', '', 0.0)||('more', '', '', '', 0.0)||('dry', 'adj', 'C0151908', ['sosy'], 0.0)||('nights', '', '', '', 0.0)||('during', '', '', '', 0.0)||('treatment', 'noun', 'C0039798', ['ftcn'], 0.0)||('than', '', '', '', 0.0)||('those', '', '', '', 0.0)||('in', '', '', '', 0.0)||('the', '', '', '', 0.0)||('placebo', 'noun', 'C0032042', ['topp'], 0.0)||('group', 'noun', 'C0441833', ['idcn'], 0.0)||('.', '', '', '', 0.0)||
('desmopressin', 'noun', 'C0011701', ['aapp', 'horm', 'phsu'], 0.0)||('did', '', '', '', 0.0)||('not', 'adv', 'C1518422', ['ftcn'], 0.0)||('act', 'verb', 'C2712337', ['acty'], 0.0)||('synergistically', '', '', '', 0.0)||('with', '', '', '', 0.0)||('alarm', 'noun', 'C0336648', ['medd'], 0.0)||('treatment', 'noun', 'C0039798', ['ftcn'], 0.0)||('to', '', '', '', 0.0)||('achieve', '', '', '', 0.0)||('remission', 'noun', 'C0544452', ['fndg'], 0.0)||('.', '', '', '', 0.0)||
('therefore', '', '', '', 0.0)||(',', '', '', '', 0.0)||('we', '', '', '', 0.0)||('infer', '', '', '', 0.0)||('that', '', '', '', 0.0)||('in', '', '', '', 0.0)||('partial', 'adj', 'C0728938', ['qnco'], 0.0)||('or', '', '', '', 0.0)||('nonresponders', '', '', '', 0.0)||(',', '', '', '', 0.0)||('desmopressin', 'noun', 'C0011701', ['aapp', 'horm', 'phsu'], 0.0)||('does', '', '', '', 0.0)||('not', 'adv', 'C1518422', ['ftcn'], 0.0)||('enhance', 'verb', 'C2349975', ['acty'], 0.0)||('learning', 'noun', 'C0023185', ['menp'], 0.0)||('.', '', '', '', 0.0)||
