('dry', 'adj', 'C0151908', ['sosy'], 0.0)||('bed', 'noun', 'C0004916', ['mnob'], 0.0)||('training', 'adj', 'C0040607', ['edac'], 0.0)||('refers', '', '', '', 0.0)||('to', '', '', '', 0.0)||('comprehensive', 'adj', 'C1880156', ['qlco'], 0.0)||('regimes', '', '', '', 0.0)||(',', '', '', '', 0.0)||('including', '', '', '', 0.0)||('enuresis', 'noun', 'C0014394', ['sosy'], 0.0)||('alarms', 'noun', 'C0336648', ['medd'], 0.0)||(',', '', '', '', 0.0)||('waking', 'verb', 'C0442696', ['phsf'], 0.0)||('routines', '', '', '', 0.0)||(',', '', '', '', 0.0)||('positive', 'adj', 'C1446409', ['qlco'], 0.0)||('practice', 'noun', 'C0237607', ['menp'], 0.0)||(',', '', '', '', 0.0)||('cleanliness', '', '', '', 0.0)||('training', 'noun', 'C0040607', ['edac'], 0.0)||(',', '', '', '', 0.0)||('and', '', '', '', 0.0)||('bladder training', 'noun', 'C0150474', ['topp'], 0.0)||('in', '', '', '', 0.0)||('various', 'adj', 'C0440102', ['irda'], 0.0)||('combinations', 'noun', 'C0453882', ['mnob'], 0.0)||('.', '', '', '', 0.0)||
('a', '', '', '', 0.0)||('meta - analysis', '', '', '', 0.0)||('examining', 'noun', 'C2004054', ['acty'], 0.0)||('dry', 'adj', 'C0151908', ['sosy'], 0.0)||('bed', 'noun', 'C0004916', ['mnob'], 0.0)||('training', 'noun', 'C0040607', ['edac'], 0.0)||('including', '', '', '', 0.0)||('an', '', '', '', 0.0)||('enuresis', 'noun', 'C0014394', ['sosy'], 0.0)||('alarm', 'noun', 'C0336648', ['medd'], 0.0)||('showed', '', '', '', 0.0)||('children', 'noun', 'C0008059', ['aggp'], 0.0)||('had', '', '', '', 0.0)||('fewer', '', '', '', 0.0)||('wet', 'noun', 'C0205381', ['qlco'], 0.0)||('nights', '', '', '', 0.0)||('compared', 'verb', 'C1707455', ['acty'], 0.0)||('with', '', '', '', 0.0)||('children', 'noun', 'C0008059', ['aggp'], 0.0)||('receiving', '', '', '', 0.0)||('no', '', '', '', 0.0)||('treatment', 'noun', 'C0039798', ['ftcn'], 0.0)||('(', '', '', '', 0.0)||('relative risk', 'noun', 'C0242492', ['qnco'], 0.0)||('of', '', '', '', 0.0)||('failure', 'noun', 'C0231174', ['ftcn'], 0.0)||('=', '', '', '', 0.0)||('0 . 17', '', '', '', 0.0)||(';', '', '', '', 0.0)||('95 %', '', '', '', 0.0)||('ci', 'noun', 'C1417638', ['gngm'], 0.0)||(',', '', '', '', 0.0)||('0 . 11', '', '', '', 0.0)||('-', '', '', '', 0.0)||('0 . 28', '', '', '', 0.0)||(')', '', '', '', 0.0)||('.', '', '', '', 0.0)||
('additionally', '', '', '', 0.0)||(',', '', '', '', 0.0)||('more', '', '', '', 0.0)||('children', 'noun', 'C0008059', ['aggp'], 0.0)||('remained', '', '', '', 0.0)||('dry', 'adj', 'C0151908', ['sosy'], 0.0)||('after', '', '', '', 0.0)||('treatment', 'noun', 'C0039798', ['ftcn'], 0.0)||('stopped', '', '', '', 0.0)||('(', '', '', '', 0.0)||('relative risk', 'noun', 'C0242492', ['qnco'], 0.0)||('of', '', '', '', 0.0)||('relapse', 'noun', 'C0035020', ['phpr'], 0.0)||('=', '', '', '', 0.0)||('0 . 25', '', '', '', 0.0)||(';', '', '', '', 0.0)||('95 %', '', '', '', 0.0)||('ci', 'noun', 'C1417638', ['gngm'], 0.0)||(',', '', '', '', 0.0)||('0 . 16', '', '', '', 0.0)||('-', '', '', '', 0.0)||('0 . 39', '', '', '', 0.0)||(')', '', '', '', 0.0)||('.', '', '', '', 0.0)||
('however', '', '', '', 0.0)||(',', '', '', '', 0.0)||('evidence', 'noun', 'C0332120', ['ftcn'], 0.0)||('was', '', '', '', 0.0)||('not', 'adv', 'C1518422', ['ftcn'], 0.0)||('sufficient', 'adj', 'C0205410', ['qlco'], 0.0)||('to', '', '', '', 0.0)||('show', 'verb', 'C1547282', ['inpr'], 0.0)||('a', '', '', '', 0.0)||('remission', 'noun', 'C0544452', ['fndg'], 0.0)||('benefit', 'noun', 'C0814225', ['qnco'], 0.0)||('for', '', '', '', 0.0)||('dry', 'adj', 'C0151908', ['sosy'], 0.0)||('bed', 'noun', 'C0004916', ['mnob'], 0.0)||('training', 'noun', 'C0040607', ['edac'], 0.0)||('without', '', '', '', 0.0)||('an', '', '', '', 0.0)||('alarm', 'noun', 'C0336648', ['medd'], 0.0)||('(', '', '', '', 0.0)||('relative risk', 'noun', 'C0242492', ['qnco'], 0.0)||('of', '', '', '', 0.0)||('failure', 'noun', 'C0231174', ['ftcn'], 0.0)||('=', '', '', '', 0.0)||('0 . 82', '', '', '', 0.0)||(';', '', '', '', 0.0)||('95 %', '', '', '', 0.0)||('ci', 'noun', 'C1417638', ['gngm'], 0.0)||(',', '', '', '', 0.0)||('0 . 6', '', '', '', 0.0)||('-', '', '', '', 0.0)||('1 . 02', '', '', '', 0.0)||(')', '', '', '', 0.0)||(',', '', '', '', 0.0)||('highlighting', '', '', '', 0.0)||('the', '', '', '', 0.0)||('key', '', '', '', 0.0)||('role', 'noun', 'C0035820', ['socb'], 0.0)||('for', '', '', '', 0.0)||('alarm', 'noun', 'C0336648', ['medd'], 0.0)||('therapy', 'noun', 'C0039798', ['ftcn'], 0.0)||('.', '', '', '', 0.0)||
('on', '', '', '', 0.0)||('the', '', '', '', 0.0)||('other', '', '', '', 0.0)||('hand', 'noun', 'C0018563', ['bpoc'], 0.0)||(',', '', '', '', 0.0)||('dry', 'adj', 'C0151908', ['sosy'], 0.0)||('bed', 'noun', 'C0004916', ['mnob'], 0.0)||('training', 'noun', 'C0040607', ['edac'], 0.0)||('including', '', '', '', 0.0)||('bed', 'noun', 'C0004916', ['mnob'], 0.0)||('alarms', 'noun', 'C0336648', ['medd'], 0.0)||('may', '', '', '', 0.0)||('reduce', '', '', '', 0.0)||('the', '', '', '', 0.0)||('relapse rate', '', '', '', 0.0)||('compared', 'verb', 'C1707455', ['acty'], 0.0)||('with', '', '', '', 0.0)||('alarm', 'noun', 'C0336648', ['medd'], 0.0)||('monotherapy', '', '', '', 0.0)||('(', '', '', '', 0.0)||('relative risk', 'noun', 'C0242492', ['qnco'], 0.0)||('for', '', '', '', 0.0)||('failure', 'noun', 'C0231174', ['ftcn'], 0.0)||('or', '', '', '', 0.0)||('relapse', 'noun', 'C0035020', ['phpr'], 0.0)||('=', '', '', '', 0.0)||('0 . 5', '', '', '', 0.0)||(';', '', '', '', 0.0)||('95 %', '', '', '', 0.0)||('ci', 'noun', 'C1417638', ['gngm'], 0.0)||(',', '', '', '', 0.0)||('0 . 31', '', '', '', 0.0)||('-', '', '', '', 0.0)||('0 . 8', '', '', '', 0.0)||(')', '', '', '', 0.0)||('.', '', '', '', 0.0)||
