tagged_abstract_sents/10028120.txt,2,0.0954875100725,-0.0497180239116,0.188769469584,0.123191979006,0.0122166993826,0.259130067674,0.0397050014975,0.45925932267
tagged_abstract_sents/10028120.txt,3,0.0253827558421,-0.0397924655989,0.188769469584,0.123191979006,0.0122166993826,0.243211818332,0.0385594489368,0.387527354692
tagged_abstract_sents/10028120.txt,4,0.0805801772764,-0.00902323482969,0.188769469584,0.123191979006,0.0122166993826,0.407815910703,0.0416791454527,0.529077465008
tagged_abstract_sents/10028120.txt,5,0.123690572119,-0.0184525152267,0.188769469584,0.123191979006,0.0122166993826,0.217575904496,0.0408276518154,0.435658931107
tagged_abstract_sents/10028120.txt,6,0.140209508461,0.0058651026393,0.188769469584,0.123191979006,0.0122166993826,0.34248379787,0.0454765360426,0.630008170182
tagged_abstract_sents/10028120.txt,7,0.149879129734,0.0584705616964,0.188769469584,0.123191979006,0.0122166993826,0.417930481542,0.0571399588442,0.604786782466
tagged_abstract_sents/10028120.txt,8,0.176470588235,0.0202571621926,0.188769469584,0.123191979006,0.0122166993826,0.523317396317,0.0544260471484,0.784839886969
tagged_abstract_sents/10028120.txt,9,0.166800966962,-0.00654184525152,0.188769469584,0.123191979006,0.0122166993826,0.499540031391,0.052040942163,0.646849007782
tagged_abstract_sents/10028120.txt,10,0.0954875100725,-0.0487254680803,0.188769469584,0.123191979006,0.0122166993826,0.255876329615,0.038784067086,0.456557340074
tagged_abstract_sents/10028120.txt,12,0.0342465753425,0.0371306113242,0.188769469584,0.123191979006,0.0122166993826,0.429292541651,0.0458702348864,0.474249371121
