tagged_abstract_sents/10022110.txt,2,0.206355591311,-0.0504273504274,0.0616692308323,0.106008497564,0.059804880497,0.0,0.0,0.217636167649
tagged_abstract_sents/10022110.txt,4,0.206355591311,-0.0491452991453,0.0616692308323,0.106008497564,0.059804880497,0.0,0.0,0.217892577905
tagged_abstract_sents/10022110.txt,5,0.0048270313757,0.0534188034188,0.0616692308323,0.106008497564,0.059804880497,0.191240413687,0.106595149958,0.378066016622
tagged_abstract_sents/10022110.txt,6,0.0048270313757,-0.0510683760684,0.0616692308323,0.106008497564,0.059804880497,0.0,0.0,0.0562851145722
tagged_abstract_sents/10022110.txt,7,0.0108608205953,0.0559829059829,0.210342442448,0.0253702522065,0.059804880497,0.184424590901,0.0972238485558,0.42330814204
tagged_abstract_sents/10022110.txt,8,0.0108608205953,-0.0472222222222,0.0616692308323,0.106008497564,0.059804880497,0.0,0.0,0.0618813767171
tagged_abstract_sents/10022110.txt,9,0.0261464199517,0.0104700854701,0.210342442448,0.0253702522065,0.059804880497,0.11179971062,0.0741630295934,0.319507551742
tagged_abstract_sents/10022110.txt,10,0.0353982300885,-0.041452991453,0.0616692308323,0.106008497564,0.059804880497,0.0,0.0,0.0826651504655
tagged_abstract_sents/10022110.txt,11,0.0518905872888,-0.00363247863248,0.0616692308323,0.106008497564,0.059804880497,0.0914211070667,0.0477898126464,0.232562484707
tagged_abstract_sents/10022110.txt,12,0.0993563958166,-0.0504273504274,0.0616692308323,0.106008497564,0.059804880497,0.0,0.0,0.132036811253
tagged_abstract_sents/10022110.txt,14,0.172566371681,-0.00042735042735,0.139250797795,0.521468892835,0.059804880497,0.131306592649,0.06972304246,0.576015390046
tagged_abstract_sents/10022110.txt,15,0.172566371681,-0.00683760683761,0.139250797795,0.521468892835,0.059804880497,0.0866105126203,0.0512620348686,0.524624949418
tagged_abstract_sents/10022110.txt,16,0.206355591311,0.0136752136752,0.139250797795,0.521468892835,0.059804880497,0.136754844683,0.056721566032,0.616192761775
tagged_abstract_sents/10022110.txt,17,0.206355591311,0.0232905982906,0.139250797795,0.521468892835,0.059804880497,0.163588009802,0.0753387420542,0.649434753582
tagged_abstract_sents/10022110.txt,18,0.262268704747,-0.0478632478632,0.139250797795,0.521468892835,0.059804880497,0.0,0.0,0.426308380973
tagged_abstract_sents/10022110.txt,19,0.262268704747,0.0476495726496,0.139250797795,0.521468892835,0.059804880497,0.153516387724,0.0610889929742,0.667398388323
