tagged_abstract_sents/10030325.txt,2,0.0954875100725,-0.0569640161047,0.0616692308323,0.247294108221,0.186843666979,0.0,0.0,0.17002005272
tagged_abstract_sents/10030325.txt,4,0.0253827558421,0.0452000503271,0.188769469584,0.123191979006,0.186843666979,0.476561484911,0.0777868119746,0.60506281645
tagged_abstract_sents/10030325.txt,5,0.0805801772764,-0.0584738298943,0.0616692308323,0.247294108221,0.186843666979,0.0,0.0,0.157792223725
tagged_abstract_sents/10030325.txt,6,0.123690572119,-0.0217350276799,0.0616692308323,0.247294108221,0.186843666979,0.259705932868,0.067567074949,0.422679443116
tagged_abstract_sents/10030325.txt,7,0.123690572119,-0.0252579265224,0.210342442448,0.141687475369,0.186843666979,0.155031261485,0.0554511651953,0.586889032626
tagged_abstract_sents/10030325.txt,8,0.140209508461,0.0421804227479,0.194899689933,0.293363477728,0.186843666979,0.525823928252,0.0658617672791,0.80503283174
tagged_abstract_sents/10030325.txt,9,0.149073327961,-0.0448855057876,0.0616692308323,0.247294108221,0.186843666979,0.134071252315,0.0402777777778,0.362252316335
tagged_abstract_sents/10030325.txt,10,0.149879129734,-0.000597634625063,0.0616692308323,0.247294108221,0.186843666979,0.371388794155,0.0625382764654,0.55331417593
tagged_abstract_sents/10030325.txt,11,0.176470588235,-0.0579705586311,0.0616692308323,0.247294108221,0.186843666979,0.0,0.0,0.234605206745
tagged_abstract_sents/10030325.txt,12,0.176470588235,-9.4363361852e-05,0.139250797795,0.194462959676,0.186843666979,0.363355269228,0.0638641386932,0.690238874973
tagged_abstract_sents/10030325.txt,13,0.166800966962,0.049729491696,0.139250797795,0.194462959676,0.186843666979,0.457562832693,0.0863830231448,0.815648498023
tagged_abstract_sents/10030325.txt,14,0.0954875100725,0.101063160544,0.139250797795,0.194462959676,0.186843666979,0.468657537333,0.0751954239416,0.706751487926
tagged_abstract_sents/10030325.txt,15,0.0954875100725,-0.0549509310518,0.139250797795,0.194462959676,0.186843666979,0.0,0.0,0.193364108648
tagged_abstract_sents/10030325.txt,16,0.0342465753425,-0.00361726220433,0.139250797795,0.194462959676,0.186843666979,0.300242415304,0.070968667979,0.452998423494
tagged_abstract_sents/10030325.txt,17,0.0342465753425,0.0225528434826,0.139250797795,0.194462959676,0.186843666979,0.41752526571,0.0564044077824,0.592592609658
