tagged_abstract_sents/10048678.txt,1,0.125905068383,-0.0686710139073,0.0616692308323,0.142474783506,0.0,0.0,0.0,0.160566902393
tagged_abstract_sents/10048678.txt,2,0.239742558327,0.00259680304692,0.188769469584,0.202456734834,0.276568956095,0.265825713235,0.0186849023327,0.908514734176
tagged_abstract_sents/10048678.txt,3,0.218020917136,0.0798661203762,0.188769469584,0.202456734834,0.162840216795,0.420984210161,0.0148535950423,0.944189735025
tagged_abstract_sents/10048678.txt,4,0.162510056315,-0.0296612614692,0.0616692308323,0.142474783506,0.00864187825451,0.292260737607,0.00376125292884,0.502316712016
tagged_abstract_sents/10048678.txt,5,0.162510056315,-0.0356627618443,0.0616692308323,0.142474783506,0.0776999233693,0.207662608361,0.00653531852993,0.488350393411
tagged_abstract_sents/10048678.txt,6,0.101769911504,-0.070921576548,0.139250797795,0.0356431803763,0.0,0.0,0.0,0.147549966904
tagged_abstract_sents/10048678.txt,7,0.0711987127916,0.0198511166253,0.139250797795,0.0356431803763,0.0442919450096,0.307459855352,0.00457472297095,0.497574069901
tagged_abstract_sents/10048678.txt,8,0.0458567980692,-0.00565525996884,0.139250797795,0.0356431803763,0.0589896939425,0.226805075519,0.024584676638,0.426252185571
tagged_abstract_sents/10048678.txt,9,0.0458567980692,-0.0259103237348,0.139250797795,0.0356431803763,0.11788444784,0.174959918075,0.00600133619002,0.410667428824
tagged_abstract_sents/10048678.txt,10,0.0245374094932,-0.0371631369381,0.139250797795,0.0356431803763,0.06776446413,0.11006252244,0.0,0.270342639787
tagged_abstract_sents/10048678.txt,11,0.00844730490748,0.12712793583,0.139250797795,0.0356431803763,0.00142197414692,0.29635651403,0.0239143456125,0.434194617892
tagged_abstract_sents/10048678.txt,12,0.00120675784393,-0.0679208263604,0.0616692308323,0.142474783506,0.0,0.0,0.0,0.0609582914709
tagged_abstract_sents/10048678.txt,13,0.00120675784393,0.112124184892,0.139250797795,0.0356431803763,0.100414312794,0.356889003762,0.00740170281949,0.568413615639
