tagged_abstract_sents/10048678.txt,2,0.0954875100725,-0.0686710139073,0.0616692308323,0.247294108221,0.100414312794,0.0,0.0,0.167678653159
tagged_abstract_sents/10048678.txt,3,0.0253827558421,0.00259680304692,0.188769469584,0.123191979006,0.100414312794,0.265825713235,0.0186849023327,0.487155431815
tagged_abstract_sents/10048678.txt,5,0.123690572119,-0.0296612614692,0.0616692308323,0.247294108221,0.100414312794,0.292260737607,0.00376125292884,0.452601033795
tagged_abstract_sents/10048678.txt,6,0.123690572119,-0.0356627618443,0.0616692308323,0.247294108221,0.100414312794,0.207662608361,0.00653531852993,0.386389233262
tagged_abstract_sents/10048678.txt,7,0.140209508461,-0.070921576548,0.139250797795,0.194462959676,0.100414312794,0.0,0.0,0.225947578259
tagged_abstract_sents/10048678.txt,8,0.149879129734,0.0198511166253,0.139250797795,0.194462959676,0.100414312794,0.307459855352,0.00457472297095,0.520738911113
tagged_abstract_sents/10048678.txt,9,0.176470588235,-0.00565525996884,0.139250797795,0.194462959676,0.100414312794,0.226805075519,0.024584676638,0.392090893946
tagged_abstract_sents/10048678.txt,10,0.176470588235,-0.0259103237348,0.139250797795,0.194462959676,0.100414312794,0.174959918075,0.00600133619002,0.473058032466
tagged_abstract_sents/10048678.txt,11,0.166800966962,-0.0371631369381,0.139250797795,0.194462959676,0.100414312794,0.11006252244,0.0,0.391664162133
tagged_abstract_sents/10048678.txt,12,0.0954875100725,0.12712793583,0.139250797795,0.194462959676,0.100414312794,0.29635651403,0.0239143456125,0.534300321083
tagged_abstract_sents/10048678.txt,13,0.0342465753425,-0.0679208263604,0.0616692308323,0.247294108221,0.100414312794,0.0,0.0,0.118835942884
tagged_abstract_sents/10048678.txt,14,0.0342465753425,0.112124184892,0.139250797795,0.194462959676,0.100414312794,0.356889003762,0.00740170281949,0.4363437137
