tagged_abstract_sents/10050644.txt,1,0.125905068383,-0.0508405962757,0.0616692308323,0.142474783506,0.0,0.0,0.0,0.164132985919
tagged_abstract_sents/10050644.txt,2,0.239742558327,0.00188122112683,0.188769469584,0.202456734834,0.109349921865,0.467551315196,0.0515540944411,0.975747377631
tagged_abstract_sents/10050644.txt,3,0.239742558327,-0.0045482688003,0.188769469584,0.202456734834,0.0186071367752,0.27687578678,0.0793432781517,0.72083234985
tagged_abstract_sents/10050644.txt,4,0.218020917136,-0.0139781873601,0.188769469584,0.202456734834,0.0519074469568,0.416763471803,0.0526078197535,0.848021589993
tagged_abstract_sents/10050644.txt,5,0.218020917136,0.0233128542173,0.188769469584,0.202456734834,0.104624362702,0.358748246687,0.0742057651281,0.871779434312
tagged_abstract_sents/10050644.txt,6,0.162510056315,-0.0521264942611,0.0616692308323,0.142474783506,0.0,0.0,0.0,0.193159796668
tagged_abstract_sents/10050644.txt,7,0.162510056315,0.00873934371577,0.0616692308323,0.142474783506,0.120006972744,0.415482329732,0.0332454065854,0.774067673325
tagged_abstract_sents/10050644.txt,8,0.101769911504,-0.0272657998762,0.0616692308323,0.142474783506,0.0295500078459,0.202618790274,0.0809168637439,0.46262548156
tagged_abstract_sents/10050644.txt,9,0.0852775543041,0.0245987522027,0.0616692308323,0.142474783506,0.0363175150162,0.4693758463,0.0685893604304,0.721001566099
tagged_abstract_sents/10050644.txt,10,0.0711987127916,0.0168833642901,0.0616692308323,0.142474783506,0.0466630460897,0.36262681176,0.0732889876692,0.616491539078
tagged_abstract_sents/10050644.txt,11,0.0458567980692,-0.000690574844025,0.0616692308323,0.142474783506,0.0989810894933,0.384246031754,0.100168273604,0.693519768805
tagged_abstract_sents/10050644.txt,12,0.0458567980692,-0.0521264942611,0.0616692308323,0.142474783506,0.0,0.0,0.0,0.099837190071
tagged_abstract_sents/10050644.txt,13,0.0245374094932,0.0618897937801,0.139250797795,0.0356431803763,0.0260555142637,0.47649062234,0.0774740767691,0.692346452734
tagged_abstract_sents/10050644.txt,14,0.0245374094932,0.0280278134972,0.139250797795,0.0356431803763,0.0591892052228,0.255397580895,0.0358175166252,0.455958146047
tagged_abstract_sents/10050644.txt,15,0.00844730490748,-0.0504119636138,0.0616692308323,0.142474783506,0.0,0.0,0.0,0.0702525016711
tagged_abstract_sents/10050644.txt,16,0.00844730490748,0.037457732057,0.139250797795,0.0356431803763,0.208373407488,0.601545948528,0.0533485797448,0.957835679109
tagged_abstract_sents/10050644.txt,17,0.00120675784393,0.0280278134972,0.139250797795,0.0356431803763,0.101233835363,0.485616840301,0.0687119660577,0.742451963706
tagged_abstract_sents/10050644.txt,18,0.00120675784393,0.0211696909082,0.139250797795,0.0356431803763,0.0446537981162,0.485661932282,0.0610489734212,0.676882401287
