tagged_abstract_sents/10052444.txt,2,0.206355591311,-0.044187044187,0.0616692308323,0.106008497564,0.0873188465146,0.0,0.0,0.218884228897
tagged_abstract_sents/10052444.txt,4,0.206355591311,-0.043329043329,0.0616692308323,0.106008497564,0.0873188465146,0.0,0.0,0.219055829069
tagged_abstract_sents/10052444.txt,5,0.206355591311,0.029172029172,0.188769469584,0.129715814208,0.0873188465146,0.358177532417,0.0274253912705,0.676918590565
tagged_abstract_sents/10052444.txt,6,0.0048270313757,-0.044616044616,0.0616692308323,0.106008497564,0.0873188465146,0.0,0.0,0.0575755808626
tagged_abstract_sents/10052444.txt,7,0.0048270313757,0.015873015873,0.0616692308323,0.106008497564,0.0873188465146,0.351240133835,0.0283853407213,0.429712148961
tagged_abstract_sents/10052444.txt,8,0.0108608205953,-0.044187044187,0.0616692308323,0.106008497564,0.0873188465146,0.0,0.0,0.0624884123241
tagged_abstract_sents/10052444.txt,9,0.0108608205953,-0.033891033891,0.0616692308323,0.106008497564,0.0873188465146,0.201781985291,0.027490704287,0.33467469771
tagged_abstract_sents/10052444.txt,10,0.0261464199517,-0.043758043758,0.0616692308323,0.106008497564,0.0873188465146,0.0,0.0,0.0748026918951
tagged_abstract_sents/10052444.txt,11,0.0261464199517,-0.016302016302,0.210342442448,0.0253702522065,0.0873188465146,0.326443931529,0.040695280737,0.514748173838
tagged_abstract_sents/10052444.txt,12,0.0518905872888,-0.038181038181,0.0616692308323,0.106008497564,0.0873188465146,0.0,0.0,0.0965134268801
tagged_abstract_sents/10052444.txt,13,0.0518905872888,0.012012012012,0.139250797795,0.521468892835,0.0873188465146,0.441370142353,0.0510144565263,0.755240209104
tagged_abstract_sents/10052444.txt,14,0.0993563958166,-0.044187044187,0.139250797795,0.521468892835,0.0873188465146,0.0,0.0,0.296713774564
tagged_abstract_sents/10052444.txt,15,0.0993563958166,0.012012012012,0.139250797795,0.521468892835,0.0873188465146,0.406992425371,0.0395997375328,0.781817748229
tagged_abstract_sents/10052444.txt,16,0.172566371681,0.019734019734,0.139250797795,0.521468892835,0.0873188465146,0.380092694506,0.0472289054146,0.773044048223
tagged_abstract_sents/10052444.txt,17,0.172566371681,0.036465036465,0.139250797795,0.521468892835,0.0873188465146,0.393236067921,0.0451419267036,0.802706459508
tagged_abstract_sents/10052444.txt,18,0.206355591311,0.0630630630631,0.139250797795,0.521468892835,0.0873188465146,0.458598933139,0.0404819189268,0.886792604308
tagged_abstract_sents/10052444.txt,20,0.262268704747,-0.042471042471,0.0616692308323,0.106008497564,0.0873188465146,0.0,0.0,0.263957919988
tagged_abstract_sents/10052444.txt,21,0.262268704747,0.0514800514801,0.139250797795,0.521468892835,0.0873188465146,0.356511636731,0.0432491894396,0.80426235125
tagged_abstract_sents/10052444.txt,22,0.262268704747,0.040755040755,0.139250797795,0.521468892835,0.0873188465146,0.528822241749,0.050629738991,1.00054153498
