tagged_abstract_sents/10076134.txt,2,0.206355591311,-0.0772171253823,0.0616692308323,0.106008497564,0.0814864844592,0.0,0.0,0.212278212658
tagged_abstract_sents/10076134.txt,4,0.0048270313757,0.044495412844,0.194899689933,0.0581677376677,0.0814864844592,0.127126949619,0.036788084581,0.290248386251
tagged_abstract_sents/10076134.txt,5,0.0108608205953,-0.0270642201835,0.139250797795,0.521468892835,0.0814864844592,0.146677188993,0.0523111297305,0.543247767383
tagged_abstract_sents/10076134.txt,6,0.0261464199517,0.00779816513761,0.139250797795,0.521468892835,0.0814864844592,0.145584014249,0.0502443792766,0.520949263634
tagged_abstract_sents/10076134.txt,7,0.0353982300885,-0.0784403669725,0.139250797795,0.521468892835,0.0814864844592,0.0,0.0,0.238696577424
tagged_abstract_sents/10076134.txt,9,0.0993563958166,0.00963302752294,0.139250797795,0.521468892835,0.0814864844592,0.149426289222,0.0429479123028,0.555554372247
tagged_abstract_sents/10076134.txt,10,0.172566371681,0.0646788990826,0.139250797795,0.521468892835,0.0814864844592,0.15925554258,0.0488069848041,0.578132452227
tagged_abstract_sents/10076134.txt,11,0.206355591311,0.02125382263,0.139250797795,0.521468892835,0.0814864844592,0.120069027208,0.0497637666993,0.562233123048
tagged_abstract_sents/10076134.txt,12,0.262268704747,-0.0766055045872,0.0616692308323,0.106008497564,0.0814864844592,0.0,0.0,0.257131027565
tagged_abstract_sents/10076134.txt,13,0.262268704747,0.0334862385321,0.139250797795,0.521468892835,0.0814864844592,0.137125390151,0.0365029325513,0.650552918506
