tagged_abstract_sents/10080415.txt,3,0.0805801772764,-0.0280011915401,0.210342442448,0.141687475369,0.199305190164,0.143920791183,0.066404494382,0.474627473023
tagged_abstract_sents/10080415.txt,4,0.123690572119,-0.0360440869824,0.139250797795,0.194462959676,0.199305190164,0.146162616517,0.0353859623523,0.34313644581
tagged_abstract_sents/10080415.txt,5,0.140209508461,-0.0152666070897,0.139250797795,0.194462959676,0.199305190164,0.130048244811,0.0526653712934,0.298353352919
tagged_abstract_sents/10080415.txt,6,0.149879129734,0.0430443848674,0.139250797795,0.194462959676,0.199305190164,0.125343918385,0.0368699839486,0.161494972603
tagged_abstract_sents/10080415.txt,7,0.176470588235,0.00618111408996,0.139250797795,0.194462959676,0.199305190164,0.106187414114,0.0325748276839,0.150171138846
tagged_abstract_sents/10080415.txt,8,0.166800966962,0.00417039022937,0.139250797795,0.194462959676,0.199305190164,0.0970356234874,0.0342897271268,0.139551241918
tagged_abstract_sents/10080415.txt,9,0.0954875100725,-0.0280011915401,0.139250797795,0.194462959676,0.199305190164,0.146336940539,0.0505778491172,0.482660430484
tagged_abstract_sents/10080415.txt,10,0.0342465753425,-0.018617813524,0.139250797795,0.194462959676,0.199305190164,0.185652576262,0.0617174959872,0.368436054466
