tagged_abstract_sents/10173095.txt,3,0.0451248992748,-0.0114688128773,0.188769469584,0.123191979006,0.106637379399,0.387922034146,0.0559462187063,0.537463275415
tagged_abstract_sents/10173095.txt,4,0.116035455278,0.00596914822267,0.139250797795,0.194462959676,0.106637379399,0.28410838593,0.0302169454388,0.552591257638
tagged_abstract_sents/10173095.txt,5,0.131345688961,-0.0201877934272,0.139250797795,0.194462959676,0.106637379399,0.288013886081,0.0412926510934,0.623386626004
tagged_abstract_sents/10173095.txt,6,0.149073327961,0.0167002012072,0.139250797795,0.194462959676,0.106637379399,0.364874067176,0.0432053911515,0.586477544
tagged_abstract_sents/10173095.txt,7,0.150684931507,-0.0564050972502,0.139250797795,0.194462959676,0.106637379399,0.313814562373,0.0319303430617,0.560318539018
tagged_abstract_sents/10173095.txt,8,0.202256244964,0.0294433266264,0.139250797795,0.194462959676,0.106637379399,0.359947949012,0.055748852427,0.572224273034
tagged_abstract_sents/10173095.txt,9,0.131345688961,-0.034942991281,0.139250797795,0.194462959676,0.106637379399,0.174835593473,0.0445551323371,0.359005724948
tagged_abstract_sents/10173095.txt,10,0.0342465753425,-0.0027498323273,0.139250797795,0.194462959676,0.106637379399,0.286709444792,0.0530953078565,0.360348446076
tagged_abstract_sents/10173095.txt,11,0.0342465753425,-0.043661971831,0.139250797795,0.194462959676,0.106637379399,0.301884203846,0.0344238606398,0.464581192146
