tagged_abstract_sents/10194484.txt,2,0.206355591311,-0.0603012942924,0.0616692308323,0.106008497564,0.185733471319,0.0,0.0,0.215661378876
tagged_abstract_sents/10194484.txt,4,0.0048270313757,-0.0615743687672,0.0616692308323,0.106008497564,0.185733471319,0.0,0.0,0.0541839160324
tagged_abstract_sents/10194484.txt,5,0.0048270313757,0.0810099724167,0.0616692308323,0.106008497564,0.185733471319,0.183131017606,0.0447458455523,0.388868527049
tagged_abstract_sents/10194484.txt,6,0.0108608205953,-0.0182898366221,0.0616692308323,0.106008497564,0.185733471319,0.110410152729,0.0442723607038,0.215676863429
tagged_abstract_sents/10194484.txt,7,0.016894609815,0.00717165287503,0.0616692308323,0.106008497564,0.185733471319,0.119235564566,0.0471882007935,0.337323742864
tagged_abstract_sents/10194484.txt,8,0.0261464199517,0.000169743263314,0.0616692308323,0.106008497564,0.185733471319,0.121233480384,0.0382616487455,0.251551907399
tagged_abstract_sents/10194484.txt,9,0.0518905872888,-0.0615743687672,0.139250797795,0.521468892835,0.185733471319,0.0,0.0,0.255263662826
tagged_abstract_sents/10194484.txt,10,0.0683829444891,0.00971780182474,0.139250797795,0.521468892835,0.185733471319,0.0837485862758,0.0367020076697,0.410341106326
tagged_abstract_sents/10194484.txt,11,0.0993563958166,0.0402715892213,0.139250797795,0.521468892835,0.185733471319,0.11700447752,0.0371609237537,0.493323615811
tagged_abstract_sents/10194484.txt,12,0.172566371681,-0.0125610014853,0.139250797795,0.521468892835,0.185733471319,0.068520293037,0.0188856304985,0.459598023003
tagged_abstract_sents/10194484.txt,14,0.206355591311,-0.0119244642478,0.139250797795,0.521468892835,0.185733471319,0.068520293037,0.0188856304985,0.486756706154
tagged_abstract_sents/10194484.txt,15,0.262268704747,-0.059664757055,0.0616692308323,0.106008497564,0.185733471319,0.0,0.0,0.260519177072
tagged_abstract_sents/10194484.txt,16,0.262268704747,0.0186293231487,0.139250797795,0.521468892835,0.185733471319,0.100287651241,0.0521994134897,0.680564294731
