tagged_abstract_sents/10227593.txt,1,0.125905068383,-0.0539324667172,0.0616692308323,0.142474783506,0.0,0.0,0.0,0.163514611831
tagged_abstract_sents/10227593.txt,2,0.239742558327,0.0318834514686,0.188769469584,0.202456734834,0.140209575824,0.679996459134,0.0385641170508,1.21206264421
tagged_abstract_sents/10227593.txt,3,0.239742558327,0.0100959903748,0.0616692308323,0.142474783506,0.0313903590451,0.620657804004,0.0529433344369,0.97238179269
tagged_abstract_sents/10227593.txt,4,0.218020917136,-0.0552663929067,0.0616692308323,0.142474783506,0.0,0.0,0.0,0.236940505595
tagged_abstract_sents/10227593.txt,5,0.218020917136,0.004315643554,0.0616692308323,0.142474783506,0.165833962154,0.408137084102,0.0390187791607,0.861846738304
tagged_abstract_sents/10227593.txt,6,0.162510056315,0.0478905657416,0.0616692308323,0.142474783506,0.119511942311,0.653645696453,0.0409398627428,1.02726071017
tagged_abstract_sents/10227593.txt,7,0.101769911504,0.0847958569822,0.194899689933,0.13295610691,0.0342395162134,0.769088059188,0.0528880506489,1.09192740369
tagged_abstract_sents/10227593.txt,8,0.101769911504,-0.00502183977192,0.0616692308323,0.142474783506,0.0464103191458,0.366502750849,0.0471748865883,0.6140765683
tagged_abstract_sents/10227593.txt,9,0.0711987127916,-0.0552663929067,0.139250797795,0.0356431803763,0.0,0.0,0.0,0.126224044662
tagged_abstract_sents/10227593.txt,10,0.0711987127916,-0.0374807103811,0.139250797795,0.0356431803763,0.13623604772,0.255655964836,0.049160912369,0.570834106092
tagged_abstract_sents/10227593.txt,11,0.0458567980692,0.0109852745011,0.139250797795,0.0356431803763,0.18334149007,0.450404691955,0.0594760718243,0.812423100215
tagged_abstract_sents/10227593.txt,12,0.0245374094932,0.0194334737007,0.139250797795,0.0356431803763,0.102556046772,0.461041521098,0.0444858025409,0.711918345756
tagged_abstract_sents/10227593.txt,13,0.0245374094932,-0.0348128580022,0.139250797795,0.0356431803763,0.125180227222,0.249330986695,0.0604396882633,0.527936611185
tagged_abstract_sents/10227593.txt,14,0.00844730490748,-0.00546648183506,0.139250797795,0.0356431803763,0.208791149374,0.389878648606,0.0340961963476,0.718748894897
tagged_abstract_sents/10227593.txt,15,0.00844730490748,0.0558941228781,0.139250797795,0.0356431803763,0.14855723289,0.55486805314,0.0494136935919,0.851094001134
tagged_abstract_sents/10227593.txt,16,0.00120675784393,-0.0534878246541,0.139250797795,0.0356431803763,0.0,0.0,0.0,0.0705861943546
tagged_abstract_sents/10227593.txt,17,0.00120675784393,0.0354405879737,0.139250797795,0.0356431803763,0.130233688318,0.6746260716,0.0509712690473,0.944202905845
