tagged_abstract_sents/10333620.txt,1,0.250201126307,-0.0143884892086,0.188769469584,0.202456734834,0.163015504599,0.286742699474,0.0254028713742,0.827566033894
tagged_abstract_sents/10333620.txt,2,0.229283990346,-0.0424460431655,0.188769469584,0.202456734834,0.0,0.206635049501,0.0374938958883,0.574188684276
tagged_abstract_sents/10333620.txt,3,0.206757843926,0.0942446043165,0.188769469584,0.202456734834,0.0817772942895,0.374234072543,0.0339964840316,0.829384802111
tagged_abstract_sents/10333620.txt,4,0.118262268705,-0.00935251798561,0.210342442448,0.226435992083,0.0691377017573,0.298090736233,0.0327204805157,0.665790248721
tagged_abstract_sents/10333620.txt,5,0.0852775543041,-0.0438848920863,0.0616692308323,0.142474783506,0.0177232711449,0.188960334297,0.0282421989452,0.367947919881
tagged_abstract_sents/10333620.txt,6,0.0571198712792,0.0172661870504,0.139250797795,0.0356431803763,0.0530613657566,0.318125329996,0.0315460494189,0.532200232615
tagged_abstract_sents/10333620.txt,7,0.0345937248592,-0.00431654676259,0.139250797795,0.0356431803763,0.0179544606139,0.330204479498,0.0322396984791,0.487528662136
tagged_abstract_sents/10333620.txt,8,0.0144810941271,-0.0230215827338,0.139250797795,0.0356431803763,0.0101941936619,0.204120309189,0.0240578303545,0.32567124497
tagged_abstract_sents/10333620.txt,9,0.00120675784393,-0.0151079136691,0.139250797795,0.0356431803763,0.0042056570197,0.205710730718,0.0249551347788,0.313133699068
tagged_abstract_sents/10333620.txt,10,0.00120675784393,0.0410071942446,0.139250797795,0.0356431803763,0.219023290728,0.337902925543,0.0334816077564,0.679893022161
