tagged_abstract_sents/10333620.txt,2,0.00564061240935,-0.0143884892086,0.188769469584,0.123191979006,0.219023290728,0.286742699474,0.0254028713742,0.472465563954
tagged_abstract_sents/10333620.txt,3,0.0451248992748,-0.0424460431655,0.188769469584,0.123191979006,0.219023290728,0.206635049501,0.0374938958883,0.270669908172
tagged_abstract_sents/10333620.txt,5,0.131345688961,-0.00935251798561,0.210342442448,0.141687475369,0.219023290728,0.298090736233,0.0327204805157,0.573959099367
tagged_abstract_sents/10333620.txt,6,0.149073327961,-0.0438848920863,0.0616692308323,0.247294108221,0.219023290728,0.188960334297,0.0282421989452,0.425280556593
tagged_abstract_sents/10333620.txt,7,0.150684931507,0.0172661870504,0.139250797795,0.194462959676,0.219023290728,0.318125329996,0.0315460494189,0.57325791643
tagged_abstract_sents/10333620.txt,8,0.202256244964,-0.00431654676259,0.139250797795,0.194462959676,0.219023290728,0.330204479498,0.0322396984791,0.524521574329
tagged_abstract_sents/10333620.txt,9,0.131345688961,-0.0230215827338,0.139250797795,0.194462959676,0.219023290728,0.204120309189,0.0240578303545,0.45302946433
tagged_abstract_sents/10333620.txt,10,0.0342465753425,-0.0151079136691,0.139250797795,0.194462959676,0.219023290728,0.205710730718,0.0249551347788,0.359457555884
tagged_abstract_sents/10333620.txt,11,0.0342465753425,0.0410071942446,0.139250797795,0.194462959676,0.219023290728,0.337902925543,0.0334816077564,0.442477034432
