tagged_abstract_sents/10378621.txt,1,0.125905068383,-0.0629595304294,0.0616692308323,0.142474783506,0.0,0.0,0.0,0.161709199088
tagged_abstract_sents/10378621.txt,2,0.239742558327,-0.0272783441458,0.188769469584,0.202456734834,0.302440100844,0.225609767448,0.0150527554935,0.88456275686
tagged_abstract_sents/10378621.txt,3,0.229283990346,0.0825455668829,0.210342442448,0.226435992083,0.0150211958693,0.598939334642,0.0352449589457,1.02224381396
tagged_abstract_sents/10378621.txt,4,0.218020917136,-0.0430336731542,0.188769469584,0.202456734834,0.0451506954323,0.144127125493,0.0086882075023,0.518897782748
tagged_abstract_sents/10378621.txt,5,0.162510056315,-0.0569354340439,0.0616692308323,0.142474783506,0.0,0.0,0.0,0.192198008711
tagged_abstract_sents/10378621.txt,6,0.118262268705,0.0440840284214,0.139250797795,0.0356431803763,0.0188851919895,0.492933350239,0.0368036724912,0.732367188378
tagged_abstract_sents/10378621.txt,7,0.101769911504,0.0366697559469,0.139250797795,0.0356431803763,0.0209109737422,0.380247546637,0.0266393442623,0.596866098044
tagged_abstract_sents/10378621.txt,8,0.0711987127916,-0.00874266295953,0.139250797795,0.0356431803763,0.0186393532871,0.295238706657,0.0293294384374,0.478736289033
tagged_abstract_sents/10378621.txt,9,0.0571198712792,-0.0629595304294,0.139250797795,0.0356431803763,0.0,0.0,0.0,0.113422343948
tagged_abstract_sents/10378621.txt,10,0.0458567980692,-0.0235712079086,0.139250797795,0.0356431803763,0.0343767921972,0.172427261227,0.0220010195594,0.341094622867
tagged_abstract_sents/10378621.txt,11,0.0245374094932,0.116836577078,0.139250797795,0.0356431803763,0.0416657468389,0.518622744318,0.033688851587,0.717292938764
tagged_abstract_sents/10378621.txt,12,0.0144810941271,0.0788384306457,0.139250797795,0.0356431803763,0.0726554407148,0.526474426645,0.0256801534705,0.732480935272
tagged_abstract_sents/10378621.txt,13,0.00844730490748,-0.0346926166203,0.139250797795,0.0356431803763,0.0441170005153,0.134474172302,0.0253353204173,0.284064166847
tagged_abstract_sents/10378621.txt,14,0.00120675784393,-0.0615693543404,0.139250797795,0.0356431803763,0.0,0.0,0.0,0.0689698884173
tagged_abstract_sents/10378621.txt,15,0.00120675784393,0.0227679950572,0.139250797795,0.0356431803763,0.0230859123249,0.401753045773,0.0204952912452,0.53117160764
