tagged_abstract_sents/10378621.txt,2,0.206355591311,-0.0629595304294,0.0616692308323,0.106008497564,0.0230859123249,0.0,0.0,0.215129731648
tagged_abstract_sents/10378621.txt,3,0.206355591311,-0.0272783441458,0.188769469584,0.129715814208,0.0230859123249,0.225609767448,0.0150527554935,0.71040551433
tagged_abstract_sents/10378621.txt,5,0.0048270313757,-0.0430336731542,0.188769469584,0.129715814208,0.0230859123249,0.144127125493,0.0086882075023,0.304098557236
tagged_abstract_sents/10378621.txt,6,0.0108608205953,-0.0569354340439,0.0616692308323,0.106008497564,0.0230859123249,0.0,0.0,0.0599387343528
tagged_abstract_sents/10378621.txt,7,0.016894609815,0.0440840284214,0.139250797795,0.521468892835,0.0230859123249,0.492933350239,0.0368036724912,0.752588151742
tagged_abstract_sents/10378621.txt,8,0.0261464199517,0.0366697559469,0.139250797795,0.521468892835,0.0230859123249,0.380247546637,0.0266393442623,0.653536297711
tagged_abstract_sents/10378621.txt,9,0.0518905872888,-0.00874266295953,0.139250797795,0.521468892835,0.0230859123249,0.295238706657,0.0293294384374,0.563980776765
tagged_abstract_sents/10378621.txt,10,0.0683829444891,-0.0629595304294,0.139250797795,0.521468892835,0.0230859123249,0.0,0.0,0.268180516253
tagged_abstract_sents/10378621.txt,11,0.0993563958166,-0.0235712079086,0.139250797795,0.521468892835,0.0230859123249,0.172427261227,0.0220010195594,0.509418517715
tagged_abstract_sents/10378621.txt,13,0.214802896219,0.0788384306457,0.139250797795,0.521468892835,0.0230859123249,0.526474426645,0.0256801534705,0.926964983878
tagged_abstract_sents/10378621.txt,14,0.206355591311,-0.0346926166203,0.139250797795,0.521468892835,0.0230859123249,0.134474172302,0.0253353204173,0.565904330343
tagged_abstract_sents/10378621.txt,15,0.262268704747,-0.0615693543404,0.139250797795,0.521468892835,0.0230859123249,0.0,0.0,0.423567159677
tagged_abstract_sents/10378621.txt,16,0.262268704747,0.0227679950572,0.139250797795,0.521468892835,0.0230859123249,0.401753045773,0.0204952912452,0.865347778887
