tagged_abstract_sents/10376614.txt,2,0.206355591311,-0.0522089773973,0.0616692308323,0.106008497564,0.186133291275,0.0,0.0,0.217279842255
tagged_abstract_sents/10376614.txt,3,0.206355591311,0.00371405327014,0.188769469584,0.129715814208,0.186133291275,0.246816906909,0.048478855357,0.660807119984
tagged_abstract_sents/10376614.txt,5,0.0048270313757,-0.0540129461285,0.194899689933,0.0581677376677,0.186133291275,0.0,0.0,0.107959202141
tagged_abstract_sents/10376614.txt,6,0.0048270313757,0.0885005836369,0.210342442448,0.0253702522065,0.186133291275,0.321280636044,0.0800584773904,0.598163795288
tagged_abstract_sents/10376614.txt,7,0.0108608205953,-0.014325634042,0.0616692308323,0.106008497564,0.186133291275,0.196134683578,0.107437249731,0.371730715573
tagged_abstract_sents/10376614.txt,8,0.0261464199517,0.0247603551342,0.210342442448,0.0253702522065,0.186133291275,0.302317569243,0.096604893056,0.603398659192
tagged_abstract_sents/10376614.txt,9,0.0261464199517,-0.0119203424003,0.0616692308323,0.106008497564,0.186133291275,0.166509359701,0.0305920639571,0.28123155869
tagged_abstract_sents/10376614.txt,10,0.0518905872888,-0.0125216653107,0.0616692308323,0.106008497564,0.186133291275,0.198259016287,0.0430022463131,0.32473313527
tagged_abstract_sents/10376614.txt,11,0.0518905872888,-0.0534116232181,0.0616692308323,0.106008497564,0.186133291275,0.0,0.0,0.0934673098727
tagged_abstract_sents/10376614.txt,12,0.0993563958166,-0.00710975911712,0.0616692308323,0.106008497564,0.186133291275,0.305717955627,0.0796000585995,0.522284241103
tagged_abstract_sents/10376614.txt,13,0.172566371681,-0.0401825191893,0.0616692308323,0.106008497564,0.186133291275,0.103916552446,0.014437445063,0.306511813643
tagged_abstract_sents/10376614.txt,15,0.206355591311,0.0650489901312,0.139250797795,0.521468892835,0.186133291275,0.327071118898,0.0929867085742,0.875665708272
tagged_abstract_sents/10376614.txt,16,0.206355591311,-0.0498036857557,0.139250797795,0.521468892835,0.186133291275,0.0,0.0,0.381189802646
tagged_abstract_sents/10376614.txt,17,0.262268704747,-0.00710975911712,0.139250797795,0.521468892835,0.186133291275,0.179879696107,0.0463877610816,0.657529958914
tagged_abstract_sents/10376614.txt,18,0.262268704747,-0.0419864879205,0.139250797795,0.521468892835,0.186133291275,0.13744550322,0.0680242211153,0.74100458658
