tagged_abstract_sents/10383366.txt,2,0.0954875100725,-0.0350405770965,0.0616692308323,0.247294108221,0.30666610277,0.0,0.0,0.157133126817
tagged_abstract_sents/10383366.txt,3,0.0954875100725,0.0163570784491,0.188769469584,0.123191979006,0.30666610277,0.511150626826,0.0675306211724,0.758828538106
tagged_abstract_sents/10383366.txt,4,0.0253827558421,-0.0354914337241,0.0616692308323,0.247294108221,0.30666610277,0.0,0.0,0.100959152107
tagged_abstract_sents/10383366.txt,5,0.0253827558421,0.00959422903517,0.188769469584,0.123191979006,0.30666610277,0.512110673242,0.0759300467876,0.702677991982
tagged_abstract_sents/10383366.txt,6,0.0451248992748,-0.0368440036069,0.0616692308323,0.247294108221,0.30666610277,0.0,0.0,0.116482352877
tagged_abstract_sents/10383366.txt,7,0.0805801772764,-0.025572587917,0.0616692308323,0.247294108221,0.30666610277,0.151878068111,0.0830489938758,0.368676512416
tagged_abstract_sents/10383366.txt,8,0.0805801772764,-0.0363931469793,0.0616692308323,0.247294108221,0.30666610277,0.0,0.0,0.144936746603
tagged_abstract_sents/10383366.txt,9,0.123690572119,-0.0215148782687,0.0616692308323,0.247294108221,0.30666610277,0.1059810021,0.0279554899388,0.303269688817
tagged_abstract_sents/10383366.txt,10,0.123690572119,-0.0341388638413,0.0616692308323,0.247294108221,0.30666610277,0.0,0.0,0.179875919105
tagged_abstract_sents/10383366.txt,11,0.131345688961,-0.00167718665464,0.0616692308323,0.247294108221,0.30666610277,0.326820286679,0.0425351242859,0.626446564082
tagged_abstract_sents/10383366.txt,12,0.140209508461,-0.0341388638413,0.0616692308323,0.247294108221,0.30666610277,0.0,0.0,0.193091068179
tagged_abstract_sents/10383366.txt,13,0.140209508461,0.0470153291253,0.0616692308323,0.247294108221,0.30666610277,0.673538062484,0.068642461359,0.990426570171
tagged_abstract_sents/10383366.txt,14,0.149879129734,-0.0251217312894,0.0616692308323,0.247294108221,0.30666610277,0.126745176244,0.0108693010596,0.464731369845
tagged_abstract_sents/10383366.txt,15,0.149879129734,-0.0363931469793,0.139250797795,0.194462959676,0.30666610277,0.0,0.0,0.223317347487
tagged_abstract_sents/10383366.txt,16,0.150684931507,-0.00257889990983,0.139250797795,0.194462959676,0.30666610277,0.252499385395,0.0567546244219,0.501558574969
tagged_abstract_sents/10383366.txt,18,0.176470588235,0.03303877367,0.139250797795,0.194462959676,0.30666610277,0.452578243752,0.0693064408616,0.621563973951
tagged_abstract_sents/10383366.txt,19,0.166800966962,-0.0228674481515,0.139250797795,0.194462959676,0.30666610277,0.100185222291,0.0415436351706,0.444433264531
tagged_abstract_sents/10383366.txt,20,0.166800966962,0.00643823264202,0.139250797795,0.194462959676,0.30666610277,0.5077220603,0.0660494883792,0.771475147722
tagged_abstract_sents/10383366.txt,21,0.131345688961,0.0122993688007,0.139250797795,0.194462959676,0.30666610277,0.53012993397,0.0684488006707,0.850887353652
tagged_abstract_sents/10383366.txt,22,0.0954875100725,0.109684400361,0.139250797795,0.194462959676,0.30666610277,0.583461170593,0.0741827343697,0.815054209875
tagged_abstract_sents/10383366.txt,23,0.0954875100725,0.0231199278629,0.139250797795,0.194462959676,0.30666610277,0.538906953601,0.0727503463109,0.805215444948
tagged_abstract_sents/10383366.txt,24,0.0342465753425,-0.0345897204689,0.0616692308323,0.247294108221,0.30666610277,0.0,0.0,0.108230550358
tagged_abstract_sents/10383366.txt,25,0.0342465753425,0.0181605049594,0.139250797795,0.194462959676,0.30666610277,0.564910767936,0.0617716535433,0.77029635818
tagged_abstract_sents/10383366.txt,26,0.0342465753425,-0.0201623083859,0.139250797795,0.194462959676,0.30666610277,0.128485120732,0.0372557596967,0.235198630066
