tagged_abstract_sents/10438259.txt,2,0.0954875100725,-0.0572519083969,0.0616692308323,0.247294108221,0.165823447617,0.0,0.0,0.169962474261
tagged_abstract_sents/10438259.txt,4,0.0253827558421,-0.0586832061069,0.0616692308323,0.247294108221,0.165823447617,0.0,0.0,0.113592411335
tagged_abstract_sents/10438259.txt,5,0.0805801772764,0.0749045801527,0.194899689933,0.293363477728,0.165823447617,0.184431170935,0.024293255132,0.367089920819
tagged_abstract_sents/10438259.txt,6,0.123690572119,-0.0190839694656,0.0616692308323,0.247294108221,0.165823447617,0.134045840798,0.0304147465438,0.336845398615
tagged_abstract_sents/10438259.txt,7,0.123690572119,-0.0586832061069,0.0616692308323,0.247294108221,0.165823447617,0.0,0.0,0.192238664357
tagged_abstract_sents/10438259.txt,8,0.140209508461,-0.0458015267176,0.139250797795,0.194462959676,0.165823447617,0.0628297599316,0.00821114369501,0.252576927323
tagged_abstract_sents/10438259.txt,9,0.149073327961,0.0443702290076,0.139250797795,0.194462959676,0.165823447617,0.15956721563,0.0244734737403,0.379674695446
tagged_abstract_sents/10438259.txt,10,0.149879129734,-0.0286259541985,0.139250797795,0.194462959676,0.165823447617,0.110882634956,0.0313782991202,0.329692803955
tagged_abstract_sents/10438259.txt,11,0.176470588235,0.013358778626,0.139250797795,0.194462959676,0.165823447617,0.132889534477,0.0137366877605,0.283785032682
tagged_abstract_sents/10438259.txt,12,0.176470588235,0.0243320610687,0.139250797795,0.194462959676,0.165823447617,0.176545893915,0.0275149815122,0.393292174978
tagged_abstract_sents/10438259.txt,13,0.166800966962,0.0109732824427,0.139250797795,0.194462959676,0.165823447617,0.193512909593,0.0284023025959,0.372179305435
tagged_abstract_sents/10438259.txt,14,0.0954875100725,0.0100190839695,0.139250797795,0.194462959676,0.165823447617,0.174690588128,0.023156294124,0.339016236225
tagged_abstract_sents/10438259.txt,15,0.0954875100725,-0.0567748091603,0.139250797795,0.194462959676,0.165823447617,0.0,0.0,0.192999333026
tagged_abstract_sents/10438259.txt,16,0.0342465753425,0.0314885496183,0.139250797795,0.194462959676,0.165823447617,0.235035376155,0.0304618768328,0.303426031072
tagged_abstract_sents/10438259.txt,17,0.0342465753425,0.0214694656489,0.139250797795,0.194462959676,0.165823447617,0.180194918561,0.0302785923754,0.320406533968
