tagged_abstract_sents/10449550.txt,2,0.206355591311,-0.0332433221428,0.0616692308323,0.106008497564,0.225425864833,0.0,0.0,0.221072973306
tagged_abstract_sents/10449550.txt,4,0.206355591311,-0.0346664720479,0.0616692308323,0.106008497564,0.225425864833,0.0,0.0,0.220788343325
tagged_abstract_sents/10449550.txt,5,0.206355591311,0.0331703400963,0.210342442448,0.0253702522065,0.225425864833,0.128203120926,0.00463343108504,0.437110440048
tagged_abstract_sents/10449550.txt,6,0.206355591311,-0.0128448401693,0.0616692308323,0.106008497564,0.225425864833,0.0790251709299,0.0,0.342541946214
tagged_abstract_sents/10449550.txt,7,0.0048270313757,-0.00430594073858,0.194899689933,0.0581677376677,0.225425864833,0.0992611722672,0.0,0.212279619837
tagged_abstract_sents/10449550.txt,8,0.0048270313757,0.025580207269,0.210342442448,0.0253702522065,0.225425864833,0.0826354998022,0.00631831511597,0.192545230812
tagged_abstract_sents/10449550.txt,9,0.0108608205953,-0.00288279083345,0.0616692308323,0.106008497564,0.225425864833,0.0746632556622,0.00772238514174,0.266258021228
tagged_abstract_sents/10449550.txt,10,0.0108608205953,0.0374397898117,0.0616692308323,0.106008497564,0.225425864833,0.167712693418,0.00330959363217,0.232330665625
tagged_abstract_sents/10449550.txt,11,0.0108608205953,-0.0346664720479,0.0616692308323,0.106008497564,0.225425864833,0.0,0.0,0.064392526752
tagged_abstract_sents/10449550.txt,12,0.0261464199517,0.0066048752007,0.139250797795,0.521468892835,0.225425864833,0.0787026125089,0.00695014662757,0.340954916954
tagged_abstract_sents/10449550.txt,13,0.0261464199517,-0.0109473069625,0.139250797795,0.521468892835,0.225425864833,0.0878365643155,0.0,0.350284747859
tagged_abstract_sents/10449550.txt,14,0.0353982300885,-0.00430594073858,0.139250797795,0.521468892835,0.225425864833,0.0680546482599,0.0,0.345365996892
tagged_abstract_sents/10449550.txt,15,0.0518905872888,-0.0156911399796,0.139250797795,0.521468892835,0.225425864833,0.0347741376058,0.0,0.293209935314
tagged_abstract_sents/10449550.txt,16,0.0518905872888,-0.00904977375566,0.139250797795,0.521468892835,0.225425864833,0.0533124797592,0.00992878089652,0.396903296758
tagged_abstract_sents/10449550.txt,17,0.0993563958166,-0.0123704568676,0.139250797795,0.521468892835,0.225425864833,0.0374130830574,0.0,0.398322207849
tagged_abstract_sents/10449550.txt,19,0.0993563958166,-0.0171142898847,0.139250797795,0.521468892835,0.225425864833,0.0524474508177,0.00868768328446,0.353493446911
tagged_abstract_sents/10449550.txt,20,0.172566371681,0.0350678733032,0.139250797795,0.521468892835,0.225425864833,0.0977640872633,0.0057917888563,0.529530778968
tagged_abstract_sents/10449550.txt,21,0.172566371681,0.0260545905707,0.139250797795,0.521468892835,0.225425864833,0.103706788639,5.63952176855e-05,0.491335897264
tagged_abstract_sents/10449550.txt,22,0.206355591311,0.000912275580207,0.139250797795,0.521468892835,0.225425864833,0.0653912441177,0.0,0.490535927203
tagged_abstract_sents/10449550.txt,23,0.206355591311,-0.00288279083345,0.139250797795,0.521468892835,0.225425864833,0.0886973601806,0.00631831511597,0.470926647519
tagged_abstract_sents/10449550.txt,24,0.206355591311,-0.0199605896949,0.139250797795,0.521468892835,0.225425864833,0.049442928671,0.0,0.423971404372
tagged_abstract_sents/10449550.txt,25,0.262268704747,-0.032768938841,0.139250797795,0.521468892835,0.225425864833,0.0,0.0,0.429327242777
tagged_abstract_sents/10449550.txt,26,0.262268704747,0.0393373230185,0.139250797795,0.521468892835,0.225425864833,0.101023187718,0.0,0.652949221651
tagged_abstract_sents/10449550.txt,27,0.262268704747,-0.00667785724712,0.139250797795,0.521468892835,0.225425864833,0.0808285493055,0.0,0.634385919394
