tagged_abstract_sents/10443654.txt,2,0.00564061240935,-0.00679711637487,0.188769469584,0.123191979006,0.145713997819,0.210090449236,0.0795119740122,0.261715184225
tagged_abstract_sents/10443654.txt,4,0.116035455278,-0.0315139031926,0.210342442448,0.141687475369,0.145713997819,0.176845436124,0.103077023159,0.472718972114
tagged_abstract_sents/10443654.txt,5,0.131345688961,-0.0340885684861,0.0616692308323,0.247294108221,0.145713997819,0.155821362637,0.0557398733628,0.350037259971
tagged_abstract_sents/10443654.txt,6,0.149073327961,-0.0721936148301,0.0616692308323,0.247294108221,0.145713997819,0.0795574380034,0.0588149194104,0.306464728881
tagged_abstract_sents/10443654.txt,7,0.150684931507,0.0076210092688,0.139250797795,0.194462959676,0.145713997819,0.162169248693,0.0934543325527,0.471325840433
tagged_abstract_sents/10443654.txt,8,0.202256244964,-0.0129763130793,0.139250797795,0.194462959676,0.145713997819,0.153424898235,0.09375,0.513433846428
tagged_abstract_sents/10443654.txt,9,0.131345688961,0.0405767250257,0.139250797795,0.194462959676,0.145713997819,0.167392649311,0.0923088182309,0.473874409549
tagged_abstract_sents/10443654.txt,10,0.0342465753425,-0.00628218331617,0.139250797795,0.194462959676,0.145713997819,0.160339946885,0.129537470726,0.371994362803
tagged_abstract_sents/10443654.txt,11,0.0342465753425,0.0709577754892,0.139250797795,0.194462959676,0.145713997819,0.251951239284,0.134113686458,0.394851390824
