tagged_abstract_sents/10496256.txt,1,0.125905068383,-0.0532462845707,0.0616692308323,0.142474783506,0.0,0.0,0.0,0.16365184826
tagged_abstract_sents/10496256.txt,2,0.239742558327,0.0292969390768,0.188769469584,0.202456734834,0.39405802676,0.308740144048,0.0416042489446,1.09717760947
tagged_abstract_sents/10496256.txt,3,0.239742558327,-0.0526885600866,0.0616692308323,0.142474783506,0.0,0.0,0.0,0.254833385112
tagged_abstract_sents/10496256.txt,4,0.218020917136,0.0125652045537,0.210342442448,0.226435992083,0.0627363457992,0.227989212414,0.0489261481523,0.689683499834
tagged_abstract_sents/10496256.txt,5,0.218020917136,-0.0543617335389,0.0616692308323,0.142474783506,0.0,0.0,0.0,0.237121437469
tagged_abstract_sents/10496256.txt,6,0.162510056315,0.0499327449887,0.210342442448,0.226435992083,0.148555559827,0.315520450904,0.0404154750556,0.817588098685
tagged_abstract_sents/10496256.txt,7,0.101769911504,0.0577408877661,0.0616692308323,0.142474783506,0.0536023725742,0.550733832479,0.0396359628217,0.8105133251
tagged_abstract_sents/10496256.txt,8,0.101769911504,-0.0543617335389,0.139250797795,0.0356431803763,0.0,0.0,0.0,0.150861935506
tagged_abstract_sents/10496256.txt,9,0.0711987127916,0.00364161280798,0.139250797795,0.0356431803763,0.0881971468319,0.105199294482,0.0390583624616,0.37046044958
tagged_abstract_sents/10496256.txt,10,0.0711987127916,-0.00249335651717,0.139250797795,0.0356431803763,0.216512544367,0.214232892621,0.0454559898316,0.612980078759
tagged_abstract_sents/10496256.txt,11,0.0458567980692,-0.0197828155244,0.139250797795,0.0356431803763,0.0,0.189300097512,0.0388465204957,0.341193846368
tagged_abstract_sents/10496256.txt,12,0.0245374094932,0.0493750205046,0.139250797795,0.0356431803763,0.116924022219,0.502679811931,0.0502939307277,0.779721049583
tagged_abstract_sents/10496256.txt,13,0.0245374094932,0.00921885764903,0.139250797795,0.0356431803763,0.0660440018011,0.252033505567,0.0430986904822,0.462968249985
tagged_abstract_sents/10496256.txt,14,0.00844730490748,-0.0521308356025,0.139250797795,0.0356431803763,0.0,0.0,0.0,0.0766500298158
tagged_abstract_sents/10496256.txt,15,0.00844730490748,0.0103343066172,0.139250797795,0.0356431803763,0.204706216101,0.281303616665,0.0377677989062,0.612920689931
tagged_abstract_sents/10496256.txt,16,0.00120675784393,-0.0192250910403,0.139250797795,0.0356431803763,0.0,0.169031842027,0.0263516274002,0.272822210505
tagged_abstract_sents/10496256.txt,17,0.00120675784393,0.0861848364555,0.139250797795,0.0356431803763,0.0721140820818,0.479644272864,0.0440964183576,0.69437549988
