tagged_abstract_sents/10513500.txt,2,0.0954875100725,-0.0677655677656,0.0616692308323,0.247294108221,0.032697136262,0.0,0.0,0.167859742387
tagged_abstract_sents/10513500.txt,4,0.0805801772764,-0.0695970695971,0.0616692308323,0.247294108221,0.032697136262,0.0,0.0,0.155567575784
tagged_abstract_sents/10513500.txt,5,0.123690572119,0.00732600732601,0.0616692308323,0.247294108221,0.032697136262,0.184548989901,0.0753318077803,0.436996328703
tagged_abstract_sents/10513500.txt,6,0.123690572119,0.119047619048,0.0616692308323,0.247294108221,0.032697136262,0.253858256106,0.0455278081783,0.456334813474
tagged_abstract_sents/10513500.txt,7,0.140209508461,-0.0173992673993,0.0616692308323,0.247294108221,0.032697136262,0.13163188456,0.0808288838037,0.425105549813
tagged_abstract_sents/10513500.txt,8,0.149879129734,-0.0238095238095,0.0616692308323,0.247294108221,0.032697136262,0.101872723278,0.0573150266972,0.351025171275
tagged_abstract_sents/10513500.txt,9,0.176470588235,-0.0695970695971,0.0616692308323,0.247294108221,0.032697136262,0.0,0.0,0.232279904551
tagged_abstract_sents/10513500.txt,10,0.176470588235,0.0741758241758,0.139250797795,0.194462959676,0.032697136262,0.25687290308,0.0611184712353,0.626554514393
tagged_abstract_sents/10513500.txt,11,0.166800966962,0.0503663003663,0.139250797795,0.194462959676,0.032697136262,0.186852471299,0.045136028477,0.494253949585
tagged_abstract_sents/10513500.txt,12,0.0954875100725,-0.0668498168498,0.0616692308323,0.247294108221,0.032697136262,0.0,0.0,0.168042892571
tagged_abstract_sents/10513500.txt,13,0.0342465753425,0.0338827838828,0.139250797795,0.194462959676,0.032697136262,0.204167159044,0.0645986948046,0.160074482225
tagged_abstract_sents/10513500.txt,14,0.0342465753425,0.014652014652,0.139250797795,0.194462959676,0.032697136262,0.150302292295,0.0610933129926,0.188547354872
