tagged_abstract_sents/10532723.txt,2,0.0954875100725,-0.0389572034581,0.0616692308323,0.247294108221,0.101726413342,0.0,0.0,0.173621415249
tagged_abstract_sents/10532723.txt,3,0.0954875100725,0.00061751597487,0.188769469584,0.123191979006,0.101726413342,0.126891674078,0.0304985337243,0.337437100253
tagged_abstract_sents/10532723.txt,4,0.0253827558421,-0.00174515384202,0.188769469584,0.123191979006,0.101726413342,0.0798681303192,0.050742913001,0.199003827583
tagged_abstract_sents/10532723.txt,6,0.0805801772764,0.0112495301509,0.0616692308323,0.247294108221,0.101726413342,0.124396564765,0.0199169110459,0.208858234826
tagged_abstract_sents/10532723.txt,7,0.0805801772764,-0.0330505289159,0.0616692308323,0.247294108221,0.101726413342,0.0,0.0,0.16287688392
tagged_abstract_sents/10532723.txt,8,0.123690572119,0.00416152070021,0.0616692308323,0.247294108221,0.101726413342,0.0950899633415,0.0343841642229,0.396938670089
tagged_abstract_sents/10532723.txt,9,0.123690572119,-0.00942383074693,0.0616692308323,0.247294108221,0.101726413342,0.0946444112454,0.0355327468231,0.27774941735
tagged_abstract_sents/10532723.txt,10,0.140209508461,0.0130215325136,0.0616692308323,0.247294108221,0.101726413342,0.154750587697,0.0364969341509,0.389990673519
tagged_abstract_sents/10532723.txt,11,0.140209508461,0.0230628792354,0.0616692308323,0.247294108221,0.101726413342,0.142916509087,0.0327188940092,0.274558118298
tagged_abstract_sents/10532723.txt,12,0.149073327961,-0.0407292058208,0.139250797795,0.194462959676,0.101726413342,0.0,0.0,0.239077108005
tagged_abstract_sents/10532723.txt,13,0.149879129734,-0.012377168018,0.139250797795,0.194462959676,0.101726413342,0.117344349828,0.0332585820252,0.331831967954
tagged_abstract_sents/10532723.txt,14,0.149879129734,-0.0188745100145,0.139250797795,0.194462959676,0.101726413342,0.0917439617124,0.0351906158358,0.393210703185
tagged_abstract_sents/10532723.txt,15,0.176470588235,0.0130215325136,0.139250797795,0.194462959676,0.101726413342,0.134870273439,0.0384627257293,0.541214307467
tagged_abstract_sents/10532723.txt,16,0.176470588235,-0.012377168018,0.139250797795,0.194462959676,0.101726413342,0.0845349851027,0.0203567937439,0.33552105481
tagged_abstract_sents/10532723.txt,17,0.166800966962,0.0307415561403,0.139250797795,0.194462959676,0.101726413342,0.109845409669,0.0274969811972,0.420400058854
tagged_abstract_sents/10532723.txt,18,0.166800966962,0.00179885088332,0.139250797795,0.194462959676,0.101726413342,0.115457005024,0.0310443141088,0.429380950659
tagged_abstract_sents/10532723.txt,19,0.0954875100725,0.0130215325136,0.139250797795,0.194462959676,0.101726413342,0.0923212993619,0.0282624633431,0.275878522139
tagged_abstract_sents/10532723.txt,20,0.0954875100725,-0.0383665360039,0.0616692308323,0.247294108221,0.101726413342,0.0,0.0,0.17373954874
tagged_abstract_sents/10532723.txt,21,0.0342465753425,0.0508242495838,0.139250797795,0.194462959676,0.101726413342,0.219682228236,0.0465770047528,0.382506512564
tagged_abstract_sents/10532723.txt,22,0.0342465753425,0.00770552542555,0.139250797795,0.194462959676,0.101726413342,0.105716500327,0.0340520959117,0.350035986215
tagged_abstract_sents/10532723.txt,23,0.0342465753425,0.00475218815443,0.139250797795,0.194462959676,0.101726413342,0.0962882436609,0.0301869501466,0.208309523639
