tagged_abstract_sents/10582925.txt,2,0.206355591311,-0.0527885263943,0.0616692308323,0.106008497564,0.105939093128,0.0,0.0,0.217163932456
tagged_abstract_sents/10582925.txt,4,0.206355591311,-0.0545990272995,0.0616692308323,0.106008497564,0.105939093128,0.0,0.0,0.216801832274
tagged_abstract_sents/10582925.txt,5,0.0048270313757,-0.0298555149278,0.0616692308323,0.106008497564,0.105939093128,0.0615223513366,0.0366264020708,0.151592852766
tagged_abstract_sents/10582925.txt,6,0.0048270313757,0.0202350101175,0.0616692308323,0.106008497564,0.105939093128,0.130803591738,0.0289761288467,0.287578581741
tagged_abstract_sents/10582925.txt,7,0.0108608205953,-0.0539955269978,0.0616692308323,0.106008497564,0.105939093128,0.0,0.0,0.060526715762
tagged_abstract_sents/10582925.txt,8,0.0261464199517,-0.0141645070823,0.139250797795,0.521468892835,0.105939093128,0.0479130387634,0.00485332182916,0.291498393317
tagged_abstract_sents/10582925.txt,9,0.0261464199517,-0.053392026696,0.139250797795,0.521468892835,0.105939093128,0.0,0.0,0.23630479737
tagged_abstract_sents/10582925.txt,10,0.0518905872888,-0.031666015833,0.139250797795,0.521468892835,0.105939093128,0.0722744519727,0.0213276531493,0.38544335851
tagged_abstract_sents/10582925.txt,11,0.0518905872888,-0.0539955269978,0.139250797795,0.521468892835,0.105939093128,0.0,0.0,0.256779431179
tagged_abstract_sents/10582925.txt,12,0.0993563958166,0.052824026412,0.139250797795,0.521468892835,0.105939093128,0.163381678093,0.0285755372037,0.502553937877
tagged_abstract_sents/10582925.txt,13,0.172566371681,0.111967055984,0.139250797795,0.521468892835,0.105939093128,0.132534716056,0.0321996932221,0.576777524895
tagged_abstract_sents/10582925.txt,15,0.206355591311,-0.0515815257908,0.139250797795,0.521468892835,0.105939093128,0.0,0.0,0.380834234639
tagged_abstract_sents/10582925.txt,16,0.206355591311,0.0105790052895,0.139250797795,0.521468892835,0.105939093128,0.0908566785366,0.0193801022101,0.556353452074
tagged_abstract_sents/10582925.txt,17,0.262268704747,-0.019596009798,0.139250797795,0.521468892835,0.105939093128,0.069697870182,0.0171484037964,0.745362127365
tagged_abstract_sents/10582925.txt,18,0.262268704747,-0.0039050019525,0.139250797795,0.521468892835,0.105939093128,0.114497915174,0.0200350200477,0.60987943017
