tagged_abstract_sents/10641588.txt,2,0.206355591311,-0.0296998654882,0.0616692308323,0.106008497564,0.139278712651,0.0,0.0,0.221781664637
tagged_abstract_sents/10641588.txt,3,0.206355591311,-0.00795517375123,0.188769469584,0.129715814208,0.139278712651,0.444055422924,0.0236085169966,0.861141048918
tagged_abstract_sents/10641588.txt,4,0.206355591311,-0.0294440455855,0.188769469584,0.129715814208,0.139278712651,0.0,0.0,0.292495142987
tagged_abstract_sents/10641588.txt,5,0.206355591311,-0.00565279462613,0.188769469584,0.129715814208,0.139278712651,0.395488844492,0.0306935624455,0.805727932668
tagged_abstract_sents/10641588.txt,6,0.206355591311,-0.00335041550104,0.188769469584,0.129715814208,0.139278712651,0.504653918472,0.0377999537506,0.870199131684
tagged_abstract_sents/10641588.txt,7,0.206355591311,0.0143011577914,0.188769469584,0.129715814208,0.139278712651,0.675595689792,0.0393047254389,0.997925124681
tagged_abstract_sents/10641588.txt,9,0.0048270313757,-0.0281649460715,0.0616692308323,0.106008497564,0.139278712651,0.0,0.0,0.0608658005715
tagged_abstract_sents/10641588.txt,10,0.0048270313757,0.0145569776942,0.0616692308323,0.106008497564,0.139278712651,0.386639740761,0.0214881619439,0.486495424773
tagged_abstract_sents/10641588.txt,11,0.0108608205953,0.00330090197146,0.0616692308323,0.106008497564,0.139278712651,0.487302774337,0.0411685966878,0.625747391564
tagged_abstract_sents/10641588.txt,12,0.0108608205953,-0.00718771404286,0.0616692308323,0.106008497564,0.139278712651,0.30494302528,0.0247643323299,0.398268137459
tagged_abstract_sents/10641588.txt,13,0.0108608205953,-0.0273974863631,0.139250797795,0.521468892835,0.139278712651,0.0,0.0,0.229275225952
tagged_abstract_sents/10641588.txt,14,0.0261464199517,0.00944057963839,0.139250797795,0.521468892835,0.139278712651,0.447538696854,0.0416599960866,0.824835100607
tagged_abstract_sents/10641588.txt,15,0.0261464199517,-0.0120482921958,0.139250797795,0.521468892835,0.139278712651,0.271019966872,0.0421047014248,0.564450063499
tagged_abstract_sents/10641588.txt,16,0.0261464199517,-0.0202345290851,0.139250797795,0.521468892835,0.139278712651,0.218118612831,0.0301332337193,0.501397629859
tagged_abstract_sents/10641588.txt,18,0.0518905872888,-0.029955685391,0.139250797795,0.521468892835,0.139278712651,0.0,0.0,0.261587399501
tagged_abstract_sents/10641588.txt,19,0.0518905872888,0.0173709966248,0.139250797795,0.521468892835,0.139278712651,0.589446351118,0.0368852952872,0.937260573832
tagged_abstract_sents/10641588.txt,20,0.0993563958166,0.0173709966248,0.139250797795,0.521468892835,0.139278712651,0.495965292669,0.0335709993341,0.94397310015
tagged_abstract_sents/10641588.txt,21,0.0993563958166,0.00125434274916,0.139250797795,0.521468892835,0.139278712651,0.548427743943,0.034339157985,0.978138764525
tagged_abstract_sents/10641588.txt,22,0.0993563958166,-0.00514115482055,0.139250797795,0.521468892835,0.139278712651,0.493426557989,0.0453866268211,0.875243349729
tagged_abstract_sents/10641588.txt,23,0.172566371681,-0.00181549608431,0.139250797795,0.521468892835,0.139278712651,0.408774047448,0.0341426970489,0.893885592463
tagged_abstract_sents/10641588.txt,24,0.172566371681,-0.00590861452892,0.139250797795,0.521468892835,0.139278712651,0.287904373503,0.0408417382642,0.692699270187
tagged_abstract_sents/10641588.txt,25,0.172566371681,0.00509164129098,0.139250797795,0.521468892835,0.139278712651,0.370411910918,0.027249670684,0.798379904331
tagged_abstract_sents/10641588.txt,26,0.206355591311,0.000231063138002,0.139250797795,0.521468892835,0.139278712651,0.601120167672,0.05072309088,1.09745268228
tagged_abstract_sents/10641588.txt,27,0.206355591311,0.0465344655427,0.139250797795,0.521468892835,0.139278712651,0.667510956222,0.0362843979579,1.12865852061
tagged_abstract_sents/10641588.txt,28,0.206355591311,0.00534746119377,0.139250797795,0.521468892835,0.139278712651,0.482203065086,0.0294483874984,0.902876766983
tagged_abstract_sents/10641588.txt,29,0.262268704747,0.0306736315698,0.139250797795,0.521468892835,0.139278712651,0.555774295494,0.0298011870668,1.05458061308
tagged_abstract_sents/10641588.txt,30,0.262268704747,0.000742702943579,0.139250797795,0.521468892835,0.139278712651,0.424230035081,0.0336000629141,1.00199138475
tagged_abstract_sents/10641588.txt,31,0.262268704747,0.0173709966248,0.139250797795,0.521468892835,0.139278712651,0.421712419896,0.0304258498319,0.928689248273
tagged_abstract_sents/10641588.txt,32,0.262268704747,0.00867311993002,0.139250797795,0.521468892835,0.139278712651,0.472431399446,0.0325168543323,1.01579548714
