tagged_abstract_sents/10732937.txt,2,0.0954875100725,-0.0355386301678,0.0616692308323,0.247294108221,0.0,0.0,0.0,0.174305129907
tagged_abstract_sents/10732937.txt,3,0.0954875100725,0.0291307158315,0.188769469584,0.123191979006,0.0,0.224390269621,0.114190302715,0.457460228014
tagged_abstract_sents/10732937.txt,4,0.0253827558421,-0.0348079030943,0.0616692308323,0.247294108221,0.0,0.0,0.0,0.118367471937
tagged_abstract_sents/10732937.txt,6,0.0253827558421,-0.0337118124842,0.0616692308323,0.247294108221,0.0,0.0,0.0,0.118586690059
tagged_abstract_sents/10732937.txt,7,0.0805801772764,0.0470335291307,0.0616692308323,0.247294108221,0.0,0.26444871004,0.0880141247073,0.491315336876
tagged_abstract_sents/10732937.txt,8,0.0805801772764,0.0448413479104,0.0616692308323,0.247294108221,0.0,0.270817996597,0.107632151221,0.530117183283
tagged_abstract_sents/10732937.txt,9,0.123690572119,-0.032615721874,0.0616692308323,0.247294108221,0.0,0.0,0.0,0.197452161203
tagged_abstract_sents/10732937.txt,10,0.123690572119,0.0594558893792,0.0616692308323,0.247294108221,0.0,0.268762306537,0.0908613445378,0.490402265432
tagged_abstract_sents/10732937.txt,11,0.123690572119,-0.0194626345521,0.0616692308323,0.247294108221,0.0,0.0662416446131,0.0342993754879,0.243896702286
tagged_abstract_sents/10732937.txt,12,0.140209508461,-0.032615721874,0.0616692308323,0.247294108221,0.0,0.0,0.0,0.210667310276
tagged_abstract_sents/10732937.txt,13,0.140209508461,-0.00338663893651,0.0616692308323,0.247294108221,0.0,0.189850780888,0.0758309313637,0.329674324923
tagged_abstract_sents/10732937.txt,14,0.149073327961,0.0528793457182,0.139250797795,0.194462959676,0.0,0.202858036677,0.0889929742389,0.504399276981
tagged_abstract_sents/10732937.txt,15,0.149879129734,-0.00302127539979,0.139250797795,0.194462959676,0.0,0.114488267177,0.0684925609588,0.309937027583
tagged_abstract_sents/10732937.txt,16,0.149879129734,-0.0194626345521,0.0616692308323,0.247294108221,0.0,0.100000293091,0.0707176313148,0.356893103048
tagged_abstract_sents/10732937.txt,17,0.176470588235,-0.0329810854108,0.0616692308323,0.247294108221,0.0,0.0,0.0,0.239603101389
tagged_abstract_sents/10732937.txt,18,0.176470588235,-0.00557882015683,0.0616692308323,0.247294108221,0.0,0.0463222559699,0.034022898777,0.323218607885
tagged_abstract_sents/10732937.txt,19,0.176470588235,-0.00265591186307,0.0616692308323,0.247294108221,0.0,0.174122732542,0.0614054067814,0.389745980875
tagged_abstract_sents/10732937.txt,20,0.166800966962,-0.0198279980889,0.0616692308323,0.247294108221,0.0,0.123098144479,0.0511807181889,0.365894283189
tagged_abstract_sents/10732937.txt,21,0.166800966962,-0.00521345662011,0.139250797795,0.194462959676,0.0,0.102713511089,0.0533610216628,0.370458180391
tagged_abstract_sents/10732937.txt,22,0.0954875100725,-0.0110592732076,0.139250797795,0.194462959676,0.0,0.10961888157,0.0314006750241,0.262759575638
tagged_abstract_sents/10732937.txt,23,0.0954875100725,0.0426491666901,0.139250797795,0.194462959676,0.0,0.200403296778,0.0975702576112,0.487560345162
tagged_abstract_sents/10732937.txt,24,0.0954875100725,-0.0103285461342,0.139250797795,0.194462959676,0.0,0.121064539707,0.0563524590164,0.462017346764
tagged_abstract_sents/10732937.txt,25,0.0342465753425,-0.0340771760209,0.0616692308323,0.247294108221,0.0,0.0,0.0,0.125604672952
tagged_abstract_sents/10732937.txt,26,0.0342465753425,0.0331497147354,0.139250797795,0.194462959676,0.0,0.210896156422,0.0954386763813,0.361649007405
tagged_abstract_sents/10732937.txt,27,0.0342465753425,-0.00996318259745,0.139250797795,0.194462959676,0.0,0.101724161852,0.0593401294944,0.2242458617
