tagged_abstract_sents/10736891.txt,1,0.239742558327,-0.0199161425577,0.188769469584,0.202456734834,0.0968810095979,0.52423168265,0.0388932633421,1.00293852898
tagged_abstract_sents/10736891.txt,2,0.162510056315,-0.0702306079665,0.188769469584,0.202456734834,0.0983248901707,0.261953606889,0.00884004082823,0.64020221659
tagged_abstract_sents/10736891.txt,3,0.0852775543041,0.0041928721174,0.139250797795,0.0356431803763,0.21735203521,0.394913720561,0.0254128390201,0.787057565668
tagged_abstract_sents/10736891.txt,4,0.0458567980692,0.0702306079665,0.139250797795,0.0356431803763,0.099349679298,0.523289976096,0.0226662292213,0.776355797675
tagged_abstract_sents/10736891.txt,5,0.00844730490748,0.115303983229,0.139250797795,0.0356431803763,0.0223746938364,0.492583197383,0.0227015893847,0.647796474186
tagged_abstract_sents/10736891.txt,6,0.00120675784393,-0.0995807127883,0.139250797795,0.0356431803763,0.0488571937144,0.262341581963,0.0157042869641,0.388270679369
