tagged_abstract_sents/10732937.txt,2,0.206355591311,-0.0355386301678,0.0616692308323,0.106008497564,0.0,0.0,0.0,0.220613911701
tagged_abstract_sents/10732937.txt,3,0.206355591311,0.0291307158315,0.188769469584,0.129715814208,0.0,0.224390269621,0.114190302715,0.652187006717
tagged_abstract_sents/10732937.txt,4,0.206355591311,-0.0348079030943,0.0616692308323,0.106008497564,0.0,0.0,0.0,0.220760057115
tagged_abstract_sents/10732937.txt,6,0.206355591311,-0.0337118124842,0.0616692308323,0.106008497564,0.0,0.0,0.0,0.220979275238
tagged_abstract_sents/10732937.txt,7,0.0048270313757,0.0470335291307,0.0616692308323,0.106008497564,0.0,0.26444871004,0.0880141247073,0.427120147559
tagged_abstract_sents/10732937.txt,9,0.0108608205953,-0.032615721874,0.0616692308323,0.106008497564,0.0,0.0,0.0,0.0648026767867
tagged_abstract_sents/10732937.txt,10,0.0108608205953,0.0594558893792,0.0616692308323,0.106008497564,0.0,0.268762306537,0.0908613445378,0.428511125638
tagged_abstract_sents/10732937.txt,11,0.0108608205953,-0.0194626345521,0.0616692308323,0.106008497564,0.0,0.0662416446131,0.0342993754879,0.16958703666
tagged_abstract_sents/10732937.txt,12,0.0261464199517,-0.032615721874,0.0616692308323,0.106008497564,0.0,0.0,0.0,0.0770311562719
tagged_abstract_sents/10732937.txt,13,0.0261464199517,-0.00338663893651,0.0616692308323,0.106008497564,0.0,0.189850780888,0.0758309313637,0.323868074351
tagged_abstract_sents/10732937.txt,14,0.0353982300885,0.0528793457182,0.139250797795,0.521468892835,0.0,0.202858036677,0.0889929742389,0.54260424601
tagged_abstract_sents/10732937.txt,15,0.0518905872888,-0.00302127539979,0.139250797795,0.521468892835,0.0,0.114488267177,0.0684925609588,0.446439638639
tagged_abstract_sents/10732937.txt,16,0.0518905872888,-0.0194626345521,0.0616692308323,0.106008497564,0.0,0.100000293091,0.0707176313148,0.277989173912
tagged_abstract_sents/10732937.txt,17,0.0993563958166,-0.0329810854108,0.0616692308323,0.106008497564,0.0,0.0,0.0,0.135526064256
tagged_abstract_sents/10732937.txt,18,0.0993563958166,-0.00557882015683,0.0616692308323,0.106008497564,0.0,0.0463222559699,0.034022898777,0.225718331607
tagged_abstract_sents/10732937.txt,19,0.0993563958166,-0.00265591186307,0.0616692308323,0.106008497564,0.0,0.174122732542,0.0614054067814,0.359427668259
tagged_abstract_sents/10732937.txt,20,0.172566371681,-0.0198279980889,0.0616692308323,0.106008497564,0.0,0.123098144479,0.0511807181889,0.372442939709
tagged_abstract_sents/10732937.txt,21,0.172566371681,-0.00521345662011,0.139250797795,0.521468892835,0.0,0.102713511089,0.0533610216628,0.524483387057
tagged_abstract_sents/10732937.txt,22,0.206355591311,-0.0110592732076,0.139250797795,0.521468892835,0.0,0.10961888157,0.0314006750241,0.520458626121
tagged_abstract_sents/10732937.txt,23,0.206355591311,0.0426491666901,0.139250797795,0.521468892835,0.0,0.200403296778,0.0975702576112,0.723636413648
tagged_abstract_sents/10732937.txt,24,0.206355591311,-0.0103285461342,0.139250797795,0.521468892835,0.0,0.121064539707,0.0563524590164,0.683155816996
tagged_abstract_sents/10732937.txt,25,0.262268704747,-0.0340771760209,0.0616692308323,0.106008497564,0.0,0.0,0.0,0.265636693278
tagged_abstract_sents/10732937.txt,26,0.262268704747,0.0331497147354,0.139250797795,0.521468892835,0.0,0.210896156422,0.0954386763813,0.773283294591
tagged_abstract_sents/10732937.txt,27,0.262268704747,-0.00996318259745,0.139250797795,0.521468892835,0.0,0.101724161852,0.0593401294944,0.560940940231
