tagged_abstract_sents/10796184.txt,2,0.206355591311,-0.0462335216573,0.0616692308323,0.106008497564,0.17973099262,0.0,0.0,0.218474933403
tagged_abstract_sents/10796184.txt,4,0.206355591311,-0.0462335216573,0.0616692308323,0.106008497564,0.17973099262,0.0,0.0,0.218474933403
tagged_abstract_sents/10796184.txt,5,0.0048270313757,0.0469868173258,0.0616692308323,0.106008497564,0.17973099262,0.0931816241289,0.0520563704343,0.319258393125
tagged_abstract_sents/10796184.txt,6,0.0048270313757,-0.0419962335217,0.0616692308323,0.106008497564,0.17973099262,0.0,0.0,0.0580995430815
tagged_abstract_sents/10796184.txt,7,0.0108608205953,0.00630885122411,0.0616692308323,0.106008497564,0.17973099262,0.0532138443489,0.0904128227252,0.228258032771
tagged_abstract_sents/10796184.txt,8,0.0108608205953,-0.0394538606403,0.0616692308323,0.106008497564,0.17973099262,0.0,0.0,0.0634350490335
tagged_abstract_sents/10796184.txt,9,0.0261464199517,0.0147834274953,0.0616692308323,0.106008497564,0.17973099262,0.0499030392485,0.0622842968076,0.386431164089
tagged_abstract_sents/10796184.txt,10,0.0353982300885,-0.0309792843691,0.0616692308323,0.106008497564,0.17973099262,0.0,0.0,0.0847598918823
tagged_abstract_sents/10796184.txt,11,0.0518905872888,-0.00894538606403,0.0616692308323,0.106008497564,0.17973099262,0.0736350385951,0.0986626402071,0.357463817578
tagged_abstract_sents/10796184.txt,12,0.0993563958166,-0.044538606403,0.0616692308323,0.106008497564,0.17973099262,0.0,0.0,0.133214560058
tagged_abstract_sents/10796184.txt,13,0.0993563958166,-0.0174199623352,0.0616692308323,0.106008497564,0.17973099262,0.0316630675578,0.0674503882657,0.337007962472
tagged_abstract_sents/10796184.txt,14,0.172566371681,-0.0208097928437,0.0616692308323,0.106008497564,0.17973099262,0.0309968664811,0.0619068162209,0.378645194938
tagged_abstract_sents/10796184.txt,16,0.206355591311,0.00630885122411,0.0616692308323,0.106008497564,0.17973099262,0.0679707913691,0.0400745716751,0.48564948241
tagged_abstract_sents/10796184.txt,17,0.206355591311,-0.0360640301318,0.0616692308323,0.106008497564,0.17973099262,0.0,0.0,0.220508831708
tagged_abstract_sents/10796184.txt,18,0.262268704747,0.0385122410546,0.139250797795,0.521468892835,0.17973099262,0.0498385601867,0.0089516824849,0.728440471203
tagged_abstract_sents/10796184.txt,19,0.262268704747,0.0537664783427,0.139250797795,0.521468892835,0.17973099262,0.0555069152299,0.0676478396496,0.674118810202
