tagged_abstract_sents/10796579.txt,2,0.206355591311,-0.0455026094075,0.0616692308323,0.106008497564,0.0305781566073,0.0,0.0,0.218621115853
tagged_abstract_sents/10796579.txt,3,0.206355591311,0.0180100283112,0.188769469584,0.129715814208,0.0305781566073,0.275177088453,0.0117973114525,0.62455194075
tagged_abstract_sents/10796579.txt,4,0.206355591311,0.00115973667156,0.188769469584,0.129715814208,0.0305781566073,0.173341275922,0.0159616919393,0.583347593787
tagged_abstract_sents/10796579.txt,5,0.0048270313757,0.0212504690112,0.188769469584,0.129715814208,0.0305781566073,0.170258743105,0.00852952913009,0.381284361258
tagged_abstract_sents/10796579.txt,6,0.0048270313757,0.0121772350513,0.0616692308323,0.106008497564,0.0305781566073,0.168335319081,0.0290178571429,0.293471308372
tagged_abstract_sents/10796579.txt,7,0.0108608205953,0.0568953167104,0.0616692308323,0.106008497564,0.0305781566073,0.287421438487,0.0251147246608,0.438154098734
tagged_abstract_sents/10796579.txt,9,0.0261464199517,-0.0422621687076,0.0616692308323,0.106008497564,0.0305781566073,0.0,0.0,0.0751018669052
tagged_abstract_sents/10796579.txt,10,0.0261464199517,0.0037520892315,0.0616692308323,0.106008497564,0.0305781566073,0.183239326536,0.0567621042831,0.307925421992
tagged_abstract_sents/10796579.txt,11,0.0518905872888,0.0108810587714,0.0616692308323,0.106008497564,0.0305781566073,0.27709214125,0.0454739874302,0.413615888268
tagged_abstract_sents/10796579.txt,12,0.0518905872888,-0.0403179042876,0.0616692308323,0.106008497564,0.0305781566073,0.0,0.0,0.0960860536588
tagged_abstract_sents/10796579.txt,14,0.0993563958166,-0.0338370228877,0.0616692308323,0.106008497564,0.0305781566073,0.0,0.0,0.135354876761
tagged_abstract_sents/10796579.txt,15,0.172566371681,-0.0293004059078,0.0616692308323,0.106008497564,0.0305781566073,0.109601555678,0.0145600558659,0.398775262943
tagged_abstract_sents/10796579.txt,16,0.172566371681,-0.0442064331275,0.0616692308323,0.106008497564,0.0305781566073,0.0,0.0,0.191848975405
tagged_abstract_sents/10796579.txt,17,0.206355591311,-0.0241157007879,0.0616692308323,0.106008497564,0.0305781566073,0.120943584462,0.0140696419502,0.430711253777
tagged_abstract_sents/10796579.txt,18,0.206355591311,-0.0377255517277,0.0616692308323,0.106008497564,0.0305781566073,0.0,0.0,0.220176527389
tagged_abstract_sents/10796579.txt,19,0.262268704747,0.0387488487908,0.188769469584,0.129715814208,0.0305781566073,0.25671642007,0.0458550793884,0.799258603776
tagged_abstract_sents/10796579.txt,20,0.262268704747,0.028379438551,0.188769469584,0.129715814208,0.0305781566073,0.280599531309,0.0409808127161,0.674610832382
