tagged_abstract_sents/10796757.txt,2,0.0954875100725,-0.0300260573261,0.0616692308323,0.247294108221,0.335957077504,0.0,0.0,0.175407644475
tagged_abstract_sents/10796757.txt,3,0.0954875100725,0.00725596311886,0.188769469584,0.123191979006,0.335957077504,0.151145841948,0.0369934324407,0.323670402322
tagged_abstract_sents/10796757.txt,4,0.00564061240935,-0.0300260573261,0.0616692308323,0.247294108221,0.335957077504,0.0,0.0,0.103530126345
tagged_abstract_sents/10796757.txt,6,0.0253827558421,-0.0285227500501,0.0616692308323,0.247294108221,0.335957077504,0.0,0.0,0.119624502546
tagged_abstract_sents/10796757.txt,7,0.0451248992748,0.0207857286029,0.0616692308323,0.247294108221,0.335957077504,0.165994356451,0.0629696038251,0.324489098834
tagged_abstract_sents/10796757.txt,8,0.0805801772764,0.0234916816997,0.0616692308323,0.247294108221,0.335957077504,0.250523364148,0.0917223446756,0.435606919805
tagged_abstract_sents/10796757.txt,9,0.0805801772764,-0.00928041691722,0.0616692308323,0.247294108221,0.335957077504,0.0740056950578,0.0283957845433,0.233111748072
tagged_abstract_sents/10796757.txt,10,0.116035455278,0.0207857286029,0.0616692308323,0.247294108221,0.335957077504,0.216531529436,0.0552693208431,0.408928647233
tagged_abstract_sents/10796757.txt,11,0.123690572119,-0.00176388053718,0.0616692308323,0.247294108221,0.335957077504,0.189470623953,0.0636465651835,0.529313336644
tagged_abstract_sents/10796757.txt,12,0.123690572119,-0.0246141511325,0.0616692308323,0.247294108221,0.335957077504,0.0,0.0,0.199052475351
tagged_abstract_sents/10796757.txt,13,0.131345688961,-0.00988173982762,0.0616692308323,0.247294108221,0.335957077504,0.117242076295,0.0281518345043,0.304566683229
tagged_abstract_sents/10796757.txt,14,0.140209508461,-0.0240128282221,0.0616692308323,0.247294108221,0.335957077504,0.0363916066486,0.0284933645589,0.248171479927
tagged_abstract_sents/10796757.txt,15,0.140209508461,-0.0201042293045,0.0616692308323,0.247294108221,0.335957077504,0.0509981896804,0.0331062380243,0.253854380219
tagged_abstract_sents/10796757.txt,16,0.149073327961,-0.0294247344157,0.0616692308323,0.247294108221,0.335957077504,0.0,0.0,0.218396563368
tagged_abstract_sents/10796757.txt,17,0.149879129734,0.00154339547003,0.0616692308323,0.247294108221,0.335957077504,0.129954064074,0.0552180913349,0.332557507515
tagged_abstract_sents/10796757.txt,18,0.149879129734,-0.0179995991181,0.0616692308323,0.247294108221,0.335957077504,0.0920485593318,0.0539282055035,0.31031285551
tagged_abstract_sents/10796757.txt,19,0.150684931507,-0.00446983363399,0.0616692308323,0.247294108221,0.335957077504,0.119532292126,0.0324290918553,0.374547115545
tagged_abstract_sents/10796757.txt,20,0.176470588235,-0.0198035678493,0.0616692308323,0.247294108221,0.335957077504,0.106188492001,0.0371779859485,0.335365149517
tagged_abstract_sents/10796757.txt,21,0.176470588235,-0.0110843856484,0.0616692308323,0.247294108221,0.335957077504,0.108517343686,0.0381212594327,0.348811025196
tagged_abstract_sents/10796757.txt,22,0.202256244964,0.000942072559631,0.0616692308323,0.247294108221,0.335957077504,0.139711604244,0.0581421652118,0.436022746363
tagged_abstract_sents/10796757.txt,23,0.166800966962,0.0111645620365,0.139250797795,0.194462959676,0.335957077504,0.145900856688,0.0718328314933,0.440686479887
tagged_abstract_sents/10796757.txt,24,0.166800966962,0.046341952295,0.139250797795,0.194462959676,0.335957077504,0.225676220786,0.0384509616067,0.54857400677
tagged_abstract_sents/10796757.txt,25,0.131345688961,0.0595710563239,0.139250797795,0.194462959676,0.335957077504,0.207011965213,0.0460542823687,0.488868357315
tagged_abstract_sents/10796757.txt,26,0.0954875100725,0.000340749649228,0.139250797795,0.194462959676,0.335957077504,0.223152881785,0.0614249374142,0.442223815425
tagged_abstract_sents/10796757.txt,27,0.0954875100725,0.0192824213269,0.139250797795,0.194462959676,0.335957077504,0.197265378559,0.0691441535631,0.43934548169
tagged_abstract_sents/10796757.txt,28,0.0342465753425,-0.0264181198637,0.139250797795,0.194462959676,0.335957077504,0.0,0.0,0.150077923101
tagged_abstract_sents/10796757.txt,29,0.0342465753425,0.0325115253558,0.139250797795,0.194462959676,0.335957077504,0.219108092413,0.0441093147994,0.431619041894
tagged_abstract_sents/10796757.txt,30,0.0342465753425,0.0192824213269,0.139250797795,0.194462959676,0.335957077504,0.178927562601,0.0633364001338,0.380331892702
tagged_abstract_sents/10796757.txt,31,0.0342465753425,0.0180797755061,0.139250797795,0.194462959676,0.335957077504,0.200774005855,0.0585883873052,0.43498819882
