tagged_abstract_sents/10796112.txt,2,0.206355591311,-0.0497849098555,0.0616692308323,0.106008497564,0.273591654921,0.0,0.0,0.217764655763
tagged_abstract_sents/10796112.txt,3,0.206355591311,0.0159505050993,0.188769469584,0.129715814208,0.273591654921,0.0848832894615,0.0327234431305,0.519375863461
tagged_abstract_sents/10796112.txt,4,0.206355591311,0.0184155831601,0.188769469584,0.129715814208,0.273591654921,0.0706010333421,0.0540120793788,0.438241146421
tagged_abstract_sents/10796112.txt,5,0.0048270313757,-0.0497849098555,0.0616692308323,0.106008497564,0.273591654921,0.0,0.0,0.0565418078148
tagged_abstract_sents/10796112.txt,7,0.0108608205953,-0.0456764464208,0.0616692308323,0.106008497564,0.273591654921,0.0,0.0,0.0621905318774
tagged_abstract_sents/10796112.txt,8,0.0261464199517,-0.000483348639374,0.0616692308323,0.106008497564,0.273591654921,0.0532138443489,0.0904128227252,0.218267054138
tagged_abstract_sents/10796112.txt,9,0.0261464199517,-0.04321136836,0.0616692308323,0.106008497564,0.273591654921,0.0,0.0,0.0749120269747
tagged_abstract_sents/10796112.txt,11,0.0518905872888,-0.0349944414906,0.0616692308323,0.106008497564,0.273591654921,0.0,0.0,0.0971507462182
tagged_abstract_sents/10796112.txt,12,0.0993563958166,-0.0366378268645,0.0616692308323,0.106008497564,0.273591654921,0.0239450604443,0.0480299108427,0.393554687637
tagged_abstract_sents/10796112.txt,13,0.172566371681,-0.0481415244816,0.0616692308323,0.106008497564,0.273591654921,0.0,0.0,0.191061957134
tagged_abstract_sents/10796112.txt,14,0.172566371681,-0.0202039731258,0.0616692308323,0.106008497564,0.273591654921,0.0325545177505,0.0434426229508,0.345106200206
tagged_abstract_sents/10796112.txt,15,0.206355591311,-0.0243124365605,0.0616692308323,0.106008497564,0.273591654921,0.0158909324203,0.0,0.401139665807
tagged_abstract_sents/10796112.txt,16,0.206355591311,0.161390110687,0.0616692308323,0.106008497564,0.273591654921,0.100347563825,0.0357348288755,0.423748215184
tagged_abstract_sents/10796112.txt,17,0.262268704747,-0.0399245976123,0.0616692308323,0.106008497564,0.273591654921,0.0,0.0,0.26446720896
tagged_abstract_sents/10796112.txt,18,0.262268704747,0.0562134467591,0.139250797795,0.521468892835,0.273591654921,0.0965193670553,0.0344103355888,0.654318370408
