tagged_abstract_sents/10819705.txt,1,0.125905068383,-0.0430528375734,0.0616692308323,0.142474783506,0.0,0.0,0.0,0.16569053766
tagged_abstract_sents/10819705.txt,2,0.125905068383,0.0334311806915,0.188769469584,0.202456734834,0.361530879989,0.571340865581,0.0441433058044,1.23954709746
tagged_abstract_sents/10819705.txt,3,0.239742558327,-0.0401989562948,0.0616692308323,0.142474783506,0.0,0.0,0.0,0.25733130587
tagged_abstract_sents/10819705.txt,4,0.239742558327,0.0334311806915,0.0616692308323,0.142474783506,0.0,0.544828297767,0.0564943373481,0.873379968382
tagged_abstract_sents/10819705.txt,5,0.218020917136,-0.0384866275277,0.0616692308323,0.142474783506,0.0,0.0,0.0,0.240296458671
tagged_abstract_sents/10819705.txt,6,0.218020917136,0.0699608610568,0.0616692308323,0.142474783506,0.0840753625257,0.671178422533,0.0504181045067,1.06765784595
tagged_abstract_sents/10819705.txt,7,0.162510056315,-0.0384866275277,0.0616692308323,0.142474783506,0.0,0.0,0.0,0.195887770015
tagged_abstract_sents/10819705.txt,8,0.162510056315,0.00831702544031,0.0616692308323,0.142474783506,0.0293472191887,0.572569257749,0.0409735954403,0.848138572986
tagged_abstract_sents/10819705.txt,9,0.101769911504,-0.0390574037834,0.0616692308323,0.142474783506,0.0,0.0,0.0,0.147181498915
tagged_abstract_sents/10819705.txt,10,0.101769911504,0.0111709067189,0.0616692308323,0.142474783506,0.116140384857,0.335336307173,0.0457213756737,0.654425228719
tagged_abstract_sents/10819705.txt,11,0.0711987127916,-0.018509458578,0.0616692308323,0.142474783506,0.0,0.303757249205,0.0593140719929,0.489905450183
tagged_abstract_sents/10819705.txt,12,0.0711987127916,-0.000815394651011,0.139250797795,0.0356431803763,0.0500335900496,0.272359717488,0.0497400703286,0.50924762218
tagged_abstract_sents/10819705.txt,13,0.0458567980692,0.012883235486,0.139250797795,0.0356431803763,0.104254548071,0.357741258498,0.0431400488543,0.624716293987
tagged_abstract_sents/10819705.txt,14,0.0458567980692,0.00888780169602,0.139250797795,0.0356431803763,0.0508174151399,0.263687872482,0.0413807142026,0.474667353629
tagged_abstract_sents/10819705.txt,15,0.0245374094932,0.0242987606001,0.139250797795,0.0356431803763,0.0325899794446,0.344037936241,0.0444961420651,0.525932090476
tagged_abstract_sents/10819705.txt,16,0.0245374094932,-0.0407697325506,0.139250797795,0.0356431803763,0.0,0.0,0.0,0.0917943340947
tagged_abstract_sents/10819705.txt,17,0.00844730490748,0.0254403131115,0.139250797795,0.0356431803763,0.0970290739759,0.52576318238,0.0572514221462,0.772207938061
tagged_abstract_sents/10819705.txt,18,0.00844730490748,-0.00252772341813,0.139250797795,0.0356431803763,0.057546966303,0.243602694897,0.0457330076383,0.433453321091
tagged_abstract_sents/10819705.txt,19,0.00120675784393,-0.0122309197652,0.139250797795,0.0356431803763,0.158390878659,0.310672719686,0.045078336808,0.592979510485
tagged_abstract_sents/10819705.txt,20,0.00120675784393,0.026581865623,0.139250797795,0.0356431803763,0.038440843906,0.499446126227,0.0492322903338,0.673719392877
tagged_abstract_sents/10819705.txt,21,0.00120675784393,0.0197325505545,0.139250797795,0.0356431803763,0.27968703947,0.458746169827,0.0563116332571,0.87997511195
