tagged_abstract_sents/10862644.txt,1,0.125905068383,-0.0496637505207,0.0616692308323,0.142474783506,0.0,0.0,0.0,0.16436835507
tagged_abstract_sents/10862644.txt,2,0.239742558327,-0.00788549663751,0.188769469584,0.202456734834,0.0170608357176,0.182141248244,0.0616994093051,0.606240195843
tagged_abstract_sents/10862644.txt,3,0.239742558327,0.0103255371065,0.188769469584,0.202456734834,0.331966816848,0.1426502579,0.0689968863713,0.892594870444
tagged_abstract_sents/10862644.txt,4,0.218020917136,0.0531750282688,0.0616692308323,0.142474783506,0.115422254002,0.240455160756,0.093863570999,0.708369775587
tagged_abstract_sents/10862644.txt,5,0.218020917136,-0.0512706064393,0.0616692308323,0.142474783506,0.0,0.0,0.0,0.237739662889
tagged_abstract_sents/10862644.txt,6,0.162510056315,-0.0169910135095,0.0616692308323,0.142474783506,0.00518940656486,0.150735751007,0.0683958872591,0.424507937649
tagged_abstract_sents/10862644.txt,7,0.162510056315,0.010861155746,0.0616692308323,0.142474783506,0.190302051357,0.186836323465,0.0436359569233,0.626531658414
tagged_abstract_sents/10862644.txt,8,0.101769911504,0.00764744390883,0.0616692308323,0.142474783506,0.105613079288,0.149431504464,0.070910079904,0.482477132109
tagged_abstract_sents/10862644.txt,9,0.0852775543041,-0.0512706064393,0.139250797795,0.0356431803763,0.0,0.0,0.0,0.138286275166
tagged_abstract_sents/10862644.txt,10,0.0711987127916,0.000148782955425,0.139250797795,0.0356431803763,0.0305091480767,0.147397840571,0.0455339167591,0.360747985242
tagged_abstract_sents/10862644.txt,11,0.0458567980692,0.0124680116646,0.139250797795,0.0356431803763,0.0899272618099,0.156478089616,0.0875549529562,0.453457698181
tagged_abstract_sents/10862644.txt,12,0.0458567980692,0.00122002023448,0.139250797795,0.0356431803763,0.101435830326,0.129188687968,0.0768211512388,0.424693465046
tagged_abstract_sents/10862644.txt,13,0.0245374094932,0.0124680116646,0.139250797795,0.0356431803763,0.108919478038,0.138955194715,0.0929680759275,0.443284631618
tagged_abstract_sents/10862644.txt,14,0.0245374094932,-0.0153841575909,0.139250797795,0.0356431803763,0.00559504273431,0.149962438408,0.0818397521374,0.334268682367
tagged_abstract_sents/10862644.txt,15,0.00844730490748,0.0547818841873,0.139250797795,0.0356431803763,0.269737094494,0.186040532214,0.103132010354,0.656942210836
tagged_abstract_sents/10862644.txt,16,0.00844730490748,0.0628161637803,0.139250797795,0.0356431803763,0.0545991239259,0.2199389911,0.0999958250995,0.474173369817
tagged_abstract_sents/10862644.txt,17,0.00120675784393,-0.0496637505207,0.0616692308323,0.142474783506,0.0,0.0,0.0,0.0646097066389
tagged_abstract_sents/10862644.txt,18,0.00120675784393,0.0162173421413,0.139250797795,0.0356431803763,0.0977418858091,0.181999753393,0.0767073737307,0.440976240647
