tagged_abstract_sents/10865273.txt,2,0.0954875100725,-0.037347012239,0.0616692308323,0.247294108221,0.0,0.0,0.0,0.173943453493
tagged_abstract_sents/10865273.txt,3,0.0954875100725,-0.00440964722822,0.188769469584,0.123191979006,0.0,0.0629023825189,0.0110753317721,0.200850699691
tagged_abstract_sents/10865273.txt,4,0.0253827558421,0.00206983441325,0.188769469584,0.123191979006,0.0,0.0950700649059,0.0274395003903,0.235630184524
tagged_abstract_sents/10865273.txt,5,0.0253827558421,-0.0362670986321,0.0616692308323,0.247294108221,0.0,0.0,0.0,0.11807563283
tagged_abstract_sents/10865273.txt,7,0.0805801772764,-0.0378869690425,0.0616692308323,0.247294108221,0.0,0.0,0.0,0.161909595895
tagged_abstract_sents/10865273.txt,8,0.0805801772764,-0.0152087832973,0.0616692308323,0.247294108221,0.0,0.0271071938967,0.0189862830378,0.174595065487
tagged_abstract_sents/10865273.txt,9,0.123690572119,-0.0281677465803,0.0616692308323,0.247294108221,0.0,0.0,0.0,0.198341756262
tagged_abstract_sents/10865273.txt,10,0.123690572119,0.0128689704824,0.139250797795,0.194462959676,0.0,0.0999388601118,0.0118462138954,0.317479064901
tagged_abstract_sents/10865273.txt,11,0.140209508461,0.0242080633549,0.139250797795,0.194462959676,0.0,0.0871419221586,0.0292949146872,0.466183212275
tagged_abstract_sents/10865273.txt,12,0.140209508461,-0.000629949604032,0.139250797795,0.194462959676,0.0,0.103633552256,0.0175461065574,0.293627321981
tagged_abstract_sents/10865273.txt,13,0.149073327961,-0.0346472282217,0.139250797795,0.194462959676,0.0,0.0,0.0,0.240293503525
tagged_abstract_sents/10865273.txt,14,0.149879129734,0.0852231821454,0.139250797795,0.194462959676,0.0,0.165913620363,0.0218791365441,0.431520002871
tagged_abstract_sents/10865273.txt,15,0.149879129734,0.0247480201584,0.139250797795,0.194462959676,0.0,0.113357280101,0.030918514947,0.386106475894
tagged_abstract_sents/10865273.txt,16,0.176470588235,-0.0303275737941,0.0616692308323,0.247294108221,0.0,0.0,0.0,0.240133803712
tagged_abstract_sents/10865273.txt,17,0.176470588235,0.0161087113031,0.139250797795,0.194462959676,0.0,0.111162909993,0.0442984570878,0.323191457175
tagged_abstract_sents/10865273.txt,18,0.166800966962,-0.037347012239,0.139250797795,0.194462959676,0.0,0.0,0.0,0.253935657922
tagged_abstract_sents/10865273.txt,19,0.166800966962,0.0263678905688,0.139250797795,0.194462959676,0.0,0.128240882073,0.030545112782,0.387362130301
tagged_abstract_sents/10865273.txt,20,0.166800966962,0.0560655147588,0.139250797795,0.194462959676,0.0,0.141312338674,0.0157786885246,0.502286276514
tagged_abstract_sents/10865273.txt,21,0.0954875100725,0.0652447804176,0.139250797795,0.194462959676,0.0,0.157922931683,0.0252329192547,0.422090299327
tagged_abstract_sents/10865273.txt,22,0.0954875100725,-0.0351871850252,0.139250797795,0.194462959676,0.0,0.0,0.0,0.197316857853
tagged_abstract_sents/10865273.txt,23,0.0342465753425,0.0306875449964,0.139250797795,0.194462959676,0.0,0.134042279802,0.0248243559719,0.252737873455
tagged_abstract_sents/10865273.txt,24,0.0342465753425,-0.0389668826494,0.0616692308323,0.247294108221,0.0,0.0,0.0,0.124626731627
tagged_abstract_sents/10865273.txt,25,0.0342465753425,-0.0389668826494,0.0616692308323,0.247294108221,0.0,0.0,0.0,0.124626731627
