tagged_abstract_sents/10908513.txt,1,0.125905068383,-0.0250049015489,0.0616692308323,0.142474783506,0.0,0.0,0.0,0.169300124864
tagged_abstract_sents/10908513.txt,2,0.125905068383,0.00650505559757,0.188769469584,0.202456734834,0.0868649877045,0.230235865835,0.0245684794865,0.598816154094
tagged_abstract_sents/10908513.txt,3,0.125905068383,0.0208735960564,0.188769469584,0.202456734834,0.142904727025,0.208243790308,0.023706088993,0.634875135486
tagged_abstract_sents/10908513.txt,4,0.239742558327,0.00171554211131,0.188769469584,0.202456734834,0.254938017173,0.174858697769,0.0278675796762,0.804923204945
tagged_abstract_sents/10908513.txt,5,0.239742558327,0.0153278435986,0.188769469584,0.202456734834,0.0605917256809,0.179880205233,0.0204053119012,0.610858613439
tagged_abstract_sents/10908513.txt,6,0.239742558327,-0.0250049015489,0.0616692308323,0.142474783506,0.0,0.0,0.0,0.260370116819
tagged_abstract_sents/10908513.txt,7,0.239742558327,0.030704702686,0.194899689933,0.13295610691,0.261200431148,0.273641740089,0.0260172716628,0.896131107137
tagged_abstract_sents/10908513.txt,8,0.218020917136,0.010034170798,0.0616692308323,0.142474783506,0.0052434752983,0.182544841023,0.0185253538336,0.456314288491
tagged_abstract_sents/10908513.txt,9,0.218020917136,-0.023744503263,0.0616692308323,0.142474783506,0.0,0.0,0.0,0.243244883524
tagged_abstract_sents/10908513.txt,10,0.218020917136,-0.0018135730891,0.0616692308323,0.142474783506,0.00943161901647,0.113910286882,0.0182101529136,0.389183128371
tagged_abstract_sents/10908513.txt,11,0.162510056315,-0.00156149343192,0.0616692308323,0.142474783506,0.102365481911,0.206509307328,0.0295160781841,0.541663664257
tagged_abstract_sents/10908513.txt,12,0.162510056315,-0.0121488390331,0.0616692308323,0.142474783506,0.0,0.0878822960266,0.0244663123761,0.313503936116
tagged_abstract_sents/10908513.txt,13,0.162510056315,-0.0229882642915,0.0616692308323,0.142474783506,0.0,0.0,0.0,0.198987442662
tagged_abstract_sents/10908513.txt,14,0.162510056315,-0.00307397137495,0.0616692308323,0.142474783506,0.00552997074745,0.111242859238,0.0182047716628,0.337947902893
tagged_abstract_sents/10908513.txt,15,0.101769911504,0.00726129456908,0.0616692308323,0.142474783506,0.217477773693,0.194372125116,0.0157009998199,0.583996137214
tagged_abstract_sents/10908513.txt,16,0.101769911504,0.00600089628323,0.0616692308323,0.142474783506,0.126593328652,0.191283229236,0.0224068110851,0.496476527902
tagged_abstract_sents/10908513.txt,17,0.101769911504,-0.00130941377475,0.0616692308323,0.142474783506,0.0827857282251,0.19632123248,0.022450909746,0.456288967368
tagged_abstract_sents/10908513.txt,18,0.0852775543041,-0.0204674677198,0.0616692308323,0.142474783506,0.0,0.0,0.0,0.137705600367
tagged_abstract_sents/10908513.txt,19,0.0711987127916,-0.0124009186903,0.0616692308323,0.142474783506,0.0103381480087,0.119317562488,0.011287711806,0.268999259266
tagged_abstract_sents/10908513.txt,20,0.0711987127916,0.00826961319777,0.0616692308323,0.142474783506,0.0874858016715,0.215056856748,0.0279341560079,0.462666757768
tagged_abstract_sents/10908513.txt,21,0.0711987127916,-0.00433436966081,0.0616692308323,0.142474783506,0.00981941041795,0.0963807220638,0.00649255603881,0.24236183529
tagged_abstract_sents/10908513.txt,22,0.0458567980692,-0.00433436966081,0.0616692308323,0.142474783506,0.0102703433599,0.0963807220638,0.00649255603881,0.222539236454
tagged_abstract_sents/10908513.txt,23,0.0458567980692,-0.0245007422345,0.0616692308323,0.142474783506,0.0,0.0,0.0,0.105362340476
tagged_abstract_sents/10908513.txt,24,0.0458567980692,0.026167268857,0.0616692308323,0.142474783506,0.00426711232594,0.164193719576,0.0277637321695,0.311720506766
tagged_abstract_sents/10908513.txt,25,0.0458567980692,0.00927793182646,0.139250797795,0.0356431803763,0.00648882890054,0.139997662789,0.0240632318501,0.289409101371
tagged_abstract_sents/10908513.txt,26,0.0245374094932,0.0309567823432,0.139250797795,0.0356431803763,0.0565556468069,0.186178664149,0.0278981264637,0.376772074493
tagged_abstract_sents/10908513.txt,27,0.0245374094932,0.0329734196006,0.139250797795,0.0356431803763,0.148078733798,0.19436657009,0.0253816462833,0.474369914697
tagged_abstract_sents/10908513.txt,28,0.0245374094932,0.00877377251211,0.139250797795,0.0356431803763,0.00679884176807,0.136642227953,0.017549765808,0.262693870636
tagged_abstract_sents/10908513.txt,29,0.00844730490748,-0.0219799456628,0.0616692308323,0.142474783506,0.0,0.0,0.0,0.0759389052613
tagged_abstract_sents/10908513.txt,30,0.00844730490748,-0.00635100691819,0.0616692308323,0.142474783506,0.010416402199,0.0941311205957,0.0119082469053,0.19552046271
tagged_abstract_sents/10908513.txt,31,0.00844730490748,0.00196762176848,0.139250797795,0.0356431803763,0.102925641395,0.147186801528,0.0236631537861,0.361245317999
tagged_abstract_sents/10908513.txt,32,0.00844730490748,-0.0121488390331,0.139250797795,0.0356431803763,0.0122893024998,0.0887696694128,0.0122532619605,0.197958663003
tagged_abstract_sents/10908513.txt,33,0.00120675784393,-0.0139133966333,0.139250797795,0.0356431803763,0.0125840057757,0.0780545354316,0.00907494145199,0.178214562618
tagged_abstract_sents/10908513.txt,34,0.00120675784393,0.0135632859984,0.139250797795,0.0356431803763,0.0853372722264,0.181380063573,0.0222716627635,0.372985415048
tagged_abstract_sents/10908513.txt,35,0.00120675784393,0.00826961319777,0.139250797795,0.0356431803763,0.0823215079684,0.215227155964,0.0213925418843,0.401878887741
tagged_abstract_sents/10908513.txt,36,0.00120675784393,-0.00156149343192,0.139250797795,0.0356431803763,0.0952920051769,0.177316541803,0.0302187566532,0.383798764232
