tagged_abstract_sents/10923571.txt,2,0.206355591311,-0.0494444444444,0.0616692308323,0.106008497564,0.140414076811,0.0,0.0,0.217832748845
tagged_abstract_sents/10923571.txt,4,0.206355591311,0.0138888888889,0.0616692308323,0.106008497564,0.140414076811,0.451593552378,0.0385622220004,0.70876340199
tagged_abstract_sents/10923571.txt,5,0.0048270313757,0.035,0.0616692308323,0.106008497564,0.140414076811,0.380442097405,0.048901649804,0.557263280588
tagged_abstract_sents/10923571.txt,6,0.0048270313757,0.00333333333333,0.0616692308323,0.106008497564,0.140414076811,0.27566560021,0.0452847805789,0.509892370006
tagged_abstract_sents/10923571.txt,7,0.0108608205953,-0.0511111111111,0.0616692308323,0.106008497564,0.140414076811,0.0,0.0,0.0611035989393
tagged_abstract_sents/10923571.txt,8,0.0108608205953,0.0572222222222,0.0616692308323,0.106008497564,0.140414076811,0.298578315612,0.0366876310273,0.42969836662
tagged_abstract_sents/10923571.txt,9,0.0261464199517,0.00333333333333,0.0616692308323,0.106008497564,0.140414076811,0.379355067292,0.037024558251,0.539395037884
tagged_abstract_sents/10923571.txt,10,0.0353982300885,-0.015,0.0616692308323,0.106008497564,0.140414076811,0.258844674944,0.0413473565527,0.422319502481
tagged_abstract_sents/10923571.txt,11,0.0518905872888,-0.0511111111111,0.0616692308323,0.106008497564,0.140414076811,0.0,0.0,0.0939274122941
tagged_abstract_sents/10923571.txt,12,0.0993563958166,-0.0105555555556,0.139250797795,0.521468892835,0.140414076811,0.22592489224,0.0374082809224,0.538918546123
tagged_abstract_sents/10923571.txt,13,0.0993563958166,0.0,0.139250797795,0.521468892835,0.140414076811,0.171050059183,0.0297119896176,0.525336559948
tagged_abstract_sents/10923571.txt,15,0.172566371681,-0.0372222222222,0.139250797795,0.521468892835,0.140414076811,0.110522317717,0.00960242587601,0.540780055482
tagged_abstract_sents/10923571.txt,16,0.206355591311,0.0394444444444,0.139250797795,0.521468892835,0.140414076811,0.237299533283,0.0386623989218,0.677133950715
tagged_abstract_sents/10923571.txt,17,0.206355591311,-0.0338888888889,0.139250797795,0.521468892835,0.140414076811,0.263063696535,0.032139113507,0.743145635203
tagged_abstract_sents/10923571.txt,18,0.262268704747,-0.0488888888889,0.0616692308323,0.106008497564,0.140414076811,0.0,0.0,0.262674350705
tagged_abstract_sents/10923571.txt,19,0.262268704747,0.0344444444444,0.139250797795,0.521468892835,0.140414076811,0.367958030482,0.0471085518255,0.930974023264
