tagged_abstract_sents/10920146.txt,1,0.125905068383,-0.0702251532794,0.0616692308323,0.142474783506,0.0,0.0,0.0,0.160256074518
tagged_abstract_sents/10920146.txt,2,0.239742558327,0.0704312432377,0.188769469584,0.202456734834,0.277812444855,0.260658090199,0.0506381839279,0.950110769533
tagged_abstract_sents/10920146.txt,3,0.218020917136,0.0590447730434,0.188769469584,0.202456734834,0.201240070226,0.222942813637,0.0464147047948,0.811945032218
tagged_abstract_sents/10920146.txt,4,0.162510056315,-0.0688855685507,0.0616692308323,0.142474783506,0.0,0.0,0.0,0.18980798181
tagged_abstract_sents/10920146.txt,5,0.162510056315,0.0335926631975,0.0616692308323,0.142474783506,0.0633679353021,0.163714010666,0.0507010353753,0.488086609503
tagged_abstract_sents/10920146.txt,6,0.101769911504,0.0215364006389,0.0616692308323,0.142474783506,0.0729691317098,0.191413834302,0.0331733534656,0.456856579277
tagged_abstract_sents/10920146.txt,7,0.0711987127916,-0.0715647380081,0.139250797795,0.0356431803763,0.0,0.0,0.0,0.122964375642
tagged_abstract_sents/10920146.txt,8,0.0458567980692,0.0255551548251,0.139250797795,0.0356431803763,0.0464005070358,0.196956006094,0.0408710657613,0.406342401322
tagged_abstract_sents/10920146.txt,9,0.0458567980692,0.018187438817,0.139250797795,0.0356431803763,0.0507112706154,0.156879938774,0.0340297464974,0.362262235116
tagged_abstract_sents/10920146.txt,10,0.0245374094932,-0.0106136328507,0.139250797795,0.0356431803763,0.0606282048199,0.139683198839,0.0397688570001,0.337905814694
tagged_abstract_sents/10920146.txt,11,0.00844730490748,-0.0688855685507,0.0616692308323,0.142474783506,0.0,0.0,0.0,0.0665577806837
tagged_abstract_sents/10920146.txt,12,0.00120675784393,0.0516770570354,0.139250797795,0.0356431803763,0.109664630536,0.242608512874,0.0360532478738,0.479945561976
tagged_abstract_sents/10920146.txt,13,0.00120675784393,0.0101499304446,0.139250797795,0.0356431803763,0.0577899117523,0.174350429157,0.0405146865739,0.355968772857
