tagged_abstract_sents/10936125.txt,2,0.206355591311,-0.036960740409,0.0616692308323,0.106008497564,0.266196101084,0.0,0.0,0.220329489653
tagged_abstract_sents/10936125.txt,3,0.206355591311,0.0420361247947,0.188769469584,0.129715814208,0.266196101084,0.169607890723,0.00697224396945,0.47077931622
tagged_abstract_sents/10936125.txt,4,0.206355591311,-0.0100014927601,0.188769469584,0.129715814208,0.266196101084,0.0704497002239,0.00639286493903,0.364359671892
tagged_abstract_sents/10936125.txt,5,0.206355591311,0.00629944767876,0.188769469584,0.129715814208,0.266196101084,0.14308774762,0.00410969888938,0.461030117735
tagged_abstract_sents/10936125.txt,6,0.0048270313757,-0.00122406329303,0.188769469584,0.129715814208,0.266196101084,0.152277063354,0.00164889138367,0.328732290105
tagged_abstract_sents/10936125.txt,7,0.0048270313757,-0.015644125989,0.0616692308323,0.106008497564,0.266196101084,0.0788419840445,0.00944046130687,0.115294692886
tagged_abstract_sents/10936125.txt,8,0.0108608205953,-0.0432303328855,0.0616692308323,0.106008497564,0.266196101084,0.0,0.0,0.0626797545845
tagged_abstract_sents/10936125.txt,9,0.0108608205953,-0.0306911479325,0.0616692308323,0.106008497564,0.266196101084,0.0594090142698,0.00305220319955,0.121028215784
tagged_abstract_sents/10936125.txt,10,0.0261464199517,-0.0426033736379,0.0616692308323,0.106008497564,0.266196101084,0.0,0.0,0.0750336259191
tagged_abstract_sents/10936125.txt,11,0.0261464199517,-0.0350798626661,0.0616692308323,0.106008497564,0.266196101084,0.0530738877373,0.00136321719257,0.129232897611
tagged_abstract_sents/10936125.txt,12,0.0518905872888,-0.0394685773996,0.0616692308323,0.106008497564,0.266196101084,0.0,0.0,0.0962559190364
tagged_abstract_sents/10936125.txt,14,0.0993563958166,-0.0319450664278,0.0616692308323,0.106008497564,0.266196101084,0.0,0.0,0.135733268053
tagged_abstract_sents/10936125.txt,15,0.0993563958166,0.0263621436035,0.0616692308323,0.106008497564,0.266196101084,0.12673458677,0.00447188698662,0.290840714796
tagged_abstract_sents/10936125.txt,16,0.172566371681,-0.00623973727422,0.0616692308323,0.106008497564,0.266196101084,0.0300584725662,0.000374216484236,0.26984997057
tagged_abstract_sents/10936125.txt,17,0.172566371681,-0.0100014927601,0.139250797795,0.521468892835,0.266196101084,0.0463994335369,0.0,0.402986619642
tagged_abstract_sents/10936125.txt,18,0.206355591311,0.0188386326317,0.139250797795,0.521468892835,0.266196101084,0.135574893354,0.00170556359161,0.504915495407
tagged_abstract_sents/10936125.txt,20,0.262268704747,-0.0400955366473,0.139250797795,0.521468892835,0.266196101084,0.0,0.0,0.427861923216
tagged_abstract_sents/10936125.txt,21,0.262268704747,0.020092551127,0.139250797795,0.521468892835,0.266196101084,0.202409634598,0.00205005552234,0.622286713747
tagged_abstract_sents/10936125.txt,22,0.262268704747,0.0175847141364,0.139250797795,0.521468892835,0.266196101084,0.1593089876,0.00294695481336,0.634706198588
