tagged_abstract_sents/10930181.txt,2,0.0954875100725,-0.0711494048676,0.0616692308323,0.247294108221,0.308061473815,0.0,0.0,0.167182974967
tagged_abstract_sents/10930181.txt,4,0.0805801772764,-0.0728815064843,0.0616692308323,0.247294108221,0.308061473815,0.0,0.0,0.154910688407
tagged_abstract_sents/10930181.txt,5,0.123690572119,-0.0613341623734,0.205068369407,0.0,0.308061473815,0.0603064016475,0.0792218997568,0.317448357985
tagged_abstract_sents/10930181.txt,6,0.123690572119,-0.0647983656067,0.0616692308323,0.247294108221,0.308061473815,0.0,0.0,0.191015632457
tagged_abstract_sents/10930181.txt,7,0.140209508461,0.0171877775804,0.0616692308323,0.247294108221,0.308061473815,0.15476001356,0.0818234109865,0.392535355383
tagged_abstract_sents/10930181.txt,8,0.149879129734,-0.0272694972464,0.139250797795,0.194462959676,0.308061473815,0.0881604042423,0.0462683347714,0.315906847264
tagged_abstract_sents/10930181.txt,9,0.176470588235,0.0177651447859,0.139250797795,0.194462959676,0.308061473815,0.220661950896,0.0813403257118,0.539813450667
tagged_abstract_sents/10930181.txt,10,0.176470588235,-0.0723041392787,0.139250797795,0.194462959676,0.308061473815,0.0,0.0,0.254679929533
tagged_abstract_sents/10930181.txt,11,0.166800966962,0.011414105525,0.139250797795,0.194462959676,0.308061473815,0.13711092985,0.0532296650718,0.341552920644
tagged_abstract_sents/10930181.txt,12,0.0954875100725,0.0737697637236,0.139250797795,0.194462959676,0.308061473815,0.189117855762,0.0760584863799,0.425906253446
tagged_abstract_sents/10930181.txt,13,0.0342465753425,-0.0699946704566,0.0616692308323,0.247294108221,0.308061473815,0.0,0.0,0.118421174065
tagged_abstract_sents/10930181.txt,14,0.0342465753425,0.190975306449,0.139250797795,0.194462959676,0.308061473815,0.24252794126,0.0938555404906,0.493344991461
