tagged_abstract_sents/10936125.txt,1,0.125905068383,-0.036960740409,0.0616692308323,0.142474783506,0.0,0.0,0.0,0.166908957092
tagged_abstract_sents/10936125.txt,2,0.125905068383,0.0420361247947,0.188769469584,0.202456734834,0.0451269320264,0.169607890723,0.00697224396945,0.485960101627
tagged_abstract_sents/10936125.txt,3,0.239742558327,-0.0100014927601,0.188769469584,0.202456734834,0.0626498490797,0.0704497002239,0.00639286493903,0.484407917595
tagged_abstract_sents/10936125.txt,4,0.239742558327,0.00629944767876,0.188769469584,0.202456734834,0.141132051096,0.14308774762,0.00410969888938,0.636505189045
tagged_abstract_sents/10936125.txt,5,0.218020917136,-0.00122406329303,0.188769469584,0.202456734834,0.131630186142,0.152277063354,0.00164889138367,0.614849817172
tagged_abstract_sents/10936125.txt,6,0.218020917136,-0.015644125989,0.0616692308323,0.142474783506,0.0,0.0788419840445,0.00944046130687,0.33314740433
tagged_abstract_sents/10936125.txt,7,0.162510056315,-0.0432303328855,0.0616692308323,0.142474783506,0.0,0.0,0.0,0.194939028943
tagged_abstract_sents/10936125.txt,8,0.162510056315,-0.0306911479325,0.0616692308323,0.142474783506,0.0,0.0594090142698,0.00305220319955,0.259908083403
tagged_abstract_sents/10936125.txt,9,0.101769911504,-0.0426033736379,0.0616692308323,0.142474783506,0.0,0.0,0.0,0.146472304944
tagged_abstract_sents/10936125.txt,10,0.101769911504,-0.0350798626661,0.0616692308323,0.142474783506,0.0,0.0530738877373,0.00136321719257,0.202414112068
tagged_abstract_sents/10936125.txt,11,0.0711987127916,-0.0394685773996,0.0616692308323,0.142474783506,0.0,0.0,0.0,0.122642305221
tagged_abstract_sents/10936125.txt,12,0.0711987127916,0.0752649649201,0.210342442448,0.226435992083,0.298851843787,0.194460950859,0.00805057831219,0.746477355024
tagged_abstract_sents/10936125.txt,13,0.0458567980692,-0.0319450664278,0.0616692308323,0.142474783506,0.0,0.0,0.0,0.103873475638
tagged_abstract_sents/10936125.txt,14,0.0458567980692,0.0263621436035,0.0616692308323,0.142474783506,0.0681459877553,0.12673458677,0.00447188698662,0.314887379156
tagged_abstract_sents/10936125.txt,15,0.0245374094932,-0.00623973727422,0.0616692308323,0.142474783506,0.0984790362029,0.0300584725662,0.000374216484236,0.220870755861
tagged_abstract_sents/10936125.txt,16,0.0245374094932,-0.0100014927601,0.139250797795,0.0356431803763,0.0,0.0463994335369,0.0,0.14434741559
tagged_abstract_sents/10936125.txt,17,0.00844730490748,0.0188386326317,0.139250797795,0.0356431803763,0.0391302853659,0.135574893354,0.00170556359161,0.267254665774
tagged_abstract_sents/10936125.txt,18,0.00844730490748,0.13670697119,0.139250797795,0.0356431803763,0.0888456829028,0.297502106143,0.00401980933067,0.504785189551
tagged_abstract_sents/10936125.txt,19,0.00120675784393,-0.0400955366473,0.139250797795,0.0356431803763,0.0,0.0,0.0,0.073264651956
tagged_abstract_sents/10936125.txt,20,0.00120675784393,0.020092551127,0.139250797795,0.0356431803763,0.0400980095698,0.202409634598,0.00205005552234,0.329859969201
tagged_abstract_sents/10936125.txt,21,0.00120675784393,0.0175847141364,0.139250797795,0.0356431803763,0.266196101084,0.1593089876,0.00294695481336,0.513252745611
