tagged_abstract_sents/10971664.txt,2,0.0954875100725,-0.0553977272727,0.0616692308323,0.247294108221,0.199940442023,0.0,0.0,0.170333310486
tagged_abstract_sents/10971664.txt,3,0.0253827558421,0.0127840909091,0.188769469584,0.123191979006,0.199940442023,0.392628620646,0.0512217990038,0.571999157028
tagged_abstract_sents/10971664.txt,4,0.0253827558421,-0.0546875,0.188769469584,0.123191979006,0.199940442023,0.0,0.0,0.140711033168
tagged_abstract_sents/10971664.txt,5,0.0805801772764,0.0255681818182,0.188769469584,0.123191979006,0.199940442023,0.33706114096,0.0381862131423,0.634520629221
tagged_abstract_sents/10971664.txt,6,0.123690572119,0.015625,0.188769469584,0.123191979006,0.199940442023,0.330213476635,0.0552959273367,0.578638779747
tagged_abstract_sents/10971664.txt,7,0.123690572119,-0.0568181818182,0.0616692308323,0.247294108221,0.199940442023,0.0,0.0,0.192611669214
tagged_abstract_sents/10971664.txt,9,0.149073327961,-0.0568181818182,0.0616692308323,0.247294108221,0.199940442023,0.0,0.0,0.212917873888
tagged_abstract_sents/10971664.txt,10,0.149879129734,0.0305397727273,0.139250797795,0.194462959676,0.199940442023,0.29940838601,0.0400564019924,0.400512788393
tagged_abstract_sents/10971664.txt,11,0.176470588235,-0.0262784090909,0.139250797795,0.194462959676,0.199940442023,0.0827945357629,0.0266139271413,0.399981538796
tagged_abstract_sents/10971664.txt,12,0.176470588235,0.00568181818182,0.139250797795,0.194462959676,0.199940442023,0.18746530551,0.0188641468893,0.360811060968
tagged_abstract_sents/10971664.txt,13,0.166800966962,-0.015625,0.139250797795,0.194462959676,0.199940442023,0.141103370764,0.024544633265,0.338238606003
tagged_abstract_sents/10971664.txt,14,0.0954875100725,-0.00284090909091,0.139250797795,0.194462959676,0.199940442023,0.260420362129,0.0427922648696,0.417441165453
tagged_abstract_sents/10971664.txt,15,0.0954875100725,0.0511363636364,0.139250797795,0.194462959676,0.199940442023,0.348584233029,0.0431629702289,0.493298178566
tagged_abstract_sents/10971664.txt,16,0.0342465753425,-0.0546875,0.139250797795,0.194462959676,0.199940442023,0.0,0.0,0.144424047074
tagged_abstract_sents/10971664.txt,17,0.0342465753425,0.0319602272727,0.139250797795,0.194462959676,0.199940442023,0.384257989453,0.0469557573982,0.597763022444
