tagged_abstract_sents/10987614.txt,2,0.0954875100725,-0.0469291424518,0.0616692308323,0.247294108221,0.140142961714,0.0,0.0,0.17202702745
tagged_abstract_sents/10987614.txt,4,0.0253827558421,-0.0469291424518,0.0616692308323,0.247294108221,0.140142961714,0.0,0.0,0.115943224066
tagged_abstract_sents/10987614.txt,5,0.0805801772764,-0.00908570025374,0.188769469584,0.123191979006,0.140142961714,0.12210091547,0.0524356467905,0.380510260519
tagged_abstract_sents/10987614.txt,6,0.0805801772764,-0.0484843524051,0.0616692308323,0.247294108221,0.140142961714,0.0,0.0,0.159790119223
tagged_abstract_sents/10987614.txt,7,0.123690572119,-0.0147881367493,0.0616692308323,0.247294108221,0.140142961714,0.0521338169521,0.0402559317515,0.268550673788
tagged_abstract_sents/10987614.txt,8,0.123690572119,0.019944885542,0.0616692308323,0.247294108221,0.140142961714,0.120021887656,0.0518401759531,0.303412795982
tagged_abstract_sents/10987614.txt,9,0.140209508461,-0.0484843524051,0.0616692308323,0.247294108221,0.140142961714,0.0,0.0,0.20749358417
tagged_abstract_sents/10987614.txt,10,0.140209508461,-0.0230825898338,0.139250797795,0.194462959676,0.140142961714,0.0719945331486,0.0297549224969,0.257418603085
tagged_abstract_sents/10987614.txt,11,0.149879129734,0.0562331177867,0.139250797795,0.194462959676,0.140142961714,0.14919454143,0.0476356304985,0.377124320935
tagged_abstract_sents/10987614.txt,12,0.149879129734,0.0572699244223,0.139250797795,0.194462959676,0.140142961714,0.205636045273,0.0546397151236,0.508642804147
tagged_abstract_sents/10987614.txt,13,0.176470588235,0.105999836294,0.139250797795,0.194462959676,0.140142961714,0.238758664273,0.0525504309962,0.513601092659
tagged_abstract_sents/10987614.txt,14,0.176470588235,0.000245559466317,0.139250797795,0.194462959676,0.140142961714,0.0882437133797,0.0439882697947,0.350972903483
tagged_abstract_sents/10987614.txt,15,0.166800966962,0.0132056424108,0.139250797795,0.194462959676,0.140142961714,0.119255968187,0.0453160638645,0.379061648274
tagged_abstract_sents/10987614.txt,16,0.166800966962,-0.046410739134,0.0616692308323,0.247294108221,0.140142961714,0.0,0.0,0.229181473625
tagged_abstract_sents/10987614.txt,17,0.0954875100725,0.00180076941966,0.139250797795,0.194462959676,0.140142961714,0.115595521028,0.0475459175799,0.399792874847
tagged_abstract_sents/10987614.txt,18,0.0954875100725,-0.0153065400671,0.139250797795,0.194462959676,0.140142961714,0.127885013523,0.0363790708443,0.362677752337
tagged_abstract_sents/10987614.txt,19,0.0342465753425,-0.0184169599738,0.139250797795,0.194462959676,0.140142961714,0.0819264913089,0.05448261416,0.304633339085
tagged_abstract_sents/10987614.txt,20,0.0342465753425,0.0204632888598,0.139250797795,0.194462959676,0.140142961714,0.144579967024,0.044581444948,0.343855459983
