tagged_abstract_sents/10987614.txt,1,0.125905068383,-0.0469291424518,0.0616692308323,0.142474783506,0.0,0.0,0.0,0.164915276684
tagged_abstract_sents/10987614.txt,2,0.239742558327,0.0427546315244,0.188769469584,0.202456734834,0.274172231137,0.145883754654,0.051892828579,0.827415542578
tagged_abstract_sents/10987614.txt,3,0.239742558327,-0.0469291424518,0.0616692308323,0.142474783506,0.0,0.0,0.0,0.255985268639
tagged_abstract_sents/10987614.txt,4,0.218020917136,-0.00908570025374,0.188769469584,0.202456734834,0.238032950397,0.12210091547,0.0524356467905,0.740290861559
tagged_abstract_sents/10987614.txt,5,0.218020917136,-0.0484843524051,0.0616692308323,0.142474783506,0.0,0.0,0.0,0.238296913696
tagged_abstract_sents/10987614.txt,6,0.162510056315,-0.0147881367493,0.0616692308323,0.142474783506,0.0210899219802,0.0521338169521,0.0402559317515,0.314107138854
tagged_abstract_sents/10987614.txt,7,0.162510056315,0.019944885542,0.0616692308323,0.142474783506,0.0895043891489,0.120021887656,0.0518401759531,0.468940525387
tagged_abstract_sents/10987614.txt,8,0.101769911504,-0.0484843524051,0.0616692308323,0.142474783506,0.0,0.0,0.0,0.14529610919
tagged_abstract_sents/10987614.txt,9,0.101769911504,-0.0230825898338,0.139250797795,0.0356431803763,0.0137786810576,0.0719945331486,0.0297549224969,0.27264590095
tagged_abstract_sents/10987614.txt,10,0.0711987127916,0.0562331177867,0.139250797795,0.0356431803763,0.146500923113,0.14919454143,0.0476356304985,0.491855041842
tagged_abstract_sents/10987614.txt,11,0.0711987127916,0.0572699244223,0.139250797795,0.0356431803763,0.241949397069,0.205636045273,0.0546397151236,0.650956465593
tagged_abstract_sents/10987614.txt,12,0.0458567980692,0.105999836294,0.139250797795,0.0356431803763,0.0988751486934,0.238758664273,0.0525504309962,0.528388002687
tagged_abstract_sents/10987614.txt,13,0.0458567980692,0.000245559466317,0.139250797795,0.0356431803763,0.0485959536416,0.0882437133797,0.0439882697947,0.297880840175
tagged_abstract_sents/10987614.txt,14,0.0245374094932,0.0132056424108,0.139250797795,0.0356431803763,0.0775685011685,0.119255968187,0.0453160638645,0.344729942307
tagged_abstract_sents/10987614.txt,15,0.0245374094932,-0.046410739134,0.0616692308323,0.142474783506,0.0,0.0,0.0,0.0839248302356
tagged_abstract_sents/10987614.txt,16,0.00844730490748,0.00180076941966,0.139250797795,0.0356431803763,0.184467108225,0.115595521028,0.0475459175799,0.435044897653
tagged_abstract_sents/10987614.txt,17,0.00844730490748,-0.0153065400671,0.139250797795,0.0356431803763,0.102612318438,0.127885013523,0.0363790708443,0.350891291728
tagged_abstract_sents/10987614.txt,18,0.00120675784393,-0.0184169599738,0.139250797795,0.0356431803763,0.161532194332,0.0819264913089,0.05448261416,0.375541667091
tagged_abstract_sents/10987614.txt,19,0.00120675784393,0.0204632888598,0.139250797795,0.0356431803763,0.140142961714,0.144579967024,0.044581444948,0.414680790744
