tagged_abstract_sents/10995804.txt,2,0.206355591311,-0.0536470588235,0.0616692308323,0.106008497564,0.248767115732,0.0,0.0,0.21699222597
tagged_abstract_sents/10995804.txt,3,0.206355591311,0.00235294117647,0.188769469584,0.129715814208,0.248767115732,0.372463196742,0.0585437914845,0.831712915482
tagged_abstract_sents/10995804.txt,4,0.206355591311,0.0155294117647,0.188769469584,0.129715814208,0.248767115732,0.508537568804,0.0437712481787,0.883205938878
tagged_abstract_sents/10995804.txt,6,0.0048270313757,-0.0329411764706,0.0616692308323,0.106008497564,0.248767115732,0.212721126792,0.024415169176,0.404428162854
tagged_abstract_sents/10995804.txt,7,0.0108608205953,-0.0550588235294,0.0616692308323,0.106008497564,0.248767115732,0.0,0.0,0.0603140564557
tagged_abstract_sents/10995804.txt,8,0.0261464199517,0.0117647058824,0.210342442448,0.0253702522065,0.248767115732,0.430509696519,0.0481838398814,0.601821811219
tagged_abstract_sents/10995804.txt,10,0.0518905872888,-0.0550588235294,0.139250797795,0.521468892835,0.248767115732,0.0,0.0,0.256566771873
tagged_abstract_sents/10995804.txt,11,0.0518905872888,-0.0117647058824,0.139250797795,0.521468892835,0.248767115732,0.439913773517,0.0435405536668,0.87959397626
tagged_abstract_sents/10995804.txt,12,0.0993563958166,0.0865882352941,0.139250797795,0.521468892835,0.248767115732,0.550876046623,0.0531811559009,0.948459986529
tagged_abstract_sents/10995804.txt,13,0.172566371681,-0.0197647058824,0.139250797795,0.521468892835,0.248767115732,0.273935814553,0.0358530493305,0.716076088692
tagged_abstract_sents/10995804.txt,14,0.172566371681,0.0141176470588,0.139250797795,0.521468892835,0.248767115732,0.462712170442,0.0568661971831,0.975008281864
tagged_abstract_sents/10995804.txt,15,0.206355591311,0.0390588235294,0.139250797795,0.521468892835,0.248767115732,0.415320875008,0.05403108305,0.898479691589
tagged_abstract_sents/10995804.txt,16,0.206355591311,0.0183529411765,0.139250797795,0.521468892835,0.248767115732,0.412175154017,0.0461267605634,0.923468014733
tagged_abstract_sents/10995804.txt,17,0.262268704747,-0.0536470588235,0.0616692308323,0.106008497564,0.248767115732,0.0,0.0,0.261722716718
tagged_abstract_sents/10995804.txt,18,0.262268704747,0.00564705882353,0.139250797795,0.521468892835,0.248767115732,0.514573408629,0.0587953005389,1.07724888921
