tagged_abstract_sents/10995804.txt,1,0.125905068383,-0.0536470588235,0.0616692308323,0.142474783506,0.0,0.0,0.0,0.16357169341
tagged_abstract_sents/10995804.txt,2,0.239742558327,0.00235294117647,0.188769469584,0.202456734834,0.217498955862,0.372463196742,0.0585437914845,0.995892334228
tagged_abstract_sents/10995804.txt,3,0.239742558327,0.0155294117647,0.188769469584,0.202456734834,0.153746448786,0.508537568804,0.0437712481787,1.05607695003
tagged_abstract_sents/10995804.txt,4,0.218020917136,0.0503529411765,0.0616692308323,0.142474783506,0.299778986634,0.506219633128,0.0450923934411,1.10915538561
tagged_abstract_sents/10995804.txt,5,0.218020917136,-0.0329411764706,0.0616692308323,0.142474783506,0.189829147473,0.212721126792,0.024415169176,0.668370992324
tagged_abstract_sents/10995804.txt,6,0.162510056315,-0.0550588235294,0.0616692308323,0.142474783506,0.0,0.0,0.0,0.192573330814
tagged_abstract_sents/10995804.txt,7,0.101769911504,0.0117647058824,0.210342442448,0.226435992083,0.0118596822501,0.430509696519,0.0481838398814,0.74742410788
tagged_abstract_sents/10995804.txt,8,0.101769911504,0.0381176470588,0.194899689933,0.13295610691,0.152551908842,0.564928540759,0.0504983926548,0.994354977911
tagged_abstract_sents/10995804.txt,9,0.0711987127916,-0.0550588235294,0.139250797795,0.0356431803763,0.0,0.0,0.0,0.126265558538
tagged_abstract_sents/10995804.txt,10,0.0711987127916,-0.0117647058824,0.139250797795,0.0356431803763,0.243549294267,0.439913773517,0.0435405536668,0.861928003518
tagged_abstract_sents/10995804.txt,11,0.0458567980692,0.0865882352941,0.139250797795,0.0356431803763,0.0788681654305,0.550876046623,0.0531811559009,0.817246806479
tagged_abstract_sents/10995804.txt,12,0.0245374094932,-0.0197647058824,0.139250797795,0.0356431803763,0.0975540070804,0.273935814553,0.0358530493305,0.503338210393
tagged_abstract_sents/10995804.txt,13,0.0245374094932,0.0141176470588,0.139250797795,0.0356431803763,0.20160885115,0.462712170442,0.0568661971831,0.823959028792
tagged_abstract_sents/10995804.txt,14,0.00844730490748,0.0390588235294,0.139250797795,0.0356431803763,0.130767724794,0.415320875008,0.05403108305,0.695007644494
tagged_abstract_sents/10995804.txt,15,0.00844730490748,0.0183529411765,0.139250797795,0.0356431803763,0.148963549804,0.412175154017,0.0461267605634,0.698012249556
tagged_abstract_sents/10995804.txt,16,0.00120675784393,-0.0536470588235,0.0616692308323,0.142474783506,0.0,0.0,0.0,0.0638130449783
tagged_abstract_sents/10995804.txt,17,0.00120675784393,0.00564705882353,0.139250797795,0.0356431803763,0.248767115732,0.514573408629,0.0587953005389,0.90454899595
