tagged_abstract_sents/10990583.txt,1,0.125905068383,-0.0508327550312,0.188769469584,0.202456734834,0.121277418909,0.0892190527531,0.0538014386082,0.509977169213
tagged_abstract_sents/10990583.txt,2,0.239742558327,-0.0660999306037,0.188769469584,0.202456734834,0.0313409364471,0.0840322058841,0.0432645394223,0.492333497537
tagged_abstract_sents/10990583.txt,3,0.218020917136,0.0337728429331,0.188769469584,0.202456734834,0.104218543863,0.175161094218,0.0561262507984,0.671798946417
tagged_abstract_sents/10990583.txt,4,0.162510056315,-0.0171177423086,0.188769469584,0.202456734834,0.279508650415,0.155233618746,0.0479326976692,0.764381218664
tagged_abstract_sents/10990583.txt,5,0.101769911504,0.0865718251214,0.188769469584,0.202456734834,0.0444078521738,0.167890336804,0.0600361046058,0.526186343054
tagged_abstract_sents/10990583.txt,6,0.0711987127916,-0.0597386074485,0.0616692308323,0.142474783506,0.00458347962304,0.0398095778908,0.0289650013011,0.191946358026
tagged_abstract_sents/10990583.txt,7,0.0458567980692,0.0604904001851,0.139250797795,0.0356431803763,0.0852018210482,0.220856627382,0.047624468731,0.482784788664
tagged_abstract_sents/10990583.txt,8,0.0245374094932,-0.0158454776775,0.139250797795,0.0356431803763,0.0724872120492,0.108985262279,0.0290070946411,0.307258754038
tagged_abstract_sents/10990583.txt,9,0.00844730490748,0.0185056673606,0.139250797795,0.0356431803763,0.066273548135,0.143373763057,0.0716864614698,0.372111103071
tagged_abstract_sents/10990583.txt,10,0.00120675784393,0.0191417996762,0.139250797795,0.0356431803763,0.162816766966,0.205195453568,0.0567447306792,0.509869070434
tagged_abstract_sents/10990583.txt,11,0.00120675784393,-0.0088480222068,0.139250797795,0.0356431803763,0.195114256106,0.149536030055,0.0452283372365,0.469392778242
