tagged_abstract_sents/11009318.txt,3,0.016894609815,-0.0917293233083,0.188769469584,0.129715814208,0.0234111472397,0.058286421764,0.0174424277908,0.206107321315
tagged_abstract_sents/11009318.txt,5,0.214802896219,-0.00902255639098,0.188769469584,0.129715814208,0.0234111472397,0.156634410428,0.0493000851607,0.554370697774
tagged_abstract_sents/11009318.txt,6,0.262268704747,-0.0917293233083,0.188769469584,0.129715814208,0.0234111472397,0.081710499147,0.0194574551132,0.436816849584
