tagged_abstract_sents/11038265.txt,3,0.206355591311,-0.000140528386734,0.188769469584,0.129715814208,0.0,0.18405740486,0.0456691082432,0.526525797921
tagged_abstract_sents/11038265.txt,4,0.0048270313757,-0.050730747611,0.188769469584,0.129715814208,0.0,0.192088283735,0.0433147308453,0.36085077411
tagged_abstract_sents/11038265.txt,5,0.0108608205953,0.0307757166948,0.188769469584,0.129715814208,0.0,0.363845750269,0.0444576212068,0.5512028778
tagged_abstract_sents/11038265.txt,6,0.0261464199517,0.0122259696459,0.188769469584,0.129715814208,0.0,0.417908628531,0.0276001498534,0.617110312844
tagged_abstract_sents/11038265.txt,7,0.0353982300885,-0.0625351320967,0.0616692308323,0.106008497564,0.0,0.0685278498636,0.00240887687478,0.163962343344
tagged_abstract_sents/11038265.txt,8,0.0518905872888,-0.0226250702642,0.139250797795,0.521468892835,0.0,0.306793977648,0.0626463700234,0.627922759338
tagged_abstract_sents/11038265.txt,9,0.0993563958166,-0.0451096121417,0.139250797795,0.521468892835,0.0,0.116028288359,0.0203491137394,0.439823478081
tagged_abstract_sents/11038265.txt,11,0.206355591311,0.00716694772344,0.139250797795,0.521468892835,0.0,0.372757674394,0.0447261946285,0.863062346609
tagged_abstract_sents/11038265.txt,12,0.262268704747,-0.0400505902192,0.139250797795,0.521468892835,0.0,0.287046183059,0.0376908000731,0.842413018308
tagged_abstract_sents/11038265.txt,13,0.262268704747,-0.0428611579539,0.139250797795,0.521468892835,0.0,0.157410421074,0.0350808939926,0.61515820836
