tagged_abstract_sents/11099588.txt,2,0.0954875100725,-0.0577141151895,0.0616692308323,0.247294108221,0.0717290616478,0.0,0.0,0.169870032903
tagged_abstract_sents/11099588.txt,4,0.0451248992748,-0.0550283497463,0.0616692308323,0.247294108221,0.0717290616478,0.0,0.0,0.130117097353
tagged_abstract_sents/11099588.txt,5,0.0805801772764,0.0309161444345,0.0616692308323,0.247294108221,0.0717290616478,0.0841537304779,0.0148826979472,0.25298780691
tagged_abstract_sents/11099588.txt,6,0.123690572119,-0.0550283497463,0.0616692308323,0.247294108221,0.0717290616478,0.0197680121681,0.0,0.132608057639
tagged_abstract_sents/11099588.txt,7,0.131345688961,0.045240226798,0.0616692308323,0.247294108221,0.0717290616478,0.0814088864815,0.0273516805775,0.342661675491
tagged_abstract_sents/11099588.txt,8,0.140209508461,0.0139062966279,0.0616692308323,0.247294108221,0.0717290616478,0.068667072244,0.0215942415356,0.224868637689
tagged_abstract_sents/11099588.txt,9,0.149879129734,-0.0478663085646,0.0616692308323,0.247294108221,0.0717290616478,0.0,0.0,0.215352889957
tagged_abstract_sents/11099588.txt,10,0.150684931507,0.022858848105,0.139250797795,0.194462959676,0.0717290616478,0.0738241412602,0.0203323558162,0.304983078388
tagged_abstract_sents/11099588.txt,11,0.176470588235,-0.0595046254849,0.139250797795,0.194462959676,0.0717290616478,0.0,0.0,0.257239832291
tagged_abstract_sents/11099588.txt,12,0.166800966962,0.132079976127,0.139250797795,0.194462959676,0.0717290616478,0.167486331227,0.0207611303652,0.401216123906
tagged_abstract_sents/11099588.txt,13,0.131345688961,-0.030856460758,0.139250797795,0.194462959676,0.0717290616478,0.0485905170922,0.00274193548387,0.453010200374
tagged_abstract_sents/11099588.txt,14,0.0954875100725,0.0237541032528,0.139250797795,0.194462959676,0.0717290616478,0.111955915951,0.0338105916854,0.300172814087
tagged_abstract_sents/11099588.txt,15,0.0342465753425,-0.0559236048941,0.139250797795,0.194462959676,0.0717290616478,0.0,0.0,0.144176826095
tagged_abstract_sents/11099588.txt,16,0.0342465753425,0.0344971650254,0.139250797795,0.194462959676,0.0717290616478,0.172547024681,0.0190149293522,0.142528316036
