tagged_abstract_sents/11100021.txt,2,0.206355591311,-0.0727360308285,0.0616692308323,0.106008497564,0.222950714743,0.0,0.0,0.213174431569
tagged_abstract_sents/11100021.txt,4,0.0048270313757,-0.0736994219653,0.0616692308323,0.106008497564,0.222950714743,0.0,0.0,0.0517589053928
tagged_abstract_sents/11100021.txt,5,0.0108608205953,0.0438342967245,0.0616692308323,0.106008497564,0.222950714743,0.16277022026,0.0326846174354,0.352751603701
tagged_abstract_sents/11100021.txt,6,0.0261464199517,-0.0756262042389,0.0616692308323,0.106008497564,0.222950714743,0.0,0.0,0.0684290597989
tagged_abstract_sents/11100021.txt,8,0.0518905872888,-0.000481695568401,0.139250797795,0.521468892835,0.222950714743,0.127634322291,0.0352768673452,0.424172546531
tagged_abstract_sents/11100021.txt,9,0.0993563958166,-0.0756262042389,0.139250797795,0.521468892835,0.222950714743,0.0,0.0,0.290425942553
tagged_abstract_sents/11100021.txt,10,0.172566371681,-0.0014450867052,0.139250797795,0.521468892835,0.222950714743,0.0756029505016,0.0131739228513,0.566421610601
tagged_abstract_sents/11100021.txt,11,0.206355591311,0.0534682080925,0.139250797795,0.521468892835,0.222950714743,0.167459245573,0.0308317781925,0.661981822652
tagged_abstract_sents/11100021.txt,12,0.262268704747,-0.0727360308285,0.0616692308323,0.106008497564,0.222950714743,0.0,0.0,0.257904922317
tagged_abstract_sents/11100021.txt,13,0.262268704747,0.0842967244701,0.139250797795,0.521468892835,0.222950714743,0.195127796995,0.0234486803519,0.772771782084
