tagged_abstract_sents/11113718.txt,2,0.0954875100725,-0.0657730444363,0.0616692308323,0.247294108221,0.0919154422052,0.0,0.0,0.168258247053
tagged_abstract_sents/11113718.txt,4,0.0805801772764,-0.0123026074183,0.0616692308323,0.247294108221,0.0919154422052,0.221434003089,0.0286946233411,0.376790645787
tagged_abstract_sents/11113718.txt,5,0.0805801772764,-0.0688578773412,0.194899689933,0.293363477728,0.0919154422052,0.0,0.0,0.236151454637
tagged_abstract_sents/11113718.txt,6,0.123690572119,0.0416819684172,0.210342442448,0.141687475369,0.0919154422052,0.272668820854,0.0327576112412,0.521650136809
tagged_abstract_sents/11113718.txt,7,0.140209508461,-0.0673154608887,0.0616692308323,0.247294108221,0.0919154422052,0.0,0.0,0.203727362473
tagged_abstract_sents/11113718.txt,8,0.149073327961,0.0406536907822,0.210342442448,0.141687475369,0.0919154422052,0.235860547179,0.0253321085359,0.480115536362
tagged_abstract_sents/11113718.txt,9,0.149879129734,0.0396254131473,0.194899689933,0.293363477728,0.0919154422052,0.19050874013,0.0325832399959,0.467606868056
tagged_abstract_sents/11113718.txt,10,0.176470588235,0.00312155710613,0.0616692308323,0.247294108221,0.0919154422052,0.181752572321,0.0197200340643,0.466524628875
tagged_abstract_sents/11113718.txt,11,0.166800966962,-0.0673154608887,0.0616692308323,0.247294108221,0.0919154422052,0.0,0.0,0.225000529274
tagged_abstract_sents/11113718.txt,12,0.166800966962,0.0108336393683,0.139250797795,0.194462959676,0.0919154422052,0.176842408412,0.0338672354188,0.413255553231
tagged_abstract_sents/11113718.txt,13,0.0954875100725,0.0242012486228,0.139250797795,0.194462959676,0.0919154422052,0.163262530501,0.0312461481573,0.405699532471
tagged_abstract_sents/11113718.txt,14,0.0342465753425,0.10235034888,0.139250797795,0.194462959676,0.0919154422052,0.237067415597,0.0261113666778,0.450791456243
tagged_abstract_sents/11113718.txt,15,0.0342465753425,0.0308850532501,0.139250797795,0.194462959676,0.0919154422052,0.24037134559,0.0255895178874,0.336481462095
