tagged_abstract_sents/11114103.txt,2,0.0954875100725,-0.0602489303773,0.0616692308323,0.247294108221,0.0668701780274,0.0,0.0,0.169363069865
tagged_abstract_sents/11114103.txt,4,0.0451248992748,0.0383508362505,0.0616692308323,0.247294108221,0.0668701780274,0.240389191673,0.0343460566938,0.382077525002
tagged_abstract_sents/11114103.txt,5,0.0805801772764,-0.0619992220926,0.0616692308323,0.247294108221,0.0668701780274,0.0,0.0,0.157087145285
tagged_abstract_sents/11114103.txt,6,0.123690572119,0.0138467522365,0.210342442448,0.141687475369,0.0668701780274,0.164371027098,0.0265638671972,0.395790746731
tagged_abstract_sents/11114103.txt,7,0.131345688961,-0.00307273434461,0.0616692308323,0.247294108221,0.0668701780274,0.0663516288396,0.0115773224811,0.279417304782
tagged_abstract_sents/11114103.txt,8,0.140209508461,-0.0619992220926,0.0616692308323,0.247294108221,0.0668701780274,0.0,0.0,0.204790610233
tagged_abstract_sents/11114103.txt,9,0.149879129734,0.0751069622715,0.139250797795,0.194462959676,0.0668701780274,0.194920309437,0.0110661160338,0.462894380491
tagged_abstract_sents/11114103.txt,10,0.150684931507,0.0231816413847,0.139250797795,0.194462959676,0.0668701780274,0.142653152738,0.0296449621106,0.423211240277
tagged_abstract_sents/11114103.txt,11,0.176470588235,0.0523531699728,0.139250797795,0.194462959676,0.0668701780274,0.173556297852,0.0108932079708,0.457854894395
tagged_abstract_sents/11114103.txt,12,0.166800966962,-0.00598988720342,0.139250797795,0.194462959676,0.0668701780274,0.145614628766,0.0128169145851,0.411754613671
tagged_abstract_sents/11114103.txt,13,0.131345688961,0.0698560871256,0.139250797795,0.194462959676,0.0668701780274,0.187781988737,0.037455668104,0.416778232037
tagged_abstract_sents/11114103.txt,14,0.0954875100725,-0.0596654998055,0.139250797795,0.194462959676,0.0668701780274,0.0,0.0,0.192421194897
tagged_abstract_sents/11114103.txt,15,0.0342465753425,-0.0287436795021,0.139250797795,0.194462959676,0.0668701780274,0.145035506177,0.0187843310212,0.128335677677
tagged_abstract_sents/11114103.txt,16,0.0342465753425,0.0249319331,0.139250797795,0.194462959676,0.0668701780274,0.199534849705,0.0349564973337,0.33368236093
