tagged_abstract_sents/11136953.txt,2,0.0954875100725,-0.0611251049538,0.0616692308323,0.247294108221,0.120868616323,0.0,0.0,0.16918783495
tagged_abstract_sents/11136953.txt,3,0.0253827558421,-0.0198152812762,0.188769469584,0.123191979006,0.120868616323,0.145691873302,0.0323826979472,0.282637655315
tagged_abstract_sents/11136953.txt,5,0.0805801772764,-0.0626364399664,0.0616692308323,0.247294108221,0.120868616323,0.0,0.0,0.15695970171
tagged_abstract_sents/11136953.txt,6,0.123690572119,0.00184718723762,0.194899689933,0.293363477728,0.120868616323,0.120487382046,0.027091599103,0.481519304879
tagged_abstract_sents/11136953.txt,7,0.131345688961,0.0063811922754,0.210342442448,0.141687475369,0.120868616323,0.148914455863,0.0242005306521,0.178631102884
tagged_abstract_sents/11136953.txt,8,0.140209508461,-0.0626364399664,0.139250797795,0.194462959676,0.120868616323,0.0,0.0,0.227604605576
tagged_abstract_sents/11136953.txt,9,0.149879129734,0.0340890008396,0.139250797795,0.194462959676,0.120868616323,0.197854649622,0.02933679224,0.447748711501
tagged_abstract_sents/11136953.txt,10,0.150684931507,0.0300587741394,0.139250797795,0.194462959676,0.120868616323,0.185381041701,0.0335166177908,0.433372750308
tagged_abstract_sents/11136953.txt,11,0.176470588235,0.00537363560034,0.139250797795,0.194462959676,0.120868616323,0.138255742366,0.0192521994135,0.291756988239
tagged_abstract_sents/11136953.txt,12,0.166800966962,0.0219983207389,0.139250797795,0.194462959676,0.120868616323,0.160774428645,0.030269029708,0.433527052886
tagged_abstract_sents/11136953.txt,13,0.131345688961,0.0612930310663,0.139250797795,0.194462959676,0.120868616323,0.194083494572,0.0241145950823,0.371303100198
tagged_abstract_sents/11136953.txt,14,0.0954875100725,-0.0606213266163,0.139250797795,0.194462959676,0.120868616323,0.0,0.0,0.192230029535
tagged_abstract_sents/11136953.txt,15,0.0342465753425,0.0345927791772,0.139250797795,0.194462959676,0.120868616323,0.221539892495,0.0281577293674,0.337990886849
tagged_abstract_sents/11136953.txt,16,0.0342465753425,0.0104114189757,0.139250797795,0.194462959676,0.120868616323,0.138547857824,0.0252639296188,0.32589956775
