tagged_abstract_sents/11158037.txt,1,0.125905068383,-0.00920974450386,0.188769469584,0.202456734834,0.155395009692,0.284319151248,0.0375125790221,0.73123060101
tagged_abstract_sents/11158037.txt,2,0.239742558327,0.00495147553971,0.188769469584,0.202456734834,0.123394909425,0.401057443589,0.0550938276435,0.927452277669
tagged_abstract_sents/11158037.txt,3,0.218020917136,-0.0342642107348,0.188769469584,0.202456734834,0.00265104664617,0.199338457623,0.0507235059653,0.575398657039
tagged_abstract_sents/11158037.txt,4,0.162510056315,0.0223806694395,0.139250797795,0.0356431803763,0.121314976957,0.433332678139,0.0534326215972,0.822882808643
tagged_abstract_sents/11158037.txt,5,0.101769911504,-0.0152010299069,0.139250797795,0.0356431803763,0.062772928664,0.263324343304,0.0689177935985,0.553709141799
tagged_abstract_sents/11158037.txt,6,0.0711987127916,-0.0337195484254,0.139250797795,0.0356431803763,0.0492999288577,0.272158487068,0.0573313120888,0.509323141573
tagged_abstract_sents/11158037.txt,7,0.0458567980692,0.0681323034264,0.139250797795,0.0356431803763,0.0445598969944,0.392889807967,0.0459562503615,0.614036207474
tagged_abstract_sents/11158037.txt,8,0.0245374094932,-0.0516934046346,0.139250797795,0.0356431803763,0.0023334020951,0.18628496629,0.0413608870203,0.319588855083
tagged_abstract_sents/11158037.txt,9,0.00844730490748,-0.0435234699941,0.139250797795,0.0356431803763,0.0316069331079,0.239703335745,0.0612455535691,0.410927325359
tagged_abstract_sents/11158037.txt,10,0.00120675784393,0.0212913448208,0.139250797795,0.0356431803763,0.00870257408344,0.337314981633,0.0292542897691,0.460813873735
tagged_abstract_sents/11158037.txt,11,0.00120675784393,0.0708556149733,0.139250797795,0.0356431803763,0.0489403446999,0.434705065103,0.0575449941943,0.636645286277
