tagged_abstract_sents/11178116.txt,3,0.123690572119,-0.047088706526,0.188769469584,0.123191979006,0.0631113745825,0.0850615058486,0.0525858704137,0.333794627929
tagged_abstract_sents/11178116.txt,4,0.149073327961,0.0994529112935,0.139250797795,0.194462959676,0.0631113745825,0.18409780518,0.0709219059629,0.471156556439
tagged_abstract_sents/11178116.txt,5,0.176470588235,-0.0506057053537,0.139250797795,0.194462959676,0.0631113745825,0.075955035222,0.0330405932865,0.232820754095
tagged_abstract_sents/11178116.txt,6,0.0954875100725,-0.0330207112153,0.139250797795,0.194462959676,0.0631113745825,0.117209792731,0.0327098483915,0.294506439803
tagged_abstract_sents/11178116.txt,7,0.0342465753425,0.0560765924189,0.139250797795,0.194462959676,0.0631113745825,0.162003975907,0.0653481167057,0.251477891655
