tagged_abstract_sents/11225739.txt,3,0.123690572119,-0.0502053004853,0.188769469584,0.123191979006,0.326867753837,0.163080732701,0.0409928780897,0.37394035185
tagged_abstract_sents/11225739.txt,4,0.149073327961,0.0158641284061,0.188769469584,0.123191979006,0.326867753837,0.122003335879,0.0359700571076,0.342850745423
tagged_abstract_sents/11225739.txt,5,0.176470588235,0.0539380365808,0.188769469584,0.123191979006,0.326867753837,0.242777017799,0.0466174537365,0.520510477717
tagged_abstract_sents/11225739.txt,6,0.0954875100725,-0.0468458379993,0.0616692308323,0.247294108221,0.326867753837,0.148215642375,0.0365800865801,0.342764247149
tagged_abstract_sents/11225739.txt,7,0.0342465753425,0.0237028742068,0.139250797795,0.194462959676,0.326867753837,0.145382693992,0.0401619885491,0.496196462382
