tagged_abstract_sents/11231700.txt,2,0.0954875100725,-0.0606753812636,0.0616692308323,0.247294108221,0.0893925096399,0.0,0.0,0.169277779688
tagged_abstract_sents/11231700.txt,3,0.0253827558421,0.0264705882353,0.188769469584,0.123191979006,0.0893925096399,0.192625295794,0.0376344086022,0.280313268578
tagged_abstract_sents/11231700.txt,4,0.0451248992748,-0.0552287581699,0.0616692308323,0.247294108221,0.0893925096399,0.0,0.0,0.130077015668
tagged_abstract_sents/11231700.txt,6,0.123690572119,0.0221132897603,0.139250797795,0.194462959676,0.0893925096399,0.0985687364074,0.0268747381651,0.319823943224
tagged_abstract_sents/11231700.txt,7,0.131345688961,-0.0279956427015,0.139250797795,0.194462959676,0.0893925096399,0.0996980493754,0.0213737875028,0.297805477562
tagged_abstract_sents/11231700.txt,8,0.140209508461,0.0547930283224,0.139250797795,0.194462959676,0.0893925096399,0.161693485251,0.0374947633012,0.401566568439
tagged_abstract_sents/11231700.txt,9,0.149879129734,-0.0623093681917,0.139250797795,0.194462959676,0.0893925096399,0.0,0.0,0.235405716949
tagged_abstract_sents/11231700.txt,10,0.150684931507,0.058605664488,0.139250797795,0.194462959676,0.0893925096399,0.202617868609,0.0419721407625,0.369871241683
tagged_abstract_sents/11231700.txt,11,0.176470588235,0.0330065359477,0.139250797795,0.194462959676,0.0893925096399,0.169572868438,0.0317274123726,0.370831832451
tagged_abstract_sents/11231700.txt,12,0.166800966962,0.0123093681917,0.139250797795,0.194462959676,0.0893925096399,0.188615622136,0.0434350839776,0.406081694202
tagged_abstract_sents/11231700.txt,13,0.131345688961,-0.000217864923747,0.139250797795,0.194462959676,0.0893925096399,0.110063673266,0.0228843736908,0.323799202848
tagged_abstract_sents/11231700.txt,14,0.0954875100725,-0.000762527233115,0.139250797795,0.194462959676,0.0893925096399,0.149951031031,0.0272109893502,0.267154509979
tagged_abstract_sents/11231700.txt,15,0.0342465753425,-0.0606753812636,0.0616692308323,0.247294108221,0.0893925096399,0.0,0.0,0.120285031904
tagged_abstract_sents/11231700.txt,16,0.0342465753425,0.00795206971678,0.139250797795,0.194462959676,0.0893925096399,0.197506025212,0.0218597262952,0.240651643829
