tagged_abstract_sents/11239327.txt,1,0.125905068383,-0.0421011058452,0.0616692308323,0.142474783506,0.0,0.0,0.0,0.165880884005
tagged_abstract_sents/11239327.txt,2,0.250201126307,0.0400473933649,0.188769469584,0.202456734834,0.0584724236641,0.382346201893,0.0347611600615,0.83887192058
tagged_abstract_sents/11239327.txt,3,0.239742558327,-0.0444707740916,0.0616692308323,0.142474783506,0.0,0.0,0.0,0.256476942311
tagged_abstract_sents/11239327.txt,4,0.229283990346,-0.0160347551343,0.0616692308323,0.142474783506,0.107493465597,0.260194966505,0.0208605103559,0.642346234176
tagged_abstract_sents/11239327.txt,5,0.218020917136,-0.0436808846761,0.0616692308323,0.142474783506,0.0,0.0,0.0,0.239257607241
tagged_abstract_sents/11239327.txt,6,0.206757843926,-0.0176145339652,0.0616692308323,0.142474783506,0.0878831765791,0.251746651619,0.032666630531,0.607756877545
tagged_abstract_sents/11239327.txt,7,0.162510056315,-0.0428909952607,0.0616692308323,0.142474783506,0.0,0.0,0.0,0.195006896468
tagged_abstract_sents/11239327.txt,8,0.118262268705,0.0116113744076,0.210342442448,0.226435992083,0.0840643223301,0.19223909115,0.0272024513356,0.57353997351
tagged_abstract_sents/11239327.txt,9,0.101769911504,-0.0397314375987,0.0616692308323,0.142474783506,0.0,0.0,0.0,0.147046692152
tagged_abstract_sents/11239327.txt,10,0.0852775543041,0.0297788309637,0.194899689933,0.13295610691,0.145824461093,0.195931172668,0.0309675020025,0.584237622439
tagged_abstract_sents/11239327.txt,11,0.0711987127916,0.0455766192733,0.194899689933,0.13295610691,0.0917421001417,0.269692640986,0.0397242247397,0.604569936995
tagged_abstract_sents/11239327.txt,12,0.0571198712792,-0.0326224328594,0.0616692308323,0.142474783506,0.0,0.0,0.0,0.112748460919
tagged_abstract_sents/11239327.txt,13,0.0458567980692,0.0281990521327,0.139250797795,0.0356431803763,0.0169363334707,0.199103511512,0.0414092001373,0.380092647012
tagged_abstract_sents/11239327.txt,14,0.0345937248592,-0.0436808846761,0.139250797795,0.0356431803763,0.0,0.0,0.0,0.0992571559624
tagged_abstract_sents/11239327.txt,15,0.0245374094932,0.0984992101106,0.139250797795,0.0356431803763,0.0109968427112,0.224841363269,0.0370571123999,0.392543441007
tagged_abstract_sents/11239327.txt,16,0.0144810941271,0.00845181674566,0.139250797795,0.0356431803763,0.0249772969865,0.141026986919,0.0294656139146,0.289063489482
tagged_abstract_sents/11239327.txt,17,0.00844730490748,-0.0413112164297,0.0616692308323,0.142474783506,0.0,0.0,0.0,0.0720726511079
tagged_abstract_sents/11239327.txt,18,0.00120675784393,0.0274091627172,0.139250797795,0.0356431803763,0.156323324849,0.277103504396,0.0324053640223,0.552597785097
tagged_abstract_sents/11239327.txt,19,0.00120675784393,0.0495260663507,0.139250797795,0.0356431803763,0.177235781102,0.287380700174,0.0418468932372,0.597652347068
tagged_abstract_sents/11239327.txt,20,0.00120675784393,0.0250394944708,0.139250797795,0.0356431803763,0.200175392639,0.244724268681,0.0337266096928,0.564917929193
