tagged_abstract_sents/11239327.txt,2,0.206355591311,-0.0421011058452,0.0616692308323,0.106008497564,0.200175392639,0.0,0.0,0.219301416565
tagged_abstract_sents/11239327.txt,4,0.206355591311,-0.0444707740916,0.0616692308323,0.106008497564,0.200175392639,0.0,0.0,0.218827482916
tagged_abstract_sents/11239327.txt,5,0.0048270313757,-0.0160347551343,0.0616692308323,0.106008497564,0.200175392639,0.260194966505,0.0208605103559,0.368414790163
tagged_abstract_sents/11239327.txt,6,0.0048270313757,-0.0436808846761,0.0616692308323,0.106008497564,0.200175392639,0.0,0.0,0.0577626128506
tagged_abstract_sents/11239327.txt,7,0.0048270313757,-0.0176145339652,0.0616692308323,0.106008497564,0.200175392639,0.251746651619,0.032666630531,0.364759768057
tagged_abstract_sents/11239327.txt,8,0.0108608205953,-0.0428909952607,0.0616692308323,0.106008497564,0.200175392639,0.0,0.0,0.0627476221094
tagged_abstract_sents/11239327.txt,9,0.016894609815,0.0116113744076,0.210342442448,0.0253702522065,0.200175392639,0.19223909115,0.0272024513356,0.357937158247
tagged_abstract_sents/11239327.txt,10,0.0261464199517,-0.0397314375987,0.0616692308323,0.106008497564,0.200175392639,0.0,0.0,0.0756080131269
tagged_abstract_sents/11239327.txt,11,0.0353982300885,0.0297788309637,0.194899689933,0.0581677376677,0.200175392639,0.195931172668,0.0309675020025,0.406020909832
tagged_abstract_sents/11239327.txt,13,0.0683829444891,-0.0326224328594,0.0616692308323,0.106008497564,0.200175392639,0.0,0.0,0.110819033705
tagged_abstract_sents/11239327.txt,14,0.0993563958166,0.0281990521327,0.139250797795,0.521468892835,0.200175392639,0.199103511512,0.0414092001373,0.544033699527
tagged_abstract_sents/11239327.txt,15,0.130329847144,-0.0436808846761,0.139250797795,0.521468892835,0.200175392639,0.0,0.0,0.321593767528
tagged_abstract_sents/11239327.txt,16,0.172566371681,0.0984992101106,0.139250797795,0.521468892835,0.200175392639,0.224841363269,0.0370571123999,0.623809370581
tagged_abstract_sents/11239327.txt,17,0.214802896219,0.00845181674566,0.139250797795,0.521468892835,0.200175392639,0.141026986919,0.0294656139146,0.558324766342
tagged_abstract_sents/11239327.txt,18,0.206355591311,-0.0413112164297,0.0616692308323,0.106008497564,0.200175392639,0.0,0.0,0.219459394448
tagged_abstract_sents/11239327.txt,19,0.262268704747,0.0274091627172,0.139250797795,0.521468892835,0.200175392639,0.277103504396,0.0324053640223,0.806426354123
tagged_abstract_sents/11239327.txt,20,0.262268704747,0.0495260663507,0.139250797795,0.521468892835,0.200175392639,0.287380700174,0.0418468932372,0.846322844277
tagged_abstract_sents/11239327.txt,21,0.262268704747,0.0250394944708,0.139250797795,0.521468892835,0.200175392639,0.244724268681,0.0337266096928,0.814597701734
