tagged_abstract_sents/11252459.txt,2,0.0954875100725,0.0207860470673,0.188769469584,0.123191979006,0.11083219352,0.349438456515,0.0354519756053,0.5459466967
tagged_abstract_sents/11252459.txt,3,0.0253827558421,-0.0560864890694,0.210342442448,0.141687475369,0.11083219352,0.200890964335,0.0485252889347,0.357200354211
tagged_abstract_sents/11252459.txt,5,0.123690572119,-0.0160076454426,0.139250797795,0.194462959676,0.11083219352,0.278898449357,0.0272654453911,0.466015482359
tagged_abstract_sents/11252459.txt,6,0.140209508461,-0.0462310357186,0.139250797795,0.194462959676,0.11083219352,0.247506514436,0.0286676182389,0.487639755117
tagged_abstract_sents/11252459.txt,7,0.149879129734,-0.0508302472823,0.139250797795,0.194462959676,0.11083219352,0.184638604005,0.0366784910554,0.414476236316
tagged_abstract_sents/11252459.txt,8,0.176470588235,0.0562656791303,0.139250797795,0.194462959676,0.11083219352,0.368724747586,0.0326564384237,0.617908665873
tagged_abstract_sents/11252459.txt,9,0.166800966962,0.0266993190778,0.139250797795,0.194462959676,0.11083219352,0.371847728763,0.0342647900217,0.592511747342
tagged_abstract_sents/11252459.txt,10,0.0954875100725,0.0201290168439,0.139250797795,0.194462959676,0.11083219352,0.409138239655,0.0419472391666,0.637872758275
tagged_abstract_sents/11252459.txt,11,0.0342465753425,0.067435192928,0.139250797795,0.194462959676,0.11083219352,0.46882135137,0.0363664551565,0.484598998164
tagged_abstract_sents/11252459.txt,12,0.0342465753425,-0.0271771592402,0.139250797795,0.194462959676,0.11083219352,0.186758860063,0.023815653965,0.379588992556
