tagged_abstract_sents/11279782.txt,2,0.0954875100725,-0.0397104201282,0.0616692308323,0.247294108221,0.146538541774,0.0,0.0,0.116753983501
tagged_abstract_sents/11279782.txt,3,0.0954875100725,0.0302634702113,0.188769469584,0.123191979006,0.146538541774,0.148127895124,0.0515887800724,0.319868676053
tagged_abstract_sents/11279782.txt,4,0.0253827558421,-0.0397104201282,0.0616692308323,0.247294108221,0.146538541774,0.0,0.0,0.0606701801168
tagged_abstract_sents/11279782.txt,6,0.0805801772764,-0.0370994540707,0.0616692308323,0.247294108221,0.146538541774,0.0,0.0,0.105350310476
tagged_abstract_sents/11279782.txt,7,0.0805801772764,0.0145976738666,0.0616692308323,0.247294108221,0.146538541774,0.102738331781,0.0628616200579,0.295031807801
tagged_abstract_sents/11279782.txt,8,0.123690572119,0.0198196059815,0.0616692308323,0.247294108221,0.146538541774,0.133697008143,0.0388650930605,0.318639121225
tagged_abstract_sents/11279782.txt,9,0.123690572119,-0.0355328744363,0.0616692308323,0.247294108221,0.146538541774,0.0,0.0,0.140151942277
tagged_abstract_sents/11279782.txt,10,0.140209508461,0.0798718253026,0.0616692308323,0.247294108221,0.146538541774,0.212567204739,0.0965366600613,0.422483206154
tagged_abstract_sents/11279782.txt,11,0.140209508461,-0.0303109423214,0.0616692308323,0.247294108221,0.146538541774,0.0,0.0,0.154411477773
tagged_abstract_sents/11279782.txt,12,0.149073327961,0.017208639924,0.0616692308323,0.247294108221,0.146538541774,0.196678901684,0.0901856188741,0.48632036801
tagged_abstract_sents/11279782.txt,13,0.149879129734,0.00415380963684,0.0616692308323,0.247294108221,0.146538541774,0.0801414960344,0.0235543145379,0.186624464577
tagged_abstract_sents/11279782.txt,14,0.149879129734,-0.00576786138144,0.0616692308323,0.247294108221,0.146538541774,0.0703635473328,0.0308962724434,0.299077811902
tagged_abstract_sents/11279782.txt,15,0.176470588235,-0.0120341799193,0.0616692308323,0.247294108221,0.146538541774,0.0720570749764,0.0289202771272,0.309878087577
tagged_abstract_sents/11279782.txt,16,0.176470588235,-0.0386660337052,0.0616692308323,0.247294108221,0.146538541774,0.0,0.0,0.181749323316
tagged_abstract_sents/11279782.txt,17,0.166800966962,0.00937574175172,0.139250797795,0.194462959676,0.146538541774,0.126439396298,0.0871226906063,0.456367627408
tagged_abstract_sents/11279782.txt,18,0.166800966962,0.018253026347,0.139250797795,0.194462959676,0.146538541774,0.126730389974,0.0969055655049,0.539035241251
tagged_abstract_sents/11279782.txt,19,0.0954875100725,0.0166864467126,0.139250797795,0.194462959676,0.146538541774,0.126677163103,0.0887949442072,0.466408962728
tagged_abstract_sents/11279782.txt,20,0.0954875100725,-0.0334441015903,0.0616692308323,0.247294108221,0.146538541774,0.0,0.0,0.118007247209
tagged_abstract_sents/11279782.txt,21,0.0342465753425,0.0125089010207,0.139250797795,0.194462959676,0.146538541774,0.188316466092,0.119399755626,0.396565455943
tagged_abstract_sents/11279782.txt,22,0.0342465753425,0.000498457156421,0.139250797795,0.194462959676,0.146538541774,0.195786909396,0.112839578454,0.380048553818
tagged_abstract_sents/11279782.txt,23,0.0342465753425,0.0266081177308,0.139250797795,0.194462959676,0.146538541774,0.171954609357,0.0909212401996,0.409213265233
