tagged_abstract_sents/11279782.txt,1,0.125905068383,-0.0397104201282,0.0616692308323,0.142474783506,0.0,0.0,0.0,0.166359021149
tagged_abstract_sents/11279782.txt,2,0.125905068383,0.0302634702113,0.188769469584,0.202456734834,0.0830045324148,0.148127895124,0.0515887800724,0.544619711603
tagged_abstract_sents/11279782.txt,3,0.239742558327,-0.0397104201282,0.0616692308323,0.142474783506,0.0,0.0,0.0,0.257429013104
tagged_abstract_sents/11279782.txt,4,0.239742558327,0.0224305720389,0.0616692308323,0.142474783506,0.135067040483,0.185135299591,0.119488850423,0.709548402034
tagged_abstract_sents/11279782.txt,5,0.218020917136,-0.0370994540707,0.0616692308323,0.142474783506,0.0,0.0,0.0,0.240573893362
tagged_abstract_sents/11279782.txt,6,0.218020917136,0.0145976738666,0.0616692308323,0.142474783506,0.0131023928003,0.102738331781,0.0628616200579,0.429615663589
tagged_abstract_sents/11279782.txt,7,0.162510056315,0.0198196059815,0.0616692308323,0.142474783506,0.0131022337313,0.133697008143,0.0388650930605,0.393213351651
tagged_abstract_sents/11279782.txt,8,0.162510056315,-0.0355328744363,0.0616692308323,0.142474783506,0.0,0.0,0.0,0.196478520633
tagged_abstract_sents/11279782.txt,9,0.101769911504,0.0798718253026,0.0616692308323,0.142474783506,0.0939248621794,0.212567204739,0.0965366600613,0.573996071712
tagged_abstract_sents/11279782.txt,10,0.101769911504,-0.0303109423214,0.0616692308323,0.142474783506,0.0,0.0,0.0,0.148930791207
tagged_abstract_sents/11279782.txt,11,0.0852775543041,0.017208639924,0.0616692308323,0.142474783506,0.0556398374265,0.196678901684,0.0901856188741,0.48774517988
tagged_abstract_sents/11279782.txt,12,0.0711987127916,0.00415380963684,0.0616692308323,0.142474783506,0.0162412209385,0.0801414960344,0.0235543145379,0.251303814139
tagged_abstract_sents/11279782.txt,13,0.0711987127916,-0.00576786138144,0.0616692308323,0.142474783506,0.020698449957,0.0703635473328,0.0308962724434,0.251340718158
tagged_abstract_sents/11279782.txt,14,0.0458567980692,-0.0120341799193,0.0616692308323,0.142474783506,0.0235388463604,0.0720570749764,0.0289202771272,0.232371851403
tagged_abstract_sents/11279782.txt,15,0.0458567980692,-0.0386660337052,0.0616692308323,0.142474783506,0.0,0.0,0.0,0.102529282182
tagged_abstract_sents/11279782.txt,16,0.0245374094932,0.00937574175172,0.139250797795,0.0356431803763,0.199699994231,0.126439396298,0.0871226906063,0.51508551009
tagged_abstract_sents/11279782.txt,17,0.0245374094932,0.018253026347,0.139250797795,0.0356431803763,0.226657873687,0.126730389974,0.0969055655049,0.553892715041
tagged_abstract_sents/11279782.txt,18,0.00844730490748,0.0166864467126,0.139250797795,0.0356431803763,0.230059327956,0.126677163103,0.0887949442072,0.535944921545
tagged_abstract_sents/11279782.txt,19,0.00844730490748,-0.0334441015903,0.0616692308323,0.142474783506,0.0,0.0,0.0,0.0736460740758
tagged_abstract_sents/11279782.txt,20,0.00120675784393,0.0125089010207,0.139250797795,0.0356431803763,0.178911909836,0.188316466092,0.119399755626,0.570413671043
tagged_abstract_sents/11279782.txt,21,0.00120675784393,0.000498457156421,0.139250797795,0.0356431803763,0.178304463172,0.195786909396,0.112839578454,0.568314401739
tagged_abstract_sents/11279782.txt,22,0.00120675784393,0.0266081177308,0.139250797795,0.0356431803763,0.146538541774,0.171954609357,0.0909212401996,0.496019774163
