tagged_abstract_sents/11298538.txt,2,0.0954875100725,-0.0449121184089,0.0616692308323,0.247294108221,0.00260679295925,0.0,0.0,0.145517654606
tagged_abstract_sents/11298538.txt,3,0.00564061240935,0.00642923219241,0.188769469584,0.123191979006,0.00260679295925,0.430538408053,0.0684796326365,0.612630746749
tagged_abstract_sents/11298538.txt,4,0.0253827558421,0.0031914893617,0.188769469584,0.123191979006,0.00260679295925,0.333559321761,0.0532326137297,0.601026382069
tagged_abstract_sents/11298538.txt,5,0.0451248992748,-0.0449121184089,0.0616692308323,0.247294108221,0.00260679295925,0.0,0.0,0.105227565968
tagged_abstract_sents/11298538.txt,6,0.0805801772764,0.063783533765,0.0616692308323,0.247294108221,0.00260679295925,0.529296159765,0.0379959792271,0.464056812894
tagged_abstract_sents/11298538.txt,7,0.116035455278,-0.0462997224792,0.0616692308323,0.247294108221,0.00260679295925,0.0,0.0,0.161678489957
tagged_abstract_sents/11298538.txt,8,0.123690572119,-0.0111470860315,0.0616692308323,0.247294108221,0.00260679295925,0.409700776882,0.0442095565349,0.434672576028
tagged_abstract_sents/11298538.txt,10,0.140209508461,-0.0268732654949,0.0616692308323,0.247294108221,0.00260679295925,0.227315345019,0.0308915705196,0.440528719519
tagged_abstract_sents/11298538.txt,11,0.149073327961,-0.0462997224792,0.0616692308323,0.247294108221,0.00260679295925,0.0,0.0,0.188108788103
tagged_abstract_sents/11298538.txt,12,0.149879129734,0.091073080481,0.139250797795,0.194462959676,0.00260679295925,0.49450233487,0.0413801838903,0.50046492955
tagged_abstract_sents/11298538.txt,13,0.150684931507,-0.0203977798335,0.139250797795,0.194462959676,0.00260679295925,0.255136409056,0.0285753687561,0.360740421484
tagged_abstract_sents/11298538.txt,14,0.176470588235,-0.0166975023127,0.139250797795,0.194462959676,0.00260679295925,0.188537178974,0.0362631318036,0.436385811432
tagged_abstract_sents/11298538.txt,15,0.202256244964,-0.000971322849214,0.139250797795,0.194462959676,0.00260679295925,0.24252719955,0.03363768524,0.502577491469
tagged_abstract_sents/11298538.txt,16,0.166800966962,-0.0356614246068,0.139250797795,0.194462959676,0.00260679295925,0.145326246395,0.0296089489804,0.385688150685
tagged_abstract_sents/11298538.txt,17,0.131345688961,0.0471322849214,0.139250797795,0.194462959676,0.00260679295925,0.518042297073,0.0335060472507,0.521995368158
tagged_abstract_sents/11298538.txt,18,0.0954875100725,0.0374190564292,0.139250797795,0.194462959676,0.00260679295925,0.553674361405,0.0302127686064,0.797964185001
tagged_abstract_sents/11298538.txt,19,0.0342465753425,-0.00513413506013,0.139250797795,0.194462959676,0.00260679295925,0.450159108607,0.0278180324195,0.493354034834
tagged_abstract_sents/11298538.txt,20,0.0342465753425,-0.0444495837188,0.0616692308323,0.247294108221,0.00260679295925,0.0,0.0,0.0966174137603
tagged_abstract_sents/11298538.txt,21,0.0342465753425,0.0415818686401,0.139250797795,0.194462959676,0.00260679295925,0.444687310134,0.0396466721446,0.377283040526
