tagged_abstract_sents/11298538.txt,1,0.125905068383,-0.0449121184089,0.0616692308323,0.142474783506,0.0,0.0,0.0,0.165318681492
tagged_abstract_sents/11298538.txt,2,0.250201126307,0.00642923219241,0.188769469584,0.202456734834,0.00158463068272,0.430538408053,0.0684796326365,0.857171174099
tagged_abstract_sents/11298538.txt,3,0.239742558327,0.0031914893617,0.188769469584,0.202456734834,0.164243863621,0.333559321761,0.0532326137297,0.898589898888
tagged_abstract_sents/11298538.txt,4,0.229283990346,-0.0449121184089,0.0616692308323,0.142474783506,0.0,0.0,0.0,0.248021819063
tagged_abstract_sents/11298538.txt,5,0.218020917136,0.063783533765,0.0616692308323,0.142474783506,0.0549524066204,0.529296159765,0.0379959792271,0.882995036542
tagged_abstract_sents/11298538.txt,6,0.206757843926,-0.0462997224792,0.0616692308323,0.142474783506,0.0,0.0,0.0,0.229723381113
tagged_abstract_sents/11298538.txt,7,0.162510056315,-0.0111470860315,0.0616692308323,0.142474783506,0.0,0.409700776882,0.0442095565349,0.655266011731
tagged_abstract_sents/11298538.txt,8,0.118262268705,0.0531452358927,0.210342442448,0.226435992083,0.0553361286312,0.654254383947,0.0801137490566,1.06804514263
tagged_abstract_sents/11298538.txt,9,0.101769911504,-0.0268732654949,0.0616692308323,0.142474783506,0.0,0.227315345019,0.0308915705196,0.407825242111
tagged_abstract_sents/11298538.txt,10,0.0852775543041,-0.0462997224792,0.0616692308323,0.142474783506,0.0,0.0,0.0,0.132539149415
tagged_abstract_sents/11298538.txt,11,0.0711987127916,0.091073080481,0.139250797795,0.0356431803763,0.0243085506152,0.49450233487,0.0413801838903,0.715683008716
tagged_abstract_sents/11298538.txt,12,0.0571198712792,-0.0203977798335,0.139250797795,0.0356431803763,0.00285613086823,0.255136409056,0.0285753687561,0.408502602748
tagged_abstract_sents/11298538.txt,13,0.0458567980692,-0.0166975023127,0.139250797795,0.0356431803763,0.00320379194483,0.188537178974,0.0362631318036,0.341668393725
tagged_abstract_sents/11298538.txt,14,0.0345937248592,-0.000971322849214,0.139250797795,0.0356431803763,0.0053488605727,0.24252719955,0.03363768524,0.38931281369
tagged_abstract_sents/11298538.txt,15,0.0245374094932,-0.0356614246068,0.139250797795,0.0356431803763,0.0,0.145326246395,0.0296089489804,0.267751191059
tagged_abstract_sents/11298538.txt,16,0.0144810941271,0.0471322849214,0.139250797795,0.0356431803763,0.0261325733602,0.518042297073,0.0335060472507,0.679010602981
tagged_abstract_sents/11298538.txt,17,0.00844730490748,0.0374190564292,0.139250797795,0.0356431803763,0.0977082207466,0.553674361405,0.0302127686064,0.77615535898
tagged_abstract_sents/11298538.txt,18,0.00120675784393,-0.00513413506013,0.139250797795,0.0356431803763,0.00441043288333,0.450159108607,0.0278180324195,0.562644506184
tagged_abstract_sents/11298538.txt,19,0.00120675784393,-0.0444495837188,0.0616692308323,0.142474783506,0.0,0.0,0.0,0.0656525399992
tagged_abstract_sents/11298538.txt,20,0.00120675784393,0.0415818686401,0.139250797795,0.0356431803763,0.00260679295925,0.444687310134,0.0396466721446,0.576540908252
