tagged_abstract_sents/11331711.txt,3,0.016894609815,-0.029525483304,0.188769469584,0.129715814208,0.0395355918674,0.103738108886,0.0156799259944,0.241044408142
tagged_abstract_sents/11331711.txt,5,0.214802896219,-0.0453427065026,0.188769469584,0.129715814208,0.0395355918674,0.103488214715,0.0408491163153,0.436398751555
tagged_abstract_sents/11331711.txt,6,0.262268704747,-0.0137082601054,0.188769469584,0.129715814208,0.0395355918674,0.169338551972,0.0302401990494,0.558970335513
