tagged_abstract_sents/11339934.txt,2,0.0954875100725,-0.070821795654,0.0616692308323,0.247294108221,0.185636950866,0.0,0.0,0.16724849681
tagged_abstract_sents/11339934.txt,4,0.0805801772764,-0.0720420519078,0.0616692308323,0.247294108221,0.185636950866,0.0,0.0,0.155078579322
tagged_abstract_sents/11339934.txt,5,0.123690572119,0.000563195194068,0.210342442448,0.141687475369,0.185636950866,0.36936567225,0.0650032957233,0.627492302738
tagged_abstract_sents/11339934.txt,6,0.123690572119,0.0890317735955,0.0616692308323,0.247294108221,0.185636950866,0.541603801926,0.0458352279336,0.79053483116
tagged_abstract_sents/11339934.txt,7,0.140209508461,-0.0720420519078,0.139250797795,0.194462959676,0.185636950866,0.0,0.0,0.225723483187
tagged_abstract_sents/11339934.txt,8,0.149879129734,-0.0238419298822,0.139250797795,0.194462959676,0.185636950866,0.317601995398,0.0309327173931,0.38594734858
tagged_abstract_sents/11339934.txt,9,0.176470588235,0.0298493452856,0.139250797795,0.194462959676,0.185636950866,0.579306885046,0.0435642362604,0.887749294291
tagged_abstract_sents/11339934.txt,10,0.176470588235,0.0627962641385,0.139250797795,0.194462959676,0.185636950866,0.725918068485,0.0385379021551,1.04526297315
tagged_abstract_sents/11339934.txt,11,0.166800966962,0.085981132961,0.139250797795,0.194462959676,0.185636950866,0.58910768079,0.0523438408747,0.860548381984
tagged_abstract_sents/11339934.txt,12,0.0954875100725,-0.0702116675271,0.139250797795,0.194462959676,0.185636950866,0.0,0.0,0.190311961353
tagged_abstract_sents/11339934.txt,13,0.0342465753425,-0.00736847045572,0.139250797795,0.194462959676,0.185636950866,0.447709417114,0.0375647835808,0.570959581751
tagged_abstract_sents/11339934.txt,14,0.0342465753425,0.00178345144788,0.139250797795,0.194462959676,0.185636950866,0.440958011959,0.0448218370749,0.650788670767
