tagged_abstract_sents/11335807.txt,3,0.123690572119,-0.0200302343159,0.188769469584,0.123191979006,0.105689598032,0.275838488298,0.0586328241989,0.474122506237
tagged_abstract_sents/11335807.txt,4,0.149073327961,-0.0684051398337,0.188769469584,0.123191979006,0.105689598032,0.239189573662,0.042800768106,0.502627425146
tagged_abstract_sents/11335807.txt,5,0.176470588235,0.0736961451247,0.139250797795,0.194462959676,0.105689598032,0.350778505158,0.0413235000499,0.586078368663
tagged_abstract_sents/11335807.txt,6,0.0954875100725,-0.0933484504913,0.139250797795,0.194462959676,0.105689598032,0.256369175829,0.0398675193348,0.485583939937
tagged_abstract_sents/11335807.txt,7,0.0342465753425,0.104686318972,0.139250797795,0.194462959676,0.105689598032,0.389132753292,0.0588269173175,0.45444019456
