tagged_abstract_sents/11354851.txt,3,0.0805801772764,-0.0485474006116,0.139250797795,0.194462959676,0.162213769079,0.255357546208,0.037259538976,0.458442541942
tagged_abstract_sents/11354851.txt,4,0.123690572119,-0.0567023445464,0.139250797795,0.194462959676,0.162213769079,0.201366579647,0.0253533012931,0.435211282644
tagged_abstract_sents/11354851.txt,5,0.149073327961,-0.0699541284404,0.139250797795,0.194462959676,0.162213769079,0.13984574762,0.0340912091684,0.400173715546
tagged_abstract_sents/11354851.txt,6,0.176470588235,-0.0169469928644,0.139250797795,0.194462959676,0.162213769079,0.353699254736,0.0370647775385,0.671268663953
tagged_abstract_sents/11354851.txt,7,0.166800966962,0.0380988786952,0.139250797795,0.194462959676,0.162213769079,0.276605217474,0.0397669996022,0.533807941775
tagged_abstract_sents/11354851.txt,8,0.0954875100725,0.0115953109072,0.139250797795,0.194462959676,0.162213769079,0.438679666219,0.042906850093,0.629301020068
tagged_abstract_sents/11354851.txt,9,0.0342465753425,0.0646024464832,0.139250797795,0.194462959676,0.162213769079,0.358116543918,0.035539183325,0.581435510207
