tagged_abstract_sents/11380322.txt,2,0.206355591311,-0.0637951663077,0.0616692308323,0.106008497564,0.0,0.0,0.0,0.214962604473
tagged_abstract_sents/11380322.txt,4,0.0048270313757,-0.0609236659488,0.0616692308323,0.106008497564,0.0,0.0,0.0,0.0543140565961
tagged_abstract_sents/11380322.txt,6,0.0108608205953,-0.0293371620005,0.194899689933,0.0581677376677,0.0,0.0984297777694,0.0,0.21279516832
tagged_abstract_sents/11380322.txt,7,0.016894609815,-0.0350801627184,0.0616692308323,0.106008497564,0.0,0.0804325754428,0.0,0.147414393544
tagged_abstract_sents/11380322.txt,8,0.0261464199517,-0.0609236659488,0.0616692308323,0.106008497564,0.0,0.0,0.0,0.0713695674569
tagged_abstract_sents/11380322.txt,9,0.0518905872888,-0.038669538167,0.139250797795,0.521468892835,0.0,0.0534601647069,0.0,0.312094968824
tagged_abstract_sents/11380322.txt,10,0.0683829444891,9.57166786313e-05,0.139250797795,0.521468892835,0.0,0.105426207026,0.0,0.384940673813
tagged_abstract_sents/11380322.txt,11,0.0993563958166,0.0546542234984,0.139250797795,0.521468892835,0.0,0.137156748751,0.0,0.516896293698
tagged_abstract_sents/11380322.txt,12,0.172566371681,0.0216319693707,0.139250797795,0.521468892835,0.0,0.128716084664,0.0,0.493989905764
tagged_abstract_sents/11380322.txt,13,0.214802896219,0.0230677195501,0.139250797795,0.521468892835,0.0,0.142108743779,0.0,0.533150631887
tagged_abstract_sents/11380322.txt,14,0.206355591311,-0.00636515912898,0.139250797795,0.521468892835,0.0,0.127257557028,0.0,0.512584556747
tagged_abstract_sents/11380322.txt,15,0.262268704747,-0.0587700406796,0.0616692308323,0.106008497564,0.0,0.0,0.0,0.260698120347
tagged_abstract_sents/11380322.txt,16,0.262268704747,0.0345537209859,0.139250797795,0.521468892835,0.0,0.158533248556,0.0,0.564715394913
