tagged_abstract_sents/11386780.txt,3,0.0048270313757,0.0171185539607,0.0616692308323,0.106008497564,0.0,0.356000843319,0.0408291891145,0.473240234074
tagged_abstract_sents/11386780.txt,4,0.0108608205953,-0.0288144603934,0.139250797795,0.521468892835,0.0,0.329686372016,0.0456674686498,0.618927460958
tagged_abstract_sents/11386780.txt,5,0.0261464199517,-0.0297713981925,0.139250797795,0.521468892835,0.0,0.302632799398,0.0478616643508,0.639020149386
tagged_abstract_sents/11386780.txt,6,0.0518905872888,-0.0154173312068,0.139250797795,0.521468892835,0.0,0.153459187462,0.0253370317347,0.463909377011
tagged_abstract_sents/11386780.txt,7,0.0993563958166,0.0142477405635,0.139250797795,0.521468892835,0.0,0.31520770473,0.0601422983892,0.738311475315
tagged_abstract_sents/11386780.txt,9,0.206355591311,-0.0326422115896,0.139250797795,0.521468892835,0.0,0.339853891736,0.0610448867503,0.814035927843
tagged_abstract_sents/11386780.txt,10,0.262268704747,-0.0891015417331,0.139250797795,0.521468892835,0.0,0.286428916081,0.0589389216973,0.74766748494
