tagged_abstract_sents/11383577.txt,2,0.00564061240935,-0.0035029742234,0.188769469584,0.123191979006,0.167809895631,0.519089346514,0.000234999216669,0.838064364223
tagged_abstract_sents/11383577.txt,4,0.116035455278,-0.0491077329808,0.0616692308323,0.247294108221,0.167809895631,0.450126876539,0.0190702632298,0.614924291421
tagged_abstract_sents/11383577.txt,5,0.131345688961,0.00178453403833,0.139250797795,0.194462959676,0.167809895631,0.569053883969,0.00816230612565,0.697819829192
tagged_abstract_sents/11383577.txt,6,0.149073327961,-0.0239920687376,0.139250797795,0.194462959676,0.167809895631,0.427721649368,0.000293749020837,0.612985445209
tagged_abstract_sents/11383577.txt,7,0.150684931507,-0.00548578982155,0.139250797795,0.194462959676,0.167809895631,0.432294941205,0.000293749020837,0.595470756356
tagged_abstract_sents/11383577.txt,8,0.202256244964,0.0308658294779,0.139250797795,0.194462959676,0.167809895631,0.738395285067,0.0274078716034,0.984522826083
tagged_abstract_sents/11383577.txt,9,0.131345688961,0.0321877065433,0.139250797795,0.194462959676,0.167809895631,0.978848570391,0.02359425827,1.10180482342
tagged_abstract_sents/11383577.txt,10,0.0342465753425,0.00112359550562,0.139250797795,0.194462959676,0.167809895631,0.549617017815,0.0256547682853,0.758899119698
tagged_abstract_sents/11383577.txt,11,0.0342465753425,-0.0153998678123,0.139250797795,0.194462959676,0.167809895631,0.470584168124,0.000261110240744,0.715567291408
