tagged_abstract_sents/11407054.txt,2,0.206355591311,-0.015611149414,0.188769469584,0.129715814208,0.0458054757792,0.161306595006,0.0379332552693,0.57685804065
tagged_abstract_sents/11407054.txt,3,0.206355591311,-0.0291539446469,0.0616692308323,0.106008497564,0.0458054757792,0.171346449743,0.0495316159251,0.527456681835
tagged_abstract_sents/11407054.txt,5,0.0108608205953,-0.0578646705407,0.139250797795,0.521468892835,0.0458054757792,0.132972414834,0.051112412178,0.406823540197
tagged_abstract_sents/11407054.txt,6,0.0261464199517,-0.0519058406382,0.139250797795,0.521468892835,0.0458054757792,0.105833257647,0.049593607935,0.39139806297
tagged_abstract_sents/11407054.txt,7,0.0518905872888,-0.027528809219,0.139250797795,0.521468892835,0.0458054757792,0.129954064074,0.0552180913349,0.476289830371
tagged_abstract_sents/11407054.txt,8,0.0993563958166,-0.0107357431301,0.139250797795,0.521468892835,0.0458054757792,0.145900856688,0.0718328314933,0.520137891025
tagged_abstract_sents/11407054.txt,10,0.206355591311,0.0678124692209,0.139250797795,0.521468892835,0.0458054757792,0.207011965213,0.0460542823687,0.603548078739
tagged_abstract_sents/11407054.txt,11,0.262268704747,0.0282675071407,0.139250797795,0.521468892835,0.0458054757792,0.219108092413,0.0441093147994,0.753154479695
tagged_abstract_sents/11407054.txt,12,0.262268704747,0.0190584063824,0.139250797795,0.521468892835,0.0458054757792,0.183429932219,0.0680783242259,0.714599083736
