tagged_abstract_sents/11425422.txt,3,0.016894609815,0.0548330404218,0.194899689933,0.0581677376677,0.0315795926796,0.333855816928,0.00911949685535,0.497277198504
tagged_abstract_sents/11425422.txt,5,0.214802896219,0.0267135325132,0.139250797795,0.521468892835,0.0315795926796,0.402705094356,0.0314028651293,0.878989954073
tagged_abstract_sents/11425422.txt,6,0.262268704747,-0.0207381370826,0.139250797795,0.521468892835,0.0315795926796,0.307052125794,0.0251414700273,0.776814763876
