tagged_abstract_sents/11446557.txt,2,0.206355591311,-0.0436162011504,0.188769469584,0.129715814208,0.0198924805412,0.0843987455428,0.0552950031845,0.428666223057
tagged_abstract_sents/11446557.txt,3,0.206355591311,-0.0224455909387,0.188769469584,0.129715814208,0.0198924805412,0.16644628137,0.0288170922355,0.49007221929
tagged_abstract_sents/11446557.txt,4,0.0048270313757,0.0402360196881,0.188769469584,0.129715814208,0.0198924805412,0.220193859221,0.0232953119873,0.386414908406
tagged_abstract_sents/11446557.txt,5,0.0048270313757,0.0327640396134,0.188769469584,0.129715814208,0.0198924805412,0.193579394365,0.0171563715076,0.361874508508
tagged_abstract_sents/11446557.txt,6,0.0108608205953,-0.0224455909387,0.188769469584,0.129715814208,0.0198924805412,0.169771216191,0.0282767888977,0.337007067877
tagged_abstract_sents/11446557.txt,8,0.0353982300885,-0.0303326810176,0.188769469584,0.129715814208,0.0198924805412,0.131969946721,0.0149962364658,0.317866614825
tagged_abstract_sents/11446557.txt,9,0.0518905872888,-0.00418075075609,0.188769469584,0.129715814208,0.0198924805412,0.198281991957,0.0292766118717,0.401342372845
tagged_abstract_sents/11446557.txt,10,0.0993563958166,-0.0220304809346,0.188769469584,0.129715814208,0.0198924805412,0.128422803112,0.0439961289362,0.380988910188
tagged_abstract_sents/11446557.txt,11,0.172566371681,0.05642530985,0.188769469584,0.129715814208,0.0198924805412,0.247450927667,0.0175612298072,0.539053815613
tagged_abstract_sents/11446557.txt,13,0.206355591311,-0.0191247109055,0.188769469584,0.129715814208,0.0198924805412,0.0927906461334,0.0153962764698,0.524321961362
tagged_abstract_sents/11446557.txt,14,0.262268704747,-0.0236909209512,0.188769469584,0.129715814208,0.0198924805412,0.168120564778,0.0245629826141,0.546581033237
tagged_abstract_sents/11446557.txt,15,0.262268704747,0.0468777797545,0.188769469584,0.129715814208,0.0198924805412,0.263139038389,0.0188316472301,0.628551005534
