tagged_abstract_sents/11465710.txt,1,0.125905068383,-0.0541874607979,0.0616692308323,0.142474783506,0.0,0.0,0.0,0.163463613015
tagged_abstract_sents/11465710.txt,2,0.239742558327,0.02230767133,0.188769469584,0.202456734834,0.190449530998,0.182123187764,0.100702576112,0.824652631045
tagged_abstract_sents/11465710.txt,3,0.239742558327,-0.0551146745207,0.0616692308323,0.142474783506,0.0,0.0,0.0,0.254348162225
tagged_abstract_sents/11465710.txt,4,0.218020917136,0.0533693310426,0.0616692308323,0.142474783506,0.159248725597,0.165186127657,0.0301240767429,0.613226580382
tagged_abstract_sents/11465710.txt,5,0.218020917136,0.0445608006763,0.194899689933,0.13295610691,0.099765782278,0.180228114354,0.0992266783763,0.699886145892
tagged_abstract_sents/11465710.txt,6,0.162510056315,-0.0240530148081,0.0616692308323,0.142474783506,0.0277928362825,0.106788321558,0.0486410698878,0.381996720286
tagged_abstract_sents/11465710.txt,7,0.101769911504,0.0292617742507,0.0616692308323,0.142474783506,0.222764043952,0.143738795913,0.042803685979,0.570151860365
tagged_abstract_sents/11465710.txt,8,0.101769911504,-0.0277618696992,0.0616692308323,0.142474783506,0.0279176584568,0.104117685924,0.0517719382835,0.333247888396
tagged_abstract_sents/11465710.txt,9,0.0711987127916,-0.0551146745207,0.0616692308323,0.142474783506,0.0,0.0,0.0,0.119513085797
tagged_abstract_sents/11465710.txt,10,0.0711987127916,0.0023725762906,0.139250797795,0.0356431803763,0.0180162671557,0.114025618713,0.0304669203747,0.300260644745
tagged_abstract_sents/11465710.txt,11,0.0458567980692,0.00793585862718,0.139250797795,0.0356431803763,0.153707319218,0.108996667818,0.0746304156909,0.455925365918
tagged_abstract_sents/11465710.txt,12,0.0245374094932,-0.0180261256102,0.139250797795,0.0356431803763,0.12662734381,0.103524444025,0.0858801717408,0.412375015058
tagged_abstract_sents/11465710.txt,13,0.0245374094932,0.0691319643295,0.139250797795,0.0356431803763,0.138626974979,0.170213940435,0.0716420277127,0.494257616597
tagged_abstract_sents/11465710.txt,14,0.00844730490748,0.0334342360032,0.139250797795,0.0356431803763,0.26350521615,0.197678048463,0.125544496487,0.680490805238
tagged_abstract_sents/11465710.txt,15,0.00844730490748,-0.0537238539366,0.0616692308323,0.142474783506,0.0,0.0,0.0,0.0695901236065
tagged_abstract_sents/11465710.txt,16,0.00120675784393,0.0589326133791,0.139250797795,0.0356431803763,0.330593490486,0.16574207379,0.0816108339273,0.671016680165
tagged_abstract_sents/11465710.txt,17,0.00120675784393,-0.0333251520358,0.139250797795,0.0356431803763,0.0358891144254,0.0778390061988,0.037343871975,0.225690721478
