tagged_abstract_sents/11509060.txt,1,0.250201126307,-0.0128014842301,0.188769469584,0.202456734834,0.0190043403221,0.206847021048,0.140928195049,0.719501915861
tagged_abstract_sents/11509060.txt,2,0.229283990346,-0.0332096474954,0.188769469584,0.202456734834,0.0196403960075,0.176554258483,0.100946526151,0.629048198662
tagged_abstract_sents/11509060.txt,3,0.206757843926,0.0349721706865,0.188769469584,0.202456734834,0.113195736352,0.197566459942,0.0884276831139,0.726712343928
tagged_abstract_sents/11509060.txt,4,0.118262268705,-0.0512987012987,0.188769469584,0.202456734834,0.00126166461648,0.121368407398,0.0503512880562,0.412453190017
tagged_abstract_sents/11509060.txt,5,0.0852775543041,0.0210575139147,0.0616692308323,0.142474783506,0.00059541713461,0.111156531119,0.04659188956,0.304354434508
tagged_abstract_sents/11509060.txt,6,0.0571198712792,0.0818181818182,0.139250797795,0.0356431803763,0.0540157829834,0.28941889162,0.0836344033815,0.569446964382
tagged_abstract_sents/11509060.txt,7,0.0345937248592,-0.017439703154,0.139250797795,0.0356431803763,0.0751771419224,0.20678557629,0.0916227556596,0.478090866138
tagged_abstract_sents/11509060.txt,8,0.0144810941271,0.0846011131725,0.139250797795,0.0356431803763,0.0322522594794,0.223184484395,0.0965447526347,0.460804947455
tagged_abstract_sents/11509060.txt,9,0.00120675784393,-0.0512987012987,0.139250797795,0.0356431803763,0.0546868436699,0.135844301523,0.0819735770288,0.343528741248
tagged_abstract_sents/11509060.txt,10,0.00120675784393,-0.056400742115,0.139250797795,0.0356431803763,0.0,0.0897451784614,0.0282219701405,0.187970759464
