tagged_abstract_sents/11565517.txt,2,0.0954875100725,-0.0503839523586,0.0616692308323,0.247294108221,0.114624686053,0.0,0.0,0.171336065469
tagged_abstract_sents/11565517.txt,4,0.0253827558421,-0.0517943895941,0.0616692308323,0.247294108221,0.114624686053,0.0,0.0,0.114970174637
tagged_abstract_sents/11565517.txt,5,0.0805801772764,0.0243692211252,0.210342442448,0.141687475369,0.114624686053,0.546975746253,0.040101682243,0.816927668622
tagged_abstract_sents/11565517.txt,6,0.0805801772764,-0.0249960821188,0.0616692308323,0.247294108221,0.114624686053,0.193325031741,0.0276323987539,0.316379069404
tagged_abstract_sents/11565517.txt,7,0.123690572119,0.044585488168,0.210342442448,0.141687475369,0.114624686053,0.692068762359,0.0447126921917,1.0252104494
tagged_abstract_sents/11565517.txt,8,0.123690572119,-0.009951418273,0.0616692308323,0.247294108221,0.114624686053,0.326944737833,0.028523364486,0.605608206537
tagged_abstract_sents/11565517.txt,9,0.140209508461,-0.0517943895941,0.0616692308323,0.247294108221,0.114624686053,0.0,0.0,0.206831576732
tagged_abstract_sents/11565517.txt,10,0.149073327961,-0.0343989970224,0.139250797795,0.194462959676,0.114624686053,0.241683754188,0.0216649892164,0.470773846316
tagged_abstract_sents/11565517.txt,11,0.149879129734,0.0474063626391,0.139250797795,0.194462959676,0.114624686053,0.421129097699,0.0418504672897,0.700944025594
tagged_abstract_sents/11565517.txt,12,0.176470588235,0.0521078200909,0.139250797795,0.194462959676,0.114624686053,0.49365175623,0.0426822429907,0.787050365855
tagged_abstract_sents/11565517.txt,13,0.176470588235,0.0271900955963,0.139250797795,0.194462959676,0.114624686053,0.533844707495,0.0404859813084,0.846858713668
tagged_abstract_sents/11565517.txt,14,0.166800966962,-0.0113618555085,0.139250797795,0.194462959676,0.114624686053,0.266843814563,0.0299214953271,0.517779881051
tagged_abstract_sents/11565517.txt,15,0.166800966962,0.0351825732644,0.139250797795,0.194462959676,0.114624686053,0.466325276063,0.0444502234864,0.751283372791
tagged_abstract_sents/11565517.txt,16,0.0954875100725,0.000861933866165,0.139250797795,0.194462959676,0.114624686053,0.438023234125,0.0434953271028,0.676937495076
tagged_abstract_sents/11565517.txt,17,0.0954875100725,-0.0499138066134,0.139250797795,0.194462959676,0.114624686053,0.0,0.0,0.194371533536
tagged_abstract_sents/11565517.txt,18,0.0342465753425,0.00838426578906,0.139250797795,0.194462959676,0.114624686053,0.486768737381,0.0497009345794,0.554181827842
tagged_abstract_sents/11565517.txt,19,0.0342465753425,-0.0198244789218,0.139250797795,0.194462959676,0.114624686053,0.490978607493,0.0448847352025,0.593304023053
