tagged_abstract_sents/11585485.txt,2,0.0954875100725,-0.0495259888853,0.0616692308323,0.247294108221,0.352517894366,0.0,0.0,0.171507658163
tagged_abstract_sents/11585485.txt,4,0.0253827558421,-0.0487495913697,0.0616692308323,0.247294108221,0.352517894366,0.0,0.0,0.115579134282
tagged_abstract_sents/11585485.txt,5,0.0805801772764,-0.0161408957176,0.188769469584,0.123191979006,0.352517894366,0.295123706857,0.0375514874142,0.576508830455
tagged_abstract_sents/11585485.txt,6,0.0805801772764,-0.0475849950964,0.0616692308323,0.247294108221,0.352517894366,0.0,0.0,0.159969990684
tagged_abstract_sents/11585485.txt,7,0.123690572119,0.0556758744688,0.0616692308323,0.247294108221,0.352517894366,0.531266682865,0.0588405797101,0.882994723106
tagged_abstract_sents/11585485.txt,8,0.123690572119,-0.0266222621772,0.0616692308323,0.247294108221,0.352517894366,0.210275450207,0.0686880244088,0.42504283483
tagged_abstract_sents/11585485.txt,9,0.140209508461,-0.0464203988231,0.0616692308323,0.247294108221,0.352517894366,0.0,0.0,0.207906374887
tagged_abstract_sents/11585485.txt,10,0.140209508461,0.0281137626675,0.139250797795,0.194462959676,0.352517894366,0.420637057923,0.0691810040399,0.815839377294
tagged_abstract_sents/11585485.txt,11,0.149879129734,-0.0215756783263,0.139250797795,0.194462959676,0.352517894366,0.185427253294,0.0388471177945,0.459726192303
tagged_abstract_sents/11585485.txt,12,0.149879129734,-0.0464203988231,0.0616692308323,0.247294108221,0.352517894366,0.0,0.0,0.215642071905
tagged_abstract_sents/11585485.txt,13,0.176470588235,0.0529584831644,0.0616692308323,0.247294108221,0.352517894366,0.459191191093,0.0620736624169,0.778245669267
tagged_abstract_sents/11585485.txt,14,0.176470588235,-0.0468085975809,0.0616692308323,0.247294108221,0.352517894366,0.0,0.0,0.236837598955
tagged_abstract_sents/11585485.txt,15,0.166800966962,-0.0239048708728,0.0616692308323,0.247294108221,0.352517894366,0.18202269105,0.0431077694236,0.413522244196
tagged_abstract_sents/11585485.txt,16,0.166800966962,0.110411899314,0.139250797795,0.194462959676,0.352517894366,0.507786225522,0.0553632723112,0.91690623656
tagged_abstract_sents/11585485.txt,17,0.0954875100725,0.0479118993135,0.139250797795,0.194462959676,0.352517894366,0.391730220571,0.0404975649827,0.686275041867
tagged_abstract_sents/11585485.txt,18,0.0954875100725,0.0778032036613,0.139250797795,0.194462959676,0.352517894366,0.410819591376,0.0478260869565,0.756116665355
tagged_abstract_sents/11585485.txt,19,0.0342465753425,-0.048361392612,0.139250797795,0.194462959676,0.352517894366,0.0,0.0,0.145689268552
tagged_abstract_sents/11585485.txt,20,0.0342465753425,0.0455827067669,0.139250797795,0.194462959676,0.352517894366,0.465842838047,0.0545167265991,0.74838533907
