tagged_abstract_sents/11667937.txt,1,0.125905068383,-0.0360489932263,0.0616692308323,0.142474783506,0.0,0.0,0.0,0.167091306529
tagged_abstract_sents/11667937.txt,2,0.125905068383,0.00194859422845,0.188769469584,0.202456734834,0.139106542053,0.454382220169,0.0440390013296,0.893763292347
tagged_abstract_sents/11667937.txt,3,0.239742558327,0.0100909343973,0.188769469584,0.202456734834,0.191816437455,0.642066199226,0.0523009307135,1.23511755618
tagged_abstract_sents/11667937.txt,4,0.239742558327,-0.0351442887631,0.0616692308323,0.142474783506,0.0,0.0,0.0,0.258342239377
tagged_abstract_sents/11667937.txt,5,0.239742558327,0.0185348427206,0.0616692308323,0.142474783506,0.0813320551606,0.52374855827,0.0593111128788,0.933469791983
tagged_abstract_sents/11667937.txt,6,0.218020917136,-0.0345411524543,0.0616692308323,0.142474783506,0.0,0.0,0.0,0.241085553686
tagged_abstract_sents/11667937.txt,7,0.218020917136,0.0236615013455,0.0616692308323,0.142474783506,0.119111851721,0.648861121054,0.0811961392623,1.10189519648
tagged_abstract_sents/11667937.txt,8,0.162510056315,-0.00197179177879,0.0616692308323,0.142474783506,0.0,0.478577639004,0.0648871078938,0.746655484062
tagged_abstract_sents/11667937.txt,9,0.162510056315,-0.0336364479911,0.0616692308323,0.142474783506,0.0,0.0,0.0,0.196857805922
tagged_abstract_sents/11667937.txt,10,0.162510056315,0.0535167486313,0.0616692308323,0.142474783506,0.0584984819835,0.754749004903,0.076481464072,1.1040173962
tagged_abstract_sents/11667937.txt,11,0.101769911504,-0.00468590516841,0.0616692308323,0.142474783506,0.0,0.36374304373,0.0594132694715,0.577212111839
tagged_abstract_sents/11667937.txt,12,0.101769911504,-0.0336364479911,0.0616692308323,0.142474783506,0.0,0.0,0.0,0.148265690073
tagged_abstract_sents/11667937.txt,13,0.0852775543041,0.0209473879558,0.0616692308323,0.142474783506,0.0448232713117,0.614618218087,0.068196927168,0.873626988069
tagged_abstract_sents/11667937.txt,14,0.0711987127916,-0.0146376542637,0.0616692308323,0.142474783506,0.0707312198735,0.505393827704,0.0677998965874,0.771533434013
tagged_abstract_sents/11667937.txt,15,0.0711987127916,-0.0339380161455,0.0616692308323,0.142474783506,0.0,0.0,0.0,0.123748417472
tagged_abstract_sents/11667937.txt,16,0.0458567980692,0.00617054839009,0.0616692308323,0.142474783506,0.0687516906151,0.365687863231,0.0519648397104,0.597900992158
tagged_abstract_sents/11667937.txt,17,0.0458567980692,-0.021573721815,0.0616692308323,0.142474783506,0.0,0.235771335793,0.0451913133402,0.386910393693
tagged_abstract_sents/11667937.txt,18,0.0458567980692,-0.00408276885961,0.0616692308323,0.142474783506,0.108553838995,0.456369564679,0.0495001723544,0.723869511179
tagged_abstract_sents/11667937.txt,19,0.0245374094932,0.0330101141319,0.0616692308323,0.142474783506,0.120021195947,0.690993811837,0.0664642892885,0.977288297961
tagged_abstract_sents/11667937.txt,20,0.0245374094932,-0.00890785933005,0.139250797795,0.0356431803763,0.116023926562,0.374004896615,0.0705491754205,0.658744707337
tagged_abstract_sents/11667937.txt,21,0.00844730490748,0.00918622993412,0.139250797795,0.0356431803763,0.0245677440105,0.578400529598,0.0558313225325,0.747713039064
tagged_abstract_sents/11667937.txt,22,0.00844730490748,0.0399461816832,0.139250797795,0.0356431803763,0.063721441024,0.722720045752,0.0660900629877,0.947596983037
tagged_abstract_sents/11667937.txt,23,0.00844730490748,0.0553261575578,0.139250797795,0.0356431803763,0.121181807953,0.576276711304,0.072522884829,0.868122832534
tagged_abstract_sents/11667937.txt,24,0.00120675784393,0.0103925025517,0.139250797795,0.0356431803763,0.0918497941543,0.508532014416,0.0581480523957,0.741892120762
tagged_abstract_sents/11667937.txt,25,0.00120675784393,-0.0348427206087,0.0616692308323,0.142474783506,0.0,0.0,0.0,0.0675739126213
tagged_abstract_sents/11667937.txt,26,0.00120675784393,0.0149160248678,0.139250797795,0.0356431803763,0.186108901426,0.574332825303,0.0625991037573,0.907307794745
