tagged_abstract_sents/11667937.txt,2,0.0954875100725,-0.0360489932263,0.0616692308323,0.247294108221,0.186108901426,0.0,0.0,0.174203057295
tagged_abstract_sents/11667937.txt,3,0.0954875100725,0.00194859422845,0.188769469584,0.123191979006,0.186108901426,0.454382220169,0.0440390013296,0.617965881483
tagged_abstract_sents/11667937.txt,5,0.0253827558421,-0.0351442887631,0.0616692308323,0.247294108221,0.186108901426,0.0,0.0,0.118300194804
tagged_abstract_sents/11667937.txt,6,0.0253827558421,0.0185348427206,0.0616692308323,0.247294108221,0.186108901426,0.52374855827,0.0593111128788,0.684422125216
tagged_abstract_sents/11667937.txt,7,0.0805801772764,-0.0345411524543,0.0616692308323,0.247294108221,0.186108901426,0.0,0.0,0.162578759213
tagged_abstract_sents/11667937.txt,8,0.0805801772764,0.0236615013455,0.0616692308323,0.247294108221,0.186108901426,0.648861121054,0.0811961392623,0.893418106261
tagged_abstract_sents/11667937.txt,9,0.123690572119,-0.00197179177879,0.0616692308323,0.247294108221,0.186108901426,0.478577639004,0.0648871078938,0.662146062711
tagged_abstract_sents/11667937.txt,10,0.123690572119,-0.0336364479911,0.0616692308323,0.247294108221,0.186108901426,0.0,0.0,0.19724801598
tagged_abstract_sents/11667937.txt,11,0.123690572119,0.0535167486313,0.0616692308323,0.247294108221,0.186108901426,0.754749004903,0.076481464072,0.894500006174
tagged_abstract_sents/11667937.txt,12,0.140209508461,-0.00468590516841,0.0616692308323,0.247294108221,0.186108901426,0.36374304373,0.0594132694715,0.59313866472
tagged_abstract_sents/11667937.txt,13,0.140209508461,-0.0336364479911,0.0616692308323,0.247294108221,0.186108901426,0.0,0.0,0.210463165053
tagged_abstract_sents/11667937.txt,14,0.149073327961,0.0209473879558,0.0616692308323,0.247294108221,0.186108901426,0.614618218087,0.068196927168,0.827716322686
tagged_abstract_sents/11667937.txt,15,0.149879129734,-0.0146376542637,0.0616692308323,0.247294108221,0.186108901426,0.505393827704,0.0677998965874,0.760129299112
tagged_abstract_sents/11667937.txt,16,0.149879129734,-0.0339380161455,0.0616692308323,0.247294108221,0.186108901426,0.0,0.0,0.218138548441
tagged_abstract_sents/11667937.txt,17,0.176470588235,0.00617054839009,0.0616692308323,0.247294108221,0.186108901426,0.365687863231,0.0519648397104,0.605557381263
tagged_abstract_sents/11667937.txt,18,0.176470588235,-0.021573721815,0.0616692308323,0.247294108221,0.186108901426,0.235771335793,0.0451913133402,0.476603228981
tagged_abstract_sents/11667937.txt,19,0.176470588235,-0.00408276885961,0.0616692308323,0.247294108221,0.186108901426,0.456369564679,0.0495001723544,0.671014174254
tagged_abstract_sents/11667937.txt,20,0.166800966962,0.0330101141319,0.0616692308323,0.247294108221,0.186108901426,0.690993811837,0.0664642892885,0.950302563605
tagged_abstract_sents/11667937.txt,21,0.166800966962,-0.00890785933005,0.139250797795,0.194462959676,0.186108901426,0.374004896615,0.0705491754205,0.69276903292
tagged_abstract_sents/11667937.txt,22,0.0954875100725,0.00918622993412,0.139250797795,0.194462959676,0.186108901426,0.578400529598,0.0558313225325,0.739841946355
tagged_abstract_sents/11667937.txt,23,0.0954875100725,0.0399461816832,0.139250797795,0.194462959676,0.186108901426,0.722720045752,0.0660900629877,0.940366579682
tagged_abstract_sents/11667937.txt,24,0.0954875100725,0.0553261575578,0.139250797795,0.194462959676,0.186108901426,0.576276711304,0.072522884829,0.860199464215
tagged_abstract_sents/11667937.txt,25,0.0342465753425,0.0103925025517,0.139250797795,0.194462959676,0.186108901426,0.508532014416,0.0581480523957,0.650249914526
tagged_abstract_sents/11667937.txt,26,0.0342465753425,-0.0348427206087,0.0616692308323,0.247294108221,0.186108901426,0.0,0.0,0.125451564035
tagged_abstract_sents/11667937.txt,27,0.0342465753425,0.0149160248678,0.139250797795,0.194462959676,0.186108901426,0.574332825303,0.0625991037573,0.689464864756
