tagged_abstract_sents/11696804.txt,2,0.0954875100725,-0.0467780910189,0.0616692308323,0.247294108221,0.151760833514,0.0,0.0,0.172057237737
tagged_abstract_sents/11696804.txt,3,0.00564061240935,0.0224929520741,0.188769469584,0.123191979006,0.151760833514,0.394953325713,0.0535077646544,0.641309009577
tagged_abstract_sents/11696804.txt,4,0.0253827558421,-0.0411397503021,0.0616692308323,0.247294108221,0.151760833514,0.0,0.0,0.117101102496
tagged_abstract_sents/11696804.txt,6,0.0805801772764,0.0422271445832,0.194899689933,0.293363477728,0.151760833514,0.366827330193,0.0630496845789,0.629994917239
tagged_abstract_sents/11696804.txt,7,0.116035455278,0.0333668948852,0.194899689933,0.293363477728,0.151760833514,0.317854656738,0.0573182028717,0.687200829414
tagged_abstract_sents/11696804.txt,8,0.123690572119,-0.0310712847362,0.0616692308323,0.247294108221,0.151760833514,0.151137175883,0.0309989660383,0.342919039846
tagged_abstract_sents/11696804.txt,9,0.131345688961,0.00477245267821,0.0616692308323,0.247294108221,0.151760833514,0.324707187117,0.0603738870876,0.49069970693
tagged_abstract_sents/11696804.txt,10,0.140209508461,-0.0467780910189,0.0616692308323,0.247294108221,0.151760833514,0.0,0.0,0.207834836447
tagged_abstract_sents/11696804.txt,11,0.149073327961,0.0112162706404,0.139250797795,0.194462959676,0.151760833514,0.291420967517,0.0494005632108,0.58793051027
tagged_abstract_sents/11696804.txt,12,0.149879129734,0.0172573499799,0.139250797795,0.194462959676,0.151760833514,0.344437600303,0.053076698746,0.500182840318
tagged_abstract_sents/11696804.txt,13,0.150684931507,-0.0161699556988,0.139250797795,0.194462959676,0.151760833514,0.154534257489,0.021320488348,0.395223958408
tagged_abstract_sents/11696804.txt,14,0.176470588235,0.0349778493758,0.139250797795,0.194462959676,0.151760833514,0.392945291086,0.0719023403325,0.777068902073
tagged_abstract_sents/11696804.txt,15,0.202256244964,0.0224929520741,0.139250797795,0.194462959676,0.151760833514,0.410022918878,0.106192585302,0.776429589859
tagged_abstract_sents/11696804.txt,16,0.166800966962,0.0208819975836,0.139250797795,0.194462959676,0.151760833514,0.340548867861,0.0382035578886,0.46056079741
tagged_abstract_sents/11696804.txt,17,0.131345688961,-0.0451671365284,0.139250797795,0.194462959676,0.151760833514,0.0,0.0,0.224007410663
tagged_abstract_sents/11696804.txt,18,0.0954875100725,0.0208819975836,0.139250797795,0.194462959676,0.151760833514,0.394378522579,0.0569963910761,0.790073582777
tagged_abstract_sents/11696804.txt,19,0.0342465753425,-0.0250302053967,0.0616692308323,0.247294108221,0.151760833514,0.184069460223,0.0216626567512,0.310546314573
tagged_abstract_sents/11696804.txt,20,0.0342465753425,0.00678614579138,0.139250797795,0.194462959676,0.151760833514,0.410600427727,0.106230861767,0.689583989913
tagged_abstract_sents/11696804.txt,21,0.0342465753425,-0.0238219895288,0.139250797795,0.194462959676,0.151760833514,0.193700068867,0.0737368766404,0.298272538203
