tagged_abstract_sents/11757504.txt,2,0.206355591311,-0.0654697415261,0.0616692308323,0.106008497564,0.266137277361,0.0,0.0,0.214627689429
tagged_abstract_sents/11757504.txt,4,0.0048270313757,0.0239127070113,0.188769469584,0.129715814208,0.266137277361,0.196294267814,0.105912264724,0.603761238403
tagged_abstract_sents/11757504.txt,5,0.0048270313757,-0.067094876954,0.0616692308323,0.106008497564,0.266137277361,0.0,0.0,0.053079814395
tagged_abstract_sents/11757504.txt,7,0.0261464199517,0.0309549605324,0.139250797795,0.521468892835,0.266137277361,0.190101094448,0.0732960510377,0.640718377713
tagged_abstract_sents/11757504.txt,8,0.0353982300885,-0.067094876954,0.139250797795,0.521468892835,0.266137277361,0.0,0.0,0.240965675428
tagged_abstract_sents/11757504.txt,9,0.0518905872888,0.0477480266213,0.139250797795,0.521468892835,0.266137277361,0.221788522129,0.13293931196,0.691295254531
tagged_abstract_sents/11757504.txt,10,0.0993563958166,-0.00859000154775,0.139250797795,0.521468892835,0.266137277361,0.143570307565,0.0955865952939,0.577698393105
tagged_abstract_sents/11757504.txt,11,0.172566371681,0.0824175824176,0.139250797795,0.521468892835,0.266137277361,0.221218844019,0.0969701405152,0.770877505439
tagged_abstract_sents/11757504.txt,12,0.172566371681,0.0482897384306,0.139250797795,0.521468892835,0.266137277361,0.195509306093,0.0780965391621,0.664446131443
tagged_abstract_sents/11757504.txt,13,0.206355591311,-0.0649280297168,0.0616692308323,0.106008497564,0.266137277361,0.0,0.0,0.214736031791
tagged_abstract_sents/11757504.txt,14,0.262268704747,0.00603621730382,0.139250797795,0.521468892835,0.266137277361,0.191418543673,0.0826154232185,0.835749872462
tagged_abstract_sents/11757504.txt,15,0.262268704747,-0.0351338802043,0.139250797795,0.521468892835,0.266137277361,0.155635749572,0.131645199063,0.851210833415
