tagged_abstract_sents/11772963.txt,1,0.125905068383,-0.0426167738582,0.0616692308323,0.142474783506,0.0,0.0,0.0,0.165777750403
tagged_abstract_sents/11772963.txt,2,0.125905068383,0.0542454362373,0.188769469584,0.202456734834,0.286210958599,0.744998951412,0.0658550948005,1.36375990201
tagged_abstract_sents/11772963.txt,3,0.239742558327,-0.0453452868187,0.188769469584,0.202456734834,0.0,0.0,0.0,0.33784674454
tagged_abstract_sents/11772963.txt,4,0.239742558327,0.0101344767102,0.188769469584,0.202456734834,0.0622669136796,0.447853400148,0.0616124017892,0.920675412862
tagged_abstract_sents/11772963.txt,5,0.218020917136,-0.0439810303385,0.0616692308323,0.142474783506,0.0,0.0,0.0,0.239197578109
tagged_abstract_sents/11772963.txt,6,0.218020917136,0.0442408887156,0.210342442448,0.226435992083,0.0886863142522,0.570608481361,0.0806632009377,1.09632492685
tagged_abstract_sents/11772963.txt,7,0.162510056315,-0.00532709673228,0.0616692308323,0.142474783506,0.0862452229443,0.326087218505,0.0795763227939,0.694428440417
tagged_abstract_sents/11772963.txt,8,0.162510056315,-0.0253361917755,0.0616692308323,0.142474783506,0.113337345878,0.234717701216,0.0712070101974,0.617779914456
tagged_abstract_sents/11772963.txt,9,0.101769911504,-0.00714610537257,0.0616692308323,0.142474783506,0.0,0.322830116896,0.0592135423438,0.535607417837
tagged_abstract_sents/11772963.txt,10,0.101769911504,-0.0439810303385,0.0616692308323,0.142474783506,0.0,0.0,0.0,0.146196773604
tagged_abstract_sents/11772963.txt,11,0.0711987127916,0.0424218800754,0.139250797795,0.0356431803763,0.0798163695884,0.456007951824,0.101331029097,0.782917049767
tagged_abstract_sents/11772963.txt,12,0.0711987127916,-0.0194244136945,0.139250797795,0.0356431803763,0.0981827261082,0.365314211124,0.0819164003859,0.678805778123
tagged_abstract_sents/11772963.txt,13,0.0458567980692,0.0260508023127,0.139250797795,0.0356431803763,0.0772852661852,0.478887467904,0.0819355589159,0.760322244934
tagged_abstract_sents/11772963.txt,14,0.0458567980692,0.033781589034,0.139250797795,0.0356431803763,0.0382080791394,0.531178607223,0.0769946582439,0.770141453878
tagged_abstract_sents/11772963.txt,15,0.0245374094932,-0.0130578834535,0.139250797795,0.0356431803763,0.12886839843,0.2134684069,0.0588743581648,0.498547867409
tagged_abstract_sents/11772963.txt,16,0.0245374094932,-0.0212434223348,0.139250797795,0.0356431803763,0.0703084513127,0.189044588182,0.0513260439688,0.406378679601
tagged_abstract_sents/11772963.txt,17,0.00844730490748,0.00695121158968,0.139250797795,0.0356431803763,0.110148893165,0.39440878645,0.0672143893525,0.660238508222
tagged_abstract_sents/11772963.txt,18,0.00844730490748,0.00467745078932,0.139250797795,0.0356431803763,0.153946902225,0.561298736496,0.0703430418093,0.873600367625
tagged_abstract_sents/11772963.txt,19,0.00120675784393,-0.0421620216982,0.0616692308323,0.142474783506,0.0,0.0,0.0,0.0661100524034
tagged_abstract_sents/11772963.txt,20,0.00120675784393,0.0656142402391,0.139250797795,0.0356431803763,0.071714782534,0.583553843526,0.0720891008491,0.821764334242
tagged_abstract_sents/11772963.txt,21,0.00120675784393,0.021503280712,0.139250797795,0.0356431803763,0.113847436492,0.382293847663,0.0573455856694,0.639071285252
