tagged_abstract_sents/11787578.txt,1,0.218020917136,0.121584699454,0.188769469584,0.202456734834,0.11598342288,0.595284619534,0.0354584583177,1.10058192957
tagged_abstract_sents/11787578.txt,2,0.0852775543041,-0.137978142077,0.188769469584,0.202456734834,0.0,0.332232576336,0.0339870710606,0.561967817668
tagged_abstract_sents/11787578.txt,3,0.0245374094932,-0.00409836065574,0.188769469584,0.202456734834,0.0,0.427798180613,0.0484548806399,0.650185071959
tagged_abstract_sents/11787578.txt,4,0.00120675784393,0.0204918032787,0.188769469584,0.202456734834,0.160617869522,0.644457567925,0.0517807041361,1.01704166376
