tagged_abstract_sents/11814494.txt,2,0.0954875100725,-0.0537240903501,0.0616692308323,0.247294108221,0.0,0.0,0.0,0.108756843759
tagged_abstract_sents/11814494.txt,4,0.0253827558421,-0.0547439781624,0.0616692308323,0.247294108221,0.0,0.0,0.0,0.0524690628118
tagged_abstract_sents/11814494.txt,5,0.0805801772764,0.0120586735459,0.194899689933,0.293363477728,0.0,0.171238814883,0.0193115286761,0.385714916487
tagged_abstract_sents/11814494.txt,6,0.0805801772764,-0.0241473437922,0.0616692308323,0.247294108221,0.0,0.0630234151598,0.0231891610214,0.199341309737
tagged_abstract_sents/11814494.txt,7,0.123690572119,-0.017518073012,0.0616692308323,0.247294108221,0.0,0.120412362688,0.0168286178463,0.21314038906
tagged_abstract_sents/11814494.txt,8,0.140209508461,0.0758016618172,0.188769469584,0.123191979006,0.0,0.31869823884,0.0314779833246,0.468954398395
tagged_abstract_sents/11814494.txt,9,0.140209508461,-0.0547439781624,0.0616692308323,0.247294108221,0.0,0.0,0.0,0.144330464907
tagged_abstract_sents/11814494.txt,10,0.149879129734,0.000839907610163,0.139250797795,0.194462959676,0.0,0.116190102981,0.0301124097372,0.312225385582
tagged_abstract_sents/11814494.txt,11,0.149879129734,0.0436751957285,0.139250797795,0.194462959676,0.0,0.272105167684,0.0247628973424,0.391850490262
tagged_abstract_sents/11814494.txt,12,0.176470588235,0.0283768785434,0.139250797795,0.194462959676,0.0,0.163070603831,0.0210757917897,0.28741416847
tagged_abstract_sents/11814494.txt,13,0.166800966962,0.0130785613583,0.139250797795,0.194462959676,0.0,0.188410156928,0.0214174048984,0.36010910503
tagged_abstract_sents/11814494.txt,14,0.166800966962,0.0508144104149,0.139250797795,0.194462959676,0.0,0.273590646336,0.0174352961612,0.44795336592
tagged_abstract_sents/11814494.txt,15,0.0954875100725,-0.0532141464439,0.139250797795,0.194462959676,0.0,0.0,0.0,0.131800271458
tagged_abstract_sents/11814494.txt,16,0.0954875100725,0.0406155322914,0.139250797795,0.194462959676,0.0,0.249410591895,0.0240541948932,0.381481700322
tagged_abstract_sents/11814494.txt,17,0.0342465753425,-0.0164981851996,0.139250797795,0.194462959676,0.0,0.171122047999,0.0232851540002,0.17257569405
tagged_abstract_sents/11814494.txt,18,0.0342465753425,-0.00578936317005,0.139250797795,0.194462959676,0.0,0.173066928937,0.0166464014823,0.223416063411
