tagged_abstract_sents/11869657.txt,2,0.0954875100725,-0.0317374238199,0.0616692308323,0.247294108221,0.155685667575,0.0,0.0,0.175065371177
tagged_abstract_sents/11869657.txt,3,0.0954875100725,0.000800537134594,0.188769469584,0.123191979006,0.155685667575,0.0949894651656,0.0332006702974,0.302253591176
tagged_abstract_sents/11869657.txt,5,0.0253827558421,-0.0317374238199,0.0616692308323,0.247294108221,0.155685667575,0.0,0.0,0.118981567792
tagged_abstract_sents/11869657.txt,6,0.0253827558421,0.0337000309885,0.0616692308323,0.247294108221,0.155685667575,0.236184655133,0.0475911185589,0.339248220949
tagged_abstract_sents/11869657.txt,7,0.0805801772764,-0.0299297593224,0.0616692308323,0.247294108221,0.155685667575,0.0,0.0,0.163501037839
tagged_abstract_sents/11869657.txt,8,0.0805801772764,0.0900991633096,0.0616692308323,0.247294108221,0.155685667575,0.116827429384,0.0434475806452,0.227198864698
tagged_abstract_sents/11869657.txt,9,0.0805801772764,0.0134541886169,0.0616692308323,0.247294108221,0.155685667575,0.128851875631,0.0505213424568,0.297022449391
tagged_abstract_sents/11869657.txt,10,0.123690572119,-0.0147453775436,0.0616692308323,0.247294108221,0.155685667575,0.0878643820249,0.027972027972,0.275215770168
tagged_abstract_sents/11869657.txt,11,0.123690572119,-0.0288451606239,0.0616692308323,0.247294108221,0.155685667575,0.0,0.0,0.198206273453
tagged_abstract_sents/11869657.txt,12,0.123690572119,-0.00100712736288,0.194899689933,0.293363477728,0.155685667575,0.127731391917,0.0475643532095,0.377888951433
tagged_abstract_sents/11869657.txt,13,0.140209508461,-0.00896085115174,0.0616692308323,0.247294108221,0.155685667575,0.0783516598782,0.0540200391007,0.324407086785
tagged_abstract_sents/11869657.txt,14,0.140209508461,0.0152618531143,0.0616692308323,0.247294108221,0.155685667575,0.143306684539,0.0378221947831,0.374528898941
tagged_abstract_sents/11869657.txt,15,0.149073327961,-0.025229831629,0.0616692308323,0.247294108221,0.155685667575,0.0,0.0,0.219235543926
tagged_abstract_sents/11869657.txt,16,0.149879129734,0.00333126743105,0.0616692308323,0.247294108221,0.155685667575,0.115866329519,0.0387280058651,0.350856546826
tagged_abstract_sents/11869657.txt,17,0.149879129734,0.0163464518128,0.0616692308323,0.247294108221,0.155685667575,0.16489109989,0.0490335910424,0.310548204873
tagged_abstract_sents/11869657.txt,18,0.176470588235,-0.00317632475984,0.0616692308323,0.247294108221,0.155685667575,0.131804913733,0.0394196635283,0.391034595698
tagged_abstract_sents/11869657.txt,19,0.176470588235,-0.0310143580209,0.0616692308323,0.247294108221,0.155685667575,0.0,0.0,0.239996446867
tagged_abstract_sents/11869657.txt,20,0.176470588235,0.00224666873257,0.139250797795,0.194462959676,0.155685667575,0.121621576366,0.0437295152665,0.353135897923
tagged_abstract_sents/11869657.txt,21,0.166800966962,0.0210463795062,0.139250797795,0.194462959676,0.155685667575,0.18920789302,0.0517045454545,0.459000461204
tagged_abstract_sents/11869657.txt,22,0.166800966962,0.0286385703956,0.139250797795,0.194462959676,0.155685667575,0.13780103118,0.0353140916808,0.37211357954
tagged_abstract_sents/11869657.txt,23,0.166800966962,-0.0147453775436,0.139250797795,0.194462959676,0.155685667575,0.0952185312906,0.0400083787181,0.38584680295
tagged_abstract_sents/11869657.txt,24,0.0954875100725,0.0257463071997,0.139250797795,0.194462959676,0.155685667575,0.177057718453,0.0584788983807,0.417944131842
tagged_abstract_sents/11869657.txt,25,0.0954875100725,-0.00317632475984,0.139250797795,0.194462959676,0.155685667575,0.129640819976,0.0443874226132,0.480042229798
tagged_abstract_sents/11869657.txt,26,0.0954875100725,-0.0183607065386,0.0616692308323,0.247294108221,0.155685667575,0.0449315911676,0.0193914956012,0.32657368607
tagged_abstract_sents/11869657.txt,27,0.0342465753425,-0.0273990290259,0.0616692308323,0.247294108221,0.155685667575,0.0,0.0,0.126940302351
tagged_abstract_sents/11869657.txt,28,0.0342465753425,-0.000645594463382,0.139250797795,0.194462959676,0.155685667575,0.0873288560838,0.027047146402,0.298952597229
tagged_abstract_sents/11869657.txt,29,0.0342465753425,0.00550046482801,0.139250797795,0.194462959676,0.155685667575,0.0964724588221,0.037840385421,0.281324833788
