tagged_abstract_sents/11883534.txt,2,0.206355591311,-0.0849602509329,0.0616692308323,0.106008497564,0.0751447785686,0.0,0.0,0.210729587548
tagged_abstract_sents/11883534.txt,4,0.0048270313757,-0.0861500189281,0.0616692308323,0.106008497564,0.0751447785686,0.0,0.0,0.0492687860002
tagged_abstract_sents/11883534.txt,5,0.0108608205953,0.18690173598,0.210342442448,0.0253702522065,0.0751447785686,0.284200417973,0.0388491032385,0.491738008384
tagged_abstract_sents/11883534.txt,6,0.0261464199517,-0.0349899951328,0.0616692308323,0.106008497564,0.0751447785686,0.173957026573,0.0227196182992,0.284464848319
tagged_abstract_sents/11883534.txt,7,0.0518905872888,-0.0861500189281,0.139250797795,0.521468892835,0.0751447785686,0.0,0.0,0.250348532793
tagged_abstract_sents/11883534.txt,9,0.172566371681,-0.0153588232113,0.139250797795,0.521468892835,0.0751447785686,0.160362695149,0.0390521631049,0.609218398248
tagged_abstract_sents/11883534.txt,10,0.206355591311,0.0268779406198,0.139250797795,0.521468892835,0.0751447785686,0.150431146593,0.0325716058319,0.590310576393
tagged_abstract_sents/11883534.txt,11,0.262268704747,-0.0837704829376,0.0616692308323,0.106008497564,0.0751447785686,0.0,0.0,0.255698031895
tagged_abstract_sents/11883534.txt,12,0.262268704747,0.0631658644746,0.139250797795,0.521468892835,0.0751447785686,0.24736021161,0.0342988763827,0.677980594183
