tagged_abstract_sents/11898004.txt,2,0.0954875100725,-0.0527762506872,0.0616692308323,0.247294108221,0.0,0.0,0.0,0.112929780782
tagged_abstract_sents/11898004.txt,4,0.0253827558421,-0.0533260032985,0.0616692308323,0.247294108221,0.0,0.0,0.0,0.0567360268756
tagged_abstract_sents/11898004.txt,5,0.0805801772764,0.0357339197361,0.0616692308323,0.247294108221,0.0,0.652807601182,0.0751555346872,0.853888381196
tagged_abstract_sents/11898004.txt,6,0.0805801772764,-0.0544255085212,0.0616692308323,0.247294108221,0.0,0.0,0.0,0.100674062978
tagged_abstract_sents/11898004.txt,7,0.123690572119,0.00934579439252,0.0616692308323,0.247294108221,0.0,0.437968028945,0.0454879635782,0.646020765314
tagged_abstract_sents/11898004.txt,8,0.140209508461,0.0170423309511,0.139250797795,0.194462959676,0.0,0.283833920376,0.0570862990748,0.469258655265
tagged_abstract_sents/11898004.txt,9,0.140209508461,-0.0544255085212,0.139250797795,0.194462959676,0.0,0.0,0.0,0.171318966844
tagged_abstract_sents/11898004.txt,10,0.149879129734,-0.00714678394722,0.139250797795,0.194462959676,0.0,0.375052747954,0.0577381920124,0.553117304444
tagged_abstract_sents/11898004.txt,11,0.149879129734,0.04562946674,0.139250797795,0.194462959676,0.0,0.514684182141,0.0855144997905,0.844932861077
tagged_abstract_sents/11898004.txt,12,0.176470588235,0.0703683342496,0.139250797795,0.194462959676,0.0,0.603658989968,0.0868207388339,0.963150029882
tagged_abstract_sents/11898004.txt,13,0.166800966962,0.0379329301814,0.139250797795,0.194462959676,0.0,0.596809033633,0.0893691353839,0.971785745274
tagged_abstract_sents/11898004.txt,14,0.166800966962,0.0318856514568,0.139250797795,0.194462959676,0.0,0.499770026192,0.0705389069863,0.822447808357
tagged_abstract_sents/11898004.txt,15,0.0954875100725,-0.0115448048378,0.139250797795,0.194462959676,0.0,0.381835650294,0.0155110972454,0.510130712462
tagged_abstract_sents/11898004.txt,16,0.0954875100725,-0.0527762506872,0.0616692308323,0.247294108221,0.0,0.0,0.0,0.112929780782
tagged_abstract_sents/11898004.txt,17,0.0342465753425,0.0549752611325,0.139250797795,0.194462959676,0.0,0.597612647503,0.0656003815412,0.837785882685
tagged_abstract_sents/11898004.txt,18,0.0342465753425,-0.0395821880154,0.139250797795,0.194462959676,0.0,0.187648169593,0.0216702771345,0.249863049489
