tagged_abstract_sents/11904108.txt,2,0.206355591311,-0.0729665981892,0.0616692308323,0.106008497564,0.116866348283,0.0,0.0,0.211073720271
tagged_abstract_sents/11904108.txt,3,0.206355591311,-0.0373582895838,0.188769469584,0.129715814208,0.116866348283,0.270374875166,0.0650952204781,0.694455377085
tagged_abstract_sents/11904108.txt,5,0.0108608205953,-0.0665373202465,0.0616692308323,0.106008497564,0.116866348283,0.0,0.0,0.0559637592862
tagged_abstract_sents/11904108.txt,7,0.0261464199517,0.0303964087347,0.0616692308323,0.106008497564,0.116866348283,0.347976480817,0.0590476190476,0.488328404142
tagged_abstract_sents/11904108.txt,8,0.0518905872888,-0.0729665981892,0.0616692308323,0.106008497564,0.116866348283,0.0,0.0,0.0875017170525
tagged_abstract_sents/11904108.txt,9,0.0993563958166,-0.0299398919577,0.139250797795,0.521468892835,0.116866348283,0.136836631112,0.0453184132429,0.466660092558
tagged_abstract_sents/11904108.txt,10,0.0993563958166,-0.0131248573385,0.139250797795,0.521468892835,0.116866348283,0.213342760888,0.0350504142957,0.556239459238
tagged_abstract_sents/11904108.txt,11,0.172566371681,-0.0581298029369,0.139250797795,0.521468892835,0.116866348283,0.129430151664,0.0632973944295,0.631237663862
tagged_abstract_sents/11904108.txt,12,0.206355591311,0.193106596667,0.139250797795,0.521468892835,0.116866348283,0.483351389955,0.0566178122192,0.952133993041
tagged_abstract_sents/11904108.txt,13,0.262268704747,0.0462223236704,0.139250797795,0.521468892835,0.116866348283,0.299312713994,0.0644354597185,0.836873116551
tagged_abstract_sents/11904108.txt,14,0.262268704747,-0.00768469907936,0.139250797795,0.521468892835,0.116866348283,0.267698920674,0.0528133423181,0.790324750469
