tagged_abstract_sents/11914253.txt,2,0.206355591311,-0.0654438053785,0.0616692308323,0.106008497564,0.116953847793,0.0,0.0,0.214632876659
tagged_abstract_sents/11914253.txt,3,0.206355591311,-0.00994870200529,0.188769469584,0.129715814208,0.116953847793,0.104456216441,0.0467115534738,0.530921330762
tagged_abstract_sents/11914253.txt,5,0.0048270313757,-0.0605471786103,0.0616692308323,0.106008497564,0.116953847793,0.0,0.0,0.0543893540638
tagged_abstract_sents/11914253.txt,6,0.0108608205953,0.0569718638271,0.0616692308323,0.106008497564,0.116953847793,0.153636845753,0.045318947251,0.341332561472
tagged_abstract_sents/11914253.txt,7,0.0261464199517,-0.0273589305145,0.0616692308323,0.106008497564,0.116953847793,0.0829129031738,0.0418227946916,0.213756665975
tagged_abstract_sents/11914253.txt,8,0.0353982300885,0.0417379138815,0.139250797795,0.521468892835,0.116953847793,0.126433272708,0.0417561150143,0.47459448702
tagged_abstract_sents/11914253.txt,9,0.0518905872888,0.0248717550132,0.139250797795,0.521468892835,0.116953847793,0.124849554396,0.0434116269459,0.487788453844
tagged_abstract_sents/11914253.txt,11,0.172566371681,0.000388621172081,0.139250797795,0.521468892835,0.116953847793,0.129481020723,0.0667528623471,0.655847030089
tagged_abstract_sents/11914253.txt,12,0.172566371681,0.025959894295,0.139250797795,0.521468892835,0.116953847793,0.118519365892,0.0499207879873,0.536362689822
tagged_abstract_sents/11914253.txt,13,0.206355591311,-0.0648997357376,0.0616692308323,0.106008497564,0.116953847793,0.0,0.0,0.214741690587
tagged_abstract_sents/11914253.txt,14,0.262268704747,-0.0132131198508,0.139250797795,0.521468892835,0.116953847793,0.103676836766,0.0249259539882,0.561636415526
tagged_abstract_sents/11914253.txt,15,0.262268704747,-0.0148453287735,0.139250797795,0.521468892835,0.116953847793,0.0794054929623,0.0364348765988,0.609280493691
