tagged_abstract_sents/11927718.txt,3,0.0048270313757,0.0285554757917,0.188769469584,0.129715814208,0.0259183049184,0.196616653017,0.0192680813677,0.358613389807
tagged_abstract_sents/11927718.txt,4,0.0261464199517,-0.0764138151073,0.139250797795,0.521468892835,0.0259183049184,0.177264340829,0.00654878847413,0.427794375875
tagged_abstract_sents/11927718.txt,6,0.172566371681,-0.0769721623993,0.139250797795,0.521468892835,0.0259183049184,0.197333259657,0.00435026662925,0.62022107246
tagged_abstract_sents/11927718.txt,7,0.206355591311,-0.0797638988594,0.139250797795,0.521468892835,0.0259183049184,0.176111401787,0.00986528206567,0.552487744848
tagged_abstract_sents/11927718.txt,8,0.262268704747,-0.0434713248784,0.139250797795,0.521468892835,0.0259183049184,0.205469281077,0.00700319420499,0.652074802257
