tagged_abstract_sents/11937179.txt,2,0.0954875100725,-0.0563478747204,0.0616692308323,0.247294108221,0.12594071868,0.0,0.0,0.170143280996
tagged_abstract_sents/11937179.txt,4,0.0253827558421,0.0146812080537,0.188769469584,0.123191979006,0.12594071868,0.124500253643,0.0590054156909,0.272782947736
tagged_abstract_sents/11937179.txt,5,0.0805801772764,-0.0580257270694,0.188769469584,0.123191979006,0.12594071868,0.0,0.0,0.184201324901
tagged_abstract_sents/11937179.txt,6,0.123690572119,0.0829138702461,0.210342442448,0.141687475369,0.12594071868,0.183043905683,0.0960719608261,0.510980922227
tagged_abstract_sents/11937179.txt,7,0.123690572119,-0.00265659955257,0.0616692308323,0.247294108221,0.12594071868,0.0850396368577,0.0301409655918,0.289352638653
tagged_abstract_sents/11937179.txt,8,0.140209508461,-0.0244686800895,0.0616692308323,0.247294108221,0.12594071868,0.0462151041616,0.042849824356,0.284664644889
tagged_abstract_sents/11937179.txt,9,0.149073327961,0.0924217002237,0.139250797795,0.194462959676,0.12594071868,0.175758990749,0.0850809027039,0.437233615737
tagged_abstract_sents/11937179.txt,10,0.149879129734,-0.057466442953,0.139250797795,0.194462959676,0.12594071868,0.0,0.0,0.236374301997
tagged_abstract_sents/11937179.txt,11,0.176470588235,0.00237695749441,0.139250797795,0.194462959676,0.12594071868,0.0846672960025,0.0630854800937,0.431219086589
tagged_abstract_sents/11937179.txt,12,0.176470588235,0.0230704697987,0.139250797795,0.194462959676,0.12594071868,0.115436775657,0.0654274004684,0.428704682054
tagged_abstract_sents/11937179.txt,13,0.166800966962,0.010206935123,0.139250797795,0.194462959676,0.12594071868,0.0915627131022,0.0684767759563,0.363770923658
tagged_abstract_sents/11937179.txt,14,0.0954875100725,0.00125838926174,0.139250797795,0.194462959676,0.12594071868,0.0731088412506,0.0672423887588,0.375628577906
tagged_abstract_sents/11937179.txt,15,0.0954875100725,-0.054110738255,0.0616692308323,0.247294108221,0.12594071868,0.0,0.0,0.17059070829
tagged_abstract_sents/11937179.txt,16,0.0342465753425,0.0376118568233,0.139250797795,0.194462959676,0.12594071868,0.132679595564,0.0665036506406,0.256730419326
tagged_abstract_sents/11937179.txt,17,0.0342465753425,-0.0267058165548,0.139250797795,0.194462959676,0.12594071868,0.109755542894,0.0504662930746,0.350733626605
