tagged_abstract_sents/11952542.txt,2,0.206355591311,-0.0415517558375,0.0616692308323,0.106008497564,0.0298386936138,0.0,0.0,0.219411286567
tagged_abstract_sents/11952542.txt,3,0.206355591311,0.0555249126678,0.188769469584,0.129715814208,0.0298386936138,0.244807814583,0.0207906045512,0.589496749207
tagged_abstract_sents/11952542.txt,4,0.206355591311,0.0240853097996,0.188769469584,0.129715814208,0.0298386936138,0.204330476079,0.034230332552,0.615365706077
tagged_abstract_sents/11952542.txt,5,0.206355591311,-0.0421033278176,0.0616692308323,0.106008497564,0.0298386936138,0.0,0.0,0.219300972171
tagged_abstract_sents/11952542.txt,7,0.0048270313757,-0.036036036036,0.0616692308323,0.106008497564,0.0298386936138,0.0,0.0,0.0592915825786
tagged_abstract_sents/11952542.txt,8,0.0108608205953,-0.0227983085126,0.0616692308323,0.106008497564,0.0298386936138,0.175101069197,0.0175065924407,0.322335456728
tagged_abstract_sents/11952542.txt,9,0.0108608205953,0.0108475822762,0.139250797795,0.521468892835,0.0298386936138,0.2964719517,0.0190082039262,0.552680062795
tagged_abstract_sents/11952542.txt,10,0.0261464199517,-0.0305203162346,0.139250797795,0.521468892835,0.0298386936138,0.0703592423743,0.00158401699385,0.331994212939
tagged_abstract_sents/11952542.txt,11,0.0261464199517,0.0621437764295,0.139250797795,0.521468892835,0.0298386936138,0.348456833187,0.031443075708,0.665074427406
tagged_abstract_sents/11952542.txt,13,0.0518905872888,-0.0432064717779,0.0616692308323,0.106008497564,0.0298386936138,0.0,0.0,0.0955083401608
tagged_abstract_sents/11952542.txt,14,0.0993563958166,0.0213274498989,0.139250797795,0.521468892835,0.0298386936138,0.320105329292,0.0414521507402,0.671701863849
tagged_abstract_sents/11952542.txt,15,0.0993563958166,-0.0211435925722,0.139250797795,0.521468892835,0.0298386936138,0.183647617507,0.0326011887322,0.485624785568
tagged_abstract_sents/11952542.txt,16,0.172566371681,0.029601029601,0.139250797795,0.521468892835,0.0298386936138,0.311451296491,0.0322680786349,0.713824434387
tagged_abstract_sents/11952542.txt,17,0.172566371681,-0.000735429306858,0.139250797795,0.521468892835,0.0298386936138,0.18845487461,0.019445258326,0.564578089627
tagged_abstract_sents/11952542.txt,18,0.206355591311,-0.001287001287,0.139250797795,0.521468892835,0.0298386936138,0.173840995908,0.0166119040643,0.653109496342
tagged_abstract_sents/11952542.txt,19,0.206355591311,-0.001287001287,0.139250797795,0.521468892835,0.0298386936138,0.272307433408,0.0300476506238,0.741056617617
tagged_abstract_sents/11952542.txt,20,0.262268704747,-0.0145247288104,0.139250797795,0.521468892835,0.0298386936138,0.211373980081,0.0284390565485,0.718925969505
tagged_abstract_sents/11952542.txt,21,0.262268704747,-0.0410001838573,0.0616692308323,0.106008497564,0.0298386936138,0.0,0.0,0.264252091711
tagged_abstract_sents/11952542.txt,22,0.262268704747,0.0577312005883,0.139250797795,0.521468892835,0.0298386936138,0.379661294295,0.0413553569685,0.854385691395
