tagged_abstract_sents/11988059.txt,1,0.125905068383,-0.0496024233245,0.0616692308323,0.142474783506,0.0,0.0,0.0,0.164380620509
tagged_abstract_sents/11988059.txt,2,0.239742558327,0.00908746686861,0.188769469584,0.202456734834,0.0809938143056,0.513094351632,0.051238804234,0.994060265449
tagged_abstract_sents/11988059.txt,3,0.239742558327,-0.0488451344188,0.0616692308323,0.142474783506,0.0,0.0,0.0,0.255602070245
tagged_abstract_sents/11988059.txt,4,0.218020917136,-0.00378644452859,0.188769469584,0.202456734834,0.0870672501913,0.504495511633,0.0691985576364,0.989542519506
tagged_abstract_sents/11988059.txt,5,0.218020917136,-0.0454373343431,0.0616692308323,0.142474783506,0.0,0.0,0.0,0.238906317308
tagged_abstract_sents/11988059.txt,6,0.162510056315,-0.0109806891329,0.0616692308323,0.142474783506,0.0270987968004,0.521474534785,0.0496743049901,0.799636594269
tagged_abstract_sents/11988059.txt,7,0.162510056315,0.115107913669,0.188769469584,0.202456734834,0.065480507455,0.883726216158,0.0594428641422,1.31680097078
tagged_abstract_sents/11988059.txt,8,0.101769911504,0.0102234002272,0.188769469584,0.202456734834,0.13635473801,0.482899390501,0.0481214377108,0.905957930713
tagged_abstract_sents/11988059.txt,9,0.101769911504,0.00719424460432,0.194899689933,0.13295610691,0.0417398339041,0.544813952652,0.0519472966257,0.858692538346
tagged_abstract_sents/11988059.txt,10,0.0711987127916,-0.0443014009845,0.0616692308323,0.142474783506,0.0,0.0,0.0,0.121675740504
tagged_abstract_sents/11988059.txt,11,0.0711987127916,-0.0124952669443,0.0616692308323,0.142474783506,0.0233191114341,0.420854377298,0.0550773525648,0.62728780861
tagged_abstract_sents/11988059.txt,12,0.0458567980692,-0.0496024233245,0.0616692308323,0.142474783506,0.0,0.0,0.0,0.100342004258
tagged_abstract_sents/11988059.txt,13,0.0458567980692,0.0344566452101,0.139250797795,0.0356431803763,0.15002990635,0.642125501951,0.0442283086229,0.960278837432
tagged_abstract_sents/11988059.txt,14,0.0245374094932,0.0416508898145,0.139250797795,0.0356431803763,0.140553685675,0.717672677865,0.0408697386131,1.00737456072
tagged_abstract_sents/11988059.txt,15,0.0245374094932,-0.00227186671715,0.139250797795,0.0356431803763,0.0916491109403,0.498027422574,0.0494635448689,0.738633985644
tagged_abstract_sents/11988059.txt,16,0.00844730490748,0.024233244983,0.139250797795,0.0356431803763,0.0174742089793,0.548408946058,0.0431495314341,0.700955532405
tagged_abstract_sents/11988059.txt,17,0.00844730490748,0.0605831124574,0.139250797795,0.0356431803763,0.0862559811866,0.588991828129,0.042219184987,0.816659813731
tagged_abstract_sents/11988059.txt,18,0.00120675784393,-0.0484664899659,0.0616692308323,0.142474783506,0.0,0.0,0.0,0.0648491587498
tagged_abstract_sents/11988059.txt,19,0.00120675784393,0.0132525558501,0.139250797795,0.0356431803763,0.049780424058,0.599140474727,0.0611792873483,0.794034456589
