tagged_abstract_sents/1199907.txt,3,0.131345688961,-0.0960739030023,0.188769469584,0.123191979006,0.140150578392,0.122160838189,0.0303056754698,0.321574459421
tagged_abstract_sents/1199907.txt,4,0.150684931507,-0.024480369515,0.188769469584,0.123191979006,0.140150578392,0.17308676448,0.0589851024209,0.476298128732
tagged_abstract_sents/1199907.txt,5,0.131345688961,0.0193995381062,0.188769469584,0.123191979006,0.140150578392,0.196034582266,0.0373603351955,0.411633785289
tagged_abstract_sents/1199907.txt,6,0.0342465753425,0.107159353349,0.188769469584,0.123191979006,0.140150578392,0.270808652562,0.0593575418994,0.527251997889
