tagged_abstract_sents/12010667.txt,1,0.125905068383,-0.0738150738151,0.0616692308323,0.142474783506,0.0,0.0,0.0,0.159538090411
tagged_abstract_sents/12010667.txt,2,0.239742558327,-0.039627039627,0.188769469584,0.202456734834,0.302813635453,0.222659447923,0.040437325419,0.904900802773
tagged_abstract_sents/12010667.txt,3,0.218020917136,0.0793736178352,0.188769469584,0.202456734834,0.158006276641,0.497780149875,0.0382523350209,1.03945197405
tagged_abstract_sents/12010667.txt,4,0.162510056315,-0.0784173091865,0.0616692308323,0.142474783506,0.0,0.0,0.0,0.187901633683
tagged_abstract_sents/12010667.txt,5,0.101769911504,0.105014643476,0.210342442448,0.226435992083,0.0790803561955,0.431652192552,0.0379931913408,0.824246616836
tagged_abstract_sents/12010667.txt,6,0.0711987127916,0.037296037296,0.139250797795,0.0356431803763,0.0872128336144,0.337134404132,0.0295835449467,0.598667313396
tagged_abstract_sents/12010667.txt,7,0.0458567980692,-0.0856493933417,0.139250797795,0.0356431803763,0.0,0.0,0.0,0.0998739127973
tagged_abstract_sents/12010667.txt,8,0.0245374094932,0.0793736178352,0.139250797795,0.0356431803763,0.0374054763652,0.286259889889,0.0339123603352,0.473400730762
tagged_abstract_sents/12010667.txt,9,0.00844730490748,-0.0462016615863,0.139250797795,0.0356431803763,0.0483565336167,0.22292388548,0.0362364699721,0.385352753688
tagged_abstract_sents/12010667.txt,10,0.00120675784393,-0.0705277628355,0.0616692308323,0.142474783506,0.0,0.0,0.0,0.0604369041759
tagged_abstract_sents/12010667.txt,11,0.00120675784393,0.0931803239496,0.139250797795,0.0356431803763,0.114512801171,0.398743678397,0.0442428556081,0.657419159252
