tagged_abstract_sents/12025432.txt,2,0.206355591311,0.0289605336298,0.188769469584,0.129715814208,0.0030322291717,0.231515037427,0.0372228733275,0.540204863941
tagged_abstract_sents/12025432.txt,4,0.0048270313757,-0.0348526959422,0.0616692308323,0.106008497564,0.0030322291717,0.141761366118,0.0555962496338,0.2588805613
tagged_abstract_sents/12025432.txt,5,0.0048270313757,0.0297387437465,0.0616692308323,0.106008497564,0.0030322291717,0.189849587456,0.0587028834388,0.32122991538
tagged_abstract_sents/12025432.txt,6,0.0108608205953,-0.0262923846581,0.0616692308323,0.106008497564,0.0030322291717,0.106261870326,0.0362251285193,0.205476124789
tagged_abstract_sents/12025432.txt,7,0.0261464199517,-0.0294052251251,0.0616692308323,0.106008497564,0.0030322291717,0.14143566624,0.0366303049426,0.337397308587
tagged_abstract_sents/12025432.txt,8,0.0353982300885,-0.00528071150639,0.0616692308323,0.106008497564,0.0030322291717,0.205644611695,0.0345133658503,0.330566957675
tagged_abstract_sents/12025432.txt,9,0.0518905872888,0.00172317954419,0.0616692308323,0.106008497564,0.0030322291717,0.205615878711,0.0514511987039,0.40771522474
tagged_abstract_sents/12025432.txt,10,0.0993563958166,-0.0169538632574,0.0616692308323,0.106008497564,0.0030322291717,0.119354890982,0.0405251977732,0.352604565527
tagged_abstract_sents/12025432.txt,11,0.172566371681,0.0375208449138,0.0616692308323,0.106008497564,0.0030322291717,0.219537089923,0.0553377225487,0.532380921268
tagged_abstract_sents/12025432.txt,13,0.206355591311,-0.00917176209005,0.0616692308323,0.106008497564,0.0030322291717,0.163308661986,0.0494066803399,0.47986728041
tagged_abstract_sents/12025432.txt,14,0.262268704747,-0.00994997220678,0.139250797795,0.521468892835,0.0030322291717,0.158516511411,0.0546963291616,0.645959803075
tagged_abstract_sents/12025432.txt,15,0.262268704747,-0.00372429127293,0.139250797795,0.521468892835,0.0030322291717,0.228598378658,0.0584611127389,0.719374621878
