tagged_abstract_sents/12022321.txt,1,0.125905068383,-0.0743243243243,0.0616692308323,0.142474783506,0.0,0.0,0.0,0.159436240309
tagged_abstract_sents/12022321.txt,2,0.239742558327,0.0337837837838,0.188769469584,0.202456734834,0.181585153883,0.198272623588,0.0784515636918,0.811981899824
tagged_abstract_sents/12022321.txt,3,0.218020917136,-0.0761261261261,0.0616692308323,0.142474783506,0.0,0.0,0.0,0.232768558951
tagged_abstract_sents/12022321.txt,4,0.162510056315,0.0509009009009,0.210342442448,0.226435992083,0.110805186309,0.263852023976,0.0652021357742,0.753149590141
tagged_abstract_sents/12022321.txt,5,0.101769911504,0.059009009009,0.0616692308323,0.142474783506,0.0993300201418,0.23265098379,0.046503941012,0.545279726417
tagged_abstract_sents/12022321.txt,6,0.0852775543041,-0.0761261261261,0.0616692308323,0.142474783506,0.0,0.0,0.0,0.126573868686
tagged_abstract_sents/12022321.txt,7,0.0711987127916,-0.00225225225225,0.139250797795,0.0356431803763,0.0405854566068,0.137748522385,0.0443300279685,0.359490879754
tagged_abstract_sents/12022321.txt,8,0.0458567980692,0.0328828828829,0.139250797795,0.0356431803763,0.19352378983,0.20818807639,0.0591819221968,0.584474156459
tagged_abstract_sents/12022321.txt,9,0.0245374094932,0.0364864864865,0.139250797795,0.0356431803763,0.143629941835,0.181519978821,0.0470524136428,0.479447912201
tagged_abstract_sents/12022321.txt,10,0.00844730490748,-0.0734234234234,0.0616692308323,0.142474783506,0.0,0.0,0.0,0.0656502097092
tagged_abstract_sents/12022321.txt,11,0.00120675784393,0.0905405405405,0.139250797795,0.0356431803763,0.134214189698,0.334154977515,0.0619374523265,0.629698486933
tagged_abstract_sents/12022321.txt,12,0.00120675784393,-0.00135135135135,0.139250797795,0.0356431803763,0.150758309666,0.162992460401,0.0363626457448,0.431126904827
