tagged_abstract_sents/12039088.txt,2,0.206355591311,-0.0747588424437,0.0616692308323,0.106008497564,0.0434648409819,0.0,0.0,0.212769869246
tagged_abstract_sents/12039088.txt,4,0.0048270313757,-0.0693997856377,0.0616692308323,0.106008497564,0.0434648409819,0.0,0.0,0.0526188326583
tagged_abstract_sents/12039088.txt,6,0.0261464199517,0.0163451232583,0.0616692308323,0.106008497564,0.0434648409819,0.153252015626,0.0211973942715,0.264769928964
tagged_abstract_sents/12039088.txt,7,0.0353982300885,-0.0747588424437,0.0616692308323,0.106008497564,0.0434648409819,0.0,0.0,0.0760039802673
tagged_abstract_sents/12039088.txt,8,0.0518905872888,-0.0393890675241,0.139250797795,0.521468892835,0.0434648409819,0.0553028246348,0.027561044064,0.385164171742
tagged_abstract_sents/12039088.txt,9,0.0993563958166,0.0259914255091,0.139250797795,0.521468892835,0.0434648409819,0.109253666345,0.0386752736458,0.430525783415
tagged_abstract_sents/12039088.txt,10,0.172566371681,0.0506430868167,0.139250797795,0.521468892835,0.0434648409819,0.108309988234,0.0227523622416,0.530833402469
tagged_abstract_sents/12039088.txt,11,0.206355591311,0.0045551982851,0.139250797795,0.521468892835,0.0434648409819,0.154196312022,0.0364705148595,0.6705836093
tagged_abstract_sents/12039088.txt,12,0.262268704747,-0.0715434083601,0.0616692308323,0.106008497564,0.0434648409819,0.0,0.0,0.258143446811
tagged_abstract_sents/12039088.txt,13,0.262268704747,0.104233654877,0.139250797795,0.521468892835,0.0434648409819,0.223588745975,0.032685471045,0.718874380047
