tagged_abstract_sents/12039088.txt,1,0.125905068383,-0.0747588424437,0.0616692308323,0.142474783506,0.0,0.0,0.0,0.159349336685
tagged_abstract_sents/12039088.txt,2,0.239742558327,0.0581457663451,0.188769469584,0.202456734834,0.183006497593,0.223448567312,0.0318041487,0.796804168778
tagged_abstract_sents/12039088.txt,3,0.218020917136,-0.0693997856377,0.0616692308323,0.142474783506,0.0,0.0,0.0,0.234113827049
tagged_abstract_sents/12039088.txt,4,0.162510056315,0.0699356913183,0.210342442448,0.226435992083,0.0531576738647,0.204887349755,0.0471063710356,0.62224859682
tagged_abstract_sents/12039088.txt,5,0.101769911504,0.0163451232583,0.0616692308323,0.142474783506,0.0594982362811,0.153252015626,0.0211973942715,0.392209650502
tagged_abstract_sents/12039088.txt,6,0.0852775543041,-0.0747588424437,0.0616692308323,0.142474783506,0.0,0.0,0.0,0.126847325422
tagged_abstract_sents/12039088.txt,7,0.0711987127916,-0.0393890675241,0.139250797795,0.0356431803763,0.0784124410952,0.0553028246348,0.027561044064,0.290675819533
tagged_abstract_sents/12039088.txt,8,0.0458567980692,0.0259914255091,0.139250797795,0.0356431803763,0.0464591868718,0.109253666345,0.0386752736458,0.31659020343
tagged_abstract_sents/12039088.txt,9,0.0245374094932,0.0506430868167,0.139250797795,0.0356431803763,0.048531834458,0.108309988234,0.0227523622416,0.289671082902
tagged_abstract_sents/12039088.txt,10,0.00844730490748,0.0045551982851,0.139250797795,0.0356431803763,0.190424824348,0.154196312022,0.0364705148595,0.469078887823
tagged_abstract_sents/12039088.txt,11,0.00120675784393,-0.0715434083601,0.0616692308323,0.142474783506,0.0,0.0,0.0,0.060233775071
tagged_abstract_sents/12039088.txt,12,0.00120675784393,0.104233654877,0.139250797795,0.0356431803763,0.0434648409819,0.223588745975,0.032685471045,0.401869548263
