tagged_abstract_sents/12069641.txt,1,0.125905068383,-0.0115912791109,0.188769469584,0.202456734834,0.184932160082,0.186792245063,0.0401515151515,0.665403474423
tagged_abstract_sents/12069641.txt,2,0.239742558327,-0.019112338076,0.188769469584,0.202456734834,0.00357460927685,0.165273711689,0.0224467678184,0.534388423073
tagged_abstract_sents/12069641.txt,3,0.239742558327,-0.0182098110002,0.188769469584,0.202456734834,0.00302649787942,0.18475432346,0.0253782991202,0.556432960163
tagged_abstract_sents/12069641.txt,4,0.218020917136,-0.00798117080767,0.139250797795,0.0356431803763,0.00424703513456,0.180521784313,0.0340112201964,0.471918892202
tagged_abstract_sents/12069641.txt,5,0.218020917136,-0.014599702697,0.139250797795,0.0356431803763,0.0043666086619,0.204504570664,0.0331812751168,0.493867600622
tagged_abstract_sents/12069641.txt,6,0.162510056315,0.0350392864727,0.139250797795,0.0356431803763,0.0832957458195,0.228749918474,0.0434169278997,0.57279684755
tagged_abstract_sents/12069641.txt,7,0.101769911504,0.0350392864727,0.139250797795,0.0356431803763,0.00190084899296,0.152077750841,0.0513123167155,0.374033056058
tagged_abstract_sents/12069641.txt,8,0.101769911504,0.0187937991081,0.139250797795,0.0356431803763,0.0023331966357,0.210451546378,0.0431682415553,0.421446026605
tagged_abstract_sents/12069641.txt,9,0.0711987127916,0.0579033057266,0.139250797795,0.0356431803763,0.00251133338903,0.20272562888,0.0439882697947,0.398083216452
tagged_abstract_sents/12069641.txt,10,0.0711987127916,-0.0025660083528,0.139250797795,0.0356431803763,0.0669475539055,0.217364405384,0.0388765294772,0.459952610339
tagged_abstract_sents/12069641.txt,11,0.0458567980692,0.00645926240532,0.139250797795,0.0356431803763,0.048273446185,0.227321271447,0.0416978460916,0.43558820767
tagged_abstract_sents/12069641.txt,12,0.0245374094932,-0.0552134211085,0.0616692308323,0.142474783506,0.0,0.0,0.0,0.0821642938407
tagged_abstract_sents/12069641.txt,13,0.0245374094932,0.00525589297091,0.139250797795,0.0356431803763,0.274993184043,0.201964624567,0.0302921690018,0.60824943681
tagged_abstract_sents/12069641.txt,14,0.00844730490748,0.0227047497699,0.139250797795,0.0356431803763,0.00248257608588,0.197546720752,0.0395483870968,0.331194830824
tagged_abstract_sents/12069641.txt,15,0.00844730490748,-0.0278367664755,0.139250797795,0.0356431803763,0.10771778441,0.118762165961,0.0270053475936,0.334994141606
tagged_abstract_sents/12069641.txt,16,0.00120675784393,-0.0203157075104,0.139250797795,0.0356431803763,0.298054580833,0.171670027429,0.032144761397,0.579089987442
tagged_abstract_sents/12069641.txt,17,0.00120675784393,-0.00376937778722,0.139250797795,0.0356431803763,0.00187151423519,0.229433946113,0.0410703812317,0.352905725308
