tagged_abstract_sents/12076448.txt,2,0.0954875100725,-0.0350706629991,0.0616692308323,0.247294108221,0.40637301945,0.0,0.0,0.174398723341
tagged_abstract_sents/12076448.txt,3,0.0954875100725,-0.00732713648867,0.188769469584,0.123191979006,0.40637301945,0.283273751144,0.0718099912101,0.534045039317
tagged_abstract_sents/12076448.txt,5,0.0253827558421,-0.0350706629991,0.0616692308323,0.247294108221,0.40637301945,0.0,0.0,0.118314919956
tagged_abstract_sents/12076448.txt,6,0.0253827558421,0.000995921464479,0.0616692308323,0.247294108221,0.40637301945,0.35296472859,0.0601804375427,0.547126251062
tagged_abstract_sents/12076448.txt,7,0.0805801772764,-0.0335293559708,0.0616692308323,0.247294108221,0.40637301945,0.0,0.0,0.162781118509
tagged_abstract_sents/12076448.txt,8,0.0805801772764,0.0534003604287,0.0616692308323,0.247294108221,0.40637301945,0.360695197738,0.0573623726275,0.508382390068
tagged_abstract_sents/12076448.txt,9,0.123690572119,-0.0218154225552,0.0616692308323,0.247294108221,0.40637301945,0.211449422991,0.0519294738112,0.420087963231
tagged_abstract_sents/12076448.txt,10,0.123690572119,0.03336336906,0.0616692308323,0.247294108221,0.40637301945,0.377285579562,0.073835335482,0.592772208402
tagged_abstract_sents/12076448.txt,11,0.123690572119,-0.0326045717538,0.0616692308323,0.247294108221,0.40637301945,0.0,0.0,0.197454391227
tagged_abstract_sents/12076448.txt,12,0.140209508461,0.0062363653609,0.0616692308323,0.247294108221,0.40637301945,0.297458563334,0.0623584955917,0.517570114824
tagged_abstract_sents/12076448.txt,13,0.140209508461,-0.0295219576971,0.0616692308323,0.247294108221,0.40637301945,0.0,0.0,0.211286063112
tagged_abstract_sents/12076448.txt,14,0.149073327961,-0.00331973821493,0.0616692308323,0.247294108221,0.40637301945,0.334934732446,0.0399909552988,0.574770666614
tagged_abstract_sents/12076448.txt,15,0.149879129734,-0.00578582946031,0.0616692308323,0.247294108221,0.40637301945,0.269638941151,0.0537576911808,0.549580062676
tagged_abstract_sents/12076448.txt,16,0.149879129734,-0.0147254102248,0.0616692308323,0.247294108221,0.40637301945,0.194249280984,0.0287697557781,0.43571770359
tagged_abstract_sents/12076448.txt,17,0.176470588235,0.0114768092573,0.139250797795,0.194462959676,0.40637301945,0.386441848499,0.059664405328,0.671521638753
tagged_abstract_sents/12076448.txt,18,0.176470588235,0.0231907426729,0.139250797795,0.194462959676,0.40637301945,0.349861784564,0.0583095272976,0.706273663951
tagged_abstract_sents/12076448.txt,19,0.176470588235,-0.0344541401878,0.0616692308323,0.247294108221,0.40637301945,0.0,0.0,0.239308490433
tagged_abstract_sents/12076448.txt,20,0.166800966962,-0.0202741155269,0.0616692308323,0.247294108221,0.40637301945,0.272267214118,0.055914884266,0.518218405447
tagged_abstract_sents/12076448.txt,21,0.166800966962,0.00870245660628,0.139250797795,0.194462959676,0.40637301945,0.326194268039,0.047809526236,0.588985701185
tagged_abstract_sents/12076448.txt,22,0.0954875100725,0.0216494356445,0.139250797795,0.194462959676,0.40637301945,0.376174566344,0.0587948041801,0.622828953447
tagged_abstract_sents/12076448.txt,23,0.0954875100725,0.0275064023523,0.139250797795,0.194462959676,0.40637301945,0.282202813781,0.0444037503662,0.497244528348
tagged_abstract_sents/12076448.txt,24,0.0954875100725,0.0999478326852,0.139250797795,0.194462959676,0.40637301945,0.462710444469,0.0597201875183,0.680887664348
tagged_abstract_sents/12076448.txt,25,0.0342465753425,-0.0313715261311,0.0616692308323,0.247294108221,0.40637301945,0.0,0.0,0.12614580293
tagged_abstract_sents/12076448.txt,26,0.0342465753425,-0.00701887508299,0.139250797795,0.194462959676,0.40637301945,0.304754587462,0.0504722838447,0.466161096698
tagged_abstract_sents/12076448.txt,27,0.0342465753425,0.0194916058048,0.139250797795,0.194462959676,0.40637301945,0.370915248493,0.0510137708761,0.625027314347
