tagged_abstract_sents/12093648.txt,1,0.125905068383,-0.0572807933194,0.0616692308323,0.142474783506,0.0,0.0,0.0,0.16284494651
tagged_abstract_sents/12093648.txt,2,0.239742558327,0.0465814196242,0.188769469584,0.202456734834,0.0892510597732,0.31572113502,0.0438167799903,0.805021060612
tagged_abstract_sents/12093648.txt,3,0.239742558327,-0.0588465553236,0.0616692308323,0.142474783506,0.0,0.0,0.0,0.253601786064
tagged_abstract_sents/12093648.txt,4,0.218020917136,-0.044232776618,0.0616692308323,0.142474783506,0.291859405122,0.0990713975736,0.00722438076736,0.637302412316
tagged_abstract_sents/12093648.txt,5,0.162510056315,-0.0588465553236,0.0616692308323,0.142474783506,0.0,0.0,0.0,0.191815784455
tagged_abstract_sents/12093648.txt,6,0.162510056315,0.0100469728601,0.194899689933,0.13295610691,0.198891545183,0.234659589391,0.0242755382872,0.727180789525
tagged_abstract_sents/12093648.txt,7,0.101769911504,-0.0510177453027,0.0616692308323,0.142474783506,0.0,0.0,0.0,0.144789430611
tagged_abstract_sents/12093648.txt,8,0.0852775543041,0.0283141962422,0.139250797795,0.0356431803763,0.166003675947,0.401749122706,0.0565687226809,0.778524757035
tagged_abstract_sents/12093648.txt,9,0.0711987127916,-0.0583246346555,0.139250797795,0.0356431803763,0.0,0.0,0.0,0.125612396312
tagged_abstract_sents/12093648.txt,10,0.0458567980692,0.0544102296451,0.139250797795,0.0356431803763,0.0649837975894,0.362638226281,0.0545032647995,0.610011126064
tagged_abstract_sents/12093648.txt,11,0.0458567980692,0.0199634655532,0.139250797795,0.0356431803763,0.0695164126936,0.243556123415,0.0440834663151,0.478152487
tagged_abstract_sents/12093648.txt,12,0.0245374094932,0.0340553235908,0.139250797795,0.0356431803763,0.0101518480514,0.334319385769,0.042074965003,0.493305544146
tagged_abstract_sents/12093648.txt,13,0.00844730490748,0.148877870564,0.139250797795,0.0356431803763,0.00700560940929,0.377314146632,0.0450525293321,0.546224056423
tagged_abstract_sents/12093648.txt,14,0.00844730490748,0.0257045929019,0.139250797795,0.0356431803763,0.0627554791688,0.216142471486,0.0134687434955,0.384583809667
tagged_abstract_sents/12093648.txt,15,0.00120675784393,-0.0562369519833,0.0616692308323,0.142474783506,0.0,0.0,0.0,0.0632950663463
tagged_abstract_sents/12093648.txt,16,0.00120675784393,0.0168319415449,0.139250797795,0.0356431803763,0.193393980233,0.411553912853,0.0495203982516,0.739118438932
