tagged_abstract_sents/12114036.txt,2,0.0954875100725,-0.0407358026297,0.0616692308323,0.247294108221,0.0385572761088,0.0,0.0,0.173265695415
tagged_abstract_sents/12114036.txt,3,0.0954875100725,-0.00657973182444,0.188769469584,0.123191979006,0.0385572761088,0.43901440678,0.0288323836039,0.54500471506
tagged_abstract_sents/12114036.txt,5,0.0253827558421,-0.041483745786,0.0616692308323,0.247294108221,0.0385572761088,0.0,0.0,0.117032303399
tagged_abstract_sents/12114036.txt,6,0.0805801772764,0.0178530779487,0.210342442448,0.141687475369,0.0385572761088,0.388391275258,0.0290274703815,0.589487500145
tagged_abstract_sents/12114036.txt,7,0.0805801772764,-0.0088235612934,0.0616692308323,0.247294108221,0.0385572761088,0.466426724033,0.0493325188026,0.623774768687
tagged_abstract_sents/12114036.txt,8,0.123690572119,0.031066740377,0.139250797795,0.194462959676,0.0385572761088,0.456085585134,0.0306712936983,0.666867163713
tagged_abstract_sents/12114036.txt,9,0.123690572119,0.0036421579786,0.139250797795,0.194462959676,0.0385572761088,0.461436161138,0.0399060693293,0.690600708087
tagged_abstract_sents/12114036.txt,10,0.123690572119,-0.0412344314006,0.139250797795,0.194462959676,0.0385572761088,0.0,0.0,0.218669858216
tagged_abstract_sents/12114036.txt,11,0.140209508461,0.0754447009853,0.139250797795,0.194462959676,0.0385572761088,0.440700198747,0.0355952880364,0.715472103179
tagged_abstract_sents/12114036.txt,12,0.140209508461,0.0430338308781,0.139250797795,0.194462959676,0.0385572761088,0.479943839355,0.0348912901966,0.754715979092
tagged_abstract_sents/12114036.txt,13,0.149879129734,0.00713255937476,0.139250797795,0.194462959676,0.0385572761088,0.440663904761,0.0377204490601,0.706327704946
tagged_abstract_sents/12114036.txt,14,0.149879129734,-0.00583178866812,0.139250797795,0.194462959676,0.0385572761088,0.416953771176,0.0334917328473,0.638976330184
tagged_abstract_sents/12114036.txt,15,0.176470588235,0.0759433297562,0.139250797795,0.194462959676,0.0385572761088,0.647664358115,0.0362565403576,0.867641465712
tagged_abstract_sents/12114036.txt,16,0.176470588235,-0.02103996618,0.139250797795,0.194462959676,0.0385572761088,0.321814903511,0.0271604019814,0.587582393213
tagged_abstract_sents/12114036.txt,17,0.176470588235,-0.0262755682742,0.139250797795,0.194462959676,0.0385572761088,0.185765111518,0.0325013484107,0.479616208876
tagged_abstract_sents/12114036.txt,18,0.166800966962,-0.0143084777731,0.139250797795,0.194462959676,0.0385572761088,0.285285282414,0.039428459836,0.572472846989
tagged_abstract_sents/12114036.txt,19,0.166800966962,-0.039738545088,0.0616692308323,0.247294108221,0.0385572761088,0.0,0.0,0.230515912435
tagged_abstract_sents/12114036.txt,20,0.0954875100725,0.00314352920772,0.139250797795,0.194462959676,0.0385572761088,0.536983095476,0.0324131645933,0.685669573582
tagged_abstract_sents/12114036.txt,21,0.0954875100725,-0.0088235612934,0.139250797795,0.194462959676,0.0385572761088,0.363046353532,0.0331467256868,0.481149034184
tagged_abstract_sents/12114036.txt,22,0.0342465753425,-0.0128125914604,0.139250797795,0.194462959676,0.0385572761088,0.325244861577,0.0356786380742,0.421769213803
tagged_abstract_sents/12114036.txt,23,0.0342465753425,0.016357191636,0.139250797795,0.194462959676,0.0385572761088,0.445558680031,0.0385917298429,0.582693663266
tagged_abstract_sents/12114036.txt,24,0.0342465753425,-0.00333864481372,0.139250797795,0.194462959676,0.0385572761088,0.414456835251,0.0282827756802,0.528583931114
