tagged_abstract_sents/12114037.txt,2,0.206355591311,-0.0577215464813,0.0616692308323,0.106008497564,0.29911426958,0.0,0.0,0.216177328438
tagged_abstract_sents/12114037.txt,3,0.206355591311,0.00700477845352,0.188769469584,0.129715814208,0.29911426958,0.160345508258,0.128866608119,0.761751831328
tagged_abstract_sents/12114037.txt,4,0.206355591311,-0.0590247610773,0.0616692308323,0.106008497564,0.29911426958,0.0,0.0,0.215916685519
tagged_abstract_sents/12114037.txt,6,0.0108608205953,-0.00776498696785,0.0616692308323,0.106008497564,0.29911426958,0.214056607235,0.136301856808,0.527002459495
tagged_abstract_sents/12114037.txt,7,0.0108608205953,-0.00950260642919,0.139250797795,0.521468892835,0.29911426958,0.183539338429,0.0858066114214,0.542889024224
tagged_abstract_sents/12114037.txt,9,0.0353982300885,0.0248153779322,0.139250797795,0.521468892835,0.29911426958,0.173816462047,0.0511354131817,0.538295605481
tagged_abstract_sents/12114037.txt,10,0.0518905872888,-0.058590356212,0.139250797795,0.521468892835,0.29911426958,0.0,0.0,0.255860465337
tagged_abstract_sents/12114037.txt,11,0.0993563958166,0.0395851433536,0.139250797795,0.521468892835,0.29911426958,0.184176959165,0.0971487119438,0.611695037098
tagged_abstract_sents/12114037.txt,12,0.0993563958166,0.0652150304083,0.139250797795,0.521468892835,0.29911426958,0.191984955235,0.0877195550351,0.62134529039
tagged_abstract_sents/12114037.txt,13,0.172566371681,0.0413227628149,0.139250797795,0.521468892835,0.29911426958,0.166742519312,0.0695853933559,0.617983224478
tagged_abstract_sents/12114037.txt,14,0.206355591311,-0.0151498696785,0.139250797795,0.521468892835,0.29911426958,0.125162054588,0.0667447306792,0.58658640524
tagged_abstract_sents/12114037.txt,15,0.206355591311,-0.05598392702,0.139250797795,0.521468892835,0.29911426958,0.0,0.0,0.379953754393
tagged_abstract_sents/12114037.txt,16,0.262268704747,-0.0199283231972,0.139250797795,0.521468892835,0.29911426958,0.143231937274,0.108957845433,0.862880566516
tagged_abstract_sents/12114037.txt,17,0.262268704747,0.0395851433536,0.139250797795,0.521468892835,0.29911426958,0.239964656098,0.117718091335,0.901095283708
