tagged_abstract_sents/12114036.txt,1,0.125905068383,-0.0407358026297,0.0616692308323,0.142474783506,0.0,0.0,0.0,0.166153944648
tagged_abstract_sents/12114036.txt,2,0.125905068383,-0.00657973182444,0.188769469584,0.202456734834,0.0829565917105,0.43901440678,0.0288323836039,0.805333245678
tagged_abstract_sents/12114036.txt,3,0.239742558327,-0.0025907016574,0.188769469584,0.202456734834,0.0495232366138,0.531779097746,0.029651087098,0.95735108303
tagged_abstract_sents/12114036.txt,4,0.239742558327,-0.041483745786,0.0616692308323,0.142474783506,0.0,0.0,0.0,0.257074347972
tagged_abstract_sents/12114036.txt,5,0.218020917136,0.0178530779487,0.210342442448,0.226435992083,0.0383670469683,0.388391275258,0.0290274703815,0.806875160755
tagged_abstract_sents/12114036.txt,6,0.218020917136,-0.0088235612934,0.0616692308323,0.142474783506,0.0124546073283,0.466426724033,0.0493325188026,0.774442922081
tagged_abstract_sents/12114036.txt,7,0.162510056315,0.031066740377,0.139250797795,0.0356431803763,0.0545746222352,0.456085585134,0.0306712936983,0.757871247206
tagged_abstract_sents/12114036.txt,8,0.162510056315,0.0036421579786,0.139250797795,0.0356431803763,0.0217717888657,0.461436161138,0.0399060693293,0.734168848992
tagged_abstract_sents/12114036.txt,9,0.162510056315,-0.0412344314006,0.139250797795,0.0356431803763,0.0,0.0,0.0,0.202079511782
tagged_abstract_sents/12114036.txt,10,0.101769911504,0.0754447009853,0.139250797795,0.0356431803763,0.00509357430625,0.440700198747,0.0355952880364,0.6582122835
tagged_abstract_sents/12114036.txt,11,0.101769911504,0.0430338308781,0.139250797795,0.0356431803763,0.00667385748341,0.479943839355,0.0348912901966,0.691850035424
tagged_abstract_sents/12114036.txt,12,0.0711987127916,0.00713255937476,0.139250797795,0.0356431803763,0.0164573420037,0.440663904761,0.0377204490601,0.633545530943
tagged_abstract_sents/12114036.txt,13,0.0711987127916,-0.00583178866812,0.139250797795,0.0356431803763,0.0470285634649,0.416953771176,0.0334917328473,0.633585032998
tagged_abstract_sents/12114036.txt,14,0.0458567980692,0.0759433297562,0.139250797795,0.0356431803763,0.0582940651596,0.647664358115,0.0362565403576,0.874407421049
tagged_abstract_sents/12114036.txt,15,0.0458567980692,-0.02103996618,0.139250797795,0.0356431803763,0.0482762751275,0.321814903511,0.0271604019814,0.510047378849
tagged_abstract_sents/12114036.txt,16,0.0458567980692,-0.0262755682742,0.139250797795,0.0356431803763,0.0706288105177,0.185765111518,0.0325013484107,0.400643948257
tagged_abstract_sents/12114036.txt,17,0.0245374094932,-0.0143084777731,0.139250797795,0.0356431803763,0.038123137638,0.285285282414,0.039428459836,0.459923464938
tagged_abstract_sents/12114036.txt,18,0.0245374094932,-0.039738545088,0.0616692308323,0.142474783506,0.0,0.0,0.0,0.0852592690448
tagged_abstract_sents/12114036.txt,19,0.00844730490748,0.00314352920772,0.139250797795,0.0356431803763,0.19337367934,0.536983095476,0.0324131645933,0.850474842187
tagged_abstract_sents/12114036.txt,20,0.00844730490748,-0.0088235612934,0.139250797795,0.0356431803763,0.01144712785,0.363046353532,0.0331467256868,0.492951691746
tagged_abstract_sents/12114036.txt,21,0.00120675784393,-0.0128125914604,0.139250797795,0.0356431803763,0.0381003516803,0.325244861577,0.0356786380742,0.477745092325
tagged_abstract_sents/12114036.txt,22,0.00120675784393,0.016357191636,0.139250797795,0.0356431803763,0.0309969132071,0.445558680031,0.0385917298429,0.599702520693
tagged_abstract_sents/12114036.txt,23,0.00120675784393,-0.00333864481372,0.139250797795,0.0356431803763,0.0385572761088,0.414456835251,0.0282827756802,0.561912917362
