tagged_abstract_sents/12118972.txt,1,0.125905068383,-0.0457196361691,0.0616692308323,0.142474783506,0.0,0.0,0.0,0.16515717794
tagged_abstract_sents/12118972.txt,2,0.250201126307,0.0045746388443,0.188769469584,0.202456734834,0.305893224989,0.553774942175,0.0790821874162,1.29494793864
tagged_abstract_sents/12118972.txt,3,0.239742558327,-0.0430444087747,0.0616692308323,0.142474783506,0.0,0.0,0.0,0.256762215374
tagged_abstract_sents/12118972.txt,4,0.229283990346,0.0270465489567,0.210342442448,0.226435992083,0.0,0.438043947732,0.0614389294161,0.861421398065
tagged_abstract_sents/12118972.txt,5,0.218020917136,0.0142054574639,0.0616692308323,0.142474783506,0.0,0.467503940544,0.0617455027285,0.780084318941
tagged_abstract_sents/12118972.txt,6,0.206757843926,-0.0414392723381,0.0616692308323,0.142474783506,0.0,0.0,0.0,0.230695471141
tagged_abstract_sents/12118972.txt,7,0.162510056315,0.0045746388443,0.0616692308323,0.142474783506,0.0581722365325,0.401561833642,0.0458590205886,0.710093114052
tagged_abstract_sents/12118972.txt,8,0.118262268705,-0.00666131621188,0.0616692308323,0.142474783506,0.0331508333093,0.351096386068,0.0591760895784,0.610277911145
tagged_abstract_sents/12118972.txt,9,0.101769911504,-0.0414392723381,0.0616692308323,0.142474783506,0.0,0.0,0.0,0.146705125204
tagged_abstract_sents/12118972.txt,10,0.0852775543041,0.0259764579989,0.0616692308323,0.142474783506,0.0901335100825,0.660258028007,0.0557291436869,0.953115067287
tagged_abstract_sents/12118972.txt,11,0.0711987127916,-0.0280631353665,0.0616692308323,0.142474783506,0.0,0.172140285102,0.0518468387492,0.348910517479
tagged_abstract_sents/12118972.txt,12,0.0571198712792,-0.041974317817,0.0616692308323,0.142474783506,0.0,0.0,0.0,0.110878083928
tagged_abstract_sents/12118972.txt,13,0.0458567980692,0.085366506153,0.139250797795,0.0356431803763,0.330104119436,0.889170307508,0.0760944760412,1.42944599568
tagged_abstract_sents/12118972.txt,14,0.0345937248592,0.041492776886,0.139250797795,0.0356431803763,0.253806761993,0.608863563642,0.0612099828105,1.04017219672
tagged_abstract_sents/12118972.txt,15,0.0245374094932,0.0537988228999,0.139250797795,0.0356431803763,0.303743862839,0.714387135613,0.0730326938427,1.20187173748
tagged_abstract_sents/12118972.txt,16,0.0144810941271,-0.025922953451,0.139250797795,0.0356431803763,0.0918954265416,0.219018903845,0.0477007483231,0.445333716331
tagged_abstract_sents/12118972.txt,17,0.00844730490748,0.00403959336544,0.139250797795,0.0356431803763,0.161184089441,0.492633135541,0.0501995134804,0.791900854072
tagged_abstract_sents/12118972.txt,18,0.00120675784393,-0.0435794542536,0.139250797795,0.0356431803763,0.0,0.0,0.0,0.0725678684347
tagged_abstract_sents/12118972.txt,19,0.00120675784393,0.0275815944355,0.139250797795,0.0356431803763,0.235998489109,0.500596001591,0.068780312647,0.892174881519
tagged_abstract_sents/12118972.txt,20,0.00120675784393,0.0291867308721,0.139250797795,0.0356431803763,0.166815986997,0.533587370207,0.0813122794773,0.868836742141
