tagged_abstract_sents/12137684.txt,1,0.125905068383,-0.0376926782274,0.0616692308323,0.142474783506,0.0,0.0,0.0,0.166762569529
tagged_abstract_sents/12137684.txt,2,0.125905068383,-0.00445568400771,0.188769469584,0.202456734834,0.169471699239,0.0653536748779,0.0165004887586,0.506280536023
tagged_abstract_sents/12137684.txt,3,0.239742558327,0.0464836223507,0.188769469584,0.202456734834,0.307554218566,0.123479403272,0.0230903505097,0.810336498722
tagged_abstract_sents/12137684.txt,4,0.239742558327,-0.0376926782274,0.0616692308323,0.142474783506,0.0,0.0,0.0,0.257832561484
tagged_abstract_sents/12137684.txt,5,0.218020917136,0.00927263969171,0.0616692308323,0.142474783506,0.292518912401,0.107376360058,0.0189149560117,0.668658540585
tagged_abstract_sents/12137684.txt,6,0.218020917136,-0.0358863198459,0.0616692308323,0.142474783506,0.0,0.0,0.0,0.240816520207
tagged_abstract_sents/12137684.txt,7,0.218020917136,0.0179431599229,0.0616692308323,0.142474783506,0.0102022565951,0.0520009611193,0.0533933808127,0.367179014688
tagged_abstract_sents/12137684.txt,8,0.162510056315,-0.034802504817,0.0616692308323,0.142474783506,0.0,0.0,0.0,0.196624594557
tagged_abstract_sents/12137684.txt,9,0.162510056315,0.0136078998073,0.0616692308323,0.142474783506,0.1921822538,0.12521471533,0.0303519061584,0.55405555077
tagged_abstract_sents/12137684.txt,10,0.101769911504,-0.0257707129094,0.0616692308323,0.142474783506,0.311666312773,0.047271213469,0.0,0.508776363332
tagged_abstract_sents/12137684.txt,11,0.101769911504,-0.0311897880539,0.0616692308323,0.142474783506,0.0,0.0,0.0,0.148755022061
tagged_abstract_sents/12137684.txt,12,0.0852775543041,-0.0160163776493,0.0616692308323,0.142474783506,0.158102292973,0.105862034061,0.0248417965735,0.427401941989
tagged_abstract_sents/12137684.txt,13,0.0711987127916,-0.0369701348748,0.0616692308323,0.142474783506,0.0,0.0,0.0,0.123141993726
tagged_abstract_sents/12137684.txt,14,0.0711987127916,-0.0196290944123,0.0616692308323,0.142474783506,0.0,0.0493710616399,0.0480374464245,0.224018709883
tagged_abstract_sents/12137684.txt,15,0.0458567980692,-0.0131262042389,0.139250797795,0.0356431803763,0.172336224724,0.0710067827847,0.0239589442815,0.381680502408
tagged_abstract_sents/12137684.txt,16,0.0458567980692,0.0905587668593,0.139250797795,0.0356431803763,0.129616211016,0.19160519124,0.0184642120126,0.474801159106
tagged_abstract_sents/12137684.txt,17,0.0245374094932,-0.00915221579961,0.139250797795,0.0356431803763,0.166463432786,0.042201567381,0.0057917888563,0.312574626468
tagged_abstract_sents/12137684.txt,18,0.0245374094932,0.0356454720617,0.139250797795,0.0356431803763,0.10572149279,0.1098449329,0.0185997067449,0.341243507452
tagged_abstract_sents/12137684.txt,19,0.0245374094932,0.0587668593449,0.139250797795,0.0356431803763,0.165511342245,0.138596314608,0.00940415889096,0.425213468218
tagged_abstract_sents/12137684.txt,20,0.00844730490748,-0.0333574181118,0.0616692308323,0.142474783506,0.0,0.0,0.0,0.0736634107715
tagged_abstract_sents/12137684.txt,21,0.00844730490748,-0.00373314065511,0.139250797795,0.0356431803763,0.0609233081442,0.0563159361898,0.0416324535679,0.245201266707
tagged_abstract_sents/12137684.txt,22,0.00120675784393,-0.0022880539499,0.139250797795,0.0356431803763,0.203935928315,0.0902835017901,0.0204416077281,0.395487186328
tagged_abstract_sents/12137684.txt,23,0.00120675784393,0.0677986512524,0.139250797795,0.0356431803763,0.267444227124,0.150577889086,0.0228311339198,0.535696739666
tagged_abstract_sents/12137684.txt,24,0.00120675784393,0.0016859344894,0.139250797795,0.0356431803763,0.190417177085,0.10298483272,0.032867726501,0.40789068249
