tagged_abstract_sents/12140298.txt,2,0.206355591311,-0.0609494109494,0.0616692308323,0.106008497564,0.0636390504569,0.0,0.0,0.215531755544
tagged_abstract_sents/12140298.txt,4,0.0048270313757,-0.0625086625087,0.0616692308323,0.106008497564,0.0636390504569,0.0,0.0,0.0539970572841
tagged_abstract_sents/12140298.txt,5,0.0048270313757,0.0430006930007,0.139250797795,0.521468892835,0.0636390504569,0.477554530444,0.0857274572277,0.77158603886
tagged_abstract_sents/12140298.txt,7,0.016894609815,0.00349965349965,0.139250797795,0.521468892835,0.0636390504569,0.292758973856,0.0617699339766,0.623711591856
tagged_abstract_sents/12140298.txt,8,0.0261464199517,-0.0625086625087,0.0616692308323,0.106008497564,0.0636390504569,0.0,0.0,0.0710525681449
tagged_abstract_sents/12140298.txt,9,0.0518905872888,-0.0120928620929,0.139250797795,0.521468892835,0.0636390504569,0.290747058405,0.0611033519553,0.670191437231
tagged_abstract_sents/12140298.txt,10,0.0683829444891,-0.0328828828829,0.139250797795,0.521468892835,0.0636390504569,0.200101853699,0.0557980291744,0.547123582028
tagged_abstract_sents/12140298.txt,11,0.0993563958166,0.0424809424809,0.139250797795,0.521468892835,0.0636390504569,0.304662843223,0.0729179317464,0.708894268223
tagged_abstract_sents/12140298.txt,12,0.172566371681,0.0481981981982,0.139250797795,0.521468892835,0.0636390504569,0.464220428747,0.0689404024092,0.943471679476
tagged_abstract_sents/12140298.txt,13,0.214802896219,0.0274081774082,0.139250797795,0.521468892835,0.0636390504569,0.279194480031,0.0722557528598,0.753384458488
tagged_abstract_sents/12140298.txt,14,0.206355591311,-0.0604296604297,0.0616692308323,0.106008497564,0.0636390504569,0.0,0.0,0.215635705648
tagged_abstract_sents/12140298.txt,15,0.262268704747,0.00246015246015,0.139250797795,0.521468892835,0.0636390504569,0.348274703251,0.0789909217877,0.925838579599
tagged_abstract_sents/12140298.txt,16,0.262268704747,-0.0235273735274,0.139250797795,0.521468892835,0.0636390504569,0.281885930067,0.0669268754988,0.784101579965
