tagged_abstract_sents/12168911.txt,2,0.206355591311,-0.0757731958763,0.0616692308323,0.106008497564,0.0501955636042,0.0,0.0,0.212566998559
tagged_abstract_sents/12168911.txt,3,0.206355591311,0.0115120274914,0.188769469584,0.129715814208,0.0501955636042,0.252075390799,0.0534943537163,0.620431294286
tagged_abstract_sents/12168911.txt,5,0.0108608205953,-0.0682130584192,0.0616692308323,0.106008497564,0.0501955636042,0.0,0.0,0.0576832094777
tagged_abstract_sents/12168911.txt,6,0.0261464199517,0.0335051546392,0.0616692308323,0.106008497564,0.0501955636042,0.379041639273,0.0544953578916,0.647014674793
tagged_abstract_sents/12168911.txt,7,0.0353982300885,-0.01735395189,0.0616692308323,0.106008497564,0.0501955636042,0.250917562408,0.0534424811154,0.46589518458
tagged_abstract_sents/12168911.txt,8,0.0518905872888,-0.0778350515464,0.139250797795,0.521468892835,0.0501955636042,0.0,0.0,0.25201152627
tagged_abstract_sents/12168911.txt,10,0.172566371681,0.0259450171821,0.139250797795,0.521468892835,0.0501955636042,0.311181563936,0.0439707043481,0.746706487221
tagged_abstract_sents/12168911.txt,11,0.206355591311,-0.0757731958763,0.0616692308323,0.106008497564,0.0501955636042,0.0,0.0,0.212566998559
tagged_abstract_sents/12168911.txt,12,0.262268704747,-0.0166666666667,0.139250797795,0.521468892835,0.0501955636042,0.277394385721,0.0551851326429,0.956979961694
tagged_abstract_sents/12168911.txt,13,0.262268704747,0.0149484536082,0.139250797795,0.521468892835,0.0501955636042,0.315034979983,0.0807413111995,0.851660609394
