tagged_abstract_sents/12167549.txt,1,0.239742558327,-0.081795679568,0.188769469584,0.202456734834,0.0119368417176,0.0199307038063,0.0234223770809,0.385846588595
tagged_abstract_sents/12167549.txt,2,0.218020917136,0.0145139513951,0.188769469584,0.202456734834,0.0972082946284,0.119499394243,0.036272670419,0.58542163852
tagged_abstract_sents/12167549.txt,3,0.162510056315,-0.0385913591359,0.210342442448,0.226435992083,0.00621826282366,0.110136791384,0.0221567050835,0.433903551365
tagged_abstract_sents/12167549.txt,4,0.0852775543041,-0.0331908190819,0.194899689933,0.13295610691,0.18725805811,0.133065238783,0.0529616724739,0.572205526033
tagged_abstract_sents/12167549.txt,5,0.0458567980692,0.00461296129613,0.139250797795,0.0356431803763,0.00415202764849,0.136848664697,0.0311539249846,0.290081001055
tagged_abstract_sents/12167549.txt,6,0.0245374094932,0.0262151215122,0.139250797795,0.0356431803763,0.082503724429,0.172557878756,0.0496515679443,0.409904476036
tagged_abstract_sents/12167549.txt,7,0.00844730490748,-0.0169891989199,0.139250797795,0.0356431803763,0.202996655049,0.155719495302,0.0414019266243,0.483796434128
tagged_abstract_sents/12167549.txt,8,0.00120675784393,0.125225022502,0.139250797795,0.0356431803763,0.129417999424,0.165629471081,0.0359493390852,0.437325573376
