tagged_abstract_sents/12186605.txt,2,0.0954875100725,-0.0359954472162,0.0616692308323,0.247294108221,0.0520310694476,0.0,0.0,0.174213766497
tagged_abstract_sents/12186605.txt,4,0.0253827558421,-0.0353789244048,0.0616692308323,0.247294108221,0.0520310694476,0.0,0.0,0.118253267675
tagged_abstract_sents/12186605.txt,5,0.0253827558421,0.0373707673338,0.0616692308323,0.247294108221,0.0520310694476,0.413111522928,0.0184790405852,0.446960734679
tagged_abstract_sents/12186605.txt,6,0.0253827558421,-0.0344541401878,0.0616692308323,0.247294108221,0.0520310694476,0.0,0.0,0.118438224519
tagged_abstract_sents/12186605.txt,7,0.0805801772764,0.01270985488,0.0616692308323,0.247294108221,0.0520310694476,0.249059021802,0.0199238206856,0.343778921735
tagged_abstract_sents/12186605.txt,8,0.0805801772764,0.00808593379494,0.0616692308323,0.247294108221,0.0520310694476,0.273679437519,0.0167496825862,0.314649367166
tagged_abstract_sents/12186605.txt,9,0.123690572119,-0.0273641278573,0.0616692308323,0.247294108221,0.0520310694476,0.0,0.0,0.198502480006
tagged_abstract_sents/12186605.txt,10,0.123690572119,0.0114768092573,0.0616692308323,0.247294108221,0.0520310694476,0.293712187309,0.0209300353139,0.43117926494
tagged_abstract_sents/12186605.txt,11,0.123690572119,0.0096272408233,0.0616692308323,0.247294108221,0.0520310694476,0.277124435306,0.0233742501581,0.480336156777
tagged_abstract_sents/12186605.txt,12,0.140209508461,-0.0338376173765,0.0616692308323,0.247294108221,0.0520310694476,0.0,0.0,0.210422931176
tagged_abstract_sents/12186605.txt,13,0.140209508461,0.0583325429195,0.139250797795,0.194462959676,0.0520310694476,0.38468870735,0.0170121593906,0.609257370244
tagged_abstract_sents/12186605.txt,14,0.149073327961,-0.00609409086598,0.139250797795,0.194462959676,0.0520310694476,0.201714875665,0.014608011385,0.374720109208
tagged_abstract_sents/12186605.txt,15,0.149879129734,-0.00393626102627,0.139250797795,0.194462959676,0.0520310694476,0.18901822348,0.0134974118566,0.440933503091
tagged_abstract_sents/12186605.txt,16,0.149879129734,0.01270985488,0.139250797795,0.194462959676,0.0520310694476,0.181229901188,0.0159634729954,0.375920871185
tagged_abstract_sents/12186605.txt,17,0.176470588235,0.0308972778147,0.139250797795,0.194462959676,0.0520310694476,0.288765915024,0.022557308889,0.475324177453
tagged_abstract_sents/12186605.txt,18,0.176470588235,0.0142511619084,0.139250797795,0.194462959676,0.0520310694476,0.386786832741,0.0238933714981,0.612822320817
tagged_abstract_sents/12186605.txt,19,0.176470588235,-0.00794365930001,0.139250797795,0.194462959676,0.0520310694476,0.276840579854,0.0164688934466,0.510306598197
tagged_abstract_sents/12186605.txt,20,0.166800966962,0.000687660058807,0.139250797795,0.194462959676,0.0520310694476,0.214544016861,0.0162027541752,0.379320462978
tagged_abstract_sents/12186605.txt,21,0.166800966962,0.0197998672105,0.139250797795,0.194462959676,0.0520310694476,0.38767591687,0.022428384683,0.633561445407
tagged_abstract_sents/12186605.txt,22,0.0954875100725,-0.0134923646021,0.139250797795,0.194462959676,0.0520310694476,0.161473063219,0.00339388612169,0.323082676308
tagged_abstract_sents/12186605.txt,23,0.0954875100725,-0.0199658541212,0.139250797795,0.194462959676,0.0520310694476,0.219572907171,0.0156948920793,0.373188251776
tagged_abstract_sents/12186605.txt,24,0.0954875100725,0.0111685478517,0.139250797795,0.194462959676,0.0520310694476,0.279620508913,0.0126027418385,0.39740976502
tagged_abstract_sents/12186605.txt,25,0.0342465753425,-0.0347624015935,0.0616692308323,0.247294108221,0.0520310694476,0.0,0.0,0.125467627838
tagged_abstract_sents/12186605.txt,26,0.0342465753425,0.000379398653135,0.139250797795,0.194462959676,0.0520310694476,0.365140257078,0.0228283162843,0.451639949085
tagged_abstract_sents/12186605.txt,27,0.0342465753425,-0.00424452243195,0.139250797795,0.194462959676,0.0520310694476,0.230960935865,0.0176746350459,0.2987185958
