tagged_abstract_sents/12187337.txt,1,0.125905068383,-0.0485544606148,0.188769469584,0.202456734834,0.0941524646977,0.0344461845618,0.031147050015,0.4058806171
tagged_abstract_sents/12187337.txt,2,0.239742558327,-0.0227109573843,0.188769469584,0.202456734834,0.107095747026,0.218351472238,0.0414395527603,0.709260382451
tagged_abstract_sents/12187337.txt,3,0.218020917136,0.0131827971024,0.0616692308323,0.142474783506,0.126744237887,0.23500016957,0.0701777566372,0.682552507691
tagged_abstract_sents/12187337.txt,4,0.162510056315,0.110095934217,0.139250797795,0.0356431803763,0.0806968394694,0.3278941514,0.068718892169,0.709655467944
tagged_abstract_sents/12187337.txt,5,0.101769911504,-0.0291718331919,0.139250797795,0.0356431803763,0.00933748651127,0.157826018147,0.0478650579729,0.370928478207
tagged_abstract_sents/12187337.txt,6,0.0711987127916,0.000261045487176,0.139250797795,0.0356431803763,0.187201857445,0.236939855787,0.0542959322094,0.615767177782
tagged_abstract_sents/12187337.txt,7,0.0458567980692,0.00456829602558,0.139250797795,0.0356431803763,0.130397877842,0.278835418023,0.0506064690027,0.577757215538
tagged_abstract_sents/12187337.txt,8,0.0245374094932,-0.00835345558964,0.139250797795,0.0356431803763,0.086164276488,0.271911132148,0.0533487807569,0.509701778879
tagged_abstract_sents/12187337.txt,9,0.00844730490748,-0.012660706128,0.139250797795,0.0356431803763,0.0590884271467,0.132202837668,0.0501148048318,0.325950125358
tagged_abstract_sents/12187337.txt,10,0.00120675784393,-0.0219930822946,0.139250797795,0.0356431803763,0.0640353167459,0.123610747802,0.0407443709331,0.305275578308
tagged_abstract_sents/12187337.txt,11,0.00120675784393,0.0153364223716,0.139250797795,0.0356431803763,0.114572978426,0.192337653285,0.0511230907457,0.442384766216
