tagged_abstract_sents/12186605.txt,1,0.125905068383,-0.0359954472162,0.0616692308323,0.142474783506,0.0,0.0,0.0,0.167102015731
tagged_abstract_sents/12186605.txt,2,0.125905068383,0.0299724935976,0.188769469584,0.202456734834,0.167339937226,0.400700225889,0.0202256079695,0.850106079753
tagged_abstract_sents/12186605.txt,3,0.239742558327,-0.0353789244048,0.0616692308323,0.142474783506,0.0,0.0,0.0,0.258295312248
tagged_abstract_sents/12186605.txt,4,0.239742558327,0.0373707673338,0.0616692308323,0.142474783506,0.064786913089,0.413111522928,0.0184790405852,0.769222727198
tagged_abstract_sents/12186605.txt,5,0.239742558327,-0.0344541401878,0.0616692308323,0.142474783506,0.0,0.0,0.0,0.258480269092
tagged_abstract_sents/12186605.txt,6,0.218020917136,0.01270985488,0.0616692308323,0.142474783506,0.064612099505,0.249059021802,0.0199238206856,0.584130697145
tagged_abstract_sents/12186605.txt,7,0.218020917136,0.00808593379494,0.0616692308323,0.142474783506,0.0131130074461,0.273679437519,0.0167496825862,0.553153098487
tagged_abstract_sents/12186605.txt,8,0.162510056315,-0.0273641278573,0.0616692308323,0.142474783506,0.0,0.0,0.0,0.198112269949
tagged_abstract_sents/12186605.txt,9,0.162510056315,0.0114768092573,0.0616692308323,0.142474783506,0.0118724759198,0.293712187309,0.0209300353139,0.532395155914
tagged_abstract_sents/12186605.txt,10,0.162510056315,0.0096272408233,0.0616692308323,0.142474783506,0.0876218101012,0.277124435306,0.0233742501581,0.59363103925
tagged_abstract_sents/12186605.txt,11,0.101769911504,-0.0338376173765,0.0616692308323,0.142474783506,0.0,0.0,0.0,0.148225456196
tagged_abstract_sents/12186605.txt,12,0.101769911504,0.0583325429195,0.139250797795,0.0356431803763,0.0838391684065,0.38468870735,0.0170121593906,0.658940825945
tagged_abstract_sents/12186605.txt,13,0.0852775543041,-0.00609409086598,0.139250797795,0.0356431803763,0.0102106074742,0.201714875665,0.014608011385,0.373855072805
tagged_abstract_sents/12186605.txt,14,0.0711987127916,-0.00393626102627,0.139250797795,0.0356431803763,0.0882472855159,0.18901822348,0.0134974118566,0.42725299189
tagged_abstract_sents/12186605.txt,15,0.0711987127916,0.01270985488,0.139250797795,0.0356431803763,0.0602680470597,0.181229901188,0.0159634729954,0.397280715462
tagged_abstract_sents/12186605.txt,16,0.0458567980692,0.0308972778147,0.139250797795,0.0356431803763,0.0371502914332,0.288765915024,0.022557308889,0.471656762374
tagged_abstract_sents/12186605.txt,17,0.0458567980692,0.0142511619084,0.139250797795,0.0356431803763,0.0483189712598,0.386786832741,0.0238933714981,0.578853199346
tagged_abstract_sents/12186605.txt,18,0.0458567980692,-0.00794365930001,0.139250797795,0.0356431803763,0.0142379807682,0.276840579854,0.0164688934466,0.422962513674
tagged_abstract_sents/12186605.txt,19,0.0245374094932,0.000687660058807,0.139250797795,0.0356431803763,0.0,0.214544016861,0.0162027541752,0.330832583653
tagged_abstract_sents/12186605.txt,20,0.0245374094932,0.0197998672105,0.139250797795,0.0356431803763,0.129717823933,0.38767591687,0.022428384683,0.643730379533
tagged_abstract_sents/12186605.txt,21,0.00844730490748,-0.0134923646021,0.139250797795,0.0356431803763,0.0211780629993,0.161473063219,0.00339388612169,0.270422736356
tagged_abstract_sents/12186605.txt,22,0.00844730490748,-0.0199658541212,0.139250797795,0.0356431803763,0.0191724801649,0.219572907171,0.0156948920793,0.337523305527
tagged_abstract_sents/12186605.txt,23,0.00844730490748,0.0111685478517,0.139250797795,0.0356431803763,0.00770624519439,0.279620508913,0.0126027418385,0.389239402452
tagged_abstract_sents/12186605.txt,24,0.00120675784393,-0.0347624015935,0.0616692308323,0.142474783506,0.0,0.0,0.0,0.0675899764243
tagged_abstract_sents/12186605.txt,25,0.00120675784393,0.000379398653135,0.139250797795,0.0356431803763,0.0785382992551,0.365140257078,0.0228283162843,0.547866511634
tagged_abstract_sents/12186605.txt,26,0.00120675784393,-0.00424452243195,0.139250797795,0.0356431803763,0.0520310694476,0.230960935865,0.0176746350459,0.381101495158
