tagged_abstract_sents/12200073.txt,3,0.0048270313757,-0.0447750912723,0.210342442448,0.0253702522065,0.0935992312852,0.269679492667,0.0570507031351,0.501376549342
tagged_abstract_sents/12200073.txt,4,0.0108608205953,-0.0143969139629,0.139250797795,0.521468892835,0.0935992312852,0.308250915786,0.062997247667,0.739034227293
tagged_abstract_sents/12200073.txt,5,0.0261464199517,-0.00137769511607,0.139250797795,0.521468892835,0.0935992312852,0.230052466632,0.0375435427687,0.507807513943
tagged_abstract_sents/12200073.txt,6,0.0518905872888,0.0159812633464,0.139250797795,0.521468892835,0.0935992312852,0.243845560425,0.0582505483163,0.612826899982
tagged_abstract_sents/12200073.txt,8,0.172566371681,-0.0100571743473,0.139250797795,0.521468892835,0.0935992312852,0.333876029439,0.0598880541469,0.744055624089
tagged_abstract_sents/12200073.txt,9,0.206355591311,-0.0379555004478,0.139250797795,0.521468892835,0.0935992312852,0.174540678609,0.0271819765192,0.613026572991
tagged_abstract_sents/12200073.txt,10,0.262268704747,0.014741337742,0.139250797795,0.521468892835,0.0935992312852,0.309437011451,0.0486837603002,0.851397948531
