tagged_abstract_sents/12269676.txt,2,0.0954875100725,-0.042700729927,0.0616692308323,0.247294108221,0.193696703129,0.0,0.0,0.172872709955
tagged_abstract_sents/12269676.txt,3,0.00564061240935,0.02100199071,0.188769469584,0.123191979006,0.193696703129,0.335778988852,0.00605340660675,0.3990140184
tagged_abstract_sents/12269676.txt,4,0.0253827558421,-0.0453550099536,0.0616692308323,0.247294108221,0.193696703129,0.0,0.0,0.116258050565
tagged_abstract_sents/12269676.txt,5,0.0451248992748,-0.0274386197744,0.0616692308323,0.247294108221,0.193696703129,0.100618882926,0.0220233938547,0.204735517177
tagged_abstract_sents/12269676.txt,6,0.0805801772764,-0.0446914399469,0.0616692308323,0.247294108221,0.193696703129,0.0,0.0,0.160548701714
tagged_abstract_sents/12269676.txt,7,0.116035455278,0.0163570006636,0.0616692308323,0.247294108221,0.193696703129,0.285959845973,0.0125741969274,0.413630625375
tagged_abstract_sents/12269676.txt,8,0.123690572119,-0.042700729927,0.0616692308323,0.247294108221,0.193696703129,0.0,0.0,0.195435159593
tagged_abstract_sents/12269676.txt,10,0.140209508461,-0.0446914399469,0.0616692308323,0.247294108221,0.193696703129,0.0,0.0,0.208252166662
tagged_abstract_sents/12269676.txt,11,0.149073327961,0.0382548108825,0.0616692308323,0.247294108221,0.193696703129,0.315865536788,0.00932024504825,0.563025627201
tagged_abstract_sents/12269676.txt,12,0.149879129734,-0.035401459854,0.0616692308323,0.247294108221,0.193696703129,0.0,0.0,0.217845859699
tagged_abstract_sents/12269676.txt,13,0.150684931507,0.0342733908427,0.0616692308323,0.247294108221,0.193696703129,0.308943192368,0.0188904583545,0.471130642173
tagged_abstract_sents/12269676.txt,14,0.176470588235,-0.0446914399469,0.0616692308323,0.247294108221,0.193696703129,0.0,0.0,0.237261030481
tagged_abstract_sents/12269676.txt,15,0.202256244964,0.0462176509622,0.139250797795,0.194462959676,0.193696703129,0.319881732407,0.0168550025394,0.540586138668
tagged_abstract_sents/12269676.txt,16,0.166800966962,0.0316191108162,0.139250797795,0.194462959676,0.193696703129,0.335231777281,0.00908580276901,0.541575404374
tagged_abstract_sents/12269676.txt,17,0.131345688961,0.0150298606503,0.139250797795,0.194462959676,0.193696703129,0.266444903329,0.00931251837695,0.373179161347
tagged_abstract_sents/12269676.txt,18,0.0954875100725,0.00905773059058,0.139250797795,0.194462959676,0.193696703129,0.195124937451,0.00882216014898,0.359574165635
tagged_abstract_sents/12269676.txt,19,0.0342465753425,0.0375912408759,0.139250797795,0.194462959676,0.193696703129,0.330623959243,0.0107215508866,0.39548038724
tagged_abstract_sents/12269676.txt,20,0.0342465753425,-0.0420371599204,0.0616692308323,0.247294108221,0.193696703129,0.0,0.0,0.124012676172
tagged_abstract_sents/12269676.txt,21,0.0342465753425,0.0800597213006,0.139250797795,0.194462959676,0.193696703129,0.436076969343,0.0124584617607,0.547246437191
