tagged_abstract_sents/12322776.txt,1,0.239742558327,-0.051906779661,0.188769469584,0.202456734834,0.0931902837459,0.3190867749,0.0074181371258,0.756229641744
tagged_abstract_sents/12322776.txt,2,0.218020917136,-0.0169491525424,0.188769469584,0.202456734834,0.0641792375245,0.197597526347,0.0055087349662,0.593434157281
tagged_abstract_sents/12322776.txt,3,0.162510056315,-0.0158898305085,0.188769469584,0.202456734834,0.0870103431655,0.294760525465,0.0192388727943,0.682961575618
tagged_abstract_sents/12322776.txt,4,0.0852775543041,0.0116525423729,0.188769469584,0.202456734834,0.158012534138,0.31008698033,0.0304333830802,0.724207204709
tagged_abstract_sents/12322776.txt,5,0.0458567980692,0.00741525423729,0.188769469584,0.202456734834,0.105244602503,0.362803579047,0.0252204121048,0.6865588382
tagged_abstract_sents/12322776.txt,6,0.0245374094932,-0.041313559322,0.188769469584,0.202456734834,0.0412321261201,0.156112962146,0.00642612588886,0.370260185127
tagged_abstract_sents/12322776.txt,7,0.00844730490748,0.021186440678,0.188769469584,0.202456734834,0.165063031748,0.443138627389,0.0110174699324,0.785336016373
tagged_abstract_sents/12322776.txt,8,0.00120675784393,0.0858050847458,0.188769469584,0.202456734834,0.022360253344,0.480580896093,0.0192944086292,0.695483736533
