tagged_abstract_sents/12368966.txt,2,0.206355591311,-0.0431272572764,0.0616692308323,0.106008497564,0.101633326243,0.0,0.0,0.219096186279
tagged_abstract_sents/12368966.txt,4,0.206355591311,0.0701614616529,0.188769469584,0.129715814208,0.101633326243,0.374055133906,0.0663407821229,0.771463926365
tagged_abstract_sents/12368966.txt,5,0.0048270313757,-0.0517314637774,0.0616692308323,0.106008497564,0.101633326243,0.0,0.0,0.0561524970304
tagged_abstract_sents/12368966.txt,6,0.0048270313757,0.0228383258976,0.0616692308323,0.106008497564,0.101633326243,0.366349462135,0.0773897453803,0.515181125189
tagged_abstract_sents/12368966.txt,7,0.0108608205953,0.0214042914808,0.0616692308323,0.106008497564,0.101633326243,0.35624067948,0.0560438601203,0.532254266822
tagged_abstract_sents/12368966.txt,8,0.0108608205953,-0.00536435096665,0.0616692308323,0.106008497564,0.101633326243,0.220555833867,0.0728681719429,0.396355760598
tagged_abstract_sents/12368966.txt,9,0.0261464199517,-0.0517314637774,0.0616692308323,0.106008497564,0.101633326243,0.0,0.0,0.0732080078912
tagged_abstract_sents/12368966.txt,10,0.0353982300885,0.00897599320161,0.139250797795,0.521468892835,0.101633326243,0.291297901739,0.0571951180802,0.610310119902
tagged_abstract_sents/12368966.txt,11,0.0518905872888,0.00132780964521,0.139250797795,0.521468892835,0.101633326243,0.319219627676,0.0594266468808,0.644727089531
tagged_abstract_sents/12368966.txt,12,0.0993563958166,-0.0158806033567,0.139250797795,0.521468892835,0.101633326243,0.246167241232,0.0530900837989,0.61001857281
tagged_abstract_sents/12368966.txt,13,0.0993563958166,-0.00536435096665,0.139250797795,0.521468892835,0.101633326243,0.190927180886,0.0735602201775,0.566278128005
tagged_abstract_sents/12368966.txt,15,0.172566371681,0.0237943488421,0.139250797795,0.521468892835,0.101633326243,0.260049190764,0.0579401104017,0.702104369978
tagged_abstract_sents/12368966.txt,16,0.206355591311,-0.0498194178883,0.0616692308323,0.106008497564,0.101633326243,0.0,0.0,0.217757754157
tagged_abstract_sents/12368966.txt,17,0.206355591311,-0.0220947524963,0.139250797795,0.521468892835,0.101633326243,0.179887711912,0.0530674909629,0.614687019254
tagged_abstract_sents/12368966.txt,18,0.262268704747,0.00515190142341,0.139250797795,0.521468892835,0.101633326243,0.246816561716,0.0528674930168,0.77148900279
tagged_abstract_sents/12368966.txt,19,0.262268704747,0.0591671977905,0.139250797795,0.521468892835,0.101633326243,0.486557727616,0.0598125105807,1.02802770003
