tagged_abstract_sents/12361440.txt,1,0.125905068383,-0.0455444067291,0.0616692308323,0.142474783506,0.0,0.0,0.0,0.165192223828
tagged_abstract_sents/12361440.txt,2,0.239742558327,0.0217837293446,0.188769469584,0.202456734834,0.378152718337,0.141428674938,0.0469868035191,0.917840744567
tagged_abstract_sents/12361440.txt,3,0.239742558327,-0.0476705583946,0.0616692308323,0.142474783506,0.0,0.0,0.0,0.25583698545
tagged_abstract_sents/12361440.txt,4,0.218020917136,0.00902681935171,0.0616692308323,0.142474783506,0.20462569501,0.128508241624,0.0486656891496,0.631598773831
tagged_abstract_sents/12361440.txt,5,0.218020917136,-0.0469618411727,0.0616692308323,0.142474783506,0.0,0.0,0.0,0.238601415942
tagged_abstract_sents/12361440.txt,6,0.162510056315,-0.00018650453206,0.0616692308323,0.142474783506,0.0545601123264,0.119004970517,0.0332072850749,0.410320162532
tagged_abstract_sents/12361440.txt,7,0.162510056315,-0.0462531239509,0.0616692308323,0.142474783506,0.0,0.0,0.0,0.19433447073
tagged_abstract_sents/12361440.txt,8,0.101769911504,0.0742288037599,0.210342442448,0.226435992083,0.0394491494034,0.108222724334,0.0518980123819,0.468933594924
tagged_abstract_sents/12361440.txt,9,0.101769911504,-0.0434182550636,0.0616692308323,0.142474783506,0.0,0.0,0.0,0.146309328659
tagged_abstract_sents/12361440.txt,10,0.0711987127916,0.135887202059,0.194899689933,0.13295610691,0.173907482192,0.200410854945,0.0532692516563,0.649060676478
tagged_abstract_sents/12361440.txt,11,0.0711987127916,-0.0037300906412,0.194899689933,0.13295610691,0.169227387817,0.125670374288,0.0327956989247,0.521243090173
tagged_abstract_sents/12361440.txt,12,0.0458567980692,-0.037748517289,0.0616692308323,0.142474783506,0.0,0.0,0.0,0.102712785465
tagged_abstract_sents/12361440.txt,13,0.0458567980692,-0.0200305867433,0.139250797795,0.0356431803763,0.173168863615,0.0655262678634,0.0400293255132,0.391722131108
tagged_abstract_sents/12361440.txt,14,0.0245374094932,-0.0469618411727,0.139250797795,0.0356431803763,0.0,0.0,0.0,0.0905559123703
tagged_abstract_sents/12361440.txt,15,0.0245374094932,0.0338319221157,0.139250797795,0.0356431803763,0.0783024629072,0.1288173678,0.0544965786901,0.368331074425
tagged_abstract_sents/12361440.txt,16,0.00844730490748,0.065724197098,0.139250797795,0.0356431803763,0.0837394187603,0.169250426925,0.0492240957967,0.402434977837
tagged_abstract_sents/12361440.txt,17,0.00844730490748,0.0168227087918,0.139250797795,0.0356431803763,0.166860621692,0.0952236850621,0.0188563049853,0.371381350434
tagged_abstract_sents/12361440.txt,18,0.00120675784393,-0.0448356895073,0.0616692308323,0.142474783506,0.0,0.0,0.0,0.0655753188416
tagged_abstract_sents/12361440.txt,19,0.00120675784393,0.0260360326756,0.139250797795,0.0356431803763,0.370747004984,0.148343708258,0.0491551459293,0.654736824992
