tagged_abstract_sents/12390647.txt,2,0.206355591311,-0.0396344396344,0.0616692308323,0.106008497564,0.116452255519,0.0,0.0,0.219794749807
tagged_abstract_sents/12390647.txt,3,0.206355591311,-0.016354016354,0.188769469584,0.129715814208,0.116452255519,0.230855539249,0.0300968614812,0.634106319765
tagged_abstract_sents/12390647.txt,5,0.206355591311,-0.0401635401635,0.0616692308323,0.106008497564,0.116452255519,0.0,0.0,0.219688929702
tagged_abstract_sents/12390647.txt,6,0.0048270313757,0.00639730639731,0.0616692308323,0.106008497564,0.116452255519,0.382694023145,0.0522298320148,0.472488536307
tagged_abstract_sents/12390647.txt,7,0.0048270313757,-0.0412217412217,0.0616692308323,0.106008497564,0.116452255519,0.0,0.0,0.0582544415415
tagged_abstract_sents/12390647.txt,9,0.0108608205953,0.0185666185666,0.0616692308323,0.106008497564,0.116452255519,0.226471882243,0.0235537324609,0.348975522436
tagged_abstract_sents/12390647.txt,10,0.0261464199517,-0.00947570947571,0.139250797795,0.521468892835,0.116452255519,0.164063267513,0.0447030262442,0.456161511769
tagged_abstract_sents/12390647.txt,11,0.0261464199517,0.020683020683,0.139250797795,0.521468892835,0.116452255519,0.305337786301,0.0380024555969,0.622910470043
tagged_abstract_sents/12390647.txt,12,0.0353982300885,0.0407888407888,0.139250797795,0.521468892835,0.116452255519,0.373890157779,0.0462496337533,0.687234687334
tagged_abstract_sents/12390647.txt,13,0.0518905872888,-0.0131794131794,0.139250797795,0.521468892835,0.116452255519,0.0976639682501,0.0203706416642,0.390270596674
tagged_abstract_sents/12390647.txt,14,0.0518905872888,-0.0242905242905,0.139250797795,0.521468892835,0.116452255519,0.118842761702,0.0263564446102,0.434727006118
tagged_abstract_sents/12390647.txt,15,0.0993563958166,-0.0412217412217,0.139250797795,0.521468892835,0.116452255519,0.0,0.0,0.297306835157
tagged_abstract_sents/12390647.txt,16,0.0993563958166,0.0381433381433,0.139250797795,0.521468892835,0.116452255519,0.287497017161,0.0321564605919,0.644879652891
tagged_abstract_sents/12390647.txt,17,0.172566371681,0.0217412217412,0.139250797795,0.521468892835,0.116452255519,0.214977921969,0.0274318781131,0.626684574241
tagged_abstract_sents/12390647.txt,18,0.172566371681,0.0254449254449,0.139250797795,0.521468892835,0.116452255519,0.232262508002,0.0319367125696,0.648760061652
tagged_abstract_sents/12390647.txt,19,0.206355591311,0.0127465127465,0.139250797795,0.521468892835,0.116452255519,0.302990774474,0.0360386756519,0.747491211357
tagged_abstract_sents/12390647.txt,20,0.206355591311,0.00745550745551,0.139250797795,0.521468892835,0.116452255519,0.345511913441,0.0344972547421,0.785045719218
tagged_abstract_sents/12390647.txt,21,0.262268704747,0.00957190957191,0.139250797795,0.521468892835,0.116452255519,0.276084026438,0.053992474594,0.774123950339
tagged_abstract_sents/12390647.txt,22,0.262268704747,-0.0396344396344,0.0616692308323,0.106008497564,0.116452255519,0.0,0.0,0.264525240556
tagged_abstract_sents/12390647.txt,23,0.262268704747,0.00481000481,0.139250797795,0.521468892835,0.116452255519,0.276499294194,0.0437992505436,0.784956362618
