tagged_abstract_sents/12390439.txt,1,0.125905068383,0.0293571163136,0.188769469584,0.202456734834,0.232126697305,0.253551739391,0.0968948444731,0.844290514381
tagged_abstract_sents/12390439.txt,2,0.239742558327,0.00106174019217,0.188769469584,0.202456734834,0.163034936046,0.283149155066,0.077360980472,0.870673221526
tagged_abstract_sents/12390439.txt,3,0.218020917136,-0.00514943993205,0.194899689933,0.13295610691,0.198658784863,0.170992436746,0.0790908764754,0.759465620846
tagged_abstract_sents/12390439.txt,4,0.162510056315,0.0473005255614,0.210342442448,0.226435992083,0.215280954807,0.281840049023,0.0773475797693,0.887038752613
tagged_abstract_sents/12390439.txt,5,0.162510056315,-0.0265435048044,0.0616692308323,0.142474783506,0.0635168649226,0.16428870484,0.0720716442857,0.498153608608
tagged_abstract_sents/12390439.txt,6,0.101769911504,-0.029304029304,0.139250797795,0.0356431803763,0.0281081804992,0.142348962502,0.100974733613,0.427305352967
tagged_abstract_sents/12390439.txt,7,0.0711987127916,-0.00169878430748,0.139250797795,0.0356431803763,0.00842883016689,0.160000714825,0.0968299492868,0.402197060661
tagged_abstract_sents/12390439.txt,8,0.0458567980692,-0.00169878430748,0.139250797795,0.0356431803763,0.298824726899,0.204399679603,0.0753632547627,0.695251695868
tagged_abstract_sents/12390439.txt,9,0.0458567980692,-0.0244731114296,0.139250797795,0.0356431803763,0.0102960279914,0.0965842717429,0.0761655199821,0.295154988896
tagged_abstract_sents/12390439.txt,10,0.0245374094932,-0.02171258693,0.139250797795,0.0356431803763,0.157945223192,0.180654620928,0.117788012168,0.551993619507
tagged_abstract_sents/12390439.txt,11,0.00844730490748,0.0155544938154,0.139250797795,0.0356431803763,0.226748131027,0.177171574923,0.0569146612471,0.551021462896
tagged_abstract_sents/12390439.txt,12,0.00120675784393,-0.00721983330679,0.139250797795,0.0356431803763,0.351982436076,0.159441525588,0.0502573648122,0.6415211191
tagged_abstract_sents/12390439.txt,13,0.00120675784393,0.0245261984392,0.139250797795,0.0356431803763,0.276399824615,0.242698882623,0.074279456978,0.67956716319
