tagged_abstract_sents/12415081.txt,1,0.239742558327,-0.0855855855856,0.188769469584,0.202456734834,0.184788885152,0.0949909766054,0.0286059716315,0.638184518176
tagged_abstract_sents/12415081.txt,2,0.162510056315,-0.0501126126126,0.188769469584,0.202456734834,0.0226662598667,0.112557106212,0.0332935728319,0.443624216683
tagged_abstract_sents/12415081.txt,3,0.0852775543041,0.0613738738739,0.188769469584,0.202456734834,0.0998911098515,0.132656626587,0.0287457346707,0.49691204457
tagged_abstract_sents/12415081.txt,4,0.0458567980692,-0.053490990991,0.188769469584,0.202456734834,0.126491746939,0.126073654127,0.0211276390058,0.454802035572
tagged_abstract_sents/12415081.txt,5,0.00844730490748,-0.045045045045,0.0616692308323,0.142474783506,0.0,0.107878790642,0.0408687579611,0.220073433988
tagged_abstract_sents/12415081.txt,6,0.00120675784393,0.17286036036,0.139250797795,0.0356431803763,0.102666677046,0.227464232045,0.0484682311794,0.494454971628
