tagged_abstract_sents/12458990.txt,2,0.0954875100725,-0.0526714041321,0.0616692308323,0.247294108221,0.100200198749,0.0,0.0,0.170878575114
tagged_abstract_sents/12458990.txt,4,0.0253827558421,-0.0543492564811,0.0616692308323,0.247294108221,0.100200198749,0.0,0.0,0.11445920126
tagged_abstract_sents/12458990.txt,5,0.0805801772764,-0.00625082247664,0.0616692308323,0.247294108221,0.100200198749,0.348404047608,0.0225188607938,0.321775518178
tagged_abstract_sents/12458990.txt,6,0.0805801772764,-0.0515528358995,0.0616692308323,0.247294108221,0.100200198749,0.0,0.0,0.159176422524
tagged_abstract_sents/12458990.txt,7,0.123690572119,0.0295433609685,0.0616692308323,0.247294108221,0.100200198749,0.36136472832,0.068535761932,0.524690122773
tagged_abstract_sents/12458990.txt,8,0.140209508461,-0.0498749835505,0.0616692308323,0.247294108221,0.100200198749,0.0,0.0,0.207215457941
tagged_abstract_sents/12458990.txt,9,0.140209508461,0.0105277010133,0.0616692308323,0.247294108221,0.100200198749,0.295548535933,0.0478935809124,0.480505118875
tagged_abstract_sents/12458990.txt,10,0.149879129734,-0.0498749835505,0.0616692308323,0.247294108221,0.100200198749,0.0,0.0,0.21495115496
tagged_abstract_sents/12458990.txt,11,0.149879129734,0.0256283721542,0.0616692308323,0.247294108221,0.100200198749,0.340467134706,0.0698399677071,0.535982109061
tagged_abstract_sents/12458990.txt,12,0.176470588235,-0.0504342676668,0.0616692308323,0.247294108221,0.100200198749,0.0,0.0,0.236112464937
tagged_abstract_sents/12458990.txt,13,0.166800966962,0.0507961573891,0.139250797795,0.194462959676,0.100200198749,0.373083427066,0.0530424365535,0.609743528181
tagged_abstract_sents/12458990.txt,14,0.166800966962,0.089386761416,0.139250797795,0.194462959676,0.100200198749,0.457714870063,0.0634171907757,0.697477206059
tagged_abstract_sents/12458990.txt,15,0.0954875100725,0.0496775891565,0.139250797795,0.194462959676,0.100200198749,0.373058968239,0.0542007159258,0.624279946656
tagged_abstract_sents/12458990.txt,16,0.0954875100725,-0.0526714041321,0.139250797795,0.194462959676,0.100200198749,0.0,0.0,0.193820014032
tagged_abstract_sents/12458990.txt,17,0.0342465753425,0.0183576786419,0.139250797795,0.194462959676,0.100200198749,0.31893353742,0.0494790435208,0.420781227134
tagged_abstract_sents/12458990.txt,18,0.0342465753425,0.0368140544809,0.139250797795,0.194462959676,0.100200198749,0.270127188066,0.0507137865628,0.363713259483
