tagged_abstract_sents/12458990.txt,1,0.125905068383,-0.0526714041321,0.0616692308323,0.142474783506,0.0,0.0,0.0,0.163766824348
tagged_abstract_sents/12458990.txt,2,0.239742558327,0.0569482826688,0.188769469584,0.202456734834,0.0274717974708,0.305797677785,0.0343516022761,0.725926535969
tagged_abstract_sents/12458990.txt,3,0.239742558327,-0.0543492564811,0.0616692308323,0.142474783506,0.0,0.0,0.0,0.254501245833
tagged_abstract_sents/12458990.txt,4,0.218020917136,-0.00625082247664,0.0616692308323,0.142474783506,0.0,0.348404047608,0.0225188607938,0.617666528083
tagged_abstract_sents/12458990.txt,5,0.218020917136,-0.0515528358995,0.0616692308323,0.142474783506,0.0,0.0,0.0,0.237683216997
tagged_abstract_sents/12458990.txt,6,0.162510056315,0.0295433609685,0.0616692308323,0.142474783506,0.0214911811419,0.36136472832,0.068535761932,0.660885439107
tagged_abstract_sents/12458990.txt,7,0.101769911504,-0.0498749835505,0.0616692308323,0.142474783506,0.0,0.0,0.0,0.145017982961
tagged_abstract_sents/12458990.txt,8,0.101769911504,0.0105277010133,0.0616692308323,0.142474783506,0.116262505119,0.295548535933,0.0478935809124,0.616803141839
tagged_abstract_sents/12458990.txt,9,0.0711987127916,-0.0498749835505,0.0616692308323,0.142474783506,0.0,0.0,0.0,0.120561023991
tagged_abstract_sents/12458990.txt,10,0.0711987127916,0.0256283721542,0.0616692308323,0.142474783506,0.0255690602184,0.340467134706,0.0698399677071,0.571537857764
tagged_abstract_sents/12458990.txt,11,0.0458567980692,-0.0504342676668,0.0616692308323,0.142474783506,0.0,0.0,0.0,0.10017563539
tagged_abstract_sents/12458990.txt,12,0.0245374094932,0.0507961573891,0.139250797795,0.0356431803763,0.0887490251148,0.373083427066,0.0530424365535,0.624982400817
tagged_abstract_sents/12458990.txt,13,0.0245374094932,0.089386761416,0.139250797795,0.0356431803763,0.0138128581897,0.457714870063,0.0634171907757,0.652770551917
tagged_abstract_sents/12458990.txt,14,0.00844730490748,0.0496775891565,0.139250797795,0.0356431803763,0.147647795577,0.373058968239,0.0542007159258,0.67191919451
tagged_abstract_sents/12458990.txt,15,0.00844730490748,-0.0526714041321,0.139250797795,0.0356431803763,0.0,0.0,0.0,0.0765419161098
tagged_abstract_sents/12458990.txt,16,0.00120675784393,0.0183576786419,0.139250797795,0.0356431803763,0.110179430122,0.31893353742,0.0494790435208,0.563547306076
tagged_abstract_sents/12458990.txt,17,0.00120675784393,0.0368140544809,0.139250797795,0.0356431803763,0.100200198749,0.270127188066,0.0507137865628,0.50968774356
