tagged_abstract_sents/12490274.txt,2,0.0954875100725,-0.0404839173479,0.0616692308323,0.247294108221,0.112368333899,0.0,0.0,0.117031314515
tagged_abstract_sents/12490274.txt,3,0.0954875100725,0.00425173561188,0.188769469584,0.123191979006,0.112368333899,0.280912854849,0.0235345951205,0.436966438801
tagged_abstract_sents/12490274.txt,5,0.0253827558421,0.0101261142834,0.188769469584,0.123191979006,0.112368333899,0.295794468604,0.0407656086502,0.388053623012
tagged_abstract_sents/12490274.txt,6,0.0805801772764,-0.0418395431952,0.0616692308323,0.247294108221,0.112368333899,0.0,0.0,0.104834323109
tagged_abstract_sents/12490274.txt,7,0.0805801772764,-0.00704514644867,0.210342442448,0.141687475369,0.112368333899,0.241015026658,0.0278678265865,0.461500363061
tagged_abstract_sents/12490274.txt,8,0.123690572119,-0.0210532802038,0.0616692308323,0.247294108221,0.112368333899,0.0802940002105,0.0184862225323,0.195988140331
tagged_abstract_sents/12490274.txt,9,0.123690572119,0.0047036108943,0.0616692308323,0.247294108221,0.112368333899,0.402003019958,0.037247457809,0.578293651615
tagged_abstract_sents/12490274.txt,10,0.140209508461,0.0187117446494,0.0616692308323,0.247294108221,0.112368333899,0.343039633335,0.0402556831107,0.514007679147
tagged_abstract_sents/12490274.txt,11,0.140209508461,-0.0418395431952,0.0616692308323,0.247294108221,0.112368333899,0.0,0.0,0.152537788057
tagged_abstract_sents/12490274.txt,12,0.149073327961,0.0372386312287,0.139250797795,0.194462959676,0.112368333899,0.339176410289,0.0353346173094,0.565279721651
tagged_abstract_sents/12490274.txt,13,0.149879129734,0.00786673787126,0.139250797795,0.194462959676,0.112368333899,0.144416697665,0.0270971398675,0.34761102472
tagged_abstract_sents/12490274.txt,14,0.149879129734,0.0110298648482,0.139250797795,0.194462959676,0.112368333899,0.246039865896,0.0396949967058,0.49161863624
tagged_abstract_sents/12490274.txt,15,0.176470588235,0.000636733352504,0.139250797795,0.194462959676,0.112368333899,0.135999808977,0.0231077781653,0.412283913533
tagged_abstract_sents/12490274.txt,16,0.176470588235,0.00831861315368,0.139250797795,0.194462959676,0.112368333899,0.238889215089,0.0294684726582,0.592305340935
tagged_abstract_sents/12490274.txt,17,0.166800966962,-0.0151789015323,0.139250797795,0.194462959676,0.112368333899,0.252074338372,0.0350976630624,0.516121766588
tagged_abstract_sents/12490274.txt,18,0.166800966962,-0.0318982869819,0.139250797795,0.194462959676,0.112368333899,0.0514884923359,0.00570531665753,0.253901130199
tagged_abstract_sents/12490274.txt,19,0.0954875100725,0.08784866286,0.139250797795,0.194462959676,0.112368333899,0.403872546342,0.0394978669743,0.625680093022
tagged_abstract_sents/12490274.txt,20,0.0954875100725,-0.0400320420655,0.0616692308323,0.247294108221,0.112368333899,0.0,0.0,0.117121689572
tagged_abstract_sents/12490274.txt,21,0.0342465753425,0.0291048761451,0.139250797795,0.194462959676,0.112368333899,0.397649131394,0.0326896246411,0.501681010436
tagged_abstract_sents/12490274.txt,22,0.0342465753425,0.032268003122,0.139250797795,0.194462959676,0.112368333899,0.392888989818,0.0390484559041,0.51456537185
tagged_abstract_sents/12490274.txt,23,0.0342465753425,-0.022408906051,0.139250797795,0.194462959676,0.112368333899,0.201351326647,0.0452389257063,0.387603958257
