tagged_abstract_sents/12506950.txt,3,0.0108608205953,-0.0266362252664,0.188769469584,0.129715814208,0.267401727794,0.127071699222,0.035972629521,0.387881816126
tagged_abstract_sents/12506950.txt,4,0.0353982300885,-0.0327245053272,0.139250797795,0.521468892835,0.267401727794,0.104272666926,0.0465395894428,0.513139850717
tagged_abstract_sents/12506950.txt,6,0.206355591311,0.00076103500761,0.139250797795,0.521468892835,0.267401727794,0.0517689433969,0.0561583577713,0.499190645351
tagged_abstract_sents/12506950.txt,7,0.262268704747,0.058599695586,0.139250797795,0.521468892835,0.267401727794,0.138964986982,0.0550470751659,0.777046890337
