tagged_abstract_sents/12535435.txt,2,0.206355591311,-0.0331624333033,0.0616692308323,0.106008497564,0.149198968349,0.0,0.0,0.221089151074
tagged_abstract_sents/12535435.txt,3,0.206355591311,0.0115716279859,0.188769469584,0.129715814208,0.149198968349,0.139241270522,0.0782386293603,0.528573183464
tagged_abstract_sents/12535435.txt,4,0.206355591311,-0.0331624333033,0.0616692308323,0.106008497564,0.149198968349,0.0,0.0,0.221089151074
tagged_abstract_sents/12535435.txt,6,0.206355591311,-0.031401249788,0.0616692308323,0.106008497564,0.149198968349,0.0,0.0,0.221441387777
tagged_abstract_sents/12535435.txt,7,0.0048270313757,0.045034114777,0.0616692308323,0.106008497564,0.149198968349,0.151723231317,0.0564171699741,0.277647315098
tagged_abstract_sents/12535435.txt,8,0.0048270313757,-0.000756656621398,0.0616692308323,0.106008497564,0.149198968349,0.178620835566,0.0723684210526,0.355729915506
tagged_abstract_sents/12535435.txt,9,0.0048270313757,-0.0303445396788,0.0616692308323,0.106008497564,0.149198968349,0.0,0.0,0.0604298818501
tagged_abstract_sents/12535435.txt,10,0.0108608205953,0.0246043859992,0.0616692308323,0.106008497564,0.149198968349,0.201858906174,0.0790321089609,0.432756790086
tagged_abstract_sents/12535435.txt,11,0.0108608205953,0.00382242051844,0.0616692308323,0.106008497564,0.149198968349,0.138569884843,0.0560828300259,0.227643987205
tagged_abstract_sents/12535435.txt,12,0.0261464199517,-0.0268221726482,0.0616692308323,0.106008497564,0.149198968349,0.0,0.0,0.078189866117
tagged_abstract_sents/12535435.txt,13,0.0261464199517,0.0242521492962,0.0616692308323,0.106008497564,0.149198968349,0.209222815015,0.0749183409343,0.385501116554
tagged_abstract_sents/12535435.txt,14,0.0261464199517,-0.0229475689145,0.0616692308323,0.106008497564,0.149198968349,0.0773636144848,0.0653272525576,0.302168035263
tagged_abstract_sents/12535435.txt,15,0.0518905872888,0.0372849073096,0.139250797795,0.521468892835,0.149198968349,0.145524654241,0.0632523932783,0.446859522786
tagged_abstract_sents/12535435.txt,16,0.0518905872888,-0.0120282311195,0.0616692308323,0.106008497564,0.149198968349,0.0901267353156,0.03522702761,0.214284978407
tagged_abstract_sents/12535435.txt,17,0.0518905872888,-0.00463126035511,0.0616692308323,0.106008497564,0.149198968349,0.127945802311,0.0644839017302,0.283556359035
tagged_abstract_sents/12535435.txt,18,0.0993563958166,-0.0324579598972,0.0616692308323,0.106008497564,0.149198968349,0.0,0.0,0.135630689359
tagged_abstract_sents/12535435.txt,19,0.0993563958166,-0.0247087524298,0.0616692308323,0.106008497564,0.149198968349,0.0592716097115,0.0389638403012,0.227406235303
tagged_abstract_sents/12535435.txt,20,0.172566371681,0.0203775455625,0.139250797795,0.521468892835,0.149198968349,0.148040410479,0.0521157669655,0.550114821113
tagged_abstract_sents/12535435.txt,22,0.172566371681,0.0154462317196,0.139250797795,0.521468892835,0.149198968349,0.157923964296,0.0567018044041,0.563273876995
tagged_abstract_sents/12535435.txt,23,0.206355591311,-0.0127327045256,0.139250797795,0.521468892835,0.149198968349,0.0886691249183,0.0427523727351,0.51023346168
tagged_abstract_sents/12535435.txt,24,0.206355591311,0.0408072743402,0.139250797795,0.521468892835,0.149198968349,0.185176344042,0.0515690409996,0.728172499609
tagged_abstract_sents/12535435.txt,25,0.206355591311,-0.00392678694898,0.139250797795,0.521468892835,0.149198968349,0.154577887998,0.0414444270139,0.572400583603
tagged_abstract_sents/12535435.txt,26,0.262268704747,-0.0289355928666,0.0616692308323,0.106008497564,0.149198968349,0.0,0.0,0.266665009909
tagged_abstract_sents/12535435.txt,27,0.262268704747,0.00206123700312,0.139250797795,0.521468892835,0.149198968349,0.155643578767,0.0564063848145,0.735786333115
tagged_abstract_sents/12535435.txt,28,0.262268704747,0.0154462317196,0.139250797795,0.521468892835,0.149198968349,0.170568327979,0.061439459304,0.715630254159
