tagged_abstract_sents/12537734.txt,4,0.0261464199517,0.00678166003243,0.194899689933,0.0581677376677,0.164111955123,0.61849309086,0.00870602793,0.759674556338
tagged_abstract_sents/12537734.txt,5,0.0518905872888,-0.0716497125166,0.139250797795,0.521468892835,0.164111955123,0.184767331062,0.000309351246244,0.437092827094
tagged_abstract_sents/12537734.txt,6,0.172566371681,-0.0520418693793,0.139250797795,0.521468892835,0.164111955123,0.412452472179,0.00167381120735,0.772366696935
tagged_abstract_sents/12537734.txt,7,0.206355591311,0.0738611233967,0.139250797795,0.521468892835,0.164111955123,0.462614280012,0.00579812621531,0.887043213629
tagged_abstract_sents/12537734.txt,8,0.262268704747,-0.00973020787262,0.139250797795,0.521468892835,0.164111955123,0.545999918244,0.0041076263223,1.03699387873
