tagged_abstract_sents/12569376.txt,2,0.206355591311,-0.0450495049505,0.188769469584,0.129715814208,0.192829909294,0.213361432712,0.0123781933105,0.604823458829
tagged_abstract_sents/12569376.txt,3,0.206355591311,0.00181518151815,0.188769469584,0.129715814208,0.192829909294,0.268283046484,0.00992889122992,0.582200246879
tagged_abstract_sents/12569376.txt,4,0.0048270313757,-0.00610561056106,0.0616692308323,0.106008497564,0.192829909294,0.352340712501,0.0239399525942,0.501913094421
tagged_abstract_sents/12569376.txt,5,0.0108608205953,-0.0305280528053,0.0616692308323,0.106008497564,0.192829909294,0.34456166853,0.0153673953121,0.478041142502
tagged_abstract_sents/12569376.txt,6,0.0261464199517,-0.0305280528053,0.0616692308323,0.106008497564,0.192829909294,0.186451830268,0.00535510490738,0.290410836649
tagged_abstract_sents/12569376.txt,7,0.0353982300885,-0.0556105610561,0.0616692308323,0.106008497564,0.192829909294,0.158071337873,0.00584193262624,0.239382463848
tagged_abstract_sents/12569376.txt,8,0.0518905872888,-0.0311881188119,0.0616692308323,0.106008497564,0.192829909294,0.245409912686,0.00399696354707,0.347011912537
tagged_abstract_sents/12569376.txt,9,0.0993563958166,0.00973597359736,0.139250797795,0.521468892835,0.192829909294,0.340973357954,0.00933067459272,0.667583019332
tagged_abstract_sents/12569376.txt,12,0.262268704747,-0.0503300330033,0.139250797795,0.521468892835,0.192829909294,0.0843903213084,0.00734497995494,0.529245666471
tagged_abstract_sents/12569376.txt,13,0.262268704747,0.0486798679868,0.139250797795,0.521468892835,0.192829909294,0.414078148358,0.0127293477307,0.980344434466
