tagged_abstract_sents/12586995.txt,2,0.206355591311,-0.0387409654346,0.0616692308323,0.106008497564,0.0226588376323,0.0,0.0,0.219973444647
tagged_abstract_sents/12586995.txt,3,0.206355591311,-0.0197917836947,0.188769469584,0.129715814208,0.0226588376323,0.306257737457,0.02047067613,0.743068180104
tagged_abstract_sents/12586995.txt,4,0.206355591311,-0.0137624985957,0.188769469584,0.129715814208,0.0226588376323,0.301331966251,0.0292118042585,0.646350675324
tagged_abstract_sents/12586995.txt,5,0.206355591311,-0.039171628656,0.0616692308323,0.106008497564,0.0226588376323,0.0,0.0,0.219887312003
tagged_abstract_sents/12586995.txt,7,0.0048270313757,0.0064786728083,0.139250797795,0.521468892835,0.0226588376323,0.478445060758,0.0386545614007,0.825953147424
tagged_abstract_sents/12586995.txt,8,0.0108608205953,-0.0124705089316,0.139250797795,0.521468892835,0.0226588376323,0.410184444682,0.0304652803719,0.67682243648
tagged_abstract_sents/12586995.txt,9,0.0108608205953,0.018106579785,0.139250797795,0.521468892835,0.0226588376323,0.448289489269,0.0184108010033,0.82236977649
tagged_abstract_sents/12586995.txt,10,0.0108608205953,0.00346403025877,0.139250797795,0.521468892835,0.0226588376323,0.313843742025,0.0300242809115,0.594466919177
tagged_abstract_sents/12586995.txt,11,0.0261464199517,0.0293038235404,0.139250797795,0.521468892835,0.0226588376323,0.306517032545,0.00928900510522,0.563285638575
tagged_abstract_sents/12586995.txt,12,0.0261464199517,-0.00514923416845,0.139250797795,0.521468892835,0.0226588376323,0.401650790513,0.0327792304819,0.668740287359
tagged_abstract_sents/12586995.txt,13,0.0518905872888,0.00303336703741,0.139250797795,0.521468892835,0.0226588376323,0.282291740042,0.0267199894526,0.607028769707
tagged_abstract_sents/12586995.txt,14,0.0518905872888,0.0249971913268,0.139250797795,0.521468892835,0.0226588376323,0.388243329802,0.0344651318247,0.706080324338
tagged_abstract_sents/12586995.txt,15,0.0993563958166,-0.0400329550987,0.139250797795,0.521468892835,0.0226588376323,0.0,0.0,0.297544592381
tagged_abstract_sents/12586995.txt,16,0.0993563958166,-0.0215144365802,0.139250797795,0.521468892835,0.0226588376323,0.251036981645,0.0295106462458,0.579199491808
tagged_abstract_sents/12586995.txt,17,0.0993563958166,-0.0103171928248,0.139250797795,0.521468892835,0.0226588376323,0.225271022128,0.0297908106089,0.556640318207
tagged_abstract_sents/12586995.txt,18,0.172566371681,0.0305958132045,0.139250797795,0.521468892835,0.0226588376323,0.408505832679,0.0358020565047,0.883538067859
tagged_abstract_sents/12586995.txt,19,0.172566371681,0.00260270381605,0.139250797795,0.521468892835,0.0226588376323,0.327455828444,0.0226621840369,0.711022339382
tagged_abstract_sents/12586995.txt,20,0.206355591311,0.0198292326705,0.139250797795,0.521468892835,0.0226588376323,0.356449710992,0.0514843217825,0.826895766401
tagged_abstract_sents/12586995.txt,22,0.262268704747,-0.0387409654346,0.139250797795,0.521468892835,0.0226588376323,0.0,0.0,0.428132837458
tagged_abstract_sents/12586995.txt,23,0.262268704747,0.0271505074336,0.139250797795,0.521468892835,0.0226588376323,0.529687252315,0.0229112190263,0.9884759166
tagged_abstract_sents/12586995.txt,24,0.262268704747,-0.003426581283,0.139250797795,0.521468892835,0.0226588376323,0.42620308733,0.0285954426597,0.882415490973
