tagged_abstract_sents/12639199.txt,2,0.206355591311,-0.0650183150183,0.0616692308323,0.106008497564,0.193270456638,0.0,0.0,0.214717974731
tagged_abstract_sents/12639199.txt,4,0.0048270313757,-0.0656010656011,0.0616692308323,0.106008497564,0.193270456638,0.0,0.0,0.0533785766656
tagged_abstract_sents/12639199.txt,5,0.0048270313757,-0.01665001665,0.0616692308323,0.106008497564,0.193270456638,0.239171436644,0.0701039278882,0.455393997992
tagged_abstract_sents/12639199.txt,6,0.0108608205953,-0.0667665667666,0.0616692308323,0.106008497564,0.193270456638,0.0,0.0,0.0579725078082
tagged_abstract_sents/12639199.txt,8,0.0353982300885,-0.0667665667666,0.139250797795,0.521468892835,0.193270456638,0.0,0.0,0.241031337465
tagged_abstract_sents/12639199.txt,9,0.0518905872888,0.115634365634,0.139250797795,0.521468892835,0.193270456638,0.458772801646,0.069762672136,0.827045281854
tagged_abstract_sents/12639199.txt,10,0.0993563958166,-0.0265567765568,0.139250797795,0.521468892835,0.193270456638,0.215422493212,0.0552391590976,0.601442521575
tagged_abstract_sents/12639199.txt,11,0.172566371681,0.0340492840493,0.139250797795,0.521468892835,0.193270456638,0.281811785668,0.0546696454732,0.841936591969
tagged_abstract_sents/12639199.txt,12,0.172566371681,0.00666000666001,0.139250797795,0.521468892835,0.193270456638,0.391207790541,0.105977146206,0.854061751111
tagged_abstract_sents/12639199.txt,13,0.206355591311,0.0334665334665,0.139250797795,0.521468892835,0.193270456638,0.282827795331,0.0911404922356,0.777835702934
tagged_abstract_sents/12639199.txt,14,0.262268704747,-0.0650183150183,0.139250797795,0.521468892835,0.193270456638,0.0,0.0,0.422877367542
tagged_abstract_sents/12639199.txt,15,0.262268704747,0.0556110556111,0.139250797795,0.521468892835,0.193270456638,0.344442489083,0.0743257875897,0.911020067644
