tagged_abstract_sents/12665175.txt,2,0.0954875100725,-0.0548928077455,0.0616692308323,0.247294108221,0.172511313405,0.0,0.0,0.170434294391
tagged_abstract_sents/12665175.txt,3,0.0253827558421,0.0287863070539,0.188769469584,0.123191979006,0.172511313405,0.352591508637,0.0283389740756,0.531302695598
tagged_abstract_sents/12665175.txt,5,0.0805801772764,-0.0569674965422,0.0616692308323,0.247294108221,0.172511313405,0.0,0.0,0.158093490395
tagged_abstract_sents/12665175.txt,6,0.123690572119,0.019795988935,0.0616692308323,0.247294108221,0.172511313405,0.44886171424,0.0575215740078,0.73713801125
tagged_abstract_sents/12665175.txt,7,0.123690572119,-0.00648340248963,0.0616692308323,0.247294108221,0.172511313405,0.207749496811,0.0214095834175,0.376549220136
tagged_abstract_sents/12665175.txt,8,0.140209508461,0.0516078838174,0.0616692308323,0.247294108221,0.172511313405,0.383512304152,0.0369067147857,0.684666991575
tagged_abstract_sents/12665175.txt,9,0.149073327961,0.0405428769018,0.210342442448,0.141687475369,0.172511313405,0.48742079387,0.0508256780402,0.817279242885
tagged_abstract_sents/12665175.txt,10,0.149879129734,-0.0251556016598,0.0616692308323,0.247294108221,0.172511313405,0.106546453432,0.0125157966365,0.285983781728
tagged_abstract_sents/12665175.txt,11,0.176470588235,0.0419260027663,0.0616692308323,0.247294108221,0.172511313405,0.415972051294,0.0502437195351,0.703047837681
tagged_abstract_sents/12665175.txt,12,0.176470588235,-0.00233402489627,0.0616692308323,0.247294108221,0.172511313405,0.281475255068,0.055490622266,0.5626681645
tagged_abstract_sents/12665175.txt,13,0.166800966962,-0.0569674965422,0.0616692308323,0.247294108221,0.172511313405,0.0,0.0,0.227070122144
tagged_abstract_sents/12665175.txt,14,0.0954875100725,-0.0293049792531,0.139250797795,0.194462959676,0.172511313405,0.171328621675,0.037693205016,0.374258540567
tagged_abstract_sents/12665175.txt,15,0.0954875100725,0.0536825726141,0.139250797795,0.194462959676,0.172511313405,0.502913098546,0.0591530876349,0.804218028998
tagged_abstract_sents/12665175.txt,16,0.0342465753425,-0.0548928077455,0.0616692308323,0.247294108221,0.172511313405,0.0,0.0,0.121441546607
tagged_abstract_sents/12665175.txt,17,0.0342465753425,0.00250691562932,0.139250797795,0.194462959676,0.172511313405,0.358778631837,0.0426509186352,0.549111064942
