tagged_abstract_sents/12679432.txt,1,0.125905068383,0.0536266059522,0.188769469584,0.202456734834,0.0485487933438,0.264933810988,0.0162129291795,0.596266664651
tagged_abstract_sents/12679432.txt,2,0.239742558327,0.0504553585949,0.210342442448,0.226435992083,0.00991778612083,0.190979879115,0.0139948460184,0.589879648484
tagged_abstract_sents/12679432.txt,3,0.218020917136,0.11810863555,0.139250797795,0.0356431803763,0.00783389343701,0.350397151276,0.0159067290698,0.652494587612
tagged_abstract_sents/12679432.txt,4,0.162510056315,0.00658643681899,0.139250797795,0.0356431803763,0.105681686372,0.260573401266,0.00768183282918,0.585580605894
tagged_abstract_sents/12679432.txt,5,0.162510056315,-0.00874125874126,0.139250797795,0.0356431803763,0.0,0.10268956846,0.0195168289471,0.330784543721
tagged_abstract_sents/12679432.txt,6,0.101769911504,-0.0446820621239,0.139250797795,0.0356431803763,0.0,0.116582230352,0.0076580730524,0.277038173193
tagged_abstract_sents/12679432.txt,7,0.0711987127916,-0.0230118718491,0.139250797795,0.0356431803763,0.0,0.213297811632,0.00884086444008,0.354813624946
tagged_abstract_sents/12679432.txt,8,0.0458567980692,-0.0214262481704,0.139250797795,0.0356431803763,0.0,0.0939282701953,0.013425016372,0.220071828399
tagged_abstract_sents/12679432.txt,9,0.0458567980692,-0.0489103919336,0.139250797795,0.0356431803763,0.0,0.14170494457,0.00889483797146,0.25782149562
tagged_abstract_sents/12679432.txt,10,0.0245374094932,-0.0214262481704,0.139250797795,0.0356431803763,0.179239186616,0.1632485363,0.0103106489209,0.448461402807
tagged_abstract_sents/12679432.txt,11,0.00844730490748,-0.020369165718,0.139250797795,0.0356431803763,0.158929485379,0.191671615495,0.0151435649001,0.448747029567
tagged_abstract_sents/12679432.txt,12,0.00120675784393,-0.0356968612783,0.139250797795,0.0356431803763,0.0,0.177185387557,0.0111843951726,0.26251416976
tagged_abstract_sents/12679432.txt,13,0.00120675784393,-0.00451292893153,0.139250797795,0.0356431803763,0.0,0.170626924953,0.00963182200903,0.260639920461
