tagged_abstract_sents/12728140.txt,1,0.125905068383,-0.085078187119,0.0616692308323,0.142474783506,0.0,0.0,0.0,0.15728546775
tagged_abstract_sents/12728140.txt,2,0.239742558327,0.0163795388285,0.188769469584,0.202456734834,0.146697980799,0.160641716109,0.0227959055612,0.680327312139
tagged_abstract_sents/12728140.txt,3,0.218020917136,-0.086244367877,0.0616692308323,0.142474783506,0.0,0.0,0.0,0.230744910601
tagged_abstract_sents/12728140.txt,4,0.162510056315,0.0811025708985,0.210342442448,0.226435992083,0.17175173335,0.268451993075,0.0334609577222,0.792995262228
tagged_abstract_sents/12728140.txt,5,0.101769911504,-0.086244367877,0.0616692308323,0.142474783506,0.0,0.0,0.0,0.137744106096
tagged_abstract_sents/12728140.txt,6,0.0711987127916,-0.0221044261861,0.139250797795,0.0356431803763,0.0,0.116172824696,0.0277825711821,0.276811833885
tagged_abstract_sents/12728140.txt,7,0.0458567980692,0.22162735224,0.139250797795,0.0356431803763,0.014325342764,0.252072832083,0.0278780035035,0.455605440264
tagged_abstract_sents/12728140.txt,8,0.0245374094932,0.0181288099655,0.139250797795,0.0356431803763,0.00636682346911,0.122923650548,0.0325307377049,0.26539525432
tagged_abstract_sents/12728140.txt,9,0.00844730490748,0.0146302676915,0.139250797795,0.0356431803763,0.0444876643944,0.188458411652,0.0237812769629,0.346729603484
tagged_abstract_sents/12728140.txt,10,0.00120675784393,-0.083912006361,0.0616692308323,0.142474783506,0.0,0.0,0.0,0.0577600554708
tagged_abstract_sents/12728140.txt,11,0.00120675784393,0.0117148157964,0.139250797795,0.0356431803763,0.0616669126609,0.150644617393,0.0223360655738,0.318274318073
