tagged_abstract_sents/12756388.txt,2,0.206355591311,-0.0560938500961,0.0616692308323,0.106008497564,0.164752482675,0.0,0.0,0.216502867715
tagged_abstract_sents/12756388.txt,4,0.206355591311,-0.0541720051249,0.0616692308323,0.106008497564,0.164752482675,0.0,0.0,0.216887236709
tagged_abstract_sents/12756388.txt,5,0.0048270313757,0.022701793722,0.210342442448,0.0253702522065,0.164752482675,0.265857551247,0.0301336004116,0.4736130533
tagged_abstract_sents/12756388.txt,6,0.0108608205953,0.0694666880205,0.0616692308323,0.106008497564,0.164752482675,0.399692876742,0.0445565642458,0.587643594168
tagged_abstract_sents/12756388.txt,7,0.0108608205953,0.00924887892377,0.0616692308323,0.106008497564,0.164752482675,0.218555008342,0.0262744413408,0.323683708296
tagged_abstract_sents/12756388.txt,8,0.0261464199517,0.0233424087124,0.0616692308323,0.106008497564,0.164752482675,0.299853636192,0.0379539106145,0.444220789148
tagged_abstract_sents/12756388.txt,9,0.0353982300885,-0.0573750800769,0.0616692308323,0.106008497564,0.164752482675,0.0,0.0,0.0794807327407
tagged_abstract_sents/12756388.txt,10,0.0518905872888,0.0124519538757,0.139250797795,0.521468892835,0.164752482675,0.295084137371,0.0281948324022,0.700344648308
tagged_abstract_sents/12756388.txt,11,0.0993563958166,0.0214205637412,0.139250797795,0.521468892835,0.164752482675,0.294815378998,0.0374039804469,0.67806379276
tagged_abstract_sents/12756388.txt,13,0.172566371681,0.0182174887892,0.139250797795,0.521468892835,0.164752482675,0.366258426471,0.0375,0.831420518774
tagged_abstract_sents/12756388.txt,14,0.206355591311,-0.0548126201153,0.0616692308323,0.106008497564,0.164752482675,0.0,0.0,0.216759113711
tagged_abstract_sents/12756388.txt,15,0.206355591311,0.00924887892377,0.139250797795,0.521468892835,0.164752482675,0.232028712098,0.0532581180168,0.810966334972
tagged_abstract_sents/12756388.txt,16,0.262268704747,-0.0202194106342,0.139250797795,0.521468892835,0.164752482675,0.0876178046786,0.0208078736034,0.673226977595
tagged_abstract_sents/12756388.txt,17,0.262268704747,-0.00100096092249,0.139250797795,0.521468892835,0.164752482675,0.221441201346,0.0376603962989,0.754063288229
