tagged_abstract_sents/12759325.txt,2,0.206355591311,-0.0390851887706,0.0616692308323,0.106008497564,0.0379034920842,0.0,0.0,0.21990459998
tagged_abstract_sents/12759325.txt,3,0.206355591311,0.00447725072604,0.188769469584,0.129715814208,0.0379034920842,0.194665140353,0.0769014875105,0.635578977411
tagged_abstract_sents/12759325.txt,4,0.206355591311,-0.0116569861246,0.188769469584,0.129715814208,0.0379034920842,0.126407763036,0.0773536657623,0.508740075338
tagged_abstract_sents/12759325.txt,5,0.206355591311,-0.0384398192965,0.0616692308323,0.106008497564,0.0379034920842,0.0,0.0,0.220033673875
tagged_abstract_sents/12759325.txt,7,0.0048270313757,-0.0310180703453,0.0616692308323,0.106008497564,0.0379034920842,0.0,0.0,0.0602951757168
tagged_abstract_sents/12759325.txt,8,0.0048270313757,-0.00617134559535,0.0616692308323,0.106008497564,0.0379034920842,0.129598792854,0.069697820189,0.264542844609
tagged_abstract_sents/12759325.txt,9,0.0108608205953,-0.00262181348822,0.0616692308323,0.106008497564,0.0379034920842,0.18983140773,0.0877863061172,0.364260243323
tagged_abstract_sents/12759325.txt,10,0.0108608205953,-0.00262181348822,0.0616692308323,0.106008497564,0.0379034920842,0.113905148581,0.0877812814713,0.351594853297
tagged_abstract_sents/12759325.txt,11,0.0261464199517,-0.0365037108745,0.0616692308323,0.106008497564,0.0379034920842,0.0,0.0,0.0762535584718
tagged_abstract_sents/12759325.txt,12,0.0261464199517,0.000927718618909,0.0616692308323,0.106008497564,0.0379034920842,0.172159316616,0.0714168771634,0.335511710727
tagged_abstract_sents/12759325.txt,13,0.0353982300885,0.00383188125202,0.0616692308323,0.106008497564,0.0379034920842,0.156122394906,0.0843724523208,0.329502829777
tagged_abstract_sents/12759325.txt,14,0.0518905872888,-0.0368263956115,0.0616692308323,0.106008497564,0.0379034920842,0.0,0.0,0.096784355394
tagged_abstract_sents/12759325.txt,15,0.0518905872888,0.00221845756696,0.139250797795,0.521468892835,0.0379034920842,0.194476465507,0.0747235475723,0.551888293072
tagged_abstract_sents/12759325.txt,16,0.0993563958166,0.0906340755082,0.139250797795,0.521468892835,0.0379034920842,0.196601123246,0.102795189239,0.62293996496
tagged_abstract_sents/12759325.txt,18,0.172566371681,0.0148031623104,0.139250797795,0.521468892835,0.0379034920842,0.173459617283,0.104516223505,0.641048049478
tagged_abstract_sents/12759325.txt,19,0.172566371681,0.0280332365279,0.139250797795,0.521468892835,0.0379034920842,0.187129854344,0.0978164468145,0.647836467488
tagged_abstract_sents/12759325.txt,20,0.172566371681,0.00576798967409,0.139250797795,0.521468892835,0.0379034920842,0.197403759216,0.109267471232,0.666978988821
tagged_abstract_sents/12759325.txt,21,0.206355591311,0.0180300096805,0.139250797795,0.521468892835,0.0379034920842,0.185686413164,0.113820282533,0.689821147398
tagged_abstract_sents/12759325.txt,22,0.206355591311,-0.0203694740239,0.139250797795,0.521468892835,0.0379034920842,0.105435387337,0.0784203661818,0.663384733031
tagged_abstract_sents/12759325.txt,23,0.262268704747,-0.0377944498225,0.0616692308323,0.106008497564,0.0379034920842,0.0,0.0,0.264893238518
tagged_abstract_sents/12759325.txt,24,0.262268704747,0.00447725072604,0.139250797795,0.521468892835,0.0379034920842,0.197616862915,0.108595544745,0.780342189909
tagged_abstract_sents/12759325.txt,25,0.262268704747,0.0135124233624,0.139250797795,0.521468892835,0.0379034920842,0.248980629258,0.0880227336514,0.739281110988
