tagged_abstract_sents/12788588.txt,3,0.0108608205953,0.0762324518446,0.188769469584,0.129715814208,0.0302349343831,0.40140577049,0.101997265358,0.636922784669
tagged_abstract_sents/12788588.txt,4,0.0353982300885,0.0380346065948,0.188769469584,0.129715814208,0.0302349343831,0.39694605077,0.068439300713,0.614391764297
tagged_abstract_sents/12788588.txt,6,0.206355591311,-0.0775383610839,0.188769469584,0.129715814208,0.0302349343831,0.179097484433,0.0284939935541,0.489987244413
tagged_abstract_sents/12788588.txt,7,0.262268704747,-0.049134835129,0.188769469584,0.129715814208,0.0302349343831,0.315076624394,0.10364781717,0.759283988319
