tagged_abstract_sents/12804123.txt,1,0.239742558327,-0.105897346773,0.0616692308323,0.142474783506,0.0,0.0,0.0,0.244191627775
tagged_abstract_sents/12804123.txt,2,0.218020917136,0.0082840922257,0.188769469584,0.202456734834,0.118688475081,0.724654605888,0.031141012442,1.20567940081
tagged_abstract_sents/12804123.txt,3,0.162510056315,-0.107461476075,0.0616692308323,0.142474783506,0.0,0.0,0.0,0.182092800305
tagged_abstract_sents/12804123.txt,4,0.101769911504,0.241339358128,0.194899689933,0.13295610691,0.0446015100184,0.543713097402,0.0358909080268,0.891225993316
tagged_abstract_sents/12804123.txt,5,0.0711987127916,-0.106940099641,0.0616692308323,0.142474783506,0.0,0.0,0.0,0.109148000773
tagged_abstract_sents/12804123.txt,6,0.0458567980692,-0.0699223728421,0.139250797795,0.0356431803763,0.0,0.161067076429,0.0254507146791,0.289537108005
tagged_abstract_sents/12804123.txt,7,0.0245374094932,0.235604217356,0.139250797795,0.0356431803763,0.138708425239,0.761960415848,0.0472628767072,1.09500084187
tagged_abstract_sents/12804123.txt,8,0.00844730490748,-0.104854593906,0.139250797795,0.0356431803763,0.0,0.0,0.0,0.0661052781551
tagged_abstract_sents/12804123.txt,9,0.00120675784393,0.00984822152705,0.139250797795,0.0356431803763,0.057410609518,0.611064837781,0.0265999473268,0.778328798217
