tagged_abstract_sents/12804508.txt,1,0.125905068383,-0.0344278017545,0.0616692308323,0.142474783506,0.0,0.0,0.0,0.167415544823
tagged_abstract_sents/12804508.txt,2,0.125905068383,-0.0175594482525,0.188769469584,0.202456734834,0.0684253696614,0.0493660616962,0.0652601204416,0.435385472098
tagged_abstract_sents/12804508.txt,3,0.239742558327,0.0407463823305,0.188769469584,0.202456734834,0.06612672345,0.201549850941,0.0553278688525,0.678069521613
tagged_abstract_sents/12804508.txt,4,0.239742558327,0.0799836393896,0.188769469584,0.202456734834,0.0468181137016,0.204079383272,0.0533213797814,0.667131406537
tagged_abstract_sents/12804508.txt,5,0.239742558327,-0.0344278017545,0.0616692308323,0.142474783506,0.0,0.0,0.0,0.258485536778
tagged_abstract_sents/12804508.txt,6,0.218020917136,0.0180107754365,0.0616692308323,0.142474783506,0.0341752613812,0.147780995595,0.0524919496487,0.486044145889
tagged_abstract_sents/12804508.txt,7,0.218020917136,-0.0325942850695,0.0616692308323,0.142474783506,0.0,0.0,0.0,0.241474927163
tagged_abstract_sents/12804508.txt,8,0.162510056315,0.0114101153705,0.0616692308323,0.142474783506,0.0241066929684,0.0888252304451,0.0285646730319,0.34736371504
tagged_abstract_sents/12804508.txt,9,0.162510056315,-0.00582494146851,0.0616692308323,0.142474783506,0.0542265572691,0.103414290168,0.0148147373704,0.374875692034
tagged_abstract_sents/12804508.txt,10,0.162510056315,-0.0314941750585,0.0616692308323,0.142474783506,0.0,0.0,0.0,0.197286260508
tagged_abstract_sents/12804508.txt,11,0.101769911504,0.0128769287185,0.0616692308323,0.142474783506,0.0861602039453,0.146950897985,0.0545136855972,0.445193152943
tagged_abstract_sents/12804508.txt,12,0.101769911504,-0.0278271416885,0.0616692308323,0.142474783506,0.0,0.0,0.0,0.149427551334
tagged_abstract_sents/12804508.txt,13,0.0852775543041,-0.0131590082085,0.0616692308323,0.142474783506,0.0511044720817,0.115457621585,0.0196135831382,0.325342969075
tagged_abstract_sents/12804508.txt,14,0.0711987127916,-0.00619164480551,0.0616692308323,0.142474783506,0.0638426414567,0.0713228603756,0.019350117096,0.283813310668
tagged_abstract_sents/12804508.txt,15,0.0711987127916,0.000775718597501,0.0616692308323,0.142474783506,0.145186638848,0.0874017263123,0.0224556010929,0.385735130674
tagged_abstract_sents/12804508.txt,16,0.0458567980692,-0.0336943950805,0.0616692308323,0.142474783506,0.0,0.0,0.0,0.103523609907
tagged_abstract_sents/12804508.txt,17,0.0458567980692,-0.0168260415785,0.0616692308323,0.142474783506,0.0690659631796,0.0869240116203,0.0185036104606,0.281390865868
tagged_abstract_sents/12804508.txt,18,0.0458567980692,-0.00655834814251,0.0616692308323,0.142474783506,0.0899308430147,0.100767522982,0.0799058352849,0.379555020576
tagged_abstract_sents/12804508.txt,19,0.0245374094932,0.00517615864151,0.0616692308323,0.142474783506,0.0860092120755,0.175252778172,0.0429095279182,0.398413727956
tagged_abstract_sents/12804508.txt,20,0.0245374094932,-0.0124256015345,0.139250797795,0.0356431803763,0.0547017379078,0.0773341982408,0.0240712156696,0.253570312116
tagged_abstract_sents/12804508.txt,21,0.00844730490748,0.0422131956785,0.139250797795,0.0356431803763,0.0610960139691,0.212221268014,0.044823004864,0.413659122919
tagged_abstract_sents/12804508.txt,22,0.00844730490748,0.0209444021325,0.139250797795,0.0356431803763,0.0855163742243,0.177599382213,0.044889375077,0.399270208877
tagged_abstract_sents/12804508.txt,23,0.00844730490748,-0.0300273617105,0.0616692308323,0.142474783506,0.0,0.0,0.0,0.0743294220517
tagged_abstract_sents/12804508.txt,24,0.00120675784393,0.0286451722095,0.139250797795,0.0356431803763,0.0363647022176,0.149826653819,0.0330633619568,0.306267511721
tagged_abstract_sents/12804508.txt,25,0.00120675784393,0.0407463823305,0.139250797795,0.0356431803763,0.115663648383,0.182997581962,0.0576349392216,0.445729205318
tagged_abstract_sents/12804508.txt,26,0.00120675784393,0.0015091252715,0.139250797795,0.0356431803763,0.0496134895882,0.129896871938,0.0407640515222,0.301859997388
