tagged_abstract_sents/12821233.txt,1,0.125905068383,-0.065121231979,0.0616692308323,0.142474783506,0.0,0.0,0.0,0.161276858778
tagged_abstract_sents/12821233.txt,2,0.239742558327,0.0076998689384,0.188769469584,0.202456734834,0.102449011889,0.154024399068,0.0114292329063,0.616358419555
tagged_abstract_sents/12821233.txt,3,0.218020917136,-0.065121231979,0.188769469584,0.202456734834,0.0,0.0,0.0,0.316514242555
tagged_abstract_sents/12821233.txt,4,0.218020917136,-0.00835517693316,0.188769469584,0.202456734834,0.0368070716437,0.105238502523,0.0,0.469913027731
tagged_abstract_sents/12821233.txt,5,0.162510056315,-0.00376802096986,0.188769469584,0.202456734834,0.158394014439,0.123222050646,0.00827529325513,0.574267554441
tagged_abstract_sents/12821233.txt,6,0.101769911504,-0.0668414154653,0.188769469584,0.202456734834,0.0,0.0,0.0,0.223169401353
tagged_abstract_sents/12821233.txt,7,0.0852775543041,0.163663171691,0.139250797795,0.0356431803763,0.06934232736,0.173687221397,0.00851106371634,0.432813643265
tagged_abstract_sents/12821233.txt,8,0.0711987127916,-0.0668414154653,0.139250797795,0.0356431803763,0.0,0.0,0.0,0.123909040151
tagged_abstract_sents/12821233.txt,9,0.0458567980692,0.0524246395806,0.139250797795,0.0356431803763,0.16951983823,0.127370615969,0.0213068181818,0.445685991762
tagged_abstract_sents/12821233.txt,10,0.0245374094932,0.0352228047182,0.139250797795,0.0356431803763,0.0,0.121697961666,0.00999816715543,0.23868897037
tagged_abstract_sents/12821233.txt,11,0.0245374094932,0.0277686762779,0.139250797795,0.0356431803763,0.0,0.113960809148,0.0147360703812,0.23419889539
tagged_abstract_sents/12821233.txt,12,0.00844730490748,-0.00892857142857,0.139250797795,0.0356431803763,0.0958612841725,0.0809563257817,0.0174086910157,0.27951678362
tagged_abstract_sents/12821233.txt,13,0.00120675784393,-0.0645478374836,0.139250797795,0.0356431803763,0.0,0.0,0.0,0.0683741917887
tagged_abstract_sents/12821233.txt,14,0.00120675784393,0.062745740498,0.139250797795,0.0356431803763,0.272189543086,0.158698212222,0.0130807223337,0.537801385027
