tagged_abstract_sents/12861176.txt,2,0.0253827558421,-0.117156862745,0.0616692308323,0.247294108221,0.0635448892413,0.0,0.0,0.101897680007
tagged_abstract_sents/12861176.txt,4,0.123690572119,-0.114803921569,0.0616692308323,0.247294108221,0.0635448892413,0.0,0.0,0.181014521264
tagged_abstract_sents/12861176.txt,5,0.149073327961,0.239705882353,0.210342442448,0.141687475369,0.0635448892413,0.337000169645,0.0334561190187,0.592929558958
tagged_abstract_sents/12861176.txt,6,0.176470588235,0.0444117647059,0.0616692308323,0.247294108221,0.0635448892413,0.227201266854,0.034588937203,0.441975980772
tagged_abstract_sents/12861176.txt,7,0.166800966962,-0.00892156862745,0.0616692308323,0.247294108221,0.0635448892413,0.0978012491368,0.0256689882698,0.347762770888
tagged_abstract_sents/12861176.txt,8,0.0954875100725,-0.11637254902,0.139250797795,0.194462959676,0.0635448892413,0.0,0.0,0.181079785054
tagged_abstract_sents/12861176.txt,9,0.0342465753425,-0.046568627451,0.139250797795,0.194462959676,0.0635448892413,0.142912832456,0.0329985337243,0.205368562207
