tagged_abstract_sents/12885680.txt,2,0.0954875100725,-0.0773518216422,0.0616692308323,0.247294108221,0.109264818376,0.0,0.0,0.165942491612
tagged_abstract_sents/12885680.txt,3,0.0253827558421,-0.000679717237629,0.188769469584,0.123191979006,0.109264818376,0.385951551943,0.0301082402235,0.552767909554
tagged_abstract_sents/12885680.txt,4,0.0805801772764,-0.0789831430125,0.0616692308323,0.247294108221,0.109264818376,0.0,0.0,0.153690361101
tagged_abstract_sents/12885680.txt,6,0.140209508461,0.0509787928222,0.0616692308323,0.247294108221,0.109264818376,0.42445737499,0.0352154828412,0.530282112022
tagged_abstract_sents/12885680.txt,7,0.149073327961,-0.0240619902121,0.0616692308323,0.247294108221,0.109264818376,0.309771280488,0.031154396116,0.479271662114
tagged_abstract_sents/12885680.txt,8,0.149879129734,-0.0789831430125,0.139250797795,0.194462959676,0.109264818376,0.0,0.0,0.232070961985
tagged_abstract_sents/12885680.txt,9,0.176470588235,0.0977433387711,0.139250797795,0.194462959676,0.109264818376,0.32760945522,0.0408043423057,0.594325203511
tagged_abstract_sents/12885680.txt,10,0.166800966962,0.125475802066,0.139250797795,0.194462959676,0.109264818376,0.419196010041,0.0360542106352,0.618676926275
tagged_abstract_sents/12885680.txt,11,0.0954875100725,-0.0534257748777,0.139250797795,0.194462959676,0.109264818376,0.218076141351,0.0473005412011,0.46889759434
tagged_abstract_sents/12885680.txt,12,0.0342465753425,-0.0773518216422,0.0616692308323,0.247294108221,0.109264818376,0.0,0.0,0.116949743828
tagged_abstract_sents/12885680.txt,13,0.0342465753425,0.0373844480696,0.139250797795,0.194462959676,0.109264818376,0.518600036344,0.0408983283869,0.708510011339
