tagged_abstract_sents/12931367.txt,1,0.125905068383,-0.059514521023,0.0616692308323,0.142474783506,0.0,0.0,0.0,0.16239820097
tagged_abstract_sents/12931367.txt,2,0.239742558327,0.0282618118769,0.188769469584,0.202456734834,0.240182486361,0.422459941133,0.0293761703971,1.04458676217
tagged_abstract_sents/12931367.txt,3,0.229283990346,-0.0614651061985,0.0616692308323,0.142474783506,0.0,0.0,0.0,0.244711221505
tagged_abstract_sents/12931367.txt,4,0.218020917136,0.0100563502384,0.210342442448,0.226435992083,0.00940580170232,0.225743495895,0.0280021765518,0.612681496755
tagged_abstract_sents/12931367.txt,5,0.162510056315,0.0705244906805,0.0616692308323,0.142474783506,0.0469836437799,0.341517816468,0.0217131974384,0.627904651342
tagged_abstract_sents/12931367.txt,6,0.118262268705,-0.0185522323364,0.0616692308323,0.142474783506,0.124474400953,0.136554201308,0.012020216818,0.437525238044
tagged_abstract_sents/12931367.txt,7,0.101769911504,-0.0614651061985,0.139250797795,0.0356431803763,0.0,0.0,0.0,0.149441260974
tagged_abstract_sents/12931367.txt,8,0.0711987127916,-0.0179020372779,0.139250797795,0.0356431803763,0.0149312217972,0.153572121488,0.0192445995259,0.321444858599
tagged_abstract_sents/12931367.txt,9,0.0571198712792,0.00225400953619,0.139250797795,0.0356431803763,0.0108510711577,0.22750691769,0.0248071100693,0.389630150857
tagged_abstract_sents/12931367.txt,10,0.0458567980692,0.0367143476376,0.139250797795,0.0356431803763,0.00887820486539,0.342844919656,0.0293217111046,0.505391496619
tagged_abstract_sents/12931367.txt,11,0.0245374094932,0.0217598612917,0.139250797795,0.0356431803763,0.0651294768009,0.267040843764,0.018432981162,0.45490355459
tagged_abstract_sents/12931367.txt,12,0.0144810941271,0.0399653229302,0.139250797795,0.0356431803763,0.00853833925606,0.19420829601,0.0131059974306,0.315748925595
tagged_abstract_sents/12931367.txt,13,0.00844730490748,-0.00164716081491,0.139250797795,0.0356431803763,0.00951963255253,0.27291445508,0.015016114855,0.384196967261
tagged_abstract_sents/12931367.txt,14,0.00120675784393,-0.0588643259645,0.0616692308323,0.142474783506,0.0,0.0,0.0,0.0627695915501
tagged_abstract_sents/12931367.txt,15,0.00120675784393,0.069874295622,0.139250797795,0.0356431803763,0.241429745012,0.443566840723,0.0229129572449,0.803168161389
