tagged_abstract_sents/12944058.txt,2,0.0954875100725,-0.0534445563066,0.0616692308323,0.247294108221,0.201422760189,0.0,0.0,0.170723944679
tagged_abstract_sents/12944058.txt,4,0.0253827558421,-0.0172587372357,0.188769469584,0.123191979006,0.201422760189,0.0759976847949,0.0103225806452,0.309273132298
tagged_abstract_sents/12944058.txt,5,0.0805801772764,0.0247950524953,0.0616692308323,0.247294108221,0.201422760189,0.13606096524,0.0133862342591,0.312383608484
tagged_abstract_sents/12944058.txt,6,0.0805801772764,-0.0549115489717,0.0616692308323,0.247294108221,0.201422760189,0.0,0.0,0.158504679909
tagged_abstract_sents/12944058.txt,7,0.123690572119,0.0370199913706,0.139250797795,0.194462959676,0.201422760189,0.148971390524,0.0100073313783,0.371886460645
tagged_abstract_sents/12944058.txt,8,0.140209508461,0.0189270818352,0.139250797795,0.194462959676,0.201422760189,0.0866293125108,0.0143939393939,0.335707319097
tagged_abstract_sents/12944058.txt,9,0.140209508461,-0.00356680569538,0.139250797795,0.194462959676,0.201422760189,0.0685511820561,0.0172727272727,0.316404373077
tagged_abstract_sents/12944058.txt,10,0.149879129734,-0.0544225514167,0.139250797795,0.194462959676,0.201422760189,0.0,0.0,0.236983080304
tagged_abstract_sents/12944058.txt,11,0.149879129734,-0.00796778369049,0.139250797795,0.194462959676,0.201422760189,0.0696376281335,0.0172727272727,0.379650450334
tagged_abstract_sents/12944058.txt,12,0.176470588235,-0.0255716956709,0.139250797795,0.194462959676,0.201422760189,0.0522114472255,0.00947580645161,0.329249499161
tagged_abstract_sents/12944058.txt,13,0.166800966962,0.00327916007479,0.139250797795,0.194462959676,0.201422760189,0.0951767020199,0.0132867132867,0.352307915213
tagged_abstract_sents/12944058.txt,14,0.166800966962,0.0614698691212,0.139250797795,0.194462959676,0.201422760189,0.157759376045,0.0120697638524,0.496885031727
tagged_abstract_sents/12944058.txt,15,0.0954875100725,0.0467999424709,0.139250797795,0.194462959676,0.201422760189,0.183439945799,0.0179952012797,0.445494665694
tagged_abstract_sents/12944058.txt,16,0.0954875100725,-0.0514885660866,0.0616692308323,0.247294108221,0.201422760189,0.0,0.0,0.171115142723
tagged_abstract_sents/12944058.txt,17,0.0342465753425,0.0272400402704,0.139250797795,0.194462959676,0.201422760189,0.136183662669,0.00854752458168,0.381864983257
tagged_abstract_sents/12944058.txt,18,0.0342465753425,0.0243060549403,0.139250797795,0.194462959676,0.201422760189,0.158762357995,0.0168467356073,0.360261642532
