tagged_abstract_sents/12949310.txt,2,0.206355591311,-0.0251127850668,0.0616692308323,0.106008497564,0.108546115614,0.0,0.0,0.222699080721
tagged_abstract_sents/12949310.txt,3,0.206355591311,-0.01630727205,0.188769469584,0.129715814208,0.108546115614,0.070155868326,0.0235892691952,0.485348323149
tagged_abstract_sents/12949310.txt,4,0.206355591311,0.00857787343239,0.188769469584,0.129715814208,0.108546115614,0.149456468996,0.0382898282589,0.618743985555
tagged_abstract_sents/12949310.txt,6,0.206355591311,-0.0254956334589,0.0616692308323,0.106008497564,0.108546115614,0.0,0.0,0.222622511043
tagged_abstract_sents/12949310.txt,7,0.206355591311,-0.0101816977774,0.210342442448,0.0253702522065,0.108546115614,0.0929082429604,0.0514480893759,0.41770352925
tagged_abstract_sents/12949310.txt,8,0.206355591311,0.0124063573528,0.0616692308323,0.106008497564,0.108546115614,0.111578154894,0.0229634869674,0.368230179207
tagged_abstract_sents/12949310.txt,9,0.0048270313757,0.00283514755184,0.0616692308323,0.106008497564,0.108546115614,0.113570149513,0.0355123856511,0.239033324281
tagged_abstract_sents/12949310.txt,10,0.0048270313757,-0.00597036546501,0.210342442448,0.0253702522065,0.108546115614,0.126131940839,0.0321826768587,0.263119654457
tagged_abstract_sents/12949310.txt,11,0.0048270313757,-0.00979884938537,0.0616692308323,0.106008497564,0.108546115614,0.115066396259,0.0180902456573,0.174640282348
tagged_abstract_sents/12949310.txt,12,0.0048270313757,-0.0132444849137,0.0616692308323,0.106008497564,0.108546115614,0.104248331741,0.0335915818686,0.170011763838
tagged_abstract_sents/12949310.txt,13,0.0108608205953,-0.0214757253425,0.0616692308323,0.106008497564,0.108546115614,0.0406541215498,0.0259019426457,0.132353238839
tagged_abstract_sents/12949310.txt,14,0.0108608205953,-0.00118476056455,0.0616692308323,0.106008497564,0.108546115614,0.105585774316,0.048617535204,0.247496690708
tagged_abstract_sents/12949310.txt,15,0.0108608205953,0.00513223790406,0.0616692308323,0.106008497564,0.108546115614,0.1764921605,0.0349544072948,0.231036961004
tagged_abstract_sents/12949310.txt,16,0.0261464199517,0.00685505566823,0.0616692308323,0.106008497564,0.108546115614,0.181465882209,0.0354301572618,0.273114823481
tagged_abstract_sents/12949310.txt,17,0.0261464199517,0.00130375398369,0.0616692308323,0.106008497564,0.108546115614,0.0907975362872,0.0325007708912,0.222009055167
tagged_abstract_sents/12949310.txt,18,0.0261464199517,-0.0254956334589,0.139250797795,0.521468892835,0.108546115614,0.0,0.0,0.241884076018
tagged_abstract_sents/12949310.txt,19,0.0261464199517,-0.00654463805306,0.139250797795,0.521468892835,0.108546115614,0.129564171791,0.0387555382443,0.409314619327
tagged_abstract_sents/12949310.txt,20,0.0518905872888,0.0265717478581,0.139250797795,0.521468892835,0.108546115614,0.218297056103,0.0383702690745,0.511498267329
tagged_abstract_sents/12949310.txt,21,0.0518905872888,0.00628078308017,0.139250797795,0.521468892835,0.108546115614,0.203421149172,0.0340680723468,0.439625337529
tagged_abstract_sents/12949310.txt,22,0.0518905872888,-0.0153501510699,0.139250797795,0.521468892835,0.108546115614,0.0894860541058,0.0310206598828,0.377525379897
tagged_abstract_sents/12949310.txt,23,0.0518905872888,0.014703447705,0.139250797795,0.521468892835,0.108546115614,0.207254903825,0.0369587242853,0.507183768386
tagged_abstract_sents/12949310.txt,24,0.0993563958166,0.0235089607218,0.139250797795,0.521468892835,0.108546115614,0.149561888764,0.0458464384829,0.503228189359
tagged_abstract_sents/12949310.txt,25,0.0993563958166,-0.00711891064112,0.139250797795,0.521468892835,0.108546115614,0.0923879370763,0.0270839757426,0.487395613579
tagged_abstract_sents/12949310.txt,26,0.0993563958166,0.0392057447953,0.139250797795,0.521468892835,0.108546115614,0.143273123586,0.0214616096207,0.478904410769
tagged_abstract_sents/12949310.txt,27,0.172566371681,-0.00233330574066,0.139250797795,0.521468892835,0.108546115614,0.132392679495,0.0272694365121,0.501147898899
tagged_abstract_sents/12949310.txt,29,0.172566371681,0.0127892057448,0.139250797795,0.521468892835,0.108546115614,0.174519408163,0.0265871792236,0.539797673852
tagged_abstract_sents/12949310.txt,30,0.172566371681,0.0198719009975,0.139250797795,0.521468892835,0.108546115614,0.169135065229,0.0357693493679,0.578621072256
tagged_abstract_sents/12949310.txt,31,0.206355591311,-0.00309900252473,0.139250797795,0.521468892835,0.108546115614,0.121598215293,0.0276595744681,0.537169277263
tagged_abstract_sents/12949310.txt,32,0.206355591311,-0.0247299366748,0.0616692308323,0.106008497564,0.108546115614,0.0,0.0,0.222775650399
tagged_abstract_sents/12949310.txt,33,0.206355591311,0.00953499441248,0.139250797795,0.521468892835,0.108546115614,0.163864830454,0.0399150306643,0.63789021737
tagged_abstract_sents/12949310.txt,34,0.206355591311,-0.000419063780473,0.139250797795,0.521468892835,0.108546115614,0.13014032793,0.0233680569521,0.576571860585
tagged_abstract_sents/12949310.txt,35,0.262268704747,-0.0187957865982,0.139250797795,0.521468892835,0.108546115614,0.0612013230624,0.0312388813776,0.511179580778
tagged_abstract_sents/12949310.txt,36,0.262268704747,0.0137463267249,0.139250797795,0.521468892835,0.108546115614,0.2406408698,0.0237777092541,0.688632562986
tagged_abstract_sents/12949310.txt,37,0.262268704747,0.0139377509209,0.139250797795,0.521468892835,0.108546115614,0.248164100611,0.0397201665125,0.833116128323
tagged_abstract_sents/12949310.txt,38,0.262268704747,0.00570651049212,0.139250797795,0.521468892835,0.108546115614,0.207408089316,0.0381964131181,0.715053913565
