tagged_abstract_sents/12968085.txt,2,0.0954875100725,-0.0573210922787,0.0616692308323,0.247294108221,0.148395618457,0.0,0.0,0.169948637485
tagged_abstract_sents/12968085.txt,4,0.0253827558421,0.0156544256121,0.188769469584,0.123191979006,0.148395618457,0.188894807439,0.137961878741,0.400834452171
tagged_abstract_sents/12968085.txt,5,0.0805801772764,-0.0587335216573,0.0616692308323,0.247294108221,0.148395618457,0.0,0.0,0.157740285372
tagged_abstract_sents/12968085.txt,6,0.123690572119,-0.0130649717514,0.210342442448,0.141687475369,0.148395618457,0.157563961866,0.106246340749,0.478190296
tagged_abstract_sents/12968085.txt,7,0.123690572119,0.0410781544256,0.0616692308323,0.247294108221,0.148395618457,0.240732887946,0.16481264637,0.637644568616
tagged_abstract_sents/12968085.txt,8,0.140209508461,-0.0290725047081,0.0616692308323,0.247294108221,0.148395618457,0.078207328044,0.0362412177986,0.320161345708
tagged_abstract_sents/12968085.txt,9,0.149073327961,-0.0257768361582,0.0616692308323,0.247294108221,0.148395618457,0.107854541024,0.0665007806401,0.374554604124
tagged_abstract_sents/12968085.txt,10,0.149879129734,-0.0587335216573,0.0616692308323,0.247294108221,0.148395618457,0.0,0.0,0.213179447338
tagged_abstract_sents/12968085.txt,11,0.176470588235,0.0085922787194,0.139250797795,0.194462959676,0.148395618457,0.14850388177,0.099162205866,0.535260269099
tagged_abstract_sents/12968085.txt,12,0.176470588235,0.135240112994,0.139250797795,0.194462959676,0.148395618457,0.286237807204,0.109838505074,0.6115318148
tagged_abstract_sents/12968085.txt,13,0.166800966962,0.0114171374765,0.139250797795,0.194462959676,0.148395618457,0.115166447745,0.0781396370023,0.37906462613
tagged_abstract_sents/12968085.txt,14,0.0954875100725,0.0255414312618,0.139250797795,0.194462959676,0.148395618457,0.146403710472,0.0949592951935,0.56892626209
tagged_abstract_sents/12968085.txt,15,0.0954875100725,-0.0568502824859,0.0616692308323,0.247294108221,0.148395618457,0.0,0.0,0.170042799443
tagged_abstract_sents/12968085.txt,16,0.0342465753425,0.0391949152542,0.139250797795,0.194462959676,0.148395618457,0.1985955447,0.136373492931,0.501652298273
tagged_abstract_sents/12968085.txt,17,0.0342465753425,-0.00694444444444,0.139250797795,0.194462959676,0.148395618457,0.16566373549,0.0886383084129,0.364053427304
