tagged_abstract_sents/12975254.txt,2,0.0954875100725,-0.0490118315817,0.0616692308323,0.247294108221,0.0666476508639,0.0,0.0,0.171610489624
tagged_abstract_sents/12975254.txt,3,0.0253827558421,0.0116663361756,0.188769469584,0.123191979006,0.0666476508639,0.150129316354,0.0520828556142,0.425657123609
tagged_abstract_sents/12975254.txt,4,0.0253827558421,-0.010939255734,0.188769469584,0.123191979006,0.0666476508639,0.139854805547,0.0517698741235,0.314169946729
tagged_abstract_sents/12975254.txt,5,0.0805801772764,-0.00974948773878,0.188769469584,0.123191979006,0.0666476508639,0.109002367453,0.0425614598293,0.32410543894
tagged_abstract_sents/12975254.txt,7,0.123690572119,0.0586621719876,0.188769469584,0.123191979006,0.0666476508639,0.1752620584,0.033113370192,0.480372117657
tagged_abstract_sents/12975254.txt,8,0.123690572119,-0.0436578756031,0.0616692308323,0.247294108221,0.0666476508639,0.0,0.0,0.195243730457
tagged_abstract_sents/12975254.txt,9,0.140209508461,0.0509286800185,0.0616692308323,0.247294108221,0.0666476508639,0.178209590797,0.0494144224481,0.426963508514
tagged_abstract_sents/12975254.txt,10,0.149073327961,-0.0186727477031,0.0616692308323,0.247294108221,0.0666476508639,0.120425480987,0.0328799526907,0.217040774518
tagged_abstract_sents/12975254.txt,11,0.149879129734,-0.0305704276555,0.0616692308323,0.247294108221,0.0666476508639,0.0757747759264,0.0299931208438,0.314351583956
tagged_abstract_sents/12975254.txt,12,0.176470588235,0.0110714521779,0.0616692308323,0.247294108221,0.0666476508639,0.11645024288,0.0237560192616,0.379732818164
tagged_abstract_sents/12975254.txt,13,0.176470588235,-0.0204573996959,0.0616692308323,0.247294108221,0.0666476508639,0.0754725270763,0.0241412520064,0.359875036119
tagged_abstract_sents/12975254.txt,14,0.166800966962,0.0562826359971,0.139250797795,0.194462959676,0.0666476508639,0.117722312683,0.0322210019431,0.417170526811
tagged_abstract_sents/12975254.txt,15,0.166800966962,-0.000826227774473,0.139250797795,0.194462959676,0.0666476508639,0.0571757138383,0.0111289459604,0.335176483376
tagged_abstract_sents/12975254.txt,16,0.0954875100725,-0.0484169475841,0.0616692308323,0.247294108221,0.0666476508639,0.0,0.0,0.171729466424
tagged_abstract_sents/12975254.txt,17,0.0954875100725,0.0098816841827,0.139250797795,0.194462959676,0.0666476508639,0.0986162639771,0.0235754414125,0.369424810084
tagged_abstract_sents/12975254.txt,18,0.0342465753425,0.0414105360566,0.139250797795,0.194462959676,0.0666476508639,0.170874615164,0.0370901169457,0.379037188786
tagged_abstract_sents/12975254.txt,19,0.0342465753425,-0.00855971974354,0.139250797795,0.194462959676,0.0666476508639,0.153827562564,0.0367785609603,0.306830039106
