tagged_abstract_sents/12970637.txt,2,0.0954875100725,-0.0632786121784,0.0616692308323,0.247294108221,0.0557473365913,0.0,0.0,0.168757133505
tagged_abstract_sents/12970637.txt,4,0.0805801772764,-0.0608336244033,0.0616692308323,0.247294108221,0.0557473365913,0.0,0.0,0.157320264823
tagged_abstract_sents/12970637.txt,5,0.0805801772764,0.0557107928746,0.0616692308323,0.247294108221,0.0557473365913,0.148035236183,0.0235092864125,0.32304647281
tagged_abstract_sents/12970637.txt,6,0.123690572119,0.0100710210735,0.0616692308323,0.247294108221,0.0557473365913,0.1076244947,0.0469898223219,0.311646050552
tagged_abstract_sents/12970637.txt,7,0.140209508461,0.0817906624753,0.0616692308323,0.247294108221,0.0557473365913,0.218651861209,0.0509758317322,0.483570086976
tagged_abstract_sents/12970637.txt,8,0.149073327961,-0.0649086040284,0.0616692308323,0.247294108221,0.0557473365913,0.0,0.0,0.211299789446
tagged_abstract_sents/12970637.txt,9,0.149879129734,0.031260915124,0.139250797795,0.194462959676,0.0557473365913,0.137705601803,0.0605425219941,0.44035939492
tagged_abstract_sents/12970637.txt,10,0.176470588235,0.0483758295494,0.139250797795,0.194462959676,0.0557473365913,0.100857485657,0.0270398481973,0.421407923903
tagged_abstract_sents/12970637.txt,11,0.166800966962,0.00110606589824,0.139250797795,0.194462959676,0.0557473365913,0.101851746632,0.0283357771261,0.382450712906
tagged_abstract_sents/12970637.txt,12,0.166800966962,0.0133310047735,0.139250797795,0.194462959676,0.0557473365913,0.102947457596,0.0495784457478,0.332228658971
tagged_abstract_sents/12970637.txt,13,0.0954875100725,-0.0616486203283,0.0616692308323,0.247294108221,0.0557473365913,0.0,0.0,0.169083131875
tagged_abstract_sents/12970637.txt,14,0.0342465753425,0.0117010129235,0.139250797795,0.194462959676,0.0557473365913,0.13866222959,0.0539722740603,0.250041542917
tagged_abstract_sents/12970637.txt,15,0.0342465753425,-0.0249738037024,0.139250797795,0.194462959676,0.0557473365913,0.0853762365379,0.0293713343109,0.212038991292
