tagged_abstract_sents/13679527.txt,2,0.0954875100725,-0.0702564102564,0.0616692308323,0.247294108221,0.228620305133,0.0,0.0,0.167361573889
tagged_abstract_sents/13679527.txt,4,0.0805801772764,-0.0248018648019,0.188769469584,0.123191979006,0.228620305133,0.222564586439,0.048456182942,0.416471473257
tagged_abstract_sents/13679527.txt,5,0.123690572119,-0.0720745920746,0.0616692308323,0.247294108221,0.228620305133,0.0,0.0,0.189560387163
tagged_abstract_sents/13679527.txt,6,0.123690572119,0.0721678321678,0.194899689933,0.293363477728,0.228620305133,0.466725430454,0.110839178918,0.769019332086
tagged_abstract_sents/13679527.txt,7,0.140209508461,0.00307692307692,0.0616692308323,0.247294108221,0.228620305133,0.330821285705,0.0688299638637,0.714914083076
tagged_abstract_sents/13679527.txt,8,0.149879129734,-0.0720745920746,0.0616692308323,0.247294108221,0.228620305133,0.0,0.0,0.210511233255
tagged_abstract_sents/13679527.txt,9,0.176470588235,-0.0235897435897,0.139250797795,0.194462959676,0.228620305133,0.191732975643,0.0418176631147,0.499364195838
tagged_abstract_sents/13679527.txt,10,0.176470588235,0.0982284382284,0.139250797795,0.194462959676,0.228620305133,0.437329957004,0.0735125805743,0.733489006162
tagged_abstract_sents/13679527.txt,11,0.166800966962,0.053986013986,0.139250797795,0.194462959676,0.228620305133,0.371448898171,0.0621782261103,0.694762463578
tagged_abstract_sents/13679527.txt,12,0.0954875100725,-0.0696503496503,0.0616692308323,0.247294108221,0.228620305133,0.0,0.0,0.16748278601
tagged_abstract_sents/13679527.txt,13,0.0342465753425,0.0224708624709,0.139250797795,0.194462959676,0.228620305133,0.434498695861,0.0957117089071,0.672774332094
tagged_abstract_sents/13679527.txt,14,0.0342465753425,0.0467132867133,0.139250797795,0.194462959676,0.228620305133,0.46111939806,0.0947544854449,0.622751314835
