tagged_abstract_sents/1445513.txt,2,0.0954875100725,-0.0380434782609,0.0616692308323,0.247294108221,0.179279310117,0.0,0.0,0.173804160288
tagged_abstract_sents/1445513.txt,4,0.0253827558421,-0.0396739130435,0.0616692308323,0.247294108221,0.179279310117,0.0,0.0,0.117394269947
tagged_abstract_sents/1445513.txt,5,0.0253827558421,-0.0157608695652,0.0616692308323,0.247294108221,0.179279310117,0.114853583555,0.0848652820657,0.215872062556
tagged_abstract_sents/1445513.txt,6,0.0805801772764,-0.0391304347826,0.0616692308323,0.247294108221,0.179279310117,0.0,0.0,0.161660902747
tagged_abstract_sents/1445513.txt,7,0.0805801772764,-0.00597826086957,0.139250797795,0.194462959676,0.179279310117,0.154744756856,0.0841604368127,0.433379503433
tagged_abstract_sents/1445513.txt,8,0.123690572119,-0.0385869565217,0.139250797795,0.194462959676,0.179279310117,0.0,0.0,0.219199353191
tagged_abstract_sents/1445513.txt,9,0.123690572119,0.00108695652174,0.139250797795,0.194462959676,0.179279310117,0.134677786226,0.105430816727,0.300536108416
tagged_abstract_sents/1445513.txt,10,0.123690572119,0.0532608695652,0.139250797795,0.194462959676,0.179279310117,0.154406539523,0.0664659505524,0.455917985822
tagged_abstract_sents/1445513.txt,11,0.140209508461,-0.0364130434783,0.0616692308323,0.247294108221,0.179279310117,0.0,0.0,0.209907845956
tagged_abstract_sents/1445513.txt,12,0.140209508461,0.0288043478261,0.194899689933,0.293363477728,0.179279310117,0.137342795742,0.0678401026422,0.502000329585
tagged_abstract_sents/1445513.txt,13,0.149879129734,-0.00815217391304,0.0616692308323,0.247294108221,0.179279310117,0.097914678763,0.066219808159,0.468237310598
tagged_abstract_sents/1445513.txt,14,0.149879129734,-0.0277173913043,0.0616692308323,0.247294108221,0.179279310117,0.0502002105561,0.047965197867,0.264893864095
tagged_abstract_sents/1445513.txt,15,0.176470588235,-0.0315217391304,0.139250797795,0.194462959676,0.179279310117,0.0,0.0,0.262836409562
tagged_abstract_sents/1445513.txt,16,0.176470588235,-0.0146739130435,0.139250797795,0.194462959676,0.179279310117,0.0823994834079,0.0787257928712,0.274484140829
tagged_abstract_sents/1445513.txt,17,0.176470588235,-0.0391304347826,0.139250797795,0.194462959676,0.179279310117,0.0,0.0,0.261314670432
tagged_abstract_sents/1445513.txt,18,0.166800966962,-0.00217391304348,0.139250797795,0.194462959676,0.179279310117,0.150411423931,0.0737287825355,0.502664661904
tagged_abstract_sents/1445513.txt,19,0.166800966962,0.124456521739,0.139250797795,0.194462959676,0.179279310117,0.246019064362,0.0893697003717,0.593331724235
tagged_abstract_sents/1445513.txt,20,0.0954875100725,0.10597826087,0.139250797795,0.194462959676,0.179279310117,0.204970571157,0.094496114278,0.492820061542
tagged_abstract_sents/1445513.txt,21,0.0954875100725,-0.00217391304348,0.139250797795,0.194462959676,0.179279310117,0.168343744103,0.0755917298157,0.412636728098
tagged_abstract_sents/1445513.txt,22,0.0342465753425,-0.00489130434783,0.139250797795,0.194462959676,0.179279310117,0.113665153031,0.0677097951165,0.312255407557
tagged_abstract_sents/1445513.txt,23,0.0342465753425,-0.0375,0.139250797795,0.194462959676,0.179279310117,0.0,0.0,0.147861547074
tagged_abstract_sents/1445513.txt,24,0.0342465753425,0.0309782608696,0.139250797795,0.194462959676,0.179279310117,0.164621160951,0.0721302273365,0.283486931918
