tagged_abstract_sents/14530229.txt,2,0.206355591311,-0.0358584337349,0.0616692308323,0.106008497564,0.0531767710206,0.0,0.0,0.220549950987
tagged_abstract_sents/14530229.txt,3,0.206355591311,-0.012515060241,0.188769469584,0.129715814208,0.0531767710206,0.33874505195,0.0510351568593,0.899414099842
tagged_abstract_sents/14530229.txt,4,0.206355591311,-0.036234939759,0.0616692308323,0.106008497564,0.0531767710206,0.0,0.0,0.220474649783
tagged_abstract_sents/14530229.txt,6,0.0048270313757,-0.0351054216867,0.0616692308323,0.106008497564,0.0531767710206,0.0,0.0,0.0594777054485
tagged_abstract_sents/14530229.txt,7,0.0048270313757,-0.024563253012,0.0616692308323,0.106008497564,0.0531767710206,0.146564856918,0.0589977019622,0.302364037476
tagged_abstract_sents/14530229.txt,8,0.0048270313757,-0.0339759036145,0.0616692308323,0.106008497564,0.0531767710206,0.0,0.0,0.059703609063
tagged_abstract_sents/14530229.txt,9,0.0108608205953,-0.00950301204819,0.0616692308323,0.106008497564,0.0531767710206,0.385641194822,0.0465927169878,0.483652743806
tagged_abstract_sents/14530229.txt,10,0.0108608205953,0.0337951807229,0.0616692308323,0.106008497564,0.0531767710206,0.664589003012,0.0530228036062,0.885684933038
tagged_abstract_sents/14530229.txt,11,0.016894609815,-0.0159036144578,0.0616692308323,0.106008497564,0.0531767710206,0.23175478169,0.0570090153792,0.387161540431
tagged_abstract_sents/14530229.txt,12,0.0261464199517,-0.0339759036145,0.0616692308323,0.106008497564,0.0531767710206,0.0,0.0,0.0767591199238
tagged_abstract_sents/14530229.txt,13,0.0261464199517,-0.00046686746988,0.0616692308323,0.106008497564,0.0531767710206,0.463666200258,0.0453378452318,0.627073651543
tagged_abstract_sents/14530229.txt,14,0.0518905872888,-0.0343524096386,0.0616692308323,0.106008497564,0.0531767710206,0.0,0.0,0.0972791525886
tagged_abstract_sents/14530229.txt,16,0.0683829444891,0.0752108433735,0.139250797795,0.521468892835,0.0531767710206,0.618764592169,0.0379863689038,0.928863217956
tagged_abstract_sents/14530229.txt,17,0.0993563958166,-0.00460843373494,0.139250797795,0.521468892835,0.0531767710206,0.458740463168,0.0350934787916,0.845717909491
tagged_abstract_sents/14530229.txt,18,0.0993563958166,0.0168524096386,0.139250797795,0.521468892835,0.0531767710206,0.46268214872,0.0301564854331,0.799277910259
tagged_abstract_sents/14530229.txt,19,0.172566371681,0.00367469879518,0.139250797795,0.521468892835,0.0531767710206,0.423187868189,0.0332685168817,0.842168029931
tagged_abstract_sents/14530229.txt,20,0.172566371681,0.0601506024096,0.139250797795,0.521468892835,0.0531767710206,0.671340736866,0.0449092671271,1.06309250193
tagged_abstract_sents/14530229.txt,21,0.214802896219,-0.0140210843373,0.139250797795,0.521468892835,0.0531767710206,0.343160022849,0.0323100190521,0.802620756577
tagged_abstract_sents/14530229.txt,22,0.206355591311,-0.00423192771084,0.139250797795,0.521468892835,0.0531767710206,0.312807319065,0.0382919651863,0.767632404615
tagged_abstract_sents/14530229.txt,23,0.206355591311,-0.0354819277108,0.0616692308323,0.106008497564,0.0531767710206,0.0,0.0,0.220625252192
tagged_abstract_sents/14530229.txt,24,0.262268704747,-0.00234939759036,0.139250797795,0.521468892835,0.0531767710206,0.400711077657,0.0374049849744,1.00716488783
tagged_abstract_sents/14530229.txt,25,0.262268704747,0.0432078313253,0.139250797795,0.521468892835,0.0531767710206,0.654686392692,0.0412762948559,1.23032816076
tagged_abstract_sents/14530229.txt,26,0.262268704747,-0.0170331325301,0.139250797795,0.521468892835,0.0531767710206,0.270307803728,0.0218629258315,0.737495993622
