tagged_abstract_sents/14610160.txt,2,0.206355591311,-0.0659722222222,0.0616692308323,0.106008497564,0.0225105675253,0.0,0.0,0.21452719329
tagged_abstract_sents/14610160.txt,3,0.206355591311,0.0426587301587,0.188769469584,0.129715814208,0.0225105675253,0.274197680786,0.0481648858314,0.619393047646
tagged_abstract_sents/14610160.txt,5,0.0048270313757,-0.0674603174603,0.0616692308323,0.106008497564,0.0225105675253,0.0,0.0,0.0530067262938
tagged_abstract_sents/14610160.txt,6,0.0108608205953,0.047123015873,0.210342442448,0.0253702522065,0.0225105675253,0.212721930287,0.0432157494145,0.340386472472
tagged_abstract_sents/14610160.txt,7,0.0261464199517,-0.0481150793651,0.0616692308323,0.106008497564,0.0225105675253,0.0695423288522,0.00125227686703,0.140355287787
tagged_abstract_sents/14610160.txt,8,0.0353982300885,-0.0674603174603,0.139250797795,0.521468892835,0.0225105675253,0.0,0.0,0.240892587327
tagged_abstract_sents/14610160.txt,9,0.0518905872888,0.160714285714,0.139250797795,0.521468892835,0.0225105675253,0.209603165305,0.0235783015986,0.441814337265
tagged_abstract_sents/14610160.txt,11,0.172566371681,-0.0342261904762,0.139250797795,0.521468892835,0.0225105675253,0.158270554203,0.0316417550627,0.540107261157
tagged_abstract_sents/14610160.txt,12,0.172566371681,0.0138888888889,0.139250797795,0.521468892835,0.0225105675253,0.236047545891,0.0356557377049,0.594340098291
tagged_abstract_sents/14610160.txt,13,0.206355591311,-0.0654761904762,0.0616692308323,0.106008497564,0.0225105675253,0.0,0.0,0.214626399639
tagged_abstract_sents/14610160.txt,14,0.262268704747,-0.00892857142857,0.139250797795,0.521468892835,0.0225105675253,0.190715284079,0.0325641482537,0.64748354418
tagged_abstract_sents/14610160.txt,15,0.262268704747,-0.0223214285714,0.139250797795,0.521468892835,0.0225105675253,0.156136260435,0.0316417550627,0.605486344707
