tagged_abstract_sents/14610160.txt,1,0.125905068383,-0.0659722222222,0.0616692308323,0.142474783506,0.0,0.0,0.0,0.16110666073
tagged_abstract_sents/14610160.txt,2,0.239742558327,0.0426587301587,0.188769469584,0.202456734834,0.0702778886087,0.274197680786,0.0481648858314,0.748088003162
tagged_abstract_sents/14610160.txt,3,0.218020917136,0.0272817460317,0.194899689933,0.13295610691,0.146830482339,0.244195414187,0.0540612051883,0.762296861669
tagged_abstract_sents/14610160.txt,4,0.218020917136,-0.0674603174603,0.0616692308323,0.142474783506,0.0,0.0,0.0,0.234501720685
tagged_abstract_sents/14610160.txt,5,0.162510056315,0.047123015873,0.210342442448,0.226435992083,0.00752942095894,0.212721930287,0.0432157494145,0.576001767736
tagged_abstract_sents/14610160.txt,6,0.101769911504,-0.0481150793651,0.0616692308323,0.142474783506,0.0,0.0695423288522,0.00125227686703,0.216164569518
tagged_abstract_sents/14610160.txt,7,0.0852775543041,-0.0674603174603,0.139250797795,0.0356431803763,0.0,0.0,0.0,0.135048332962
tagged_abstract_sents/14610160.txt,8,0.0711987127916,0.160714285714,0.139250797795,0.0356431803763,0.00421058275172,0.209603165305,0.0235783015986,0.406812230042
tagged_abstract_sents/14610160.txt,9,0.0458567980692,0.0882936507937,0.139250797795,0.0356431803763,0.0096100092204,0.212272440818,0.0225958723653,0.379140844028
tagged_abstract_sents/14610160.txt,10,0.0245374094932,-0.0342261904762,0.139250797795,0.0356431803763,0.0232291697882,0.158270554203,0.0316417550627,0.306244521563
tagged_abstract_sents/14610160.txt,11,0.0245374094932,0.0138888888889,0.139250797795,0.0356431803763,0.00979384738053,0.236047545891,0.0356557377049,0.384223189359
tagged_abstract_sents/14610160.txt,12,0.00844730490748,-0.0654761904762,0.0616692308323,0.142474783506,0.0,0.0,0.0,0.0672396562986
tagged_abstract_sents/14610160.txt,13,0.00120675784393,-0.00892857142857,0.139250797795,0.0356431803763,0.0185555272513,0.190715284079,0.0325641482537,0.321333004584
tagged_abstract_sents/14610160.txt,14,0.00120675784393,-0.0223214285714,0.139250797795,0.0356431803763,0.0225105675253,0.156136260435,0.0316417550627,0.287108056594
