tagged_abstract_sents/14625332.txt,2,0.0954875100725,-0.0469064191802,0.0616692308323,0.247294108221,0.195310271139,0.0,0.0,0.172031572104
tagged_abstract_sents/14625332.txt,4,0.0253827558421,-0.0461330239753,0.0616692308323,0.247294108221,0.195310271139,0.0,0.0,0.116102447761
tagged_abstract_sents/14625332.txt,5,0.0451248992748,0.0172853828306,0.0616692308323,0.247294108221,0.195310271139,0.38134455349,0.0309444832402,0.49352777072
tagged_abstract_sents/14625332.txt,6,0.0805801772764,-0.0368522815159,0.0616692308323,0.247294108221,0.195310271139,0.0,0.0,0.1621165334
tagged_abstract_sents/14625332.txt,7,0.116035455278,-0.0229311678268,0.0616692308323,0.247294108221,0.195310271139,0.156684168038,0.0460166433892,0.345157016682
tagged_abstract_sents/14625332.txt,8,0.123690572119,-0.00862335653519,0.0616692308323,0.247294108221,0.195310271139,0.31491134248,0.0373478651237,0.530392205714
tagged_abstract_sents/14625332.txt,9,0.131345688961,0.050154679041,0.0616692308323,0.247294108221,0.195310271139,0.457685498247,0.0421519602953,0.700792320959
tagged_abstract_sents/14625332.txt,10,0.140209508461,-0.0414926527456,0.0616692308323,0.247294108221,0.195310271139,0.0,0.0,0.208891924102
tagged_abstract_sents/14625332.txt,11,0.149073327961,0.0141918020108,0.0616692308323,0.247294108221,0.195310271139,0.233827076154,0.0555116250411,0.497425883426
tagged_abstract_sents/14625332.txt,12,0.149879129734,-0.0469064191802,0.0616692308323,0.247294108221,0.195310271139,0.0,0.0,0.215544867834
tagged_abstract_sents/14625332.txt,13,0.150684931507,0.000270688321732,0.139250797795,0.194462959676,0.195310271139,0.246832470194,0.0365695859349,0.554880793717
tagged_abstract_sents/14625332.txt,14,0.176470588235,0.10158546017,0.139250797795,0.194462959676,0.195310271139,0.310414858089,0.0205298949189,0.618677622979
tagged_abstract_sents/14625332.txt,15,0.202256244964,0.0861175560712,0.139250797795,0.194462959676,0.195310271139,0.383461296545,0.0365537709497,0.711328907918
tagged_abstract_sents/14625332.txt,16,0.166800966962,0.00375096674401,0.139250797795,0.194462959676,0.195310271139,0.404746535306,0.0456109042003,0.704203931459
tagged_abstract_sents/14625332.txt,17,0.131345688961,0.00336426914153,0.139250797795,0.194462959676,0.195310271139,0.265102181722,0.0359248913718,0.525014569909
tagged_abstract_sents/14625332.txt,18,0.0954875100725,-0.0453596287703,0.139250797795,0.194462959676,0.195310271139,0.0,0.0,0.195282369104
tagged_abstract_sents/14625332.txt,19,0.0342465753425,0.00568445475638,0.139250797795,0.194462959676,0.195310271139,0.334557747419,0.0289721335462,0.454148305695
tagged_abstract_sents/14625332.txt,20,0.0342465753425,-0.00784996133024,0.139250797795,0.194462959676,0.195310271139,0.37851069989,0.0260754189944,0.46046994607
tagged_abstract_sents/14625332.txt,21,0.0342465753425,0.0157385924207,0.139250797795,0.194462959676,0.195310271139,0.407482257544,0.0329085195531,0.595946900954
