tagged_abstract_sents/14625699.txt,4,0.0048270313757,-0.0512265512266,0.0616692308323,0.106008497564,0.0539495081233,0.222668192615,0.0264902363823,0.332023227258
tagged_abstract_sents/14625699.txt,5,0.0108608205953,-0.0601551226551,0.0616692308323,0.106008497564,0.0539495081233,0.0279698523616,0.0109712230216,0.0979880053572
tagged_abstract_sents/14625699.txt,6,0.0261464199517,-0.0234487734488,0.0616692308323,0.106008497564,0.0539495081233,0.25587800797,0.033160971223,0.475572537521
tagged_abstract_sents/14625699.txt,7,0.0518905872888,-0.0403138528139,0.139250797795,0.521468892835,0.0539495081233,0.0854259697291,0.0149730215827,0.358536363228
tagged_abstract_sents/14625699.txt,8,0.0993563958166,-0.0393217893218,0.139250797795,0.521468892835,0.0539495081233,0.281571182305,0.0334982014388,0.617731836996
tagged_abstract_sents/14625699.txt,9,0.172566371681,-0.0194805194805,0.139250797795,0.521468892835,0.0539495081233,0.249883762896,0.0190647482014,0.61937712424
tagged_abstract_sents/14625699.txt,10,0.206355591311,-0.0631313131313,0.139250797795,0.521468892835,0.0539495081233,0.0440311535473,0.0203237410072,0.442799951294
tagged_abstract_sents/14625699.txt,11,0.262268704747,0.0698051948052,0.139250797795,0.521468892835,0.0539495081233,0.412027897333,0.0232314148681,0.859353050467
tagged_abstract_sents/14625699.txt,12,0.262268704747,0.0450036075036,0.139250797795,0.521468892835,0.0539495081233,0.281261123661,0.0470087088224,0.743183799084
