tagged_abstract_sents/14625699.txt,2,0.0954875100725,0.097582972583,0.188769469584,0.123191979006,0.0539495081233,0.457662248128,0.0473887556621,0.70575451913
tagged_abstract_sents/14625699.txt,4,0.0805801772764,-0.0512265512266,0.0616692308323,0.247294108221,0.0539495081233,0.222668192615,0.0264902363823,0.358801890213
tagged_abstract_sents/14625699.txt,5,0.123690572119,-0.0601551226551,0.0616692308323,0.247294108221,0.0539495081233,0.0279698523616,0.0109712230216,0.220424660185
tagged_abstract_sents/14625699.txt,6,0.140209508461,-0.0234487734488,0.0616692308323,0.247294108221,0.0539495081233,0.25587800797,0.033160971223,0.491971555136
tagged_abstract_sents/14625699.txt,7,0.149879129734,-0.0403138528139,0.139250797795,0.194462959676,0.0539495081233,0.0854259697291,0.0149730215827,0.315535567093
tagged_abstract_sents/14625699.txt,8,0.176470588235,-0.0393217893218,0.139250797795,0.194462959676,0.0539495081233,0.281571182305,0.0334982014388,0.505626028823
tagged_abstract_sents/14625699.txt,9,0.166800966962,-0.0194805194805,0.139250797795,0.194462959676,0.0539495081233,0.249883762896,0.0190647482014,0.461532849002
tagged_abstract_sents/14625699.txt,10,0.0954875100725,-0.0631313131313,0.139250797795,0.194462959676,0.0539495081233,0.0440311535473,0.0203237410072,0.235150441129
tagged_abstract_sents/14625699.txt,11,0.0342465753425,0.0698051948052,0.139250797795,0.194462959676,0.0539495081233,0.412027897333,0.0232314148681,0.527501500905
tagged_abstract_sents/14625699.txt,12,0.0342465753425,0.0450036075036,0.139250797795,0.194462959676,0.0539495081233,0.281261123661,0.0470087088224,0.410707774829
