tagged_abstract_sents/14625699.txt,1,0.125905068383,0.097582972583,0.188769469584,0.202456734834,0.184906629912,0.457662248128,0.0473887556621,0.965320038168
tagged_abstract_sents/14625699.txt,2,0.239742558327,0.0846861471861,0.210342442448,0.226435992083,0.0924724655916,0.521753969535,0.0476480354178,1.04370776549
tagged_abstract_sents/14625699.txt,3,0.218020917136,-0.0512265512266,0.0616692308323,0.142474783506,0.0992487029436,0.222668192615,0.0264902363823,0.586155605873
tagged_abstract_sents/14625699.txt,4,0.162510056315,-0.0601551226551,0.0616692308323,0.142474783506,0.0,0.0279698523616,0.0109712230216,0.230495146372
tagged_abstract_sents/14625699.txt,5,0.101769911504,-0.0234487734488,0.0616692308323,0.142474783506,0.247422582012,0.25587800797,0.033160971223,0.686764786186
tagged_abstract_sents/14625699.txt,6,0.0711987127916,-0.0403138528139,0.139250797795,0.0356431803763,0.0,0.0854259697291,0.0149730215827,0.229613543993
tagged_abstract_sents/14625699.txt,7,0.0458567980692,-0.0393217893218,0.139250797795,0.0356431803763,0.045826429538,0.281571182305,0.0334982014388,0.470035246883
tagged_abstract_sents/14625699.txt,8,0.0245374094932,-0.0194805194805,0.139250797795,0.0356431803763,0.00845724036073,0.249883762896,0.0190647482014,0.373457928167
tagged_abstract_sents/14625699.txt,9,0.00844730490748,-0.0631313131313,0.139250797795,0.0356431803763,0.0,0.0440311535473,0.0203237410072,0.138804828864
tagged_abstract_sents/14625699.txt,10,0.00120675784393,0.0698051948052,0.139250797795,0.0356431803763,0.00552045684705,0.412027897333,0.0232314148681,0.536024567294
tagged_abstract_sents/14625699.txt,11,0.00120675784393,0.0450036075036,0.139250797795,0.0356431803763,0.0539495081233,0.281261123661,0.0470087088224,0.472503821393
