tagged_abstract_sents/14625331.txt,1,0.125905068383,-0.0520651541594,0.0616692308323,0.142474783506,0.0,0.0,0.0,0.163888074342
tagged_abstract_sents/14625331.txt,2,0.239742558327,0.0155613728912,0.188769469584,0.202456734834,0.0669250589157,0.299017211799,0.0576379189944,0.773608266191
tagged_abstract_sents/14625331.txt,3,0.239742558327,-0.0511925538104,0.0616692308323,0.142474783506,0.0,0.0,0.0,0.255132586367
tagged_abstract_sents/14625331.txt,4,0.218020917136,-0.00799883653287,0.188769469584,0.202456734834,0.14593947135,0.217376636591,0.0303363594041,0.721591188989
tagged_abstract_sents/14625331.txt,5,0.218020917136,-0.0407213496219,0.0616692308323,0.142474783506,0.0,0.0,0.0,0.239849514252
tagged_abstract_sents/14625331.txt,6,0.162510056315,0.0395578824898,0.210342442448,0.226435992083,0.163085581687,0.374848535076,0.051749301676,0.900705058838
tagged_abstract_sents/14625331.txt,7,0.162510056315,0.0456660849331,0.194899689933,0.13295610691,0.260688479624,0.350250493225,0.0365291777994,0.923946089727
tagged_abstract_sents/14625331.txt,8,0.101769911504,-0.0459569517161,0.0616692308323,0.142474783506,0.0,0.0,0.0,0.145801589328
tagged_abstract_sents/14625331.txt,9,0.0852775543041,0.0177428737638,0.0616692308323,0.142474783506,0.163470009623,0.252465731321,0.0384899769964,0.599773386605
tagged_abstract_sents/14625331.txt,10,0.0711987127916,-0.0520651541594,0.0616692308323,0.142474783506,0.0,0.0,0.0,0.120122989869
tagged_abstract_sents/14625331.txt,11,0.0458567980692,0.0125072716696,0.139250797795,0.0356431803763,0.122360062847,0.201854936114,0.0366807162809,0.480400961042
tagged_abstract_sents/14625331.txt,12,0.0458567980692,-0.00712623618383,0.139250797795,0.0356431803763,0.143808244586,0.227811582488,0.0286694745112,0.515867845814
tagged_abstract_sents/14625331.txt,13,0.0245374094932,0.0295229784759,0.139250797795,0.0356431803763,0.183786405305,0.250022023593,0.0302949392047,0.569956244403
tagged_abstract_sents/14625331.txt,14,0.0245374094932,-0.000581733566027,0.139250797795,0.0356431803763,0.0644388788336,0.153640237315,0.0438052839851,0.361716334025
tagged_abstract_sents/14625331.txt,15,0.00844730490748,0.0408667830134,0.139250797795,0.0356431803763,0.125092465885,0.311638357731,0.0265986632083,0.558579040363
tagged_abstract_sents/14625331.txt,16,0.00844730490748,0.0168702734148,0.139250797795,0.0356431803763,0.0407685147001,0.262171858828,0.054212251707,0.447602876855
tagged_abstract_sents/14625331.txt,17,0.00120675784393,-0.0503199534613,0.139250797795,0.0356431803763,0.0,0.0,0.0,0.0712197685932
tagged_abstract_sents/14625331.txt,18,0.00120675784393,0.0897324025596,0.139250797795,0.0356431803763,0.177723377916,0.448591516833,0.0331142757382,0.758659410285
