tagged_abstract_sents/14649781.txt,1,0.250201126307,0.0161904761905,0.188769469584,0.202456734834,0.141900275503,0.0834454439961,0.0485337243402,0.632400195366
tagged_abstract_sents/14649781.txt,2,0.229283990346,-0.0193650793651,0.210342442448,0.226435992083,0.143787327941,0.0912742447351,0.035892333473,0.623610101401
tagged_abstract_sents/14649781.txt,3,0.206757843926,0.0568253968254,0.194899689933,0.13295610691,0.0319482035874,0.113428710768,0.0473973607038,0.506882306604
tagged_abstract_sents/14649781.txt,4,0.118262268705,-0.0568253968254,0.0616692308323,0.142474783506,0.0,0.0648033040633,0.0482537989869,0.269878889117
tagged_abstract_sents/14649781.txt,5,0.0852775543041,-0.0015873015873,0.139250797795,0.0356431803763,0.0167674176914,0.128327067702,0.0566634082763,0.349980829806
tagged_abstract_sents/14649781.txt,6,0.0571198712792,0.0536507936508,0.139250797795,0.0356431803763,0.00271388987925,0.0708335731151,0.0344696969697,0.244761568728
tagged_abstract_sents/14649781.txt,7,0.0345937248592,0.0339682539683,0.139250797795,0.0356431803763,0.018924000334,0.0600782559158,0.0444948013863,0.238284041327
tagged_abstract_sents/14649781.txt,8,0.0144810941271,-0.0460317460317,0.139250797795,0.0356431803763,0.00618968618781,0.0456869483927,0.0165037471489,0.151077260835
tagged_abstract_sents/14649781.txt,9,0.00120675784393,0.0206349206349,0.139250797795,0.0356431803763,0.0572384683736,0.143368049794,0.0396847507331,0.325702012313
tagged_abstract_sents/14649781.txt,10,0.00120675784393,-0.0574603174603,0.139250797795,0.0356431803763,0.00877853141462,0.0382780330862,0.00868768328446,0.125535943579
