tagged_abstract_sents/14656957.txt,2,0.0451248992748,-0.105705996132,0.188769469584,0.123191979006,0.0,0.26451616058,0.0216044861152,0.416941942911
tagged_abstract_sents/14656957.txt,3,0.131345688961,-0.139555125725,0.188769469584,0.123191979006,0.0,0.480536279407,0.0324898713843,0.710946056165
tagged_abstract_sents/14656957.txt,5,0.131345688961,-0.150676982592,0.188769469584,0.123191979006,0.0,0.322013102005,0.0251445009722,0.524749167205
tagged_abstract_sents/14656957.txt,6,0.0342465753425,-0.136170212766,0.188769469584,0.123191979006,0.0,0.271558829744,0.0231853439635,0.40946741051
