tagged_abstract_sents/14672486.txt,2,0.206355591311,-0.0611842105263,0.0616692308323,0.106008497564,0.121994625761,0.0,0.0,0.215484795629
tagged_abstract_sents/14672486.txt,4,0.0048270313757,-0.0622807017544,0.0616692308323,0.106008497564,0.121994625761,0.0,0.0,0.054042649435
tagged_abstract_sents/14672486.txt,5,0.0048270313757,0.0457236842105,0.210342442448,0.0253702522065,0.121994625761,0.134877077208,0.0824956859362,0.446453394538
tagged_abstract_sents/14672486.txt,6,0.0108608205953,-0.0277412280702,0.0616692308323,0.106008497564,0.121994625761,0.111958192696,0.0544333350251,0.252594217751
tagged_abstract_sents/14672486.txt,7,0.016894609815,0.0194078947368,0.0616692308323,0.106008497564,0.121994625761,0.185806302433,0.069481316785,0.342765174953
tagged_abstract_sents/14672486.txt,8,0.0261464199517,-0.0622807017544,0.139250797795,0.521468892835,0.121994625761,0.0,0.0,0.234527062358
tagged_abstract_sents/14672486.txt,9,0.0518905872888,-0.0118421052632,0.139250797795,0.521468892835,0.121994625761,0.12477879808,0.0766086917034,0.512751330355
tagged_abstract_sents/14672486.txt,10,0.0683829444891,0.0199561403509,0.139250797795,0.521468892835,0.121994625761,0.131588598297,0.0839516824849,0.509122743254
tagged_abstract_sents/14672486.txt,12,0.172566371681,0.00241228070175,0.139250797795,0.521468892835,0.121994625761,0.152497738775,0.0677994352498,0.627982317011
tagged_abstract_sents/14672486.txt,13,0.214802896219,-0.0600877192982,0.0616692308323,0.106008497564,0.121994625761,0.0,0.0,0.222461937801
tagged_abstract_sents/14672486.txt,14,0.206355591311,-0.0156798245614,0.139250797795,0.521468892835,0.121994625761,0.161655741078,0.0748208725663,0.716764706474
tagged_abstract_sents/14672486.txt,15,0.262268704747,0.0671052631579,0.139250797795,0.521468892835,0.121994625761,0.217911881764,0.0693485763589,0.824034915714
tagged_abstract_sents/14672486.txt,16,0.262268704747,0.0194078947368,0.139250797795,0.521468892835,0.121994625761,0.228199187542,0.0644073754514,0.799261310936
