tagged_abstract_sents/14704724.txt,2,0.0954875100725,-0.0124821173104,0.188769469584,0.123191979006,0.0187704275951,0.238821931477,0.0244461902545,0.450607384161
tagged_abstract_sents/14704724.txt,3,0.0253827558421,0.0159513590844,0.188769469584,0.123191979006,0.0187704275951,0.30063345385,0.0494729316308,0.461141721118
tagged_abstract_sents/14704724.txt,4,0.0451248992748,0.00736766809728,0.188769469584,0.123191979006,0.0187704275951,0.209307188196,0.0421205772812,0.313747970544
tagged_abstract_sents/14704724.txt,6,0.123690572119,-0.0296494992847,0.0616692308323,0.247294108221,0.0187704275951,0.235381577691,0.0215607541899,0.414186319939
tagged_abstract_sents/14704724.txt,7,0.131345688961,0.0331187410587,0.0616692308323,0.247294108221,0.0187704275951,0.214297983122,0.0160498137803,0.476705309876
tagged_abstract_sents/14704724.txt,8,0.140209508461,-0.0366237482117,0.0616692308323,0.247294108221,0.0187704275951,0.0470327796691,0.0,0.252823641083
tagged_abstract_sents/14704724.txt,9,0.149879129734,-0.0350143061516,0.0616692308323,0.247294108221,0.0187704275951,0.138237518258,0.041812150838,0.352434344136
tagged_abstract_sents/14704724.txt,10,0.150684931507,-0.0328683834049,0.0616692308323,0.247294108221,0.0187704275951,0.11578357635,0.00934008379888,0.242820415585
tagged_abstract_sents/14704724.txt,11,0.176470588235,0.0052217453505,0.139250797795,0.194462959676,0.0187704275951,0.272417864829,0.0293893340194,0.543832015013
tagged_abstract_sents/14704724.txt,12,0.166800966962,0.071208869814,0.139250797795,0.194462959676,0.0187704275951,0.276374126856,0.0279008012349,0.563061163698
tagged_abstract_sents/14704724.txt,13,0.131345688961,-0.0060443490701,0.139250797795,0.194462959676,0.0187704275951,0.171121403814,0.0254753975075,0.389856404339
tagged_abstract_sents/14704724.txt,14,0.0954875100725,-0.00819027181688,0.139250797795,0.194462959676,0.0187704275951,0.203734400614,0.0203445065177,0.3804513646
tagged_abstract_sents/14704724.txt,15,0.0342465753425,-0.000679542203147,0.139250797795,0.194462959676,0.0187704275951,0.246441461128,0.0388340042721,0.425076873898
tagged_abstract_sents/14704724.txt,16,0.0342465753425,0.00897711015737,0.139250797795,0.194462959676,0.0187704275951,0.273826342668,0.0332760585122,0.331812214676
