tagged_abstract_sents/14707320.txt,2,0.0954875100725,-0.0697802197802,0.0616692308323,0.247294108221,0.140792878494,0.0,0.0,0.167456811984
tagged_abstract_sents/14707320.txt,4,0.0805801772764,-0.0717282717283,0.0616692308323,0.247294108221,0.140792878494,0.0,0.0,0.155141335358
tagged_abstract_sents/14707320.txt,5,0.123690572119,0.00554445554446,0.194899689933,0.293363477728,0.140792878494,0.404391885526,0.0386513157895,0.613267364117
tagged_abstract_sents/14707320.txt,6,0.123690572119,0.0341158841159,0.210342442448,0.141687475369,0.140792878494,0.580225767878,0.0366146293027,0.731004461045
tagged_abstract_sents/14707320.txt,7,0.140209508461,0.0990509490509,0.0616692308323,0.247294108221,0.140792878494,0.627995622145,0.0371601941748,0.767422022081
tagged_abstract_sents/14707320.txt,8,0.149879129734,-0.0386113886114,0.0616692308323,0.247294108221,0.140792878494,0.280033509379,0.0469291782247,0.466830727816
tagged_abstract_sents/14707320.txt,9,0.176470588235,-0.0717282717283,0.0616692308323,0.247294108221,0.140792878494,0.0,0.0,0.231853664125
tagged_abstract_sents/14707320.txt,10,0.176470588235,-0.0334165834166,0.139250797795,0.194462959676,0.140792878494,0.399886223841,0.0289644012945,0.611431920214
tagged_abstract_sents/14707320.txt,11,0.166800966962,0.0432067932068,0.139250797795,0.194462959676,0.140792878494,0.622026351277,0.0336705888561,0.798831025744
tagged_abstract_sents/14707320.txt,12,0.0954875100725,0.00294705294705,0.139250797795,0.194462959676,0.140792878494,0.474852393325,0.0380448523463,0.688362741665
tagged_abstract_sents/14707320.txt,13,0.0342465753425,-0.0691308691309,0.0616692308323,0.247294108221,0.140792878494,0.0,0.0,0.11859393433
tagged_abstract_sents/14707320.txt,14,0.0342465753425,0.132167832168,0.139250797795,0.194462959676,0.140792878494,0.779960306825,0.0363816119853,0.91386000971
