tagged_abstract_sents/14716790.txt,1,0.125905068383,-0.0700351620828,0.0616692308323,0.142474783506,0.0,0.0,0.0,0.160294072758
tagged_abstract_sents/14716790.txt,2,0.239742558327,-0.0174365396657,0.188769469584,0.202456734834,0.106235531472,0.291773868767,0.0319726545327,0.773410548742
tagged_abstract_sents/14716790.txt,3,0.218020917136,0.0144983382303,0.0616692308323,0.142474783506,0.148461226971,0.495328487773,0.0514695890586,0.946152755625
tagged_abstract_sents/14716790.txt,4,0.162510056315,-0.0719136843119,0.0616692308323,0.142474783506,0.0,0.0,0.0,0.189202358658
tagged_abstract_sents/14716790.txt,5,0.162510056315,0.0326573864457,0.139250797795,0.0356431803763,0.119110175815,0.55916748345,0.0569460176579,0.952081552274
tagged_abstract_sents/14716790.txt,6,0.101769911504,0.031405038293,0.139250797795,0.0356431803763,0.23339539618,0.407289451259,0.04821135077,0.856911488082
tagged_abstract_sents/14716790.txt,7,0.0711987127916,-0.0719136843119,0.139250797795,0.0356431803763,0.0,0.0,0.0,0.122894586381
tagged_abstract_sents/14716790.txt,8,0.0458567980692,0.13785463128,0.139250797795,0.0356431803763,0.215870418153,0.572854950799,0.0738876571111,1.00718774378
tagged_abstract_sents/14716790.txt,9,0.0458567980692,0.0101151196956,0.139250797795,0.0356431803763,0.199201018855,0.262816599682,0.0378288290449,0.618873262987
tagged_abstract_sents/14716790.txt,10,0.0245374094932,-0.00616540629064,0.139250797795,0.0356431803763,0.0278413546904,0.224980597666,0.0317094503603,0.383246602063
tagged_abstract_sents/14716790.txt,11,0.00844730490748,-0.0700351620828,0.139250797795,0.0356431803763,0.0,0.0,0.0,0.0730691645197
tagged_abstract_sents/14716790.txt,12,0.00120675784393,0.010741293772,0.139250797795,0.0356431803763,0.0985644174963,0.311526540205,0.0391347929306,0.532657768671
tagged_abstract_sents/14716790.txt,13,0.00120675784393,0.0702278310293,0.139250797795,0.0356431803763,0.225224648109,0.603047480475,0.0462791992731,0.969880653348
