tagged_abstract_sents/14754723.txt,1,0.125905068383,-0.0588486140725,0.0616692308323,0.142474783506,0.0,0.0,0.0,0.16253138236
tagged_abstract_sents/14754723.txt,2,0.239742558327,0.0442075337598,0.188769469584,0.202456734834,0.282033704554,0.36659398239,0.0416484811453,1.04603347674
tagged_abstract_sents/14754723.txt,3,0.229283990346,0.0335465529495,0.0616692308323,0.142474783506,0.184278630251,0.343369536364,0.0452620233179,0.836623743267
tagged_abstract_sents/14754723.txt,4,0.218020917136,-0.0588486140725,0.0616692308323,0.142474783506,0.0,0.0,0.0,0.236224061362
tagged_abstract_sents/14754723.txt,5,0.162510056315,0.056289978678,0.139250797795,0.0356431803763,0.252241030382,0.441858992107,0.0352404229848,0.950924839272
tagged_abstract_sents/14754723.txt,6,0.118262268705,-0.0574271499645,0.0616692308323,0.142474783506,0.0,0.0,0.0,0.156701435439
tagged_abstract_sents/14754723.txt,7,0.101769911504,0.010803127221,0.0616692308323,0.142474783506,0.169849554949,0.266603210418,0.0401674139959,0.633773784478
tagged_abstract_sents/14754723.txt,8,0.0711987127916,-0.0609808102345,0.0616692308323,0.142474783506,0.0,0.0,0.0,0.118339858654
tagged_abstract_sents/14754723.txt,9,0.0571198712792,0.0626865671642,0.210342442448,0.226435992083,0.258242133574,0.356207161293,0.0469841131285,0.8927686373
tagged_abstract_sents/14754723.txt,10,0.0458567980692,-0.0609808102345,0.0616692308323,0.142474783506,0.0,0.0,0.0,0.0980663268763
tagged_abstract_sents/14754723.txt,11,0.0245374094932,0.0875621890547,0.139250797795,0.0356431803763,0.193001335887,0.396147573744,0.0445584443489,0.751168072396
tagged_abstract_sents/14754723.txt,12,0.0144810941271,-0.0581378820185,0.0616692308323,0.142474783506,0.0,0.0,0.0,0.0735343493659
tagged_abstract_sents/14754723.txt,13,0.00844730490748,0.0299928926795,0.139250797795,0.0356431803763,0.140968147631,0.220467309472,0.0295805691341,0.48409080171
tagged_abstract_sents/14754723.txt,14,0.00120675784393,0.0257285003554,0.139250797795,0.0356431803763,0.0332327405745,0.266624244111,0.0332091868405,0.419495630883
tagged_abstract_sents/14754723.txt,15,0.00120675784393,0.0044065387349,0.139250797795,0.0356431803763,0.111049622873,0.25606439002,0.0289998448169,0.478278924742
