tagged_abstract_sents/14968141.txt,2,0.206355591311,-0.0354284781036,0.0616692308323,0.106008497564,0.0930583300248,0.0,0.0,0.220635942114
tagged_abstract_sents/14968141.txt,3,0.206355591311,0.0124938755512,0.188769469584,0.129715814208,0.0930583300248,0.525442431575,0.0428368547663,0.893718139091
tagged_abstract_sents/14968141.txt,4,0.206355591311,-0.0360350901752,0.0616692308323,0.106008497564,0.0930583300248,0.0,0.0,0.220514619699
tagged_abstract_sents/14968141.txt,5,0.206355591311,0.0349385221997,0.139250797795,0.521468892835,0.0930583300248,0.384444359835,0.0351901766996,0.929619841295
tagged_abstract_sents/14968141.txt,6,0.206355591311,0.0228062807681,0.139250797795,0.521468892835,0.0930583300248,0.453936175983,0.0479818923215,0.897881188762
tagged_abstract_sents/14968141.txt,8,0.0048270313757,-0.00782762884674,0.139250797795,0.521468892835,0.0930583300248,0.412687409025,0.0460317460317,0.659125499202
tagged_abstract_sents/14968141.txt,9,0.0108608205953,-0.0357317841394,0.139250797795,0.521468892835,0.0930583300248,0.0,0.0,0.227608366396
tagged_abstract_sents/14968141.txt,10,0.0108608205953,0.0282657894123,0.139250797795,0.521468892835,0.0930583300248,0.396517032063,0.045750485045,0.669138294116
tagged_abstract_sents/14968141.txt,11,0.0108608205953,-0.0357317841394,0.139250797795,0.521468892835,0.0930583300248,0.0,0.0,0.227608366396
tagged_abstract_sents/14968141.txt,12,0.0261464199517,0.0173467721238,0.139250797795,0.521468892835,0.0930583300248,0.365222766659,0.0449040978163,0.772562546114
tagged_abstract_sents/14968141.txt,13,0.0261464199517,0.00460791862066,0.139250797795,0.521468892835,0.0930583300248,0.300306578619,0.0500898472597,0.586842356524
tagged_abstract_sents/14968141.txt,14,0.0353982300885,0.00157485826276,0.139250797795,0.521468892835,0.0930583300248,0.175880149849,0.019328679706,0.481162129697
tagged_abstract_sents/14968141.txt,15,0.0518905872888,-0.036338396211,0.139250797795,0.521468892835,0.0930583300248,0.0,0.0,0.260310857337
tagged_abstract_sents/14968141.txt,16,0.0518905872888,0.0215930566249,0.139250797795,0.521468892835,0.0930583300248,0.366242677313,0.0501076740969,0.655859011617
tagged_abstract_sents/14968141.txt,17,0.0993563958166,-0.030575581531,0.139250797795,0.521468892835,0.0930583300248,0.0,0.0,0.299436067095
tagged_abstract_sents/14968141.txt,19,0.0993563958166,-0.00661440470358,0.139250797795,0.521468892835,0.0930583300248,0.24142500264,0.0490603474094,0.690497280141
tagged_abstract_sents/14968141.txt,20,0.172566371681,0.011280651408,0.139250797795,0.521468892835,0.0930583300248,0.446411254698,0.037308004963,0.82452206398
tagged_abstract_sents/14968141.txt,21,0.172566371681,-0.0336086418889,0.139250797795,0.521468892835,0.0930583300248,0.0,0.0,0.357397435715
tagged_abstract_sents/14968141.txt,22,0.206355591311,0.0131004876228,0.139250797795,0.521468892835,0.0930583300248,0.46420143776,0.0445278740427,0.944803721252
tagged_abstract_sents/14968141.txt,23,0.206355591311,0.0752782249598,0.139250797795,0.521468892835,0.0930583300248,0.637586449226,0.0487571129081,1.09190388898
tagged_abstract_sents/14968141.txt,24,0.206355591311,-0.0351251720678,0.0616692308323,0.106008497564,0.0930583300248,0.0,0.0,0.220696603321
tagged_abstract_sents/14968141.txt,25,0.262268704747,0.0124938755512,0.0616692308323,0.106008497564,0.0930583300248,0.279154940229,0.0287178463279,0.603763197392
tagged_abstract_sents/14968141.txt,26,0.262268704747,-0.0151069737057,0.139250797795,0.521468892835,0.0930583300248,0.189027888398,0.0232961108972,0.675241726528
tagged_abstract_sents/14968141.txt,27,0.262268704747,-0.0257226849584,0.139250797795,0.521468892835,0.0930583300248,0.110321005519,0.0201407607068,0.608871810095
