tagged_abstract_sents/14973979.txt,1,0.125905068383,-0.0398933725526,0.0616692308323,0.142474783506,0.0,0.0,0.0,0.166322430664
tagged_abstract_sents/14973979.txt,2,0.125905068383,0.0809357477709,0.188769469584,0.202456734834,0.453352082729,0.487790452914,0.0334591479439,1.24663464309
tagged_abstract_sents/14973979.txt,3,0.239742558327,-0.0398933725526,0.0616692308323,0.142474783506,0.0,0.0,0.0,0.257392422619
tagged_abstract_sents/14973979.txt,4,0.239742558327,0.0273462634433,0.0616692308323,0.142474783506,0.542099691074,0.282629655604,0.0216822245271,1.11725192102
tagged_abstract_sents/14973979.txt,5,0.218020917136,-0.0373655666881,0.0616692308323,0.142474783506,0.0,0.0,0.0,0.240520670839
tagged_abstract_sents/14973979.txt,6,0.218020917136,0.0834635536354,0.0616692308323,0.142474783506,0.0,0.199347574457,0.039770201646,0.503804271007
tagged_abstract_sents/14973979.txt,7,0.162510056315,-0.0358488831694,0.0616692308323,0.142474783506,0.0,0.0,0.0,0.196415318886
tagged_abstract_sents/14973979.txt,8,0.162510056315,0.00712381652725,0.0616692308323,0.142474783506,0.35726579684,0.253235415938,0.0291827745525,0.844693846156
tagged_abstract_sents/14973979.txt,9,0.101769911504,-0.0307932714404,0.0616692308323,0.142474783506,0.0,0.0,0.0,0.148834325383
tagged_abstract_sents/14973979.txt,10,0.101769911504,-0.0237154150198,0.0616692308323,0.142474783506,0.120144251605,0.0692247711172,0.0299748110831,0.369593730473
tagged_abstract_sents/14973979.txt,11,0.0852775543041,0.0404908539388,0.0616692308323,0.142474783506,0.0539429134964,0.236481557887,0.0261643700301,0.466486106112
tagged_abstract_sents/14973979.txt,12,0.0711987127916,-0.0388822502068,0.0616692308323,0.142474783506,0.0,0.0,0.0,0.12275957066
tagged_abstract_sents/14973979.txt,13,0.0711987127916,0.0212795293685,0.0616692308323,0.142474783506,0.0,0.125405728142,0.0298099718477,0.290007626564
tagged_abstract_sents/14973979.txt,14,0.0458567980692,-0.0176486809449,0.0616692308323,0.142474783506,0.0,0.0888576039519,0.0544031214501,0.249993478136
tagged_abstract_sents/14973979.txt,15,0.0458567980692,0.0430186598033,0.139250797795,0.0356431803763,0.420775982829,0.340913210339,0.0309428557317,0.918239572326
tagged_abstract_sents/14973979.txt,16,0.0245374094932,0.0561632502987,0.139250797795,0.0356431803763,0.388749650402,0.446258528348,0.0260779374722,0.972267046887
tagged_abstract_sents/14973979.txt,17,0.0245374094932,-0.00905414100561,0.139250797795,0.0356431803763,0.0,0.0264177799678,0.000833456808416,0.12538868918
tagged_abstract_sents/14973979.txt,18,0.00844730490748,-0.0221987315011,0.139250797795,0.0356431803763,0.0,0.0540129268357,0.0238257519633,0.160475129435
tagged_abstract_sents/14973979.txt,19,0.00844730490748,-0.0338266384778,0.0616692308323,0.142474783506,0.0,0.0,0.0,0.0735695666983
tagged_abstract_sents/14973979.txt,20,0.00120675784393,0.00813493887306,0.139250797795,0.0356431803763,0.35693627977,0.311435066189,0.0254396662753,0.776721759295
tagged_abstract_sents/14973979.txt,21,0.00120675784393,-0.0211876091553,0.139250797795,0.0356431803763,0.19590161634,0.104205329347,0.0330789746629,0.410232157804
tagged_abstract_sents/14973979.txt,22,0.00120675784393,-0.0176486809449,0.139250797795,0.0356431803763,0.0,0.048049903515,0.0128315305971,0.138635457209
