tagged_abstract_sents/14973999.txt,2,0.206355591311,-0.043851313583,0.0616692308323,0.106008497564,0.127051865436,0.0,0.0,0.218951375018
tagged_abstract_sents/14973999.txt,3,0.206355591311,0.016517607602,0.188769469584,0.129715814208,0.127051865436,0.180080362393,0.0340838338705,0.498238236741
tagged_abstract_sents/14973999.txt,5,0.0048270313757,-0.000251537171604,0.188769469584,0.129715814208,0.127051865436,0.252876575398,0.0342513917375,0.418966052414
tagged_abstract_sents/14973999.txt,6,0.0048270313757,0.0366405813304,0.188769469584,0.129715814208,0.127051865436,0.249930888281,0.0369622542962,0.442672491924
tagged_abstract_sents/14973999.txt,7,0.0048270313757,-0.00584125209614,0.0616692308323,0.106008497564,0.127051865436,0.190069103168,0.0270462418779,0.342050018025
tagged_abstract_sents/14973999.txt,8,0.0108608205953,-0.043851313583,0.0616692308323,0.106008497564,0.127051865436,0.0,0.0,0.062555558445
tagged_abstract_sents/14973999.txt,9,0.016894609815,0.00645612073784,0.0616692308323,0.106008497564,0.127051865436,0.268188252229,0.0381315139592,0.371866871578
tagged_abstract_sents/14973999.txt,10,0.0261464199517,-0.0410564561207,0.0616692308323,0.106008497564,0.127051865436,0.0,0.0,0.0753430094225
tagged_abstract_sents/14973999.txt,11,0.0353982300885,0.107629960872,0.0616692308323,0.106008497564,0.127051865436,0.283997415269,0.033921103801,0.451091932589
tagged_abstract_sents/14973999.txt,12,0.0518905872888,-0.0393795416434,0.0616692308323,0.106008497564,0.127051865436,0.0,0.0,0.0962737261877
tagged_abstract_sents/14973999.txt,14,0.0993563958166,-0.0337898267188,0.0616692308323,0.106008497564,0.127051865436,0.0,0.0,0.135364315995
tagged_abstract_sents/14973999.txt,15,0.130329847144,0.0131637786473,0.0616692308323,0.106008497564,0.127051865436,0.276503140066,0.0377134219428,0.500324127297
tagged_abstract_sents/14973999.txt,16,0.172566371681,-0.0209334823924,0.0616692308323,0.106008497564,0.127051865436,0.225524222572,0.0387651788912,0.508038712699
tagged_abstract_sents/14973999.txt,17,0.214802896219,-0.0427333705981,0.0616692308323,0.106008497564,0.127051865436,0.0,0.0,0.225932807541
tagged_abstract_sents/14973999.txt,18,0.206355591311,-0.0226103968698,0.0616692308323,0.106008497564,0.127051865436,0.163903684663,0.0333723996484,0.452494828506
tagged_abstract_sents/14973999.txt,19,0.262268704747,-0.0119899385131,0.0616692308323,0.106008497564,0.127051865436,0.135266687999,0.0347620442845,0.490443273498
tagged_abstract_sents/14973999.txt,20,0.262268704747,-0.0371436556736,0.0616692308323,0.106008497564,0.127051865436,0.0,0.0,0.265023397348
tagged_abstract_sents/14973999.txt,21,0.262268704747,0.0461430967021,0.0616692308323,0.106008497564,0.127051865436,0.29560470009,0.0262690448286,0.655172646575
