tagged_abstract_sents/14973951.txt,2,0.206355591311,-0.0332605928351,0.0616692308323,0.106008497564,0.125719526922,0.0,0.0,0.221069519167
tagged_abstract_sents/14973951.txt,3,0.206355591311,0.00172758683397,0.188769469584,0.129715814208,0.125719526922,0.145469318688,0.0306576663887,0.586801959582
tagged_abstract_sents/14973951.txt,4,0.206355591311,0.0111838516094,0.188769469584,0.129715814208,0.125719526922,0.150825359568,0.0217099776871,0.631464025282
tagged_abstract_sents/14973951.txt,5,0.206355591311,-0.0332605928351,0.0616692308323,0.106008497564,0.125719526922,0.0,0.0,0.221069519167
tagged_abstract_sents/14973951.txt,7,0.0048270313757,-0.0308965266412,0.0616692308323,0.106008497564,0.125719526922,0.0,0.0,0.0603194844576
tagged_abstract_sents/14973951.txt,8,0.0048270313757,0.0485360974723,0.0616692308323,0.106008497564,0.125719526922,0.300657353329,0.0366513065019,0.403954719376
tagged_abstract_sents/14973951.txt,9,0.0108608205953,-0.0238043280596,0.0616692308323,0.106008497564,0.125719526922,0.079716784178,0.034728326334,0.186552279947
tagged_abstract_sents/14973951.txt,10,0.0108608205953,-0.0294780869249,0.0616692308323,0.106008497564,0.125719526922,0.0,0.0,0.0654302037766
tagged_abstract_sents/14973951.txt,11,0.0108608205953,0.00740134569922,0.0616692308323,0.106008497564,0.125719526922,0.291809662484,0.0736082625256,0.547032552753
tagged_abstract_sents/14973951.txt,12,0.0261464199517,-0.0247499545372,0.0616692308323,0.106008497564,0.125719526922,0.0,0.0,0.0786043097392
tagged_abstract_sents/14973951.txt,13,0.0261464199517,-0.00441898527005,0.0616692308323,0.106008497564,0.125719526922,0.259905341446,0.047056918593,0.445764283377
tagged_abstract_sents/14973951.txt,14,0.0353982300885,-0.0323149663575,0.0616692308323,0.106008497564,0.125719526922,0.0,0.0,0.0844927554846
tagged_abstract_sents/14973951.txt,15,0.0518905872888,0.0253682487725,0.139250797795,0.521468892835,0.125719526922,0.277932990362,0.0617931438617,0.693854777014
tagged_abstract_sents/14973951.txt,16,0.0518905872888,-0.00583742498636,0.139250797795,0.521468892835,0.125719526922,0.171133020864,0.0444885103177,0.478501766716
tagged_abstract_sents/14973951.txt,17,0.0993563958166,-0.0190761956719,0.139250797795,0.521468892835,0.125719526922,0.0996968620585,0.0576399062408,0.464498947566
tagged_abstract_sents/14973951.txt,18,0.0993563958166,0.0310420076378,0.139250797795,0.521468892835,0.125719526922,0.336418770228,0.0772114641877,0.705259502849
tagged_abstract_sents/14973951.txt,20,0.172566371681,0.0168576104746,0.139250797795,0.521468892835,0.125719526922,0.266325468409,0.0370458540873,0.806182154396
tagged_abstract_sents/14973951.txt,21,0.172566371681,-0.00300054555374,0.139250797795,0.521468892835,0.125719526922,0.110758329982,0.0348999813547,0.509019447746
tagged_abstract_sents/14973951.txt,22,0.206355591311,-0.00820149118021,0.139250797795,0.521468892835,0.125719526922,0.21345621175,0.0750576838558,0.763016230447
tagged_abstract_sents/14973951.txt,23,0.206355591311,0.0215857428623,0.139250797795,0.521468892835,0.125719526922,0.357845475739,0.0898494726047,0.947008876967
tagged_abstract_sents/14973951.txt,24,0.206355591311,-0.0275868339698,0.139250797795,0.521468892835,0.125719526922,0.0,0.0,0.385633173003
tagged_abstract_sents/14973951.txt,25,0.262268704747,-0.00489179850882,0.139250797795,0.521468892835,0.125719526922,0.202709641493,0.046806328743,0.824219609837
tagged_abstract_sents/14973951.txt,26,0.262268704747,0.0135479178032,0.139250797795,0.521468892835,0.125719526922,0.248771477369,0.0589250252303,0.793113493115
tagged_abstract_sents/14973951.txt,27,0.262268704747,0.0196944899073,0.139250797795,0.521468892835,0.125719526922,0.258067018297,0.0740225282417,0.83955255421
