tagged_abstract_sents/14974003.txt,1,0.125905068383,-0.03292027057,0.0616692308323,0.142474783506,0.0,0.0,0.0,0.16771705106
tagged_abstract_sents/14974003.txt,2,0.125905068383,0.0434270348193,0.188769469584,0.202456734834,0.241920790441,0.175668003816,0.0505437438905,0.732663755061
tagged_abstract_sents/14974003.txt,3,0.239742558327,-0.03292027057,0.0616692308323,0.142474783506,0.0,0.0,0.0,0.258787043015
tagged_abstract_sents/14974003.txt,4,0.239742558327,-0.00634841428255,0.0616692308323,0.142474783506,0.183301619313,0.132947904795,0.043039049236,0.623389987617
tagged_abstract_sents/14974003.txt,5,0.239742558327,-0.0310490130849,0.0616692308323,0.142474783506,0.0,0.0,0.0,0.259161294512
tagged_abstract_sents/14974003.txt,6,0.218020917136,0.0628881126636,0.0616692308323,0.142474783506,0.0549913702614,0.148441807204,0.0446385311743,0.508643115349
tagged_abstract_sents/14974003.txt,7,0.218020917136,0.0213461964959,0.0616692308323,0.142474783506,0.054930056963,0.177069770964,0.0615384615385,0.545801312941
tagged_abstract_sents/14974003.txt,8,0.218020917136,-0.0033544023065,0.0616692308323,0.142474783506,0.0768006589322,0.113454527746,0.0603372434018,0.497915333796
tagged_abstract_sents/14974003.txt,9,0.162510056315,-0.0239382346418,0.0616692308323,0.142474783506,0.0,0.020957082491,0.021224340176,0.240978871259
tagged_abstract_sents/14974003.txt,10,0.162510056315,-0.0299262585939,0.0616692308323,0.142474783506,0.0,0.0,0.0,0.197599843801
tagged_abstract_sents/14974003.txt,11,0.101769911504,0.00937014859171,0.0616692308323,0.142474783506,0.0147636893038,0.124434031122,0.0515029325513,0.347567662367
tagged_abstract_sents/14974003.txt,12,0.101769911504,0.0134869150588,0.0616692308323,0.142474783506,0.0687520038941,0.112383732019,0.0377990430622,0.376625141659
tagged_abstract_sents/14974003.txt,13,0.101769911504,-0.0261837436239,0.0616692308323,0.142474783506,0.0,0.0,0.0,0.149756230947
tagged_abstract_sents/14974003.txt,14,0.0711987127916,-0.00896817476159,0.0616692308323,0.142474783506,0.0769734483254,0.107887134642,0.0396498188718,0.353252787588
tagged_abstract_sents/14974003.txt,15,0.0711987127916,-0.032171767576,0.0616692308323,0.142474783506,0.0,0.0,0.0,0.124101667186
tagged_abstract_sents/14974003.txt,16,0.0711987127916,-0.0261837436239,0.0616692308323,0.142474783506,0.0359233165723,0.0513370812653,0.0422020794455,0.25476174926
tagged_abstract_sents/14974003.txt,17,0.0458567980692,0.0321994899091,0.139250797795,0.0356431803763,0.249973805149,0.185044892322,0.0505806451613,0.609043032079
tagged_abstract_sents/14974003.txt,18,0.0458567980692,0.00675038811266,0.139250797795,0.0356431803763,0.0686171262921,0.172408534742,0.050991202346,0.410370732469
tagged_abstract_sents/14974003.txt,19,0.0245374094932,0.0108671545797,0.139250797795,0.0356431803763,0.171195973005,0.108943691978,0.034155597723,0.416416974226
tagged_abstract_sents/14974003.txt,20,0.0245374094932,0.0142354180528,0.139250797795,0.0356431803763,0.0129724644155,0.0531819737813,0.020941082378,0.18989088479
tagged_abstract_sents/14974003.txt,21,0.0245374094932,-0.00672266577955,0.139250797795,0.0356431803763,0.147331704188,0.113192260018,0.0379379533879,0.397065665043
tagged_abstract_sents/14974003.txt,22,0.00844730490748,-0.0284292526059,0.139250797795,0.0356431803763,0.0,0.0,0.0,0.0813903464151
tagged_abstract_sents/14974003.txt,23,0.00844730490748,0.00600188511865,0.139250797795,0.0356431803763,0.323607511975,0.165720932272,0.0593267882188,0.636931806426
tagged_abstract_sents/14974003.txt,24,0.00844730490748,-0.0179502106897,0.139250797795,0.0356431803763,0.0,0.0234809541314,0.0536840175953,0.160651126525
tagged_abstract_sents/14974003.txt,25,0.00120675784393,0.02957972943,0.139250797795,0.0356431803763,0.168946584293,0.208250978792,0.0532205697528,0.517617838009
tagged_abstract_sents/14974003.txt,26,0.00120675784393,0.0318252384121,0.139250797795,0.0356431803763,0.216485906929,0.22339902795,0.0636262513904,0.591159993238
tagged_abstract_sents/14974003.txt,27,0.00120675784393,0.025088711466,0.139250797795,0.0356431803763,0.0418318107713,0.128220368644,0.0585815712301,0.314935252224
