tagged_abstract_sents/14993084.txt,2,0.0954875100725,-0.065331010453,0.0616692308323,0.247294108221,0.152180132162,0.0,0.0,0.16834665385
tagged_abstract_sents/14993084.txt,4,0.0805801772764,-0.0665505226481,0.0616692308323,0.247294108221,0.152180132162,0.0,0.0,0.156176885174
tagged_abstract_sents/14993084.txt,5,0.0805801772764,-0.00313588850174,0.0616692308323,0.247294108221,0.152180132162,0.367429730863,0.0376257447016,0.530739468587
tagged_abstract_sents/14993084.txt,6,0.123690572119,0.00235191637631,0.210342442448,0.141687475369,0.152180132162,0.327355214228,0.024461950297,0.636706653437
tagged_abstract_sents/14993084.txt,7,0.140209508461,-0.000696864111498,0.194899689933,0.293363477728,0.152180132162,0.266831165362,0.0557997200247,0.509266144812
tagged_abstract_sents/14993084.txt,8,0.149073327961,0.0304006968641,0.0616692308323,0.247294108221,0.152180132162,0.262340981285,0.0310345891098,0.51498976305
tagged_abstract_sents/14993084.txt,9,0.149879129734,-0.00801393728223,0.0616692308323,0.247294108221,0.152180132162,0.277422576829,0.0499406294817,0.522640888944
tagged_abstract_sents/14993084.txt,10,0.176470588235,-0.0665505226481,0.0616692308323,0.247294108221,0.152180132162,0.0,0.0,0.232889213941
tagged_abstract_sents/14993084.txt,11,0.166800966962,-0.0195993031359,0.0616692308323,0.247294108221,0.152180132162,0.17220650548,0.0260767653091,0.409577793111
tagged_abstract_sents/14993084.txt,12,0.166800966962,0.0358885017422,0.139250797795,0.194462959676,0.152180132162,0.406690652389,0.0476289751854,0.648038974319
tagged_abstract_sents/14993084.txt,13,0.0954875100725,0.116986062718,0.139250797795,0.194462959676,0.152180132162,0.364010035532,0.0493792118371,0.608934930943
tagged_abstract_sents/14993084.txt,14,0.0342465753425,-0.0641114982578,0.0616692308323,0.247294108221,0.152180132162,0.0,0.0,0.119597808505
tagged_abstract_sents/14993084.txt,15,0.0342465753425,0.0871080139373,0.139250797795,0.194462959676,0.152180132162,0.398317567645,0.0482600464288,0.508135080235
