tagged_abstract_sents/15007496.txt,2,0.0954875100725,-0.0626489401731,0.0616692308323,0.247294108221,0.136148199629,0.0,0.0,0.168883067906
tagged_abstract_sents/15007496.txt,4,0.0805801772764,-0.0644048664242,0.0616692308323,0.247294108221,0.136148199629,0.0,0.0,0.156606016419
tagged_abstract_sents/15007496.txt,5,0.0805801772764,0.0690455286592,0.139250797795,0.194462959676,0.136148199629,0.221949093152,0.00558086314471,0.408395790797
tagged_abstract_sents/15007496.txt,6,0.123690572119,0.0409507086417,0.139250797795,0.194462959676,0.136148199629,0.15577573396,0.00261951538965,0.405189942798
tagged_abstract_sents/15007496.txt,7,0.140209508461,0.0409507086417,0.139250797795,0.194462959676,0.136148199629,0.19587537999,0.00751687024857,0.390141220662
tagged_abstract_sents/15007496.txt,8,0.149073327961,-0.0644048664242,0.139250797795,0.194462959676,0.136148199629,0.0,0.0,0.234341975884
tagged_abstract_sents/15007496.txt,9,0.149879129734,0.00144236799197,0.139250797795,0.194462959676,0.136148199629,0.122627561642,0.00320756986488,0.350600217484
tagged_abstract_sents/15007496.txt,10,0.176470588235,0.0690455286592,0.139250797795,0.194462959676,0.136148199629,0.2082150242,0.00720366732155,0.388157894009
tagged_abstract_sents/15007496.txt,11,0.166800966962,0.00583218361972,0.139250797795,0.194462959676,0.136148199629,0.109484760854,0.000681608596287,0.364741656949
tagged_abstract_sents/15007496.txt,12,0.166800966962,0.00232033111752,0.139250797795,0.194462959676,0.136148199629,0.104319671509,0.00101470238995,0.355191962323
tagged_abstract_sents/15007496.txt,13,0.0954875100725,-0.0617709770475,0.139250797795,0.194462959676,0.136148199629,0.0,0.0,0.192000099449
tagged_abstract_sents/15007496.txt,14,0.0342465753425,-0.00119152138467,0.139250797795,0.194462959676,0.136148199629,0.0928316682704,0.00243960361839,0.139517135018
tagged_abstract_sents/15007496.txt,15,0.0342465753425,0.00671014674527,0.139250797795,0.194462959676,0.136148199629,0.0933101734484,0.00242390222744,0.278677138058
