tagged_abstract_sents/15016485.txt,2,0.206355591311,-0.0492111809374,0.0616692308323,0.106008497564,0.178505989004,0.0,0.0,0.217879401547
tagged_abstract_sents/15016485.txt,3,0.206355591311,-0.00101466352448,0.188769469584,0.129715814208,0.178505989004,0.558683550822,0.0801539362503,0.931029765114
tagged_abstract_sents/15016485.txt,4,0.206355591311,0.00738085886358,0.188769469584,0.129715814208,0.178505989004,0.598177842702,0.0851452138158,1.0306308335
tagged_abstract_sents/15016485.txt,5,0.0048270313757,-0.0501440167583,0.0616692308323,0.106008497564,0.178505989004,0.0,0.0,0.0564699864342
tagged_abstract_sents/15016485.txt,7,0.0108608205953,0.0129778737889,0.0616692308323,0.106008497564,0.178505989004,0.757295438346,0.076293766748,0.926833809416
tagged_abstract_sents/15016485.txt,8,0.0108608205953,-0.0336639172558,0.0616692308323,0.106008497564,0.178505989004,0.176727442252,0.0315249880213,0.277829112454
tagged_abstract_sents/15016485.txt,9,0.0261464199517,0.018885833988,0.139250797795,0.521468892835,0.178505989004,0.659826581834,0.0899949533522,0.995066042338
tagged_abstract_sents/15016485.txt,10,0.0261464199517,-0.0498330714847,0.139250797795,0.521468892835,0.178505989004,0.0,0.0,0.237016588412
tagged_abstract_sents/15016485.txt,11,0.0518905872888,0.0689480230427,0.139250797795,0.521468892835,0.178505989004,0.625250885598,0.064895842048,0.968059315157
tagged_abstract_sents/15016485.txt,12,0.0518905872888,0.00769180413721,0.139250797795,0.521468892835,0.178505989004,0.492711541195,0.0606207646616,0.822433127368
tagged_abstract_sents/15016485.txt,13,0.0993563958166,-0.0103430217334,0.139250797795,0.521468892835,0.178505989004,0.423221562928,0.058490451237,0.797735674557
tagged_abstract_sents/15016485.txt,14,0.0993563958166,0.0229281225452,0.139250797795,0.521468892835,0.178505989004,0.564589054277,0.0650975580282,0.950447045319
tagged_abstract_sents/15016485.txt,16,0.172566371681,-0.0479673998429,0.0616692308323,0.106008497564,0.178505989004,0.0,0.0,0.191096782062
tagged_abstract_sents/15016485.txt,17,0.206355591311,-0.0162509819324,0.139250797795,0.521468892835,0.178505989004,0.521305488181,0.0754587411807,0.987475936658
tagged_abstract_sents/15016485.txt,18,0.206355591311,0.0260375752815,0.139250797795,0.521468892835,0.178505989004,0.687396874153,0.0783552786046,1.20205919676
tagged_abstract_sents/15016485.txt,19,0.262268704747,0.0229281225452,0.139250797795,0.521468892835,0.178505989004,0.741128496739,0.0743746339831,1.24630272406
tagged_abstract_sents/15016485.txt,20,0.262268704747,0.00489329667452,0.139250797795,0.521468892835,0.178505989004,0.506334108132,0.0530778883962,1.08117427601
