tagged_abstract_sents/15021067.txt,1,0.125905068383,-0.0600649350649,0.0616692308323,0.142474783506,0.0,0.0,0.0,0.162288118161
tagged_abstract_sents/15021067.txt,2,0.239742558327,-0.0310245310245,0.188769469584,0.202456734834,0.0314342248328,0.155352209329,0.0510222352443,0.578519565105
tagged_abstract_sents/15021067.txt,3,0.218020917136,-9.01875901876e-05,0.188769469584,0.202456734834,0.0373166399074,0.263185680569,0.0877495254717,0.717772297382
tagged_abstract_sents/15021067.txt,4,0.218020917136,-0.0108225108225,0.188769469584,0.202456734834,0.0906337704261,0.276235790192,0.0798570417033,0.774100589109
tagged_abstract_sents/15021067.txt,5,0.162510056315,0.109758297258,0.188769469584,0.202456734834,0.1032423873,0.431847837467,0.118641735255,0.960813419767
tagged_abstract_sents/15021067.txt,6,0.101769911504,0.0308441558442,0.0616692308323,0.142474783506,0.0862572662677,0.442030266136,0.0880931042209,0.777542447464
tagged_abstract_sents/15021067.txt,7,0.0852775543041,-0.0613275613276,0.0616692308323,0.142474783506,0.0,0.0,0.0,0.129533581646
tagged_abstract_sents/15021067.txt,8,0.0711987127916,0.0207431457431,0.139250797795,0.0356431803763,0.161804481525,0.342874167519,0.0775331642705,0.723637765708
tagged_abstract_sents/15021067.txt,9,0.0458567980692,0.0516774891775,0.139250797795,0.0356431803763,0.0,0.254216162856,0.0710231977477,0.452578649905
tagged_abstract_sents/15021067.txt,10,0.0245374094932,-0.0146103896104,0.139250797795,0.0356431803763,0.076571303514,0.219529426483,0.0704693538711,0.463596286551
tagged_abstract_sents/15021067.txt,11,0.0245374094932,0.00496031746032,0.139250797795,0.0356431803763,0.055694976536,0.274945964228,0.0833138001758,0.514895085037
tagged_abstract_sents/15021067.txt,12,0.00844730490748,-0.0183982683983,0.139250797795,0.0356431803763,0.0739597844976,0.264218997512,0.0883100421661,0.509885367433
tagged_abstract_sents/15021067.txt,13,0.00120675784393,-0.0663780663781,0.139250797795,0.0356431803763,0.0,0.0,0.0,0.0680081460098
tagged_abstract_sents/15021067.txt,14,0.00120675784393,0.044733044733,0.139250797795,0.0356431803763,0.0881611279006,0.457830623615,0.118709974467,0.754932094215
