tagged_abstract_sents/15029914.txt,2,0.206355591311,-0.118,0.0616692308323,0.106008497564,0.037732038528,0.0,0.0,0.204121637734
tagged_abstract_sents/15029914.txt,4,0.0108608205953,-0.117,0.0616692308323,0.106008497564,0.037732038528,0.0,0.0,0.0479258211616
tagged_abstract_sents/15029914.txt,5,0.0353982300885,0.051,0.210342442448,0.0253702522065,0.037732038528,0.191394250676,0.0139353400223,0.347895636082
tagged_abstract_sents/15029914.txt,6,0.0993563958166,-0.057,0.0616692308323,0.106008497564,0.037732038528,0.0879425442586,0.0119047619048,0.22319404195
tagged_abstract_sents/15029914.txt,8,0.206355591311,-0.113,0.139250797795,0.521468892835,0.037732038528,0.0,0.0,0.368550539797
tagged_abstract_sents/15029914.txt,9,0.262268704747,0.037,0.139250797795,0.521468892835,0.037732038528,0.151567121006,0.00925925925926,0.571244226541
