tagged_abstract_sents/15059788.txt,3,0.0108608205953,-0.08,0.188769469584,0.129715814208,0.109186403805,0.084844359039,0.0227494966926,0.265090588083
tagged_abstract_sents/15059788.txt,4,0.0353982300885,-0.0437037037037,0.139250797795,0.521468892835,0.109186403805,0.0985562319665,0.030655230168,0.37401076814
tagged_abstract_sents/15059788.txt,6,0.206355591311,-0.0281481481481,0.139250797795,0.521468892835,0.109186403805,0.0743676128616,0.0500287604257,0.531223197639
tagged_abstract_sents/15059788.txt,7,0.262268704747,-0.022962962963,0.139250797795,0.521468892835,0.109186403805,0.106552772691,0.0517006493801,0.63990514137
