tagged_abstract_sents/15130571.txt,2,0.206355591311,-0.0809090909091,0.0616692308323,0.106008497564,0.0754009654996,0.0,0.0,0.211539819553
tagged_abstract_sents/15130571.txt,3,0.206355591311,0.0140909090909,0.188769469584,0.129715814208,0.0754009654996,0.185802903716,0.0318448413756,0.547308940655
tagged_abstract_sents/15130571.txt,4,0.0048270313757,-0.0699090909091,0.0616692308323,0.106008497564,0.0754009654996,0.0,0.0,0.052516971604
tagged_abstract_sents/15130571.txt,7,0.0518905872888,-0.0829090909091,0.139250797795,0.521468892835,0.0754009654996,0.0,0.0,0.250996718397
tagged_abstract_sents/15130571.txt,8,0.0993563958166,0.0640909090909,0.139250797795,0.521468892835,0.0754009654996,0.112453723941,0.0153958944282,0.537167144698
tagged_abstract_sents/15130571.txt,9,0.172566371681,0.0240909090909,0.139250797795,0.521468892835,0.0754009654996,0.118321314329,0.0193823313783,0.588788774761
tagged_abstract_sents/15130571.txt,10,0.206355591311,0.0140909090909,0.139250797795,0.521468892835,0.0754009654996,0.128106184963,0.0116180783164,0.589885185739
tagged_abstract_sents/15130571.txt,11,0.262268704747,-0.0799090909091,0.139250797795,0.521468892835,0.0754009654996,0.0,0.0,0.419899212363
tagged_abstract_sents/15130571.txt,12,0.262268704747,0.0270909090909,0.139250797795,0.521468892835,0.0754009654996,0.116096774636,0.0265151515152,0.614733317608
