tagged_abstract_sents/15142155.txt,2,0.206355591311,-0.0984848484848,0.0616692308323,0.106008497564,0.0462762262248,0.0,0.0,0.208024668037
tagged_abstract_sents/15142155.txt,4,0.0108608205953,-0.084595959596,0.0616692308323,0.106008497564,0.0462762262248,0.0,0.0,0.0544066292424
tagged_abstract_sents/15142155.txt,5,0.0261464199517,0.0479797979798,0.210342442448,0.0253702522065,0.0462762262248,0.288320769207,0.0445916133814,0.458814070018
tagged_abstract_sents/15142155.txt,7,0.0993563958166,-0.10101010101,0.139250797795,0.521468892835,0.0462762262248,0.0,0.0,0.285349163199
tagged_abstract_sents/15142155.txt,8,0.172566371681,0.119949494949,0.139250797795,0.521468892835,0.0462762262248,0.120478833928,0.0175228700719,0.478621025526
tagged_abstract_sents/15142155.txt,9,0.206355591311,-0.0972222222222,0.0616692308323,0.106008497564,0.0462762262248,0.0,0.0,0.20827719329
tagged_abstract_sents/15142155.txt,10,0.262268704747,-0.0239898989899,0.139250797795,0.521468892835,0.0462762262248,0.136372737335,0.0234837386464,0.59968746836
