tagged_abstract_sents/15151332.txt,1,0.250201126307,-0.0910414333707,0.0616692308323,0.142474783506,0.0,0.0,0.0,0.25552966484
tagged_abstract_sents/15151332.txt,2,0.229283990346,-0.0126539753639,0.188769469584,0.202456734834,0.0,0.101321830036,0.0397702761001,0.477110258582
tagged_abstract_sents/15151332.txt,3,0.206757843926,-0.0910414333707,0.0616692308323,0.142474783506,0.0,0.0,0.0,0.220775038935
tagged_abstract_sents/15151332.txt,4,0.118262268705,0.0892497200448,0.0616692308323,0.142474783506,0.141914043965,0.167457668891,0.0621915444349,0.557600066731
tagged_abstract_sents/15151332.txt,5,0.0852775543041,-0.0910414333707,0.0616692308323,0.142474783506,0.0,0.0,0.0,0.123590807237
tagged_abstract_sents/15151332.txt,6,0.0571198712792,0.150839865622,0.139250797795,0.0356431803763,0.0255886085712,0.163129725783,0.0745254529767,0.419426010489
tagged_abstract_sents/15151332.txt,7,0.0345937248592,-0.0753639417693,0.139250797795,0.0356431803763,0.0,0.0,0.0,0.0929205445438
tagged_abstract_sents/15151332.txt,8,0.0144810941271,0.0746920492721,0.139250797795,0.0356431803763,0.0400223010125,0.155216325791,0.0700941591327,0.372174424103
tagged_abstract_sents/15151332.txt,9,0.00120675784393,-0.00593505039194,0.139250797795,0.0356431803763,0.076618125417,0.116110327252,0.0679338171852,0.340759019061
tagged_abstract_sents/15151332.txt,10,0.00120675784393,0.0522956326988,0.139250797795,0.0356431803763,0.14646805271,0.212680091124,0.0395136292462,0.490404658905
