tagged_abstract_sents/15164315.txt,3,0.0048270313757,0.0116478797638,0.188769469584,0.129715814208,0.0697207879702,0.151676405941,0.033137829912,0.359566980248
tagged_abstract_sents/15164315.txt,4,0.0048270313757,-0.000161030595813,0.188769469584,0.129715814208,0.0697207879702,0.151046289765,0.022245496439,0.281241600443
tagged_abstract_sents/15164315.txt,5,0.016894609815,-0.0210950080515,0.139250797795,0.521468892835,0.0697207879702,0.159096555328,0.0297793604245,0.389734975869
tagged_abstract_sents/15164315.txt,7,0.0683829444891,-0.0398819108964,0.139250797795,0.521468892835,0.0697207879702,0.109199204935,0.0272037260652,0.407864067139
tagged_abstract_sents/15164315.txt,8,0.130329847144,-0.0194847020934,0.139250797795,0.521468892835,0.0697207879702,0.138106796686,0.0244297816878,0.47969975948
tagged_abstract_sents/15164315.txt,9,0.214802896219,-0.0178743961353,0.139250797795,0.521468892835,0.0697207879702,0.132316935158,0.0244297816878,0.538824963334
tagged_abstract_sents/15164315.txt,10,0.262268704747,-0.0125067096082,0.139250797795,0.521468892835,0.0697207879702,0.116952592191,0.0344574780059,0.570702670846
tagged_abstract_sents/15164315.txt,11,0.262268704747,0.0615673644659,0.139250797795,0.521468892835,0.0697207879702,0.218064849934,0.028314830331,0.716952455022
