tagged_abstract_sents/15204150.txt,2,0.206355591311,-0.0563612645795,0.0616692308323,0.106008497564,0.0,0.0,0.0,0.211820164975
tagged_abstract_sents/15204150.txt,4,0.206355591311,-0.0575890116636,0.0616692308323,0.106008497564,0.0,0.0,0.0,0.211574615559
tagged_abstract_sents/15204150.txt,5,0.0048270313757,0.0627302025783,0.0616692308323,0.106008497564,0.0,0.628021436804,0.0722785233878,0.801729984368
tagged_abstract_sents/15204150.txt,6,0.0108608205953,-0.00602363413137,0.0616692308323,0.106008497564,0.0,0.406239196815,0.0358017313646,0.510705889793
tagged_abstract_sents/15204150.txt,7,0.0108608205953,-0.0575890116636,0.0616692308323,0.106008497564,0.0,0.0,0.0,0.0551787989858
tagged_abstract_sents/15204150.txt,8,0.0261464199517,0.00563996316759,0.139250797795,0.521468892835,0.0,0.422704013455,0.0292153031417,0.866334506828
tagged_abstract_sents/15204150.txt,10,0.0518905872888,0.0369475138122,0.139250797795,0.521468892835,0.0,0.522733037131,0.0316173055625,0.835793611164
tagged_abstract_sents/15204150.txt,11,0.0993563958166,-0.0330340699816,0.139250797795,0.521468892835,0.0,0.323026183816,0.0184457558328,0.628842714613
tagged_abstract_sents/15204150.txt,12,0.0993563958166,-0.00725138121547,0.139250797795,0.521468892835,0.0,0.398590814264,0.0241652349294,0.771233673523
tagged_abstract_sents/15204150.txt,13,0.172566371681,0.0258977900552,0.139250797795,0.521468892835,0.0,0.316113738513,0.032285052663,0.718433013922
tagged_abstract_sents/15204150.txt,14,0.206355591311,-0.00970687538367,0.139250797795,0.521468892835,0.0,0.331449978731,0.037120900874,0.844265667113
tagged_abstract_sents/15204150.txt,15,0.206355591311,-0.0557473910374,0.0616692308323,0.106008497564,0.0,0.0,0.0,0.211942939684
tagged_abstract_sents/15204150.txt,16,0.262268704747,0.0166896869245,0.139250797795,0.521468892835,0.0,0.496649368184,0.0220434180993,0.938050676874
tagged_abstract_sents/15204150.txt,17,0.262268704747,-0.013390116636,0.139250797795,0.521468892835,0.0,0.399884428311,0.0347891403767,0.851143762445
