tagged_abstract_sents/15207952.txt,2,0.0954875100725,-0.0701663201663,0.0616692308323,0.247294108221,0.151694942723,0.0,0.0,0.167379591907
tagged_abstract_sents/15207952.txt,4,0.0805801772764,-0.0720090720091,0.0616692308323,0.247294108221,0.151694942723,0.0,0.0,0.155085175302
tagged_abstract_sents/15207952.txt,5,0.123690572119,0.0612833112833,0.210342442448,0.141687475369,0.151694942723,0.213998238391,0.0860547019999,0.470395642498
tagged_abstract_sents/15207952.txt,6,0.123690572119,0.0330277830278,0.194899689933,0.293363477728,0.151694942723,0.208787565652,0.0893753703184,0.457847694873
tagged_abstract_sents/15207952.txt,7,0.140209508461,-0.035154035154,0.0616692308323,0.247294108221,0.151694942723,0.0841199491043,0.0723106531414,0.308874021343
tagged_abstract_sents/15207952.txt,8,0.149879129734,-0.0713948213948,0.139250797795,0.194462959676,0.151694942723,0.0,0.0,0.233588626309
tagged_abstract_sents/15207952.txt,9,0.176470588235,0.100595350595,0.139250797795,0.194462959676,0.151694942723,0.178049110338,0.0601449049386,0.488983777855
tagged_abstract_sents/15207952.txt,10,0.176470588235,0.0643545643546,0.139250797795,0.194462959676,0.151694942723,0.176577361677,0.0852764524277,0.457447086978
tagged_abstract_sents/15207952.txt,11,0.166800966962,-0.0677093177093,0.139250797795,0.194462959676,0.151694942723,0.0,0.0,0.247863196828
tagged_abstract_sents/15207952.txt,12,0.0954875100725,-0.027783027783,0.139250797795,0.194462959676,0.151694942723,0.114542892269,0.0739019085041,0.346851281794
tagged_abstract_sents/15207952.txt,13,0.0342465753425,-0.00751275751276,0.139250797795,0.194462959676,0.151694942723,0.17897691553,0.0777110904812,0.362133398186
tagged_abstract_sents/15207952.txt,14,0.0342465753425,-0.000756000756001,0.139250797795,0.194462959676,0.151694942723,0.169809771824,0.085333052671,0.278493539783
