tagged_abstract_sents/15231616.txt,2,0.0954875100725,-0.0492583263364,0.0616692308323,0.247294108221,0.00647225728687,0.0,0.0,0.171561190673
tagged_abstract_sents/15231616.txt,4,0.0253827558421,-0.0511474951022,0.0616692308323,0.247294108221,0.00647225728687,0.0,0.0,0.115099553536
tagged_abstract_sents/15231616.txt,5,0.0805801772764,-0.0442205429611,0.0616692308323,0.247294108221,0.00647225728687,0.032119374709,0.00244314143568,0.195205397256
tagged_abstract_sents/15231616.txt,6,0.0805801772764,-0.0473691575707,0.0616692308323,0.247294108221,0.00647225728687,0.0,0.0,0.160013158189
tagged_abstract_sents/15231616.txt,7,0.123690572119,0.0603134620767,0.0616692308323,0.247294108221,0.00647225728687,0.0623621967488,0.0,0.279299944799
tagged_abstract_sents/15231616.txt,8,0.123690572119,-0.0177721802407,0.0616692308323,0.247294108221,0.00647225728687,0.173312508893,0.00621890547264,0.359713123941
tagged_abstract_sents/15231616.txt,9,0.140209508461,-0.0461097117268,0.0616692308323,0.247294108221,0.00647225728687,0.0,0.0,0.207968512306
tagged_abstract_sents/15231616.txt,10,0.149073327961,0.0659809683739,0.0616692308323,0.247294108221,0.00647225728687,0.158135056176,0.00651874555792,0.365126342083
tagged_abstract_sents/15231616.txt,11,0.149879129734,-0.015883011475,0.0616692308323,0.247294108221,0.00647225728687,0.0873546301697,0.011815920398,0.304631786039
tagged_abstract_sents/15231616.txt,12,0.176470588235,-0.0505177721802,0.139250797795,0.194462959676,0.00647225728687,0.0,0.0,0.259037202952
tagged_abstract_sents/15231616.txt,13,0.176470588235,0.0250489784495,0.139250797795,0.194462959676,0.00647225728687,0.160811352479,0.0233208955224,0.446704969795
tagged_abstract_sents/15231616.txt,14,0.166800966962,0.0483487265603,0.139250797795,0.194462959676,0.00647225728687,0.292355396815,0.0125403203761,0.409792231057
tagged_abstract_sents/15231616.txt,15,0.166800966962,-0.0284774699132,0.139250797795,0.194462959676,0.00647225728687,0.179227122155,0.0126056226802,0.417960039313
tagged_abstract_sents/15231616.txt,16,0.0954875100725,0.0766862580465,0.139250797795,0.194462959676,0.00647225728687,0.396711068256,0.0172185945274,0.549160082042
tagged_abstract_sents/15231616.txt,17,0.0954875100725,0.0200111950742,0.139250797795,0.194462959676,0.00647225728687,0.296682256338,0.0125403203761,0.41347239701
tagged_abstract_sents/15231616.txt,18,0.0342465753425,-0.0479988804926,0.139250797795,0.194462959676,0.00647225728687,0.0,0.0,0.145761770976
tagged_abstract_sents/15231616.txt,19,0.0342465753425,0.0848726560313,0.139250797795,0.194462959676,0.00647225728687,0.388908732968,0.0142923773987,0.40795730214
