tagged_abstract_sents/15258101.txt,2,0.206355591311,-0.0289421157685,0.188769469584,0.129715814208,0.0704506538253,0.136766653765,0.0482642249187,0.475181836408
tagged_abstract_sents/15258101.txt,5,0.0993563958166,0.0159680638723,0.139250797795,0.521468892835,0.0704506538253,0.176348298649,0.0351311446934,0.503916529472
tagged_abstract_sents/15258101.txt,6,0.206355591311,-0.00399201596806,0.139250797795,0.521468892835,0.0704506538253,0.203896264565,0.0521321869029,0.642521673014
tagged_abstract_sents/15258101.txt,7,0.262268704747,0.00399201596806,0.139250797795,0.521468892835,0.0704506538253,0.190135484457,0.044157962707,0.70659548394
