tagged_abstract_sents/15266458.txt,1,0.125905068383,-0.0274120973201,0.0616692308323,0.142474783506,0.0,0.0,0.0,0.16881868571
tagged_abstract_sents/15266458.txt,2,0.125905068383,-0.00402182136742,0.188769469584,0.202456734834,0.0678738521799,0.373672541641,0.00522682826411,0.70181466776
tagged_abstract_sents/15266458.txt,3,0.125905068383,-0.0274120973201,0.0616692308323,0.142474783506,0.0,0.0,0.0,0.16881868571
tagged_abstract_sents/15266458.txt,4,0.239742558327,0.00596503802811,0.0616692308323,0.142474783506,0.212596444741,0.398187802734,0.00135486536405,0.878703217573
tagged_abstract_sents/15266458.txt,5,0.239742558327,-0.0260980368733,0.0616692308323,0.142474783506,0.0,0.0,0.0,0.260151489754
tagged_abstract_sents/15266458.txt,6,0.239742558327,0.0393421733763,0.0616692308323,0.142474783506,0.00301743218947,0.460120715432,0.00841808836395,0.74479576779
tagged_abstract_sents/15266458.txt,7,0.218020917136,-0.0113805598694,0.0616692308323,0.142474783506,0.0101223890621,0.327585650283,0.00980242053077,0.593228132079
tagged_abstract_sents/15266458.txt,8,0.218020917136,-0.00717556643969,0.0616692308323,0.142474783506,0.00800364130943,0.457145217493,0.00727526246719,0.718982792158
tagged_abstract_sents/15266458.txt,9,0.218020917136,-0.0253096006053,0.0616692308323,0.142474783506,0.0,0.0,0.0,0.242931864056
tagged_abstract_sents/15266458.txt,10,0.162510056315,0.0117469039939,0.0616692308323,0.142474783506,0.207659451464,0.504859368657,0.00772240117713,0.926175697618
tagged_abstract_sents/15266458.txt,11,0.162510056315,-0.0226814797117,0.0616692308323,0.142474783506,0.0,0.0,0.0,0.199048799578
tagged_abstract_sents/15266458.txt,12,0.162510056315,-0.00402182136742,0.0616692308323,0.142474783506,0.0731690653718,0.601754188961,0.0110389326334,0.888742918213
tagged_abstract_sents/15266458.txt,13,0.162510056315,-0.0053358818142,0.0616692308323,0.142474783506,0.106719289529,0.253726321359,0.0122530256635,0.575216555708
tagged_abstract_sents/15266458.txt,14,0.101769911504,-0.00796400270776,0.0616692308323,0.142474783506,0.110204898996,0.311540470818,0.0105025934258,0.585648142369
tagged_abstract_sents/15266458.txt,15,0.101769911504,-0.0268864731414,0.0616692308323,0.142474783506,0.0,0.0,0.0,0.149615685043
tagged_abstract_sents/15266458.txt,16,0.101769911504,-0.00481025763549,0.0616692308323,0.142474783506,0.00845851062811,0.312636968401,0.00471425446819,0.479840661641
tagged_abstract_sents/15266458.txt,17,0.0711987127916,0.00622785011747,0.0616692308323,0.142474783506,0.0934166163737,0.409342620173,0.0150128803344,0.649553707606
tagged_abstract_sents/15266458.txt,18,0.0711987127916,0.00359972922391,0.139250797795,0.0356431803763,0.00793460470858,0.333869604019,0.00975138524351,0.489552863059
tagged_abstract_sents/15266458.txt,19,0.0711987127916,-0.014797117031,0.139250797795,0.0356431803763,0.0103163357586,0.283033328597,0.0251404872468,0.45280805144
tagged_abstract_sents/15266458.txt,20,0.0458567980692,0.0288296898021,0.139250797795,0.0356431803763,0.313362601339,0.550140877823,0.00475721784777,0.991030426436
tagged_abstract_sents/15266458.txt,21,0.0458567980692,0.0283040656234,0.139250797795,0.0356431803763,0.105086226429,0.567861092992,0.0121482210557,0.807760145068
tagged_abstract_sents/15266458.txt,22,0.0458567980692,0.00622785011747,0.139250797795,0.0356431803763,0.317672825004,0.499080779086,0.00831666874974,0.943319634329
tagged_abstract_sents/15266458.txt,23,0.0458567980692,-0.00559869390356,0.139250797795,0.0356431803763,0.131034143874,0.36346144679,0.00644548337708,0.616825126727
tagged_abstract_sents/15266458.txt,24,0.0245374094932,0.031720622785,0.139250797795,0.0356431803763,0.0808613790566,0.577039442915,0.0070363079615,0.771229535095
tagged_abstract_sents/15266458.txt,25,0.0245374094932,-0.000342452116434,0.139250797795,0.0356431803763,0.26324108541,0.407127495787,0.0132114562069,0.783459827586
tagged_abstract_sents/15266458.txt,26,0.0245374094932,0.0298809381595,0.139250797795,0.0356431803763,0.257419915167,0.549068880939,0.00849689984404,0.920910164187
tagged_abstract_sents/15266458.txt,27,0.00844730490748,0.0204197029427,0.139250797795,0.0356431803763,0.23569124644,0.411233125654,0.00962987265481,0.747714382274
tagged_abstract_sents/15266458.txt,28,0.00844730490748,0.00806753474296,0.139250797795,0.0356431803763,0.132475959866,0.416474200419,0.00425597841936,0.641895842589
tagged_abstract_sents/15266458.txt,29,0.00844730490748,-0.0242583522478,0.139250797795,0.0356431803763,0.0,0.0,0.0,0.0822245264867
tagged_abstract_sents/15266458.txt,30,0.00120675784393,-7.96400270776e-05,0.139250797795,0.0356431803763,0.207513765929,0.429806173154,0.00236565824009,0.720953428603
tagged_abstract_sents/15266458.txt,31,0.00120675784393,-0.00165651256321,0.139250797795,0.0356431803763,0.00823649601084,0.35862562838,0.015802712161,0.463617293325
tagged_abstract_sents/15266458.txt,32,0.00120675784393,0.00885597101103,0.139250797795,0.0356431803763,0.126970025561,0.522614701973,0.00455038228917,0.737190063311
tagged_abstract_sents/15266458.txt,33,0.00120675784393,0.0180543941385,0.139250797795,0.0356431803763,0.0067711091922,0.389943844295,0.0180928670681,0.499702458669
