tagged_abstract_sents/15266458.txt,2,0.0954875100725,-0.0274120973201,0.0616692308323,0.247294108221,0.0067711091922,0.0,0.0,0.118603260391
tagged_abstract_sents/15266458.txt,3,0.0954875100725,-0.00402182136742,0.188769469584,0.123191979006,0.0067711091922,0.373672541641,0.00522682826411,0.525901000623
tagged_abstract_sents/15266458.txt,4,0.0954875100725,-0.0274120973201,0.0616692308323,0.247294108221,0.0067711091922,0.0,0.0,0.118603260391
tagged_abstract_sents/15266458.txt,5,0.0253827558421,0.00596503802811,0.0616692308323,0.247294108221,0.0067711091922,0.398187802734,0.00135486536405,0.535487245595
tagged_abstract_sents/15266458.txt,6,0.0253827558421,-0.0260980368733,0.0616692308323,0.247294108221,0.0067711091922,0.0,0.0,0.0627822690962
tagged_abstract_sents/15266458.txt,7,0.0253827558421,0.0393421733763,0.0616692308323,0.247294108221,0.0067711091922,0.460120715432,0.00841808836395,0.435553775509
tagged_abstract_sents/15266458.txt,8,0.0805801772764,-0.0113805598694,0.0616692308323,0.247294108221,0.0067711091922,0.327585650283,0.00980242053077,0.465429022465
tagged_abstract_sents/15266458.txt,9,0.0805801772764,-0.00717556643969,0.0616692308323,0.247294108221,0.0067711091922,0.457145217493,0.00727526246719,0.602173512767
tagged_abstract_sents/15266458.txt,10,0.0805801772764,-0.0253096006053,0.0616692308323,0.247294108221,0.0067711091922,0.0,0.0,0.107097893497
tagged_abstract_sents/15266458.txt,11,0.123690572119,0.0117469039939,0.0616692308323,0.247294108221,0.0067711091922,0.504859368657,0.00772240117713,0.755013612963
tagged_abstract_sents/15266458.txt,12,0.123690572119,-0.0226814797117,0.0616692308323,0.247294108221,0.0067711091922,0.0,0.0,0.14211183355
tagged_abstract_sents/15266458.txt,13,0.123690572119,-0.00402182136742,0.0616692308323,0.247294108221,0.0067711091922,0.601754188961,0.0110389326334,0.806581683576
tagged_abstract_sents/15266458.txt,14,0.123690572119,-0.0053358818142,0.0616692308323,0.247294108221,0.0067711091922,0.253726321359,0.0122530256635,0.43861748429
tagged_abstract_sents/15266458.txt,15,0.140209508461,-0.00796400270776,0.0616692308323,0.247294108221,0.0067711091922,0.311540470818,0.0105025934258,0.462542690423
tagged_abstract_sents/15266458.txt,16,0.140209508461,-0.0268864731414,0.0616692308323,0.247294108221,0.0067711091922,0.0,0.0,0.154485983938
tagged_abstract_sents/15266458.txt,17,0.140209508461,-0.00481025763549,0.0616692308323,0.247294108221,0.0067711091922,0.312636968401,0.00471425446819,0.453055495452
tagged_abstract_sents/15266458.txt,18,0.149879129734,0.00622785011747,0.0616692308323,0.247294108221,0.0067711091922,0.409342620173,0.0150128803344,0.530354423574
tagged_abstract_sents/15266458.txt,19,0.149879129734,0.00359972922391,0.139250797795,0.194462959676,0.0067711091922,0.333869604019,0.00975138524351,0.464771196836
tagged_abstract_sents/15266458.txt,20,0.149879129734,-0.014797117031,0.139250797795,0.194462959676,0.0067711091922,0.283033328597,0.0251404872468,0.531758330917
tagged_abstract_sents/15266458.txt,22,0.176470588235,0.0283040656234,0.139250797795,0.194462959676,0.0067711091922,0.567861092992,0.0121482210557,0.781732138779
tagged_abstract_sents/15266458.txt,23,0.176470588235,0.00622785011747,0.139250797795,0.194462959676,0.0067711091922,0.499080779086,0.00831666874974,0.692897635142
tagged_abstract_sents/15266458.txt,24,0.176470588235,-0.00559869390356,0.139250797795,0.194462959676,0.0067711091922,0.36346144679,0.00644548337708,0.54812201324
tagged_abstract_sents/15266458.txt,25,0.166800966962,0.031720622785,0.139250797795,0.194462959676,0.0067711091922,0.577039442915,0.0070363079615,0.746294001809
tagged_abstract_sents/15266458.txt,26,0.166800966962,-0.000342452116434,0.139250797795,0.194462959676,0.0067711091922,0.407127495787,0.0132114562069,0.648579026084
tagged_abstract_sents/15266458.txt,27,0.166800966962,0.0298809381595,0.139250797795,0.194462959676,0.0067711091922,0.549068880939,0.00849689984404,0.72736751517
tagged_abstract_sents/15266458.txt,28,0.0954875100725,0.0204197029427,0.139250797795,0.194462959676,0.0067711091922,0.411233125654,0.00962987265481,0.583966229056
tagged_abstract_sents/15266458.txt,29,0.0954875100725,0.00806753474296,0.139250797795,0.194462959676,0.0067711091922,0.416474200419,0.00425597841936,0.550344854752
tagged_abstract_sents/15266458.txt,30,0.0954875100725,-0.0242583522478,0.139250797795,0.194462959676,0.0067711091922,0.0,0.0,0.156073734742
tagged_abstract_sents/15266458.txt,31,0.0342465753425,-7.96400270776e-05,0.139250797795,0.194462959676,0.0067711091922,0.429806173154,0.00236565824009,0.538704827094
tagged_abstract_sents/15266458.txt,32,0.0342465753425,-0.00165651256321,0.139250797795,0.194462959676,0.0067711091922,0.35862562838,0.015802712161,0.425299028945
tagged_abstract_sents/15266458.txt,33,0.0342465753425,0.00885597101103,0.139250797795,0.194462959676,0.0067711091922,0.522614701973,0.00455038228917,0.642202662405
tagged_abstract_sents/15266458.txt,34,0.0342465753425,0.0180543941385,0.139250797795,0.194462959676,0.0067711091922,0.389943844295,0.0180928670681,0.521732985986
