tagged_abstract_sents/15277432.txt,1,0.125905068383,-0.0617981174943,0.0616692308323,0.142474783506,0.0,0.0,0.0,0.161941481675
tagged_abstract_sents/15277432.txt,2,0.239742558327,-0.0267445634534,0.188769469584,0.202456734834,0.185094342316,0.130517992945,0.0161057017639,0.673284926239
tagged_abstract_sents/15277432.txt,3,0.229283990346,0.0701395650763,0.188769469584,0.202456734834,0.200384996483,0.23620582288,0.0317265413041,0.820894221201
tagged_abstract_sents/15277432.txt,4,0.218020917136,-0.0530347289841,0.0616692308323,0.142474783506,0.0,0.0,0.0,0.23738683838
tagged_abstract_sents/15277432.txt,5,0.162510056315,0.0307043167803,0.210342442448,0.226435992083,0.143424371384,0.155209955353,0.0265225933202,0.634407847315
tagged_abstract_sents/15277432.txt,6,0.118262268705,-0.0311262577085,0.0616692308323,0.142474783506,0.050927118879,0.131418463033,0.0589765179156,0.403283713717
tagged_abstract_sents/15277432.txt,7,0.101769911504,-0.0111652061019,0.0616692308323,0.142474783506,0.0668541250957,0.150179362805,0.0194183272523,0.389211753604
tagged_abstract_sents/15277432.txt,8,0.0711987127916,-0.0627718273288,0.139250797795,0.0356431803763,0.0,0.0,0.0,0.124722957778
tagged_abstract_sents/15277432.txt,9,0.0571198712792,0.0462836741318,0.139250797795,0.0356431803763,0.15739648451,0.160137599653,0.037012349144,0.489817418167
tagged_abstract_sents/15277432.txt,10,0.0458567980692,-0.00580980201233,0.139250797795,0.0356431803763,0.13976636602,0.164862701052,0.0411345776031,0.461605475739
tagged_abstract_sents/15277432.txt,11,0.0245374094932,0.0589419019799,0.139250797795,0.0356431803763,0.0921283529247,0.183470485453,0.0331920173715,0.42052751675
tagged_abstract_sents/15277432.txt,12,0.0144810941271,0.0477442388835,0.139250797795,0.0356431803763,0.277087246473,0.190536625692,0.0328515296099,0.601927477864
tagged_abstract_sents/15277432.txt,13,0.00844730490748,0.02194092827,0.139250797795,0.0356431803763,0.158819187045,0.144236903472,0.0165777902517,0.411098263359
tagged_abstract_sents/15277432.txt,14,0.00120675784393,-0.0608244076599,0.139250797795,0.0356431803763,0.0,0.0,0.0,0.0691188777535
tagged_abstract_sents/15277432.txt,15,0.00120675784393,0.0375202856216,0.139250797795,0.0356431803763,0.229127519153,0.186368328903,0.0238119857601,0.528095650227
