tagged_abstract_sents/15314625.txt,2,0.0954875100725,-0.0460698991573,0.0616692308323,0.247294108221,0.148418017487,0.0,0.0,0.172198876109
tagged_abstract_sents/15314625.txt,3,0.0253827558421,-0.000138140627158,0.188769469584,0.123191979006,0.148418017487,0.373488186852,0.0278296600672,0.595825281651
tagged_abstract_sents/15314625.txt,4,0.0253827558421,-0.0480384030944,0.0616692308323,0.247294108221,0.148418017487,0.0,0.0,0.115721371937
tagged_abstract_sents/15314625.txt,6,0.0805801772764,0.00576737118387,0.0616692308323,0.247294108221,0.148418017487,0.350946908157,0.048188270452,0.500662417879
tagged_abstract_sents/15314625.txt,7,0.123690572119,0.00248653128885,0.0616692308323,0.247294108221,0.148418017487,0.303235782244,0.0558790568898,0.54115504509
tagged_abstract_sents/15314625.txt,8,0.123690572119,-0.0296656996823,0.0616692308323,0.247294108221,0.148418017487,0.0886083696587,0.0250813810769,0.24859935856
tagged_abstract_sents/15314625.txt,9,0.140209508461,0.00117419533085,0.0616692308323,0.247294108221,0.148418017487,0.29124892795,0.0337940480638,0.47377769926
tagged_abstract_sents/15314625.txt,10,0.140209508461,-0.0414767233043,0.0616692308323,0.247294108221,0.148418017487,0.0,0.0,0.20889510999
tagged_abstract_sents/15314625.txt,11,0.149879129734,0.00379886724686,0.139250797795,0.194462959676,0.148418017487,0.369908141921,0.0453976136588,0.658587116873
tagged_abstract_sents/15314625.txt,12,0.149879129734,-0.0473822351153,0.139250797795,0.194462959676,0.148418017487,0.0,0.0,0.238391143564
tagged_abstract_sents/15314625.txt,13,0.176470588235,-0.00341898052217,0.139250797795,0.194462959676,0.148418017487,0.221524672469,0.0106606132008,0.374394827788
tagged_abstract_sents/15314625.txt,14,0.176470588235,0.0129852189529,0.139250797795,0.194462959676,0.148418017487,0.39537662505,0.0328726186029,0.72311282646
tagged_abstract_sents/15314625.txt,15,0.166800966962,-0.00473131648018,0.139250797795,0.194462959676,0.148418017487,0.150687341097,0.0282201922097,0.345718024868
tagged_abstract_sents/15314625.txt,16,0.166800966962,0.142906478795,0.139250797795,0.194462959676,0.148418017487,0.525759428161,0.0393276055286,0.719829679934
tagged_abstract_sents/15314625.txt,17,0.0954875100725,0.0188907307639,0.139250797795,0.194462959676,0.148418017487,0.383225734247,0.0192172000166,0.530247594316
tagged_abstract_sents/15314625.txt,18,0.0954875100725,-0.0119491642492,0.139250797795,0.194462959676,0.148418017487,0.218405566555,0.0259762650499,0.442724034024
tagged_abstract_sents/15314625.txt,19,0.0342465753425,-0.0454137311783,0.0616692308323,0.247294108221,0.148418017487,0.0,0.0,0.123337361921
tagged_abstract_sents/15314625.txt,20,0.0342465753425,0.0116728829949,0.139250797795,0.194462959676,0.148418017487,0.378242155101,0.0440791931266,0.603365982508
