tagged_abstract_sents/15329425.txt,1,0.125905068383,-0.0598130841121,0.0616692308323,0.142474783506,0.0,0.0,0.0,0.162338488352
tagged_abstract_sents/15329425.txt,2,0.239742558327,0.00498442367601,0.188769469584,0.202456734834,0.0297321744182,0.25264920319,0.0511317023147,0.681425766562
tagged_abstract_sents/15329425.txt,3,0.229283990346,-0.0616822429907,0.210342442448,0.226435992083,0.0,0.0,0.0,0.344192762528
tagged_abstract_sents/15329425.txt,4,0.218020917136,0.131464174455,0.194899689933,0.13295610691,0.0334988135486,0.432550893538,0.0712301005958,0.875326053322
tagged_abstract_sents/15329425.txt,5,0.162510056315,0.00747663551402,0.0616692308323,0.142474783506,0.0334701221127,0.263807124581,0.0311712569587,0.533528926275
tagged_abstract_sents/15329425.txt,6,0.118262268705,0.0299065420561,0.0616692308323,0.142474783506,0.0877153846699,0.311432167976,0.0332452121567,0.606560938645
tagged_abstract_sents/15329425.txt,7,0.101769911504,-0.0616822429907,0.139250797795,0.0356431803763,0.0,0.0,0.0,0.149397833616
tagged_abstract_sents/15329425.txt,8,0.0711987127916,-0.00498442367601,0.139250797795,0.0356431803763,0.0756613562562,0.254536551429,0.0635997039185,0.530078050112
tagged_abstract_sents/15329425.txt,9,0.0571198712792,0.0965732087227,0.139250797795,0.0356431803763,0.00587880332767,0.312294676826,0.0732326931785,0.536735065111
tagged_abstract_sents/15329425.txt,10,0.0458567980692,0.0224299065421,0.139250797795,0.0356431803763,0.0187714387138,0.362949951713,0.0600087899209,0.563219953122
tagged_abstract_sents/15329425.txt,11,0.0245374094932,0.00685358255452,0.139250797795,0.0356431803763,0.0721176819286,0.249335836833,0.0673161441547,0.490088660032
tagged_abstract_sents/15329425.txt,12,0.0144810941271,-0.0267912772586,0.139250797795,0.0356431803763,0.205383695433,0.17105774541,0.0357310284207,0.498717442124
tagged_abstract_sents/15329425.txt,13,0.00844730490748,-0.0591900311526,0.0616692308323,0.142474783506,0.0,0.0,0.0,0.0684968881633
tagged_abstract_sents/15329425.txt,14,0.00120675784393,0.00685358255452,0.139250797795,0.0356431803763,0.0663183128142,0.286565131838,0.0582820587948,0.493819979243
tagged_abstract_sents/15329425.txt,15,0.00120675784393,-0.0323987538941,0.139250797795,0.0356431803763,0.0,0.139607793155,0.0136300119453,0.228041813607
