tagged_abstract_sents/15326237.txt,2,0.206355591311,-0.0605728214503,0.0616692308323,0.106008497564,0.370575716534,0.0,0.0,0.215607073444
tagged_abstract_sents/15326237.txt,4,0.0048270313757,-0.0617915904936,0.0616692308323,0.106008497564,0.370575716534,0.0,0.0,0.0541404716871
tagged_abstract_sents/15326237.txt,5,0.0048270313757,0.00950639853748,0.210342442448,0.0253702522065,0.370575716534,0.201585952785,0.0432293192695,0.389113959322
tagged_abstract_sents/15326237.txt,6,0.0108608205953,0.023522242535,0.194899689933,0.0581677376677,0.370575716534,0.241765072879,0.0556540780607,0.457058432843
tagged_abstract_sents/15326237.txt,7,0.016894609815,0.0576477757465,0.0616692308323,0.106008497564,0.370575716534,0.136750645706,0.0530422892861,0.262882962062
tagged_abstract_sents/15326237.txt,8,0.0261464199517,0.0424131627057,0.0616692308323,0.106008497564,0.370575716534,0.192723577852,0.0655052576749,0.32493888367
tagged_abstract_sents/15326237.txt,9,0.0518905872888,-0.00877513711152,0.0616692308323,0.106008497564,0.370575716534,0.14756165894,0.0454390077156,0.354654460742
tagged_abstract_sents/15326237.txt,10,0.0683829444891,-0.0617915904936,0.139250797795,0.521468892835,0.370575716534,0.0,0.0,0.268414104241
tagged_abstract_sents/15326237.txt,11,0.0993563958166,0.0223034734918,0.139250797795,0.521468892835,0.370575716534,0.203511559847,0.0282164171049,0.651686933847
tagged_abstract_sents/15326237.txt,12,0.172566371681,-0.0313223644119,0.139250797795,0.521468892835,0.370575716534,0.192118066152,0.0500077558126,0.661894641325
tagged_abstract_sents/15326237.txt,14,0.206355591311,0.0131627056673,0.139250797795,0.521468892835,0.370575716534,0.315336997964,0.0468891323456,0.89629727628
tagged_abstract_sents/15326237.txt,15,0.262268704747,-0.0599634369287,0.139250797795,0.521468892835,0.370575716534,0.0,0.0,0.423888343159
tagged_abstract_sents/15326237.txt,16,0.262268704747,0.0637416209628,0.139250797795,0.521468892835,0.370575716534,0.300315862212,0.0383762850482,0.973572661333
