tagged_abstract_sents/15333452.txt,2,0.0954875100725,-0.0421305734149,0.0616692308323,0.247294108221,0.103708886577,0.0,0.0,0.172986741258
tagged_abstract_sents/15333452.txt,3,0.0954875100725,0.00726569442266,0.188769469584,0.123191979006,0.103708886577,0.308461520869,0.0585062461711,0.608824759472
tagged_abstract_sents/15333452.txt,4,0.0253827558421,-0.0437771156761,0.0616692308323,0.247294108221,0.103708886577,0.0,0.0,0.116573629421
tagged_abstract_sents/15333452.txt,5,0.0253827558421,-0.0113951178715,0.0616692308323,0.247294108221,0.103708886577,0.155185549515,0.0663900632037,0.298237219103
tagged_abstract_sents/15333452.txt,6,0.0805801772764,-0.0432282682557,0.0616692308323,0.247294108221,0.103708886577,0.0,0.0,0.160841336052
tagged_abstract_sents/15333452.txt,7,0.0805801772764,-0.0113951178715,0.0616692308323,0.247294108221,0.103708886577,0.200121177372,0.0279640130298,0.330344109043
tagged_abstract_sents/15333452.txt,8,0.123690572119,-0.0404840311536,0.0616692308323,0.247294108221,0.103708886577,0.0,0.0,0.195878499347
tagged_abstract_sents/15333452.txt,10,0.140209508461,-0.0399351837332,0.0616692308323,0.247294108221,0.103708886577,0.0,0.0,0.209203417905
tagged_abstract_sents/15333452.txt,11,0.140209508461,0.0286707438189,0.194899689933,0.293363477728,0.103708886577,0.264795096208,0.0510511280398,0.563735353217
tagged_abstract_sents/15333452.txt,12,0.149879129734,-0.0355444043699,0.0616692308323,0.247294108221,0.103708886577,0.0,0.0,0.217817270796
tagged_abstract_sents/15333452.txt,13,0.149879129734,0.0374523025456,0.139250797795,0.194462959676,0.103708886577,0.267247771871,0.0434002343979,0.569539618419
tagged_abstract_sents/15333452.txt,14,0.176470588235,-0.0432282682557,0.139250797795,0.194462959676,0.103708886577,0.0,0.0,0.260495103737
tagged_abstract_sents/15333452.txt,15,0.176470588235,0.0105587789452,0.139250797795,0.194462959676,0.103708886577,0.187371495775,0.0419669889638,0.476915637787
tagged_abstract_sents/15333452.txt,16,0.166800966962,0.0659923684073,0.139250797795,0.194462959676,0.103708886577,0.284066590269,0.0466877345723,0.580221599674
tagged_abstract_sents/15333452.txt,17,0.166800966962,-0.0174324394961,0.139250797795,0.194462959676,0.103708886577,0.174862814916,0.064469186444,0.507211718229
tagged_abstract_sents/15333452.txt,18,0.0954875100725,0.0105587789452,0.139250797795,0.194462959676,0.103708886577,0.264644121002,0.0635804277762,0.459722992476
tagged_abstract_sents/15333452.txt,19,0.0954875100725,0.0775181642361,0.139250797795,0.194462959676,0.103708886577,0.471013534286,0.0851818946533,0.699229051791
tagged_abstract_sents/15333452.txt,20,0.0342465753425,-0.041032878574,0.0616692308323,0.247294108221,0.103708886577,0.0,0.0,0.124213532442
tagged_abstract_sents/15333452.txt,21,0.0342465753425,0.0215357273535,0.139250797795,0.194462959676,0.103708886577,0.386878171563,0.0551539363069,0.602083374068
tagged_abstract_sents/15333452.txt,22,0.0342465753425,0.055015419999,0.139250797795,0.194462959676,0.103708886577,0.389340555452,0.0592090117618,0.562530231632
