tagged_abstract_sents/15351331.txt,3,0.016894609815,-0.0385269121813,0.188769469584,0.129715814208,0.0926456335375,0.1242094133,0.0716588710776,0.372987130009
tagged_abstract_sents/15351331.txt,5,0.214802896219,0.0209631728045,0.188769469584,0.129715814208,0.0926456335375,0.08927259695,0.104199022146,0.531399159965
tagged_abstract_sents/15351331.txt,6,0.262268704747,0.0563739376771,0.188769469584,0.129715814208,0.0926456335375,0.175728136311,0.0782830025884,0.645553463737
