tagged_abstract_sents/15374846.txt,2,0.0954875100725,-0.00978459291712,0.188769469584,0.123191979006,0.242241024973,0.14768393814,0.0537387085982,0.409315394308
tagged_abstract_sents/15374846.txt,3,0.0253827558421,-0.0395034684191,0.188769469584,0.123191979006,0.242241024973,0.0632142931145,0.0321676274545,0.214647931557
tagged_abstract_sents/15374846.txt,4,0.0805801772764,0.0713399050748,0.188769469584,0.123191979006,0.242241024973,0.150374860554,0.0407735973933,0.328698267069
tagged_abstract_sents/15374846.txt,6,0.140209508461,0.0279664110989,0.0616692308323,0.247294108221,0.242241024973,0.153210693199,0.0674100489674,0.35555183183
tagged_abstract_sents/15374846.txt,7,0.149879129734,-0.00898138006572,0.139250797795,0.194462959676,0.242241024973,0.0796275317175,0.0161529775845,0.283769865521
tagged_abstract_sents/15374846.txt,8,0.176470588235,-0.0146038700256,0.139250797795,0.194462959676,0.242241024973,0.0982231797084,0.018643881733,0.386034648591
tagged_abstract_sents/15374846.txt,9,0.166800966962,0.0151150054765,0.139250797795,0.194462959676,0.242241024973,0.0962225832291,0.0207662470726,0.378797453645
tagged_abstract_sents/15374846.txt,10,0.0954875100725,-0.0419131069733,0.139250797795,0.194462959676,0.242241024973,0.099950549958,0.0694281811085,0.359767759029
tagged_abstract_sents/15374846.txt,11,0.0342465753425,-0.000146038700256,0.139250797795,0.194462959676,0.242241024973,0.130631096291,0.0216920374707,0.288746649725
tagged_abstract_sents/15374846.txt,12,0.0342465753425,0.0303760496532,0.139250797795,0.194462959676,0.242241024973,0.16395300465,0.0349697077691,0.297473903987
