tagged_abstract_sents/15383488.txt,2,0.206355591311,-0.0175292667899,0.188769469584,0.129715814208,0.101427845848,0.331015887883,0.0188357724071,0.700332002705
tagged_abstract_sents/15383488.txt,3,0.206355591311,-0.0408194701171,0.139250797795,0.521468892835,0.101427845848,0.183461277451,0.0196927374302,0.581886682484
tagged_abstract_sents/15383488.txt,4,0.0048270313757,-0.0219654959951,0.139250797795,0.521468892835,0.101427845848,0.295903880422,0.0150680034584,0.533590356897
tagged_abstract_sents/15383488.txt,6,0.0261464199517,0.00945779420826,0.139250797795,0.521468892835,0.101427845848,0.293038881485,0.00588587390263,0.601287072525
tagged_abstract_sents/15383488.txt,7,0.0353982300885,-0.0112446087492,0.139250797795,0.521468892835,0.101427845848,0.391842196697,0.018817818006,0.654085496028
tagged_abstract_sents/15383488.txt,8,0.0518905872888,0.019808995687,0.139250797795,0.521468892835,0.101427845848,0.409862855446,0.0133716118353,0.67642206202
tagged_abstract_sents/15383488.txt,9,0.0993563958166,0.000215650030807,0.139250797795,0.521468892835,0.101427845848,0.296205129276,0.0160656092046,0.606704673881
tagged_abstract_sents/15383488.txt,11,0.206355591311,-0.00680837954405,0.139250797795,0.521468892835,0.101427845848,0.326262966949,0.0163878430896,0.723262064502
tagged_abstract_sents/15383488.txt,12,0.262268704747,0.034966112138,0.139250797795,0.521468892835,0.101427845848,0.35459436144,0.00661589269088,0.888497858895
tagged_abstract_sents/15383488.txt,13,0.262268704747,-0.0389710412816,0.139250797795,0.521468892835,0.101427845848,0.260259894745,0.0192268817995,0.756816177274
