tagged_abstract_sents/15450632.txt,1,0.125905068383,-0.0602357984995,0.0616692308323,0.142474783506,0.0,0.0,0.0,0.162253945474
tagged_abstract_sents/15450632.txt,2,0.239742558327,-0.0287245444802,0.188769469584,0.202456734834,0.076523615434,0.0949689219972,0.0249768732655,0.537640303704
tagged_abstract_sents/15450632.txt,3,0.229283990346,-0.0615219721329,0.0616692308323,0.142474783506,0.0,0.0,0.0,0.244699848318
tagged_abstract_sents/15450632.txt,4,0.218020917136,0.129474812433,0.210342442448,0.226435992083,0.131666251529,0.154474629288,0.0330502060382,0.6926048019
tagged_abstract_sents/15450632.txt,5,0.162510056315,-0.0255091103966,0.0616692308323,0.142474783506,0.0201600770169,0.116926404667,0.0400246685168,0.375594423641
tagged_abstract_sents/15450632.txt,6,0.118262268705,0.0478027867095,0.0616692308323,0.142474783506,0.0801238382331,0.140718927907,0.0307475441611,0.429337733075
tagged_abstract_sents/15450632.txt,7,0.101769911504,0.0741693461951,0.0616692308323,0.142474783506,0.12004596889,0.184422545715,0.0371303709847,0.5114257345
tagged_abstract_sents/15450632.txt,8,0.0711987127916,-0.0132904608789,0.0616692308323,0.142474783506,0.0204263462181,0.0714014434682,0.0266419981499,0.246347716362
tagged_abstract_sents/15450632.txt,9,0.0571198712792,-0.0615219721329,0.0616692308323,0.142474783506,0.0,0.0,0.0,0.106968553065
tagged_abstract_sents/15450632.txt,10,0.0458567980692,-0.0075026795284,0.139250797795,0.0356431803763,0.122610002807,0.131581908022,0.0412118408881,0.410907007277
tagged_abstract_sents/15450632.txt,11,0.0245374094932,0.0175777063237,0.139250797795,0.0356431803763,0.0506618322621,0.118218234512,0.0256585033351,0.298002391979
tagged_abstract_sents/15450632.txt,12,0.0144810941271,0.0542336548767,0.139250797795,0.0356431803763,0.0665971887105,0.158287547921,0.0234008291363,0.351035525055
tagged_abstract_sents/15450632.txt,13,0.00844730490748,-0.058949624866,0.0616692308323,0.142474783506,0.0,0.0,0.0,0.0685449694206
tagged_abstract_sents/15450632.txt,14,0.00120675784393,0.00600214362272,0.139250797795,0.0356431803763,0.284240515223,0.156644060365,0.0287881591119,0.55215692271
tagged_abstract_sents/15450632.txt,15,0.00120675784393,-0.0120042872454,0.139250797795,0.0356431803763,0.0378757309312,0.0740064761991,0.0262577385612,0.217022847528
