tagged_abstract_sents/15496998.txt,2,0.206355591311,-0.0165884466076,0.0616692308323,0.106008497564,0.0938201446504,0.0,0.0,0.224403948413
tagged_abstract_sents/15496998.txt,3,0.206355591311,-0.0124456805145,0.0616692308323,0.106008497564,0.0938201446504,0.0,0.0,0.225232501631
tagged_abstract_sents/15496998.txt,4,0.206355591311,-0.000176719392781,0.0616692308323,0.106008497564,0.0938201446504,0.261094271517,0.0543732541899,0.616881495746
tagged_abstract_sents/15496998.txt,5,0.206355591311,-0.0129236919868,0.0616692308323,0.106008497564,0.0938201446504,0.0158704901008,0.0114059590317,0.250670208386
tagged_abstract_sents/15496998.txt,6,0.206355591311,-0.0153137493482,0.0616692308323,0.106008497564,0.0938201446504,0.0,0.0,0.224658887865
tagged_abstract_sents/15496998.txt,7,0.206355591311,-0.00941827452344,0.0616692308323,0.106008497564,0.0938201446504,0.156695180417,0.0257008180367,0.465868634374
tagged_abstract_sents/15496998.txt,8,0.206355591311,-0.0161104351353,0.0616692308323,0.106008497564,0.0938201446504,0.0,0.0,0.224499550707
tagged_abstract_sents/15496998.txt,9,0.206355591311,0.0468277420476,0.0616692308323,0.106008497564,0.0938201446504,0.2954172651,0.0351661693753,0.563802650435
tagged_abstract_sents/15496998.txt,10,0.206355591311,-0.00463815980068,0.0616692308323,0.106008497564,0.0938201446504,0.15320633024,0.034074471269,0.420650647677
tagged_abstract_sents/15496998.txt,11,0.206355591311,0.0092241728953,0.0616692308323,0.106008497564,0.0938201446504,0.295632614103,0.045906868969,0.655016675539
tagged_abstract_sents/15496998.txt,12,0.0048270313757,-0.015632423663,0.0616692308323,0.106008497564,0.0938201446504,0.0,0.0,0.0633723050532
tagged_abstract_sents/15496998.txt,14,0.0048270313757,-0.015632423663,0.0616692308323,0.106008497564,0.0938201446504,0.0,0.0,0.0633723050532
tagged_abstract_sents/15496998.txt,15,0.0048270313757,0.00269134944087,0.0616692308323,0.106008497564,0.0938201446504,0.302759378498,0.0638212607923,0.427536551952
tagged_abstract_sents/15496998.txt,16,0.0048270313757,-0.00702821716206,0.0616692308323,0.106008497564,0.0938201446504,0.159422817025,0.0338811851556,0.319272474556
tagged_abstract_sents/15496998.txt,17,0.0048270313757,-0.00750622863434,0.0616692308323,0.106008497564,0.0938201446504,0.15177059101,0.0425042398244,0.265907912167
tagged_abstract_sents/15496998.txt,18,0.0108608205953,-0.00543484558781,0.0616692308323,0.106008497564,0.0938201446504,0.132761823937,0.0348020519983,0.245713316995
tagged_abstract_sents/15496998.txt,19,0.0108608205953,0.00173532649632,0.139250797795,0.521468892835,0.0938201446504,0.195819897436,0.0417139490223,0.489566707575
tagged_abstract_sents/15496998.txt,20,0.0108608205953,-0.00527550843038,0.139250797795,0.521468892835,0.0938201446504,0.10856755718,0.0493627793296,0.391327590173
tagged_abstract_sents/15496998.txt,21,0.0108608205953,0.0104988701547,0.139250797795,0.521468892835,0.0938201446504,0.175262559727,0.0264141061453,0.443564567023
tagged_abstract_sents/15496998.txt,22,0.0108608205953,-0.00129207949476,0.139250797795,0.521468892835,0.0938201446504,0.178683379801,0.0270135009311,0.444617932134
tagged_abstract_sents/15496998.txt,23,0.016894609815,-0.0161104351353,0.0616692308323,0.106008497564,0.0938201446504,0.0,0.0,0.0729307655102
tagged_abstract_sents/15496998.txt,24,0.0261464199517,0.00173532649632,0.0616692308323,0.106008497564,0.0938201446504,0.167219110476,0.04458216946,0.292509641823
tagged_abstract_sents/15496998.txt,25,0.0261464199517,-0.00224810243931,0.0616692308323,0.106008497564,0.0938201446504,0.133105096395,0.0113410507091,0.241308852673
tagged_abstract_sents/15496998.txt,26,0.0261464199517,0.00444405817255,0.0616692308323,0.106008497564,0.0938201446504,0.336033890101,0.0419103526536,0.455478017258
tagged_abstract_sents/15496998.txt,27,0.0261464199517,-0.00256677675416,0.0616692308323,0.106008497564,0.0938201446504,0.170640642102,0.062342877095,0.345230485362
tagged_abstract_sents/15496998.txt,28,0.0261464199517,-0.00973694883829,0.0616692308323,0.106008497564,0.0938201446504,0.146406602634,0.0751134776536,0.296834325844
tagged_abstract_sents/15496998.txt,29,0.0518905872888,-0.00145141665218,0.0616692308323,0.106008497564,0.0938201446504,0.169993399653,0.062261405959,0.335834031373
tagged_abstract_sents/15496998.txt,30,0.0518905872888,-0.00862158873631,0.0616692308323,0.106008497564,0.0938201446504,0.132641720691,0.0483589385475,0.379759445814
tagged_abstract_sents/15496998.txt,31,0.0518905872888,0.00269134944087,0.139250797795,0.521468892835,0.0938201446504,0.26228532547,0.0517981843575,0.688072728856
tagged_abstract_sents/15496998.txt,32,0.0518905872888,0.0175097050814,0.139250797795,0.521468892835,0.0938201446504,0.373342663961,0.0518699565487,0.682812101842
tagged_abstract_sents/15496998.txt,33,0.0518905872888,-1.73822353555e-05,0.139250797795,0.521468892835,0.0938201446504,0.153293439233,0.0408581903432,0.462770792216
tagged_abstract_sents/15496998.txt,34,0.0683829444891,0.00109797786662,0.139250797795,0.521468892835,0.0938201446504,0.176626324326,0.0526478119181,0.555910041396
tagged_abstract_sents/15496998.txt,35,0.0993563958166,0.000619966394345,0.139250797795,0.521468892835,0.0938201446504,0.366465190904,0.0316461645896,0.783979043889
tagged_abstract_sents/15496998.txt,36,0.0993563958166,0.0100208586824,0.139250797795,0.521468892835,0.0938201446504,0.39847185146,0.0425040088972,0.806458766062
tagged_abstract_sents/15496998.txt,37,0.0993563958166,-0.00830291442146,0.139250797795,0.521468892835,0.0938201446504,0.172101968387,0.0540328212291,0.545423838341
tagged_abstract_sents/15496998.txt,38,0.0993563958166,0.0015759893389,0.139250797795,0.521468892835,0.0938201446504,0.245104989709,0.0484600117612,0.598402627891
tagged_abstract_sents/15496998.txt,39,0.0993563958166,-0.0108523089403,0.139250797795,0.521468892835,0.0938201446504,0.111385606117,0.0348289106145,0.458289057521
tagged_abstract_sents/15496998.txt,41,0.172566371681,0.00587809258937,0.139250797795,0.521468892835,0.0938201446504,0.206847780125,0.0378430003286,0.661760357873
tagged_abstract_sents/15496998.txt,42,0.172566371681,0.0106582073121,0.139250797795,0.521468892835,0.0938201446504,0.341440754624,0.0484532122905,0.813605629692
tagged_abstract_sents/15496998.txt,43,0.172566371681,0.0060374297468,0.139250797795,0.521468892835,0.0938201446504,0.217161800476,0.0389315642458,0.631033979916
tagged_abstract_sents/15496998.txt,44,0.172566371681,0.00524074395967,0.139250797795,0.521468892835,0.0938201446504,0.203962630203,0.0366722806441,0.646889210399
tagged_abstract_sents/15496998.txt,45,0.214802896219,0.00173532649632,0.139250797795,0.521468892835,0.0938201446504,0.270690377015,0.0413975209497,0.755636803342
tagged_abstract_sents/15496998.txt,46,0.206355591311,-0.00145141665218,0.139250797795,0.521468892835,0.0938201446504,0.224484291532,0.037597959342,0.663024168064
tagged_abstract_sents/15496998.txt,47,0.206355591311,-0.00145141665218,0.139250797795,0.521468892835,0.0938201446504,0.271716214279,0.0326175512104,0.671593352855
tagged_abstract_sents/15496998.txt,48,0.206355591311,0.00332869807057,0.139250797795,0.521468892835,0.0938201446504,0.18934814223,0.0249869064246,0.597322445994
tagged_abstract_sents/15496998.txt,49,0.206355591311,-0.00416014832841,0.139250797795,0.521468892835,0.0938201446504,0.232800575714,0.0332806527492,0.666592956373
tagged_abstract_sents/15496998.txt,50,0.206355591311,-0.0162697722927,0.139250797795,0.521468892835,0.0938201446504,0.0,0.0,0.387896585338
tagged_abstract_sents/15496998.txt,51,0.262268704747,-0.00447882264326,0.188769469584,0.129715814208,0.0938201446504,0.216857256916,0.0421459086428,0.601834960642
tagged_abstract_sents/15496998.txt,52,0.262268704747,-0.00224810243931,0.188769469584,0.129715814208,0.0938201446504,0.199394092773,0.050164760824,0.596639870805
tagged_abstract_sents/15496998.txt,53,0.262268704747,0.0041253838577,0.188769469584,0.129715814208,0.0938201446504,0.204549258913,0.0404257722642,0.726275012899
tagged_abstract_sents/15496998.txt,54,0.262268704747,-0.00495683411553,0.188769469584,0.129715814208,0.0938201446504,0.147049166495,0.0310888483025,0.520544996811
tagged_abstract_sents/15496998.txt,55,0.262268704747,-0.00129207949476,0.188769469584,0.129715814208,0.0938201446504,0.223142163697,0.0376900993172,0.621805449355
tagged_abstract_sents/15496998.txt,56,0.262268704747,0.00173532649632,0.188769469584,0.129715814208,0.0938201446504,0.230958568303,0.0403573091248,0.653677985924
