tagged_abstract_sents/15495090.txt,2,0.0954875100725,-0.0473150008903,0.0616692308323,0.247294108221,0.171981854103,0.0,0.0,0.171949855762
tagged_abstract_sents/15495090.txt,3,0.0253827558421,0.0295337182977,0.188769469584,0.123191979006,0.171981854103,0.31090457988,0.017654076556,0.310069188289
tagged_abstract_sents/15495090.txt,5,0.0805801772764,0.038716898578,0.188769469584,0.123191979006,0.171981854103,0.220297625463,0.0176794598436,0.383532614182
tagged_abstract_sents/15495090.txt,6,0.0805801772764,-0.0473150008903,0.0616692308323,0.247294108221,0.171981854103,0.0,0.0,0.160023989526
tagged_abstract_sents/15495090.txt,7,0.123690572119,0.0590165602503,0.0616692308323,0.247294108221,0.171981854103,0.374685353325,0.0182458244492,0.475686514024
tagged_abstract_sents/15495090.txt,8,0.123690572119,-0.0448983745008,0.0616692308323,0.247294108221,0.171981854103,0.0,0.0,0.194995630678
tagged_abstract_sents/15495090.txt,9,0.140209508461,0.04983337997,0.0616692308323,0.247294108221,0.171981854103,0.151980476546,0.0149920042644,0.353118211197
tagged_abstract_sents/15495090.txt,10,0.140209508461,-0.043448398667,0.0616692308323,0.247294108221,0.171981854103,0.0,0.0,0.208500774918
tagged_abstract_sents/15495090.txt,11,0.149879129734,0.0623998371957,0.0616692308323,0.247294108221,0.171981854103,0.389726605411,0.0196653288181,0.585759148384
tagged_abstract_sents/15495090.txt,12,0.149879129734,-0.0386151458879,0.0616692308323,0.247294108221,0.171981854103,0.0,0.0,0.217203122492
tagged_abstract_sents/15495090.txt,13,0.176470588235,-0.0187988094935,0.0616692308323,0.247294108221,0.171981854103,0.246892369004,0.0131162369968,0.458675435741
tagged_abstract_sents/15495090.txt,14,0.176470588235,-0.0463483503345,0.0616692308323,0.247294108221,0.171981854103,0.0,0.0,0.236929648404
tagged_abstract_sents/15495090.txt,15,0.166800966962,-0.0265320139401,0.0616692308323,0.247294108221,0.171981854103,0.0958421511955,0.00706289978678,0.295436169404
tagged_abstract_sents/15495090.txt,16,0.166800966962,-0.0415150975554,0.0616692308323,0.247294108221,0.171981854103,0.0,0.0,0.230160601941
tagged_abstract_sents/15495090.txt,17,0.0954875100725,0.0319503446872,0.139250797795,0.194462959676,0.171981854103,0.337868906938,0.0159855484482,0.455280637644
tagged_abstract_sents/15495090.txt,18,0.0954875100725,-0.00284907532243,0.139250797795,0.194462959676,0.171981854103,0.274458756785,0.0182791400142,0.448337876255
tagged_abstract_sents/15495090.txt,19,0.0342465753425,-0.0183154842156,0.139250797795,0.194462959676,0.171981854103,0.128714575719,0.0192024571022,0.265804205353
tagged_abstract_sents/15495090.txt,20,0.0342465753425,0.0590165602503,0.139250797795,0.194462959676,0.171981854103,0.354101316522,0.0176350390903,0.388406815738
