tagged_abstract_sents/15507951.txt,1,0.125905068383,-0.0812285487987,0.0616692308323,0.142474783506,0.0,0.0,0.0,0.158055395414
tagged_abstract_sents/15507951.txt,2,0.239742558327,0.00396022177242,0.188769469584,0.202456734834,0.0465012054142,0.294832654817,0.0216294899131,0.710671196403
tagged_abstract_sents/15507951.txt,3,0.218020917136,-0.0783243861656,0.0616692308323,0.142474783506,0.0,0.0,0.0,0.232328906944
tagged_abstract_sents/15507951.txt,4,0.162510056315,0.0126727096717,0.210342442448,0.226435992083,0.0391275000677,0.228977465389,0.0192543774633,0.593003948756
tagged_abstract_sents/15507951.txt,5,0.101769911504,0.0930212091877,0.0616692308323,0.142474783506,0.0652037903972,0.406084971988,0.0192733809942,0.664159364889
tagged_abstract_sents/15507951.txt,6,0.0711987127916,-0.0831646572208,0.0616692308323,0.142474783506,0.0,0.0,0.0,0.113903089257
tagged_abstract_sents/15507951.txt,7,0.0458567980692,0.0388101733697,0.139250797795,0.0356431803763,0.00411709769671,0.263577199453,0.016517116797,0.408977240086
tagged_abstract_sents/15507951.txt,8,0.0245374094932,0.0639795828566,0.139250797795,0.0356431803763,0.0923592360647,0.400960047643,0.00856765280739,0.614631133691
tagged_abstract_sents/15507951.txt,9,0.00844730490748,0.0668837454897,0.139250797795,0.0356431803763,0.0398765192722,0.346421641199,0.0128938640133,0.499644970519
tagged_abstract_sents/15507951.txt,10,0.00120675784393,-0.0802604945877,0.139250797795,0.0356431803763,0.0,0.0,0.0,0.0652316603679
tagged_abstract_sents/15507951.txt,11,0.00120675784393,0.0436504444249,0.139250797795,0.0356431803763,0.122455864432,0.322334722938,0.00810361458016,0.54290805012
