tagged_abstract_sents/15507951.txt,2,0.206355591311,-0.0812285487987,0.0616692308323,0.106008497564,0.122455864432,0.0,0.0,0.211475927975
tagged_abstract_sents/15507951.txt,4,0.0048270313757,-0.0783243861656,0.0616692308323,0.106008497564,0.122455864432,0.0,0.0,0.0508339125527
tagged_abstract_sents/15507951.txt,5,0.0108608205953,0.0126727096717,0.210342442448,0.0253702522065,0.122455864432,0.228977465389,0.0192543774633,0.381111233772
tagged_abstract_sents/15507951.txt,6,0.0261464199517,0.0930212091877,0.0616692308323,0.106008497564,0.122455864432,0.406084971988,0.0192733809942,0.532952099004
tagged_abstract_sents/15507951.txt,7,0.0518905872888,-0.0831646572208,0.0616692308323,0.106008497564,0.122455864432,0.0,0.0,0.0875167030722
tagged_abstract_sents/15507951.txt,8,0.0993563958166,0.0388101733697,0.139250797795,0.521468892835,0.122455864432,0.263577199453,0.016517116797,0.580003491161
tagged_abstract_sents/15507951.txt,10,0.206355591311,0.0668837454897,0.139250797795,0.521468892835,0.122455864432,0.346421641199,0.0128938640133,0.766919180136
tagged_abstract_sents/15507951.txt,11,0.262268704747,-0.0802604945877,0.139250797795,0.521468892835,0.122455864432,0.0,0.0,0.419828931628
tagged_abstract_sents/15507951.txt,12,0.262268704747,0.0436504444249,0.139250797795,0.521468892835,0.122455864432,0.322334722938,0.00810361458016,0.836102052338
