tagged_abstract_sents/15520098.txt,2,0.0954875100725,-0.0352896844089,0.0616692308323,0.247294108221,0.26015895831,0.0,0.0,0.10904790918
tagged_abstract_sents/15520098.txt,4,0.0253827558421,-0.0362317475271,0.0616692308323,0.247294108221,0.26015895831,0.0,0.0,0.0527756931717
tagged_abstract_sents/15520098.txt,5,0.0253827558421,0.0405463966086,0.210342442448,0.141687475369,0.26015895831,0.362725864187,0.0409392458101,0.476933493884
tagged_abstract_sents/15520098.txt,6,0.0451248992748,-0.00514366462553,0.0616692308323,0.247294108221,0.26015895831,0.181369046533,0.0279929731145,0.33301971984
tagged_abstract_sents/15520098.txt,7,0.0805801772764,-0.0009043805935,0.0616692308323,0.247294108221,0.26015895831,0.216638126233,0.0400032976412,0.399427219174
tagged_abstract_sents/15520098.txt,8,0.0805801772764,-0.00608572774376,0.0616692308323,0.247294108221,0.26015895831,0.177986781822,0.0451455569134,0.391465280111
tagged_abstract_sents/15520098.txt,9,0.123690572119,0.00286387187942,0.0616692308323,0.247294108221,0.26015895831,0.236169112197,0.0382470229344,0.476164858928
tagged_abstract_sents/15520098.txt,10,0.123690572119,-0.00985398021667,0.0616692308323,0.247294108221,0.26015895831,0.158597532396,0.024453810854,0.322653612201
tagged_abstract_sents/15520098.txt,11,0.131345688961,0.0207630711258,0.0616692308323,0.247294108221,0.26015895831,0.254930151541,0.0274528631285,0.539022816856
tagged_abstract_sents/15520098.txt,12,0.140209508461,-0.0362317475271,0.139250797795,0.194462959676,0.26015895831,0.0,0.0,0.167578534184
tagged_abstract_sents/15520098.txt,13,0.140209508461,-0.000433349034385,0.139250797795,0.194462959676,0.26015895831,0.205319539654,0.0349162011173,0.371268607425
tagged_abstract_sents/15520098.txt,14,0.149879129734,-0.0178615167216,0.139250797795,0.194462959676,0.26015895831,0.0692686498235,0.0122691651148,0.26197288748
tagged_abstract_sents/15520098.txt,15,0.149879129734,-0.00137541215261,0.139250797795,0.194462959676,0.26015895831,0.172981881299,0.0300061103352,0.426897521527
tagged_abstract_sents/15520098.txt,16,0.150684931507,-0.00891191709845,0.139250797795,0.194462959676,0.26015895831,0.251522676468,0.0233800720376,0.561907456216
tagged_abstract_sents/15520098.txt,17,0.176470588235,-0.0126801695714,0.139250797795,0.194462959676,0.26015895831,0.152021440075,0.014758330008,0.372590021334
tagged_abstract_sents/15520098.txt,18,0.176470588235,0.013697597739,0.139250797795,0.194462959676,0.26015895831,0.207300730133,0.0326928606638,0.547102153165
tagged_abstract_sents/15520098.txt,19,0.166800966962,-0.00231747527084,0.139250797795,0.194462959676,0.26015895831,0.152555150737,0.0246845071828,0.360249841276
tagged_abstract_sents/15520098.txt,20,0.166800966962,0.0118134715026,0.139250797795,0.194462959676,0.26015895831,0.239846341012,0.0345165024993,0.640817261681
tagged_abstract_sents/15520098.txt,21,0.131345688961,-0.00561469618464,0.139250797795,0.194462959676,0.26015895831,0.20737195274,0.0354861567532,0.374098384
tagged_abstract_sents/15520098.txt,22,0.0954875100725,-0.0343476212906,0.0616692308323,0.247294108221,0.26015895831,0.0,0.0,0.109236321803
tagged_abstract_sents/15520098.txt,23,0.0954875100725,-0.0150353273669,0.139250797795,0.194462959676,0.26015895831,0.195064048238,0.0435906948324,0.268276026173
tagged_abstract_sents/15520098.txt,24,0.0342465753425,0.0212341026849,0.139250797795,0.194462959676,0.26015895831,0.31645438682,0.0404555109404,0.499356282977
tagged_abstract_sents/15520098.txt,25,0.0342465753425,0.000508714083844,0.139250797795,0.194462959676,0.26015895831,0.223422790106,0.0320307650528,0.469493996733
tagged_abstract_sents/15520098.txt,26,0.0342465753425,0.0721055110692,0.139250797795,0.194462959676,0.26015895831,0.388267258418,0.0443241775295,0.654870149906
