tagged_abstract_sents/15530629.txt,2,0.0954875100725,-0.0503984997656,0.0616692308323,0.247294108221,0.0233669372361,0.0,0.0,0.171333155987
tagged_abstract_sents/15530629.txt,4,0.0253827558421,0.00210970464135,0.188769469584,0.123191979006,0.0233669372361,0.283421924624,0.0348589757429,0.372045922961
tagged_abstract_sents/15530629.txt,5,0.0805801772764,0.00679793717768,0.188769469584,0.123191979006,0.0233669372361,0.38717060787,0.0323731565583,0.579951840383
tagged_abstract_sents/15530629.txt,6,0.0805801772764,-0.0518049695265,0.0616692308323,0.247294108221,0.0233669372361,0.0,0.0,0.159125995798
tagged_abstract_sents/15530629.txt,7,0.123690572119,0.0241443975621,0.210342442448,0.141687475369,0.0233669372361,0.375674667665,0.0329622033402,0.529927760432
tagged_abstract_sents/15530629.txt,8,0.123690572119,0.0189873417722,0.194899689933,0.293363477728,0.0233669372361,0.381198521533,0.048977439203,0.656956251404
tagged_abstract_sents/15530629.txt,9,0.140209508461,-0.0513361462729,0.0616692308323,0.247294108221,0.0233669372361,0.0,0.0,0.206923225397
tagged_abstract_sents/15530629.txt,10,0.149073327961,0.0128926394749,0.139250797795,0.194462959676,0.0233669372361,0.280661534328,0.02917358466,0.522941514404
tagged_abstract_sents/15530629.txt,11,0.149879129734,0.11415846226,0.139250797795,0.194462959676,0.0233669372361,0.501094537634,0.0370000732493,0.79935442009
tagged_abstract_sents/15530629.txt,12,0.176470588235,-0.00445382090952,0.139250797795,0.194462959676,0.0233669372361,0.21367029024,0.036849650496,0.479382829374
tagged_abstract_sents/15530629.txt,13,0.176470588235,0.011486169714,0.139250797795,0.194462959676,0.0233669372361,0.342785484625,0.0220979942999,0.651381347139
tagged_abstract_sents/15530629.txt,14,0.166800966962,0.0503984997656,0.139250797795,0.194462959676,0.0233669372361,0.360587951268,0.0351383191718,0.614911112184
tagged_abstract_sents/15530629.txt,15,0.166800966962,0.00398499765588,0.139250797795,0.194462959676,0.0233669372361,0.248397852546,0.0317729787491,0.524812583643
tagged_abstract_sents/15530629.txt,16,0.0954875100725,-0.0302390998594,0.139250797795,0.194462959676,0.0233669372361,0.174434549662,0.025356480125,0.373349018373
tagged_abstract_sents/15530629.txt,17,0.0954875100725,-0.0485232067511,0.139250797795,0.194462959676,0.0233669372361,0.0,0.0,0.194649653508
tagged_abstract_sents/15530629.txt,18,0.0342465753425,-0.0175808720113,0.139250797795,0.194462959676,0.0233669372361,0.343436511559,0.0310449814647,0.501345837887
tagged_abstract_sents/15530629.txt,19,0.0342465753425,-0.00914205344585,0.139250797795,0.194462959676,0.0233669372361,0.302364881368,0.0505420451216,0.267770750533
