tagged_abstract_sents/15530629.txt,2,0.206355591311,-0.0503984997656,0.0616692308323,0.106008497564,0.0233669372361,0.0,0.0,0.217641937781
tagged_abstract_sents/15530629.txt,4,0.206355591311,0.00210970464135,0.188769469584,0.129715814208,0.0233669372361,0.283421924624,0.0348589757429,0.615397886558
tagged_abstract_sents/15530629.txt,5,0.0048270313757,0.00679793717768,0.188769469584,0.129715814208,0.0233669372361,0.38717060787,0.0323731565583,0.598849813762
tagged_abstract_sents/15530629.txt,6,0.0048270313757,-0.0518049695265,0.0616692308323,0.106008497564,0.0233669372361,0.0,0.0,0.0561377958806
tagged_abstract_sents/15530629.txt,7,0.0108608205953,0.0241443975621,0.210342442448,0.0253702522065,0.0233669372361,0.375674667665,0.0329622033402,0.515521100602
tagged_abstract_sents/15530629.txt,8,0.0108608205953,0.0189873417722,0.194899689933,0.0581677376677,0.0233669372361,0.381198521533,0.048977439203,0.594368410114
tagged_abstract_sents/15530629.txt,9,0.0261464199517,-0.0513361462729,0.0616692308323,0.106008497564,0.0233669372361,0.0,0.0,0.0732870713921
tagged_abstract_sents/15530629.txt,10,0.0353982300885,0.0128926394749,0.139250797795,0.521468892835,0.0233669372361,0.280661534328,0.02917358466,0.5799874985
tagged_abstract_sents/15530629.txt,12,0.0993563958166,-0.00445382090952,0.139250797795,0.521468892835,0.0233669372361,0.21367029024,0.036849650496,0.53749782373
tagged_abstract_sents/15530629.txt,13,0.0993563958166,0.011486169714,0.139250797795,0.521468892835,0.0233669372361,0.342785484625,0.0220979942999,0.736710694521
tagged_abstract_sents/15530629.txt,14,0.172566371681,0.0503984997656,0.139250797795,0.521468892835,0.0233669372361,0.360587951268,0.0351383191718,0.750488017294
tagged_abstract_sents/15530629.txt,15,0.172566371681,0.00398499765588,0.139250797795,0.521468892835,0.0233669372361,0.248397852546,0.0317729787491,0.663326837113
tagged_abstract_sents/15530629.txt,16,0.206355591311,-0.0302390998594,0.139250797795,0.521468892835,0.0233669372361,0.174434549662,0.025356480125,0.604419952195
tagged_abstract_sents/15530629.txt,17,0.206355591311,-0.0485232067511,0.139250797795,0.521468892835,0.0233669372361,0.0,0.0,0.381445898447
tagged_abstract_sents/15530629.txt,18,0.262268704747,-0.0175808720113,0.139250797795,0.521468892835,0.0233669372361,0.343436511559,0.0310449814647,0.87330927887
tagged_abstract_sents/15530629.txt,19,0.262268704747,-0.00914205344585,0.139250797795,0.521468892835,0.0233669372361,0.302364881368,0.0505420451216,0.754451267645
