tagged_abstract_sents/15542510.txt,2,0.206355591311,-0.046854268023,0.0616692308323,0.106008497564,0.144602743469,0.0,0.0,0.21835078413
tagged_abstract_sents/15542510.txt,3,0.206355591311,-0.00483746130031,0.188769469584,0.129715814208,0.144602743469,0.240554498958,0.0666499452754,0.658881703552
tagged_abstract_sents/15542510.txt,4,0.206355591311,0.00829279080053,0.188769469584,0.129715814208,0.144602743469,0.349137653459,0.0642101422838,0.743747388456
tagged_abstract_sents/15542510.txt,5,0.0048270313757,-0.0505307386112,0.0616692308323,0.106008497564,0.144602743469,0.0,0.0,0.0563926420636
tagged_abstract_sents/15542510.txt,7,0.0108608205953,-0.0479046881911,0.0616692308323,0.106008497564,0.144602743469,0.0,0.0,0.0617448835233
tagged_abstract_sents/15542510.txt,9,0.0261464199517,-0.0205937638213,0.0616692308323,0.106008497564,0.144602743469,0.160633571867,0.0437796424663,0.36110037897
tagged_abstract_sents/15542510.txt,10,0.0261464199517,-0.0484298982751,0.0616692308323,0.106008497564,0.144602743469,0.0,0.0,0.0738683209917
tagged_abstract_sents/15542510.txt,11,0.0518905872888,0.0293011941619,0.0616692308323,0.106008497564,0.144602743469,0.308270271314,0.0493215892705,0.473328097955
tagged_abstract_sents/15542510.txt,12,0.0518905872888,0.0329776647501,0.0616692308323,0.106008497564,0.144602743469,0.464325005509,0.0580145410955,0.682940900656
tagged_abstract_sents/15542510.txt,13,0.0993563958166,-0.0484298982751,0.0616692308323,0.106008497564,0.144602743469,0.0,0.0,0.132436301684
tagged_abstract_sents/15542510.txt,14,0.0993563958166,-0.0253206545776,0.0616692308323,0.106008497564,0.144602743469,0.159110088322,0.0579416934762,0.392486752196
tagged_abstract_sents/15542510.txt,15,0.172566371681,0.00093984962406,0.139250797795,0.521468892835,0.144602743469,0.28044786641,0.0666828813491,0.677855019661
tagged_abstract_sents/15542510.txt,16,0.172566371681,-0.0221693940734,0.139250797795,0.521468892835,0.144602743469,0.146907724661,0.048568040861,0.630639168853
tagged_abstract_sents/15542510.txt,17,0.206355591311,0.078145731977,0.139250797795,0.521468892835,0.144602743469,0.326987027455,0.0543845975258,0.78797272519
tagged_abstract_sents/15542510.txt,18,0.206355591311,0.0875995134896,0.139250797795,0.521468892835,0.144602743469,0.355507731856,0.0623621972305,0.840240135562
tagged_abstract_sents/15542510.txt,19,0.262268704747,-0.046854268023,0.0616692308323,0.106008497564,0.144602743469,0.0,0.0,0.263081274878
tagged_abstract_sents/15542510.txt,20,0.262268704747,0.0587129588678,0.139250797795,0.521468892835,0.144602743469,0.494733671342,0.0746503709109,0.994379379224
