tagged_abstract_sents/15547519.txt,2,0.206355591311,-0.0695211524227,0.0616692308323,0.106008497564,0.162101371125,0.0,0.0,0.21381740725
tagged_abstract_sents/15547519.txt,4,0.0048270313757,-0.0673005750726,0.0616692308323,0.106008497564,0.162101371125,0.0,0.0,0.0530386747713
tagged_abstract_sents/15547519.txt,5,0.0108608205953,0.0207823264818,0.210342442448,0.0253702522065,0.162101371125,0.834436652117,0.000542305884621,1.03694080714
tagged_abstract_sents/15547519.txt,6,0.0108608205953,0.0888800318852,0.205068369407,0.159268805519,0.162101371125,0.893620193517,0.0213916982417,1.15498251889
tagged_abstract_sents/15547519.txt,7,0.0261464199517,-0.0710015373228,0.0616692308323,0.106008497564,0.162101371125,0.0,0.0,0.0693539931821
tagged_abstract_sents/15547519.txt,8,0.0518905872888,-0.0384330695212,0.139250797795,0.521468892835,0.162101371125,0.343299005008,0.0234924613743,0.658789066728
tagged_abstract_sents/15547519.txt,10,0.0993563958166,-0.0258497978705,0.139250797795,0.521468892835,0.162101371125,0.466774630528,0.0202621546817,0.838943734756
tagged_abstract_sents/15547519.txt,11,0.172566371681,0.0141205944315,0.139250797795,0.521468892835,0.162101371125,0.722358443768,0.0184230303773,1.17912893534
tagged_abstract_sents/15547519.txt,12,0.206355591311,-0.0687809599727,0.139250797795,0.521468892835,0.162101371125,0.0,0.0,0.377394347802
tagged_abstract_sents/15547519.txt,13,0.262268704747,0.0289244434322,0.139250797795,0.521468892835,0.162101371125,0.887941651149,0.0125294232558,1.36737143072
tagged_abstract_sents/15547519.txt,14,0.262268704747,0.0318852132324,0.139250797795,0.521468892835,0.162101371125,0.866948975366,0.0309386623032,1.40666198141
