tagged_abstract_sents/15555974.txt,2,0.0954875100725,-0.0707502374169,0.0616692308323,0.247294108221,0.0289898046278,0.0,0.0,0.167262808457
tagged_abstract_sents/15555974.txt,3,0.0253827558421,0.0487783821117,0.188769469584,0.123191979006,0.0289898046278,0.164437759591,0.0474372051511,0.31584701115
tagged_abstract_sents/15555974.txt,5,0.123690572119,-0.0696279029612,0.0616692308323,0.247294108221,0.0289898046278,0.0,0.0,0.190049724986
tagged_abstract_sents/15555974.txt,6,0.123690572119,0.0313821980489,0.139250797795,0.194462959676,0.0289898046278,0.116192259785,0.0499918540241,0.358222346896
tagged_abstract_sents/15555974.txt,7,0.140209508461,0.0195976862644,0.139250797795,0.194462959676,0.0289898046278,0.134931245097,0.0595161290323,0.358791414708
tagged_abstract_sents/15555974.txt,8,0.149879129734,0.0179141845809,0.139250797795,0.194462959676,0.0289898046278,0.159085381544,0.0530026775469,0.305535346168
tagged_abstract_sents/15555974.txt,9,0.176470588235,-0.0724337391004,0.139250797795,0.194462959676,0.0289898046278,0.0,0.0,0.254654009568
tagged_abstract_sents/15555974.txt,10,0.176470588235,0.0325045325045,0.139250797795,0.194462959676,0.0289898046278,0.137219450642,0.0568255131965,0.441109916308
tagged_abstract_sents/15555974.txt,11,0.166800966962,0.0302598635932,0.139250797795,0.194462959676,0.0289898046278,0.147840525151,0.0541195363776,0.427540102124
tagged_abstract_sents/15555974.txt,12,0.0954875100725,0.0566347233014,0.139250797795,0.194462959676,0.0289898046278,0.182283704525,0.0505244755245,0.368821650675
tagged_abstract_sents/15555974.txt,13,0.0342465753425,-0.0701890701891,0.0616692308323,0.247294108221,0.0289898046278,0.0,0.0,0.118382294119
tagged_abstract_sents/15555974.txt,14,0.0342465753425,0.0100578433912,0.139250797795,0.194462959676,0.0289898046278,0.179898744763,0.0544809384164,0.303255675953
