tagged_abstract_sents/15577775.txt,1,0.125905068383,-0.0576900059844,0.0616692308323,0.142474783506,0.0,0.0,0.0,0.162763103977
tagged_abstract_sents/15577775.txt,2,0.239742558327,0.153261520048,0.188769469584,0.202456734834,0.201158589887,0.22969585103,0.00260782112452,0.811030367954
tagged_abstract_sents/15577775.txt,3,0.229283990346,-0.0442250149611,0.0616692308323,0.142474783506,0.0,0.0,0.0,0.248159239752
tagged_abstract_sents/15577775.txt,4,0.218020917136,-0.0181926989826,0.0616692308323,0.142474783506,0.0341276494348,0.0750954394032,0.00154364299747,0.355121976216
tagged_abstract_sents/15577775.txt,5,0.162510056315,0.016816277678,0.0616692308323,0.142474783506,0.104679811516,0.144956915734,0.00966531013191,0.466250388437
tagged_abstract_sents/15577775.txt,6,0.118262268705,0.0177139437463,0.0616692308323,0.142474783506,0.0217713035496,0.165325777768,0.00341747701045,0.362244212509
tagged_abstract_sents/15577775.txt,7,0.101769911504,-0.0594853381209,0.139250797795,0.0356431803763,0.0,0.0,0.0,0.14983721459
tagged_abstract_sents/15577775.txt,8,0.0711987127916,-0.0146020347098,0.139250797795,0.0356431803763,0.0278751538795,0.116419520965,0.00831192383255,0.286963514979
tagged_abstract_sents/15577775.txt,9,0.0571198712792,0.0204069419509,0.139250797795,0.0356431803763,0.10004977842,0.174734831241,0.00395881649113,0.408839064576
tagged_abstract_sents/15577775.txt,10,0.0458567980692,-0.015499700778,0.139250797795,0.0356431803763,0.0252906156344,0.0549463222862,0.000280662363177,0.194421451594
tagged_abstract_sents/15577775.txt,11,0.0245374094932,-0.0451226810293,0.0616692308323,0.142474783506,0.0,0.0,0.0,0.0841824418565
tagged_abstract_sents/15577775.txt,12,0.0144810941271,0.0302812687014,0.139250797795,0.0356431803763,0.0505854731972,0.196222062777,0.00319643246952,0.347963450495
tagged_abstract_sents/15577775.txt,13,0.00844730490748,0.04105326152,0.139250797795,0.0356431803763,0.0,0.11292086066,0.0101902027246,0.218397912625
tagged_abstract_sents/15577775.txt,14,0.00120675784393,0.0275882704967,0.139250797795,0.0356431803763,0.0236067120855,0.135787536432,0.00462157358032,0.250817235482
tagged_abstract_sents/15577775.txt,15,0.00120675784393,-0.0523040095751,0.139250797795,0.0356431803763,0.0,0.0,0.0,0.0708229573704
