tagged_abstract_sents/15571825.txt,1,0.125905068383,-0.0800823580407,0.0616692308323,0.142474783506,0.0,0.0,0.0,0.158284633566
tagged_abstract_sents/15571825.txt,2,0.239742558327,0.0330515821413,0.188769469584,0.202456734834,0.313247517258,0.169945089875,0.058,0.894718725465
tagged_abstract_sents/15571825.txt,3,0.218020917136,-0.070329432163,0.0616692308323,0.142474783506,0.0,0.0,0.0,0.233927897744
tagged_abstract_sents/15571825.txt,4,0.162510056315,0.0174469007369,0.210342442448,0.226435992083,0.044061566528,0.137307304203,0.0608837643295,0.548852079109
tagged_abstract_sents/15571825.txt,5,0.101769911504,0.00769397485912,0.0616692308323,0.142474783506,0.0665916484703,0.1549510526,0.0379701644779,0.416044640192
tagged_abstract_sents/15571825.txt,6,0.0852775543041,-0.0534243606415,0.139250797795,0.0356431803763,0.086938228246,0.0782769356537,0.0498847926267,0.352955480852
tagged_abstract_sents/15571825.txt,7,0.0711987127916,-0.0423710446467,0.139250797795,0.0356431803763,0.0101831063909,0.0789296274543,0.0681922915794,0.286108139739
tagged_abstract_sents/15571825.txt,8,0.0458567980692,0.14748591244,0.139250797795,0.0356431803763,0.0792115123277,0.229045144668,0.0562103869076,0.510968017857
tagged_abstract_sents/15571825.txt,9,0.0245374094932,0.0337017771998,0.139250797795,0.0356431803763,0.0416754409668,0.171873245452,0.0438768328446,0.364114155308
tagged_abstract_sents/15571825.txt,10,0.00844730490748,0.0298006068487,0.139250797795,0.0356431803763,0.00311001885974,0.0864586837927,0.0293346774194,0.211939698378
tagged_abstract_sents/15571825.txt,11,0.00120675784393,-0.0761811876896,0.139250797795,0.0356431803763,0.0,0.0,0.0,0.0660475217475
tagged_abstract_sents/15571825.txt,12,0.00120675784393,0.0532076289554,0.139250797795,0.0356431803763,0.302850210865,0.150327969427,0.0538989602773,0.599002425646
