tagged_abstract_sents/15591600.txt,2,0.206355591311,-0.0494949494949,0.0616692308323,0.106008497564,0.0321223569906,0.0,0.0,0.217822647835
tagged_abstract_sents/15591600.txt,4,0.206355591311,-0.0482828282828,0.0616692308323,0.106008497564,0.0321223569906,0.0,0.0,0.218065072078
tagged_abstract_sents/15591600.txt,5,0.0048270313757,0.0614141414141,0.0616692308323,0.106008497564,0.0321223569906,0.214298964049,0.00696774823366,0.31031389881
tagged_abstract_sents/15591600.txt,6,0.0048270313757,-0.0458585858586,0.0616692308323,0.106008497564,0.0321223569906,0.0,0.0,0.0573270726141
tagged_abstract_sents/15591600.txt,7,0.0108608205953,-0.00646464646465,0.0616692308323,0.106008497564,0.0321223569906,0.109487530235,0.00882081712842,0.268033894903
tagged_abstract_sents/15591600.txt,8,0.0108608205953,-0.0458585858586,0.0616692308323,0.106008497564,0.0321223569906,0.0,0.0,0.0621541039898
tagged_abstract_sents/15591600.txt,9,0.0261464199517,-0.019797979798,0.0616692308323,0.106008497564,0.0321223569906,0.157806940262,0.00691750177478,0.235896070141
tagged_abstract_sents/15591600.txt,10,0.0353982300885,-0.0464646464646,0.0616692308323,0.106008497564,0.0321223569906,0.0,0.0,0.0816628194632
tagged_abstract_sents/15591600.txt,11,0.0518905872888,-0.0119191919192,0.0616692308323,0.106008497564,0.0321223569906,0.128397138888,0.00771821498737,0.295625527179
tagged_abstract_sents/15591600.txt,12,0.0993563958166,0.0147474747475,0.0616692308323,0.106008497564,0.0321223569906,0.126157524778,0.00868182243428,0.270308023521
tagged_abstract_sents/15591600.txt,13,0.0993563958166,0.029898989899,0.139250797795,0.521468892835,0.0321223569906,0.137998564301,0.0105330933945,0.441829218436
tagged_abstract_sents/15591600.txt,15,0.172566371681,0.0614141414141,0.139250797795,0.521468892835,0.0321223569906,0.177473287757,0.00265225933202,0.595772616798
tagged_abstract_sents/15591600.txt,16,0.206355591311,0.0117171717172,0.139250797795,0.521468892835,0.0321223569906,0.133286016287,0.0197691552063,0.550558387948
tagged_abstract_sents/15591600.txt,17,0.206355591311,-0.0488888888889,0.139250797795,0.521468892835,0.0321223569906,0.0,0.0,0.381372762019
tagged_abstract_sents/15591600.txt,18,0.262268704747,0.0523232323232,0.139250797795,0.521468892835,0.0321223569906,0.172040102647,0.0061745719899,0.624126165986
tagged_abstract_sents/15591600.txt,19,0.262268704747,0.0450505050505,0.139250797795,0.521468892835,0.0321223569906,0.233182894962,0.00691893738789,0.676509107561
