tagged_abstract_sents/15644481.txt,2,0.0954875100725,-0.0603892027621,0.0616692308323,0.247294108221,0.0329736162284,0.0,0.0,0.169335015388
tagged_abstract_sents/15644481.txt,3,0.0253827558421,0.0714375392341,0.188769469584,0.123191979006,0.0329736162284,0.305068521843,0.0352601705933,0.449117512054
tagged_abstract_sents/15644481.txt,4,0.0451248992748,-0.0585059635907,0.0616692308323,0.247294108221,0.0329736162284,0.0,0.0,0.129421574584
tagged_abstract_sents/15644481.txt,5,0.0805801772764,-0.0189579409918,0.0616692308323,0.247294108221,0.0329736162284,0.191568010838,0.0399779095454,0.428617066454
tagged_abstract_sents/15644481.txt,6,0.123690572119,0.0557438794727,0.0616692308323,0.247294108221,0.0329736162284,0.318737122565,0.0375070138457,0.504835603968
tagged_abstract_sents/15644481.txt,7,0.131345688961,-0.0440677966102,0.0616692308323,0.247294108221,0.0329736162284,0.0,0.0,0.201285839729
tagged_abstract_sents/15644481.txt,8,0.140209508461,-0.00138104205901,0.0616692308323,0.247294108221,0.0329736162284,0.17942410794,0.0233286827113,0.379459790261
tagged_abstract_sents/15644481.txt,10,0.150684931507,-0.00389202762084,0.0616692308323,0.247294108221,0.0329736162284,0.263926780924,0.0267570631322,0.396280955011
tagged_abstract_sents/15644481.txt,11,0.176470588235,-0.0572504708098,0.0616692308323,0.247294108221,0.0329736162284,0.0,0.0,0.234749224309
tagged_abstract_sents/15644481.txt,12,0.166800966962,-0.0403013182674,0.0616692308323,0.247294108221,0.0329736162284,0.0882576742787,0.0216253923962,0.410112057143
tagged_abstract_sents/15644481.txt,13,0.131345688961,0.050721908349,0.139250797795,0.194462959676,0.0329736162284,0.266894972226,0.0329475152828,0.536488061598
tagged_abstract_sents/15644481.txt,14,0.0954875100725,-0.0591337099812,0.139250797795,0.194462959676,0.0329736162284,0.0,0.0,0.192527552862
tagged_abstract_sents/15644481.txt,15,0.0342465753425,0.0375392341494,0.139250797795,0.194462959676,0.0329736162284,0.223257821093,0.0543763721045,0.355320589249
tagged_abstract_sents/15644481.txt,16,0.0342465753425,0.0952919020716,0.139250797795,0.194462959676,0.0329736162284,0.314363914993,0.0347242231692,0.459420582629
