tagged_abstract_sents/15654705.txt,1,0.125905068383,-0.0280013290018,0.0616692308323,0.142474783506,0.0,0.0,0.0,0.168700839374
tagged_abstract_sents/15654705.txt,2,0.125905068383,0.037562758417,0.188769469584,0.202456734834,0.123630111318,0.145152457492,0.0421201267392,0.574261057182
tagged_abstract_sents/15654705.txt,3,0.125905068383,-0.0164833136444,0.188769469584,0.202456734834,0.0713081792178,0.123972662433,0.0772559279859,0.525085916857
tagged_abstract_sents/15654705.txt,4,0.239742558327,0.0041900472534,0.188769469584,0.202456734834,0.0319274140021,0.125821250239,0.0221965835515,0.527699059147
tagged_abstract_sents/15654705.txt,5,0.239742558327,-0.00939530419374,0.188769469584,0.202456734834,0.0557607639699,0.104043094388,0.0486849216357,0.553525521059
tagged_abstract_sents/15654705.txt,6,0.239742558327,0.0121640578854,0.188769469584,0.202456734834,0.0314326437422,0.132264156884,0.0174950696413,0.530540483748
tagged_abstract_sents/15654705.txt,7,0.218020917136,-0.0280013290018,0.0616692308323,0.142474783506,0.0,0.0,0.0,0.242393518376
tagged_abstract_sents/15654705.txt,8,0.218020917136,0.00330404607206,0.0616692308323,0.142474783506,0.0590977310536,0.150608032809,0.0466489874638,0.505009344717
tagged_abstract_sents/15654705.txt,9,0.218020917136,-0.0265246603662,0.0616692308323,0.142474783506,0.0,0.0,0.0,0.242688852103
tagged_abstract_sents/15654705.txt,10,0.162510056315,0.0425834317779,0.0616692308323,0.142474783506,0.0155937133935,0.134068192584,0.0346511771231,0.396414864976
tagged_abstract_sents/15654705.txt,11,0.162510056315,-0.00171662728884,0.0616692308323,0.142474783506,0.0556540667979,0.0904669705041,0.0170521077283,0.366414915093
tagged_abstract_sents/15654705.txt,12,0.162510056315,-0.0256386591849,0.0616692308323,0.142474783506,0.0,0.0,0.0,0.198457363683
tagged_abstract_sents/15654705.txt,13,0.101769911504,-0.012643975192,0.0616692308323,0.142474783506,0.0466463232703,0.0718050943386,0.0422862997658,0.313201902008
tagged_abstract_sents/15654705.txt,14,0.101769911504,-0.0123486414649,0.0616692308323,0.142474783506,0.0619596636971,0.0655636030028,0.0246389539422,0.304685472021
tagged_abstract_sents/15654705.txt,15,0.101769911504,-0.0226853219138,0.0616692308323,0.142474783506,0.0,0.0,0.0,0.150455915289
tagged_abstract_sents/15654705.txt,16,0.0852775543041,-0.0158926461902,0.0616692308323,0.142474783506,0.0502218099179,0.100148759138,0.0135928961749,0.302584029904
tagged_abstract_sents/15654705.txt,17,0.0711987127916,-0.0123486414649,0.0616692308323,0.142474783506,0.182226941927,0.0814605996851,0.0166462635725,0.408400097593
tagged_abstract_sents/15654705.txt,18,0.0711987127916,-0.0147113112817,0.0616692308323,0.142474783506,0.144249926491,0.105752286096,0.0448965651835,0.422492536215
tagged_abstract_sents/15654705.txt,19,0.0711987127916,-0.0274106615475,0.0616692308323,0.142474783506,0.0,0.0,0.0,0.125053888392
tagged_abstract_sents/15654705.txt,20,0.0458567980692,-0.0223899881867,0.0616692308323,0.142474783506,0.0995981104787,0.0531935365177,0.02418764637,0.282763784652
tagged_abstract_sents/15654705.txt,21,0.0458567980692,0.00537138216184,0.0616692308323,0.142474783506,0.0220503975194,0.108164768118,0.0626672800268,0.30421921102
tagged_abstract_sents/15654705.txt,22,0.0458567980692,0.0289980803308,0.139250797795,0.0356431803763,0.0507873503567,0.150488805125,0.0468953291699,0.370974892183
tagged_abstract_sents/15654705.txt,23,0.0245374094932,0.00448538098051,0.139250797795,0.0356431803763,0.101433593649,0.143969556822,0.0682514809202,0.414499988193
tagged_abstract_sents/15654705.txt,24,0.0245374094932,0.0363814235086,0.139250797795,0.0356431803763,0.0635602846732,0.166952039563,0.0561768149883,0.393913704531
tagged_abstract_sents/15654705.txt,25,0.0245374094932,0.00300871234495,0.139250797795,0.0356431803763,0.0788251453102,0.109803072754,0.0570215791235,0.346199820262
tagged_abstract_sents/15654705.txt,26,0.00844730490748,0.00862005316007,0.139250797795,0.0356431803763,0.0786746079878,0.154690766927,0.0497576762946,0.371923258777
tagged_abstract_sents/15654705.txt,27,0.00844730490748,0.0334280862374,0.139250797795,0.0356431803763,0.0626770499579,0.182241666173,0.043680996989,0.382361527304
tagged_abstract_sents/15654705.txt,28,0.00844730490748,0.0597127879504,0.139250797795,0.0356431803763,0.107844527636,0.257545337654,0.0396525541569,0.504061173974
tagged_abstract_sents/15654705.txt,29,0.00120675784393,0.00212271116361,0.139250797795,0.0356431803763,0.109413494817,0.137227570165,0.059362192623,0.387711559122
tagged_abstract_sents/15654705.txt,30,0.00120675784393,-0.0250479917307,0.0616692308323,0.142474783506,0.0,0.0,0.0,0.0695328583969
tagged_abstract_sents/15654705.txt,31,0.00120675784393,0.0100967217956,0.0616692308323,0.142474783506,0.0,0.134370470969,0.0585738393718,0.269506111443
tagged_abstract_sents/15654705.txt,32,0.00120675784393,0.00921072061429,0.139250797795,0.0356431803763,0.150496109834,0.151836044688,0.0508489461358,0.436307004066
