tagged_abstract_sents/15667494.txt,2,0.0954875100725,-0.0553848641656,0.0616692308323,0.247294108221,0.131729930696,0.0,0.0,0.170335883107
tagged_abstract_sents/15667494.txt,4,0.0253827558421,0.0131791720569,0.188769469584,0.123191979006,0.131729930696,0.165876157241,0.0109315296438,0.231734356099
tagged_abstract_sents/15667494.txt,5,0.0805801772764,-0.0573253557568,0.0616692308323,0.247294108221,0.131729930696,0.0,0.0,0.158021918552
tagged_abstract_sents/15667494.txt,6,0.123690572119,0.0248221216041,0.194899689933,0.293363477728,0.131729930696,0.181573520622,0.0104898516784,0.380642128315
tagged_abstract_sents/15667494.txt,7,0.123690572119,0.0157664941785,0.0616692308323,0.247294108221,0.131729930696,0.140326421419,0.0141978922717,0.310926567574
tagged_abstract_sents/15667494.txt,8,0.140209508461,0.0377587322122,0.0616692308323,0.247294108221,0.131729930696,0.169099867916,0.0105020491803,0.272957771785
tagged_abstract_sents/15667494.txt,9,0.149073327961,-0.0573253557568,0.0616692308323,0.247294108221,0.131729930696,0.0,0.0,0.2128164391
tagged_abstract_sents/15667494.txt,10,0.149879129734,-0.00493208279431,0.139250797795,0.194462959676,0.131729930696,0.143139729923,0.0129322220692,0.366266436964
tagged_abstract_sents/15667494.txt,11,0.176470588235,0.055223156533,0.139250797795,0.194462959676,0.131729930696,0.134798662585,0.0121649752797,0.407511152207
tagged_abstract_sents/15667494.txt,12,0.176470588235,0.00477037516171,0.139250797795,0.194462959676,0.131729930696,0.114326692289,0.011950066912,0.387979377179
tagged_abstract_sents/15667494.txt,13,0.166800966962,0.0597509702458,0.139250797795,0.194462959676,0.131729930696,0.228331911371,0.0108052442288,0.417444145209
tagged_abstract_sents/15667494.txt,14,0.0954875100725,0.00994501940492,0.139250797795,0.194462959676,0.131729930696,0.130215790819,0.00706427955134,0.302623832538
tagged_abstract_sents/15667494.txt,15,0.0954875100725,0.0105918499353,0.139250797795,0.194462959676,0.131729930696,0.140934002752,0.00787145459277,0.250977289318
tagged_abstract_sents/15667494.txt,16,0.0342465753425,-0.0547380336352,0.0616692308323,0.247294108221,0.131729930696,0.0,0.0,0.121472501429
tagged_abstract_sents/15667494.txt,17,0.0342465753425,-0.0010510996119,0.139250797795,0.194462959676,0.131729930696,0.110630068953,0.010343481655,0.208564468194
