tagged_abstract_sents/15708180.txt,1,0.125905068383,-0.0611139155309,0.0616692308323,0.142474783506,0.0,0.0,0.0,0.162078322068
tagged_abstract_sents/15708180.txt,2,0.239742558327,-0.0146727242134,0.188769469584,0.202456734834,0.117746562883,0.0985915534718,0.0640807962529,0.624400169669
tagged_abstract_sents/15708180.txt,3,0.229283990346,-0.000538448594986,0.188769469584,0.202456734834,0.116276381371,0.128433703028,0.0680864558938,0.651237798094
tagged_abstract_sents/15708180.txt,4,0.218020917136,-0.0626283022043,0.0616692308323,0.142474783506,0.0,0.0,0.0,0.235468123736
tagged_abstract_sents/15708180.txt,5,0.162510056315,0.0438835604913,0.0616692308323,0.142474783506,0.063436802178,0.218418288205,0.0896725493476,0.583889447349
tagged_abstract_sents/15708180.txt,6,0.118262268705,0.00400471142521,0.210342442448,0.226435992083,0.0297260839935,0.136661271033,0.0810273634907,0.515927494615
tagged_abstract_sents/15708180.txt,7,0.101769911504,-0.0121487464244,0.0616692308323,0.142474783506,0.117884844538,0.120583313486,0.0701600312256,0.461191419636
tagged_abstract_sents/15708180.txt,8,0.0711987127916,-0.0626283022043,0.0616692308323,0.142474783506,0.0,0.0,0.0,0.11801036026
tagged_abstract_sents/15708180.txt,9,0.0571198712792,0.0600370183409,0.139250797795,0.0356431803763,0.0448609618872,0.136383889977,0.0876024590164,0.406868964582
tagged_abstract_sents/15708180.txt,10,0.0458567980692,0.00400471142521,0.139250797795,0.0356431803763,0.0565250116107,0.140404412441,0.0763238355451,0.391057993347
tagged_abstract_sents/15708180.txt,11,0.0245374094932,0.0761904761905,0.139250797795,0.0356431803763,0.00202609034325,0.0687368484437,0.0260763826338,0.212025697264
tagged_abstract_sents/15708180.txt,12,0.0144810941271,0.0630657916877,0.139250797795,0.0356431803763,0.0407649209325,0.188057805931,0.0754110558158,0.408750169329
tagged_abstract_sents/15708180.txt,13,0.00844730490748,-0.0606091199731,0.0616692308323,0.142474783506,0.0,0.0,0.0,0.0682130703992
tagged_abstract_sents/15708180.txt,14,0.00120675784393,0.0060238936564,0.139250797795,0.0356431803763,0.0537789196098,0.133444044521,0.0644875508443,0.334199052991
tagged_abstract_sents/15708180.txt,15,0.00120675784393,0.017129395928,0.139250797795,0.0356431803763,0.0265674554437,0.169647244577,0.0782547370662,0.359179075558
