tagged_abstract_sents/15716561.txt,1,0.125905068383,-0.0615240766713,0.0616692308323,0.142474783506,0.0,0.0,0.0,0.16199628984
tagged_abstract_sents/15716561.txt,2,0.239742558327,0.00252454417952,0.188769469584,0.202456734834,0.355116660906,0.595599218629,0.0557878399138,1.35392443019
tagged_abstract_sents/15716561.txt,3,0.229283990346,-0.0629266012155,0.0616692308323,0.142474783506,0.0,0.0,0.0,0.244418922502
tagged_abstract_sents/15716561.txt,4,0.218020917136,0.00766713417485,0.210342442448,0.226435992083,0.109186007768,0.659216769358,0.0604895242017,1.17794448072
tagged_abstract_sents/15716561.txt,5,0.162510056315,0.037587657784,0.194899689933,0.13295610691,0.297418527942,0.724967569433,0.0654081737698,1.36265652479
tagged_abstract_sents/15716561.txt,6,0.118262268705,0.00112201963534,0.0616692308323,0.142474783506,0.090741240559,0.446014296431,0.0576050810764,0.762771887425
tagged_abstract_sents/15716561.txt,7,0.101769911504,-0.00869565217391,0.139250797795,0.0356431803763,0.221479193058,0.490843717773,0.0464340751555,0.918752137766
tagged_abstract_sents/15716561.txt,8,0.0711987127916,-0.0629266012155,0.139250797795,0.0356431803763,0.0,0.0,0.0,0.124692003
tagged_abstract_sents/15716561.txt,9,0.0571198712792,0.0675081813932,0.139250797795,0.0356431803763,0.233509437784,0.772960099514,0.065834378373,1.21181980198
tagged_abstract_sents/15716561.txt,10,0.0458567980692,0.184385226741,0.139250797795,0.0356431803763,0.22749851366,0.931000228769,0.065494274461,1.3778738537
tagged_abstract_sents/15716561.txt,11,0.0245374094932,0.0600280504909,0.139250797795,0.0356431803763,0.107290159972,0.498949557353,0.0588297531627,0.777023361191
tagged_abstract_sents/15716561.txt,12,0.0144810941271,-0.0610565684899,0.0616692308323,0.142474783506,0.0,0.0,0.0,0.0729506120716
tagged_abstract_sents/15716561.txt,13,0.00844730490748,-0.0129032258065,0.139250797795,0.0356431803763,0.114679692432,0.657918586417,0.0520779346789,0.909171765303
tagged_abstract_sents/15716561.txt,14,0.00120675784393,-0.0348761103319,0.139250797795,0.0356431803763,0.0382555625542,0.436880794958,0.0490919073377,0.598536802069
tagged_abstract_sents/15716561.txt,15,0.00120675784393,-0.0559139784946,0.139250797795,0.0356431803763,0.0,0.310117897011,0.0340886612005,0.414307521798
