tagged_abstract_sents/15744552.txt,3,0.0048270313757,-0.00415523975733,0.0616692308323,0.106008497564,0.0951065296379,0.135301492431,0.0972513250339,0.309719303887
tagged_abstract_sents/15744552.txt,4,0.0108608205953,0.0429651790908,0.210342442448,0.0253702522065,0.0951065296379,0.126554228701,0.0417561150143,0.296978861638
tagged_abstract_sents/15744552.txt,5,0.0261464199517,-0.0512756586055,0.139250797795,0.521468892835,0.0951065296379,0.102690502825,0.0501073380172,0.388402584407
tagged_abstract_sents/15744552.txt,7,0.0993563958166,-0.0183661597274,0.139250797795,0.521468892835,0.0951065296379,0.13151202865,0.0873829039813,0.517008139441
tagged_abstract_sents/15744552.txt,8,0.172566371681,-0.0206099891964,0.139250797795,0.521468892835,0.0951065296379,0.115868208916,0.0932721449235,0.572621428002
tagged_abstract_sents/15744552.txt,9,0.206355591311,-0.0116346713205,0.139250797795,0.521468892835,0.0951065296379,0.138081475078,0.108452055686,0.640328280593
tagged_abstract_sents/15744552.txt,10,0.262268704747,0.0115515665254,0.139250797795,0.521468892835,0.0951065296379,0.106029482783,0.0656926961358,0.654931607606
