tagged_abstract_sents/15765034.txt,1,0.125905068383,-0.056806383673,0.0616692308323,0.142474783506,0.0,0.0,0.0,0.16293982844
tagged_abstract_sents/15765034.txt,2,0.239742558327,0.0253923051823,0.188769469584,0.202456734834,0.124193065143,0.188034682305,0.0896910466583,0.753913057047
tagged_abstract_sents/15765034.txt,3,0.239742558327,-0.0547892379342,0.0616692308323,0.142474783506,0.0,0.0,0.0,0.254413249542
tagged_abstract_sents/15765034.txt,4,0.218020917136,-0.00688202663819,0.0616692308323,0.142474783506,0.217997188756,0.135095283652,0.112338222606,0.712048073863
tagged_abstract_sents/15765034.txt,5,0.218020917136,-0.0305834890688,0.0616692308323,0.142474783506,0.0589186565629,0.126859055023,0.0703432077461,0.497998005695
tagged_abstract_sents/15765034.txt,6,0.162510056315,0.0869152502151,0.0616692308323,0.142474783506,0.128592794634,0.212273791087,0.132330189521,0.694164920806
tagged_abstract_sents/15765034.txt,7,0.101769911504,0.0450594761354,0.210342442448,0.226435992083,0.175471654527,0.190939994934,0.121764452114,0.751705944854
tagged_abstract_sents/15765034.txt,8,0.101769911504,0.014298003619,0.0616692308323,0.142474783506,0.185827943177,0.155196392626,0.106067142521,0.60494405872
tagged_abstract_sents/15765034.txt,9,0.0711987127916,0.0682566521314,0.0616692308323,0.142474783506,0.0813743712587,0.239719244339,0.115421430112,0.580702396837
tagged_abstract_sents/15765034.txt,10,0.0711987127916,-0.0547892379342,0.0616692308323,0.142474783506,0.0,0.0,0.0,0.119578173114
tagged_abstract_sents/15765034.txt,11,0.0458567980692,0.0102637121414,0.139250797795,0.0356431803763,0.128158038073,0.197085514951,0.102666423309,0.546966510227
tagged_abstract_sents/15765034.txt,12,0.0245374094932,0.0107679985761,0.139250797795,0.0356431803763,0.155709521664,0.149798284754,0.113950113734,0.521559800472
tagged_abstract_sents/15765034.txt,13,0.0245374094932,0.0309394559639,0.139250797795,0.0356431803763,0.0373717514459,0.134254344922,0.0923748921484,0.370137160313
tagged_abstract_sents/15765034.txt,14,0.00844730490748,-0.027053484026,0.139250797795,0.0356431803763,0.0,0.02409471809,0.0601542277826,0.165914446004
tagged_abstract_sents/15765034.txt,15,0.00844730490748,-0.0058734537688,0.139250797795,0.0356431803763,0.180984683163,0.127879442517,0.0986444757277,0.49341010759
tagged_abstract_sents/15765034.txt,16,0.00120675784393,-0.0527720921954,0.139250797795,0.0356431803763,0.0,0.0,0.0,0.0707293408463
tagged_abstract_sents/15765034.txt,17,0.00120675784393,-0.00234344872594,0.139250797795,0.0356431803763,0.179135834443,0.129064402638,0.0830996548749,0.472114961496
