tagged_abstract_sents/15788823.txt,2,0.0954875100725,-0.0648496240602,0.0616692308323,0.247294108221,0.23280170685,0.0,0.0,0.168442931128
tagged_abstract_sents/15788823.txt,4,0.0805801772764,-0.0661654135338,0.0616692308323,0.247294108221,0.23280170685,0.0,0.0,0.156253906997
tagged_abstract_sents/15788823.txt,5,0.0805801772764,0.00554511278195,0.0616692308323,0.247294108221,0.23280170685,0.393239486944,0.0576624786723,0.571034854165
tagged_abstract_sents/15788823.txt,6,0.123690572119,0.0772556390977,0.0616692308323,0.247294108221,0.23280170685,0.347135473008,0.0587870327284,0.550818188404
tagged_abstract_sents/15788823.txt,7,0.140209508461,0.043045112782,0.0616692308323,0.247294108221,0.23280170685,0.388162603895,0.0663431496377,0.757369087835
tagged_abstract_sents/15788823.txt,8,0.149073327961,-0.0661654135338,0.0616692308323,0.247294108221,0.23280170685,0.0,0.0,0.211048427545
tagged_abstract_sents/15788823.txt,9,0.149879129734,-0.0332706766917,0.139250797795,0.194462959676,0.23280170685,0.176956161766,0.042129229542,0.415620014893
tagged_abstract_sents/15788823.txt,10,0.176470588235,0.0384398496241,0.139250797795,0.194462959676,0.23280170685,0.279400634755,0.0571805269339,0.679224079286
tagged_abstract_sents/15788823.txt,11,0.166800966962,-0.0312969924812,0.139250797795,0.194462959676,0.23280170685,0.182727081932,0.0652861796184,0.472366039339
tagged_abstract_sents/15788823.txt,12,0.166800966962,-0.028007518797,0.139250797795,0.194462959676,0.23280170685,0.0415334135671,0.00973320924461,0.220600566905
tagged_abstract_sents/15788823.txt,13,0.0954875100725,-0.0641917293233,0.0616692308323,0.247294108221,0.23280170685,0.0,0.0,0.168574510076
tagged_abstract_sents/15788823.txt,14,0.0342465753425,0.0713345864662,0.139250797795,0.194462959676,0.23280170685,0.424439934914,0.051698464402,0.540180631322
tagged_abstract_sents/15788823.txt,15,0.0342465753425,0.0338345864662,0.139250797795,0.194462959676,0.23280170685,0.374816868765,0.0477049125839,0.498424401546
