tagged_abstract_sents/15829527.txt,2,0.206355591311,-0.0505304299274,0.0616692308323,0.106008497564,0.0473411421823,0.0,0.0,0.217615551749
tagged_abstract_sents/15829527.txt,4,0.206355591311,-0.0519009187351,0.0616692308323,0.106008497564,0.0473411421823,0.0,0.0,0.217341453987
tagged_abstract_sents/15829527.txt,5,0.0048270313757,-0.00895893609461,0.210342442448,0.0253702522065,0.0473411421823,0.121902344245,0.0359400456175,0.265592559798
tagged_abstract_sents/15829527.txt,6,0.0048270313757,0.00109131516167,0.194899689933,0.0581677376677,0.0473411421823,0.14561261199,0.0235581622678,0.29650909711
tagged_abstract_sents/15829527.txt,7,0.0108608205953,0.00109131516167,0.0616692308323,0.106008497564,0.0473411421823,0.121216953452,0.0120466121315,0.271645702352
tagged_abstract_sents/15829527.txt,8,0.0108608205953,-0.0519009187351,0.139250797795,0.521468892835,0.0473411421823,0.0,0.0,0.224374539477
tagged_abstract_sents/15829527.txt,9,0.0261464199517,-0.00941576569717,0.139250797795,0.521468892835,0.0473411421823,0.0733925973946,0.0315700428604,0.403471609174
tagged_abstract_sents/15829527.txt,10,0.0353982300885,-0.00530429927415,0.139250797795,0.521468892835,0.0473411421823,0.12834344346,0.012401605186,0.421414462474
tagged_abstract_sents/15829527.txt,11,0.0518905872888,0.110273590173,0.139250797795,0.521468892835,0.0473411421823,0.195139885271,0.0281633539698,0.527935498791
tagged_abstract_sents/15829527.txt,12,0.0993563958166,0.0828638140196,0.139250797795,0.521468892835,0.0473411421823,0.210803237571,0.0355979146302,0.611124446661
tagged_abstract_sents/15829527.txt,13,0.0993563958166,0.00748692959748,0.139250797795,0.521468892835,0.0473411421823,0.127763138673,0.00421146953405,0.485950512309
tagged_abstract_sents/15829527.txt,15,0.172566371681,-0.0500736003249,0.139250797795,0.521468892835,0.0473411421823,0.0,0.0,0.354104444028
tagged_abstract_sents/15829527.txt,16,0.206355591311,-0.0244911425816,0.139250797795,0.521468892835,0.0473411421823,0.0912231018836,0.00882697947214,0.643486800281
tagged_abstract_sents/15829527.txt,17,0.206355591311,0.0755545403787,0.139250797795,0.521468892835,0.0473411421823,0.169810745598,0.0128139742445,0.708414251725
tagged_abstract_sents/15829527.txt,18,0.262268704747,-0.0244911425816,0.139250797795,0.521468892835,0.0473411421823,0.138930116718,0.0210337243402,0.618533346936
tagged_abstract_sents/15829527.txt,19,0.262268704747,-0.0450484746967,0.139250797795,0.521468892835,0.0473411421823,0.0904273700343,0.0139002932551,0.553777670202
