tagged_abstract_sents/15829527.txt,1,0.125905068383,-0.0505304299274,0.0616692308323,0.142474783506,0.0,0.0,0.0,0.164195019189
tagged_abstract_sents/15829527.txt,2,0.239742558327,0.00200497436678,0.188769469584,0.202456734834,0.169268771517,0.125763627301,0.0157787552949,0.65812795089
tagged_abstract_sents/15829527.txt,3,0.239742558327,-0.0519009187351,0.0616692308323,0.142474783506,0.0,0.0,0.0,0.254990913382
tagged_abstract_sents/15829527.txt,4,0.218020917136,-0.00895893609461,0.210342442448,0.226435992083,0.0287047951959,0.121902344245,0.0359400456175,0.532274150397
tagged_abstract_sents/15829527.txt,5,0.218020917136,0.00109131516167,0.194899689933,0.13295610691,0.0414066157682,0.14561261199,0.0235581622678,0.522549063806
tagged_abstract_sents/15829527.txt,6,0.162510056315,0.00109131516167,0.0616692308323,0.142474783506,0.12389969746,0.121216953452,0.0120466121315,0.460966621596
tagged_abstract_sents/15829527.txt,7,0.162510056315,-0.0519009187351,0.139250797795,0.0356431803763,0.0,0.0,0.0,0.199946214316
tagged_abstract_sents/15829527.txt,8,0.101769911504,-0.00941576569717,0.139250797795,0.0356431803763,0.0976795860783,0.0733925973946,0.0315700428604,0.362493355408
tagged_abstract_sents/15829527.txt,9,0.0852775543041,-0.00530429927415,0.139250797795,0.0356431803763,0.14352501128,0.12834344346,0.012401605186,0.431749596524
tagged_abstract_sents/15829527.txt,10,0.0711987127916,0.110273590173,0.139250797795,0.0356431803763,0.0464091343057,0.195139885271,0.0281633539698,0.429044414825
tagged_abstract_sents/15829527.txt,11,0.0458567980692,0.0828638140196,0.139250797795,0.0356431803763,0.121377317318,0.210803237571,0.0355979146302,0.501355023788
tagged_abstract_sents/15829527.txt,12,0.0458567980692,0.00748692959748,0.139250797795,0.0356431803763,0.108564252399,0.127763138673,0.00421146953405,0.359040037991
tagged_abstract_sents/15829527.txt,13,0.0245374094932,0.0417491497894,0.139250797795,0.0356431803763,0.175047455349,0.212766724085,0.0243977796397,0.520510069637
tagged_abstract_sents/15829527.txt,14,0.0245374094932,-0.0500736003249,0.139250797795,0.0356431803763,0.0,0.0,0.0,0.0899335605398
tagged_abstract_sents/15829527.txt,15,0.00844730490748,-0.0244911425816,0.139250797795,0.0356431803763,0.331871968682,0.0912231018836,0.00882697947214,0.514100018457
tagged_abstract_sents/15829527.txt,16,0.00844730490748,0.0755545403787,0.139250797795,0.0356431803763,0.255354962152,0.169810745598,0.0128139742445,0.540166787006
tagged_abstract_sents/15829527.txt,17,0.00120675784393,-0.0244911425816,0.139250797795,0.0356431803763,0.0632166663744,0.138930116718,0.0210337243402,0.299566038202
tagged_abstract_sents/15829527.txt,18,0.00120675784393,-0.0450484746967,0.139250797795,0.0356431803763,0.0473411421823,0.0904273700343,0.0139002932551,0.223942869818
