tagged_abstract_sents/15846673.txt,2,0.206355591311,-0.0299847792998,0.0616692308323,0.106008497564,0.138534836729,0.0,0.0,0.221724681874
tagged_abstract_sents/15846673.txt,3,0.206355591311,0.00745814307458,0.188769469584,0.129715814208,0.138534836729,0.43342694349,0.0413495188101,0.875265052841
tagged_abstract_sents/15846673.txt,4,0.206355591311,0.0214611872146,0.188769469584,0.129715814208,0.138534836729,0.571236398354,0.026335049465,0.976511260391
tagged_abstract_sents/15846673.txt,5,0.206355591311,-0.0299847792998,0.0616692308323,0.106008497564,0.138534836729,0.0,0.0,0.221724681874
tagged_abstract_sents/15846673.txt,6,0.206355591311,-0.00350076103501,0.0616692308323,0.106008497564,0.138534836729,0.418909925811,0.0256397637795,0.823874945074
tagged_abstract_sents/15846673.txt,7,0.0048270313757,-0.0284627092846,0.0616692308323,0.106008497564,0.138534836729,0.0,0.0,0.0608062479289
tagged_abstract_sents/15846673.txt,8,0.0048270313757,0.0406392694064,0.0616692308323,0.106008497564,0.138534836729,0.724363088693,0.0527668416448,0.843433352226
tagged_abstract_sents/15846673.txt,9,0.0048270313757,-0.00471841704718,0.0616692308323,0.106008497564,0.138534836729,0.346555879665,0.0284248323126,0.46139688454
tagged_abstract_sents/15846673.txt,10,0.0048270313757,-0.0275494672755,0.0616692308323,0.106008497564,0.138534836729,0.0,0.0,0.0609888963308
tagged_abstract_sents/15846673.txt,12,0.0108608205953,-0.0245053272451,0.0616692308323,0.106008497564,0.138534836729,0.0,0.0,0.0664247557125
tagged_abstract_sents/15846673.txt,13,0.016894609815,-0.00776255707763,0.0616692308323,0.106008497564,0.138534836729,0.424372261308,0.0249753937008,0.586024911953
tagged_abstract_sents/15846673.txt,14,0.0261464199517,-0.00867579908676,0.0616692308323,0.106008497564,0.138534836729,0.332863309229,0.0452144768669,0.492998731398
tagged_abstract_sents/15846673.txt,15,0.0261464199517,-0.0129375951294,0.0616692308323,0.106008497564,0.138534836729,0.439838595356,0.0312200558264,0.582462507656
tagged_abstract_sents/15846673.txt,16,0.0353982300885,-0.0153729071537,0.0616692308323,0.106008497564,0.138534836729,0.351419357178,0.0465461118831,0.498871884657
tagged_abstract_sents/15846673.txt,17,0.0518905872888,-0.0293759512938,0.0616692308323,0.106008497564,0.138534836729,0.0,0.0,0.0982744442576
tagged_abstract_sents/15846673.txt,18,0.0518905872888,0.0184170471842,0.139250797795,0.521468892835,0.138534836729,0.613035092351,0.0465656492013,0.871373895149
tagged_abstract_sents/15846673.txt,19,0.0683829444891,-0.00380517503805,0.139250797795,0.521468892835,0.138534836729,0.3104161634,0.0119716480752,0.712482871373
tagged_abstract_sents/15846673.txt,20,0.0993563958166,-0.0129375951294,0.139250797795,0.521468892835,0.138534836729,0.162742194722,0.0385334645669,0.505003859289
tagged_abstract_sents/15846673.txt,21,0.0993563958166,0.0534246575342,0.139250797795,0.521468892835,0.138534836729,0.547983350188,0.0436439195101,0.853421951551
tagged_abstract_sents/15846673.txt,22,0.130329847144,-0.0120243531202,0.139250797795,0.521468892835,0.138534836729,0.351669508236,0.0213865730019,0.783845343806
tagged_abstract_sents/15846673.txt,23,0.172566371681,0.000152207001522,0.139250797795,0.521468892835,0.138534836729,0.54519325742,0.0384645669291,0.966989472693
tagged_abstract_sents/15846673.txt,24,0.172566371681,-0.010502283105,0.139250797795,0.521468892835,0.138534836729,0.322974741734,0.0337797848798,0.761985047154
tagged_abstract_sents/15846673.txt,26,0.206355591311,-0.0269406392694,0.0616692308323,0.106008497564,0.138534836729,0.0,0.0,0.22233350988
tagged_abstract_sents/15846673.txt,27,0.206355591311,0.00380517503805,0.0616692308323,0.106008497564,0.138534836729,0.428642878333,0.03010444007,0.776945045479
tagged_abstract_sents/15846673.txt,28,0.262268704747,0.0120243531202,0.139250797795,0.521468892835,0.138534836729,0.470874008912,0.0425589556987,0.917664853095
tagged_abstract_sents/15846673.txt,29,0.262268704747,-0.00502283105023,0.139250797795,0.521468892835,0.138534836729,0.422073524518,0.035720144357,1.00425293538
tagged_abstract_sents/15846673.txt,30,0.262268704747,0.00380517503805,0.139250797795,0.521468892835,0.138534836729,0.301754902766,0.0242747976815,0.834824530397
tagged_abstract_sents/15846673.txt,31,0.262268704747,0.0199391171994,0.139250797795,0.521468892835,0.138534836729,0.605946372621,0.042318784226,1.10707819878
