tagged_abstract_sents/15861313.txt,3,0.0805801772764,-0.0212395543175,0.188769469584,0.123191979006,0.0235776051598,0.333499311871,0.0376133300662,0.473049737825
tagged_abstract_sents/15861313.txt,4,0.123690572119,0.0191504178273,0.188769469584,0.123191979006,0.0235776051598,0.509108166096,0.0355598607367,0.69837479597
tagged_abstract_sents/15861313.txt,5,0.149073327961,-0.00591922005571,0.188769469584,0.123191979006,0.0235776051598,0.376098705861,0.0338489784757,0.637835598234
tagged_abstract_sents/15861313.txt,6,0.176470588235,-0.0191504178273,0.188769469584,0.123191979006,0.0235776051598,0.459403711408,0.0406099952661,0.705623480351
tagged_abstract_sents/15861313.txt,7,0.166800966962,0.0567548746518,0.188769469584,0.123191979006,0.0235776051598,0.49294174103,0.026724568234,0.736021443341
tagged_abstract_sents/15861313.txt,8,0.0954875100725,0.0128830083565,0.188769469584,0.123191979006,0.0235776051598,0.363548432153,0.0264398348894,0.570550620109
tagged_abstract_sents/15861313.txt,9,0.0342465753425,-0.00243732590529,0.188769469584,0.123191979006,0.0235776051598,0.503572682913,0.0379704502346,0.635016851883
