tagged_abstract_sents/15869575.txt,1,0.125905068383,-0.0776397515528,0.0616692308323,0.142474783506,0.0,0.0,0.0,0.158773154864
tagged_abstract_sents/15869575.txt,2,0.239742558327,-0.0036231884058,0.188769469584,0.202456734834,0.227008615531,0.510535947621,0.101401504053,1.18513723143
tagged_abstract_sents/15869575.txt,3,0.218020917136,0.0750517598344,0.0616692308323,0.142474783506,0.0146635208348,0.427104143497,0.076532243028,0.781304043503
tagged_abstract_sents/15869575.txt,4,0.162510056315,-0.0791925465839,0.0616692308323,0.142474783506,0.0,0.0,0.0,0.187746586203
tagged_abstract_sents/15869575.txt,5,0.101769911504,0.165631469979,0.194899689933,0.13295610691,0.201313150464,0.575533546379,0.0979137085202,1.1266393056
tagged_abstract_sents/15869575.txt,6,0.0852775543041,-0.0791925465839,0.139250797795,0.0356431803763,0.0,0.0,0.0,0.132701887137
tagged_abstract_sents/15869575.txt,7,0.0711987127916,-0.0383022774327,0.139250797795,0.0356431803763,0.0926305056333,0.231652626176,0.0402238766215,0.494123876188
tagged_abstract_sents/15869575.txt,8,0.0458567980692,0.00310559006211,0.139250797795,0.0356431803763,0.151809582195,0.342483199218,0.0694544614483,0.681372152339
tagged_abstract_sents/15869575.txt,9,0.0245374094932,0.0595238095238,0.139250797795,0.0356431803763,0.121713743859,0.39905571443,0.0759205000488,0.708543000848
tagged_abstract_sents/15869575.txt,10,0.00844730490748,0.0336438923395,0.139250797795,0.0356431803763,0.0866438727004,0.348450427156,0.0756475784311,0.604546853691
tagged_abstract_sents/15869575.txt,11,0.00120675784393,-0.0771221532091,0.139250797795,0.0356431803763,0.0,0.0,0.0,0.0658593286436
tagged_abstract_sents/15869575.txt,12,0.00120675784393,0.018115942029,0.139250797795,0.0356431803763,0.335168517139,0.473843481443,0.0861110632357,0.980030009509
