tagged_abstract_sents/16020410.txt,2,0.0954875100725,-0.0493750858399,0.0616692308323,0.247294108221,0.30935954566,0.0,0.0,0.171537838773
tagged_abstract_sents/16020410.txt,4,0.0253827558421,-0.0475209449251,0.0616692308323,0.247294108221,0.30935954566,0.0,0.0,0.115824863571
tagged_abstract_sents/16020410.txt,5,0.0805801772764,-0.00611179782997,0.0616692308323,0.247294108221,0.30935954566,0.106873603078,0.0678247206704,0.324651044167
tagged_abstract_sents/16020410.txt,6,0.0805801772764,-0.0456668040104,0.0616692308323,0.247294108221,0.30935954566,0.0,0.0,0.160353628902
tagged_abstract_sents/16020410.txt,7,0.123690572119,0.00810328251614,0.0616692308323,0.247294108221,0.30935954566,0.207035561404,0.0479730226404,0.389082913464
tagged_abstract_sents/16020410.txt,8,0.123690572119,-0.0197088312045,0.0616692308323,0.247294108221,0.30935954566,0.159891692376,0.0409665240922,0.366589695368
tagged_abstract_sents/16020410.txt,9,0.140209508461,-0.0456668040104,0.0616692308323,0.247294108221,0.30935954566,0.0,0.0,0.208057093849
tagged_abstract_sents/16020410.txt,10,0.149073327961,0.024172503777,0.0616692308323,0.247294108221,0.30935954566,0.345204905585,0.066901455737,0.580508591626
tagged_abstract_sents/16020410.txt,11,0.149879129734,-0.0351600054938,0.0616692308323,0.247294108221,0.30935954566,0.0477301810959,0.0350810831782,0.270315996272
tagged_abstract_sents/16020410.txt,12,0.176470588235,-0.0153825024035,0.0616692308323,0.247294108221,0.30935954566,0.236637688892,0.0628928072626,0.488373572421
tagged_abstract_sents/16020410.txt,13,0.176470588235,-0.046284850982,0.0616692308323,0.247294108221,0.30935954566,0.0,0.0,0.236942348274
tagged_abstract_sents/16020410.txt,14,0.166800966962,0.0563109462986,0.139250797795,0.194462959676,0.30935954566,0.390129081117,0.0456077827008,0.729493407785
tagged_abstract_sents/16020410.txt,15,0.166800966962,0.0105754704024,0.139250797795,0.194462959676,0.30935954566,0.317969749804,0.0556040502793,0.501646207657
tagged_abstract_sents/16020410.txt,16,0.0954875100725,0.128004395001,0.139250797795,0.194462959676,0.30935954566,0.610819144124,0.0457036832532,0.878069212766
tagged_abstract_sents/16020410.txt,17,0.0954875100725,-0.0481389918967,0.0616692308323,0.247294108221,0.30935954566,0.0,0.0,0.171785057561
tagged_abstract_sents/16020410.txt,18,0.0342465753425,-0.00611179782997,0.139250797795,0.194462959676,0.30935954566,0.298643364557,0.0371743684722,0.441114680159
tagged_abstract_sents/16020410.txt,19,0.0342465753425,0.10019228128,0.139250797795,0.194462959676,0.30935954566,0.442663209558,0.0523433276266,0.665083206161
