tagged_abstract_sents/16034881.txt,2,0.0954875100725,-0.0271691271691,0.0616692308323,0.247294108221,0.0133198497519,0.0,0.0,0.175979030507
tagged_abstract_sents/16034881.txt,3,0.0954875100725,-0.0038073038073,0.188769469584,0.123191979006,0.0133198497519,0.357792297976,0.0240716438223,0.72293147797
tagged_abstract_sents/16034881.txt,4,0.0954875100725,0.0221186221186,0.188769469584,0.123191979006,0.0133198497519,0.526120100735,0.0301662292213,0.71030351856
tagged_abstract_sents/16034881.txt,5,0.0253827558421,-0.0038073038073,0.0616692308323,0.247294108221,0.0133198497519,0.283017892628,0.0096374671916,0.345281840867
tagged_abstract_sents/16034881.txt,6,0.0253827558421,-0.0271691271691,0.0616692308323,0.247294108221,0.0133198497519,0.0,0.0,0.119895227122
tagged_abstract_sents/16034881.txt,8,0.0805801772764,-0.0257446257446,0.0616692308323,0.247294108221,0.0133198497519,0.0,0.0,0.164338064555
tagged_abstract_sents/16034881.txt,9,0.0805801772764,0.0121471121471,0.0616692308323,0.247294108221,0.0133198497519,0.476332474948,0.0472892654723,0.697809499249
tagged_abstract_sents/16034881.txt,10,0.0805801772764,-0.0200466200466,0.0616692308323,0.247294108221,0.0133198497519,0.0948078279519,0.0383038057743,0.280654738616
tagged_abstract_sents/16034881.txt,11,0.123690572119,-0.0248899248899,0.0616692308323,0.247294108221,0.0133198497519,0.0,0.0,0.1989973206
tagged_abstract_sents/16034881.txt,12,0.123690572119,-0.0157731157731,0.0616692308323,0.247294108221,0.0133198497519,0.178921982943,0.0241688538933,0.399619164984
tagged_abstract_sents/16034881.txt,13,0.123690572119,0.0115773115773,0.0616692308323,0.247294108221,0.0133198497519,0.595137101714,0.0433386331516,0.665138508011
tagged_abstract_sents/16034881.txt,14,0.123690572119,-0.0220409220409,0.0616692308323,0.247294108221,0.0133198497519,0.0,0.0,0.19956712117
tagged_abstract_sents/16034881.txt,15,0.140209508461,-0.0109298109298,0.0616692308323,0.247294108221,0.0133198497519,0.366680761673,0.0340994702051,0.533116767489
tagged_abstract_sents/16034881.txt,16,0.140209508461,-0.016058016058,0.0616692308323,0.247294108221,0.0133198497519,0.242141901477,0.0437697691635,0.543896101179
tagged_abstract_sents/16034881.txt,17,0.140209508461,-0.0163429163429,0.0616692308323,0.247294108221,0.0133198497519,0.209660847818,0.033514690872,0.520035171355
tagged_abstract_sents/16034881.txt,18,0.149879129734,-0.0038073038073,0.0616692308323,0.247294108221,0.0133198497519,0.254503954538,0.0111704786902,0.342668892263
tagged_abstract_sents/16034881.txt,19,0.149879129734,-0.00922040922041,0.0616692308323,0.247294108221,0.0133198497519,0.314009231525,0.0348794291339,0.584843934025
tagged_abstract_sents/16034881.txt,20,0.149879129734,-0.0177674177674,0.0616692308323,0.247294108221,0.0133198497519,0.339375945523,0.0486207606402,0.596041753987
tagged_abstract_sents/16034881.txt,21,0.176470588235,0.00587930587931,0.0616692308323,0.247294108221,0.0133198497519,0.368011404039,0.0302961261787,0.687936688654
tagged_abstract_sents/16034881.txt,22,0.176470588235,-0.00893550893551,0.0616692308323,0.247294108221,0.0133198497519,0.221769575224,0.019731307625,0.504772887927
tagged_abstract_sents/16034881.txt,23,0.176470588235,-0.00580160580161,0.0616692308323,0.247294108221,0.0133198497519,0.351490093598,0.0322270571442,0.523312367731
tagged_abstract_sents/16034881.txt,24,0.176470588235,-0.0265993265993,0.0616692308323,0.247294108221,0.0133198497519,0.0,0.0,0.240879453151
tagged_abstract_sents/16034881.txt,25,0.166800966962,0.0631442631443,0.0616692308323,0.247294108221,0.0133198497519,0.718888325709,0.0505531566619,0.886577029618
tagged_abstract_sents/16034881.txt,26,0.166800966962,-0.0169127169127,0.0616692308323,0.247294108221,0.0133198497519,0.24252868447,0.0296411265899,0.551852189605
tagged_abstract_sents/16034881.txt,27,0.166800966962,0.0360787360787,0.0616692308323,0.247294108221,0.0133198497519,0.715014418635,0.0463673811607,0.832124710047
tagged_abstract_sents/16034881.txt,28,0.0954875100725,0.0565915565916,0.139250797795,0.194462959676,0.0133198497519,0.879307244337,0.0376084746163,1.01485040331
tagged_abstract_sents/16034881.txt,29,0.0954875100725,0.0115773115773,0.139250797795,0.194462959676,0.0133198497519,0.574510312799,0.0335718251565,0.565765669623
tagged_abstract_sents/16034881.txt,30,0.0954875100725,0.026677026677,0.139250797795,0.194462959676,0.0133198497519,0.601659494035,0.0420777842584,0.696494324177
tagged_abstract_sents/16034881.txt,31,0.0342465753425,-0.0243201243201,0.0616692308323,0.247294108221,0.0133198497519,0.0,0.0,0.127556083292
tagged_abstract_sents/16034881.txt,32,0.0342465753425,0.0172753172753,0.139250797795,0.194462959676,0.0133198497519,0.613283908614,0.0363403648618,0.76387045557
tagged_abstract_sents/16034881.txt,33,0.0342465753425,0.00815850815851,0.139250797795,0.194462959676,0.0133198497519,0.527162055537,0.0336263305628,0.465266159609
tagged_abstract_sents/16034881.txt,34,0.0342465753425,0.0226884226884,0.139250797795,0.194462959676,0.0133198497519,0.607445480069,0.0406986163767,0.476269991842
