tagged_abstract_sents/16102549.txt,3,0.131345688961,-0.0645833333333,0.194899689933,0.293363477728,0.118759970917,0.256178394803,0.0247947919615,0.507533000822
tagged_abstract_sents/16102549.txt,4,0.150684931507,0.06875,0.139250797795,0.194462959676,0.118759970917,0.29284672883,0.0147698324885,0.388539569749
tagged_abstract_sents/16102549.txt,5,0.131345688961,-0.0947916666667,0.139250797795,0.194462959676,0.118759970917,0.20155819298,0.0143086984373,0.42383634818
tagged_abstract_sents/16102549.txt,6,0.0342465753425,0.0208333333333,0.139250797795,0.194462959676,0.118759970917,0.302763310884,0.0131793093688,0.496479801208
