tagged_abstract_sents/16186441.txt,3,0.0108608205953,-0.0143939393939,0.188769469584,0.129715814208,0.0331599497416,0.124919896664,0.0207678075856,0.281065623828
tagged_abstract_sents/16186441.txt,4,0.0353982300885,-0.0325757575758,0.188769469584,0.129715814208,0.0331599497416,0.174488473613,0.0350458976731,0.360439800413
tagged_abstract_sents/16186441.txt,5,0.0993563958166,-0.0746212121212,0.188769469584,0.129715814208,0.0331599497416,0.13097216479,0.0333950046253,0.383070116247
tagged_abstract_sents/16186441.txt,6,0.206355591311,-0.0371212121212,0.188769469584,0.129715814208,0.0331599497416,0.118883688715,0.0302329492894,0.438629920315
