tagged_abstract_sents/16188764.txt,1,0.125905068383,-0.0633876357561,0.0616692308323,0.142474783506,0.0,0.0,0.0,0.161623578023
tagged_abstract_sents/16188764.txt,2,0.239742558327,0.0031328320802,0.188769469584,0.202456734834,0.223347090056,0.101795336378,0.0152070750647,0.687891869818
tagged_abstract_sents/16188764.txt,3,0.218020917136,0.0345655806182,0.188769469584,0.202456734834,0.0,0.140993467536,0.0304141501294,0.50785922274
tagged_abstract_sents/16188764.txt,4,0.218020917136,-0.0663116123642,0.0616692308323,0.142474783506,0.0,0.0,0.0,0.234731461704
tagged_abstract_sents/16188764.txt,5,0.162510056315,0.0031328320802,0.0616692308323,0.142474783506,0.0,0.0768612262443,0.0394916594766,0.320564547657
tagged_abstract_sents/16188764.txt,6,0.101769911504,0.00971177944862,0.0616692308323,0.142474783506,0.0479247951553,0.121295805959,0.0237561115905,0.349912048266
tagged_abstract_sents/16188764.txt,7,0.0852775543041,0.0411445279866,0.0616692308323,0.142474783506,0.197601794934,0.127839678912,0.0230929300107,0.498562403365
tagged_abstract_sents/16188764.txt,8,0.0711987127916,-0.0655806182122,0.0616692308323,0.142474783506,0.0,0.0,0.0,0.117419897059
tagged_abstract_sents/16188764.txt,9,0.0458567980692,0.0594193817878,0.139250797795,0.0356431803763,0.214008237166,0.146043998045,0.0296762181554,0.51861612119
tagged_abstract_sents/16188764.txt,10,0.0245374094932,0.093045112782,0.139250797795,0.0356431803763,0.0609304853587,0.214342748406,0.0298705780846,0.423701115011
tagged_abstract_sents/16188764.txt,11,0.0245374094932,-0.062656641604,0.139250797795,0.0356431803763,0.0,0.0,0.0,0.087416952284
tagged_abstract_sents/16188764.txt,12,0.00844730490748,-0.0231829573935,0.139250797795,0.0356431803763,0.0,0.0989284181883,0.0429968363532,0.224364859999
tagged_abstract_sents/16188764.txt,13,0.00120675784393,0.00971177944862,0.139250797795,0.0356431803763,0.0,0.150914419597,0.0220017256255,0.256142260398
tagged_abstract_sents/16188764.txt,14,0.00120675784393,0.0272556390977,0.139250797795,0.0356431803763,0.0386911820169,0.228374984573,0.0299108426805,0.383711896376
