tagged_abstract_sents/16235327.txt,2,0.206355591311,-0.0448717948718,0.0616692308323,0.106008497564,0.165690282691,0.0,0.0,0.21874727876
tagged_abstract_sents/16235327.txt,4,0.206355591311,0.00827505827506,0.188769469584,0.129715814208,0.165690282691,0.30182595366,0.0323395839437,0.638032550632
tagged_abstract_sents/16235327.txt,5,0.0048270313757,-0.0448717948718,0.0616692308323,0.106008497564,0.165690282691,0.0,0.0,0.0575244308115
tagged_abstract_sents/16235327.txt,6,0.0048270313757,-0.00337995337995,0.0616692308323,0.106008497564,0.165690282691,0.31661872999,0.0195471097903,0.450606199244
tagged_abstract_sents/16235327.txt,7,0.0048270313757,-0.0425407925408,0.0616692308323,0.106008497564,0.165690282691,0.0,0.0,0.0579906312777
tagged_abstract_sents/16235327.txt,8,0.0108608205953,0.0595571095571,0.0616692308323,0.106008497564,0.165690282691,0.293768054613,0.0365038089657,0.409222005029
tagged_abstract_sents/16235327.txt,9,0.016894609815,-0.0262237762238,0.0616692308323,0.106008497564,0.165690282691,0.124779118318,0.044102762166,0.265289435504
tagged_abstract_sents/16235327.txt,10,0.0261464199517,-0.0411421911422,0.0616692308323,0.106008497564,0.165690282691,0.0,0.0,0.0753258624182
tagged_abstract_sents/16235327.txt,11,0.0353982300885,0.0506993006993,0.0616692308323,0.106008497564,0.165690282691,0.42562426502,0.0310929886816,0.530938677979
tagged_abstract_sents/16235327.txt,12,0.0518905872888,-0.0364801864802,0.0616692308323,0.106008497564,0.165690282691,0.0,0.0,0.0968535972203
tagged_abstract_sents/16235327.txt,13,0.0683829444891,-0.000582750582751,0.0616692308323,0.106008497564,0.165690282691,0.298819521482,0.0172978318195,0.489172471914
tagged_abstract_sents/16235327.txt,15,0.130329847144,-0.0439393939394,0.0616692308323,0.106008497564,0.165690282691,0.0,0.0,0.158113163613
tagged_abstract_sents/16235327.txt,16,0.172566371681,0.0138694638695,0.0616692308323,0.106008497564,0.165690282691,0.281416071619,0.0213521828304,0.483378909875
tagged_abstract_sents/16235327.txt,17,0.214802896219,0.0502331002331,0.139250797795,0.521468892835,0.165690282691,0.359875827681,0.0223219404069,0.744530530912
tagged_abstract_sents/16235327.txt,18,0.206355591311,0.0273892773893,0.139250797795,0.521468892835,0.165690282691,0.37425945327,0.0202431878113,0.801838840948
tagged_abstract_sents/16235327.txt,19,0.262268704747,-0.0402097902098,0.139250797795,0.521468892835,0.165690282691,0.0,0.0,0.427839072503
tagged_abstract_sents/16235327.txt,20,0.262268704747,0.0101398601399,0.139250797795,0.521468892835,0.165690282691,0.277993923223,0.017425632643,0.73391178311
tagged_abstract_sents/16235327.txt,21,0.262268704747,0.0427738927739,0.139250797795,0.521468892835,0.165690282691,0.386010961268,0.0220832112511,0.848816865437
