tagged_abstract_sents/16249822.txt,2,0.0253827558421,-0.0313122923588,0.188769469584,0.123191979006,0.112473058713,0.397980287182,0.0445430268543,0.569148610897
tagged_abstract_sents/16249822.txt,4,0.123690572119,0.0211794019934,0.188769469584,0.123191979006,0.112473058713,0.44903911401,0.045866471443,0.636242783345
tagged_abstract_sents/16249822.txt,5,0.149073327961,-0.0638704318937,0.210342442448,0.141687475369,0.112473058713,0.290069655295,0.0394329639613,0.530754630213
tagged_abstract_sents/16249822.txt,6,0.176470588235,-0.0193521594684,0.0616692308323,0.247294108221,0.112473058713,0.375542100938,0.0455083500906,0.686261112466
tagged_abstract_sents/16249822.txt,7,0.166800966962,0.0112126245847,0.139250797795,0.194462959676,0.112473058713,0.402835316243,0.0405752528394,0.731617052115
tagged_abstract_sents/16249822.txt,8,0.0954875100725,0.028488372093,0.139250797795,0.194462959676,0.112473058713,0.390140957919,0.0471834245419,0.670435076725
tagged_abstract_sents/16249822.txt,9,0.0342465753425,0.00124584717608,0.139250797795,0.194462959676,0.112473058713,0.418628156548,0.0460317460317,0.624882559271
