tagged_abstract_sents/16257341.txt,2,0.206355591311,-0.0520208083233,0.0616692308323,0.106008497564,0.115988949996,0.0,0.0,0.21731747607
tagged_abstract_sents/16257341.txt,4,0.206355591311,-0.000691185565135,0.188769469584,0.129715814208,0.115988949996,0.306724783385,0.0303984764137,0.630262013915
tagged_abstract_sents/16257341.txt,5,0.0048270313757,0.00487467714358,0.188769469584,0.129715814208,0.115988949996,0.259062474566,0.0331173195912,0.468852428209
tagged_abstract_sents/16257341.txt,6,0.0048270313757,-0.0538760958929,0.0616692308323,0.106008497564,0.115988949996,0.0,0.0,0.0557235706073
tagged_abstract_sents/16257341.txt,7,0.0108608205953,0.00982211066245,0.0616692308323,0.106008497564,0.115988949996,0.340059009547,0.0237627520443,0.422606071753
tagged_abstract_sents/16257341.txt,8,0.0261464199517,0.0122958274219,0.0616692308323,0.106008497564,0.115988949996,0.282888023642,0.0208128013212,0.377282702377
tagged_abstract_sents/16257341.txt,9,0.0261464199517,0.0339408490669,0.194899689933,0.0581677376677,0.115988949996,0.366394022744,0.0400029299736,0.529955531196
tagged_abstract_sents/16257341.txt,10,0.0518905872888,0.00301938957401,0.210342442448,0.0253702522065,0.115988949996,0.265908891914,0.0261758673584,0.447279235197
tagged_abstract_sents/16257341.txt,11,0.0518905872888,-0.053257666703,0.0616692308323,0.106008497564,0.115988949996,0.0,0.0,0.0934981011757
tagged_abstract_sents/16257341.txt,12,0.0993563958166,0.00116410200444,0.139250797795,0.521468892835,0.115988949996,0.213065734074,0.0341760495584,0.535324082981
tagged_abstract_sents/16257341.txt,13,0.172566371681,-0.0279020699189,0.139250797795,0.521468892835,0.115988949996,0.191697253279,0.0224728977439,0.643461990197
tagged_abstract_sents/16257341.txt,15,0.206355591311,-0.0198624904507,0.139250797795,0.521468892835,0.115988949996,0.208770134191,0.0212789334896,0.679319134063
tagged_abstract_sents/16257341.txt,16,0.206355591311,-0.0495470915639,0.139250797795,0.521468892835,0.115988949996,0.0,0.0,0.381241121484
tagged_abstract_sents/16257341.txt,17,0.262268704747,0.02033540689,0.139250797795,0.521468892835,0.115988949996,0.274566923106,0.0268621610183,0.697150780595
tagged_abstract_sents/16257341.txt,18,0.262268704747,0.0685728836989,0.139250797795,0.521468892835,0.115988949996,0.42988579181,0.0445111827327,0.90684641794
