tagged_abstract_sents/1634662.txt,1,0.125905068383,-0.0574168207024,0.0616692308323,0.142474783506,0.0,0.0,0.0,0.162817741034
tagged_abstract_sents/1634662.txt,2,0.239742558327,0.0511783733826,0.188769469584,0.202456734834,0.222709926105,0.183577836673,0.068616061358,0.832055300716
tagged_abstract_sents/1634662.txt,3,0.239742558327,-0.0574168207024,0.188769469584,0.202456734834,0.0,0.0,0.0,0.335432437763
tagged_abstract_sents/1634662.txt,4,0.218020917136,0.053488909427,0.188769469584,0.202456734834,0.124748976088,0.145160315636,0.0527859237537,0.662931486315
tagged_abstract_sents/1634662.txt,5,0.162510056315,-0.058803142329,0.0616692308323,0.142474783506,0.0,0.0,0.0,0.191824467054
tagged_abstract_sents/1634662.txt,6,0.162510056315,0.0331561922366,0.0616692308323,0.142474783506,0.11993356811,0.165021303763,0.0648338220919,0.560005027933
tagged_abstract_sents/1634662.txt,7,0.101769911504,-0.0070471349353,0.0616692308323,0.142474783506,0.0145680317001,0.131601377782,0.0368035190616,0.336556481228
tagged_abstract_sents/1634662.txt,8,0.0852775543041,-0.058803142329,0.0616692308323,0.142474783506,0.0,0.0,0.0,0.130038465445
tagged_abstract_sents/1634662.txt,9,0.0711987127916,0.0211414048059,0.139250797795,0.0356431803763,0.0831597396976,0.146363740762,0.0502865902426,0.421315674907
tagged_abstract_sents/1634662.txt,10,0.0458567980692,-0.00288817005545,0.139250797795,0.0356431803763,0.0889610947194,0.119356049163,0.0383546843649,0.363097985702
tagged_abstract_sents/1634662.txt,11,0.0458567980692,0.071511090573,0.139250797795,0.0356431803763,0.0506236714335,0.192340011186,0.0490224828935,0.423292175093
tagged_abstract_sents/1634662.txt,12,0.0245374094932,-0.0167513863216,0.139250797795,0.0356431803763,0.221581696614,0.152873802265,0.0421487603306,0.51320226255
tagged_abstract_sents/1634662.txt,13,0.00844730490748,0.0724353049908,0.139250797795,0.0356431803763,0.0455677574782,0.22847451308,0.0517728605705,0.427378389063
tagged_abstract_sents/1634662.txt,14,0.00844730490748,-0.0569547134935,0.139250797795,0.0356431803763,0.0,0.0,0.0,0.0756852542376
tagged_abstract_sents/1634662.txt,15,0.00120675784393,0.0174445471349,0.139250797795,0.0356431803763,0.131629373935,0.18644042799,0.0682664110083,0.471108881646
tagged_abstract_sents/1634662.txt,16,0.00120675784393,-0.00427449168207,0.139250797795,0.0356431803763,0.0443475470393,0.177203177401,0.0483758177307,0.35035540312
