tagged_abstract_sents/16418528.txt,1,0.218020917136,-0.105944055944,0.188769469584,0.202456734834,0.0,0.261616792084,0.040642919928,0.610609389774
tagged_abstract_sents/16418528.txt,2,0.0852775543041,-0.0136363636364,0.188769469584,0.202456734834,0.092921637259,0.314655460063,0.104960201192,0.733153824472
tagged_abstract_sents/16418528.txt,3,0.0245374094932,0.117832167832,0.188769469584,0.202456734834,0.0449523630546,0.44333915657,0.0988248058892,0.785434441917
tagged_abstract_sents/16418528.txt,4,0.00120675784393,0.00174825174825,0.188769469584,0.202456734834,0.0647111132141,0.411794753042,0.10039606965,0.733338747773
