tagged_abstract_sents/16424116.txt,2,0.00564061240935,0.00571604179471,0.188769469584,0.123191979006,0.00931857857014,0.200449609208,0.0253882915173,0.308086022183
tagged_abstract_sents/16424116.txt,4,0.116035455278,-0.0127228027044,0.139250797795,0.194462959676,0.00931857857014,0.16585683939,0.034176973097,0.379303746796
tagged_abstract_sents/16424116.txt,5,0.131345688961,-0.0268592501537,0.139250797795,0.194462959676,0.00931857857014,0.116530554549,0.0347996089932,0.322886658516
tagged_abstract_sents/16424116.txt,6,0.149073327961,-0.0360786724032,0.139250797795,0.194462959676,0.00931857857014,0.1208926903,0.0262635846127,0.434803243704
tagged_abstract_sents/16424116.txt,7,0.150684931507,-0.0268592501537,0.139250797795,0.194462959676,0.00931857857014,0.0964698131636,0.0293157380254,0.251862154096
tagged_abstract_sents/16424116.txt,8,0.202256244964,-0.0483712354026,0.139250797795,0.194462959676,0.00931857857014,0.112037254364,0.0155511471451,0.41478031886
tagged_abstract_sents/16424116.txt,9,0.131345688961,0.0272280270436,0.139250797795,0.194462959676,0.00931857857014,0.127326511742,0.020196017904,0.305013943448
tagged_abstract_sents/16424116.txt,10,0.0342465753425,0.0124769514444,0.139250797795,0.194462959676,0.00931857857014,0.100710267696,0.0287481671554,0.203608838001
tagged_abstract_sents/16424116.txt,11,0.0342465753425,0.0413644744929,0.139250797795,0.194462959676,0.00931857857014,0.185514497181,0.0203432171174,0.339005377519
