tagged_abstract_sents/16469562.txt,2,0.0954875100725,-0.0582104557641,0.0616692308323,0.247294108221,0.0701911749525,0.0,0.0,0.169770764788
tagged_abstract_sents/16469562.txt,3,0.0253827558421,-0.00673592493298,0.188769469584,0.123191979006,0.0701911749525,0.206591658818,0.0176530911222,0.373541467892
tagged_abstract_sents/16469562.txt,5,0.0805801772764,-0.0507037533512,0.0616692308323,0.247294108221,0.0701911749525,0.0,0.0,0.159346239033
tagged_abstract_sents/16469562.txt,6,0.123690572119,0.00666890080429,0.0616692308323,0.247294108221,0.0701911749525,0.292266100842,0.0198981834163,0.356514555411
tagged_abstract_sents/16469562.txt,7,0.123690572119,-0.00191018766756,0.0616692308323,0.247294108221,0.0701911749525,0.228355331812,0.0092251081505,0.369412177666
tagged_abstract_sents/16469562.txt,8,0.140209508461,-0.0582104557641,0.0616692308323,0.247294108221,0.0701911749525,0.0,0.0,0.205548363498
tagged_abstract_sents/16469562.txt,9,0.149073327961,0.049028150134,0.139250797795,0.194462959676,0.0701911749525,0.367947851979,0.0243948477541,0.532621015785
tagged_abstract_sents/16469562.txt,10,0.149879129734,0.0141756032172,0.139250797795,0.194462959676,0.0701911749525,0.358456473729,0.0234062164274,0.511796239073
tagged_abstract_sents/16469562.txt,11,0.176470588235,0.00827747989276,0.139250797795,0.194462959676,0.0701911749525,0.45781076951,0.0289936586999,0.682899623138
tagged_abstract_sents/16469562.txt,12,0.176470588235,-0.0303284182306,0.139250797795,0.194462959676,0.0701911749525,0.188053165652,0.0352272983389,0.439195870231
tagged_abstract_sents/16469562.txt,13,0.166800966962,0.00130697050938,0.139250797795,0.194462959676,0.0701911749525,0.231378150059,0.0197040726633,0.42432804602
tagged_abstract_sents/16469562.txt,14,0.0954875100725,-0.0560656836461,0.139250797795,0.194462959676,0.0701911749525,0.0,0.0,0.193141158129
tagged_abstract_sents/16469562.txt,15,0.0954875100725,0.0452747989276,0.139250797795,0.194462959676,0.0701911749525,0.285751404832,0.0212268879054,0.403191604841
tagged_abstract_sents/16469562.txt,16,0.0342465753425,-0.0120978552279,0.139250797795,0.194462959676,0.0701911749525,0.164046271492,0.025130627991,0.280159952763
tagged_abstract_sents/16469562.txt,17,0.0342465753425,0.0313337801609,0.139250797795,0.194462959676,0.0701911749525,0.34075910843,0.0187727596166,0.387221768105
