tagged_abstract_sents/16461091.txt,2,0.0954875100725,-0.0388240451532,0.0616692308323,0.247294108221,0.27153759446,0.0,0.0,0.103384424209
tagged_abstract_sents/16461091.txt,3,0.0954875100725,0.0648528686503,0.188769469584,0.123191979006,0.27153759446,0.302031803446,0.0378821173943,0.509741804134
tagged_abstract_sents/16461091.txt,4,0.0253827558421,-0.0406323634172,0.0616692308323,0.247294108221,0.27153759446,0.0,0.0,0.0469389571722
tagged_abstract_sents/16461091.txt,5,0.0253827558421,-0.0147131349663,0.210342442448,0.141687475369,0.27153759446,0.1413554803,0.0299736302373,0.225633447037
tagged_abstract_sents/16461091.txt,7,0.0805801772764,-0.0201380897583,0.0616692308323,0.247294108221,0.27153759446,0.157084290629,0.026722691314,0.294019278852
tagged_abstract_sents/16461091.txt,8,0.123690572119,-0.00747986191024,0.0616692308323,0.247294108221,0.27153759446,0.177150585907,0.0221090926848,0.296475595479
tagged_abstract_sents/16461091.txt,9,0.123690572119,0.0359197764261,0.0616692308323,0.247294108221,0.27153759446,0.253495099817,0.0318726193964,0.415524676584
tagged_abstract_sents/16461091.txt,10,0.140209508461,0.0172338210313,0.0616692308323,0.247294108221,0.27153759446,0.277706256773,0.0264430120129,0.423905355877
tagged_abstract_sents/16461091.txt,11,0.140209508461,-0.0116992711929,0.194899689933,0.293363477728,0.27153759446,0.211581467536,0.0222730316856,0.442682457349
tagged_abstract_sents/16461091.txt,12,0.149073327961,0.0310975943887,0.0616692308323,0.247294108221,0.27153759446,0.315457413557,0.0197773220041,0.506120578381
tagged_abstract_sents/16461091.txt,13,0.149879129734,-0.013507589457,0.0616692308323,0.247294108221,0.27153759446,0.169155374317,0.0204243578474,0.381269169214
tagged_abstract_sents/16461091.txt,14,0.149879129734,-0.0406323634172,0.0616692308323,0.247294108221,0.27153759446,0.0,0.0,0.146536056286
tagged_abstract_sents/16461091.txt,15,0.176470588235,0.0106033207299,0.0616692308323,0.247294108221,0.27153759446,0.103394875973,0.0173967184295,0.363956524321
tagged_abstract_sents/16461091.txt,16,0.176470588235,0.0244670940873,0.139250797795,0.194462959676,0.27153759446,0.224292250824,0.0226047465573,0.540906485112
tagged_abstract_sents/16461091.txt,17,0.166800966962,-0.00326045262754,0.139250797795,0.194462959676,0.27153759446,0.101144914939,0.0212972458248,0.315540889425
tagged_abstract_sents/16461091.txt,18,0.166800966962,0.000958956655159,0.139250797795,0.194462959676,0.27153759446,0.0987343020731,0.0197132288309,0.331505509858
tagged_abstract_sents/16461091.txt,19,0.0954875100725,0.0063839114472,0.139250797795,0.194462959676,0.27153759446,0.171504392164,0.0152541752124,0.318054672662
tagged_abstract_sents/16461091.txt,20,0.0954875100725,-0.0382212723985,0.0616692308323,0.247294108221,0.27153759446,0.0,0.0,0.10350497876
tagged_abstract_sents/16461091.txt,21,0.0342465753425,-0.00386322538221,0.139250797795,0.194462959676,0.27153759446,0.200338738942,0.0245892402353,0.339712831376
tagged_abstract_sents/16461091.txt,22,0.0342465753425,0.0136171845033,0.139250797795,0.194462959676,0.27153759446,0.210115847907,0.0331932204918,0.387130026763
tagged_abstract_sents/16461091.txt,23,0.0342465753425,0.0118088662392,0.139250797795,0.194462959676,0.27153759446,0.247555218964,0.0182528200996,0.466100719758
