tagged_abstract_sents/16472560.txt,1,0.125905068383,-0.0548215284113,0.0616692308323,0.142474783506,0.0,0.0,0.0,0.163336799492
tagged_abstract_sents/16472560.txt,2,0.239742558327,0.0597357502281,0.188769469584,0.202456734834,0.329059603541,0.376341995469,0.0193119633928,1.08357651435
tagged_abstract_sents/16472560.txt,3,0.239742558327,-0.0538210281611,0.0616692308323,0.142474783506,0.0,0.0,0.0,0.254606891497
tagged_abstract_sents/16472560.txt,4,0.218020917136,0.075243504105,0.188769469584,0.202456734834,0.183464722427,0.356486340205,0.018044155109,0.902582407513
tagged_abstract_sents/16472560.txt,5,0.218020917136,-0.0423152752847,0.0616692308323,0.142474783506,0.0,0.0,0.0,0.23953072912
tagged_abstract_sents/16472560.txt,6,0.162510056315,0.0222169908484,0.205068369407,0.26003320229,0.136996886907,0.361809238277,0.0155061798283,0.829307893625
tagged_abstract_sents/16472560.txt,7,0.101769911504,0.00820998734661,0.194899689933,0.13295610691,0.142935143135,0.241411189167,0.0199770584117,0.624717994426
tagged_abstract_sents/16472560.txt,8,0.101769911504,0.0262189918489,0.0616692308323,0.142474783506,0.140023766392,0.39951768641,0.0209265025002,0.720704733344
tagged_abstract_sents/16472560.txt,9,0.0711987127916,-0.0233057705323,0.0616692308323,0.142474783506,0.0843865388776,0.171138649137,0.00731201056703,0.388712065176
tagged_abstract_sents/16472560.txt,10,0.0711987127916,-0.0478180266604,0.0616692308323,0.142474783506,0.0,0.0,0.0,0.120972415369
tagged_abstract_sents/16472560.txt,11,0.0458567980692,0.0302209928494,0.0616692308323,0.142474783506,0.203733638428,0.357042952042,0.0187517690348,0.695835046998
tagged_abstract_sents/16472560.txt,12,0.0245374094932,-0.0548215284113,0.0616692308323,0.142474783506,0.0,0.0,0.0,0.0822426723801
tagged_abstract_sents/16472560.txt,13,0.0245374094932,-0.0178030191566,0.139250797795,0.0356431803763,0.0239082884929,0.246622239963,0.0225492971035,0.389467502333
tagged_abstract_sents/16472560.txt,14,0.00844730490748,-0.00129476502957,0.139250797795,0.0356431803763,0.320920533162,0.211948185427,0.0128487791798,0.632534741699
tagged_abstract_sents/16472560.txt,15,0.00844730490748,0.11626401436,0.139250797795,0.0356431803763,0.146108555867,0.453346678941,0.0131039615897,0.722888196207
tagged_abstract_sents/16472560.txt,16,0.00120675784393,-0.052820527911,0.139250797795,0.0356431803763,0.0,0.0,0.0,0.0707196537032
tagged_abstract_sents/16472560.txt,17,0.00120675784393,0.0107112379719,0.139250797795,0.0356431803763,0.333065489473,0.251894535543,0.0176903481461,0.686076380042
