tagged_abstract_sents/16539718.txt,2,0.0954875100725,-0.0492698412698,0.0616692308323,0.247294108221,0.110560891109,0.0,0.0,0.114848477749
tagged_abstract_sents/16539718.txt,4,0.0253827558421,0.00615873015873,0.188769469584,0.123191979006,0.110560891109,0.0761651625576,0.0526315789474,0.12005787758
tagged_abstract_sents/16539718.txt,5,0.0805801772764,0.0181587301587,0.0616692308323,0.247294108221,0.110560891109,0.0737863644855,0.056988783434,0.315371427183
tagged_abstract_sents/16539718.txt,6,0.0805801772764,-0.0509841269841,0.0616692308323,0.247294108221,0.110560891109,0.0,0.0,0.10257975437
tagged_abstract_sents/16539718.txt,7,0.123690572119,0.0324444444444,0.0616692308323,0.247294108221,0.110560891109,0.138539563688,0.0661270960723,0.270700636131
tagged_abstract_sents/16539718.txt,8,0.123690572119,0.00673015873016,0.0616692308323,0.247294108221,0.110560891109,0.0873163359713,0.0480613675582,0.40073915422
tagged_abstract_sents/16539718.txt,9,0.140209508461,0.051873015873,0.0616692308323,0.247294108221,0.110560891109,0.1097230284,0.0581967213115,0.413794706011
tagged_abstract_sents/16539718.txt,10,0.149073327961,-0.0509841269841,0.0616692308323,0.247294108221,0.110560891109,0.0,0.0,0.157374274918
tagged_abstract_sents/16539718.txt,11,0.149879129734,-0.00755555555556,0.0616692308323,0.247294108221,0.110560891109,0.0418773940685,0.0391599341125,0.286200375777
tagged_abstract_sents/16539718.txt,12,0.176470588235,-0.0149841269841,0.139250797795,0.194462959676,0.110560891109,0.0674473309563,0.0843245408603,0.270601136398
tagged_abstract_sents/16539718.txt,13,0.176470588235,-0.0189841269841,0.139250797795,0.194462959676,0.110560891109,0.0317462776532,0.0321829163072,0.235285157098
tagged_abstract_sents/16539718.txt,14,0.166800966962,0.015873015873,0.139250797795,0.194462959676,0.110560891109,0.0728675774795,0.0483175150992,0.401862324952
tagged_abstract_sents/16539718.txt,15,0.166800966962,0.0113015873016,0.139250797795,0.194462959676,0.110560891109,0.0731222700932,0.0488783433995,0.287986737722
tagged_abstract_sents/16539718.txt,16,0.0954875100725,-0.00126984126984,0.139250797795,0.194462959676,0.110560891109,0.0696391046516,0.0314207650273,0.334566645154
tagged_abstract_sents/16539718.txt,17,0.0954875100725,-0.0492698412698,0.0616692308323,0.247294108221,0.110560891109,0.0,0.0,0.114848477749
tagged_abstract_sents/16539718.txt,18,0.0342465753425,0.0815873015873,0.139250797795,0.194462959676,0.110560891109,0.13471149142,0.0705537007165,0.371139429516
tagged_abstract_sents/16539718.txt,19,0.0342465753425,-0.00412698412698,0.139250797795,0.194462959676,0.110560891109,0.0725434336357,0.0627840092033,0.326911161131
