tagged_abstract_sents/16603881.txt,2,0.206355591311,-0.0368688755424,0.0616692308323,0.106008497564,0.0224571451282,0.0,0.0,0.220347862626
tagged_abstract_sents/16603881.txt,3,0.206355591311,0.0338515474583,0.188769469584,0.129715814208,0.0224571451282,0.169714778302,0.0103639029592,0.513070379628
tagged_abstract_sents/16603881.txt,4,0.206355591311,-0.0388516911406,0.0616692308323,0.106008497564,0.0224571451282,0.0,0.0,0.219951299506
tagged_abstract_sents/16603881.txt,5,0.206355591311,-0.030920428748,0.0616692308323,0.106008497564,0.0224571451282,0.0277333551011,0.0,0.301245417643
tagged_abstract_sents/16603881.txt,6,0.0048270313757,-0.0381907526078,0.0616692308323,0.106008497564,0.0224571451282,0.0,0.0,0.0588606392643
tagged_abstract_sents/16603881.txt,7,0.0048270313757,-0.0236501048881,0.0616692308323,0.106008497564,0.0224571451282,0.0847077736272,0.00198613703013,0.143240789486
tagged_abstract_sents/16603881.txt,8,0.0108608205953,-0.0375298140751,0.0616692308323,0.106008497564,0.0224571451282,0.0,0.0,0.0638198583465
tagged_abstract_sents/16603881.txt,10,0.0108608205953,-0.00183913330843,0.0616692308323,0.106008497564,0.0224571451282,0.0843468153145,0.00168057748703,0.191808942528
tagged_abstract_sents/16603881.txt,11,0.0261464199517,0.00939682174775,0.210342442448,0.0253702522065,0.0224571451282,0.111840634037,0.0136363636364,0.295471156436
tagged_abstract_sents/16603881.txt,12,0.0261464199517,-0.0342251214115,0.0616692308323,0.106008497564,0.0224571451282,0.0,0.0,0.0767092763644
tagged_abstract_sents/16603881.txt,13,0.0518905872888,-0.0177016580936,0.0616692308323,0.106008497564,0.0224571451282,0.0694423835074,0.0134042033236,0.170119689476
tagged_abstract_sents/16603881.txt,14,0.0518905872888,-0.0295985516825,0.0616692308323,0.106008497564,0.0224571451282,0.0,0.0,0.0982299241798
tagged_abstract_sents/16603881.txt,15,0.0993563958166,-0.00712664157016,0.0616692308323,0.106008497564,0.0224571451282,0.106073220514,0.0114186217009,0.263858726485
tagged_abstract_sents/16603881.txt,16,0.0993563958166,-0.0381907526078,0.0616692308323,0.106008497564,0.0224571451282,0.0,0.0,0.134484130817
tagged_abstract_sents/16603881.txt,17,0.0993563958166,0.00212649788787,0.139250797795,0.521468892835,0.0224571451282,0.0987152671833,0.00312107247591,0.448047586059
tagged_abstract_sents/16603881.txt,19,0.172566371681,0.0450875025144,0.139250797795,0.521468892835,0.0224571451282,0.165704455858,0.00929752066116,0.582877680956
tagged_abstract_sents/16603881.txt,20,0.206355591311,0.0397999942527,0.139250797795,0.521468892835,0.0224571451282,0.162736944669,0.00974025974026,0.595246832015
tagged_abstract_sents/16603881.txt,21,0.206355591311,0.00609212908417,0.139250797795,0.521468892835,0.0224571451282,0.0882926896207,0.0,0.594997416495
tagged_abstract_sents/16603881.txt,22,0.262268704747,0.00146555935515,0.139250797795,0.521468892835,0.0224571451282,0.104471700368,0.0107233626588,0.54002432003
tagged_abstract_sents/16603881.txt,23,0.262268704747,-0.035546998477,0.139250797795,0.521468892835,0.0224571451282,0.0,0.0,0.42877163085
tagged_abstract_sents/16603881.txt,24,0.262268704747,0.074168797954,0.139250797795,0.521468892835,0.0224571451282,0.202374171937,0.0105064290548,0.645688858216
