tagged_abstract_sents/16603881.txt,2,0.0954875100725,-0.0368688755424,0.0616692308323,0.247294108221,0.0224571451282,0.0,0.0,0.135133289459
tagged_abstract_sents/16603881.txt,3,0.0954875100725,0.0338515474583,0.188769469584,0.123191979006,0.0224571451282,0.169714778302,0.0103639029592,0.294950753578
tagged_abstract_sents/16603881.txt,4,0.0253827558421,-0.0388516911406,0.0616692308323,0.247294108221,0.0224571451282,0.0,0.0,0.0786529229553
tagged_abstract_sents/16603881.txt,5,0.0253827558421,-0.030920428748,0.0616692308323,0.247294108221,0.0224571451282,0.0277333551011,0.0,0.176413535423
tagged_abstract_sents/16603881.txt,6,0.0805801772764,-0.0381907526078,0.0616692308323,0.247294108221,0.0224571451282,0.0,0.0,0.122943047809
tagged_abstract_sents/16603881.txt,7,0.0805801772764,-0.0236501048881,0.0616692308323,0.247294108221,0.0224571451282,0.0847077736272,0.00198613703013,0.207114910921
tagged_abstract_sents/16603881.txt,8,0.123690572119,-0.0375298140751,0.0616692308323,0.247294108221,0.0224571451282,0.0,0.0,0.15756355139
tagged_abstract_sents/16603881.txt,10,0.123690572119,-0.00183913330843,0.0616692308323,0.247294108221,0.0224571451282,0.0843468153145,0.00168057748703,0.200141120707
tagged_abstract_sents/16603881.txt,11,0.140209508461,0.00939682174775,0.210342442448,0.141687475369,0.0224571451282,0.111840634037,0.0136363636364,0.354103748445
tagged_abstract_sents/16603881.txt,12,0.140209508461,-0.0342251214115,0.0616692308323,0.247294108221,0.0224571451282,0.0,0.0,0.171439638996
tagged_abstract_sents/16603881.txt,13,0.149879129734,-0.0177016580936,0.0616692308323,0.247294108221,0.0224571451282,0.0694423835074,0.0134042033236,0.230307095947
tagged_abstract_sents/16603881.txt,14,0.149879129734,-0.0295985516825,0.0616692308323,0.247294108221,0.0224571451282,0.0,0.0,0.180100649961
tagged_abstract_sents/16603881.txt,15,0.176470588235,-0.00712664157016,0.0616692308323,0.247294108221,0.0224571451282,0.106073220514,0.0114186217009,0.332349949889
tagged_abstract_sents/16603881.txt,16,0.176470588235,-0.0381907526078,0.0616692308323,0.247294108221,0.0224571451282,0.0,0.0,0.199655376576
tagged_abstract_sents/16603881.txt,17,0.176470588235,0.00212649788787,0.139250797795,0.194462959676,0.0224571451282,0.0987152671833,0.00312107247591,0.314757008593
tagged_abstract_sents/16603881.txt,18,0.166800966962,0.0543406419725,0.139250797795,0.194462959676,0.0224571451282,0.170164069903,0.0134259849547,0.411394713224
tagged_abstract_sents/16603881.txt,19,0.166800966962,0.0450875025144,0.139250797795,0.194462959676,0.0224571451282,0.165704455858,0.00929752066116,0.409012210626
tagged_abstract_sents/16603881.txt,20,0.0954875100725,0.0397999942527,0.139250797795,0.194462959676,0.0224571451282,0.162736944669,0.00974025974026,0.360062062672
tagged_abstract_sents/16603881.txt,21,0.0954875100725,0.00609212908417,0.139250797795,0.194462959676,0.0224571451282,0.0882926896207,0.0,0.299775123211
tagged_abstract_sents/16603881.txt,22,0.0342465753425,0.00146555935515,0.139250797795,0.194462959676,0.0224571451282,0.104471700368,0.0107233626588,0.200696445471
tagged_abstract_sents/16603881.txt,23,0.0342465753425,-0.035546998477,0.139250797795,0.194462959676,0.0224571451282,0.0,0.0,0.109346356006
tagged_abstract_sents/16603881.txt,24,0.0342465753425,0.074168797954,0.139250797795,0.194462959676,0.0224571451282,0.202374171937,0.0105064290548,0.31572280792
