tagged_abstract_sents/16641776.txt,2,0.206355591311,-0.0483732351136,0.0616692308323,0.106008497564,0.262074692723,0.0,0.0,0.218046990712
tagged_abstract_sents/16641776.txt,3,0.206355591311,-0.0406384284837,0.0616692308323,0.106008497564,0.262074692723,0.0345490202212,0.0,0.253688884503
tagged_abstract_sents/16641776.txt,4,0.206355591311,-0.0500306936771,0.0616692308323,0.106008497564,0.262074692723,0.0,0.0,0.217715498999
tagged_abstract_sents/16641776.txt,6,0.0048270313757,-0.0406384284837,0.0616692308323,0.106008497564,0.262074692723,0.0,0.0,0.0583711040891
tagged_abstract_sents/16641776.txt,7,0.0108608205953,-0.0190914671578,0.0616692308323,0.106008497564,0.262074692723,0.203028747567,0.0219920719685,0.40030582109
tagged_abstract_sents/16641776.txt,8,0.0108608205953,-0.0511356660528,0.0616692308323,0.106008497564,0.262074692723,0.0,0.0,0.061098687951
tagged_abstract_sents/16641776.txt,9,0.0261464199517,-0.0201964395335,0.0616692308323,0.106008497564,0.262074692723,0.172024309375,0.0398044692737,0.287724942209
tagged_abstract_sents/16641776.txt,10,0.0353982300885,0.0289748311848,0.0616692308323,0.106008497564,0.262074692723,0.292372282014,0.0515529773997,0.405059847599
tagged_abstract_sents/16641776.txt,11,0.0518905872888,-0.0511356660528,0.0616692308323,0.106008497564,0.262074692723,0.0,0.0,0.0939225013058
tagged_abstract_sents/16641776.txt,12,0.0993563958166,-0.0251688152241,0.0616692308323,0.106008497564,0.262074692723,0.133486071429,0.0602103029652,0.315534832894
tagged_abstract_sents/16641776.txt,14,0.172566371681,0.0554941682014,0.139250797795,0.521468892835,0.262074692723,0.291322742534,0.0490850368207,0.709971394872
tagged_abstract_sents/16641776.txt,15,0.172566371681,0.0466543891958,0.139250797795,0.521468892835,0.262074692723,0.312721467176,0.0483020099587,0.769251964564
tagged_abstract_sents/16641776.txt,16,0.206355591311,-0.0489257213014,0.0616692308323,0.106008497564,0.262074692723,0.0,0.0,0.217936493474
tagged_abstract_sents/16641776.txt,17,0.206355591311,0.0455494168201,0.139250797795,0.521468892835,0.262074692723,0.344218601696,0.0448471744736,0.820456159368
tagged_abstract_sents/16641776.txt,18,0.262268704747,0.0991405770411,0.139250797795,0.521468892835,0.262074692723,0.441614192068,0.0450750096321,0.937867895838
tagged_abstract_sents/16641776.txt,19,0.262268704747,0.0361571516268,0.139250797795,0.521468892835,0.262074692723,0.188435485307,0.0315664280726,0.772809248925
