tagged_abstract_sents/16641776.txt,1,0.125905068383,-0.0483732351136,0.0616692308323,0.142474783506,0.0,0.0,0.0,0.164626458152
tagged_abstract_sents/16641776.txt,2,0.239742558327,-0.0406384284837,0.0616692308323,0.142474783506,0.0,0.0345490202212,0.0,0.291792431654
tagged_abstract_sents/16641776.txt,3,0.239742558327,-0.0500306936771,0.0616692308323,0.142474783506,0.0,0.0,0.0,0.255364958394
tagged_abstract_sents/16641776.txt,4,0.218020917136,-0.00748925721301,0.0616692308323,0.142474783506,0.258248644321,0.258100187487,0.041249127095,0.804093891636
tagged_abstract_sents/16641776.txt,5,0.218020917136,-0.0406384284837,0.0616692308323,0.142474783506,0.0,0.0,0.0,0.23986609848
tagged_abstract_sents/16641776.txt,6,0.162510056315,-0.0190914671578,0.0616692308323,0.142474783506,0.247068160032,0.203028747567,0.0219920719685,0.671855781656
tagged_abstract_sents/16641776.txt,7,0.162510056315,-0.0511356660528,0.0616692308323,0.142474783506,0.0,0.0,0.0,0.19335796231
tagged_abstract_sents/16641776.txt,8,0.101769911504,-0.0201964395335,0.0616692308323,0.142474783506,0.0,0.172024309375,0.0398044692737,0.362782470414
tagged_abstract_sents/16641776.txt,9,0.0852775543041,0.0289748311848,0.0616692308323,0.142474783506,0.0180514021181,0.292372282014,0.0515529773997,0.50957072168
tagged_abstract_sents/16641776.txt,10,0.0711987127916,-0.0511356660528,0.0616692308323,0.142474783506,0.0,0.0,0.0,0.120308887491
tagged_abstract_sents/16641776.txt,11,0.0458567980692,-0.0251688152241,0.0616692308323,0.142474783506,0.0,0.133486071429,0.0602103029652,0.298925100272
tagged_abstract_sents/16641776.txt,12,0.0458567980692,0.0908532842234,0.139250797795,0.0356431803763,0.0939543309422,0.35664438643,0.0527671089385,0.638540274621
tagged_abstract_sents/16641776.txt,13,0.0245374094932,0.0554941682014,0.139250797795,0.0356431803763,0.130359009953,0.291322742534,0.0490850368207,0.581813903554
tagged_abstract_sents/16641776.txt,14,0.0245374094932,0.0466543891958,0.139250797795,0.0356431803763,0.178567215279,0.312721467176,0.0483020099587,0.648869850857
tagged_abstract_sents/16641776.txt,15,0.00844730490748,-0.0489257213014,0.0616692308323,0.142474783506,0.0,0.0,0.0,0.0705497501336
tagged_abstract_sents/16641776.txt,16,0.00844730490748,0.0455494168201,0.139250797795,0.0356431803763,0.186812639192,0.344218601696,0.0448471744736,0.672064495662
tagged_abstract_sents/16641776.txt,17,0.00120675784393,0.0991405770411,0.139250797795,0.0356431803763,0.134061165018,0.441614192068,0.0450750096321,0.721862241412
tagged_abstract_sents/16641776.txt,18,0.00120675784393,0.0361571516268,0.139250797795,0.0356431803763,0.262074692723,0.188435485307,0.0315664280726,0.570591795714
