tagged_abstract_sents/16651493.txt,2,0.0954875100725,-0.0430891499654,0.0616692308323,0.247294108221,0.29282604311,0.0,0.0,0.172795025947
tagged_abstract_sents/16651493.txt,3,0.00564061240935,0.0253282653766,0.188769469584,0.123191979006,0.29282604311,0.179665169257,0.0774136260898,0.403806823921
tagged_abstract_sents/16651493.txt,4,0.0253827558421,-0.0410158949551,0.0616692308323,0.247294108221,0.29282604311,0.0,0.0,0.117125873565
tagged_abstract_sents/16651493.txt,5,0.0451248992748,0.0377677954388,0.0616692308323,0.247294108221,0.29282604311,0.197155353267,0.0590384582703,0.416065221015
tagged_abstract_sents/16651493.txt,6,0.0805801772764,-0.0389426399447,0.0616692308323,0.247294108221,0.29282604311,0.0,0.0,0.161698461715
tagged_abstract_sents/16651493.txt,7,0.116035455278,0.00321354526607,0.0616692308323,0.247294108221,0.29282604311,0.144180912971,0.0743360510171,0.406845679312
tagged_abstract_sents/16651493.txt,8,0.123690572119,0.0108154803041,0.0616692308323,0.247294108221,0.29282604311,0.146179597869,0.077849531805,0.38195549106
tagged_abstract_sents/16651493.txt,9,0.131345688961,-0.0133724948169,0.0616692308323,0.247294108221,0.29282604311,0.128627599488,0.052966003967,0.321354857952
tagged_abstract_sents/16651493.txt,10,0.140209508461,-0.0265031098825,0.0616692308323,0.247294108221,0.29282604311,0.0945173115777,0.0671886772145,0.300123471905
tagged_abstract_sents/16651493.txt,11,0.149073327961,-0.0389426399447,0.0616692308323,0.247294108221,0.29282604311,0.0,0.0,0.216492982263
tagged_abstract_sents/16651493.txt,12,0.149879129734,-0.0382515549413,0.0616692308323,0.247294108221,0.29282604311,0.0163411039851,0.0358007749435,0.248864825456
tagged_abstract_sents/16651493.txt,13,0.150684931507,-0.0396337249482,0.0616692308323,0.247294108221,0.29282604311,0.0,0.0,0.217644048098
tagged_abstract_sents/16651493.txt,14,0.176470588235,0.0495162404976,0.139250797795,0.194462959676,0.29282604311,0.195733540955,0.081799591002,0.52101089979
tagged_abstract_sents/16651493.txt,15,0.202256244964,-0.0265031098825,0.139250797795,0.194462959676,0.29282604311,0.0787270506136,0.0373822173951,0.322921108944
tagged_abstract_sents/16651493.txt,16,0.166800966962,0.00390463026952,0.139250797795,0.194462959676,0.29282604311,0.17495490976,0.0782540978936,0.531162194842
tagged_abstract_sents/16651493.txt,17,0.131345688961,0.0840704906704,0.139250797795,0.194462959676,0.29282604311,0.333021782639,0.0795621072502,0.688548912
tagged_abstract_sents/16651493.txt,18,0.0954875100725,-0.0417069799585,0.139250797795,0.194462959676,0.29282604311,0.0,0.0,0.196012898867
tagged_abstract_sents/16651493.txt,19,0.0342465753425,0.0232550103663,0.139250797795,0.194462959676,0.29282604311,0.331568629912,0.0782370035518,0.591340461891
tagged_abstract_sents/16651493.txt,20,0.0342465753425,0.0294747753974,0.139250797795,0.194462959676,0.29282604311,0.203132107632,0.089042027089,0.450439547426
