tagged_abstract_sents/16814221.txt,1,0.239742558327,0.0819459859415,0.188769469584,0.202456734834,0.171226147556,0.205517922919,0.0803085299456,0.820357599513
tagged_abstract_sents/16814221.txt,2,0.162510056315,-0.0523492415834,0.210342442448,0.226435992083,0.0819638121638,0.162429069183,0.080654237161,0.617687334092
tagged_abstract_sents/16814221.txt,3,0.0852775543041,0.0275619681835,0.188769469584,0.202456734834,0.0612014952445,0.139225214342,0.0973334976786,0.526616399588
tagged_abstract_sents/16814221.txt,4,0.0458567980692,-0.0246022937477,0.188769469584,0.202456734834,0.105062168935,0.1392908191,0.087308435022,0.518548158006
tagged_abstract_sents/16814221.txt,5,0.00844730490748,-0.00351461339253,0.188769469584,0.202456734834,0.0,0.135101040155,0.0848124409384,0.381090157584
tagged_abstract_sents/16814221.txt,6,0.00120675784393,-0.0290418054014,0.188769469584,0.202456734834,0.150854625382,0.168027368825,0.0956014524015,0.564762247046
