tagged_abstract_sents/16848844.txt,2,0.206355591311,-0.0284863945578,0.188769469584,0.129715814208,0.0835561109664,0.191607297858,0.0524576969152,0.554905000187
tagged_abstract_sents/16848844.txt,3,0.206355591311,-0.0046768707483,0.188769469584,0.129715814208,0.0835561109664,0.300423829119,0.0724846707965,0.81334289458
tagged_abstract_sents/16848844.txt,5,0.0048270313757,0.0331632653061,0.188769469584,0.129715814208,0.0835561109664,0.372197008322,0.0776579814316,0.612500401334
tagged_abstract_sents/16848844.txt,6,0.0108608205953,0.046343537415,0.210342442448,0.0253702522065,0.0835561109664,0.325115363166,0.0583616547521,0.581675370239
tagged_abstract_sents/16848844.txt,7,0.0261464199517,-0.0144557823129,0.0616692308323,0.106008497564,0.0835561109664,0.259390826017,0.0676770542709,0.407330514471
tagged_abstract_sents/16848844.txt,8,0.0353982300885,-0.030612244898,0.0616692308323,0.106008497564,0.0835561109664,0.238686899191,0.0656914495358,0.448630859101
tagged_abstract_sents/16848844.txt,9,0.0518905872888,-0.0454931972789,0.0616692308323,0.106008497564,0.0835561109664,0.107390692253,0.0466252824743,0.248935766958
tagged_abstract_sents/16848844.txt,10,0.0993563958166,-0.0170068027211,0.0616692308323,0.106008497564,0.0835561109664,0.145891148882,0.0459718478586,0.334602985225
tagged_abstract_sents/16848844.txt,11,0.172566371681,-0.0123299319728,0.194899689933,0.0581677376677,0.0835561109664,0.255382888985,0.0459044624139,0.587873791317
tagged_abstract_sents/16848844.txt,12,0.172566371681,-0.0238095238095,0.0616692308323,0.106008497564,0.0835561109664,0.139855409012,0.0293616237012,0.362473275548
tagged_abstract_sents/16848844.txt,13,0.206355591311,0.0110544217687,0.139250797795,0.521468892835,0.0835561109664,0.355197160129,0.0656072177299,0.792301488071
tagged_abstract_sents/16848844.txt,15,0.262268704747,0.015306122449,0.139250797795,0.521468892835,0.0835561109664,0.264524862819,0.0647798742138,0.79657753681
