tagged_abstract_sents/16848101.txt,2,0.206355591311,-0.0650622638869,0.0616692308323,0.106008497564,0.197358547813,0.0,0.0,0.214709184957
tagged_abstract_sents/16848101.txt,3,0.206355591311,-0.0391073177557,0.188769469584,0.129715814208,0.197358547813,0.119327421014,0.0349462365591,0.504457392275
tagged_abstract_sents/16848101.txt,4,0.0048270313757,-0.0660416958164,0.0616692308323,0.106008497564,0.197358547813,0.0,0.0,0.0532904506226
tagged_abstract_sents/16848101.txt,6,0.0108608205953,-0.0165803833776,0.188769469584,0.129715814208,0.197358547813,0.131679907473,0.0533647167773,0.404596129759
tagged_abstract_sents/16848101.txt,7,0.0261464199517,0.0534489995802,0.188769469584,0.129715814208,0.197358547813,0.206274700808,0.0605676581483,0.437330175979
tagged_abstract_sents/16848101.txt,8,0.0353982300885,-0.063103400028,0.0616692308323,0.106008497564,0.197358547813,0.0,0.0,0.0783350687505
tagged_abstract_sents/16848101.txt,10,0.0993563958166,0.0363089408143,0.0616692308323,0.106008497564,0.197358547813,0.170989376992,0.043348973607,0.349476132883
tagged_abstract_sents/16848101.txt,11,0.172566371681,0.0186791660837,0.0616692308323,0.106008497564,0.197358547813,0.140344557098,0.0429269655076,0.386573474781
tagged_abstract_sents/16848101.txt,12,0.172566371681,0.0196585980132,0.139250797795,0.521468892835,0.197358547813,0.210624297505,0.0508483452032,0.62022525637
tagged_abstract_sents/16848101.txt,13,0.206355591311,-0.0660416958164,0.139250797795,0.521468892835,0.197358547813,0.0,0.0,0.377942200634
tagged_abstract_sents/16848101.txt,14,0.262268704747,0.0319014971317,0.139250797795,0.521468892835,0.197358547813,0.137821188805,0.0480058651026,0.693902658182
tagged_abstract_sents/16848101.txt,15,0.262268704747,0.0872394011473,0.139250797795,0.521468892835,0.197358547813,0.293335396174,0.0594832369026,0.8262097968
