tagged_abstract_sents/16895873.txt,1,0.239742558327,0.0386932488665,0.188769469584,0.202456734834,0.0705378837906,0.262790953099,0.0332099907493,0.721193279316
tagged_abstract_sents/16895873.txt,2,0.218020917136,-0.0686292776846,0.188769469584,0.202456734834,0.0,0.104768442052,0.0219447014082,0.442525776875
tagged_abstract_sents/16895873.txt,3,0.162510056315,0.0202471896156,0.188769469584,0.202456734834,0.00988563423298,0.223914444095,0.0386738682821,0.561653184828
tagged_abstract_sents/16895873.txt,4,0.101769911504,-0.0267064157506,0.139250797795,0.0356431803763,0.013423972253,0.160443584735,0.036231884058,0.36649244011
tagged_abstract_sents/16895873.txt,5,0.0711987127916,0.0364573628967,0.139250797795,0.0356431803763,0.103962600215,0.20281309365,0.0426807872659,0.494025276954
tagged_abstract_sents/16895873.txt,6,0.0458567980692,-0.0104962424694,0.139250797795,0.0356431803763,0.0842578043273,0.267002268604,0.0258062458133,0.491970861716
tagged_abstract_sents/16895873.txt,7,0.0245374094932,0.0616110800571,0.139250797795,0.0356431803763,0.0960661119339,0.235844949865,0.041548830448,0.485730388863
tagged_abstract_sents/16895873.txt,8,0.00844730490748,-0.0317371591827,0.139250797795,0.0356431803763,0.0,0.141976951762,0.0449079135481,0.26761363041
tagged_abstract_sents/16895873.txt,9,0.00120675784393,-0.0194397863487,0.139250797795,0.0356431803763,0.0958168715359,0.249935972763,0.0412647019955,0.46441334831
