tagged_abstract_sents/16914702.txt,1,0.125905068383,-0.0424860564851,0.0616692308323,0.142474783506,0.0,0.0,0.0,0.165803893877
tagged_abstract_sents/16914702.txt,2,0.125905068383,0.0293758193898,0.188769469584,0.202456734834,0.024180521592,0.146324225597,0.0216342308718,0.453859951887
tagged_abstract_sents/16914702.txt,3,0.239742558327,-0.043885963158,0.0616692308323,0.142474783506,0.0,0.0,0.0,0.256593904498
tagged_abstract_sents/16914702.txt,4,0.239742558327,0.0331089038509,0.210342442448,0.226435992083,0.0420733628198,0.200679159034,0.0307766204874,0.645046988622
tagged_abstract_sents/16914702.txt,5,0.218020917136,-0.0182210074884,0.0616692308323,0.142474783506,0.049916142592,0.129680761763,0.027307638598,0.451254125632
tagged_abstract_sents/16914702.txt,6,0.218020917136,0.0233095571406,0.0616692308323,0.142474783506,0.0406627685912,0.198809356707,0.0490747294974,0.5412025504
tagged_abstract_sents/16914702.txt,7,0.162510056315,0.0331089038509,0.0616692308323,0.142474783506,0.0394542850287,0.195937346266,0.0332518735745,0.47885038116
tagged_abstract_sents/16914702.txt,8,0.162510056315,-0.043885963158,0.139250797795,0.0356431803763,0.0,0.0,0.0,0.201549205431
tagged_abstract_sents/16914702.txt,9,0.101769911504,-0.00188876297136,0.139250797795,0.0356431803763,0.0527766588285,0.11723262429,0.0310557184751,0.362421531213
tagged_abstract_sents/16914702.txt,10,0.101769911504,-0.0107548385663,0.139250797795,0.0356431803763,0.0195313035867,0.0768439387694,0.0344365312107,0.290395088067
tagged_abstract_sents/16914702.txt,11,0.0711987127916,0.013976845988,0.139250797795,0.0356431803763,0.0276109728523,0.110760117677,0.0530954708374,0.331539253808
tagged_abstract_sents/16914702.txt,12,0.0711987127916,0.00231095704731,0.139250797795,0.0356431803763,0.0172507508003,0.0972683052825,0.0228097507331,0.275068321469
tagged_abstract_sents/16914702.txt,13,0.0458567980692,-0.0294202608715,0.139250797795,0.0356431803763,0.0223761203307,0.0768887328948,0.0211038961039,0.231488488621
tagged_abstract_sents/16914702.txt,14,0.0458567980692,0.0541075039442,0.139250797795,0.0356431803763,0.0241960211651,0.141756830716,0.0375806451613,0.331358789297
tagged_abstract_sents/16914702.txt,15,0.0245374094932,0.0279759127169,0.139250797795,0.0356431803763,0.0462857393605,0.132109596067,0.0408183214635,0.324757120039
tagged_abstract_sents/16914702.txt,16,0.0245374094932,0.00277759260494,0.139250797795,0.0356431803763,0.0520415892633,0.114938059197,0.0381231671554,0.305606614741
tagged_abstract_sents/16914702.txt,17,0.00844730490748,-0.0420194209275,0.139250797795,0.0356431803763,0.0,0.0,0.0,0.0786723127508
tagged_abstract_sents/16914702.txt,18,0.00844730490748,0.0209763793525,0.139250797795,0.0356431803763,0.039990182654,0.23604072295,0.0387786786269,0.406081057037
tagged_abstract_sents/16914702.txt,19,0.00120675784393,0.044308157234,0.139250797795,0.0356431803763,0.0380862929205,0.218534967571,0.0364345851859,0.383201236409
tagged_abstract_sents/16914702.txt,20,0.00120675784393,-0.0158878297002,0.139250797795,0.0356431803763,0.0627049681211,0.144978228591,0.0374033591042,0.323192749162
tagged_abstract_sents/16914702.txt,21,0.00120675784393,-0.0368864297936,0.139250797795,0.0356431803763,0.0427083301315,0.0964754819073,0.0339917198551,0.247082005221
