tagged_abstract_sents/16948968.txt,1,0.162510056315,0.244292237443,0.188769469584,0.202456734834,0.0596334752416,0.149556514938,0.0524856863567,0.59566392432
tagged_abstract_sents/16948968.txt,2,0.0458567980692,-0.0547945205479,0.188769469584,0.202456734834,0.00388573135382,0.0968067082137,0.0548806032677,0.336421332423
tagged_abstract_sents/16948968.txt,3,0.00120675784393,-0.189497716895,0.188769469584,0.202456734834,0.0,0.0951660583501,0.044176790951,0.25753046744
