tagged_abstract_sents/16968832.txt,2,0.0954875100725,-0.0405403247697,0.0616692308323,0.247294108221,0.0,0.0,0.0,0.173304790987
tagged_abstract_sents/16968832.txt,3,0.0954875100725,0.0138114930783,0.188769469584,0.123191979006,0.0,0.384096900079,0.0224708451495,0.496779794347
tagged_abstract_sents/16968832.txt,4,0.0253827558421,-0.0398058407447,0.0616692308323,0.247294108221,0.0,0.0,0.0,0.117367884407
tagged_abstract_sents/16968832.txt,6,0.0805801772764,-0.0387041147072,0.0616692308323,0.247294108221,0.0,0.0,0.0,0.161746166762
tagged_abstract_sents/16968832.txt,7,0.0805801772764,0.0200546072906,0.0616692308323,0.247294108221,0.0,0.336966042248,0.010869375654,0.267740059048
tagged_abstract_sents/16968832.txt,8,0.123690572119,-0.0376023886698,0.0616692308323,0.247294108221,0.0,0.0,0.0,0.196454827844
tagged_abstract_sents/16968832.txt,9,0.123690572119,-0.0137316578582,0.0616692308323,0.247294108221,0.0,0.197120629255,0.0108780955703,0.263931865748
tagged_abstract_sents/16968832.txt,10,0.123690572119,-0.0376023886698,0.0616692308323,0.247294108221,0.0,0.0,0.0,0.196454827844
tagged_abstract_sents/16968832.txt,11,0.140209508461,0.0134442510658,0.0616692308323,0.247294108221,0.0,0.46648683353,0.0244480615949,0.401079043475
tagged_abstract_sents/16968832.txt,12,0.140209508461,-0.0379696306823,0.0616692308323,0.247294108221,0.0,0.0,0.0,0.209596528515
tagged_abstract_sents/16968832.txt,13,0.149879129734,-0.018873046033,0.0616692308323,0.247294108221,0.0,0.273724437114,0.0180091918176,0.475728125152
tagged_abstract_sents/16968832.txt,14,0.149879129734,0.0711012470261,0.139250797795,0.194462959676,0.0,0.414967137351,0.022817114289,0.404766230984
tagged_abstract_sents/16968832.txt,15,0.176470588235,0.00389595874116,0.139250797795,0.194462959676,0.0,0.259650685405,0.0274472188596,0.435561870423
tagged_abstract_sents/16968832.txt,16,0.176470588235,0.0641236487889,0.139250797795,0.194462959676,0.0,0.355168406603,0.0238718089259,0.458757555992
tagged_abstract_sents/16968832.txt,17,0.176470588235,0.0406201599898,0.139250797795,0.194462959676,0.0,0.346734539751,0.0219451226602,0.3757242974
tagged_abstract_sents/16968832.txt,18,0.166800966962,0.022625301378,0.139250797795,0.194462959676,0.0,0.296641825099,0.0192661706003,0.330802563844
tagged_abstract_sents/16968832.txt,19,0.166800966962,-0.0225454661579,0.139250797795,0.194462959676,0.0,0.195580172477,0.0100480266159,0.418849468132
tagged_abstract_sents/16968832.txt,20,0.0954875100725,0.0233597854029,0.139250797795,0.194462959676,0.0,0.296040278065,0.0216302367942,0.427548615272
tagged_abstract_sents/16968832.txt,21,0.0954875100725,-0.0390713567197,0.0616692308323,0.247294108221,0.0,0.0,0.0,0.173598584597
tagged_abstract_sents/16968832.txt,22,0.0342465753425,0.0116080410034,0.139250797795,0.194462959676,0.0,0.329563865934,0.0207316009766,0.444594150056
tagged_abstract_sents/16968832.txt,23,0.0342465753425,-0.0262178862827,0.139250797795,0.194462959676,0.0,0.119919507934,0.0267047436345,0.321111913174
tagged_abstract_sents/16968832.txt,24,0.0342465753425,-0.00124542943365,0.139250797795,0.194462959676,0.0,0.242017624342,0.0257993256598,0.393300278891
