tagged_abstract_sents/17051752.txt,2,0.206355591311,-0.0559406678593,0.0616692308323,0.106008497564,0.18716816937,0.0,0.0,0.216533504163
tagged_abstract_sents/17051752.txt,3,0.206355591311,-0.00406231365534,0.188769469584,0.129715814208,0.18716816937,0.0979011807449,0.031396627566,0.509809642265
tagged_abstract_sents/17051752.txt,5,0.0048270313757,-0.0577295766249,0.0616692308323,0.106008497564,0.18716816937,0.0,0.0,0.0549528744609
tagged_abstract_sents/17051752.txt,6,0.0108608205953,0.0335047704234,0.194899689933,0.0581677376677,0.18716816937,0.125355412332,0.0260688377836,0.342291985587
tagged_abstract_sents/17051752.txt,7,0.0108608205953,0.0114415623137,0.0616692308323,0.106008497564,0.18716816937,0.182661766758,0.042064516129,0.316041795791
tagged_abstract_sents/17051752.txt,8,0.0261464199517,-0.0577295766249,0.0616692308323,0.106008497564,0.18716816937,0.0,0.0,0.0720083853217
tagged_abstract_sents/17051752.txt,9,0.0353982300885,0.0364862850328,0.139250797795,0.521468892835,0.18716816937,0.146428919022,0.0303449238933,0.541590019557
tagged_abstract_sents/17051752.txt,11,0.0993563958166,0.00786374478235,0.139250797795,0.521468892835,0.18716816937,0.152800668965,0.039124059671,0.491144949754
tagged_abstract_sents/17051752.txt,12,0.0993563958166,-0.0171809779368,0.139250797795,0.521468892835,0.18716816937,0.0924168052983,0.0263929618768,0.426106772986
tagged_abstract_sents/17051752.txt,13,0.172566371681,-0.0124105545617,0.139250797795,0.521468892835,0.18716816937,0.109887543067,0.0334860703812,0.500456076756
tagged_abstract_sents/17051752.txt,14,0.206355591311,0.00309332140727,0.139250797795,0.521468892835,0.18716816937,0.154942354161,0.0507889959503,0.605029848354
tagged_abstract_sents/17051752.txt,15,0.206355591311,-0.00465861657722,0.139250797795,0.521468892835,0.18716816937,0.132566308925,0.0298425682976,0.57264760294
tagged_abstract_sents/17051752.txt,16,0.262268704747,-0.0559406678593,0.0616692308323,0.106008497564,0.18716816937,0.0,0.0,0.261263994911
tagged_abstract_sents/17051752.txt,17,0.262268704747,0.0633199165176,0.139250797795,0.521468892835,0.18716816937,0.217344462978,0.0434523207604,0.790976512458
