tagged_abstract_sents/17065896.txt,2,0.0954875100725,-0.0554351316635,0.0616692308323,0.247294108221,0.150717785201,0.0,0.0,0.170325829608
tagged_abstract_sents/17065896.txt,3,0.0253827558421,-0.0271756583173,0.188769469584,0.123191979006,0.150717785201,0.0298176047291,0.0153149266609,0.167914423086
tagged_abstract_sents/17065896.txt,5,0.0805801772764,-0.0573619139371,0.0616692308323,0.247294108221,0.150717785201,0.0,0.0,0.158014606916
tagged_abstract_sents/17065896.txt,6,0.123690572119,0.0164980732177,0.194899689933,0.293363477728,0.150717785201,0.117797742105,0.0338654012079,0.416982401118
tagged_abstract_sents/17065896.txt,7,0.123690572119,-0.0117614001285,0.0616692308323,0.247294108221,0.150717785201,0.0655635992092,0.0298317515099,0.270499433991
tagged_abstract_sents/17065896.txt,8,0.140209508461,-0.0111191393706,0.0616692308323,0.247294108221,0.150717785201,0.0909644427851,0.0196906199926,0.244189019804
tagged_abstract_sents/17065896.txt,9,0.149073327961,0.0216361592807,0.0616692308323,0.247294108221,0.150717785201,0.109869173859,0.0150129421915,0.34196297446
tagged_abstract_sents/17065896.txt,10,0.149879129734,-0.0104768786127,0.0616692308323,0.247294108221,0.150717785201,0.045973064881,0.014290336497,0.179569243836
tagged_abstract_sents/17065896.txt,11,0.176470588235,-0.0573619139371,0.0616692308323,0.247294108221,0.150717785201,0.0,0.0,0.234726935683
tagged_abstract_sents/17065896.txt,12,0.176470588235,-0.0239643545279,0.139250797795,0.194462959676,0.150717785201,0.0557774926115,0.0563704342824,0.39734933394
tagged_abstract_sents/17065896.txt,13,0.166800966962,0.107699100835,0.139250797795,0.194462959676,0.150717785201,0.0826939215318,0.0398719054888,0.382264478701
tagged_abstract_sents/17065896.txt,14,0.0954875100725,0.0665944123314,0.139250797795,0.194462959676,0.150717785201,0.0911956739651,0.0370239122396,0.312613742223
tagged_abstract_sents/17065896.txt,15,0.0954875100725,0.0473265895954,0.139250797795,0.194462959676,0.150717785201,0.0884899915845,0.0297310900201,0.293739021748
tagged_abstract_sents/17065896.txt,16,0.0342465753425,-0.0554351316635,0.0616692308323,0.247294108221,0.150717785201,0.0,0.0,0.121333081824
tagged_abstract_sents/17065896.txt,17,0.0342465753425,0.0287010276172,0.139250797795,0.194462959676,0.150717785201,0.0825981679618,0.0276100086281,0.167311003304
