tagged_abstract_sents/17065637.txt,1,0.125905068383,-0.0594393342094,0.0616692308323,0.142474783506,0.0,0.0,0.0,0.162413238332
tagged_abstract_sents/17065637.txt,2,0.239742558327,0.0266316250548,0.188769469584,0.202456734834,0.1993782593,0.316267892143,0.0461867366594,0.914075015017
tagged_abstract_sents/17065637.txt,3,0.229283990346,-0.0614104248795,0.188769469584,0.202456734834,0.0,0.0,0.0,0.326266862543
tagged_abstract_sents/17065637.txt,4,0.218020917136,0.0989049496277,0.210342442448,0.226435992083,0.257754455975,0.298442804776,0.0319782824969,0.955475285731
tagged_abstract_sents/17065637.txt,5,0.162510056315,0.136355672361,0.194899689933,0.13295610691,0.216337229431,0.415007053493,0.0417345779622,0.96769471745
tagged_abstract_sents/17065637.txt,6,0.118262268705,-0.000306614104249,0.0616692308323,0.142474783506,0.0,0.230856236795,0.0305353879587,0.429517167364
tagged_abstract_sents/17065637.txt,7,0.101769911504,-0.0614104248795,0.0616692308323,0.142474783506,0.0,0.0,0.0,0.142710894695
tagged_abstract_sents/17065637.txt,8,0.0711987127916,-0.0213315812527,0.139250797795,0.0356431803763,0.154195066334,0.171692924393,0.0160023707216,0.474901368441
tagged_abstract_sents/17065637.txt,9,0.0571198712792,0.0469995619799,0.139250797795,0.0356431803763,0.0940452078136,0.263689299024,0.0271550201169,0.520303689385
tagged_abstract_sents/17065637.txt,10,0.0458567980692,0.0424003504161,0.139250797795,0.0356431803763,0.0819450388097,0.236133941225,0.0323381241665,0.475900965751
tagged_abstract_sents/17065637.txt,11,0.0245374094932,0.00823477879982,0.139250797795,0.0356431803763,0.0693491163725,0.24621715299,0.0322763866252,0.449437892352
tagged_abstract_sents/17065637.txt,12,0.0144810941271,-0.058782303986,0.0616692308323,0.142474783506,0.0,0.0,0.0,0.0734054649724
tagged_abstract_sents/17065637.txt,13,0.00844730490748,-0.0233026719229,0.139250797795,0.0356431803763,0.448614252172,0.124412707594,0.0255910928603,0.681033715179
tagged_abstract_sents/17065637.txt,14,0.00120675784393,-0.0219886114761,0.139250797795,0.0356431803763,0.0,0.166384801238,0.0275678701371,0.270838708365
tagged_abstract_sents/17065637.txt,15,0.00120675784393,-0.0515549715287,0.139250797795,0.0356431803763,0.0,0.114187638315,0.0301314480452,0.21529185134
