tagged_abstract_sents/17121867.txt,1,0.125905068383,-0.0597266035752,0.0616692308323,0.142474783506,0.0,0.0,0.0,0.162355784459
tagged_abstract_sents/17121867.txt,2,0.239742558327,0.00651945320715,0.188769469584,0.202456734834,0.020100970762,0.137380910146,0.0261841475293,0.531885720983
tagged_abstract_sents/17121867.txt,3,0.229283990346,-0.0641430073607,0.0616692308323,0.142474783506,0.0,0.0,0.0,0.244175641272
tagged_abstract_sents/17121867.txt,4,0.218020917136,0.0828601472135,0.0616692308323,0.142474783506,0.0214839018715,0.204951953779,0.0251741937058,0.516175862976
tagged_abstract_sents/17121867.txt,5,0.162510056315,-0.0616193480547,0.0616692308323,0.142474783506,0.0,0.0,0.0,0.191261225909
tagged_abstract_sents/17121867.txt,6,0.118262268705,0.056992639327,0.210342442448,0.226435992083,0.0826169883849,0.214567021225,0.0145827486201,0.590877119908
tagged_abstract_sents/17121867.txt,7,0.101769911504,-0.00105152471083,0.0616692308323,0.142474783506,0.114930954966,0.150783541611,0.0282065674993,0.448703738806
tagged_abstract_sents/17121867.txt,8,0.0711987127916,-0.0212407991588,0.0616692308323,0.142474783506,0.0,0.159088887574,0.021470670783,0.306847419227
tagged_abstract_sents/17121867.txt,9,0.0571198712792,-0.0616193480547,0.0616692308323,0.142474783506,0.0,0.0,0.0,0.10694907788
tagged_abstract_sents/17121867.txt,10,0.0458567980692,-0.00294426919033,0.0616692308323,0.142474783506,0.156346213986,0.149390209575,0.0206508412485,0.436060899895
tagged_abstract_sents/17121867.txt,11,0.0245374094932,0.0765509989485,0.139250797795,0.0356431803763,0.0124251912649,0.116821876828,0.0272242492282,0.271729797716
tagged_abstract_sents/17121867.txt,12,0.0144810941271,0.00904311251314,0.139250797795,0.0356431803763,0.0246117891465,0.134795497337,0.0176817288802,0.270800866179
tagged_abstract_sents/17121867.txt,13,0.00844730490748,0.00588853838065,0.139250797795,0.0356431803763,0.0712466293648,0.0848968185764,0.0188043783329,0.263201730886
tagged_abstract_sents/17121867.txt,14,0.00120675784393,-0.0597266035752,0.139250797795,0.0356431803763,0.0,0.0,0.0,0.0693384385704
tagged_abstract_sents/17121867.txt,15,0.00120675784393,0.0942166140904,0.139250797795,0.0356431803763,0.141158747862,0.301871378634,0.0129187234815,0.556075932081
