tagged_abstract_sents/17253530.txt,1,0.125905068383,-0.0341478129713,0.0616692308323,0.142474783506,0.0,0.0,0.0,0.16747154258
tagged_abstract_sents/17253530.txt,2,0.125905068383,0.0101659125189,0.188769469584,0.202456734834,0.127040458968,0.295396748457,0.0320027382022,0.71231893808
tagged_abstract_sents/17253530.txt,3,0.239742558327,0.00820512820513,0.188769469584,0.202456734834,0.0683084609137,0.303929915533,0.0411051212938,0.761900325286
tagged_abstract_sents/17253530.txt,4,0.239742558327,0.00781297134238,0.188769469584,0.202456734834,0.158722646857,0.310606168757,0.0339854066269,0.851792618413
tagged_abstract_sents/17253530.txt,5,0.239742558327,0.0180090497738,0.188769469584,0.202456734834,0.231084924147,0.382339491179,0.0467839288594,1.01072595604
tagged_abstract_sents/17253530.txt,6,0.218020917136,-0.0110105580694,0.0616692308323,0.142474783506,0.335111132319,0.201388322518,0.0411883132009,0.8234794406
tagged_abstract_sents/17253530.txt,7,0.218020917136,-0.0341478129713,0.0616692308323,0.142474783506,0.0,0.0,0.0,0.241164221582
tagged_abstract_sents/17253530.txt,8,0.162510056315,0.0313423831071,0.0616692308323,0.142474783506,0.337565858271,0.25249280311,0.0255241090147,0.825436342538
tagged_abstract_sents/17253530.txt,9,0.162510056315,-0.0321870286576,0.0616692308323,0.142474783506,0.0,0.0,0.0,0.197147689789
tagged_abstract_sents/17253530.txt,10,0.162510056315,0.0446757164404,0.0616692308323,0.142474783506,0.0381336400826,0.309706176263,0.0712379863323,0.631598041486
tagged_abstract_sents/17253530.txt,11,0.101769911504,-0.0310105580694,0.0616692308323,0.142474783506,0.0,0.0,0.0,0.148790868058
tagged_abstract_sents/17253530.txt,12,0.101769911504,-0.0270889894419,0.0616692308323,0.142474783506,0.0954218849963,0.186580448942,0.0525392546956,0.484116770417
tagged_abstract_sents/17253530.txt,13,0.0852775543041,0.00938159879336,0.0616692308323,0.142474783506,0.0916959082139,0.317653476952,0.0591432065489,0.612168005385
tagged_abstract_sents/17253530.txt,14,0.0711987127916,0.0211463046757,0.0616692308323,0.142474783506,0.312113714607,0.305987999453,0.0441032852846,0.796970280981
tagged_abstract_sents/17253530.txt,15,0.0711987127916,-0.0270889894419,0.0616692308323,0.142474783506,0.0,0.0,0.0,0.125118222813
tagged_abstract_sents/17253530.txt,16,0.0458567980692,-0.00277526395173,0.0616692308323,0.142474783506,0.0590089404782,0.208821716953,0.0467558092419,0.424293902806
tagged_abstract_sents/17253530.txt,17,0.0458567980692,-0.0333634992459,0.0616692308323,0.142474783506,0.0,0.0,0.0,0.103589789074
tagged_abstract_sents/17253530.txt,18,0.0458567980692,0.00349924585219,0.0616692308323,0.142474783506,0.0856054517804,0.243568956583,0.0528102226215,0.492946969079
tagged_abstract_sents/17253530.txt,19,0.0245374094932,-0.0165007541478,0.0616692308323,0.142474783506,0.228453264502,0.264367548105,0.049648098233,0.632375738073
tagged_abstract_sents/17253530.txt,20,0.0245374094932,0.0117345399698,0.0616692308323,0.142474783506,0.0834864930208,0.283493996475,0.0538085255066,0.516342901059
tagged_abstract_sents/17253530.txt,21,0.00844730490748,0.106244343891,0.139250797795,0.0356431803763,0.0914927593179,0.481156444547,0.053582439265,0.734556708845
tagged_abstract_sents/17253530.txt,22,0.00844730490748,0.0458521870287,0.139250797795,0.0356431803763,0.20983480547,0.275411760734,0.0355091995781,0.617002400124
tagged_abstract_sents/17253530.txt,23,0.00844730490748,-0.0302262443439,0.0616692308323,0.142474783506,0.0,0.0,0.0,0.0742896455251
tagged_abstract_sents/17253530.txt,24,0.00120675784393,-0.0121870286576,0.0616692308323,0.142474783506,0.0890638135806,0.220468273223,0.0263709588436,0.408008096658
tagged_abstract_sents/17253530.txt,25,0.00120675784393,-0.00316742081448,0.139250797795,0.0356431803763,0.281580904502,0.330342607437,0.0459905660377,0.738564353099
tagged_abstract_sents/17253530.txt,26,0.00120675784393,-0.0231674208145,0.139250797795,0.0356431803763,0.0418567438821,0.138078613683,0.0634920634921,0.320077696179
