tagged_abstract_sents/17332726.txt,2,0.0253827558421,-0.0104916432841,0.188769469584,0.123191979006,0.0417801436014,0.116088979847,0.00463343108504,0.177102163428
tagged_abstract_sents/17332726.txt,4,0.140209508461,-0.0668537269733,0.188769469584,0.123191979006,0.0417801436014,0.126831165056,0.00408832154563,0.331780981523
tagged_abstract_sents/17332726.txt,5,0.149879129734,0.04501646944,0.188769469584,0.123191979006,0.0417801436014,0.184289807936,0.0031924820048,0.433838308068
tagged_abstract_sents/17332726.txt,6,0.166800966962,0.109064291814,0.139250797795,0.194462959676,0.0417801436014,0.133076806195,0.00408832154563,0.40053387854
tagged_abstract_sents/17332726.txt,7,0.0954875100725,-0.0420885689887,0.139250797795,0.194462959676,0.0417801436014,0.123177797856,0.0,0.287394540514
tagged_abstract_sents/17332726.txt,8,0.0342465753425,0.0202513114554,0.139250797795,0.194462959676,0.0417801436014,0.176272522473,0.00351173020528,0.311067758195
