tagged_abstract_sents/17332726.txt,1,0.239742558327,-0.0104916432841,0.188769469584,0.202456734834,0.0119089658059,0.116088979847,0.00463343108504,0.477448849985
tagged_abstract_sents/17332726.txt,2,0.218020917136,-0.0548981334635,0.188769469584,0.202456734834,0.0151730305949,0.151933062006,0.00390192245031,0.489566877309
tagged_abstract_sents/17332726.txt,3,0.101769911504,-0.0668537269733,0.188769469584,0.202456734834,0.0,0.126831165056,0.00408832154563,0.354086425653
tagged_abstract_sents/17332726.txt,4,0.0711987127916,0.04501646944,0.188769469584,0.202456734834,0.0486818510842,0.184289807936,0.0031924820048,0.457248160388
tagged_abstract_sents/17332726.txt,5,0.0245374094932,0.109064291814,0.139250797795,0.0356431803763,0.0167740639804,0.133076806195,0.00408832154563,0.275700330688
tagged_abstract_sents/17332726.txt,6,0.00844730490748,-0.0420885689887,0.139250797795,0.0356431803763,0.0144802483859,0.123177797856,0.0,0.21631652938
tagged_abstract_sents/17332726.txt,7,0.00120675784393,0.0202513114554,0.139250797795,0.0356431803763,0.0417801436014,0.176272522473,0.00351173020528,0.306898417856
