tagged_abstract_sents/17341709.txt,2,0.206355591311,-0.0515754560531,0.0616692308323,0.106008497564,0.129936196124,0.0,0.0,0.217406546524
tagged_abstract_sents/17341709.txt,3,0.206355591311,0.0374792703151,0.188769469584,0.129715814208,0.129936196124,0.235116042919,0.0262867226121,0.763795968051
tagged_abstract_sents/17341709.txt,4,0.206355591311,-0.0177446102819,0.188769469584,0.129715814208,0.129936196124,0.127249899269,0.0188824270262,0.568802177414
tagged_abstract_sents/17341709.txt,5,0.0048270313757,-0.0505804311774,0.0616692308323,0.106008497564,0.129936196124,0.0,0.0,0.0563827035504
tagged_abstract_sents/17341709.txt,7,0.0108608205953,-0.03864013267,0.0616692308323,0.106008497564,0.129936196124,0.0,0.0,0.0635977946276
tagged_abstract_sents/17341709.txt,8,0.0108608205953,0.0713101160862,0.188769469584,0.129715814208,0.129936196124,0.252566866921,0.0233367906356,0.539079857861
tagged_abstract_sents/17341709.txt,9,0.0261464199517,-0.049087893864,0.0616692308323,0.106008497564,0.129936196124,0.0,0.0,0.0737367218739
tagged_abstract_sents/17341709.txt,10,0.0353982300885,-0.0157545605307,0.194899689933,0.0581677376677,0.129936196124,0.184996974153,0.0543372680726,0.377653696713
tagged_abstract_sents/17341709.txt,11,0.0518905872888,-0.0446102819237,0.0616692308323,0.106008497564,0.129936196124,0.0,0.0,0.0952275781316
tagged_abstract_sents/17341709.txt,13,0.0993563958166,-0.0515754560531,0.139250797795,0.521468892835,0.129936196124,0.0,0.0,0.295236092191
tagged_abstract_sents/17341709.txt,14,0.172566371681,0.0260364842454,0.139250797795,0.521468892835,0.129936196124,0.24071609934,0.0301834839729,0.703922898922
tagged_abstract_sents/17341709.txt,15,0.172566371681,0.00713101160862,0.139250797795,0.521468892835,0.129936196124,0.123481762756,0.0347088457549,0.538879697938
tagged_abstract_sents/17341709.txt,16,0.206355591311,0.0728026533997,0.139250797795,0.521468892835,0.129936196124,0.242061302465,0.024349286314,0.74899971375
tagged_abstract_sents/17341709.txt,17,0.206355591311,-0.0495854063018,0.139250797795,0.521468892835,0.129936196124,0.0,0.0,0.381233458537
tagged_abstract_sents/17341709.txt,18,0.262268704747,0.0419568822554,0.139250797795,0.521468892835,0.129936196124,0.244217251912,0.0314676248333,0.76576261703
tagged_abstract_sents/17341709.txt,19,0.262268704747,0.0519071310116,0.139250797795,0.521468892835,0.129936196124,0.180103676061,0.0201214994814,0.71801564896
