tagged_abstract_sents/17341709.txt,2,0.0954875100725,-0.0515754560531,0.0616692308323,0.247294108221,0.129936196124,0.0,0.0,0.17109776473
tagged_abstract_sents/17341709.txt,3,0.0253827558421,0.0374792703151,0.188769469584,0.123191979006,0.129936196124,0.235116042919,0.0262867226121,0.527009210409
tagged_abstract_sents/17341709.txt,4,0.0253827558421,-0.0177446102819,0.188769469584,0.123191979006,0.129936196124,0.127249899269,0.0188824270262,0.359341508575
tagged_abstract_sents/17341709.txt,5,0.0805801772764,-0.0505804311774,0.0616692308323,0.247294108221,0.129936196124,0.0,0.0,0.159370903468
tagged_abstract_sents/17341709.txt,7,0.123690572119,-0.03864013267,0.0616692308323,0.247294108221,0.129936196124,0.0,0.0,0.196247279044
tagged_abstract_sents/17341709.txt,8,0.123690572119,0.0713101160862,0.188769469584,0.123191979006,0.129936196124,0.252566866921,0.0233367906356,0.558580964174
tagged_abstract_sents/17341709.txt,9,0.140209508461,-0.049087893864,0.0616692308323,0.247294108221,0.129936196124,0.0,0.0,0.207372875878
tagged_abstract_sents/17341709.txt,10,0.149073327961,-0.0157545605307,0.194899689933,0.293363477728,0.129936196124,0.184996974153,0.0543372680726,0.514779014107
tagged_abstract_sents/17341709.txt,11,0.149879129734,-0.0446102819237,0.0616692308323,0.247294108221,0.129936196124,0.0,0.0,0.216004095285
tagged_abstract_sents/17341709.txt,12,0.176470588235,0.0195688225539,0.139250797795,0.194462959676,0.129936196124,0.263389338652,0.0235533469346,0.559578956462
tagged_abstract_sents/17341709.txt,13,0.176470588235,-0.0515754560531,0.139250797795,0.194462959676,0.129936196124,0.0,0.0,0.258825666178
tagged_abstract_sents/17341709.txt,14,0.166800966962,0.0260364842454,0.139250797795,0.194462959676,0.129936196124,0.24071609934,0.0301834839729,0.546261323887
tagged_abstract_sents/17341709.txt,15,0.166800966962,0.00713101160862,0.139250797795,0.194462959676,0.129936196124,0.123481762756,0.0347088457549,0.395070497335
tagged_abstract_sents/17341709.txt,16,0.0954875100725,0.0728026533997,0.139250797795,0.194462959676,0.129936196124,0.242061302465,0.024349286314,0.4899212952
tagged_abstract_sents/17341709.txt,17,0.0954875100725,-0.0495854063018,0.139250797795,0.194462959676,0.129936196124,0.0,0.0,0.194437213598
tagged_abstract_sents/17341709.txt,18,0.0342465753425,0.0419568822554,0.139250797795,0.194462959676,0.129936196124,0.244217251912,0.0314676248333,0.380187002288
tagged_abstract_sents/17341709.txt,19,0.0342465753425,0.0519071310116,0.139250797795,0.194462959676,0.129936196124,0.180103676061,0.0201214994814,0.407084311927
