tagged_abstract_sents/17524711.txt,1,0.125905068383,-0.0476761775599,0.0616692308323,0.142474783506,0.0,0.0,0.0,0.164765869662
tagged_abstract_sents/17524711.txt,2,0.239742558327,0.0494496896354,0.188769469584,0.202456734834,0.336024479633,0.293183295928,0.0380399742102,1.0240534896
tagged_abstract_sents/17524711.txt,3,0.239742558327,-0.0491627979761,0.0616692308323,0.142474783506,0.0,0.0,0.0,0.255538537534
tagged_abstract_sents/17524711.txt,4,0.218020917136,-0.0119972875698,0.0616692308323,0.142474783506,0.0,0.0613841552311,0.0457909343201,0.352769416214
tagged_abstract_sents/17524711.txt,5,0.218020917136,-0.0442073965886,0.0616692308323,0.142474783506,0.0,0.0,0.0,0.239152304859
tagged_abstract_sents/17524711.txt,6,0.162510056315,-0.0139794481248,0.0616692308323,0.142474783506,0.135438125035,0.0995470129465,0.0324930619796,0.468267405857
tagged_abstract_sents/17524711.txt,7,0.162510056315,0.0281414636691,0.210342442448,0.226435992083,0.198167899416,0.147755259154,0.0411655874191,0.695827102623
tagged_abstract_sents/17524711.txt,8,0.101769911504,-0.0372698346461,0.0616692308323,0.142474783506,0.0,0.0,0.0,0.147539012742
tagged_abstract_sents/17524711.txt,9,0.101769911504,-0.0243857910385,0.0616692308323,0.142474783506,0.0853881093077,0.080466459396,0.0320305272895,0.348000917457
tagged_abstract_sents/17524711.txt,10,0.0711987127916,0.0241771425591,0.0616692308323,0.142474783506,0.131667241029,0.211867051369,0.0381801362375,0.517085877849
tagged_abstract_sents/17524711.txt,11,0.0711987127916,-0.0110062072923,0.139250797795,0.0356431803763,0.0,0.0782809511658,0.0246299722479,0.237987005199
tagged_abstract_sents/17524711.txt,12,0.0458567980692,-0.00605080590475,0.139250797795,0.0356431803763,0.0409654585865,0.129960045544,0.0298665257037,0.316585660118
tagged_abstract_sents/17524711.txt,13,0.0458567980692,-0.0486672578374,0.139250797795,0.0356431803763,0.0,0.0,0.0,0.107270339898
tagged_abstract_sents/17524711.txt,14,0.0245374094932,0.0851285796255,0.139250797795,0.0356431803763,0.0818796979261,0.260193185315,0.0431452358927,0.502192115664
tagged_abstract_sents/17524711.txt,15,0.0245374094932,0.0479630692191,0.139250797795,0.0356431803763,0.0533899022008,0.255586630642,0.0243388943826,0.442856321674
tagged_abstract_sents/17524711.txt,16,0.00844730490748,0.0831464190705,0.139250797795,0.0356431803763,0.113737515832,0.249053862827,0.0420906567993,0.508587516209
tagged_abstract_sents/17524711.txt,17,0.00844730490748,-0.0466850972824,0.139250797795,0.0356431803763,0.0,0.0,0.0,0.0777391774798
tagged_abstract_sents/17524711.txt,18,0.00120675784393,0.00683323770278,0.139250797795,0.0356431803763,0.16407667521,0.226909304376,0.0365201303141,0.510156516726
tagged_abstract_sents/17524711.txt,19,0.00120675784393,0.0162485003391,0.139250797795,0.0356431803763,0.0739116766324,0.142312648635,0.0272234703317,0.327981254952
