tagged_abstract_sents/17592905.txt,2,0.206355591311,-0.0508162190627,0.0616692308323,0.106008497564,0.0396314990587,0.0,0.0,0.217558393922
tagged_abstract_sents/17592905.txt,4,0.206355591311,-0.0493944181148,0.0616692308323,0.106008497564,0.0396314990587,0.0,0.0,0.217842754111
tagged_abstract_sents/17592905.txt,5,0.0048270313757,0.0359136387572,0.0616692308323,0.106008497564,0.0396314990587,0.334115683227,0.0414432030981,0.47744675951
tagged_abstract_sents/17592905.txt,6,0.0048270313757,0.00463401790416,0.0616692308323,0.106008497564,0.0396314990587,0.335325033599,0.0348733452308,0.47409779294
tagged_abstract_sents/17592905.txt,7,0.0108608205953,-0.0479726171669,0.0616692308323,0.106008497564,0.0396314990587,0.0,0.0,0.0617312977282
tagged_abstract_sents/17592905.txt,8,0.0108608205953,0.0501316482359,0.0616692308323,0.106008497564,0.0396314990587,0.376474552011,0.0393319660123,0.478985301106
tagged_abstract_sents/17592905.txt,9,0.0261464199517,-0.0479726171669,0.0616692308323,0.106008497564,0.0396314990587,0.0,0.0,0.0739597772133
tagged_abstract_sents/17592905.txt,10,0.0353982300885,-0.0304370721432,0.0616692308323,0.106008497564,0.0396314990587,0.176841628984,0.0394137798914,0.357237142653
tagged_abstract_sents/17592905.txt,11,0.0518905872888,-0.0484465508162,0.0616692308323,0.106008497564,0.0396314990587,0.0,0.0,0.0944603243531
tagged_abstract_sents/17592905.txt,12,0.0993563958166,0.0311743022643,0.139250797795,0.521468892835,0.0396314990587,0.27713255044,0.0330624392802,0.690029333606
tagged_abstract_sents/17592905.txt,14,0.172566371681,0.000368615060558,0.139250797795,0.521468892835,0.0396314990587,0.219344882243,0.0340746777029,0.635632644011
tagged_abstract_sents/17592905.txt,15,0.172566371681,0.0799894681411,0.139250797795,0.521468892835,0.0396314990587,0.313093668774,0.0462862584237,0.72699339693
tagged_abstract_sents/17592905.txt,16,0.206355591311,-0.0498683517641,0.0616692308323,0.106008497564,0.0396314990587,0.0,0.0,0.217747967382
tagged_abstract_sents/17592905.txt,17,0.206355591311,0.0193259610321,0.139250797795,0.521468892835,0.0396314990587,0.275624790974,0.0361581877342,0.775378141334
tagged_abstract_sents/17592905.txt,18,0.262268704747,-0.00342285413375,0.139250797795,0.521468892835,0.0396314990587,0.244462185421,0.0446562451526,0.758581507746
tagged_abstract_sents/17592905.txt,19,0.262268704747,0.0150605581885,0.139250797795,0.521468892835,0.0396314990587,0.287450533989,0.0377658180024,0.754230378032
