tagged_abstract_sents/17616342.txt,1,0.125905068383,-0.064479301102,0.0616692308323,0.142474783506,0.0,0.0,0.0,0.161405244954
tagged_abstract_sents/17616342.txt,2,0.239742558327,-0.00124094112975,0.188769469584,0.202456734834,0.161129087917,0.200865643126,0.0379698931965,0.746632237917
tagged_abstract_sents/17616342.txt,3,0.218020917136,-0.0658691551673,0.0616692308323,0.142474783506,0.0,0.0,0.0,0.234819953143
tagged_abstract_sents/17616342.txt,4,0.218020917136,-0.00819021145637,0.210342442448,0.226435992083,0.0,0.103380050899,0.0421214924453,0.491382253611
tagged_abstract_sents/17616342.txt,5,0.162510056315,-0.015139481783,0.0616692308323,0.142474783506,0.0249551983733,0.0455260687982,0.0283407619208,0.299379228256
tagged_abstract_sents/17616342.txt,6,0.101769911504,-0.017224262881,0.0616692308323,0.142474783506,0.133538268922,0.0958854734262,0.0253815911193,0.406353460563
tagged_abstract_sents/17616342.txt,7,0.0852775543041,-0.0213938250769,0.0616692308323,0.142474783506,0.0,0.090212639226,0.0217082947888,0.249441262911
tagged_abstract_sents/17616342.txt,8,0.0711987127916,0.0335054105033,0.0616692308323,0.142474783506,0.0,0.161819452577,0.031760715387,0.330817270766
tagged_abstract_sents/17616342.txt,9,0.0458567980692,-0.0658691551673,0.0616692308323,0.142474783506,0.0,0.0,0.0,0.0970886578898
tagged_abstract_sents/17616342.txt,10,0.0245374094932,-0.0102749925544,0.139250797795,0.0356431803763,0.105100767244,0.0957449138576,0.0429341024106,0.341673065607
tagged_abstract_sents/17616342.txt,11,0.0245374094932,0.00223369403356,0.139250797795,0.0356431803763,0.0,0.0924223501945,0.0244327148066,0.217250084413
tagged_abstract_sents/17616342.txt,12,0.00844730490748,0.104387967835,0.139250797795,0.0356431803763,0.0323629939524,0.130926460953,0.0409464920395,0.312189737448
tagged_abstract_sents/17616342.txt,13,0.00120675784393,0.0244713590787,0.139250797795,0.0356431803763,0.137365754964,0.123392983768,0.0485441169993,0.395480886833
tagged_abstract_sents/17616342.txt,14,0.00120675784393,0.105082894867,0.139250797795,0.0356431803763,0.143689113247,0.183726427391,0.0480693459417,0.477785224839
