tagged_abstract_sents/17666608.txt,2,0.0954875100725,-0.0388249337407,0.0616692308323,0.247294108221,0.0,0.0,0.0,0.173647869192
tagged_abstract_sents/17666608.txt,4,0.0253827558421,-0.0397555991664,0.0616692308323,0.247294108221,0.0,0.0,0.0,0.117377932723
tagged_abstract_sents/17666608.txt,5,0.0253827558421,0.00724300483541,0.0616692308323,0.247294108221,0.0,0.169131303896,0.0596372435008,0.345805087037
tagged_abstract_sents/17666608.txt,6,0.0805801772764,0.00212434499363,0.210342442448,0.141687475369,0.0,0.107378840783,0.0795437243059,0.4049649131
tagged_abstract_sents/17666608.txt,7,0.0805801772764,-0.000202318570822,0.0616692308323,0.247294108221,0.0,0.109561535226,0.0766634522662,0.364865846311
tagged_abstract_sents/17666608.txt,8,0.123690572119,0.00445100855808,0.0616692308323,0.247294108221,0.0,0.149209256393,0.0804572907679,0.41475049089
tagged_abstract_sents/17666608.txt,9,0.123690572119,-0.00206364942238,0.210342442448,0.141687475369,0.0,0.132448008947,0.0709355355602,0.388204532296
tagged_abstract_sents/17666608.txt,10,0.123690572119,0.0235296497866,0.0616692308323,0.247294108221,0.0,0.161529285102,0.0778084555651,0.387775582087
tagged_abstract_sents/17666608.txt,11,0.140209508461,0.00119367956785,0.0616692308323,0.247294108221,0.0,0.128046197627,0.0806945642796,0.255092424516
tagged_abstract_sents/17666608.txt,12,0.140209508461,-0.0397555991664,0.139250797795,0.194462959676,0.0,0.0,0.0,0.232180773736
tagged_abstract_sents/17666608.txt,13,0.149879129734,-0.012300969106,0.139250797795,0.194462959676,0.0,0.0671578244771,0.0703551912568,0.368374687792
tagged_abstract_sents/17666608.txt,14,0.149879129734,0.0779735771947,0.139250797795,0.194462959676,0.0,0.181951250705,0.0758716006775,0.411564275307
tagged_abstract_sents/17666608.txt,15,0.176470588235,0.017480324519,0.139250797795,0.194462959676,0.0,0.105139859246,0.057478556565,0.317530239331
tagged_abstract_sents/17666608.txt,16,0.176470588235,0.021668318935,0.139250797795,0.194462959676,0.0,0.100137381385,0.0820076574633,0.358119334675
tagged_abstract_sents/17666608.txt,17,0.176470588235,0.0709935865013,0.139250797795,0.194462959676,0.0,0.240896744074,0.0824345700316,0.57830591315
tagged_abstract_sents/17666608.txt,18,0.166800966962,-0.00252898213527,0.139250797795,0.194462959676,0.0,0.107067833916,0.0722336065574,0.417425420058
tagged_abstract_sents/17666608.txt,19,0.166800966962,0.00165901228074,0.139250797795,0.194462959676,0.0,0.142895742995,0.0713977566868,0.489367845035
tagged_abstract_sents/17666608.txt,20,0.0954875100725,-0.0383596010278,0.139250797795,0.194462959676,0.0,0.0,0.0,0.196682374653
tagged_abstract_sents/17666608.txt,21,0.0954875100725,-0.00345964756105,0.139250797795,0.194462959676,0.0,0.0846744835415,0.0847559472452,0.514354869739
tagged_abstract_sents/17666608.txt,22,0.0342465753425,-0.0304489449087,0.0616692308323,0.247294108221,0.0,0.0,0.0,0.126330319175
tagged_abstract_sents/17666608.txt,23,0.0342465753425,-0.00904364011573,0.139250797795,0.194462959676,0.0,0.0698022645607,0.0203741469919,0.102791619654
tagged_abstract_sents/17666608.txt,24,0.0342465753425,-0.0425475954438,0.0616692308323,0.247294108221,0.0,0.0,0.0,0.123910589068
