tagged_abstract_sents/17689623.txt,2,0.0805801772764,-0.149012074643,0.188769469584,0.123191979006,0.0399380673151,0.24157362478,0.0157388234243,0.412911961019
tagged_abstract_sents/17689623.txt,4,0.166800966962,0.0299121844127,0.188769469584,0.123191979006,0.0399380673151,0.477070165464,0.0266298707425,0.704287316102
tagged_abstract_sents/17689623.txt,5,0.0342465753425,-0.156695938529,0.188769469584,0.123191979006,0.0399380673151,0.184130376805,0.0131033449327,0.285716881783
