tagged_abstract_sents/17846141.txt,3,0.0048270313757,-0.0559593023256,0.188769469584,0.129715814208,0.0103968103861,0.117317399985,0.0376507005539,0.283204053504
tagged_abstract_sents/17846141.txt,5,0.0353982300885,-0.0639534883721,0.0616692308323,0.106008497564,0.0103968103861,0.123538746452,0.0167302052786,0.215202888776
tagged_abstract_sents/17846141.txt,6,0.0993563958166,-0.0857558139535,0.0616692308323,0.106008497564,0.0103968103861,0.0579160867688,0.0517933679224,0.253185358165
tagged_abstract_sents/17846141.txt,7,0.172566371681,-0.0486918604651,0.0616692308323,0.106008497564,0.0103968103861,0.0982146271902,0.0369328963257,0.321193966735
tagged_abstract_sents/17846141.txt,8,0.206355591311,0.078488372093,0.139250797795,0.521468892835,0.0103968103861,0.145246375356,0.0355238603039,0.581595865661
tagged_abstract_sents/17846141.txt,9,0.262268704747,0.0690406976744,0.139250797795,0.521468892835,0.0103968103861,0.239576362285,0.0436150359904,0.708367202211
