tagged_abstract_sents/18166543.txt,2,0.0954875100725,-0.053560371517,0.0616692308323,0.247294108221,0.231193527083,0.0,0.0,0.170700781637
tagged_abstract_sents/18166543.txt,4,0.0253827558421,0.056439628483,0.188769469584,0.123191979006,0.231193527083,0.260457485515,0.0739355056085,0.499535810171
tagged_abstract_sents/18166543.txt,5,0.0805801772764,-0.054613003096,0.0616692308323,0.247294108221,0.231193527083,0.0,0.0,0.158564389084
tagged_abstract_sents/18166543.txt,6,0.0805801772764,-0.00882352941176,0.210342442448,0.141687475369,0.231193527083,0.257449510828,0.0844826790904,0.539497800815
tagged_abstract_sents/18166543.txt,7,0.123690572119,0.045386996904,0.194899689933,0.293363477728,0.231193527083,0.326797920199,0.0933936067162,0.691516248454
tagged_abstract_sents/18166543.txt,8,0.140209508461,-0.054613003096,0.139250797795,0.194462959676,0.231193527083,0.0,0.0,0.22920929295
tagged_abstract_sents/18166543.txt,9,0.140209508461,0.0432817337461,0.139250797795,0.194462959676,0.231193527083,0.261948725279,0.0521252238236,0.581122785908
tagged_abstract_sents/18166543.txt,10,0.149879129734,-0.00513931888545,0.139250797795,0.194462959676,0.231193527083,0.20850469683,0.0591914076441,0.575563365001
tagged_abstract_sents/18166543.txt,11,0.149879129734,-0.0125077399381,0.139250797795,0.194462959676,0.231193527083,0.184998052175,0.065912682902,0.550039481625
tagged_abstract_sents/18166543.txt,12,0.176470588235,0.00486068111455,0.139250797795,0.194462959676,0.231193527083,0.153590927079,0.0740564873027,0.605939150622
tagged_abstract_sents/18166543.txt,13,0.166800966962,0.0401238390093,0.139250797795,0.194462959676,0.231193527083,0.267063164367,0.0769513018464,0.676862293447
tagged_abstract_sents/18166543.txt,14,0.166800966962,-0.0525077399381,0.139250797795,0.194462959676,0.231193527083,0.0,0.0,0.250903512382
tagged_abstract_sents/18166543.txt,15,0.0954875100725,0.046439628483,0.139250797795,0.194462959676,0.231193527083,0.301008135666,0.0780683815879,0.553661079366
tagged_abstract_sents/18166543.txt,16,0.0954875100725,0.00486068111455,0.139250797795,0.194462959676,0.231193527083,0.15648617843,0.0824137210583,0.449740574565
tagged_abstract_sents/18166543.txt,17,0.0342465753425,0.00275541795666,0.139250797795,0.194462959676,0.231193527083,0.220047548272,0.0621972876978,0.510603985783
tagged_abstract_sents/18166543.txt,18,0.0342465753425,-0.00724458204334,0.139250797795,0.194462959676,0.231193527083,0.169375058131,0.0604258601514,0.408470263199
