tagged_abstract_sents/18162929.txt,3,0.0805801772764,-0.035478128179,0.188769469584,0.123191979006,0.0254330417611,0.128752589901,0.0464460270912,0.295652545899
tagged_abstract_sents/18162929.txt,4,0.123690572119,0.0194557477111,0.188769469584,0.123191979006,0.0254330417611,0.168176632761,0.0493796526055,0.412169732663
tagged_abstract_sents/18162929.txt,5,0.149073327961,-0.0120803662258,0.188769469584,0.123191979006,0.0254330417611,0.15645051848,0.0369101572914,0.417627249718
tagged_abstract_sents/18162929.txt,6,0.176470588235,-0.0527721261445,0.188769469584,0.123191979006,0.0254330417611,0.0796389139331,0.0227531481801,0.329840986915
tagged_abstract_sents/18162929.txt,7,0.166800966962,0.0693031536114,0.188769469584,0.123191979006,0.0254330417611,0.207915914512,0.0423596564726,0.50344679307
tagged_abstract_sents/18162929.txt,8,0.0954875100725,-0.0151322482197,0.188769469584,0.123191979006,0.0254330417611,0.213701368024,0.0475073313783,0.447198308272
tagged_abstract_sents/18162929.txt,9,0.0342465753425,0.00114445574771,0.188769469584,0.123191979006,0.0254330417611,0.169498947683,0.0287448680352,0.286962774029
