tagged_abstract_sents/1856403.txt,2,0.0954875100725,0.0483720387443,0.188769469584,0.123191979006,0.0658253263287,0.226598951072,0.137572680287,0.569025786891
tagged_abstract_sents/1856403.txt,3,0.0253827558421,0.0284747345081,0.205068369407,0.0,0.0658253263287,0.189030287337,0.0778479424557,0.37726572982
tagged_abstract_sents/1856403.txt,5,0.123690572119,-0.0151709651068,0.139250797795,0.194462959676,0.0658253263287,0.192664758957,0.132453611962,0.535013372366
tagged_abstract_sents/1856403.txt,6,0.140209508461,-0.0485470883417,0.139250797795,0.194462959676,0.0658253263287,0.102445517374,0.099200357451,0.42855967489
tagged_abstract_sents/1856403.txt,7,0.149879129734,0.0304002800794,0.139250797795,0.194462959676,0.0658253263287,0.195601028898,0.137598277016,0.599958077599
tagged_abstract_sents/1856403.txt,8,0.176470588235,-0.0177383592018,0.139250797795,0.194462959676,0.0658253263287,0.168844474725,0.0921155347385,0.526785852632
tagged_abstract_sents/1856403.txt,9,0.166800966962,-0.035068269343,0.139250797795,0.194462959676,0.0658253263287,0.147079816001,0.103769376603,0.476804584456
tagged_abstract_sents/1856403.txt,10,0.0954875100725,-0.00682693429805,0.139250797795,0.194462959676,0.0658253263287,0.157092743502,0.0467774199844,0.418504914437
tagged_abstract_sents/1856403.txt,11,0.0342465753425,0.000233399463181,0.139250797795,0.194462959676,0.0658253263287,0.152245270832,0.0896943306011,0.375825354338
tagged_abstract_sents/1856403.txt,12,0.0342465753425,0.064418251838,0.139250797795,0.194462959676,0.0658253263287,0.236585694998,0.10887490242,0.525644436714
