tagged_abstract_sents/1856403.txt,1,0.125905068383,0.0483720387443,0.188769469584,0.202456734834,0.163126755754,0.226598951072,0.137572680287,0.792818604811
tagged_abstract_sents/1856403.txt,2,0.239742558327,0.0284747345081,0.205068369407,0.26003320229,0.0159998606495,0.189030287337,0.0778479424557,0.660911229396
tagged_abstract_sents/1856403.txt,3,0.218020917136,-0.0485470883417,0.194899689933,0.13295610691,0.253657831822,0.137547294096,0.134352274128,0.827601393125
tagged_abstract_sents/1856403.txt,4,0.162510056315,-0.0151709651068,0.139250797795,0.0356431803763,0.0728108862645,0.192664758957,0.132453611962,0.605221462225
tagged_abstract_sents/1856403.txt,5,0.101769911504,-0.0485470883417,0.139250797795,0.0356431803763,0.0133611184173,0.102445517374,0.099200357451,0.367031857788
tagged_abstract_sents/1856403.txt,6,0.0711987127916,0.0304002800794,0.139250797795,0.0356431803763,0.0945923099965,0.195601028898,0.137598277016,0.57114899517
tagged_abstract_sents/1856403.txt,7,0.0458567980692,-0.0177383592018,0.139250797795,0.0356431803763,0.0733443676322,0.168844474725,0.0921155347385,0.447760496721
tagged_abstract_sents/1856403.txt,8,0.0245374094932,-0.035068269343,0.139250797795,0.0356431803763,0.139397977962,0.147079816001,0.103769376603,0.483181797302
tagged_abstract_sents/1856403.txt,9,0.00844730490748,-0.00682693429805,0.139250797795,0.0356431803763,0.052725733314,0.157092743502,0.0467774199844,0.342306706877
tagged_abstract_sents/1856403.txt,10,0.00120675784393,0.000233399463181,0.139250797795,0.0356431803763,0.0202483010904,0.152245270832,0.0896943306011,0.343518341702
tagged_abstract_sents/1856403.txt,11,0.00120675784393,0.064418251838,0.139250797795,0.0356431803763,0.0658253263287,0.236585694998,0.10887490242,0.505453333399
