tagged_abstract_sents/18697868.txt,2,0.0954875100725,-0.0480938591516,0.0616692308323,0.247294108221,0.0575371283902,0.0,0.0,0.17179408411
tagged_abstract_sents/18697868.txt,4,0.0253827558421,-0.0469594292026,0.0616692308323,0.247294108221,0.0575371283902,0.0,0.0,0.115937166716
tagged_abstract_sents/18697868.txt,5,0.0805801772764,0.00182105860226,0.0616692308323,0.247294108221,0.0575371283902,0.157240212379,0.0518664047151,0.266941970708
tagged_abstract_sents/18697868.txt,6,0.0805801772764,-0.0452577842792,0.0616692308323,0.247294108221,0.0575371283902,0.0,0.0,0.160435432848
tagged_abstract_sents/18697868.txt,7,0.123690572119,0.0591097710243,0.0616692308323,0.247294108221,0.0575371283902,0.288388583047,0.0597530171204,0.421568548071
tagged_abstract_sents/18697868.txt,8,0.123690572119,-0.0435561393558,0.0616692308323,0.247294108221,0.0575371283902,0.0,0.0,0.195264077707
tagged_abstract_sents/18697868.txt,9,0.140209508461,-0.0282413350449,0.0616692308323,0.247294108221,0.0575371283902,0.0821626913271,0.056806062307,0.269660349689
tagged_abstract_sents/18697868.txt,10,0.140209508461,0.00692599337254,0.0616692308323,0.247294108221,0.0575371283902,0.160074090065,0.0571065361312,0.408077833077
tagged_abstract_sents/18697868.txt,11,0.149879129734,0.0681852106159,0.0616692308323,0.247294108221,0.0575371283902,0.211550389402,0.0582191362921,0.406403964089
tagged_abstract_sents/18697868.txt,12,0.149879129734,-0.0435561393558,0.0616692308323,0.247294108221,0.0575371283902,0.0,0.0,0.216214923799
tagged_abstract_sents/18697868.txt,13,0.176470588235,0.064781920769,0.0616692308323,0.247294108221,0.0575371283902,0.18453898064,0.0504490597811,0.416527289129
tagged_abstract_sents/18697868.txt,14,0.176470588235,0.00806042332149,0.0616692308323,0.247294108221,0.0575371283902,0.129591868514,0.0664367908264,0.292336106266
tagged_abstract_sents/18697868.txt,15,0.166800966962,-0.0441233543302,0.0616692308323,0.247294108221,0.0575371283902,0.0,0.0,0.229638950586
tagged_abstract_sents/18697868.txt,16,0.166800966962,0.00125384362779,0.0616692308323,0.247294108221,0.0575371283902,0.107136271151,0.064011066116,0.348254899686
tagged_abstract_sents/18697868.txt,17,0.0954875100725,0.0466310415858,0.0616692308323,0.247294108221,0.0575371283902,0.127446571825,0.0625711974377,0.281368519546
tagged_abstract_sents/18697868.txt,18,0.0954875100725,0.0562736961519,0.139250797795,0.194462959676,0.0575371283902,0.212442753016,0.053269716531,0.31791638537
tagged_abstract_sents/18697868.txt,19,0.0342465753425,-0.0458249992537,0.139250797795,0.194462959676,0.0575371283902,0.0,0.0,0.146196547223
tagged_abstract_sents/18697868.txt,20,0.0342465753425,0.0211063677344,0.139250797795,0.194462959676,0.0575371283902,0.153840387215,0.0565017652185,0.266870533029
