tagged_abstract_sents/1958976.txt,1,0.239742558327,-0.0211365211365,0.188769469584,0.202456734834,0.0094610003471,0.453717204254,0.0457985611511,0.851665263429
tagged_abstract_sents/1958976.txt,2,0.162510056315,0.04851004851,0.188769469584,0.202456734834,0.125417124299,0.420572687814,0.0518954067515,0.892717028861
tagged_abstract_sents/1958976.txt,3,0.0852775543041,-0.0647955647956,0.0616692308323,0.142474783506,0.0639981225312,0.215561814916,0.026506294964,0.434906213363
tagged_abstract_sents/1958976.txt,4,0.0458567980692,-0.026334026334,0.139250797795,0.0356431803763,0.0438948598221,0.280437023039,0.027943960621,0.464012829681
tagged_abstract_sents/1958976.txt,5,0.00844730490748,-0.040887040887,0.139250797795,0.0356431803763,0.0107690758042,0.286671810891,0.0259371450208,0.402276820475
tagged_abstract_sents/1958976.txt,6,0.00120675784393,0.104643104643,0.139250797795,0.0356431803763,0.00787464334282,0.514460635084,0.0612130984867,0.685760757128
