tagged_abstract_sents/1972071.txt,1,0.229283990346,0.0469959946595,0.188769469584,0.202456734834,0.0169706698157,0.282154932073,0.0470911479117,0.694164896252
tagged_abstract_sents/1972071.txt,2,0.118262268705,0.00961281708945,0.188769469584,0.202456734834,0.0976523988634,0.261396450286,0.0605446927374,0.671247675511
tagged_abstract_sents/1972071.txt,3,0.0571198712792,0.041655540721,0.188769469584,0.202456734834,0.0175181160064,0.335109757724,0.0608938547486,0.62267048889
tagged_abstract_sents/1972071.txt,4,0.0144810941271,-0.0558077436582,0.188769469584,0.202456734834,0.0159656417527,0.393628994709,0.0648942537909,0.630033972065
tagged_abstract_sents/1972071.txt,5,0.00120675784393,-0.0424566088117,0.188769469584,0.202456734834,0.0137904890978,0.294217694005,0.0446213179279,0.500225340786
