tagged_abstract_sents/2002132.txt,4,0.0353982300885,-0.00228310502283,0.139250797795,0.521468892835,0.142728761348,0.144157674696,0.0474841796574,0.440722886293
tagged_abstract_sents/2002132.txt,5,0.0993563958166,0.0114155251142,0.139250797795,0.521468892835,0.142728761348,0.0764325028525,0.040886532822,0.44422954303
tagged_abstract_sents/2002132.txt,6,0.206355591311,0.0182648401826,0.139250797795,0.521468892835,0.142728761348,0.10697613103,0.0504307184751,0.611436182973
tagged_abstract_sents/2002132.txt,7,0.262268704747,-0.0228310502283,0.139250797795,0.521468892835,0.142728761348,0.105271873758,0.0551686217009,0.668023697654
