tagged_abstract_sents/2007745.txt,3,0.0048270313757,-0.00185950413223,0.194899689933,0.0581677376677,0.0673909747677,0.167428156214,0.0123090219694,0.277930627182
tagged_abstract_sents/2007745.txt,4,0.0108608205953,0.110537190083,0.139250797795,0.521468892835,0.0673909747677,0.154446531525,0.00908225995316,0.440144592408
tagged_abstract_sents/2007745.txt,5,0.0353982300885,0.0940082644628,0.139250797795,0.521468892835,0.0673909747677,0.196845530416,0.0104156908665,0.463729933301
tagged_abstract_sents/2007745.txt,6,0.0993563958166,-0.0679752066116,0.139250797795,0.521468892835,0.0673909747677,0.0813528600465,0.0140881147541,0.417713189558
tagged_abstract_sents/2007745.txt,8,0.206355591311,-0.101033057851,0.139250797795,0.521468892835,0.0673909747677,0.0565187248854,0.0172391360916,0.442265554011
tagged_abstract_sents/2007745.txt,9,0.262268704747,-0.0407024793388,0.139250797795,0.521468892835,0.0673909747677,0.170767705414,0.0122950819672,0.636546806888
