tagged_abstract_sents/2040866.txt,3,0.0048270313757,0.0370060047479,0.139250797795,0.521468892835,0.0565193998533,0.221216494451,0.038913846461,0.518674001497
tagged_abstract_sents/2040866.txt,5,0.0518905872888,-0.0519480519481,0.139250797795,0.521468892835,0.0565193998533,0.253284492498,0.064652590596,0.570827176943
tagged_abstract_sents/2040866.txt,6,0.172566371681,-0.0177349532188,0.139250797795,0.521468892835,0.0565193998533,0.240513345171,0.0650593990217,0.733455466669
tagged_abstract_sents/2040866.txt,7,0.206355591311,-0.00795978215333,0.139250797795,0.521468892835,0.0565193998533,0.29671165382,0.0477892128836,0.740469734019
tagged_abstract_sents/2040866.txt,8,0.262268704747,-0.021645021645,0.139250797795,0.521468892835,0.0565193998533,0.194585602592,0.0574922631526,0.707866668015
