tagged_abstract_sents/2098372.txt,1,0.239742558327,0.0653661875428,0.210342442448,0.226435992083,0.0995543523571,0.440676846116,0.0413227005188,0.959523202011
tagged_abstract_sents/2098372.txt,2,0.162510056315,0.0561259411362,0.0616692308323,0.142474783506,0.0170260794223,0.421029299496,0.0397850713842,0.69265073405
tagged_abstract_sents/2098372.txt,3,0.0852775543041,-0.0342231348392,0.139250797795,0.0356431803763,0.0,0.218709197912,0.0348343662709,0.395239333669
tagged_abstract_sents/2098372.txt,4,0.0458567980692,0.0119780971937,0.139250797795,0.0356431803763,0.0209282352809,0.376598805123,0.043020788569,0.559947239877
tagged_abstract_sents/2098372.txt,5,0.00844730490748,-0.0958247775496,0.139250797795,0.0356431803763,0.0104411762234,0.124240577211,0.0232280027933,0.225820997654
tagged_abstract_sents/2098372.txt,6,0.00120675784393,-0.00342231348392,0.139250797795,0.0356431803763,0.018296584488,0.37791665015,0.0395565642458,0.516369095473
