tagged_abstract_sents/2144249.txt,3,0.131345688961,-0.0937093275488,0.0616692308323,0.247294108221,0.00548584308095,0.076818240151,0.0150171065494,0.161285060411
tagged_abstract_sents/2144249.txt,4,0.150684931507,-0.0308026030369,0.139250797795,0.194462959676,0.00548584308095,0.0756257910184,0.00395894428152,0.344946268747
tagged_abstract_sents/2144249.txt,5,0.131345688961,-0.0373101952278,0.139250797795,0.194462959676,0.00548584308095,0.14274953731,0.0287683284457,0.337548541712
tagged_abstract_sents/2144249.txt,6,0.0342465753425,0.0255965292842,0.139250797795,0.194462959676,0.00548584308095,0.110910457103,0.0221570544151,0.273454678767
