tagged_abstract_sents/2191938.txt,3,0.0048270313757,0.0546546546547,0.194899689933,0.0581677376677,0.00395825085464,0.346232370084,0.0499496808877,0.518373996691
tagged_abstract_sents/2191938.txt,4,0.0108608205953,-0.0363363363363,0.0616692308323,0.106008497564,0.00395825085464,0.218094221956,0.0306731614415,0.310806482731
tagged_abstract_sents/2191938.txt,5,0.0261464199517,-0.03003003003,0.139250797795,0.521468892835,0.00395825085464,0.283735470193,0.0578802972591,0.572555882988
tagged_abstract_sents/2191938.txt,6,0.0518905872888,-0.0309309309309,0.139250797795,0.521468892835,0.00395825085464,0.296448261814,0.0312635162474,0.583405848761
tagged_abstract_sents/2191938.txt,7,0.0993563958166,-0.039039039039,0.139250797795,0.521468892835,0.00395825085464,0.220677639858,0.030980162355,0.540932880405
tagged_abstract_sents/2191938.txt,9,0.206355591311,0.0870870870871,0.139250797795,0.521468892835,0.00395825085464,0.323578935173,0.0419285885518,0.754377582087
tagged_abstract_sents/2191938.txt,10,0.262268704747,-0.012012012012,0.139250797795,0.521468892835,0.00395825085464,0.222772635506,0.0285715516796,0.662241768815
