tagged_abstract_sents/2216619.txt,3,0.131345688961,-0.123399790136,0.0616692308323,0.247294108221,0.151168753464,0.207656663197,0.0517138827048,0.368224386187
tagged_abstract_sents/2216619.txt,4,0.150684931507,-0.0604407135362,0.139250797795,0.194462959676,0.151168753464,0.331668574743,0.0768920295075,0.67371499985
tagged_abstract_sents/2216619.txt,5,0.131345688961,0.212381951731,0.139250797795,0.194462959676,0.151168753464,0.453759298435,0.0866921905992,0.827542806402
tagged_abstract_sents/2216619.txt,6,0.0342465753425,-0.0268625393494,0.139250797795,0.194462959676,0.151168753464,0.442155341515,0.0656856866092,0.659738704936
