tagged_abstract_sents/2216619.txt,1,0.229283990346,-0.00167890870934,0.210342442448,0.226435992083,0.0955448114864,0.464427310398,0.0807232805941,0.996888831862
tagged_abstract_sents/2216619.txt,2,0.118262268705,-0.123399790136,0.0616692308323,0.142474783506,0.0,0.207656663197,0.0517138827048,0.402877453307
tagged_abstract_sents/2216619.txt,3,0.0571198712792,-0.0604407135362,0.139250797795,0.0356431803763,0.138009705285,0.331668574743,0.0768920295075,0.660496416861
tagged_abstract_sents/2216619.txt,4,0.0144810941271,0.212381951731,0.139250797795,0.0356431803763,0.134257706301,0.453759298435,0.0866921905992,0.809088813994
tagged_abstract_sents/2216619.txt,5,0.00120675784393,-0.0268625393494,0.139250797795,0.0356431803763,0.151168753464,0.442155341515,0.0656856866092,0.734921033004
