tagged_abstract_sents/2233931.txt,2,0.0954875100725,-0.0495707895055,0.0616692308323,0.247294108221,0.358537244682,0.0,0.0,0.171498698039
tagged_abstract_sents/2233931.txt,4,0.0253827558421,-0.00223673074598,0.188769469584,0.123191979006,0.358537244682,0.143537190756,0.117527810304,0.456229662556
tagged_abstract_sents/2233931.txt,5,0.0805801772764,-0.0512029984282,0.0616692308323,0.247294108221,0.358537244682,0.0,0.0,0.159246390018
tagged_abstract_sents/2233931.txt,6,0.0805801772764,0.0478176762181,0.210342442448,0.141687475369,0.358537244682,0.198316339583,0.142770405065,0.473198683342
tagged_abstract_sents/2233931.txt,7,0.123690572119,-0.0152944021279,0.0616692308323,0.247294108221,0.358537244682,0.11450240509,0.117569568811,0.513717039184
tagged_abstract_sents/2233931.txt,8,0.123690572119,-0.0512029984282,0.0616692308323,0.247294108221,0.358537244682,0.0,0.0,0.193734705892
tagged_abstract_sents/2233931.txt,9,0.140209508461,0.023334542377,0.139250797795,0.194462959676,0.358537244682,0.219393843074,0.107486069612,0.613842023881
tagged_abstract_sents/2233931.txt,10,0.149073327961,-0.00767742715512,0.139250797795,0.194462959676,0.358537244682,0.12613274249,0.11091595108,0.550658150948
tagged_abstract_sents/2233931.txt,11,0.149879129734,-0.00386893966872,0.139250797795,0.194462959676,0.358537244682,0.16480589691,0.0899793809184,0.596859015478
tagged_abstract_sents/2233931.txt,12,0.176470588235,0.115826381332,0.139250797795,0.194462959676,0.358537244682,0.194425833409,0.122855116195,0.595204527536
tagged_abstract_sents/2233931.txt,13,0.176470588235,-0.0381453270463,0.139250797795,0.194462959676,0.358537244682,0.040866013436,0.0120156482861,0.291552129352
tagged_abstract_sents/2233931.txt,14,0.166800966962,0.0668601136501,0.139250797795,0.194462959676,0.358537244682,0.180775573851,0.0993208430913,0.524564930767
tagged_abstract_sents/2233931.txt,15,0.166800966962,-0.0310724217144,0.139250797795,0.194462959676,0.358537244682,0.0485253966117,0.026212431694,0.318948647652
tagged_abstract_sents/2233931.txt,16,0.0954875100725,0.00755652279047,0.139250797795,0.194462959676,0.358537244682,0.156177499061,0.0677571233411,0.365057183093
tagged_abstract_sents/2233931.txt,17,0.0954875100725,-0.000604521823238,0.139250797795,0.194462959676,0.358537244682,0.149981439561,0.101168298914,0.542892070743
tagged_abstract_sents/2233931.txt,18,0.0342465753425,-0.0490267198646,0.139250797795,0.194462959676,0.358537244682,0.0,0.0,0.145556203101
tagged_abstract_sents/2233931.txt,19,0.0342465753425,0.0396566316044,0.139250797795,0.194462959676,0.358537244682,0.244022938995,0.124881074356,0.516024427727
