tagged_abstract_sents/2329430.txt,3,0.123690572119,-0.100788288288,0.188769469584,0.123191979006,0.0115013287829,0.145238437888,0.0655042514261,0.43983787007
tagged_abstract_sents/2329430.txt,4,0.149073327961,0.146677927928,0.139250797795,0.194462959676,0.0115013287829,0.410861485081,0.0757668711656,0.807395229644
tagged_abstract_sents/2329430.txt,5,0.176470588235,0.0689752252252,0.139250797795,0.194462959676,0.0115013287829,0.342024887618,0.0664467918262,0.70474602919
tagged_abstract_sents/2329430.txt,6,0.0954875100725,-0.080518018018,0.139250797795,0.194462959676,0.0115013287829,0.246033915476,0.0773482786721,0.48093641582
tagged_abstract_sents/2329430.txt,7,0.0342465753425,-0.0154842342342,0.139250797795,0.194462959676,0.0115013287829,0.354880599294,0.0877808016975,0.565306123256
