tagged_abstract_sents/2329430.txt,1,0.239742558327,-0.0188626126126,0.188769469584,0.202456734834,0.0753996151578,0.417511883664,0.074460499408,0.910515277611
tagged_abstract_sents/2329430.txt,2,0.162510056315,-0.100788288288,0.188769469584,0.202456734834,0.121635299759,0.145238437888,0.0655042514261,0.59735013171
tagged_abstract_sents/2329430.txt,3,0.0852775543041,0.146677927928,0.139250797795,0.0356431803763,0.130827743489,0.410861485081,0.0757668711656,0.795332081775
tagged_abstract_sents/2329430.txt,4,0.0458567980692,0.0689752252252,0.139250797795,0.0356431803763,0.0772631940093,0.342024887618,0.0664467918262,0.616533709964
tagged_abstract_sents/2329430.txt,5,0.00844730490748,-0.080518018018,0.139250797795,0.0356431803763,0.009500843345,0.246033915476,0.0773482786721,0.403855630826
tagged_abstract_sents/2329430.txt,6,0.00120675784393,-0.0154842342342,0.139250797795,0.0356431803763,0.0115013287829,0.354880599294,0.0877808016975,0.532349642213
