tagged_abstract_sents/2589384.txt,1,0.250201126307,0.013834422658,0.210342442448,0.226435992083,0.146183677868,0.600909351029,0.0380186851644,1.16114151849
tagged_abstract_sents/2589384.txt,2,0.229283990346,0.061220043573,0.0616692308323,0.142474783506,0.00765788836907,0.432123379111,0.0517148898054,0.760744408745
tagged_abstract_sents/2589384.txt,3,0.206757843926,-0.0765795206972,0.0616692308323,0.142474783506,0.044183714209,0.231108299263,0.0431220135945,0.542081448535
tagged_abstract_sents/2589384.txt,4,0.118262268705,0.112418300654,0.0616692308323,0.142474783506,0.00134065645325,0.302903652148,0.048218093832,0.543132927996
tagged_abstract_sents/2589384.txt,5,0.0852775543041,-0.0123093681917,0.194899689933,0.13295610691,0.0,0.350967301051,0.0525674180433,0.606631565939
tagged_abstract_sents/2589384.txt,6,0.0571198712792,-0.0335511982571,0.0616692308323,0.142474783506,0.0130033839566,0.271792243214,0.0316455234762,0.429003858486
tagged_abstract_sents/2589384.txt,7,0.0345937248592,-0.0242919389978,0.0616692308323,0.142474783506,0.00336536618436,0.344450534188,0.0436351706037,0.487844713531
tagged_abstract_sents/2589384.txt,8,0.0144810941271,-0.00631808278867,0.0616692308323,0.142474783506,0.00172332347453,0.241982101921,0.0458181909954,0.373421925602
tagged_abstract_sents/2589384.txt,9,0.00120675784393,-0.0117647058824,0.139250797795,0.0356431803763,0.0227034590068,0.4193419804,0.0369559273841,0.5579321849
tagged_abstract_sents/2589384.txt,10,0.00120675784393,-0.0226579520697,0.139250797795,0.0356431803763,0.0215587484463,0.448762292928,0.0381931425239,0.58526635277
