tagged_abstract_sents/2664509.txt,1,0.250201126307,0.029265770424,0.188769469584,0.202456734834,0.0518756962569,0.367093412331,0.0735012491616,0.853606168123
tagged_abstract_sents/2664509.txt,2,0.229283990346,-0.0457083764219,0.210342442448,0.226435992083,0.0283360368493,0.285620325182,0.0424807279161,0.703824625789
tagged_abstract_sents/2664509.txt,3,0.206757843926,-0.0307135470527,0.0616692308323,0.142474783506,0.0,0.28947551542,0.0356315406233,0.557947672241
tagged_abstract_sents/2664509.txt,4,0.118262268705,0.0308169596691,0.139250797795,0.0356431803763,0.0409685716169,0.377151949508,0.0660376033812,0.665249684414
tagged_abstract_sents/2664509.txt,5,0.0852775543041,0.029265770424,0.139250797795,0.0356431803763,0.071524671746,0.368061478237,0.0522431441931,0.646222844714
tagged_abstract_sents/2664509.txt,6,0.0571198712792,-0.0208893485005,0.139250797795,0.0356431803763,0.0209212727435,0.293812724508,0.0558629443019,0.492433321887
tagged_abstract_sents/2664509.txt,7,0.0345937248592,-0.0250258531541,0.139250797795,0.0356431803763,0.00743096585036,0.350643392663,0.0572184039895,0.51828092477
tagged_abstract_sents/2664509.txt,8,0.0144810941271,-0.0534643226474,0.139250797795,0.0356431803763,0.00190646573136,0.215629502662,0.0888253506887,0.387571682865
tagged_abstract_sents/2664509.txt,9,0.00120675784393,0.0277145811789,0.139250797795,0.0356431803763,0.0497976967382,0.313458577048,0.0751872263034,0.52527017561
tagged_abstract_sents/2664509.txt,10,0.00120675784393,0.0587383660807,0.139250797795,0.0356431803763,0.0506139755744,0.48260805409,0.0602882100418,0.686541672207
