tagged_abstract_sents/2946314.txt,3,0.0253827558421,-0.0301105428147,0.188769469584,0.123191979006,0.053574796442,0.0931937983336,0.0314411395057,0.207417685699
tagged_abstract_sents/2946314.txt,4,0.0805801772764,-0.0419072760271,0.0616692308323,0.247294108221,0.053574796442,0.0966849010319,0.0260997067449,0.219949591832
tagged_abstract_sents/2946314.txt,5,0.123690572119,-0.0500742451741,0.0616692308323,0.247294108221,0.053574796442,0.0524342440225,0.0102639296188,0.158331264771
tagged_abstract_sents/2946314.txt,6,0.140209508461,-0.0310179838311,0.139250797795,0.194462959676,0.053574796442,0.071614178562,0.0310117302053,0.336883673647
tagged_abstract_sents/2946314.txt,7,0.149879129734,-0.0310179838311,0.139250797795,0.194462959676,0.053574796442,0.0492235359526,0.014853372434,0.345957420853
tagged_abstract_sents/2946314.txt,8,0.176470588235,0.0197987130836,0.139250797795,0.194462959676,0.053574796442,0.172560868946,0.0404182073186,0.303514875943
tagged_abstract_sents/2946314.txt,9,0.166800966962,-0.0391849529781,0.139250797795,0.194462959676,0.053574796442,0.0512962381905,0.0248452264581,0.262045481018
tagged_abstract_sents/2946314.txt,10,0.0954875100725,0.00527965682231,0.139250797795,0.194462959676,0.053574796442,0.148255515969,0.0343768328446,0.439077896281
tagged_abstract_sents/2946314.txt,11,0.0342465753425,0.0461145025573,0.139250797795,0.194462959676,0.053574796442,0.193573619899,0.042008797654,0.282821152964
tagged_abstract_sents/2946314.txt,12,0.0342465753425,0.0306880052797,0.139250797795,0.194462959676,0.053574796442,0.155305108601,0.0320625610948,0.300048075707
