tagged_abstract_sents/2995463.txt,2,0.206355591311,0.0110197760305,0.188769469584,0.129715814208,0.100613530745,0.137017676947,0.0159891825583,0.452284593364
tagged_abstract_sents/2995463.txt,3,0.206355591311,-0.00256135334763,0.188769469584,0.129715814208,0.100613530745,0.135700533686,0.0400591643042,0.495833856328
tagged_abstract_sents/2995463.txt,5,0.0108608205953,-0.0082797236121,0.0616692308323,0.106008497564,0.100613530745,0.190175053733,0.0555718188915,0.315388038509
tagged_abstract_sents/2995463.txt,6,0.0261464199517,-0.00685013104599,0.0616692308323,0.106008497564,0.100613530745,0.129868492439,0.0271246764452,0.25868964367
tagged_abstract_sents/2995463.txt,7,0.0353982300885,-0.0518822968787,0.0616692308323,0.106008497564,0.100613530745,0.0811980782828,0.0339691046658,0.198510587416
tagged_abstract_sents/2995463.txt,8,0.0518905872888,-0.0082797236121,0.139250797795,0.521468892835,0.100613530745,0.106223213345,0.0285787470726,0.402871322853
tagged_abstract_sents/2995463.txt,9,0.0993563958166,-0.042589945199,0.139250797795,0.521468892835,0.100613530745,0.061581004875,0.0196989656518,0.374936739945
tagged_abstract_sents/2995463.txt,11,0.206355591311,0.0253157016917,0.139250797795,0.521468892835,0.100613530745,0.175742974352,0.0274984726606,0.649814189781
tagged_abstract_sents/2995463.txt,12,0.262268704747,0.0517631641649,0.139250797795,0.521468892835,0.100613530745,0.216235975738,0.0455942622951,0.72050024261
tagged_abstract_sents/2995463.txt,13,0.262268704747,0.0195973314272,0.139250797795,0.521468892835,0.100613530745,0.17856515225,0.0277848487934,0.665092015852
