tagged_abstract_sents/3186087.txt,1,0.239742558327,-0.0365013774105,0.210342442448,0.226435992083,0.188604497378,0.0944195679191,0.0354105571848,0.67603041251
tagged_abstract_sents/3186087.txt,2,0.162510056315,0.017217630854,0.194899689933,0.13295610691,0.112323156393,0.117091841922,0.0124005027231,0.512603749301
tagged_abstract_sents/3186087.txt,3,0.0852775543041,0.0378787878788,0.139250797795,0.0356431803763,0.0468452119364,0.126110635702,0.0224759111856,0.351547912853
tagged_abstract_sents/3186087.txt,4,0.0458567980692,-0.034435261708,0.139250797795,0.0356431803763,0.0918740047816,0.0697042720354,0.034594941349,0.30628995729
tagged_abstract_sents/3186087.txt,5,0.00844730490748,0.0874655647383,0.139250797795,0.0356431803763,0.0401564356205,0.108461044398,0.0248417965735,0.278028586476
tagged_abstract_sents/3186087.txt,6,0.00120675784393,-0.0716253443526,0.139250797795,0.0356431803763,0.0920254520256,0.0851551104928,0.0268242194238,0.270963472357
