tagged_abstract_sents/3279083.txt,3,0.0048270313757,-0.000544563441641,0.139250797795,0.521468892835,0.016209362428,0.159696658042,0.0426300354993,0.429433590195
tagged_abstract_sents/3279083.txt,4,0.0261464199517,-0.00308585950263,0.139250797795,0.521468892835,0.016209362428,0.140488020956,0.0235092864125,0.416492613168
tagged_abstract_sents/3279083.txt,5,0.0518905872888,0.0197858050463,0.139250797795,0.521468892835,0.016209362428,0.124453599237,0.029687769536,0.427579258639
tagged_abstract_sents/3279083.txt,7,0.206355591311,0.00580867671084,0.139250797795,0.521468892835,0.016209362428,0.139148582738,0.0341072010427,0.574597420773
tagged_abstract_sents/3279083.txt,8,0.262268704747,-0.00435650753313,0.139250797795,0.521468892835,0.016209362428,0.131786939125,0.0422287390029,0.613065898812
