tagged_abstract_sents/3392508.txt,1,0.239742558327,0.0429929266136,0.210342442448,0.226435992083,0.0645932107304,0.342743338921,0.0451518477863,0.825983048271
tagged_abstract_sents/3392508.txt,2,0.218020917136,-0.0180150309461,0.194899689933,0.13295610691,0.101542337138,0.336031504505,0.0515082070342,0.797232453236
tagged_abstract_sents/3392508.txt,3,0.162510056315,-0.0383510167993,0.0616692308323,0.142474783506,0.110319602685,0.281338752859,0.0479326747164,0.635505922421
tagged_abstract_sents/3392508.txt,4,0.0852775543041,-0.0162466843501,0.194899689933,0.13295610691,0.0571017497284,0.271676008821,0.0381220270765,0.569209169239
tagged_abstract_sents/3392508.txt,5,0.0458567980692,-0.0516136162688,0.0616692308323,0.142474783506,0.0482356536146,0.322306099963,0.0466655825236,0.517147101771
tagged_abstract_sents/3392508.txt,6,0.0245374094932,-0.0560344827586,0.0616692308323,0.142474783506,0.0,0.200585051968,0.0365804460206,0.3191655795
tagged_abstract_sents/3392508.txt,7,0.00844730490748,0.0818965517241,0.139250797795,0.0356431803763,0.0347553675831,0.356918339534,0.0348300315369,0.529959245936
tagged_abstract_sents/3392508.txt,8,0.00120675784393,0.0553713527851,0.139250797795,0.0356431803763,0.0902130024882,0.423558844147,0.0472057567996,0.653335633277
