tagged_abstract_sents/3392508.txt,3,0.0805801772764,-0.0180150309461,0.194899689933,0.293363477728,0.0902130024882,0.336031504505,0.0515082070342,0.619638042119
tagged_abstract_sents/3392508.txt,4,0.123690572119,-0.0383510167993,0.0616692308323,0.247294108221,0.0902130024882,0.281338752859,0.0479326747164,0.550178062732
tagged_abstract_sents/3392508.txt,5,0.149073327961,-0.0162466843501,0.194899689933,0.293363477728,0.0902130024882,0.271676008821,0.0381220270765,0.609572323448
tagged_abstract_sents/3392508.txt,6,0.176470588235,-0.0516136162688,0.0616692308323,0.247294108221,0.0902130024882,0.322306099963,0.0466655825236,0.536007956013
tagged_abstract_sents/3392508.txt,7,0.166800966962,-0.0560344827586,0.0616692308323,0.247294108221,0.0902130024882,0.200585051968,0.0365804460206,0.423319123117
tagged_abstract_sents/3392508.txt,8,0.0954875100725,0.0818965517241,0.139250797795,0.194462959676,0.0902130024882,0.356918339534,0.0348300315369,0.570210180066
tagged_abstract_sents/3392508.txt,9,0.0342465753425,0.0553713527851,0.139250797795,0.194462959676,0.0902130024882,0.423558844147,0.0472057567996,0.565597237576
