tagged_abstract_sents/344087.txt,3,0.131345688961,0.0410256410256,0.139250797795,0.194462959676,0.105803552299,0.328723168253,0.0330513764507,0.551209960569
tagged_abstract_sents/344087.txt,4,0.150684931507,0.0294871794872,0.139250797795,0.194462959676,0.105803552299,0.379228023155,0.0293645337961,0.605586551856
tagged_abstract_sents/344087.txt,5,0.131345688961,-0.112820512821,0.139250797795,0.194462959676,0.105803552299,0.178438343822,0.0234764137123,0.368060165229
tagged_abstract_sents/344087.txt,6,0.0342465753425,-0.0102564102564,0.139250797795,0.194462959676,0.105803552299,0.369805462425,0.0357823029593,0.566193734487
