tagged_abstract_sents/3515920.txt,3,0.0108608205953,-0.0559748427673,0.139250797795,0.521468892835,0.202848940649,0.0530390343916,0.00777126099707,0.284350102283
tagged_abstract_sents/3515920.txt,4,0.0353982300885,0.00062893081761,0.139250797795,0.521468892835,0.202848940649,0.125172635743,0.0207885304659,0.393651613449
tagged_abstract_sents/3515920.txt,5,0.0993563958166,0.0383647798742,0.139250797795,0.521468892835,0.202848940649,0.1520018464,0.0222245496439,0.492630039902
tagged_abstract_sents/3515920.txt,6,0.206355591311,-0.0761006289308,0.139250797795,0.521468892835,0.202848940649,0.0767865739996,0.0113241597113,0.463541543085
