tagged_abstract_sents/3517206.txt,4,0.0048270313757,-0.0350838803793,0.0616692308323,0.106008497564,0.115138231415,0.0935782029639,0.0627107771261,0.286560408163
tagged_abstract_sents/3517206.txt,5,0.016894609815,-0.00955506929249,0.139250797795,0.521468892835,0.115138231415,0.119854444313,0.0611583577713,0.472608658206
tagged_abstract_sents/3517206.txt,6,0.0353982300885,-0.0234135667396,0.139250797795,0.521468892835,0.115138231415,0.077881078871,0.0626392961877,0.423080493137
tagged_abstract_sents/3517206.txt,7,0.0683829444891,-0.00444930707513,0.139250797795,0.521468892835,0.115138231415,0.082888753107,0.0429199832426,0.401339377999
tagged_abstract_sents/3517206.txt,8,0.130329847144,-0.0496717724289,0.139250797795,0.521468892835,0.115138231415,0.0829185406218,0.0639086719732,0.473813766971
tagged_abstract_sents/3517206.txt,9,0.214802896219,0.0137855579869,0.139250797795,0.521468892835,0.115138231415,0.148548154987,0.0495934417489,0.581356660161
tagged_abstract_sents/3517206.txt,10,0.262268704747,0.0305616338439,0.139250797795,0.521468892835,0.115138231415,0.0995204688785,0.0340434707607,0.572309009899
tagged_abstract_sents/3517206.txt,11,0.262268704747,-0.00444930707513,0.139250797795,0.521468892835,0.115138231415,0.15728476964,0.0708150048876,0.715411521645
