tagged_abstract_sents/3517206.txt,3,0.0451248992748,0.112253829322,0.210342442448,0.141687475369,0.115138231415,0.19091959802,0.0700408462505,0.476260995544
tagged_abstract_sents/3517206.txt,4,0.116035455278,-0.0350838803793,0.0616692308323,0.247294108221,0.115138231415,0.0935782029639,0.0627107771261,0.364977628963
tagged_abstract_sents/3517206.txt,5,0.131345688961,-0.00955506929249,0.139250797795,0.194462959676,0.115138231415,0.119854444313,0.0611583577713,0.402680060099
tagged_abstract_sents/3517206.txt,6,0.149073327961,-0.0234135667396,0.139250797795,0.194462959676,0.115138231415,0.077881078871,0.0626392961877,0.378036372222
tagged_abstract_sents/3517206.txt,7,0.150684931507,-0.00444930707513,0.139250797795,0.194462959676,0.115138231415,0.082888753107,0.0429199832426,0.350104298209
tagged_abstract_sents/3517206.txt,8,0.202256244964,-0.0496717724289,0.139250797795,0.194462959676,0.115138231415,0.0829185406218,0.0639086719732,0.405359883231
tagged_abstract_sents/3517206.txt,9,0.131345688961,0.0137855579869,0.139250797795,0.194462959676,0.115138231415,0.148548154987,0.0495934417489,0.384425590737
tagged_abstract_sents/3517206.txt,10,0.0342465753425,0.0305616338439,0.139250797795,0.194462959676,0.115138231415,0.0995204688785,0.0340434707607,0.284870710323
tagged_abstract_sents/3517206.txt,11,0.0342465753425,-0.00444930707513,0.139250797795,0.194462959676,0.115138231415,0.15728476964,0.0708150048876,0.386657231307
