tagged_abstract_sents/361152.txt,3,0.123690572119,-0.0344827586207,0.139250797795,0.194462959676,0.0,0.273392289647,0.0453962789335,0.448250180915
tagged_abstract_sents/361152.txt,4,0.149073327961,-0.0114942528736,0.139250797795,0.194462959676,0.0,0.248913582003,0.0441153792774,0.465296603332
tagged_abstract_sents/361152.txt,5,0.176470588235,0.0712643678161,0.139250797795,0.194462959676,0.0,0.458150162102,0.0411070574558,0.744457273346
tagged_abstract_sents/361152.txt,6,0.0954875100725,-0.0609195402299,0.139250797795,0.194462959676,0.0,0.221751761959,0.0219575670878,0.422797794904
tagged_abstract_sents/361152.txt,7,0.0342465753425,0.0344827586207,0.139250797795,0.194462959676,0.0,0.248269353589,0.0396664456336,0.403893259303
