tagged_abstract_sents/3935901.txt,3,0.123690572119,0.026158445441,0.0616692308323,0.247294108221,0.0734822936778,0.200411767138,0.107525307849,0.424205514934
tagged_abstract_sents/3935901.txt,4,0.149073327961,-0.0680119581465,0.0616692308323,0.247294108221,0.0734822936778,0.122556979324,0.0947292851567,0.35739026143
tagged_abstract_sents/3935901.txt,5,0.176470588235,0.026158445441,0.139250797795,0.194462959676,0.0734822936778,0.155787527912,0.0593735362998,0.397954427655
tagged_abstract_sents/3935901.txt,6,0.0954875100725,0.0340059790732,0.139250797795,0.194462959676,0.0734822936778,0.16106082554,0.10880713852,0.437097142024
tagged_abstract_sents/3935901.txt,7,0.0342465753425,-0.0848281016442,0.139250797795,0.194462959676,0.0734822936778,0.119481635383,0.131725702576,0.37869129284
