tagged_abstract_sents/3969339.txt,1,0.239742558327,0.00882649630128,0.210342442448,0.226435992083,0.0171578196966,0.643918336928,0.0464910730069,1.0742285944
tagged_abstract_sents/3969339.txt,2,0.218020917136,0.0881809011432,0.194899689933,0.13295610691,0.010361765789,1.03003393443,0.030973928265,1.40075921946
tagged_abstract_sents/3969339.txt,3,0.162510056315,-0.0147108271688,0.139250797795,0.0356431803763,0.0168462345716,0.611594079783,0.0276047374934,0.863429284477
tagged_abstract_sents/3969339.txt,4,0.0852775543041,-0.00260591795562,0.139250797795,0.0356431803763,0.0,0.500405818607,0.034313009661,0.682738041131
tagged_abstract_sents/3969339.txt,5,0.0458567980692,-0.0395931405514,0.139250797795,0.0356431803763,0.00271798830365,0.428758788836,0.0323573368473,0.572919277342
tagged_abstract_sents/3969339.txt,6,0.0245374094932,0.0545561533289,0.139250797795,0.0356431803763,0.0149086797835,0.720086007184,0.0308404252633,0.876694623501
tagged_abstract_sents/3969339.txt,7,0.00844730490748,-0.0819603227976,0.139250797795,0.0356431803763,0.00540567293647,0.416461776598,0.021231264479,0.51378284639
tagged_abstract_sents/3969339.txt,8,0.00120675784393,-0.0126933422999,0.139250797795,0.0356431803763,0.0193941097776,0.589667421816,0.0380841979304,0.72589082035
