tagged_abstract_sents/4023162.txt,2,0.0253827558421,0.000599232981783,0.210342442448,0.141687475369,0.106128746229,0.169829823071,0.0880102040816,0.355562644865
tagged_abstract_sents/4023162.txt,4,0.123690572119,-0.0233700862895,0.194899689933,0.293363477728,0.106128746229,0.126849795975,0.0542778230323,0.452200214286
tagged_abstract_sents/4023162.txt,5,0.149073327961,-0.0319990412272,0.0616692308323,0.247294108221,0.106128746229,0.121578597637,0.0765714817969,0.342567016037
tagged_abstract_sents/4023162.txt,6,0.176470588235,0.0207334611697,0.139250797795,0.194462959676,0.106128746229,0.203188143513,0.13031323185,0.581531882602
tagged_abstract_sents/4023162.txt,7,0.166800966962,0.0399089165868,0.139250797795,0.194462959676,0.106128746229,0.146999217518,0.0879134953162,0.500909727513
tagged_abstract_sents/4023162.txt,8,0.0954875100725,-0.00707094918504,0.139250797795,0.194462959676,0.106128746229,0.167652734687,0.0887509007386,0.531710894325
tagged_abstract_sents/4023162.txt,9,0.0342465753425,-0.00611217641419,0.139250797795,0.194462959676,0.106128746229,0.178397200995,0.101185055078,0.462338701811
