tagged_abstract_sents/4396080.txt,1,0.239742558327,0.050654853621,0.188769469584,0.202456734834,0.0877837802662,0.474947889854,0.0262987330084,0.946077175757
tagged_abstract_sents/4396080.txt,2,0.218020917136,0.068374422188,0.188769469584,0.202456734834,0.0244768161093,0.478823193097,0.0377211908123,0.884234573407
tagged_abstract_sents/4396080.txt,3,0.162510056315,0.00057781201849,0.188769469584,0.202456734834,0.0394990687294,0.4553114953,0.0393898329915,0.81944575972
tagged_abstract_sents/4396080.txt,4,0.0852775543041,-0.0710708782743,0.188769469584,0.202456734834,0.102623577409,0.170211509997,0.0191390063204,0.501103716757
tagged_abstract_sents/4396080.txt,5,0.0458567980692,-0.0417950693374,0.188769469584,0.202456734834,0.007546068795,0.245190036855,0.0367019891265,0.472886274607
tagged_abstract_sents/4396080.txt,6,0.0245374094932,-0.0456471494607,0.188769469584,0.202456734834,0.074686324949,0.244637951262,0.029625288928,0.514571818084
tagged_abstract_sents/4396080.txt,7,0.00844730490748,0.086093990755,0.188769469584,0.202456734834,0.0626408069684,0.455226620115,0.0467843539408,0.743750178343
tagged_abstract_sents/4396080.txt,8,0.00120675784393,-0.04718798151,0.188769469584,0.202456734834,0.0331979333392,0.26558047313,0.0161954292411,0.461623400926
