tagged_abstract_sents/6120755.txt,3,0.0048270313757,0.0309575795384,0.194899689933,0.0581677376677,0.0,0.135306239093,0.0613316077078,0.344347897383
tagged_abstract_sents/6120755.txt,4,0.0108608205953,-0.0133343730505,0.139250797795,0.521468892835,0.0,0.17320888466,0.0493397606632,0.434776141776
tagged_abstract_sents/6120755.txt,5,0.0353982300885,-0.0295539613225,0.139250797795,0.521468892835,0.0,0.112381757153,0.0488377404456,0.40748936957
tagged_abstract_sents/6120755.txt,6,0.0993563958166,-0.000233936369308,0.139250797795,0.521468892835,0.0,0.137631041816,0.0620685936152,0.501153824804
tagged_abstract_sents/6120755.txt,8,0.206355591311,0.065892077355,0.139250797795,0.521468892835,0.0,0.210572114502,0.0737776819097,0.66575936967
tagged_abstract_sents/6120755.txt,9,0.262268704747,-0.023315658141,0.139250797795,0.521468892835,0.0,0.147153983846,0.0632226056946,0.639283241715
