tagged_abstract_sents/666111.txt,3,0.0048270313757,0.0087098886706,0.188769469584,0.129715814208,0.109830093123,0.337808094383,0.0771126972957,0.598009273648
tagged_abstract_sents/666111.txt,4,0.0048270313757,-0.0109364767518,0.139250797795,0.521468892835,0.109830093123,0.241064903917,0.070222177541,0.559427279378
tagged_abstract_sents/666111.txt,5,0.016894609815,0.0421087098887,0.139250797795,0.521468892835,0.109830093123,0.207792981712,0.0515230722831,0.501226110862
tagged_abstract_sents/666111.txt,7,0.0683829444891,-0.0502292075966,0.139250797795,0.521468892835,0.109830093123,0.246205141659,0.0567759123354,0.569599080643
tagged_abstract_sents/666111.txt,8,0.130329847144,-0.0351669941061,0.139250797795,0.521468892835,0.109830093123,0.345427281529,0.0841034405426,0.721584227462
tagged_abstract_sents/666111.txt,9,0.214802896219,-0.069875573019,0.139250797795,0.521468892835,0.109830093123,0.178006651226,0.0554878355283,0.616062419794
tagged_abstract_sents/666111.txt,10,0.262268704747,-0.00700720366732,0.139250797795,0.521468892835,0.109830093123,0.389346194066,0.0806775912335,0.938767605175
tagged_abstract_sents/666111.txt,11,0.262268704747,0.0611001964637,0.139250797795,0.521468892835,0.109830093123,0.424922487267,0.0530876143561,0.96539109236
