tagged_abstract_sents/6734291.txt,4,0.0353982300885,-0.0175925925926,0.139250797795,0.521468892835,0.0871987143783,0.314696919841,0.0270140760707,0.589318154976
tagged_abstract_sents/6734291.txt,5,0.0993563958166,-0.00555555555556,0.139250797795,0.521468892835,0.0871987143783,0.398140578776,0.0281716733727,0.716742917127
tagged_abstract_sents/6734291.txt,6,0.206355591311,-0.0703703703704,0.139250797795,0.521468892835,0.0871987143783,0.288418159287,0.0409333544739,0.724882440132
tagged_abstract_sents/6734291.txt,7,0.262268704747,0.0425925925926,0.139250797795,0.521468892835,0.0871987143783,0.40331491993,0.03280622941,0.914533540971
