tagged_abstract_sents/6809102.txt,3,0.0805801772764,-0.00870565045992,0.188769469584,0.123191979006,0.0176418841625,0.255924818932,0.0454563658937,0.422021360034
tagged_abstract_sents/6809102.txt,4,0.123690572119,-0.0382720105125,0.139250797795,0.194462959676,0.0176418841625,0.234527746437,0.0151997172146,0.457885529884
tagged_abstract_sents/6809102.txt,5,0.149073327961,-0.0330157687254,0.139250797795,0.194462959676,0.0176418841625,0.181221284456,0.0197444831591,0.380182052487
tagged_abstract_sents/6809102.txt,6,0.176470588235,0.0451708278581,0.139250797795,0.194462959676,0.0176418841625,0.241167655729,0.0406504065041,0.465775430061
tagged_abstract_sents/6809102.txt,7,0.166800966962,0.00772010512484,0.139250797795,0.194462959676,0.0176418841625,0.207470582867,0.0420352005718,0.498628266536
tagged_abstract_sents/6809102.txt,8,0.0954875100725,-0.00410643889619,0.139250797795,0.194462959676,0.0176418841625,0.270418695247,0.028154912091,0.409448866297
tagged_abstract_sents/6809102.txt,9,0.0342465753425,0.0142904073587,0.139250797795,0.194462959676,0.0176418841625,0.218489002242,0.0352005717859,0.346656506436
