tagged_abstract_sents/7370875.txt,1,0.239742558327,0.104508196721,0.210342442448,0.226435992083,0.0620159646311,0.737520094857,0.0430461452022,1.22837990955
tagged_abstract_sents/7370875.txt,2,0.218020917136,-0.087899050906,0.0616692308323,0.142474783506,0.0,0.226124141175,0.0249730383448,0.481511153515
tagged_abstract_sents/7370875.txt,3,0.162510056315,-0.0542493528904,0.139250797795,0.0356431803763,0.119965323946,0.345619994245,0.0139111751126,0.678973020788
tagged_abstract_sents/7370875.txt,4,0.0852775543041,0.00873597929249,0.139250797795,0.0356431803763,0.0224916637499,0.34578985254,0.0189304326956,0.537499541297
tagged_abstract_sents/7370875.txt,5,0.0458567980692,-0.0913503019845,0.139250797795,0.0356431803763,0.197226282263,0.25698877063,0.0276612915988,0.580610075561
tagged_abstract_sents/7370875.txt,6,0.0245374094932,0.0665444348576,0.139250797795,0.0356431803763,0.161105418618,0.676329632507,0.0429479767419,0.993640195443
tagged_abstract_sents/7370875.txt,7,0.00844730490748,0.0216781708369,0.139250797795,0.0356431803763,0.126422435261,0.567670220246,0.0391261690377,0.824630655649
tagged_abstract_sents/7370875.txt,8,0.00120675784393,0.0320319240725,0.139250797795,0.0356431803763,0.213983501555,0.548272814784,0.0333521909072,0.883298651346
