tagged_abstract_sents/7388366.txt,3,0.0108608205953,0.0122242098986,0.188769469584,0.129715814208,0.0109417662797,0.527659922706,0.0264125291808,0.690769403461
tagged_abstract_sents/7388366.txt,4,0.0353982300885,0.00954084675015,0.188769469584,0.129715814208,0.0109417662797,0.524698410877,0.0254655171339,0.70549899734
tagged_abstract_sents/7388366.txt,5,0.0993563958166,-0.0548598688134,0.188769469584,0.129715814208,0.0109417662797,0.572208889371,0.0387492285538,0.817177035115
tagged_abstract_sents/7388366.txt,7,0.262268704747,-0.00477042337507,0.188769469584,0.129715814208,0.0109417662797,0.554041376821,0.0473010811676,0.932944233432
