tagged_abstract_sents/7393077.txt,3,0.0108608205953,-0.0672716796312,0.139250797795,0.521468892835,0.02001193025,0.307674002167,0.0215662072276,0.598910715033
tagged_abstract_sents/7393077.txt,4,0.0353982300885,-0.0223278594065,0.139250797795,0.521468892835,0.02001193025,0.514857941553,0.0312287657484,0.832151602494
tagged_abstract_sents/7393077.txt,5,0.0993563958166,0.0459521751657,0.139250797795,0.521468892835,0.02001193025,0.555116281711,0.0478125214291,0.959068991381
tagged_abstract_sents/7393077.txt,7,0.262268704747,0.00705848458657,0.139250797795,0.521468892835,0.02001193025,0.730624072546,0.0404890360628,1.15978066195
