tagged_abstract_sents/7484689.txt,2,0.206355591311,-0.102675343456,0.188769469584,0.129715814208,0.119149370686,0.0841612012122,0.0256338291702,0.434442498389
tagged_abstract_sents/7484689.txt,5,0.0993563958166,-0.111352133044,0.188769469584,0.129715814208,0.119149370686,0.103305876181,0.025780842789,0.400919743957
tagged_abstract_sents/7484689.txt,6,0.206355591311,-0.0256688358641,0.188769469584,0.129715814208,0.119149370686,0.174666035862,0.0265693703808,0.514284311331
tagged_abstract_sents/7484689.txt,7,0.262268704747,-0.0603759942155,0.188769469584,0.129715814208,0.119149370686,0.120946357201,0.0348516616863,0.551649173705
