tagged_abstract_sents/7543434.txt,2,0.0954875100725,-0.0502364066194,0.0616692308323,0.247294108221,0.193446076951,0.0,0.0,0.171365574617
tagged_abstract_sents/7543434.txt,4,0.0253827558421,-0.0518321513002,0.0616692308323,0.247294108221,0.193446076951,0.0,0.0,0.114962622296
tagged_abstract_sents/7543434.txt,5,0.0805801772764,0.035401891253,0.210342442448,0.141687475369,0.193446076951,0.117068353672,0.059404659189,0.467456771419
tagged_abstract_sents/7543434.txt,6,0.0805801772764,-0.0513002364066,0.0616692308323,0.247294108221,0.193446076951,0.0,0.0,0.159226942422
tagged_abstract_sents/7543434.txt,7,0.123690572119,-0.00927895981087,0.0616692308323,0.247294108221,0.193446076951,0.038817881479,0.0428661071457,0.287958933643
tagged_abstract_sents/7543434.txt,8,0.123690572119,-0.00768321513002,0.139250797795,0.194462959676,0.193446076951,0.0501324383892,0.0359325568018,0.260171537354
tagged_abstract_sents/7543434.txt,9,0.140209508461,0.00827423167849,0.139250797795,0.194462959676,0.193446076951,0.0795651858141,0.0605982168536,0.322395146676
tagged_abstract_sents/7543434.txt,10,0.149073327961,0.0279550827423,0.139250797795,0.194462959676,0.193446076951,0.105601745118,0.0478861087144,0.516653786949
tagged_abstract_sents/7543434.txt,11,0.149879129734,0.0024231678487,0.139250797795,0.194462959676,0.193446076951,0.0391651416899,0.0308651658954,0.334043476764
tagged_abstract_sents/7543434.txt,12,0.176470588235,0.0178486997636,0.139250797795,0.194462959676,0.193446076951,0.091902075335,0.0643334771355,0.41755278407
tagged_abstract_sents/7543434.txt,13,0.176470588235,-0.0289598108747,0.139250797795,0.194462959676,0.193446076951,0.040818217677,0.0397678249274,0.287805276018
tagged_abstract_sents/7543434.txt,14,0.166800966962,-0.00183215130024,0.139250797795,0.194462959676,0.193446076951,0.091861712869,0.0546268334771,0.396411667536
tagged_abstract_sents/7543434.txt,15,0.166800966962,0.00348699763593,0.139250797795,0.194462959676,0.193446076951,0.0474092053138,0.0240411012628,0.328096741124
tagged_abstract_sents/7543434.txt,16,0.0954875100725,-0.0209810874704,0.139250797795,0.194462959676,0.193446076951,0.0380038053818,0.0257981018119,0.26755646985
tagged_abstract_sents/7543434.txt,17,0.0954875100725,-0.0491725768322,0.139250797795,0.194462959676,0.193446076951,0.0,0.0,0.194519779492
tagged_abstract_sents/7543434.txt,18,0.0342465753425,0.0550827423168,0.139250797795,0.194462959676,0.193446076951,0.0967929056855,0.050741003908,0.417133401591
tagged_abstract_sents/7543434.txt,19,0.0342465753425,0.0444444444444,0.139250797795,0.194462959676,0.193446076951,0.111483528988,0.0798442395895,0.309943176529
