tagged_abstract_sents/7556315.txt,1,0.125905068383,0.0768380727862,0.188769469584,0.202456734834,0.0238928958539,0.242483109283,0.0555614698965,0.593150899539
tagged_abstract_sents/7556315.txt,2,0.239742558327,-0.0066303226757,0.188769469584,0.202456734834,0.0524640215786,0.16691962448,0.0366865803296,0.601659963757
tagged_abstract_sents/7556315.txt,3,0.218020917136,-0.0398556063062,0.210342442448,0.226435992083,0.0363050101781,0.156893288319,0.0468394299436,0.579585359737
tagged_abstract_sents/7556315.txt,4,0.162510056315,0.0103875055253,0.139250797795,0.0356431803763,0.121137882673,0.126730138489,0.0610284716375,0.521300391967
tagged_abstract_sents/7556315.txt,5,0.101769911504,-0.046338588478,0.139250797795,0.0356431803763,0.148977956157,0.0992996076107,0.032954439143,0.433698567429
tagged_abstract_sents/7556315.txt,6,0.0711987127916,0.0598202445852,0.139250797795,0.0356431803763,0.0775568974445,0.161477736743,0.0536466059901,0.441922612338
tagged_abstract_sents/7556315.txt,7,0.0458567980692,-0.0422867246206,0.139250797795,0.0356431803763,0.0190725229563,0.124041854157,0.090342096236,0.34200291989
tagged_abstract_sents/7556315.txt,8,0.0245374094932,0.0274053337262,0.139250797795,0.0356431803763,0.0542900688468,0.125439343588,0.0431889848277,0.328347744613
tagged_abstract_sents/7556315.txt,9,0.00844730490748,-0.0819949904229,0.139250797795,0.0356431803763,0.0,0.0,0.0,0.0706771988517
tagged_abstract_sents/7556315.txt,10,0.00120675784393,-0.0098718137616,0.139250797795,0.0356431803763,0.0659329720394,0.170723635093,0.0264856640619,0.342451667727
tagged_abstract_sents/7556315.txt,11,0.00120675784393,0.052526889642,0.139250797795,0.0356431803763,0.121278623448,0.185212402257,0.0662095879609,0.46448975088
