tagged_abstract_sents/7606610.txt,1,0.125905068383,-0.0576690821256,0.0616692308323,0.142474783506,0.0,0.0,0.0,0.162767288749
tagged_abstract_sents/7606610.txt,2,0.239742558327,0.0592391304348,0.188769469584,0.202456734834,0.0727182106965,0.273985690562,0.0635112837982,0.768978813048
tagged_abstract_sents/7606610.txt,3,0.239742558327,-0.0586352657005,0.0616692308323,0.142474783506,0.0,0.0,0.0,0.253644043989
tagged_abstract_sents/7606610.txt,4,0.218020917136,0.0162439613527,0.210342442448,0.226435992083,0.0289032928477,0.162950025987,0.0247121389539,0.567333002617
tagged_abstract_sents/7606610.txt,5,0.162510056315,0.1336352657,0.0616692308323,0.142474783506,0.136771937344,0.230782212367,0.0348927249377,0.632759023309
tagged_abstract_sents/7606610.txt,6,0.162510056315,-0.00791062801932,0.210342442448,0.226435992083,0.0387268123954,0.209816875698,0.0584192037471,0.608490830138
tagged_abstract_sents/7606610.txt,7,0.101769911504,-0.00742753623188,0.0616692308323,0.142474783506,0.0320871934086,0.155424866846,0.0502707845433,0.391290317223
tagged_abstract_sents/7606610.txt,8,0.0852775543041,-0.0146739130435,0.0616692308323,0.142474783506,0.00763777669387,0.128955868775,0.0221785435486,0.29763650032
tagged_abstract_sents/7606610.txt,9,0.0711987127916,0.00899758454106,0.0616692308323,0.142474783506,0.0364238636902,0.167931413749,0.0264746779859,0.363165493034
tagged_abstract_sents/7606610.txt,10,0.0458567980692,-0.0267512077295,0.0616692308323,0.142474783506,0.080048832498,0.0962162658366,0.0138758782201,0.295053223932
tagged_abstract_sents/7606610.txt,11,0.0458567980692,-0.0586352657005,0.0616692308323,0.142474783506,0.0,0.0,0.0,0.0985354357831
tagged_abstract_sents/7606610.txt,12,0.0245374094932,0.0949879227053,0.139250797795,0.0356431803763,0.0645798087012,0.190483514102,0.0313448694596,0.405354057409
tagged_abstract_sents/7606610.txt,13,0.00844730490748,0.0191425120773,0.139250797795,0.0356431803763,0.0148849632956,0.108721792451,0.0260280341645,0.240539489263
tagged_abstract_sents/7606610.txt,14,0.00844730490748,-0.0571859903382,0.0616692308323,0.142474783506,0.0,0.0,0.0,0.0688976963262
tagged_abstract_sents/7606610.txt,15,0.00120675784393,-0.00452898550725,0.139250797795,0.0356431803763,0.273946692842,0.146686685734,0.0370162085542,0.538027549315
tagged_abstract_sents/7606610.txt,16,0.00120675784393,-0.0388285024155,0.139250797795,0.0356431803763,0.147361931593,0.0840125664298,0.0257820341251,0.33067459095
