tagged_abstract_sents/7636666.txt,2,0.0954875100725,-0.0529411764706,0.0616692308323,0.247294108221,0.105826984898,0.0,0.0,0.170824620646
tagged_abstract_sents/7636666.txt,4,0.0253827558421,-0.0547058823529,0.0616692308323,0.247294108221,0.105826984898,0.0,0.0,0.114387876086
tagged_abstract_sents/7636666.txt,5,0.0805801772764,-0.0311764705882,0.0616692308323,0.247294108221,0.105826984898,0.0455500857545,0.0293743890518,0.116702455126
tagged_abstract_sents/7636666.txt,6,0.0805801772764,-0.0541176470588,0.0616692308323,0.247294108221,0.105826984898,0.0,0.0,0.158663460292
tagged_abstract_sents/7636666.txt,7,0.123690572119,-0.0111764705882,0.0616692308323,0.247294108221,0.105826984898,0.0864337492659,0.0247276916632,0.242371570499
tagged_abstract_sents/7636666.txt,8,0.140209508461,-0.0535294117647,0.0616692308323,0.247294108221,0.105826984898,0.0,0.0,0.206484572298
tagged_abstract_sents/7636666.txt,9,0.140209508461,0.05,0.210342442448,0.141687475369,0.105826984898,0.178748088524,0.0499200213276,0.481602097374
tagged_abstract_sents/7636666.txt,10,0.149879129734,0.137647058824,0.194899689933,0.293363477728,0.105826984898,0.166887159142,0.0548453745668,0.412596348825
tagged_abstract_sents/7636666.txt,11,0.149879129734,-0.0541176470588,0.0616692308323,0.247294108221,0.105826984898,0.0,0.0,0.214102622258
tagged_abstract_sents/7636666.txt,12,0.176470588235,0.0847058823529,0.139250797795,0.194462959676,0.105826984898,0.17440580996,0.0604238869635,0.452122556475
tagged_abstract_sents/7636666.txt,13,0.166800966962,0.05,0.139250797795,0.194462959676,0.105826984898,0.134712257978,0.0574857231054,0.388910811167
tagged_abstract_sents/7636666.txt,14,0.166800966962,-0.0176470588235,0.0616692308323,0.247294108221,0.105826984898,0.08139450247,0.046271470465,0.392410698837
tagged_abstract_sents/7636666.txt,15,0.0954875100725,0.0552941176471,0.139250797795,0.194462959676,0.105826984898,0.126269389302,0.0515525271692,0.314693797771
tagged_abstract_sents/7636666.txt,16,0.0954875100725,-0.0517647058824,0.0616692308323,0.247294108221,0.105826984898,0.0,0.0,0.171059914764
tagged_abstract_sents/7636666.txt,17,0.0342465753425,0.00705882352941,0.139250797795,0.194462959676,0.105826984898,0.135126953511,0.0516746411483,0.299649866099
tagged_abstract_sents/7636666.txt,18,0.0342465753425,-0.0388235294118,0.139250797795,0.194462959676,0.105826984898,0.0818835477044,0.0339950372208,0.219659384097
