tagged_abstract_sents/7637478.txt,2,0.206355591311,-0.0594347464672,0.188769469584,0.129715814208,0.0910283588008,0.105084779656,0.101661779081,0.571971689514
tagged_abstract_sents/7637478.txt,5,0.0993563958166,-0.0108063175395,0.139250797795,0.521468892835,0.0910283588008,0.11555011754,0.0820894428152,0.518375867934
tagged_abstract_sents/7637478.txt,6,0.206355591311,-0.0806317539485,0.139250797795,0.521468892835,0.0910283588008,0.108944350325,0.0763852446365,0.567230302513
tagged_abstract_sents/7637478.txt,7,0.262268704747,0.0590191188695,0.139250797795,0.521468892835,0.0910283588008,0.204936812273,0.108216031281,0.781199570264
