tagged_abstract_sents/7641412.txt,2,0.206355591311,-0.0363455932519,0.0616692308323,0.106008497564,0.118034828681,0.0,0.0,0.220452519084
tagged_abstract_sents/7641412.txt,3,0.206355591311,0.0124418532531,0.188769469584,0.129715814208,0.118034828681,0.410623923639,0.05282810468,0.829576735966
tagged_abstract_sents/7641412.txt,4,0.206355591311,-0.00667369596229,0.188769469584,0.129715814208,0.118034828681,0.249108977342,0.021949655283,0.628206546134
tagged_abstract_sents/7641412.txt,5,0.206355591311,-0.0337778329095,0.0616692308323,0.106008497564,0.118034828681,0.0,0.0,0.201265370509
tagged_abstract_sents/7641412.txt,6,0.0048270313757,0.0101593996155,0.139250797795,0.521468892835,0.118034828681,0.328747793471,0.048323057414,0.574352435994
tagged_abstract_sents/7641412.txt,9,0.0108608205953,-0.0411958072319,0.139250797795,0.521468892835,0.118034828681,0.0,0.0,0.226515561778
tagged_abstract_sents/7641412.txt,10,0.0108608205953,-0.0158035105129,0.139250797795,0.521468892835,0.118034828681,0.144927449057,0.0274811608145,0.385967151834
tagged_abstract_sents/7641412.txt,11,0.0261464199517,0.0289896421262,0.139250797795,0.521468892835,0.118034828681,0.294973020455,0.0543145743146,0.594452778445
tagged_abstract_sents/7641412.txt,12,0.0261464199517,-0.011809216647,0.139250797795,0.521468892835,0.118034828681,0.267486585222,0.0596845649477,0.566988422586
tagged_abstract_sents/7641412.txt,13,0.0518905872888,-0.0246480183589,0.139250797795,0.521468892835,0.118034828681,0.209297893455,0.0240139490139,0.491206706933
tagged_abstract_sents/7641412.txt,14,0.0518905872888,0.018433294052,0.139250797795,0.521468892835,0.118034828681,0.417290926773,0.0380738602961,0.7076341106
tagged_abstract_sents/7641412.txt,15,0.0993563958166,0.00930347950133,0.139250797795,0.521468892835,0.118034828681,0.236836073494,0.0257655924323,0.529706557481
tagged_abstract_sents/7641412.txt,16,0.0993563958166,-0.00752961607641,0.139250797795,0.521468892835,0.118034828681,0.320153104116,0.0567187021732,0.708168197327
tagged_abstract_sents/7641412.txt,17,0.0993563958166,-0.00610308255287,0.139250797795,0.521468892835,0.118034828681,0.328676555061,0.0577200577201,0.76037211941
tagged_abstract_sents/7641412.txt,18,0.172566371681,-0.00752961607641,0.139250797795,0.521468892835,0.118034828681,0.322682539412,0.0691285145831,0.759749130615
tagged_abstract_sents/7641412.txt,19,0.172566371681,0.0600880729393,0.139250797795,0.521468892835,0.118034828681,0.319217443926,0.0396082032446,0.747650445988
tagged_abstract_sents/7641412.txt,20,0.206355591311,0.0175773739379,0.139250797795,0.521468892835,0.118034828681,0.416708449649,0.0445762742059,0.925607109609
tagged_abstract_sents/7641412.txt,21,0.206355591311,0.00359734540718,0.139250797795,0.521468892835,0.118034828681,0.33679867816,0.0382709078361,0.816029322747
tagged_abstract_sents/7641412.txt,22,0.262268704747,0.000173664950692,0.139250797795,0.521468892835,0.118034828681,0.421577138212,0.0911299948337,0.954799087472
tagged_abstract_sents/7641412.txt,23,0.262268704747,-0.0400545804131,0.0616692308323,0.106008497564,0.118034828681,0.0,0.0,0.2644412124
tagged_abstract_sents/7641412.txt,24,0.262268704747,0.0412578304286,0.139250797795,0.521468892835,0.118034828681,0.481909150603,0.0701019410697,1.03253097689
