tagged_abstract_sents/7666878.txt,2,0.0954875100725,-0.0605007473842,0.0616692308323,0.247294108221,0.344226669817,0.0,0.0,0.169312706464
tagged_abstract_sents/7666878.txt,3,0.0253827558421,-0.0089312406577,0.188769469584,0.123191979006,0.344226669817,0.163729487626,0.037875854949,0.362433220151
tagged_abstract_sents/7666878.txt,4,0.0451248992748,0.0370328849028,0.188769469584,0.123191979006,0.344226669817,0.286695231313,0.047619047619,0.470355913166
tagged_abstract_sents/7666878.txt,5,0.0805801772764,-0.0621823617339,0.0616692308323,0.247294108221,0.344226669817,0.0,0.0,0.157050517357
tagged_abstract_sents/7666878.txt,6,0.123690572119,0.130082212257,0.210342442448,0.141687475369,0.344226669817,0.273247299277,0.0449695121951,0.580710585014
tagged_abstract_sents/7666878.txt,8,0.140209508461,0.0364723467862,0.210342442448,0.141687475369,0.344226669817,0.295321229733,0.0441793978379,0.57448727254
tagged_abstract_sents/7666878.txt,9,0.149879129734,-0.0621823617339,0.0616692308323,0.247294108221,0.344226669817,0.0,0.0,0.212489679323
tagged_abstract_sents/7666878.txt,10,0.150684931507,-0.00724962630792,0.139250797795,0.194462959676,0.344226669817,0.130003962638,0.0368342458935,0.351311199957
tagged_abstract_sents/7666878.txt,11,0.176470588235,0.0616965620329,0.139250797795,0.194462959676,0.344226669817,0.329743650321,0.0407794554136,0.65310091895
tagged_abstract_sents/7666878.txt,12,0.166800966962,0.040956651719,0.139250797795,0.194462959676,0.344226669817,0.264596389055,0.0511033681765,0.528419753583
tagged_abstract_sents/7666878.txt,13,0.131345688961,-0.0246263079223,0.139250797795,0.194462959676,0.344226669817,0.177227317063,0.0313588850174,0.344520008415
tagged_abstract_sents/7666878.txt,14,0.0954875100725,-0.0599402092676,0.139250797795,0.194462959676,0.344226669817,0.0,0.0,0.192366253005
tagged_abstract_sents/7666878.txt,15,0.0342465753425,0.0247010463378,0.139250797795,0.194462959676,0.344226669817,0.292025236269,0.0474531275925,0.51520553338
tagged_abstract_sents/7666878.txt,16,0.0342465753425,-0.0195814648729,0.139250797795,0.194462959676,0.344226669817,0.144229830776,0.0263259775455,0.300754056725
