tagged_abstract_sents/76857.txt,3,0.123690572119,0.0282258064516,0.210342442448,0.141687475369,0.0629169148441,0.116489419492,0.0403409090909,0.359931591348
tagged_abstract_sents/76857.txt,4,0.149073327961,0.0215053763441,0.194899689933,0.293363477728,0.0629169148441,0.136140381514,0.0425065596543,0.416780043345
tagged_abstract_sents/76857.txt,5,0.176470588235,-0.0309139784946,0.139250797795,0.194462959676,0.0629169148441,0.114862682527,0.0364757633259,0.456523471713
tagged_abstract_sents/76857.txt,6,0.0954875100725,-0.0362903225806,0.139250797795,0.194462959676,0.0629169148441,0.0847337163968,0.0295398150237,0.256018599268
tagged_abstract_sents/76857.txt,7,0.0342465753425,-0.0322580645161,0.139250797795,0.194462959676,0.0629169148441,0.103685562272,0.0299761730205,0.243805515222
