tagged_abstract_sents/7751991.txt,3,0.0805801772764,-0.0252100840336,0.210342442448,0.141687475369,0.00824224478063,0.374208277531,0.0772165321746,0.635502531238
tagged_abstract_sents/7751991.txt,4,0.140209508461,-0.0909995577178,0.139250797795,0.194462959676,0.00824224478063,0.233275486786,0.0542395618936,0.426642522602
tagged_abstract_sents/7751991.txt,5,0.149879129734,0.047545333923,0.139250797795,0.194462959676,0.00824224478063,0.279973455061,0.0422610734238,0.524873014971
tagged_abstract_sents/7751991.txt,6,0.166800966962,-0.0445599292349,0.139250797795,0.194462959676,0.00824224478063,0.240381562074,0.040548735666,0.51962110515
tagged_abstract_sents/7751991.txt,7,0.0954875100725,0.0343874391862,0.139250797795,0.194462959676,0.00824224478063,0.295936992913,0.0416177310818,0.479367662829
tagged_abstract_sents/7751991.txt,8,0.0342465753425,-0.0275320654578,0.139250797795,0.194462959676,0.00824224478063,0.294751176684,0.0547073387506,0.470711230686
