tagged_abstract_sents/7790794.txt,2,0.0954875100725,-0.0336936736134,0.0616692308323,0.247294108221,0.239917832902,0.0,0.0,0.174674121218
tagged_abstract_sents/7790794.txt,3,0.0954875100725,0.00676102381218,0.188769469584,0.123191979006,0.239917832902,0.527104849562,0.00793863835202,0.779973321946
tagged_abstract_sents/7790794.txt,4,0.0253827558421,-0.0346966826405,0.0616692308323,0.247294108221,0.239917832902,0.0,0.0,0.118389716028
tagged_abstract_sents/7790794.txt,5,0.0253827558421,-0.0189828745496,0.0616692308323,0.247294108221,0.239917832902,0.237463480224,0.0132973435139,0.358382722251
tagged_abstract_sents/7790794.txt,6,0.0253827558421,0.00107730599205,0.0616692308323,0.247294108221,0.239917832902,0.361268255143,0.00412497265967,0.367694737611
tagged_abstract_sents/7790794.txt,7,0.0805801772764,-0.0343623462982,0.0616692308323,0.247294108221,0.239917832902,0.0,0.0,0.162614520444
tagged_abstract_sents/7790794.txt,8,0.0805801772764,-0.023997919685,0.0616692308323,0.247294108221,0.239917832902,0.284350173187,0.000117773739821,0.412771750162
tagged_abstract_sents/7790794.txt,9,0.0805801772764,-0.0340280099558,0.0616692308323,0.247294108221,0.239917832902,0.0,0.0,0.162681387712
tagged_abstract_sents/7790794.txt,10,0.123690572119,0.0261525316691,0.210342442448,0.141687475369,0.239917832902,0.408693343156,0.011984179061,0.70151808745
tagged_abstract_sents/7790794.txt,11,0.123690572119,0.0057580147851,0.194899689933,0.293363477728,0.239917832902,0.551360457265,0.00479050173076,0.78794919662
tagged_abstract_sents/7790794.txt,12,0.140209508461,-0.0296816375051,0.0616692308323,0.247294108221,0.239917832902,0.0,0.0,0.21125412715
tagged_abstract_sents/7790794.txt,13,0.140209508461,0.0134477506594,0.0616692308323,0.247294108221,0.239917832902,0.464645022154,0.0117426727909,0.654373180699
tagged_abstract_sents/7790794.txt,14,0.140209508461,-0.0343623462982,0.0616692308323,0.247294108221,0.239917832902,0.0,0.0,0.210317985392
tagged_abstract_sents/7790794.txt,15,0.149879129734,0.00107730599205,0.139250797795,0.194462959676,0.239917832902,0.434427059445,0.00994324722568,0.65960891738
tagged_abstract_sents/7790794.txt,16,0.149879129734,0.020468813849,0.139250797795,0.194462959676,0.239917832902,0.531694709951,0.00862214666349,0.625969311561
tagged_abstract_sents/7790794.txt,17,0.149879129734,-0.00494074817044,0.139250797795,0.194462959676,0.239917832902,0.285256300995,0.0112515983579,0.432970163485
tagged_abstract_sents/7790794.txt,19,0.176470588235,0.0137820870017,0.139250797795,0.194462959676,0.239917832902,0.508913059985,0.0119672540932,0.649033600796
tagged_abstract_sents/7790794.txt,20,0.166800966962,0.0208031501913,0.139250797795,0.194462959676,0.239917832902,0.495937869821,0.0109882098071,0.645775733747
tagged_abstract_sents/7790794.txt,21,0.166800966962,0.0164567777406,0.139250797795,0.194462959676,0.239917832902,0.572183885415,0.0132532261592,0.750796142715
tagged_abstract_sents/7790794.txt,22,0.166800966962,-0.00627809353988,0.139250797795,0.194462959676,0.239917832902,0.41030846324,0.00931090210946,0.613576323315
tagged_abstract_sents/7790794.txt,23,0.0954875100725,-0.0330250009287,0.0616692308323,0.247294108221,0.239917832902,0.0,0.0,0.174807855755
tagged_abstract_sents/7790794.txt,24,0.0954875100725,0.000408633307329,0.139250797795,0.194462959676,0.239917832902,0.489830218328,0.0111600633254,0.7550058214
tagged_abstract_sents/7790794.txt,25,0.0954875100725,0.0111073962629,0.139250797795,0.194462959676,0.239917832902,0.501177903638,0.0160891346915,0.737852791623
tagged_abstract_sents/7790794.txt,26,0.0342465753425,0.0535681117426,0.139250797795,0.194462959676,0.239917832902,0.634461067805,0.00750807591359,0.693126506056
tagged_abstract_sents/7790794.txt,27,0.0342465753425,0.00943571455106,0.139250797795,0.194462959676,0.239917832902,0.476344558853,0.00948436132983,0.607926588536
tagged_abstract_sents/7790794.txt,28,0.0342465753425,0.0345109402281,0.139250797795,0.194462959676,0.239917832902,0.563383836578,0.00828055460459,0.79432897031
