tagged_abstract_sents/7798064.txt,1,0.125905068383,-0.0808542463021,0.0616692308323,0.142474783506,0.0,0.0,0.0,0.158130255914
tagged_abstract_sents/7798064.txt,2,0.239742558327,-0.0250955625727,0.188769469584,0.202456734834,0.245235302904,0.271250727758,0.0255315962863,0.883914316337
tagged_abstract_sents/7798064.txt,3,0.218020917136,0.00689712481303,0.188769469584,0.202456734834,0.0676639349393,0.331837296113,0.0443561734525,0.774775318419
tagged_abstract_sents/7798064.txt,4,0.162510056315,0.000498587335882,0.0616692308323,0.142474783506,0.0615539526365,0.338249292102,0.0706869749996,0.674175032725
tagged_abstract_sents/7798064.txt,5,0.101769911504,-0.0835964766495,0.0616692308323,0.142474783506,0.0,0.0,0.0,0.138273684342
tagged_abstract_sents/7798064.txt,6,0.0711987127916,0.0379757354163,0.0616692308323,0.142474783506,0.212063329315,0.373217057484,0.0582770160293,0.781688570612
tagged_abstract_sents/7798064.txt,7,0.0458567980692,0.0334053515041,0.0616692308323,0.142474783506,0.177255564235,0.412550682873,0.0313163274607,0.738066133793
tagged_abstract_sents/7798064.txt,8,0.0245374094932,0.0827654977564,0.0616692308323,0.142474783506,0.0426356102339,0.432089884188,0.033629368535,0.618114940571
tagged_abstract_sents/7798064.txt,9,0.00844730490748,-0.0835964766495,0.0616692308323,0.142474783506,0.0,0.0,0.0,0.0636155990639
tagged_abstract_sents/7798064.txt,10,0.00120675784393,0.0553431942829,0.139250797795,0.0356431803763,0.174698930435,0.347016228903,0.0387364208119,0.652803978291
tagged_abstract_sents/7798064.txt,11,0.00120675784393,0.0562572710653,0.139250797795,0.0356431803763,0.038091619381,0.335550765851,0.0284231092856,0.494600708016
