tagged_abstract_sents/7835809.txt,2,0.206355591311,0.141380987114,0.188769469584,0.129715814208,0.0,0.450304642688,0.0494793466492,0.938225946782
tagged_abstract_sents/7835809.txt,3,0.206355591311,-0.0539144177,0.188769469584,0.129715814208,0.0,0.0,0.0,0.287601068564
tagged_abstract_sents/7835809.txt,5,0.0048270313757,-0.0539144177,0.188769469584,0.129715814208,0.0,0.0,0.0,0.126378220615
tagged_abstract_sents/7835809.txt,6,0.0048270313757,-0.0156212010698,0.188769469584,0.129715814208,0.0,0.285827083111,0.0626834381551,0.673116987923
tagged_abstract_sents/7835809.txt,7,0.0108608205953,-0.0539144177,0.0616692308323,0.106008497564,0.0,0.0,0.0,0.0605429376216
tagged_abstract_sents/7835809.txt,8,0.0108608205953,-0.0249209822514,0.139250797795,0.521468892835,0.0,0.156758911531,0.0150078200393,0.498873032432
tagged_abstract_sents/7835809.txt,9,0.0261464199517,-0.0271091660588,0.139250797795,0.521468892835,0.0,0.240870329882,0.0466007786763,0.575787193239
tagged_abstract_sents/7835809.txt,11,0.0518905872888,-0.00249209822514,0.139250797795,0.521468892835,0.0,0.289295661251,0.0506472330372,0.599251892182
tagged_abstract_sents/7835809.txt,12,0.0993563958166,0.00407245319718,0.139250797795,0.521468892835,0.0,0.3444376527,0.0390760706798,0.797862303499
tagged_abstract_sents/7835809.txt,13,0.0993563958166,-0.0249209822514,0.139250797795,0.521468892835,0.0,0.17790625665,0.0500791511573,0.521152933679
tagged_abstract_sents/7835809.txt,14,0.172566371681,-0.0117918794068,0.139250797795,0.521468892835,0.0,0.173110856514,0.0573774583209,0.587968834955
tagged_abstract_sents/7835809.txt,15,0.172566371681,0.024313153416,0.139250797795,0.521468892835,0.0,0.342370321004,0.0544003765028,0.865839167815
tagged_abstract_sents/7835809.txt,16,0.206355591311,0.0155604181862,0.139250797795,0.521468892835,0.0,0.350812918187,0.0463462114406,0.805284211619
tagged_abstract_sents/7835809.txt,17,0.206355591311,-0.0057743739363,0.139250797795,0.521468892835,0.0,0.440207005564,0.0435498782505,0.955714450605
tagged_abstract_sents/7835809.txt,18,0.262268704747,0.00680768295648,0.139250797795,0.521468892835,0.0,0.3130489544,0.0508161126086,0.797677868587
tagged_abstract_sents/7835809.txt,19,0.262268704747,-0.0243739362995,0.139250797795,0.521468892835,0.0,0.117668202131,0.0323616518585,0.571648267923
