tagged_abstract_sents/7846138.txt,1,0.125905068383,-0.0461931065672,0.0616692308323,0.142474783506,0.0,0.0,0.0,0.165062483861
tagged_abstract_sents/7846138.txt,2,0.239742558327,0.0246470911264,0.188769469584,0.202456734834,0.0748750144903,0.201584388321,0.0573042250462,0.685608847987
tagged_abstract_sents/7846138.txt,3,0.239742558327,-0.0538811900378,0.188769469584,0.202456734834,0.0,0.0,0.0,0.336139563896
tagged_abstract_sents/7846138.txt,4,0.218020917136,-0.00390864747876,0.0616692308323,0.142474783506,0.242797774721,0.166027188162,0.0477761485826,0.703813166146
tagged_abstract_sents/7846138.txt,5,0.218020917136,-0.0544303388571,0.0616692308323,0.142474783506,0.0,0.0,0.0,0.237107716405
tagged_abstract_sents/7846138.txt,6,0.162510056315,0.0180573052944,0.0616692308323,0.142474783506,0.0351246004603,0.183717035984,0.0561818181818,0.482220011205
tagged_abstract_sents/7846138.txt,7,0.101769911504,0.142164938463,0.0616692308323,0.142474783506,0.0905637057937,0.235867483885,0.0567650925271,0.56662224957
tagged_abstract_sents/7846138.txt,8,0.101769911504,-0.0544303388571,0.139250797795,0.0356431803763,0.0,0.0,0.0,0.150848214442
tagged_abstract_sents/7846138.txt,9,0.0711987127916,0.0191556029331,0.139250797795,0.0356431803763,0.0788091982818,0.112716733038,0.043807141625,0.376441516775
tagged_abstract_sents/7846138.txt,10,0.0711987127916,-0.022579707336,0.139250797795,0.0356431803763,0.0844812163052,0.131212408168,0.0586217008798,0.40707670713
tagged_abstract_sents/7846138.txt,11,0.0458567980692,-0.00226120102077,0.139250797795,0.0356431803763,0.0827748045946,0.123487358005,0.0419046149097,0.364718328771
tagged_abstract_sents/7846138.txt,12,0.0245374094932,-0.0445456601092,0.139250797795,0.0356431803763,0.0,0.0,0.0,0.091039148583
tagged_abstract_sents/7846138.txt,13,0.0245374094932,0.037277513971,0.139250797795,0.0356431803763,0.0721559359703,0.175252611973,0.0540548161516,0.408867147494
tagged_abstract_sents/7846138.txt,14,0.00844730490748,-0.0253254514326,0.139250797795,0.0356431803763,0.113423712922,0.0991947220988,0.0276832844575,0.322312826128
tagged_abstract_sents/7846138.txt,15,0.00844730490748,0.0279419840424,0.139250797795,0.0356431803763,0.141902400579,0.148908258282,0.048567048787,0.432042301393
tagged_abstract_sents/7846138.txt,16,0.00120675784393,-0.00171205220144,0.139250797795,0.0356431803763,0.0916486315928,0.136500280792,0.0562903225806,0.365380583811
tagged_abstract_sents/7846138.txt,17,0.00120675784393,0.0400232580676,0.139250797795,0.0356431803763,0.030231897346,0.168298549383,0.0458760997067,0.333694957334
