tagged_abstract_sents/7963870.txt,1,0.125905068383,0.0116665758055,0.210342442448,0.226435992083,0.114921597511,0.11462948804,0.0426228005865,0.548333274854
tagged_abstract_sents/7963870.txt,2,0.239742558327,-0.0230605680641,0.0616692308323,0.142474783506,0.00231945032172,0.101826821252,0.0361388074291,0.40104406252
tagged_abstract_sents/7963870.txt,3,0.218020917136,0.00670555525268,0.0616692308323,0.142474783506,0.00183393723359,0.136169623855,0.0412177805217,0.428556236837
tagged_abstract_sents/7963870.txt,4,0.162510056315,-0.0308564575042,0.210342442448,0.226435992083,0.0025883857839,0.0884012331671,0.0359350327092,0.423863424061
tagged_abstract_sents/7963870.txt,5,0.162510056315,-0.0329826091697,0.139250797795,0.0356431803763,0.0472001643722,0.109288544005,0.0397751710655,0.399993755671
tagged_abstract_sents/7963870.txt,6,0.101769911504,0.0789947118792,0.139250797795,0.0356431803763,0.0172412952947,0.130718090894,0.0336591723688,0.359151783147
tagged_abstract_sents/7963870.txt,7,0.0711987127916,-0.0159733958458,0.139250797795,0.0356431803763,0.00261077347953,0.10481165554,0.0289442815249,0.270449354619
tagged_abstract_sents/7963870.txt,8,0.0458567980692,-0.0336913263915,0.139250797795,0.0356431803763,0.00153627956944,0.0890754168589,0.0310117302053,0.231888952821
tagged_abstract_sents/7963870.txt,9,0.0458567980692,0.0407239819005,0.139250797795,0.0356431803763,0.025969433968,0.186167259435,0.054288856305,0.391574137554
tagged_abstract_sents/7963870.txt,10,0.0245374094932,0.0371803957913,0.139250797795,0.0356431803763,0.0274607677232,0.149493934468,0.0404325513196,0.324771613274
tagged_abstract_sents/7963870.txt,11,0.00844730490748,-0.0251867197296,0.139250797795,0.0356431803763,0.00211456794116,0.0497682505727,0.030742913001,0.164664584505
tagged_abstract_sents/7963870.txt,12,0.00120675784393,0.0208798996893,0.139250797795,0.0356431803763,0.130726646987,0.121881784733,0.0403570812489,0.378425252191
tagged_abstract_sents/7963870.txt,13,0.00120675784393,-0.0344000436134,0.139250797795,0.0356431803763,0.0587305854347,0.0429154978683,0.0390355164549,0.215085350321
