tagged_abstract_sents/7980747.txt,4,0.0048270313757,-0.0260942760943,0.0616692308323,0.106008497564,0.116132936974,0.189169641624,0.0592197842289,0.365849605767
tagged_abstract_sents/7980747.txt,5,0.0108608205953,-0.0254208754209,0.0616692308323,0.106008497564,0.116132936974,0.244274620988,0.0521808747821,0.35532424943
tagged_abstract_sents/7980747.txt,6,0.0261464199517,-0.0247474747475,0.0616692308323,0.106008497564,0.116132936974,0.322877939737,0.0611282858734,0.555647816987
tagged_abstract_sents/7980747.txt,7,0.0353982300885,-0.0436026936027,0.139250797795,0.521468892835,0.116132936974,0.181513268253,0.050998071611,0.480881973509
tagged_abstract_sents/7980747.txt,8,0.0518905872888,-0.0234006734007,0.139250797795,0.521468892835,0.116132936974,0.27594227135,0.0780522351224,0.62371718174
tagged_abstract_sents/7980747.txt,9,0.0993563958166,-0.0456228956229,0.139250797795,0.521468892835,0.116132936974,0.145954078994,0.0560622643804,0.49066139378
tagged_abstract_sents/7980747.txt,10,0.172566371681,0.0486531986532,0.139250797795,0.521468892835,0.116132936974,0.441335976332,0.0759657870201,0.877881418473
tagged_abstract_sents/7980747.txt,11,0.206355591311,-0.0301346801347,0.139250797795,0.521468892835,0.116132936974,0.16499639898,0.0513849521511,0.640610006043
tagged_abstract_sents/7980747.txt,12,0.262268704747,0.0217171717172,0.139250797795,0.521468892835,0.116132936974,0.308019589684,0.0600601970084,0.843078641622
tagged_abstract_sents/7980747.txt,13,0.262268704747,0.0257575757576,0.139250797795,0.521468892835,0.116132936974,0.433893301978,0.0689757387815,0.973470429964
