tagged_abstract_sents/7995639.txt,3,0.0048270313757,-0.0407010853623,0.139250797795,0.521468892835,0.0,0.365482175644,0.0383387162477,0.597404124182
tagged_abstract_sents/7995639.txt,4,0.0261464199517,0.0126870049868,0.139250797795,0.521468892835,0.0,0.293984123321,0.0321316340782,0.554574227934
tagged_abstract_sents/7995639.txt,5,0.0518905872888,-0.0561014960399,0.139250797795,0.521468892835,0.0,0.2729835168,0.0372500735078,0.544028002623
tagged_abstract_sents/7995639.txt,6,0.172566371681,0.00960692285128,0.139250797795,0.521468892835,0.0,0.277340375716,0.0364093281388,0.644827641241
tagged_abstract_sents/7995639.txt,8,0.262268704747,-0.00322675271341,0.139250797795,0.521468892835,0.0,0.418080436108,0.025977007035,0.841725148487
