tagged_abstract_sents/8018000.txt,2,0.0954875100725,-0.030550855424,0.0616692308323,0.247294108221,0.278300208436,0.0,0.0,0.175302684856
tagged_abstract_sents/8018000.txt,3,0.0954875100725,-0.0156044369242,0.188769469584,0.123191979006,0.278300208436,0.0987522527963,0.105704986913,0.522136929811
tagged_abstract_sents/8018000.txt,5,0.0253827558421,0.0517954502726,0.139250797795,0.194462959676,0.278300208436,0.230129140193,0.139229910714,0.406633913035
tagged_abstract_sents/8018000.txt,6,0.0253827558421,-0.00460612897161,0.139250797795,0.194462959676,0.278300208436,0.140416721947,0.104142271663,0.40094430195
tagged_abstract_sents/8018000.txt,7,0.0805801772764,-0.00601616845272,0.139250797795,0.194462959676,0.278300208436,0.11780245404,0.0742990502212,0.397124075086
tagged_abstract_sents/8018000.txt,8,0.0805801772764,0.00808422635834,0.139250797795,0.194462959676,0.278300208436,0.171494501062,0.129753843804,0.421867577721
tagged_abstract_sents/8018000.txt,9,0.0805801772764,-0.00432412107539,0.139250797795,0.194462959676,0.278300208436,0.178773039833,0.12677332913,0.478730304066
tagged_abstract_sents/8018000.txt,10,0.123690572119,0.00695619477345,0.139250797795,0.194462959676,0.278300208436,0.12723575905,0.0867774643389,0.411294827892
tagged_abstract_sents/8018000.txt,11,0.123690572119,-0.0110923105847,0.139250797795,0.194462959676,0.278300208436,0.0963136884549,0.0658665105386,0.357948397543
tagged_abstract_sents/8018000.txt,12,0.140209508461,-0.0347809738673,0.139250797795,0.194462959676,0.278300208436,0.0,0.0,0.233175698796
tagged_abstract_sents/8018000.txt,13,0.140209508461,-0.00883624741493,0.139250797795,0.194462959676,0.278300208436,0.102529267995,0.0770068956544,0.384408482639
tagged_abstract_sents/8018000.txt,14,0.140209508461,0.00272607633014,0.139250797795,0.194462959676,0.278300208436,0.154121783945,0.0788407494145,0.445226967686
tagged_abstract_sents/8018000.txt,15,0.149879129734,0.0151344237639,0.139250797795,0.194462959676,0.278300208436,0.251035376573,0.132590331214,0.593031349347
tagged_abstract_sents/8018000.txt,16,0.149879129734,0.0131603684903,0.139250797795,0.194462959676,0.278300208436,0.168178191462,0.128891003123,0.499643515576
tagged_abstract_sents/8018000.txt,17,0.149879129734,-9.40026320737e-05,0.139250797795,0.194462959676,0.278300208436,0.18663189441,0.125597189696,0.562621353231
tagged_abstract_sents/8018000.txt,18,0.176470588235,-0.0130663658582,0.139250797795,0.194462959676,0.278300208436,0.153305115274,0.123766309803,0.576549990349
tagged_abstract_sents/8018000.txt,19,0.176470588235,-0.00263207369806,0.139250797795,0.194462959676,0.278300208436,0.113790025262,0.119412109106,0.481043198186
tagged_abstract_sents/8018000.txt,20,0.166800966962,-0.0240646738109,0.139250797795,0.194462959676,0.278300208436,0.0928188928666,0.124795081967,0.539947121011
tagged_abstract_sents/8018000.txt,21,0.166800966962,0.035721000188,0.139250797795,0.194462959676,0.278300208436,0.179066661062,0.129415495706,0.526622321057
tagged_abstract_sents/8018000.txt,22,0.166800966962,-0.0147584132356,0.139250797795,0.194462959676,0.278300208436,0.119144557219,0.119803864169,0.478611848721
tagged_abstract_sents/8018000.txt,23,0.0954875100725,0.0219026132732,0.139250797795,0.194462959676,0.278300208436,0.215990832187,0.106635441062,0.514664084384
tagged_abstract_sents/8018000.txt,24,0.0954875100725,-0.0339349501786,0.0616692308323,0.247294108221,0.278300208436,0.0,0.0,0.174625865905
tagged_abstract_sents/8018000.txt,25,0.0954875100725,0.021620605377,0.139250797795,0.194462959676,0.278300208436,0.220766467472,0.125635952516,0.654945523547
tagged_abstract_sents/8018000.txt,26,0.0342465753425,0.0202105658958,0.139250797795,0.194462959676,0.278300208436,0.178637512357,0.0993329708933,0.495851769756
tagged_abstract_sents/8018000.txt,27,0.0342465753425,-0.0246286896033,0.139250797795,0.194462959676,0.278300208436,0.0903448770116,0.127371194379,0.430462455487
tagged_abstract_sents/8018000.txt,28,0.0342465753425,-0.0141943974431,0.139250797795,0.194462959676,0.278300208436,0.140144429856,0.144069923051,0.440237959966
