tagged_abstract_sents/8108758.txt,2,0.206355591311,-0.0602016607355,0.0616692308323,0.106008497564,0.0424734991907,0.0,0.0,0.215681305587
tagged_abstract_sents/8108758.txt,4,0.0048270313757,-0.0717674970344,0.0616692308323,0.106008497564,0.0424734991907,0.0,0.0,0.052145290379
tagged_abstract_sents/8108758.txt,5,0.0108608205953,0.0919335705813,0.210342442448,0.0253702522065,0.0424734991907,0.15401906599,0.00631831511597,0.313779190419
tagged_abstract_sents/8108758.txt,6,0.0261464199517,0.032325029656,0.0616692308323,0.106008497564,0.0424734991907,0.147282797356,0.00695014662757,0.283434458561
tagged_abstract_sents/8108758.txt,7,0.0353982300885,-0.0361803084223,0.0616692308323,0.106008497564,0.0424734991907,0.0885572275487,0.00534626663659,0.211581961961
tagged_abstract_sents/8108758.txt,8,0.0518905872888,-0.0762158956109,0.139250797795,0.521468892835,0.0424734991907,0.0,0.0,0.252335357457
tagged_abstract_sents/8108758.txt,10,0.172566371681,0.0252075919336,0.139250797795,0.521468892835,0.0424734991907,0.156125914739,0.00315915755798,0.542834451756
tagged_abstract_sents/8108758.txt,11,0.206355591311,-0.073546856465,0.0616692308323,0.106008497564,0.0424734991907,0.0,0.0,0.213012266441
tagged_abstract_sents/8108758.txt,12,0.262268704747,0.0581257413998,0.139250797795,0.521468892835,0.0424734991907,0.172783278749,0.0060436057631,0.758304559164
tagged_abstract_sents/8108758.txt,13,0.262268704747,-0.0450771055753,0.139250797795,0.521468892835,0.0424734991907,0.0728966035387,0.0173753665689,0.537344414918
