tagged_abstract_sents/8155220.txt,3,0.206355591311,0.070323704159,0.188769469584,0.129715814208,0.330451050252,0.13271196911,0.0570381231672,0.498894804493
tagged_abstract_sents/8155220.txt,4,0.0048270313757,-0.0421532472854,0.0616692308323,0.106008497564,0.330451050252,0.0528712937934,0.0362609970674,0.14619713063
tagged_abstract_sents/8155220.txt,5,0.0108608205953,0.0432800655603,0.210342442448,0.0253702522065,0.330451050252,0.128638845794,0.0447865754317,0.326642935979
tagged_abstract_sents/8155220.txt,6,0.0261464199517,0.0125486580619,0.0616692308323,0.106008497564,0.330451050252,0.154849515498,0.0573453428292,0.411007201588
tagged_abstract_sents/8155220.txt,7,0.0353982300885,-0.029860684286,0.0616692308323,0.106008497564,0.330451050252,0.101274919854,0.0436858504399,0.228081733096
tagged_abstract_sents/8155220.txt,8,0.0518905872888,-0.00281704568736,0.0616692308323,0.106008497564,0.330451050252,0.106059458291,0.0488178152493,0.27416919843
tagged_abstract_sents/8155220.txt,10,0.172566371681,-0.00650481458717,0.139250797795,0.521468892835,0.330451050252,0.121987847855,0.0335125448029,0.542214179491
tagged_abstract_sents/8155220.txt,11,0.206355591311,-0.0538311821348,0.139250797795,0.521468892835,0.330451050252,0.109601973197,0.0606763196481,0.567814339362
tagged_abstract_sents/8155220.txt,12,0.262268704747,-0.030475312436,0.139250797795,0.521468892835,0.330451050252,0.0877383187275,0.0568286552158,0.559627657542
tagged_abstract_sents/8155220.txt,13,0.262268704747,0.0236119647613,0.139250797795,0.521468892835,0.330451050252,0.15104229882,0.0570241586371,0.788242916811
