tagged_abstract_sents/8238175.txt,2,0.0954875100725,-0.0710510863183,0.0616692308323,0.247294108221,0.186224825359,0.0,0.0,0.167202638677
tagged_abstract_sents/8238175.txt,4,0.0805801772764,-0.0692894891368,0.0616692308323,0.247294108221,0.186224825359,0.0,0.0,0.155629091876
tagged_abstract_sents/8238175.txt,5,0.123690572119,0.04873752202,0.210342442448,0.141687475369,0.186224825359,0.495243780316,0.0489968181015,0.763872270046
tagged_abstract_sents/8238175.txt,6,0.123690572119,0.0275983558426,0.0616692308323,0.247294108221,0.186224825359,0.46946443329,0.0582994520064,0.574372106011
tagged_abstract_sents/8238175.txt,7,0.140209508461,-0.0381679389313,0.0616692308323,0.247294108221,0.186224825359,0.211346426883,0.0570708856284,0.475145449273
tagged_abstract_sents/8238175.txt,8,0.149879129734,-0.0176159718144,0.0616692308323,0.247294108221,0.186224825359,0.383484095682,0.0587039482578,0.649177496927
tagged_abstract_sents/8238175.txt,9,0.176470588235,-0.0722254844392,0.139250797795,0.194462959676,0.186224825359,0.0,0.0,0.254695660501
tagged_abstract_sents/8238175.txt,10,0.176470588235,0.0140927774516,0.139250797795,0.194462959676,0.186224825359,0.528019783593,0.055450206502,0.773121963777
tagged_abstract_sents/8238175.txt,11,0.166800966962,0.0710510863183,0.139250797795,0.194462959676,0.186224825359,0.541217565083,0.0542138059042,0.832658244412
tagged_abstract_sents/8238175.txt,12,0.0954875100725,0.030534351145,0.139250797795,0.194462959676,0.186224825359,0.621217100007,0.0568081379466,0.858691170763
tagged_abstract_sents/8238175.txt,13,0.0342465753425,-0.0704638872578,0.139250797795,0.194462959676,0.186224825359,0.0,0.0,0.141268769623
tagged_abstract_sents/8238175.txt,14,0.0342465753425,0.047563123899,0.139250797795,0.194462959676,0.186224825359,0.630561813442,0.04905780449,0.682348061311
