tagged_abstract_sents/8238175.txt,2,0.206355591311,-0.0710510863183,0.0616692308323,0.106008497564,0.186224825359,0.0,0.0,0.213511420471
tagged_abstract_sents/8238175.txt,4,0.0048270313757,-0.0692894891368,0.0616692308323,0.106008497564,0.186224825359,0.0,0.0,0.0526408919585
tagged_abstract_sents/8238175.txt,5,0.0108608205953,0.04873752202,0.210342442448,0.0253702522065,0.186224825359,0.495243780316,0.0489968181015,0.767629628522
tagged_abstract_sents/8238175.txt,6,0.0108608205953,0.0275983558426,0.0616692308323,0.106008497564,0.186224825359,0.46946443329,0.0582994520064,0.601735426902
tagged_abstract_sents/8238175.txt,7,0.0261464199517,-0.0381679389313,0.0616692308323,0.106008497564,0.186224825359,0.211346426883,0.0570708856284,0.367101563818
tagged_abstract_sents/8238175.txt,8,0.0518905872888,-0.0176159718144,0.0616692308323,0.106008497564,0.186224825359,0.383484095682,0.0587039482578,0.633821693104
tagged_abstract_sents/8238175.txt,9,0.0993563958166,-0.0722254844392,0.139250797795,0.521468892835,0.186224825359,0.0,0.0,0.291106086513
tagged_abstract_sents/8238175.txt,10,0.0993563958166,0.0140927774516,0.139250797795,0.521468892835,0.186224825359,0.528019783593,0.055450206502,0.977302661078
tagged_abstract_sents/8238175.txt,11,0.172566371681,0.0710510863183,0.139250797795,0.521468892835,0.186224825359,0.541217565083,0.0542138059042,0.990256888941
tagged_abstract_sents/8238175.txt,13,0.262268704747,-0.0704638872578,0.139250797795,0.521468892835,0.186224825359,0.0,0.0,0.421788253094
tagged_abstract_sents/8238175.txt,14,0.262268704747,0.047563123899,0.139250797795,0.521468892835,0.186224825359,0.630561813442,0.04905780449,1.1828746904
