tagged_abstract_sents/8256008.txt,3,0.0048270313757,-0.0788461538462,0.0616692308323,0.106008497564,0.0843358914422,0.182240278885,0.027995311253,0.259040150461
tagged_abstract_sents/8256008.txt,4,0.0108608205953,0.0217948717949,0.139250797795,0.521468892835,0.0843358914422,0.421974905582,0.0398497310159,0.698141032591
tagged_abstract_sents/8256008.txt,5,0.0353982300885,-0.0147435897436,0.139250797795,0.521468892835,0.0843358914422,0.333353055797,0.0423160551041,0.626525218448
tagged_abstract_sents/8256008.txt,6,0.0993563958166,-0.0288461538462,0.139250797795,0.521468892835,0.0843358914422,0.304819261876,0.0331579209896,0.628380384343
tagged_abstract_sents/8256008.txt,8,0.206355591311,-0.0429487179487,0.139250797795,0.521468892835,0.0843358914422,0.190393768726,0.0407023144453,0.590843051897
tagged_abstract_sents/8256008.txt,9,0.262268704747,-0.00128205128205,0.139250797795,0.521468892835,0.0843358914422,0.404594739767,0.0358528953588,0.915088785303
