tagged_abstract_sents/8353407.txt,2,0.0954875100725,0.0369997764364,0.188769469584,0.123191979006,0.281722570533,0.196093096851,0.102682157627,0.539510101306
tagged_abstract_sents/8353407.txt,3,0.0253827558421,0.0163760339817,0.188769469584,0.123191979006,0.281722570533,0.165938559953,0.127635893011,0.295331259103
tagged_abstract_sents/8353407.txt,4,0.0253827558421,-0.000726581712497,0.188769469584,0.123191979006,0.281722570533,0.0971514996476,0.0942083692839,0.143190206766
tagged_abstract_sents/8353407.txt,6,0.0805801772764,-0.0540465012296,0.0616692308323,0.247294108221,0.281722570533,0.0,0.0,0.138504685368
tagged_abstract_sents/8353407.txt,7,0.123690572119,0.0133579253298,0.0616692308323,0.247294108221,0.281722570533,0.13683314099,0.0741695427092,0.166154259094
tagged_abstract_sents/8353407.txt,8,0.123690572119,-0.0178291974067,0.0616692308323,0.247294108221,0.281722570533,0.146766833962,0.0743587732371,0.407412182608
tagged_abstract_sents/8353407.txt,9,0.140209508461,-0.0540465012296,0.0616692308323,0.247294108221,0.281722570533,0.0,0.0,0.186208150316
tagged_abstract_sents/8353407.txt,10,0.149073327961,0.128549072211,0.0616692308323,0.247294108221,0.281722570533,0.183841473538,0.0884234328047,0.407982139053
tagged_abstract_sents/8353407.txt,11,0.149879129734,-0.0540465012296,0.0616692308323,0.247294108221,0.281722570533,0.0,0.0,0.193943847334
tagged_abstract_sents/8353407.txt,12,0.176470588235,-0.0309076682316,0.0616692308323,0.247294108221,0.281722570533,0.0586351345191,0.061978717285,0.361603042119
tagged_abstract_sents/8353407.txt,13,0.176470588235,-0.0107869438855,0.139250797795,0.194462959676,0.281722570533,0.173909682861,0.0878380913081,0.492949405379
tagged_abstract_sents/8353407.txt,14,0.166800966962,-0.0540465012296,0.139250797795,0.194462959676,0.281722570533,0.0,0.0,0.230422756035
tagged_abstract_sents/8353407.txt,15,0.166800966962,-0.00324167225576,0.139250797795,0.194462959676,0.281722570533,0.0927379839064,0.0742827868852,0.414529945346
tagged_abstract_sents/8353407.txt,16,0.0954875100725,-0.0540465012296,0.139250797795,0.194462959676,0.281722570533,0.0,0.0,0.173371990523
tagged_abstract_sents/8353407.txt,17,0.0954875100725,0.0198971607422,0.139250797795,0.194462959676,0.281722570533,0.14370051875,0.0840934302971,0.466761662539
tagged_abstract_sents/8353407.txt,18,0.0342465753425,-0.0540465012296,0.139250797795,0.194462959676,0.281722570533,0.0,0.0,0.124379242739
tagged_abstract_sents/8353407.txt,19,0.0342465753425,0.0420299575229,0.139250797795,0.194462959676,0.281722570533,0.143094686764,0.0870413739266,0.508621946379
