tagged_abstract_sents/8487449.txt,1,0.125905068383,-0.048185158316,0.0616692308323,0.142474783506,0.0,0.0,0.0,0.164664073511
tagged_abstract_sents/8487449.txt,2,0.239742558327,-0.000163815496946,0.188769469584,0.202456734834,0.0867579438207,0.384575808257,0.0603054806828,0.878522271565
tagged_abstract_sents/8487449.txt,3,0.239742558327,-0.0495190845054,0.0616692308323,0.142474783506,0.0,0.0,0.0,0.255467280228
tagged_abstract_sents/8487449.txt,4,0.218020917136,0.0300718447965,0.0616692308323,0.142474783506,0.0,0.478461872822,0.0479584706,0.780428496558
tagged_abstract_sents/8487449.txt,5,0.218020917136,-0.000608457560085,0.0616692308323,0.142474783506,0.0809735772154,0.271459874049,0.0431062648044,0.643411808733
tagged_abstract_sents/8487449.txt,6,0.162510056315,-0.00905665675973,0.0616692308323,0.142474783506,0.0283648522836,0.175755899693,0.0432483528002,0.449142868945
tagged_abstract_sents/8487449.txt,7,0.162510056315,0.00917366782898,0.0616692308323,0.142474783506,0.130869208962,0.346281571737,0.044441840176,0.727012449962
tagged_abstract_sents/8487449.txt,8,0.101769911504,-0.0504083686317,0.0616692308323,0.142474783506,0.0,0.0,0.0,0.144911305945
tagged_abstract_sents/8487449.txt,9,0.101769911504,0.0176218670286,0.0616692308323,0.142474783506,0.0535895224108,0.469847240057,0.0453033414624,0.727257457007
tagged_abstract_sents/8487449.txt,10,0.0711987127916,-0.0468512321266,0.0616692308323,0.142474783506,0.0,0.0,0.0,0.121165774276
tagged_abstract_sents/8487449.txt,11,0.0711987127916,0.00205939481875,0.139250797795,0.0356431803763,0.0250681817609,0.277927437266,0.0454043914818,0.486089212716
tagged_abstract_sents/8487449.txt,12,0.0458567980692,0.0371861178067,0.139250797795,0.0356431803763,0.0668454730827,0.410475346607,0.0291837210076,0.630945555724
tagged_abstract_sents/8487449.txt,13,0.0458567980692,0.0723128407947,0.139250797795,0.0356431803763,0.0475641286118,0.594203895819,0.0381726065688,0.811406990625
tagged_abstract_sents/8487449.txt,14,0.0245374094932,0.0340736233648,0.139250797795,0.0356431803763,0.0582357947719,0.292325490538,0.0300203939018,0.487344684489
tagged_abstract_sents/8487449.txt,15,0.0245374094932,-0.0152816456437,0.139250797795,0.0356431803763,0.027951428,0.23459815995,0.0179320155735,0.377373555
tagged_abstract_sents/8487449.txt,16,0.00844730490748,-0.0472958741897,0.0616692308323,0.142474783506,0.0,0.0,0.0,0.0708757195559
tagged_abstract_sents/8487449.txt,17,0.00844730490748,0.0234022138494,0.139250797795,0.0356431803763,0.0702823878776,0.477496425925,0.0418912848158,0.681426738325
tagged_abstract_sents/8487449.txt,18,0.00120675784393,0.0367414757436,0.139250797795,0.0356431803763,0.0497182388236,0.292951161761,0.040723626977,0.472025081996
tagged_abstract_sents/8487449.txt,19,0.00120675784393,0.00472724719758,0.139250797795,0.0356431803763,0.085190874153,0.400106006923,0.0590496156534,0.626575705454
