tagged_abstract_sents/8511292.txt,3,0.0048270313757,-0.0858057009889,0.0616692308323,0.106008497564,0.197034770514,0.0184781922422,0.00685483870968,0.0652664396946
tagged_abstract_sents/8511292.txt,4,0.0108608205953,-0.0788248981966,0.0616692308323,0.106008497564,0.197034770514,0.0275293714148,0.00548387096774,0.0882370646619
tagged_abstract_sents/8511292.txt,6,0.0518905872888,-0.0194880744619,0.139250797795,0.521468892835,0.197034770514,0.0516393132026,0.0121151026393,0.319236304915
tagged_abstract_sents/8511292.txt,7,0.0993563958166,0.0485747527632,0.139250797795,0.521468892835,0.197034770514,0.0979706874897,0.0239792465599,0.423794368563
tagged_abstract_sents/8511292.txt,8,0.172566371681,0.0250145433392,0.139250797795,0.521468892835,0.197034770514,0.0684954302028,0.00758064516129,0.514861347325
tagged_abstract_sents/8511292.txt,9,0.206355591311,0.0154159394997,0.139250797795,0.521468892835,0.197034770514,0.0769582782706,0.0195281258331,0.488620275698
tagged_abstract_sents/8511292.txt,10,0.262268704747,-0.0500290866783,0.139250797795,0.521468892835,0.197034770514,0.0502962487273,0.00947580645161,0.603167280224
