tagged_abstract_sents/8574630.txt,3,0.0253827558421,-0.0271446078431,0.0616692308323,0.247294108221,0.00397310475777,0.149732977672,0.0,0.264060012299
tagged_abstract_sents/8574630.txt,4,0.0451248992748,-0.0239276960784,0.0616692308323,0.247294108221,0.00397310475777,0.0701705474167,0.0,0.195590332656
tagged_abstract_sents/8574630.txt,5,0.0805801772764,-0.0101409313725,0.0616692308323,0.247294108221,0.00397310475777,0.134395133467,0.00408832154563,0.265154394738
tagged_abstract_sents/8574630.txt,6,0.123690572119,-0.00278799019608,0.139250797795,0.194462959676,0.00397310475777,0.150300775523,3.49113252339e-05,0.364536841117
tagged_abstract_sents/8574630.txt,7,0.131345688961,0.0105392156863,0.139250797795,0.194462959676,0.00397310475777,0.202567271458,0.00278005865103,0.395157945863
tagged_abstract_sents/8574630.txt,8,0.140209508461,-0.040931372549,0.139250797795,0.194462959676,0.00397310475777,0.0341772940133,0.0,0.23135693153
tagged_abstract_sents/8574630.txt,9,0.149879129734,0.0155943627451,0.139250797795,0.194462959676,0.00397310475777,0.142307289148,0.00817664309125,0.264331793115
tagged_abstract_sents/8574630.txt,10,0.150684931507,0.0109987745098,0.139250797795,0.194462959676,0.00397310475777,0.155283872586,0.00365797190925,0.383299987391
tagged_abstract_sents/8574630.txt,11,0.176470588235,0.0339767156863,0.139250797795,0.194462959676,0.00397310475777,0.227532577043,0.00248219522413,0.228810053129
tagged_abstract_sents/8574630.txt,12,0.166800966962,-0.0119791666667,0.139250797795,0.194462959676,0.00397310475777,0.126837150421,0.0,0.364647984126
tagged_abstract_sents/8574630.txt,13,0.131345688961,0.0569546568627,0.139250797795,0.194462959676,0.00397310475777,0.191908314658,0.0,0.41869308362
tagged_abstract_sents/8574630.txt,14,0.0954875100725,-0.0616115196078,0.139250797795,0.194462959676,0.00397310475777,0.0120905017858,0.0,0.181973033662
tagged_abstract_sents/8574630.txt,15,0.0342465753425,0.0376531862745,0.139250797795,0.194462959676,0.00397310475777,0.240305805102,0.00248219522413,0.31556927255
tagged_abstract_sents/8574630.txt,16,0.0342465753425,-0.0276041666667,0.139250797795,0.194462959676,0.00397310475777,0.169974545902,0.00365797190925,0.225147495691
