tagged_abstract_sents/8598623.txt,2,0.206355591311,-0.0537832068311,0.0616692308323,0.106008497564,0.426574966477,0.0,0.0,0.216964996368
tagged_abstract_sents/8598623.txt,4,0.206355591311,-0.0522711100569,0.0616692308323,0.106008497564,0.426574966477,0.0,0.0,0.217267415723
tagged_abstract_sents/8598623.txt,5,0.0048270313757,0.0949063092979,0.0616692308323,0.106008497564,0.426574966477,0.239546843018,0.128014351808,0.433209648604
tagged_abstract_sents/8598623.txt,6,0.0048270313757,-0.0507590132827,0.0616692308323,0.106008497564,0.426574966477,0.0,0.0,0.0563469871293
tagged_abstract_sents/8598623.txt,7,0.0108608205953,-0.0200130455408,0.0616692308323,0.106008497564,0.426574966477,0.107209299953,0.113473704088,0.398011963321
tagged_abstract_sents/8598623.txt,8,0.0261464199517,0.0495434060721,0.0616692308323,0.106008497564,0.426574966477,0.196312605817,0.123412061454,0.459862502214
tagged_abstract_sents/8598623.txt,9,0.0261464199517,-0.00690820683112,0.0616692308323,0.106008497564,0.426574966477,0.12737474984,0.133211037224,0.385974115486
tagged_abstract_sents/8598623.txt,10,0.0518905872888,-0.0507590132827,0.0616692308323,0.106008497564,0.426574966477,0.0,0.0,0.0939978318598
tagged_abstract_sents/8598623.txt,11,0.0518905872888,-0.0275735294118,0.0616692308323,0.106008497564,0.426574966477,0.0681612134943,0.0939807383628,0.281953977073
tagged_abstract_sents/8598623.txt,12,0.0993563958166,-0.0512630455408,0.0616692308323,0.106008497564,0.426574966477,0.0,0.0,0.13186967223
tagged_abstract_sents/8598623.txt,13,0.172566371681,0.0213175996205,0.0616692308323,0.106008497564,0.426574966477,0.179257539999,0.110844301766,0.550513922686
tagged_abstract_sents/8598623.txt,14,0.172566371681,0.0389587286528,0.0616692308323,0.106008497564,0.426574966477,0.155637387294,0.108962011771,0.520838150459
tagged_abstract_sents/8598623.txt,15,0.206355591311,0.00266840607211,0.0616692308323,0.106008497564,0.426574966477,0.170427606107,0.110728731942,0.578965142523
tagged_abstract_sents/8598623.txt,16,0.206355591311,-0.052775142315,0.139250797795,0.521468892835,0.426574966477,0.0,0.0,0.380595511334
tagged_abstract_sents/8598623.txt,17,0.262268704747,0.0530716318786,0.139250797795,0.521468892835,0.426574966477,0.21411427516,0.125798417003,0.877421000244
