tagged_abstract_sents/8621845.txt,1,0.125905068383,-0.0653343886031,0.0616692308323,0.142474783506,0.0,0.0,0.0,0.161234227454
tagged_abstract_sents/8621845.txt,2,0.239742558327,-0.000514444004749,0.188769469584,0.202456734834,0.214780963883,0.442129061081,0.0869225510304,1.0906454891
tagged_abstract_sents/8621845.txt,3,0.218020917136,0.0177681044717,0.0616692308323,0.142474783506,0.231355318287,0.332319954418,0.120291341291,0.935514019066
tagged_abstract_sents/8621845.txt,4,0.218020917136,-0.0669964384646,0.210342442448,0.226435992083,0.0,0.0,0.0,0.334119464865
tagged_abstract_sents/8621845.txt,5,0.162510056315,0.0571032845271,0.194899689933,0.13295610691,0.177268333805,0.332112326742,0.0870904141029,0.875236453647
tagged_abstract_sents/8621845.txt,6,0.101769911504,0.0111199050257,0.210342442448,0.226435992083,0.0791443285489,0.239815871384,0.0556438617052,0.631345990696
tagged_abstract_sents/8621845.txt,7,0.0852775543041,-0.0669964384646,0.0616692308323,0.142474783506,0.0,0.0,0.0,0.128399806218
tagged_abstract_sents/8621845.txt,8,0.0711987127916,0.0504550850811,0.139250797795,0.0356431803763,0.0300511129802,0.282570773448,0.0477885358123,0.5077787625
tagged_abstract_sents/8621845.txt,9,0.0458567980692,-0.0121487930352,0.139250797795,0.0356431803763,0.0275825195608,0.195769102548,0.0180581168887,0.355983771856
tagged_abstract_sents/8621845.txt,10,0.0245374094932,0.0266323703997,0.139250797795,0.0356431803763,0.095473665844,0.333557215475,0.0616407852329,0.595946421236
tagged_abstract_sents/8621845.txt,11,0.0245374094932,0.0886822318955,0.139250797795,0.0356431803763,0.141246363225,0.547421173957,0.10069272948,0.907044993645
tagged_abstract_sents/8621845.txt,12,0.00844730490748,-0.00882469331223,0.139250797795,0.0356431803763,0.198482891875,0.308426317903,0.0757016012943,0.667922069346
tagged_abstract_sents/8621845.txt,13,0.00120675784393,-0.0653343886031,0.0616692308323,0.142474783506,0.0,0.0,0.0,0.0614755790224
tagged_abstract_sents/8621845.txt,14,0.00120675784393,0.0343886030867,0.139250797795,0.0356431803763,0.219132545928,0.432399913263,0.0896041504592,0.829298089552
