tagged_abstract_sents/8622332.txt,2,0.0954875100725,-0.0617647058824,0.0616692308323,0.247294108221,0.0825665507641,0.0,0.0,0.169059914764
tagged_abstract_sents/8622332.txt,4,0.0451248992748,0.0113190730838,0.188769469584,0.123191979006,0.0825665507641,0.196689804257,0.135885592853,0.474360010582
tagged_abstract_sents/8622332.txt,5,0.0805801772764,0.0286987522282,0.0616692308323,0.247294108221,0.0825665507641,0.273623942046,0.121138996139,0.538513667565
tagged_abstract_sents/8622332.txt,6,0.123690572119,-0.0631016042781,0.0616692308323,0.247294108221,0.0825665507641,0.0,0.0,0.191354984722
tagged_abstract_sents/8622332.txt,7,0.131345688961,0.0291443850267,0.210342442448,0.141687475369,0.0825665507641,0.170719872562,0.0937763466042,0.497604495422
tagged_abstract_sents/8622332.txt,8,0.140209508461,0.00998217468806,0.194899689933,0.293363477728,0.0825665507641,0.203710367887,0.129884421893,0.623835058847
tagged_abstract_sents/8622332.txt,9,0.149879129734,-0.0167557932264,0.0616692308323,0.247294108221,0.0825665507641,0.12028931989,0.0633991301439,0.378038271759
tagged_abstract_sents/8622332.txt,10,0.150684931507,-0.0626559714795,0.0616692308323,0.247294108221,0.0825665507641,0.0,0.0,0.213039598792
tagged_abstract_sents/8622332.txt,11,0.176470588235,0.0491978609626,0.139250797795,0.194462959676,0.0825665507641,0.28420012742,0.139699732352,0.63553494381
tagged_abstract_sents/8622332.txt,12,0.166800966962,0.149019607843,0.139250797795,0.194462959676,0.0825665507641,0.280437809565,0.133973295602,0.67823313921
tagged_abstract_sents/8622332.txt,13,0.131345688961,-0.0212121212121,0.139250797795,0.194462959676,0.0825665507641,0.168334099958,0.111840004258,0.559665133337
tagged_abstract_sents/8622332.txt,14,0.0954875100725,-0.0599821746881,0.0616692308323,0.247294108221,0.0825665507641,0.0,0.0,0.169416421003
tagged_abstract_sents/8622332.txt,15,0.0342465753425,0.0358288770053,0.139250797795,0.194462959676,0.0825665507641,0.264062895045,0.143515807963,0.608302558939
tagged_abstract_sents/8622332.txt,16,0.0342465753425,-0.0270053475936,0.139250797795,0.194462959676,0.0825665507641,0.187702463811,0.122855116195,0.424364429486
