tagged_abstract_sents/8647965.txt,2,0.206355591311,-0.0534539473684,0.0616692308323,0.106008497564,0.272712724333,0.0,0.0,0.217030848261
tagged_abstract_sents/8647965.txt,4,0.206355591311,0.0189144736842,0.188769469584,0.129715814208,0.272712724333,0.241156489873,0.0386541079954,0.603039684968
tagged_abstract_sents/8647965.txt,5,0.0048270313757,-0.0542763157895,0.0616692308323,0.106008497564,0.272712724333,0.0,0.0,0.055643526628
tagged_abstract_sents/8647965.txt,7,0.0108608205953,-0.0559210526316,0.0616692308323,0.106008497564,0.272712724333,0.0,0.0,0.0601416106352
tagged_abstract_sents/8647965.txt,8,0.0261464199517,0.015625,0.210342442448,0.0253702522065,0.272712724333,0.258927616142,0.0371292769476,0.474071226089
tagged_abstract_sents/8647965.txt,9,0.0353982300885,-0.0123355263158,0.0616692308323,0.106008497564,0.272712724333,0.180240918748,0.0322506383157,0.407420932356
tagged_abstract_sents/8647965.txt,10,0.0518905872888,0.00164473684211,0.0616692308323,0.106008497564,0.272712724333,0.231099335562,0.0389182903604,0.366724529798
tagged_abstract_sents/8647965.txt,11,0.0993563958166,-0.0263157894737,0.0616692308323,0.106008497564,0.272712724333,0.160498674612,0.0182447204129,0.343067155173
tagged_abstract_sents/8647965.txt,12,0.0993563958166,-0.0559210526316,0.139250797795,0.521468892835,0.272712724333,0.0,0.0,0.294366972875
tagged_abstract_sents/8647965.txt,13,0.172566371681,0.0476973684211,0.139250797795,0.521468892835,0.272712724333,0.300634706855,0.0363536478172,0.750887986128
tagged_abstract_sents/8647965.txt,14,0.206355591311,0.0361842105263,0.139250797795,0.521468892835,0.272712724333,0.269528247297,0.0345940358759,0.752868143693
tagged_abstract_sents/8647965.txt,15,0.206355591311,0.015625,0.139250797795,0.521468892835,0.272712724333,0.226271654389,0.0427226779959,0.730981756102
tagged_abstract_sents/8647965.txt,16,0.262268704747,-0.0534539473684,0.0616692308323,0.106008497564,0.272712724333,0.0,0.0,0.261761339009
tagged_abstract_sents/8647965.txt,17,0.262268704747,0.03125,0.139250797795,0.521468892835,0.272712724333,0.316598168805,0.0365549091011,0.902291661139
