tagged_abstract_sents/8677076.txt,2,0.0954875100725,-0.0540886809269,0.0616692308323,0.247294108221,0.139907640017,0.0,0.0,0.170595119755
tagged_abstract_sents/8677076.txt,4,0.0253827558421,-0.0550356506239,0.0616692308323,0.247294108221,0.139907640017,0.0,0.0,0.114321922431
tagged_abstract_sents/8677076.txt,5,0.0805801772764,0.0690173796791,0.210342442448,0.141687475369,0.139907640017,0.445479765262,0.0467445342917,0.644083277979
tagged_abstract_sents/8677076.txt,6,0.0805801772764,0.0335060160428,0.194899689933,0.293363477728,0.139907640017,0.537480582302,0.0506862471729,0.724013984628
tagged_abstract_sents/8677076.txt,7,0.123690572119,0.122994652406,0.0616692308323,0.247294108221,0.139907640017,0.539877234789,0.0498264062205,0.761770433281
tagged_abstract_sents/8677076.txt,8,0.140209508461,-0.0550356506239,0.0616692308323,0.247294108221,0.139907640017,0.0,0.0,0.206183324526
tagged_abstract_sents/8677076.txt,9,0.140209508461,-0.00531974153298,0.139250797795,0.194462959676,0.139907640017,0.233498335082,0.0489988448209,0.460338067488
tagged_abstract_sents/8677076.txt,10,0.149879129734,0.0145666221034,0.139250797795,0.194462959676,0.139907640017,0.293759976069,0.0518907331221,0.584041650788
tagged_abstract_sents/8677076.txt,11,0.149879129734,0.0297181372549,0.139250797795,0.194462959676,0.139907640017,0.419603863867,0.0620762884914,0.721618460505
tagged_abstract_sents/8677076.txt,12,0.176470588235,-0.0228386809269,0.139250797795,0.194462959676,0.139907640017,0.237770967056,0.0379777455249,0.548951843484
tagged_abstract_sents/8677076.txt,13,0.166800966962,-0.0237856506239,0.139250797795,0.194462959676,0.139907640017,0.237770967056,0.0379777455249,0.532827182564
tagged_abstract_sents/8677076.txt,14,0.166800966962,-0.0536151960784,0.139250797795,0.194462959676,0.139907640017,0.0,0.0,0.250682021154
tagged_abstract_sents/8677076.txt,15,0.0954875100725,0.025930258467,0.139250797795,0.194462959676,0.139907640017,0.504484499106,0.0469362084456,0.688869531978
tagged_abstract_sents/8677076.txt,16,0.0954875100725,-0.0185773172906,0.139250797795,0.194462959676,0.139907640017,0.392277671322,0.0505272615501,0.500125106709
tagged_abstract_sents/8677076.txt,17,0.0342465753425,0.0188279857398,0.139250797795,0.194462959676,0.139907640017,0.376247760446,0.0477551798307,0.557639744533
tagged_abstract_sents/8677076.txt,18,0.0342465753425,-0.019997771836,0.139250797795,0.194462959676,0.139907640017,0.358886517984,0.0475025789491,0.430114022345
