tagged_abstract_sents/8698945.txt,3,0.0451248992748,0.0311914323963,0.188769469584,0.123191979006,0.0536436100929,0.080261983106,0.0423076923077,0.240867279128
tagged_abstract_sents/8698945.txt,4,0.116035455278,-0.0451137884873,0.188769469584,0.123191979006,0.0536436100929,0.0264219623004,0.0386049434437,0.248234880659
tagged_abstract_sents/8698945.txt,5,0.131345688961,-0.0678714859438,0.0616692308323,0.247294108221,0.0536436100929,0.0172571890834,0.0450391006843,0.246829070983
tagged_abstract_sents/8698945.txt,6,0.149073327961,-0.0303882195448,0.0616692308323,0.247294108221,0.0536436100929,0.0406493883571,0.0281036168133,0.308673492936
tagged_abstract_sents/8698945.txt,7,0.150684931507,-0.0129852744311,0.0616692308323,0.247294108221,0.0536436100929,0.0617931900636,0.05,0.228060322118
tagged_abstract_sents/8698945.txt,8,0.202256244964,-0.0451137884873,0.0616692308323,0.247294108221,0.0536436100929,0.0264219623004,0.0386049434437,0.290892031796
tagged_abstract_sents/8698945.txt,9,0.131345688961,-0.0678714859438,0.139250797795,0.194462959676,0.0536436100929,0.0172571890834,0.0450391006843,0.2697705099
tagged_abstract_sents/8698945.txt,10,0.0342465753425,-0.0357429718876,0.139250797795,0.194462959676,0.0536436100929,0.03148461514,0.031616568915,0.241488782047
tagged_abstract_sents/8698945.txt,11,0.0342465753425,0.0432396251673,0.139250797795,0.194462959676,0.0536436100929,0.0824750956363,0.0442138506655,0.241176835996
