tagged_abstract_sents/8698944.txt,2,0.0253827558421,-0.164105847204,0.0616692308323,0.247294108221,0.0487984509022,0.0,0.0,0.0484814921712
tagged_abstract_sents/8698944.txt,4,0.149073327961,-0.0898420827998,0.139250797795,0.194462959676,0.0487984509022,0.0437951639795,0.0140925382861,0.270174003651
tagged_abstract_sents/8698944.txt,5,0.176470588235,0.0330772513871,0.139250797795,0.194462959676,0.0487984509022,0.0904357487044,0.0399101906158,0.326101014849
tagged_abstract_sents/8698944.txt,6,0.0954875100725,0.0420401195049,0.139250797795,0.194462959676,0.0487984509022,0.0828818881584,0.0440511101801,0.280925855583
tagged_abstract_sents/8698944.txt,7,0.0342465753425,0.00106700810926,0.139250797795,0.194462959676,0.0487984509022,0.0531934855314,0.0507478005865,0.138104024652
