tagged_abstract_sents/8699062.txt,3,0.016894609815,-0.0553459119497,0.139250797795,0.521468892835,0.0375631699345,0.269064333662,0.020771970947,0.509141777612
tagged_abstract_sents/8699062.txt,5,0.214802896219,0.00754716981132,0.139250797795,0.521468892835,0.0375631699345,0.33318847725,0.0257965069619,0.757018825573
tagged_abstract_sents/8699062.txt,6,0.262268704747,-0.011320754717,0.139250797795,0.521468892835,0.0375631699345,0.438105716232,0.0386861161107,0.926469812821
