tagged_abstract_sents/8751018.txt,2,0.0954875100725,0.0449790794979,0.210342442448,0.141687475369,0.0366700100002,0.750908472663,0.0311196723458,0.950991284849
tagged_abstract_sents/8751018.txt,3,0.0253827558421,-0.0498605299861,0.0616692308323,0.247294108221,0.0366700100002,0.261738772178,0.0341862759061,0.392452660244
tagged_abstract_sents/8751018.txt,5,0.123690572119,-0.0228963272896,0.139250797795,0.194462959676,0.0366700100002,0.490259272411,0.0386196582452,0.746865577013
tagged_abstract_sents/8751018.txt,6,0.140209508461,0.105880985588,0.139250797795,0.194462959676,0.0366700100002,0.587026061535,0.0345498182816,0.944616064997
tagged_abstract_sents/8751018.txt,7,0.149073327961,-0.0368433286843,0.139250797795,0.194462959676,0.0366700100002,0.308581606077,0.0366088367734,0.466513454397
tagged_abstract_sents/8751018.txt,8,0.149879129734,0.0240585774059,0.139250797795,0.194462959676,0.0366700100002,0.581588768241,0.0352739491188,0.927374878853
tagged_abstract_sents/8751018.txt,9,0.176470588235,-0.0201069270107,0.139250797795,0.194462959676,0.0366700100002,0.681581477982,0.0458021897643,0.945094135481
tagged_abstract_sents/8751018.txt,10,0.166800966962,-0.0628777312878,0.139250797795,0.194462959676,0.0366700100002,0.21043917653,0.0137145991908,0.467911874431
tagged_abstract_sents/8751018.txt,11,0.0954875100725,0.0082519758252,0.139250797795,0.194462959676,0.0366700100002,0.643897453716,0.0337556921936,0.781566073999
tagged_abstract_sents/8751018.txt,12,0.0342465753425,-0.0354486285449,0.139250797795,0.194462959676,0.0366700100002,0.333077290765,0.00846876500034,0.414562885181
tagged_abstract_sents/8751018.txt,13,0.0342465753425,-0.0056950255695,0.139250797795,0.194462959676,0.0366700100002,0.610611709627,0.0454137852821,0.718646947254
