tagged_abstract_sents/8792761.txt,2,0.206355591311,-0.0540492238562,0.0616692308323,0.106008497564,0.0,0.0,0.0,0.216911792963
tagged_abstract_sents/8792761.txt,3,0.206355591311,0.0136591094771,0.188769469584,0.129715814208,0.0,0.400721450672,0.0443392909464,0.769178266023
tagged_abstract_sents/8792761.txt,4,0.206355591311,-0.0392922794118,0.0616692308323,0.106008497564,0.0,0.073253293726,0.0350294625126,0.324063025935
tagged_abstract_sents/8792761.txt,5,0.0048270313757,-0.0553513071895,0.0616692308323,0.106008497564,0.0,0.0,0.0,0.0554285283479
tagged_abstract_sents/8792761.txt,7,0.0108608205953,-0.0214971405229,0.0616692308323,0.106008497564,0.0,0.299766367162,0.0351666596905,0.441343622017
tagged_abstract_sents/8792761.txt,8,0.0261464199517,0.0757250816993,0.139250797795,0.521468892835,0.0,0.361391511508,0.0322707295634,0.70196117807
tagged_abstract_sents/8792761.txt,9,0.0261464199517,-0.0553513071895,0.139250797795,0.521468892835,0.0,0.0,0.0,0.235912941271
tagged_abstract_sents/8792761.txt,10,0.0518905872888,0.0418709150327,0.139250797795,0.521468892835,0.0,0.34294548312,0.0470295648292,0.64966361816
tagged_abstract_sents/8792761.txt,11,0.0518905872888,-0.0149867238562,0.139250797795,0.521468892835,0.0,0.119735427285,0.0177995898037,0.396803312585
tagged_abstract_sents/8792761.txt,12,0.0993563958166,-0.0145526960784,0.139250797795,0.521468892835,0.0,0.195908032228,0.0254279854338,0.605360521738
tagged_abstract_sents/8792761.txt,13,0.172566371681,-0.0241013071895,0.139250797795,0.521468892835,0.0,0.129472641249,0.0365514210372,0.572973732698
tagged_abstract_sents/8792761.txt,14,0.172566371681,0.0453431372549,0.139250797795,0.521468892835,0.0,0.255459648059,0.0413126281863,0.678214441516
tagged_abstract_sents/8792761.txt,15,0.206355591311,-0.0536151960784,0.139250797795,0.521468892835,0.0,0.0,0.0,0.380427500581
tagged_abstract_sents/8792761.txt,16,0.206355591311,0.0974264705882,0.139250797795,0.521468892835,0.0,0.37140301923,0.0448891068676,0.912564071936
tagged_abstract_sents/8792761.txt,18,0.262268704747,-0.0236672794118,0.139250797795,0.521468892835,0.0,0.169219245167,0.0323536703554,0.622455931256
