tagged_abstract_sents/8804449.txt,2,0.206355591311,-0.0682205452775,0.0616692308323,0.106008497564,0.107607304674,0.0,0.0,0.214077528679
tagged_abstract_sents/8804449.txt,4,0.0048270313757,-0.0666382667965,0.0616692308323,0.106008497564,0.107607304674,0.0,0.0,0.0531711364266
tagged_abstract_sents/8804449.txt,5,0.0108608205953,0.0290895813048,0.0616692308323,0.106008497564,0.107607304674,0.306096102034,0.079971191831,0.522235889715
tagged_abstract_sents/8804449.txt,6,0.0108608205953,-0.070593962999,0.0616692308323,0.106008497564,0.107607304674,0.0,0.0,0.0572070285618
tagged_abstract_sents/8804449.txt,7,0.0261464199517,-0.004929406037,0.139250797795,0.521468892835,0.107607304674,0.263672918529,0.0518471539559,0.586529513081
tagged_abstract_sents/8804449.txt,8,0.0518905872888,0.0275073028238,0.139250797795,0.521468892835,0.107607304674,0.317685223123,0.068617441259,0.677400467832
tagged_abstract_sents/8804449.txt,10,0.0993563958166,-0.0120496592016,0.139250797795,0.521468892835,0.107607304674,0.238380485556,0.0860419639554,0.675307155859
tagged_abstract_sents/8804449.txt,11,0.172566371681,0.0108933787731,0.139250797795,0.521468892835,0.107607304674,0.238812957227,0.0617649995008,0.715127244851
tagged_abstract_sents/8804449.txt,12,0.206355591311,-0.067429406037,0.139250797795,0.521468892835,0.107607304674,0.0,0.0,0.37766465859
tagged_abstract_sents/8804449.txt,13,0.262268704747,0.147760467381,0.139250797795,0.521468892835,0.107607304674,0.292151405163,0.0571599709066,0.826178552764
tagged_abstract_sents/8804449.txt,14,0.262268704747,-0.0144230769231,0.139250797795,0.521468892835,0.107607304674,0.234117440622,0.0725890985325,0.793319040864
