tagged_abstract_sents/8896509.txt,3,0.0805801772764,0.00552415210689,0.0616692308323,0.247294108221,0.0654586569658,0.276265654661,0.0386490157952,0.441903255501
tagged_abstract_sents/8896509.txt,4,0.140209508461,0.135020554985,0.139250797795,0.194462959676,0.0654586569658,0.382397496468,0.0654740588816,0.678079735869
tagged_abstract_sents/8896509.txt,5,0.149879129734,-0.0223535457348,0.139250797795,0.194462959676,0.0654586569658,0.255821963337,0.0570868737181,0.539583677139
tagged_abstract_sents/8896509.txt,6,0.166800966962,-0.0889003083248,0.139250797795,0.194462959676,0.0654586569658,0.149161027789,0.0367554727722,0.34652899271
tagged_abstract_sents/8896509.txt,7,0.0954875100725,-0.0664182939363,0.139250797795,0.194462959676,0.0654586569658,0.194110802038,0.0569971432757,0.421634170456
tagged_abstract_sents/8896509.txt,8,0.0342465753425,0.00912127440904,0.139250797795,0.194462959676,0.0654586569658,0.243638253126,0.0472568121887,0.397978131024
