tagged_abstract_sents/8916634.txt,3,0.0108608205953,-0.0068349106204,0.139250797795,0.521468892835,0.038198611987,0.198561250015,0.0128524139795,0.465148097881
tagged_abstract_sents/8916634.txt,4,0.0353982300885,-0.0289169295478,0.139250797795,0.521468892835,0.038198611987,0.194625420484,0.0233572779679,0.497952745884
tagged_abstract_sents/8916634.txt,6,0.206355591311,0.000525762355415,0.139250797795,0.521468892835,0.038198611987,0.234199092853,0.02399980484,0.678704574097
tagged_abstract_sents/8916634.txt,7,0.262268704747,-0.015247108307,0.139250797795,0.521468892835,0.038198611987,0.202247892501,0.0220433255269,0.662179958621
