tagged_abstract_sents/8953819.txt,3,0.0048270313757,-0.0511744966443,0.188769469584,0.129715814208,0.116904376791,0.0615526965526,0.0176131928181,0.207713156183
tagged_abstract_sents/8953819.txt,4,0.0108608205953,0.0600431447747,0.188769469584,0.129715814208,0.116904376791,0.185215822336,0.0834601873536,0.428563091535
tagged_abstract_sents/8953819.txt,5,0.0353982300885,0.0427852348993,0.188769469584,0.129715814208,0.116904376791,0.14883356116,0.0672503725782,0.380891684995
tagged_abstract_sents/8953819.txt,7,0.172566371681,-0.0885666347076,0.188769469584,0.129715814208,0.116904376791,0.0908944897213,0.00567915690867,0.350042362421
tagged_abstract_sents/8953819.txt,8,0.206355591311,0.108940556088,0.188769469584,0.129715814208,0.116904376791,0.193131262825,0.0946077283372,0.623754484878
tagged_abstract_sents/8953819.txt,9,0.262268704747,-0.0674736337488,0.188769469584,0.129715814208,0.116904376791,0.155766366333,0.087368963979,0.640369095945
