tagged_abstract_sents/9058342.txt,1,0.125905068383,-0.0757747543462,0.0616692308323,0.142474783506,0.0,0.0,0.0,0.159146154305
tagged_abstract_sents/9058342.txt,2,0.239742558327,0.0315570672714,0.188769469584,0.202456734834,0.050348316134,0.324660496209,0.0684531013134,0.796689129014
tagged_abstract_sents/9058342.txt,3,0.218020917136,-0.07350718065,0.0616692308323,0.142474783506,0.0,0.0,0.0,0.233292348047
tagged_abstract_sents/9058342.txt,4,0.162510056315,0.0640589569161,0.194899689933,0.13295610691,0.11358229645,0.326324722659,0.0669626364667,0.78702616905
tagged_abstract_sents/9058342.txt,5,0.101769911504,-0.0168178382464,0.0616692308323,0.142474783506,0.0511321235179,0.233956026904,0.0524017644952,0.489119326939
tagged_abstract_sents/9058342.txt,6,0.0852775543041,-0.0772864701436,0.0616692308323,0.142474783506,0.0,0.0,0.0,0.126341799882
tagged_abstract_sents/9058342.txt,7,0.0711987127916,0.0330687830688,0.139250797795,0.0356431803763,0.0883190734482,0.231747270393,0.0299142168832,0.493871640582
tagged_abstract_sents/9058342.txt,8,0.0458567980692,0.0428949357521,0.139250797795,0.0356431803763,0.0672897989739,0.20800632914,0.0195403388428,0.420419245573
tagged_abstract_sents/9058342.txt,9,0.0245374094932,-0.0107709750567,0.139250797795,0.0356431803763,0.0275222384758,0.205220655954,0.0357542958584,0.366291275882
tagged_abstract_sents/9058342.txt,10,0.00844730490748,0.0587679516251,0.139250797795,0.0356431803763,0.125841173053,0.288929904809,0.0439828996084,0.557583764732
tagged_abstract_sents/9058342.txt,11,0.00120675784393,-0.0750188964475,0.0616692308323,0.142474783506,0.0,0.0,0.0,0.0595386774535
tagged_abstract_sents/9058342.txt,12,0.00120675784393,0.098828420257,0.139250797795,0.0356431803763,0.122327698171,0.342256038894,0.0574702119348,0.623103392337
