tagged_abstract_sents/9112711.txt,1,0.125905068383,-0.0453486657821,0.0616692308323,0.142474783506,0.0,0.0,0.0,0.165231372018
tagged_abstract_sents/9112711.txt,2,0.239742558327,-0.0403066489754,0.0616692308323,0.142474783506,0.0,0.0537639017556,0.0199094046592,0.330983073749
tagged_abstract_sents/9112711.txt,3,0.239742558327,-0.0375055285272,0.0616692308323,0.142474783506,0.0,0.0,0.0,0.257869991424
tagged_abstract_sents/9112711.txt,4,0.218020917136,0.025239569512,0.188769469584,0.202456734834,0.306692232219,0.235150070418,0.0369596263128,0.913388331803
tagged_abstract_sents/9112711.txt,5,0.218020917136,-0.0464691139614,0.0616692308323,0.142474783506,0.0,0.0,0.0,0.238699961384
tagged_abstract_sents/9112711.txt,6,0.162510056315,0.0173964322571,0.210342442448,0.226435992083,0.224935431336,0.148013585723,0.0534404659189,0.732978833331
tagged_abstract_sents/9112711.txt,7,0.162510056315,-0.0481497862303,0.0616692308323,0.142474783506,0.0,0.0,0.0,0.193955138274
tagged_abstract_sents/9112711.txt,8,0.101769911504,0.0370042753944,0.210342442448,0.226435992083,0.3360371992,0.204285951075,0.0436964890157,0.845938442422
tagged_abstract_sents/9112711.txt,9,0.101769911504,-0.0190181335692,0.0616692308323,0.142474783506,0.0225192664895,0.0743784518232,0.0195460277427,0.267633099013
tagged_abstract_sents/9112711.txt,10,0.0711987127916,-0.0481497862303,0.0616692308323,0.142474783506,0.0,0.0,0.0,0.120906063455
tagged_abstract_sents/9112711.txt,11,0.0711987127916,0.0173964322571,0.139250797795,0.0356431803763,0.197876889518,0.126066115118,0.0501869427668,0.514886557098
tagged_abstract_sents/9112711.txt,12,0.0458567980692,-0.0234999262863,0.139250797795,0.0356431803763,0.0282634137804,0.0815992143797,0.0044633968275,0.226629831196
tagged_abstract_sents/9112711.txt,13,0.0458567980692,0.0739790653103,0.139250797795,0.0356431803763,0.204020958541,0.20452273215,0.0347368421053,0.575080137324
tagged_abstract_sents/9112711.txt,14,0.0245374094932,0.0123544154504,0.139250797795,0.0356431803763,0.147134198036,0.199005556597,0.0520276100086,0.500586528336
tagged_abstract_sents/9112711.txt,15,0.0245374094932,0.0835028748341,0.139250797795,0.0356431803763,0.299373378576,0.191964971617,0.0409117054932,0.648898911257
tagged_abstract_sents/9112711.txt,16,0.00844730490748,-0.00725342768686,0.139250797795,0.0356431803763,0.0994637412168,0.0943726901611,0.050086281277,0.329548224054
tagged_abstract_sents/9112711.txt,17,0.00844730490748,-0.0459088898717,0.0616692308323,0.142474783506,0.0,0.0,0.0,0.0711531164195
tagged_abstract_sents/9112711.txt,18,0.00120675784393,0.0549314462627,0.139250797795,0.0356431803763,0.30857552091,0.164264619743,0.0547510972728,0.619861286464
tagged_abstract_sents/9112711.txt,19,0.00120675784393,0.0398053958425,0.139250797795,0.0356431803763,0.320668376129,0.17470147678,0.0639603106126,0.648575001976
