tagged_abstract_sents/9161648.txt,1,0.125905068383,-0.0393939393939,0.0616692308323,0.142474783506,0.0,0.0,0.0,0.166422317295
tagged_abstract_sents/9161648.txt,2,0.125905068383,0.049696969697,0.188769469584,0.202456734834,0.157882714485,0.251080152852,0.0608508977361,0.735598968961
tagged_abstract_sents/9161648.txt,3,0.239742558327,-0.0412121212121,0.0616692308323,0.142474783506,0.0,0.0,0.0,0.257128672887
tagged_abstract_sents/9161648.txt,4,0.239742558327,0.0145454545455,0.0616692308323,0.142474783506,0.0650887583662,0.17163128577,0.0389771174863,0.543977349661
tagged_abstract_sents/9161648.txt,5,0.218020917136,-0.0406060606061,0.0616692308323,0.142474783506,0.0,0.0,0.0,0.239872572055
tagged_abstract_sents/9161648.txt,6,0.218020917136,0.0206060606061,0.0616692308323,0.142474783506,0.0658421243305,0.100548615788,0.0294478190867,0.447953555503
tagged_abstract_sents/9161648.txt,7,0.162510056315,-0.04,0.0616692308323,0.142474783506,0.0,0.0,0.0,0.19558509552
tagged_abstract_sents/9161648.txt,8,0.162510056315,0.00606060606061,0.210342442448,0.226435992083,0.0817247063893,0.11929631351,0.0287779729378,0.53412117795
tagged_abstract_sents/9161648.txt,9,0.101769911504,0.0157575757576,0.0616692308323,0.142474783506,0.150567754365,0.127057066109,0.0169716042155,0.452740919512
tagged_abstract_sents/9161648.txt,10,0.101769911504,-0.0351515151515,0.0616692308323,0.142474783506,0.0,0.0,0.0,0.147962676641
tagged_abstract_sents/9161648.txt,11,0.0852775543041,0.00545454545455,0.0616692308323,0.142474783506,0.183803267313,0.102675366063,0.0134385977752,0.442807234152
tagged_abstract_sents/9161648.txt,12,0.0711987127916,-0.00121212121212,0.0616692308323,0.142474783506,0.0214145504957,0.0983617283136,0.0188524590164,0.268922334284
tagged_abstract_sents/9161648.txt,13,0.0711987127916,0.00969696969697,0.0616692308323,0.142474783506,0.0179566399429,0.11608885261,0.0148835202761,0.28140442747
tagged_abstract_sents/9161648.txt,14,0.0458567980692,0.00242424242424,0.0616692308323,0.142474783506,0.0198820489494,0.124988107831,0.0125227686703,0.268140262859
tagged_abstract_sents/9161648.txt,15,0.0458567980692,-0.0406060606061,0.0616692308323,0.142474783506,0.0,0.0,0.0,0.102141276802
tagged_abstract_sents/9161648.txt,16,0.0245374094932,-0.00606060606061,0.139250797795,0.0356431803763,0.0208002220098,0.10733721136,0.0263923448478,0.253265937611
tagged_abstract_sents/9161648.txt,17,0.0245374094932,0.00969696969697,0.139250797795,0.0356431803763,0.0168275574812,0.0862925668937,0.0194044831047,0.224412282024
tagged_abstract_sents/9161648.txt,18,0.00844730490748,0.0709090909091,0.139250797795,0.0356431803763,0.0355633472261,0.159137367645,0.0333790185225,0.329337748511
tagged_abstract_sents/9161648.txt,19,0.00844730490748,0.0224242424242,0.139250797795,0.0356431803763,0.0150193011774,0.126599538605,0.0262387526193,0.259418637822
tagged_abstract_sents/9161648.txt,20,0.00120675784393,-0.0381818181818,0.0616692308323,0.142474783506,0.0,0.0,0.0,0.0669060931066
tagged_abstract_sents/9161648.txt,21,0.00120675784393,0.0672727272727,0.139250797795,0.0356431803763,0.0618806933631,0.285192264437,0.056693989071,0.498505251612
tagged_abstract_sents/9161648.txt,22,0.00120675784393,-0.0121212121212,0.139250797795,0.0356431803763,0.0,0.105883564219,0.0290070946411,0.213750175721
