tagged_abstract_sents/9193380.txt,1,0.125905068383,-0.0506882989184,0.0616692308323,0.142474783506,0.0,0.0,0.0,0.164163445391
tagged_abstract_sents/9193380.txt,2,0.239742558327,0.0276302851524,0.188769469584,0.202456734834,0.249066570122,0.231640574696,0.162324355972,0.995473359724
tagged_abstract_sents/9193380.txt,3,0.239742558327,-0.000245821042281,0.188769469584,0.202456734834,0.219984156701,0.192060864244,0.101695801271,0.860607459912
tagged_abstract_sents/9193380.txt,4,0.218020917136,-0.0520157325467,0.0616692308323,0.142474783506,0.0,0.0,0.0,0.237590637667
tagged_abstract_sents/9193380.txt,5,0.218020917136,0.0386922320551,0.210342442448,0.226435992083,0.132941700933,0.2642433322,0.161947342275,0.914389574378
tagged_abstract_sents/9193380.txt,6,0.162510056315,-0.0409537856441,0.0616692308323,0.142474783506,0.229707441307,0.0554678783056,0.0751732045277,0.555742862532
tagged_abstract_sents/9193380.txt,7,0.162510056315,0.00639134709931,0.0616692308323,0.142474783506,0.324262517858,0.227023490848,0.150839536634,0.906988910281
tagged_abstract_sents/9193380.txt,8,0.101769911504,-0.0400688298918,0.0616692308323,0.142474783506,0.0421071266196,0.0667155313949,0.0315636500502,0.287365521758
tagged_abstract_sents/9193380.txt,9,0.0852775543041,-0.0179449360865,0.0616692308323,0.142474783506,0.0599294477088,0.0980942784114,0.0842542447307,0.380488077545
tagged_abstract_sents/9193380.txt,10,0.0711987127916,-0.0396263520157,0.0616692308323,0.142474783506,0.0532091806848,0.0683661789457,0.0835209872095,0.327707097138
tagged_abstract_sents/9193380.txt,11,0.0458567980692,-0.0515732546706,0.0616692308323,0.142474783506,0.0,0.0,0.0,0.0999478379891
tagged_abstract_sents/9193380.txt,12,0.0458567980692,-0.00290068829892,0.139250797795,0.0356431803763,0.113340581314,0.176966606455,0.074350550785,0.481081392361
tagged_abstract_sents/9193380.txt,13,0.0245374094932,0.0630285152409,0.139250797795,0.0356431803763,0.147918201124,0.248631174532,0.1512490242,0.660352383509
tagged_abstract_sents/9193380.txt,14,0.0245374094932,0.143559488692,0.139250797795,0.0356431803763,0.264093374888,0.282409406394,0.156416699193,0.831579658818
tagged_abstract_sents/9193380.txt,15,0.00844730490748,-0.048918387414,0.139250797795,0.0356431803763,0.0,0.0,0.0,0.0772925194535
tagged_abstract_sents/9193380.txt,16,0.00844730490748,0.0201081612586,0.139250797795,0.0356431803763,0.141611759959,0.292990460116,0.151639344262,0.677339393525
tagged_abstract_sents/9193380.txt,17,0.00120675784393,0.0555063913471,0.139250797795,0.0356431803763,0.214941624046,0.271170565242,0.13656323185,0.715060458693
tagged_abstract_sents/9193380.txt,18,0.00120675784393,-0.00998033431662,0.139250797795,0.0356431803763,0.219354039191,0.217245558329,0.141572339318,0.65745962926
