tagged_abstract_sents/9220205.txt,2,0.00564061240935,-0.0327969711311,0.188769469584,0.123191979006,0.0413088753067,0.234824019221,0.0920366097259,0.433406903203
tagged_abstract_sents/9220205.txt,4,0.116035455278,-0.0649787032655,0.0616692308323,0.247294108221,0.0413088753067,0.130684347869,0.108826112412,0.373996839448
tagged_abstract_sents/9220205.txt,5,0.131345688961,0.0656412683389,0.188769469584,0.123191979006,0.0413088753067,0.262782452744,0.14395106619,0.593905500208
tagged_abstract_sents/9220205.txt,6,0.149073327961,-0.0432087079981,0.188769469584,0.123191979006,0.0413088753067,0.141158206007,0.0802224824356,0.461276655711
tagged_abstract_sents/9220205.txt,7,0.150684931507,0.0116895409371,0.188769469584,0.123191979006,0.0413088753067,0.226244779044,0.128930465629,0.594663029388
tagged_abstract_sents/9220205.txt,8,0.202256244964,-0.0115002366304,0.188769469584,0.123191979006,0.0413088753067,0.234620623809,0.0823984112919,0.518943391857
tagged_abstract_sents/9220205.txt,9,0.131345688961,0.0519167061051,0.188769469584,0.123191979006,0.0413088753067,0.230456813395,0.138096051262,0.481075326874
tagged_abstract_sents/9220205.txt,10,0.0342465753425,-0.0578797917653,0.188769469584,0.123191979006,0.0413088753067,0.15255514397,0.114296692037,0.387844580016
tagged_abstract_sents/9220205.txt,11,0.0342465753425,0.0646947468055,0.139250797795,0.194462959676,0.0413088753067,0.2520772872,0.107451420976,0.470279290082
