tagged_abstract_sents/9279298.txt,2,0.206355591311,-0.102153456388,0.0616692308323,0.106008497564,0.0,0.0,0.0,0.207290946457
tagged_abstract_sents/9279298.txt,4,0.0108608205953,-0.0370068765834,0.188769469584,0.129715814208,0.0,0.0830584181733,0.0155289213132,0.282357782667
tagged_abstract_sents/9279298.txt,5,0.0261464199517,0.0753709735794,0.188769469584,0.129715814208,0.0,0.264092673666,0.0277026004808,0.451534106485
tagged_abstract_sents/9279298.txt,6,0.0518905872888,-0.104596453131,0.0616692308323,0.106008497564,0.0,0.0,0.0,0.0832303438902
tagged_abstract_sents/9279298.txt,8,0.172566371681,-0.10133912414,0.139250797795,0.521468892835,0.0,0.0,0.0,0.343851339265
tagged_abstract_sents/9279298.txt,9,0.206355591311,0.123416576185,0.139250797795,0.521468892835,0.0,0.219284025362,0.0376540200709,0.641964575343
tagged_abstract_sents/9279298.txt,10,0.262268704747,0.00696706478465,0.139250797795,0.521468892835,0.0,0.231426620655,0.0282140996054,0.66886846294
