tagged_abstract_sents/9279298.txt,2,0.0253827558421,-0.102153456388,0.0616692308323,0.247294108221,0.0,0.0,0.0,0.104898361279
tagged_abstract_sents/9279298.txt,4,0.123690572119,-0.0370068765834,0.188769469584,0.123191979006,0.0,0.0830584181733,0.0155289213132,0.311363889597
tagged_abstract_sents/9279298.txt,5,0.140209508461,0.0753709735794,0.188769469584,0.123191979006,0.0,0.264092673666,0.0277026004808,0.509380515286
tagged_abstract_sents/9279298.txt,6,0.149879129734,-0.104596453131,0.0616692308323,0.247294108221,0.0,0.0,0.0,0.204006861044
tagged_abstract_sents/9279298.txt,7,0.176470588235,0.116901918205,0.0616692308323,0.247294108221,0.0,0.266124547635,0.027081655534,0.510122702657
tagged_abstract_sents/9279298.txt,8,0.166800966962,-0.10133912414,0.139250797795,0.194462959676,0.0,0.0,0.0,0.241137235542
tagged_abstract_sents/9279298.txt,9,0.0954875100725,0.123416576185,0.139250797795,0.194462959676,0.0,0.219284025362,0.0376540200709,0.40690644473
tagged_abstract_sents/9279298.txt,10,0.0342465753425,0.00696706478465,0.139250797795,0.194462959676,0.0,0.231426620655,0.0282140996054,0.340114175632
