tagged_abstract_sents/9315764.txt,2,0.0954875100725,-0.0419178522627,0.0616692308323,0.247294108221,0.186462361662,0.0,0.0,0.173029285488
tagged_abstract_sents/9315764.txt,3,0.0954875100725,0.0239530584358,0.188769469584,0.123191979006,0.186462361662,0.192354949794,0.0963970128827,0.512749462347
tagged_abstract_sents/9315764.txt,4,0.0253827558421,-0.0410336789647,0.0616692308323,0.247294108221,0.186462361662,0.0,0.0,0.117122316763
tagged_abstract_sents/9315764.txt,6,0.0805801772764,-0.0423599389117,0.0616692308323,0.247294108221,0.186462361662,0.0,0.0,0.161015001921
tagged_abstract_sents/9315764.txt,7,0.0805801772764,-0.0251185596013,0.0616692308323,0.247294108221,0.186462361662,0.119321319018,0.10396893874,0.353854750417
tagged_abstract_sents/9315764.txt,8,0.123690572119,-0.0419178522627,0.0616692308323,0.247294108221,0.186462361662,0.0,0.0,0.195591735125
tagged_abstract_sents/9315764.txt,9,0.123690572119,-0.0114138734828,0.0616692308323,0.247294108221,0.186462361662,0.166275039755,0.0808886971527,0.438665559877
tagged_abstract_sents/9315764.txt,10,0.140209508461,-0.0397074190178,0.0616692308323,0.247294108221,0.186462361662,0.0,0.0,0.209248970848
tagged_abstract_sents/9315764.txt,11,0.140209508461,0.0297001848726,0.210342442448,0.141687475369,0.186462361662,0.180184063186,0.0776697418199,0.412359433974
tagged_abstract_sents/9315764.txt,12,0.149073327961,-0.0392653323688,0.139250797795,0.194462959676,0.186462361662,0.0,0.0,0.239369882696
tagged_abstract_sents/9315764.txt,13,0.149879129734,0.0411944377462,0.139250797795,0.194462959676,0.186462361662,0.17025007545,0.0709124245039,0.38824067212
tagged_abstract_sents/9315764.txt,14,0.149879129734,0.0619725102484,0.139250797795,0.194462959676,0.186462361662,0.213354756817,0.0836347647176,0.494451970394
tagged_abstract_sents/9315764.txt,15,0.176470588235,-0.0357286391769,0.139250797795,0.194462959676,0.186462361662,0.0,0.0,0.261995029553
tagged_abstract_sents/9315764.txt,16,0.176470588235,0.0270476649787,0.139250797795,0.194462959676,0.186462361662,0.214482765468,0.0704903156705,0.525659690832
tagged_abstract_sents/9315764.txt,17,0.166800966962,-0.0419178522627,0.0616692308323,0.247294108221,0.186462361662,0.0,0.0,0.230080051
tagged_abstract_sents/9315764.txt,18,0.166800966962,0.0880556225384,0.139250797795,0.194462959676,0.186462361662,0.2046911652,0.0976496341035,0.537277600468
tagged_abstract_sents/9315764.txt,19,0.0954875100725,0.0221847118399,0.139250797795,0.194462959676,0.186462361662,0.0699022774376,0.0559595710588,0.310620150501
tagged_abstract_sents/9315764.txt,20,0.0954875100725,-0.0131822200788,0.139250797795,0.194462959676,0.186462361662,0.121802338734,0.0494080145719,0.329066567546
tagged_abstract_sents/9315764.txt,21,0.0342465753425,0.0213005385419,0.139250797795,0.194462959676,0.186462361662,0.180728991399,0.0746001194664,0.396953050017
tagged_abstract_sents/9315764.txt,22,0.0342465753425,-0.0401495056667,0.139250797795,0.194462959676,0.186462361662,0.0,0.0,0.147331645941
tagged_abstract_sents/9315764.txt,23,0.0342465753425,0.0907081424323,0.139250797795,0.194462959676,0.186462361662,0.266157664839,0.0829233029406,0.494104499548
