tagged_abstract_sents/9394980.txt,2,0.206355591311,-0.0116618075802,0.188769469584,0.129715814208,0.0101864783068,0.0907876258966,0.0167762565304,0.41161165645
tagged_abstract_sents/9394980.txt,4,0.0261464199517,-0.0116618075802,0.139250797795,0.521468892835,0.0101864783068,0.128999379015,0.023531133765,0.388123979703
tagged_abstract_sents/9394980.txt,5,0.0518905872888,-0.0728862973761,0.139250797795,0.521468892835,0.0101864783068,0.0510572256507,0.00737338992974,0.305185746686
tagged_abstract_sents/9394980.txt,7,0.206355591311,-0.030612244898,0.139250797795,0.521468892835,0.0101864783068,0.0796546804765,0.0254949968065,0.485730650435
tagged_abstract_sents/9394980.txt,8,0.262268704747,0.0889212827988,0.139250797795,0.521468892835,0.0101864783068,0.140727481139,0.027016824849,0.604442754451
