tagged_abstract_sents/9396645.txt,2,0.0954875100725,-0.0367265814034,0.0616692308323,0.247294108221,0.174954345153,0.141310468809,0.0732900348341,0.368000755224
tagged_abstract_sents/9396645.txt,3,0.0253827558421,0.0336156239198,0.188769469584,0.123191979006,0.174954345153,0.360647406491,0.103695074809,0.542190484483
tagged_abstract_sents/9396645.txt,4,0.0805801772764,0.0212582094711,0.188769469584,0.123191979006,0.174954345153,0.225017106957,0.0595852866491,0.450136720247
tagged_abstract_sents/9396645.txt,6,0.140209508461,0.00795022468026,0.188769469584,0.123191979006,0.174954345153,0.227124340108,0.0527363405903,0.483878249129
tagged_abstract_sents/9396645.txt,7,0.149879129734,0.0127030763913,0.188769469584,0.123191979006,0.174954345153,0.227709254784,0.0717556911553,0.537794696221
tagged_abstract_sents/9396645.txt,8,0.176470588235,0.0317144832354,0.188769469584,0.123191979006,0.174954345153,0.303775278575,0.0745678288895,0.609197873479
tagged_abstract_sents/9396645.txt,9,0.166800966962,-0.0253197372969,0.188769469584,0.123191979006,0.174954345153,0.266906416047,0.0734632288309,0.572162638156
tagged_abstract_sents/9396645.txt,10,0.0954875100725,-0.0129623228483,0.188769469584,0.123191979006,0.174954345153,0.244853952066,0.101430359854,0.594878284764
tagged_abstract_sents/9396645.txt,11,0.0342465753425,-0.0367265814034,0.188769469584,0.123191979006,0.174954345153,0.232568225222,0.0842820866993,0.546555282031
tagged_abstract_sents/9396645.txt,12,0.0342465753425,0.00034566194262,0.188769469584,0.123191979006,0.174954345153,0.290919863422,0.0604424260182,0.567338494549
