tagged_abstract_sents/9428830.txt,2,0.0954875100725,-0.0666438824334,0.0616692308323,0.247294108221,0.0782366159014,0.0,0.0,0.168084079454
tagged_abstract_sents/9428830.txt,4,0.0805801772764,-0.0588687628161,0.0616692308323,0.247294108221,0.0782366159014,0.0,0.0,0.15771323714
tagged_abstract_sents/9428830.txt,5,0.0805801772764,-0.0271701982228,0.194899689933,0.293363477728,0.0782366159014,0.153541942745,0.0312384444718,0.289604028948
tagged_abstract_sents/9428830.txt,6,0.123690572119,0.0146958304853,0.210342442448,0.141687475369,0.0782366159014,0.213399291249,0.0205545332887,0.421665844288
tagged_abstract_sents/9428830.txt,7,0.140209508461,0.0176862611073,0.194899689933,0.293363477728,0.0782366159014,0.182904839407,0.02443769516,0.371584965464
tagged_abstract_sents/9428830.txt,8,0.149073327961,-0.00803144224197,0.0616692308323,0.247294108221,0.0782366159014,0.111521357655,0.0131458577283,0.314072180117
tagged_abstract_sents/9428830.txt,9,0.149879129734,0.0774948735475,0.139250797795,0.194462959676,0.0782366159014,0.22310829712,0.0369828259173,0.404843499518
tagged_abstract_sents/9428830.txt,10,0.176470588235,-0.0666438824334,0.139250797795,0.194462959676,0.0782366159014,0.0,0.0,0.255811980902
tagged_abstract_sents/9428830.txt,11,0.166800966962,-0.0176008202324,0.139250797795,0.194462959676,0.0782366159014,0.110695278863,0.0233072737292,0.335966351848
tagged_abstract_sents/9428830.txt,12,0.166800966962,0.110987696514,0.139250797795,0.194462959676,0.0782366159014,0.178873548024,0.0340676229508,0.428771661085
tagged_abstract_sents/9428830.txt,13,0.0954875100725,-0.00324675324675,0.139250797795,0.194462959676,0.0782366159014,0.118616541135,0.0165764051522,0.316241458948
tagged_abstract_sents/9428830.txt,14,0.0342465753425,-0.0642515379357,0.0616692308323,0.247294108221,0.0782366159014,0.0,0.0,0.119569800569
tagged_abstract_sents/9428830.txt,15,0.0342465753425,0.0368250170882,0.139250797795,0.194462959676,0.0782366159014,0.21950403871,0.0259942319369,0.209387529093
