tagged_abstract_sents/9479079.txt,1,0.125905068383,-0.0531700593723,0.0616692308323,0.142474783506,0.0,0.0,0.0,0.1636670933
tagged_abstract_sents/9479079.txt,2,0.239742558327,0.0664228159457,0.188769469584,0.202456734834,0.13001456599,0.138400935242,0.0434530791789,0.672068945504
tagged_abstract_sents/9479079.txt,3,0.239742558327,-0.00906488549618,0.188769469584,0.202456734834,0.0672185636448,0.0480503313224,0.0270967741935,0.487468493965
tagged_abstract_sents/9479079.txt,4,0.218020917136,-0.054018235793,0.0616692308323,0.142474783506,0.0,0.0,0.0,0.237190137018
tagged_abstract_sents/9479079.txt,5,0.162510056315,0.0503074639525,0.0616692308323,0.142474783506,0.162238721564,0.189007598406,0.0434412361832,0.608334144463
tagged_abstract_sents/9479079.txt,6,0.162510056315,-0.0557145886344,0.0616692308323,0.142474783506,0.0,0.0,0.0,0.192442177793
tagged_abstract_sents/9479079.txt,7,0.101769911504,0.0969571670908,0.210342442448,0.226435992083,0.0527003865395,0.174850796018,0.0416239002933,0.543084464321
tagged_abstract_sents/9479079.txt,8,0.0852775543041,-0.0557145886344,0.0616692308323,0.142474783506,0.0,0.00890277865798,0.0278005865103,0.167359541353
tagged_abstract_sents/9479079.txt,9,0.0711987127916,-0.0251802374894,0.0616692308323,0.142474783506,0.116875983921,0.0659214183734,0.0276392961877,0.335936671685
tagged_abstract_sents/9479079.txt,10,0.0458567980692,-0.0243320610687,0.0616692308323,0.142474783506,0.0223710320745,0.0708677646631,0.0163000977517,0.214934971199
tagged_abstract_sents/9479079.txt,11,0.0458567980692,0.0418256997455,0.139250797795,0.0356431803763,0.120282872079,0.123745967106,0.0430544837166,0.412452254316
tagged_abstract_sents/9479079.txt,12,0.0245374094932,0.0257103477523,0.139250797795,0.0356431803763,0.122434089957,0.123283714524,0.03455780213,0.385365956766
tagged_abstract_sents/9479079.txt,13,0.00844730490748,0.0180767599661,0.139250797795,0.0356431803763,0.177600926864,0.106858206786,0.0471019492841,0.422252631863
tagged_abstract_sents/9479079.txt,14,0.00844730490748,0.0240139949109,0.139250797795,0.0356431803763,0.100006329302,0.0992733068872,0.0255816226784,0.316740254786
tagged_abstract_sents/9479079.txt,15,0.00120675784393,-0.0531700593723,0.0616692308323,0.142474783506,0.0,0.0,0.0,0.0639084448685
tagged_abstract_sents/9479079.txt,16,0.00120675784393,0.00705046649703,0.139250797795,0.0356431803763,0.246805043059,0.103298212922,0.0325806451613,0.465377753727
