tagged_abstract_sents/9490996.txt,2,0.00564061240935,0.0177489177489,0.188769469584,0.123191979006,0.183589524258,0.140438406551,0.0369552489563,0.306926463691
tagged_abstract_sents/9490996.txt,3,0.0451248992748,-0.0645021645022,0.188769469584,0.123191979006,0.183589524258,0.0735431592982,0.0329332552693,0.225386987343
tagged_abstract_sents/9490996.txt,4,0.116035455278,0.0489177489177,0.188769469584,0.123191979006,0.183589524258,0.144782711593,0.0405126769168,0.39000596434
tagged_abstract_sents/9490996.txt,5,0.131345688961,-0.0497835497835,0.188769469584,0.123191979006,0.183589524258,0.0841339336018,0.0296700647472,0.160154152949
tagged_abstract_sents/9490996.txt,6,0.149073327961,0.0489177489177,0.188769469584,0.123191979006,0.183589524258,0.181117446224,0.0551639344262,0.452194787766
tagged_abstract_sents/9490996.txt,8,0.202256244964,-0.0168831168831,0.188769469584,0.123191979006,0.183589524258,0.100632306742,0.0298078247693,0.372723070544
tagged_abstract_sents/9490996.txt,9,0.131345688961,-0.00735930735931,0.188769469584,0.123191979006,0.183589524258,0.157369612821,0.0448890249095,0.498447615871
tagged_abstract_sents/9490996.txt,10,0.0342465753425,-0.0298701298701,0.188769469584,0.123191979006,0.183589524258,0.108292797723,0.0377715977101,0.287643555113
tagged_abstract_sents/9490996.txt,11,0.0342465753425,-0.0004329004329,0.188769469584,0.123191979006,0.183589524258,0.159907153253,0.074979635475,0.478565023581
