tagged_abstract_sents/9526807.txt,3,0.0805801772764,0.0115497491243,0.139250797795,0.194462959676,0.0451917233675,0.140157871932,0.0149706744868,0.332375791258
tagged_abstract_sents/9526807.txt,4,0.140209508461,0.0559500142005,0.139250797795,0.194462959676,0.0451917233675,0.177339506139,0.019110459433,0.381932443832
tagged_abstract_sents/9526807.txt,5,0.149879129734,0.000946700747894,0.139250797795,0.194462959676,0.0451917233675,0.118305673192,0.0206313610488,0.37360606367
tagged_abstract_sents/9526807.txt,6,0.166800966962,-0.0242355391461,0.139250797795,0.194462959676,0.0451917233675,0.231242085436,0.0417574361123,0.480669185435
tagged_abstract_sents/9526807.txt,7,0.0954875100725,-0.0116444191991,0.139250797795,0.194462959676,0.0451917233675,0.230924123451,0.0392772679974,0.366811377219
tagged_abstract_sents/9526807.txt,8,0.0342465753425,-0.06068351794,0.139250797795,0.194462959676,0.0451917233675,0.146676357646,0.0144628099174,0.167701436722
