tagged_abstract_sents/9536816.txt,2,0.206355591311,-0.0406677743492,0.0616692308323,0.106008497564,0.248955118312,0.0,0.0,0.219588082865
tagged_abstract_sents/9536816.txt,3,0.206355591311,-0.00716037661207,0.188769469584,0.129715814208,0.248955118312,0.253707765237,0.0444134727062,0.673083191559
tagged_abstract_sents/9536816.txt,4,0.206355591311,0.01111638579,0.188769469584,0.129715814208,0.248955118312,0.153415038525,0.0350754936121,0.532982638432
tagged_abstract_sents/9536816.txt,6,0.0048270313757,-0.041973257378,0.0616692308323,0.106008497564,0.248955118312,0.0,0.0,0.0581041383103
tagged_abstract_sents/9536816.txt,7,0.0048270313757,0.0106812247804,0.0616692308323,0.106008497564,0.248955118312,0.276766847149,0.0427052622175,0.435195961547
tagged_abstract_sents/9536816.txt,8,0.0108608205953,0.028522826173,0.210342442448,0.0253702522065,0.248955118312,0.211484238921,0.0435816603064,0.43106341469
tagged_abstract_sents/9536816.txt,9,0.0108608205953,-0.0115119867078,0.0616692308323,0.106008497564,0.248955118312,0.115082270651,0.0223162435706,0.20601125457
tagged_abstract_sents/9536816.txt,10,0.0261464199517,0.00632961468471,0.0616692308323,0.106008497564,0.248955118312,0.196159977693,0.0233947237432,0.40159860484
tagged_abstract_sents/9536816.txt,11,0.0261464199517,-0.041973257378,0.0616692308323,0.106008497564,0.248955118312,0.0,0.0,0.0751596491711
tagged_abstract_sents/9536816.txt,12,0.0353982300885,0.00502413165599,0.139250797795,0.521468892835,0.248955118312,0.133059519373,0.0367193781828,0.414197427347
tagged_abstract_sents/9536816.txt,13,0.0518905872888,0.00284832660812,0.139250797795,0.521468892835,0.248955118312,0.200461522039,0.036643437863,0.573874928341
tagged_abstract_sents/9536816.txt,14,0.0518905872888,0.00632961468471,0.139250797795,0.521468892835,0.248955118312,0.203638731933,0.027293844367,0.555794997419
tagged_abstract_sents/9536816.txt,15,0.0993563958166,0.0333095972783,0.139250797795,0.521468892835,0.248955118312,0.183316329534,0.0275980310824,0.614732372241
tagged_abstract_sents/9536816.txt,17,0.172566371681,-0.00541973257378,0.139250797795,0.521468892835,0.248955118312,0.0890464538622,0.00848744751184,0.459446999637
tagged_abstract_sents/9536816.txt,18,0.172566371681,-0.0115119867078,0.139250797795,0.521468892835,0.248955118312,0.143163005352,0.03012485482,0.582823215022
tagged_abstract_sents/9536816.txt,19,0.206355591311,0.0515863596804,0.139250797795,0.521468892835,0.248955118312,0.197816680858,0.0251451800232,0.727756584501
tagged_abstract_sents/9536816.txt,20,0.206355591311,-0.0402326133397,0.139250797795,0.521468892835,0.248955118312,0.0,0.0,0.383104017129
tagged_abstract_sents/9536816.txt,21,0.262268704747,0.0119867078092,0.139250797795,0.521468892835,0.248955118312,0.297464684073,0.0461257673801,0.8027635684
tagged_abstract_sents/9536816.txt,22,0.262268704747,-0.00411424954506,0.139250797795,0.521468892835,0.248955118312,0.126105320225,0.0346772855484,0.587233406882
tagged_abstract_sents/9536816.txt,23,0.262268704747,0.00937574175172,0.139250797795,0.521468892835,0.248955118312,0.149274355689,0.0402632597755,0.739460817096
