tagged_abstract_sents/9550747.txt,2,0.0954875100725,-0.0635669362084,0.0616692308323,0.247294108221,0.0318985854397,0.0,0.0,0.168699468699
tagged_abstract_sents/9550747.txt,3,0.0253827558421,0.0551437556155,0.188769469584,0.123191979006,0.0318985854397,0.330827072339,0.0501722072477,0.427648031877
tagged_abstract_sents/9550747.txt,4,0.0805801772764,-0.0659254267745,0.0616692308323,0.247294108221,0.0318985854397,0.0,0.0,0.156301904349
tagged_abstract_sents/9550747.txt,5,0.0805801772764,-0.0580637915544,0.0616692308323,0.247294108221,0.0318985854397,0.0449534053835,0.026255365878,0.236585094052
tagged_abstract_sents/9550747.txt,6,0.123690572119,-0.0651392632525,0.0616692308323,0.247294108221,0.0318985854397,0.0,0.0,0.190947452927
tagged_abstract_sents/9550747.txt,7,0.140209508461,0.0158355795148,0.0616692308323,0.247294108221,0.0318985854397,0.281493239381,0.0304648763768,0.44321069999
tagged_abstract_sents/9550747.txt,8,0.149073327961,-0.0659254267745,0.0616692308323,0.247294108221,0.0318985854397,0.0,0.0,0.211096424897
tagged_abstract_sents/9550747.txt,10,0.176470588235,-0.0651392632525,0.139250797795,0.194462959676,0.0318985854397,0.0,0.0,0.256112904738
tagged_abstract_sents/9550747.txt,11,0.166800966962,0.0575022461815,0.139250797795,0.194462959676,0.0318985854397,0.320064268938,0.0435901824042,0.486428157297
tagged_abstract_sents/9550747.txt,12,0.166800966962,-0.00853548966757,0.139250797795,0.194462959676,0.0318985854397,0.339598680677,0.0471698113208,0.574028704999
tagged_abstract_sents/9550747.txt,13,0.0954875100725,-0.0627807726864,0.0616692308323,0.247294108221,0.0318985854397,0.0,0.0,0.168856701403
tagged_abstract_sents/9550747.txt,14,0.0342465753425,0.109389038634,0.139250797795,0.194462959676,0.0318985854397,0.478582971401,0.0492074188166,0.633320556078
tagged_abstract_sents/9550747.txt,15,0.0342465753425,0.0213387241689,0.139250797795,0.194462959676,0.0318985854397,0.229004185389,0.057671957672,0.28925874215
