tagged_abstract_sents/9574586.txt,1,0.125905068383,-0.0655079083143,0.0616692308323,0.142474783506,0.0,0.0,0.0,0.161199523511
tagged_abstract_sents/9574586.txt,2,0.239742558327,0.0469846908568,0.188769469584,0.202456734834,0.276739139408,0.609328269689,0.046598056032,1.2889782052
tagged_abstract_sents/9574586.txt,3,0.218020917136,-0.00748540979447,0.188769469584,0.202456734834,0.316225067403,0.248296438403,0.0687331536388,0.961296066437
tagged_abstract_sents/9574586.txt,4,0.218020917136,-0.0589951788886,0.0616692308323,0.142474783506,0.0,0.0,0.0,0.236194748399
tagged_abstract_sents/9574586.txt,5,0.162510056315,0.0499450224139,0.0616692308323,0.142474783506,0.196170593799,0.391666169136,0.0459884862401,0.847399349178
tagged_abstract_sents/9574586.txt,6,0.101769911504,0.0392878288083,0.139250797795,0.0356431803763,0.162574282701,0.371562524455,0.0413988527196,0.745127507852
tagged_abstract_sents/9574586.txt,7,0.0852775543041,-0.000380614057346,0.139250797795,0.0356431803763,0.2868054736,0.247997344923,0.0563957938172,0.739662885982
tagged_abstract_sents/9574586.txt,8,0.0711987127916,-0.0666920409372,0.139250797795,0.0356431803763,0.0,0.0,0.0,0.123938915056
tagged_abstract_sents/9574586.txt,9,0.0458567980692,0.0700752770025,0.139250797795,0.0356431803763,0.136505043493,0.472781933445,0.0510931416592,0.791398965464
tagged_abstract_sents/9574586.txt,10,0.0245374094932,-0.0270235980716,0.139250797795,0.0356431803763,0.0114989401131,0.227185623033,0.0611842221165,0.394412346253
tagged_abstract_sents/9574586.txt,11,0.0245374094932,0.0434322929882,0.139250797795,0.0356431803763,0.183978655901,0.395714530781,0.0406443661161,0.728972292
tagged_abstract_sents/9574586.txt,12,0.00844730490748,0.0161972426626,0.139250797795,0.0356431803763,0.14165540364,0.485916188569,0.065134271738,0.783021509416
tagged_abstract_sents/9574586.txt,13,0.00120675784393,-0.0649158420029,0.139250797795,0.0356431803763,0.0,0.0,0.0,0.0683005908848
tagged_abstract_sents/9574586.txt,14,0.00120675784393,0.025078237334,0.139250797795,0.0356431803763,0.259777778215,0.429138753912,0.0577326237704,0.83294856265
