tagged_abstract_sents/9583895.txt,1,0.125905068383,-0.0272796352584,0.188769469584,0.202456734834,0.0,0.216649414497,0.0440697451619,0.511109042556
tagged_abstract_sents/9583895.txt,2,0.239742558327,0.0322948328267,0.188769469584,0.202456734834,0.0859790304563,0.432679002758,0.0605348002393,0.932567601923
tagged_abstract_sents/9583895.txt,3,0.218020917136,-0.0256838905775,0.139250797795,0.0356431803763,0.0635986842155,0.267977110113,0.0528734295021,0.634047532434
tagged_abstract_sents/9583895.txt,4,0.218020917136,0.0588905775076,0.139250797795,0.0356431803763,0.116964841711,0.411169068582,0.0591055640497,0.853752676563
tagged_abstract_sents/9583895.txt,5,0.162510056315,-0.0267477203647,0.139250797795,0.0356431803763,0.0114589141495,0.250964541012,0.0614588180549,0.528859127206
tagged_abstract_sents/9583895.txt,6,0.101769911504,-0.00919452887538,0.139250797795,0.0356431803763,0.0465553685314,0.360371887787,0.0612009461765,0.628023578934
tagged_abstract_sents/9583895.txt,7,0.0852775543041,-0.0113221884498,0.139250797795,0.0356431803763,0.0478488691378,0.333409100201,0.0642476416092,0.591781569712
tagged_abstract_sents/9583895.txt,8,0.0711987127916,-0.023556231003,0.139250797795,0.0356431803763,0.071291541195,0.316232883938,0.0575655343571,0.577656036533
tagged_abstract_sents/9583895.txt,9,0.0458567980692,-0.0262158054711,0.139250797795,0.0356431803763,0.00972580110731,0.102002539744,0.0538855281526,0.277374499375
tagged_abstract_sents/9583895.txt,10,0.0245374094932,-0.0240881458967,0.139250797795,0.0356431803763,0.10810889007,0.110756263825,0.0321502601633,0.346146065484
tagged_abstract_sents/9583895.txt,11,0.0245374094932,-0.00653495440729,0.139250797795,0.0356431803763,0.0443806055638,0.188587135666,0.0693035520397,0.400912582993
tagged_abstract_sents/9583895.txt,12,0.00844730490748,-0.0294072948328,0.139250797795,0.0356431803763,0.0743684293389,0.163673621151,0.0518181213854,0.371054909845
tagged_abstract_sents/9583895.txt,13,0.00120675784393,0.0275075987842,0.139250797795,0.0356431803763,0.0578204547255,0.253274147876,0.0559396396995,0.453819521343
tagged_abstract_sents/9583895.txt,14,0.00120675784393,0.0913373860182,0.139250797795,0.0356431803763,0.0626736679111,0.387897240873,0.0605975513872,0.61071969666
