tagged_abstract_sents/9593483.txt,3,0.0805801772764,-0.0674201603364,0.0616692308323,0.247294108221,0.129168085157,0.163503655391,0.0457621206836,0.347449344588
tagged_abstract_sents/9593483.txt,4,0.140209508461,0.00525693257984,0.0616692308323,0.247294108221,0.129168085157,0.186013010359,0.0264267963028,0.423312631287
tagged_abstract_sents/9593483.txt,5,0.149879129734,-0.0140622946511,0.139250797795,0.194462959676,0.129168085157,0.313628676766,0.0279037321242,0.442635571922
tagged_abstract_sents/9593483.txt,6,0.166800966962,-0.0370613746879,0.139250797795,0.194462959676,0.129168085157,0.186423750197,0.0150037059644,0.392679571071
tagged_abstract_sents/9593483.txt,7,0.0954875100725,-0.0297016690761,0.139250797795,0.194462959676,0.129168085157,0.234630342295,0.00908324613417,0.431075571689
tagged_abstract_sents/9593483.txt,8,0.0342465753425,0.148771192009,0.139250797795,0.194462959676,0.129168085157,0.363400806791,0.0299160204985,0.488703833784
