tagged_abstract_sents/9603075.txt,2,0.206355591311,-0.0502131563326,0.0616692308323,0.106008497564,0.144669302651,0.0,0.0,0.217679006468
tagged_abstract_sents/9603075.txt,4,0.206355591311,0.0478927203065,0.0616692308323,0.106008497564,0.144669302651,0.37368963036,0.0157390540007,0.615116664678
tagged_abstract_sents/9603075.txt,5,0.0048270313757,-0.0516701743025,0.0616692308323,0.106008497564,0.144669302651,0.0,0.0,0.0561647549253
tagged_abstract_sents/9603075.txt,6,0.0048270313757,0.0182666882521,0.210342442448,0.0253702522065,0.144669302651,0.233680082363,0.02305889247,0.479983793394
tagged_abstract_sents/9603075.txt,7,0.0108608205953,0.0216663968485,0.0616692308323,0.106008497564,0.144669302651,0.223527648959,0.00920500048833,0.370682612237
tagged_abstract_sents/9603075.txt,8,0.0108608205953,0.00466785386649,0.0616692308323,0.106008497564,0.144669302651,0.201512821847,0.00998283872588,0.267458771856
tagged_abstract_sents/9603075.txt,9,0.0261464199517,-0.0239868328746,0.0616692308323,0.106008497564,0.144669302651,0.128536627725,0.029307875118,0.229634796734
tagged_abstract_sents/9603075.txt,10,0.0353982300885,-0.0516701743025,0.0616692308323,0.106008497564,0.144669302651,0.0,0.0,0.0806217138956
tagged_abstract_sents/9603075.txt,11,0.0518905872888,0.0478927203065,0.139250797795,0.521468892835,0.144669302651,0.295388179055,0.0125102163554,0.650097454108
tagged_abstract_sents/9603075.txt,13,0.0993563958166,0.00418218120986,0.139250797795,0.521468892835,0.144669302651,0.159153989262,0.0157619263245,0.466189079217
tagged_abstract_sents/9603075.txt,14,0.172566371681,0.0114672710593,0.139250797795,0.521468892835,0.144669302651,0.179951765207,0.0113658560406,0.603547271614
tagged_abstract_sents/9603075.txt,15,0.172566371681,0.0231234148184,0.139250797795,0.521468892835,0.144669302651,0.208889522185,0.0142156042024,0.677869837804
tagged_abstract_sents/9603075.txt,16,0.206355591311,-0.049727483676,0.0616692308323,0.106008497564,0.144669302651,0.0,0.0,0.217776140999
tagged_abstract_sents/9603075.txt,17,0.206355591311,0.032836867951,0.139250797795,0.521468892835,0.144669302651,0.273575821139,0.00214864732884,0.750728771054
tagged_abstract_sents/9603075.txt,18,0.262268704747,-0.00990232583239,0.139250797795,0.521468892835,0.144669302651,0.259434744866,0.00333930818152,0.702301572569
tagged_abstract_sents/9603075.txt,19,0.262268704747,0.0080675624629,0.139250797795,0.521468892835,0.144669302651,0.309783428994,0.0122436273074,0.809668559097
