tagged_abstract_sents/9613910.txt,1,0.125905068383,-0.0428333134755,0.188769469584,0.202456734834,0.0,0.0,0.0,0.247279147254
tagged_abstract_sents/9613910.txt,2,0.125905068383,0.0708626236149,0.188769469584,0.202456734834,0.222689027782,0.247442621562,0.0418021860837,0.781952170099
tagged_abstract_sents/9613910.txt,3,0.239742558327,-0.0421780054808,0.0616692308323,0.142474783506,0.0,0.0,0.0,0.256935496033
tagged_abstract_sents/9613910.txt,4,0.239742558327,0.0515310377696,0.210342442448,0.226435992083,0.323474866316,0.283963511775,0.0482919870017,1.03093263816
tagged_abstract_sents/9613910.txt,5,0.218020917136,-0.0431609674729,0.0616692308323,0.142474783506,0.0,0.0,0.0,0.239361590682
tagged_abstract_sents/9613910.txt,6,0.218020917136,-0.0280888835935,0.0616692308323,0.142474783506,0.126208253206,0.0875656812878,0.0232313049853,0.479381246937
tagged_abstract_sents/9613910.txt,7,0.162510056315,-0.0428333134755,0.0616692308323,0.142474783506,0.0,0.0,0.0,0.195018432825
tagged_abstract_sents/9613910.txt,8,0.162510056315,-0.0362802335279,0.0616692308323,0.142474783506,0.0735135534301,0.0675352551483,0.0332167832168,0.37059464061
tagged_abstract_sents/9613910.txt,9,0.101769911504,-0.0411950434886,0.0616692308323,0.142474783506,0.0,0.0,0.0,0.146753970974
tagged_abstract_sents/9613910.txt,10,0.101769911504,0.0400631478613,0.210342442448,0.226435992083,0.0265029405415,0.185776243726,0.0251635461313,0.499973308023
tagged_abstract_sents/9613910.txt,11,0.0852775543041,0.0901942094603,0.0616692308323,0.142474783506,0.0422286661415,0.11794896408,0.0201728661831,0.340188432208
tagged_abstract_sents/9613910.txt,12,0.0711987127916,-0.0411950434886,0.0616692308323,0.142474783506,0.0,0.0,0.0,0.122297012003
tagged_abstract_sents/9613910.txt,13,0.0711987127916,-0.0139997617062,0.194899689933,0.13295610691,0.193669293869,0.212798810473,0.0355833682447,0.633547167519
tagged_abstract_sents/9613910.txt,14,0.0458567980692,-0.0382461575122,0.0616692308323,0.142474783506,0.0,0.0,0.0,0.102613257421
tagged_abstract_sents/9613910.txt,15,0.0458567980692,-0.00417014178482,0.139250797795,0.0356431803763,0.088499524821,0.190874798592,0.0404692082111,0.436013294732
tagged_abstract_sents/9613910.txt,16,0.0245374094932,-0.0428333134755,0.139250797795,0.0356431803763,0.0,0.0,0.0,0.0913816179097
tagged_abstract_sents/9613910.txt,17,0.0245374094932,0.179971404742,0.139250797795,0.0356431803763,0.00782096902248,0.245198906941,0.0448249094359,0.433787346952
tagged_abstract_sents/9613910.txt,18,0.00844730490748,-0.00351483379006,0.139250797795,0.0356431803763,0.0365071727553,0.0928629681162,0.0362170087977,0.251960379847
tagged_abstract_sents/9613910.txt,19,0.00844730490748,-0.0153103776957,0.139250797795,0.0356431803763,0.0883551859915,0.155073524987,0.0261930151959,0.353635847572
tagged_abstract_sents/9613910.txt,20,0.00120675784393,-0.041522697486,0.0616692308323,0.142474783506,0.0,0.0,0.0,0.0662379172458
tagged_abstract_sents/9613910.txt,21,0.00120675784393,0.00369355415227,0.139250797795,0.0356431803763,0.116961111117,0.156417832149,0.0340685962004,0.389470009582
tagged_abstract_sents/9613910.txt,22,0.00120675784393,0.0410461098534,0.139250797795,0.0356431803763,0.0516049885432,0.239317091869,0.0458722118546,0.426287273523
