tagged_abstract_sents/9624306.txt,1,0.125905068383,-0.0523641026859,0.0616692308323,0.142474783506,0.0,0.0,0.0,0.163828284637
tagged_abstract_sents/9624306.txt,2,0.239742558327,0.0328195872616,0.188769469584,0.202456734834,0.024601469637,0.431827420613,0.0645368334911,0.874445443097
tagged_abstract_sents/9624306.txt,3,0.239742558327,0.0102115937211,0.0616692308323,0.142474783506,0.0934419168721,0.457762745552,0.0583445104426,0.87696258874
tagged_abstract_sents/9624306.txt,4,0.218020917136,-0.0555938160488,0.0616692308323,0.142474783506,0.0,0.0,0.0,0.236875020967
tagged_abstract_sents/9624306.txt,5,0.218020917136,-0.0269301099527,0.0616692308323,0.142474783506,0.0923272222457,0.268055925202,0.0761136257879,0.679104535422
tagged_abstract_sents/9624306.txt,6,0.162510056315,0.0618870075281,0.210342442448,0.226435992083,0.0519736271925,0.353831573488,0.0396825396825,0.76097520577
tagged_abstract_sents/9624306.txt,7,0.101769911504,-0.0136075423306,0.0616692308323,0.142474783506,0.0892833539755,0.173202669608,0.0574220567706,0.472179551559
tagged_abstract_sents/9624306.txt,8,0.101769911504,0.0215155904913,0.210342442448,0.226435992083,0.0332981871752,0.42185485557,0.046027823687,0.760001932583
tagged_abstract_sents/9624306.txt,9,0.0711987127916,0.0126338787433,0.0616692308323,0.142474783506,0.108083137429,0.439733537921,0.0768496975337,0.757729169333
tagged_abstract_sents/9624306.txt,10,0.0711987127916,-0.0555938160488,0.0616692308323,0.142474783506,0.0,0.0,0.0,0.119417257491
tagged_abstract_sents/9624306.txt,11,0.0458567980692,-0.00109240304923,0.139250797795,0.0356431803763,0.00839560865151,0.186981197773,0.0439884830154,0.356150600295
tagged_abstract_sents/9624306.txt,12,0.0245374094932,0.110332707972,0.139250797795,0.0356431803763,0.0299294301376,0.406958532373,0.0668500299142,0.625752814624
tagged_abstract_sents/9624306.txt,13,0.0245374094932,0.0207081621506,0.139250797795,0.0356431803763,0.00627421022952,0.196444593981,0.0484566465022,0.355265363747
tagged_abstract_sents/9624306.txt,14,0.00844730490748,-0.0325821083379,0.139250797795,0.0356431803763,0.166299670682,0.192772288164,0.0595335039553,0.49916523807
tagged_abstract_sents/9624306.txt,15,0.00844730490748,-0.0543826735377,0.139250797795,0.0356431803763,0.0,0.0,0.0,0.0761996622287
tagged_abstract_sents/9624306.txt,16,0.00120675784393,0.0162673062766,0.139250797795,0.0356431803763,0.0509660661195,0.344929626166,0.0499974148183,0.530430327644
tagged_abstract_sents/9624306.txt,17,0.00120675784393,0.00577073784702,0.139250797795,0.0356431803763,0.0958617731841,0.537208907476,0.0580596883528,0.773568275867
