tagged_abstract_sents/9638953.txt,1,0.218020917136,-0.0857256778309,0.188769469584,0.202456734834,0.0412991579496,0.280394510857,0.0135429892242,0.647630011416
tagged_abstract_sents/9638953.txt,2,0.0852775543041,0.0769537480064,0.188769469584,0.202456734834,0.0230165266532,0.303859317896,0.0275610282665,0.593171421103
tagged_abstract_sents/9638953.txt,3,0.0245374094932,0.107256778309,0.188769469584,0.202456734834,0.0279429132937,0.39545768396,0.022759180584,0.642362816337
tagged_abstract_sents/9638953.txt,4,0.00120675784393,-0.0984848484848,0.188769469584,0.202456734834,0.152799862507,0.258506874469,0.0318268385585,0.579523767355
