tagged_abstract_sents/9645824.txt,2,0.0253827558421,-0.0889850889851,0.188769469584,0.123191979006,0.061405288833,0.152147564685,0.031705586376,0.291339966668
tagged_abstract_sents/9645824.txt,3,0.0805801772764,-0.0292207792208,0.188769469584,0.123191979006,0.061405288833,0.334653015063,0.0543107938283,0.547146645929
tagged_abstract_sents/9645824.txt,4,0.140209508461,0.0692640692641,0.188769469584,0.123191979006,0.061405288833,0.46245135978,0.0600083860147,0.75827789407
tagged_abstract_sents/9645824.txt,6,0.166800966962,-0.011544011544,0.188769469584,0.123191979006,0.061405288833,0.279814236927,0.0437250733426,0.532658918004
tagged_abstract_sents/9645824.txt,7,0.0954875100725,0.0987253487253,0.188769469584,0.123191979006,0.061405288833,0.399900193514,0.0392161380098,0.712477045756
tagged_abstract_sents/9645824.txt,8,0.0342465753425,-0.0165945165945,0.188769469584,0.123191979006,0.061405288833,0.385837151512,0.0441602005271,0.553146471444
