tagged_abstract_sents/9646215.txt,2,0.0954875100725,-0.0701245602358,0.0616692308323,0.247294108221,0.157215033976,0.0,0.0,0.167387943893
tagged_abstract_sents/9646215.txt,4,0.0805801772764,0.0405058476752,0.188769469584,0.123191979006,0.157215033976,0.172145489589,0.0559750733138,0.430360373187
tagged_abstract_sents/9646215.txt,5,0.123690572119,-0.0744508890368,0.0616692308323,0.247294108221,0.157215033976,0.0,0.0,0.189085127771
tagged_abstract_sents/9646215.txt,6,0.123690572119,0.069554055339,0.0616692308323,0.247294108221,0.157215033976,0.260394409491,0.0531858171154,0.522904117552
tagged_abstract_sents/9646215.txt,7,0.140209508461,-0.0713606541789,0.0616692308323,0.247294108221,0.157215033976,0.0,0.0,0.202918323815
tagged_abstract_sents/9646215.txt,8,0.149879129734,0.0176381097271,0.0616692308323,0.247294108221,0.157215033976,0.143828515144,0.0315915755798,0.369624837843
tagged_abstract_sents/9646215.txt,9,0.176470588235,-0.0719787011505,0.0616692308323,0.247294108221,0.157215033976,0.0,0.0,0.231803578241
tagged_abstract_sents/9646215.txt,10,0.176470588235,0.120851953979,0.210342442448,0.141687475369,0.157215033976,0.220177784036,0.0615734654667,0.58633610841
tagged_abstract_sents/9646215.txt,11,0.166800966962,-0.0719787011505,0.139250797795,0.194462959676,0.157215033976,0.0,0.0,0.24700932014
tagged_abstract_sents/9646215.txt,12,0.0954875100725,0.124560235809,0.139250797795,0.194462959676,0.157215033976,0.167693428838,0.0445747800587,0.444871604504
tagged_abstract_sents/9646215.txt,13,0.0342465753425,-0.0695065132642,0.0616692308323,0.247294108221,0.157215033976,0.0,0.0,0.118518805504
tagged_abstract_sents/9646215.txt,14,0.0342465753425,0.0646096795664,0.139250797795,0.194462959676,0.157215033976,0.214980541671,0.0459803822429,0.413679977742
