tagged_abstract_sents/9650126.txt,1,0.250201126307,-0.0374240583232,0.188769469584,0.202456734834,0.04976263679,0.297633717789,0.0493070870429,0.744501286246
tagged_abstract_sents/9650126.txt,2,0.229283990346,-0.0173754556501,0.210342442448,0.226435992083,0.0368058944346,0.349744641501,0.0554288478817,0.795033503813
tagged_abstract_sents/9650126.txt,3,0.206757843926,0.00388821385176,0.139250797795,0.0356431803763,0.0147330665731,0.413592235208,0.0393105913495,0.714138164052
tagged_abstract_sents/9650126.txt,4,0.118262268705,0.0652490886999,0.139250797795,0.0356431803763,0.0100818358062,0.537213843024,0.0614044359882,0.796678100532
tagged_abstract_sents/9650126.txt,5,0.0852775543041,0.0470230862697,0.139250797795,0.0356431803763,0.00925183561182,0.423056286396,0.0648784163696,0.655131552085
tagged_abstract_sents/9650126.txt,6,0.0571198712792,0.105346294046,0.139250797795,0.0356431803763,0.00940199235134,0.405417598898,0.0575113216623,0.619414421755
tagged_abstract_sents/9650126.txt,7,0.0345937248592,-0.0580801944107,0.139250797795,0.0356431803763,0.00552139771687,0.151203829967,0.0411500449236,0.294252566623
tagged_abstract_sents/9650126.txt,8,0.0144810941271,-0.0258809234508,0.139250797795,0.0356431803763,0.026818180244,0.335091306255,0.0405354375822,0.489171967703
tagged_abstract_sents/9650126.txt,9,0.00120675784393,-0.0835965978129,0.139250797795,0.0356431803763,0.225948228144,0.109464870618,0.0332434860737,0.433221024559
tagged_abstract_sents/9650126.txt,10,0.00120675784393,0.000850546780073,0.139250797795,0.0356431803763,0.095768962591,0.326697764907,0.0359619416223,0.539882537762
