tagged_abstract_sents/9651416.txt,1,0.125905068383,-0.0466419065305,0.0616692308323,0.142474783506,0.0,0.0,0.0,0.164972723868
tagged_abstract_sents/9651416.txt,2,0.239742558327,0.0530795419375,0.210342442448,0.226435992083,0.225561129032,0.458096202975,0.0304443983689,1.08961370427
tagged_abstract_sents/9651416.txt,3,0.239742558327,-0.051098731043,0.0616692308323,0.142474783506,0.0,0.0,0.0,0.255151350921
tagged_abstract_sents/9651416.txt,4,0.218020917136,0.0118539151965,0.210342442448,0.226435992083,0.12727333075,0.33853721979,0.0340595986822,0.849759684819
tagged_abstract_sents/9651416.txt,5,0.218020917136,-0.051098731043,0.0616692308323,0.142474783506,0.0,0.0,0.0,0.237774037968
tagged_abstract_sents/9651416.txt,6,0.162510056315,0.0190962550294,0.139250797795,0.0356431803763,0.111838211309,0.25494880438,0.0381410425806,0.619073707338
tagged_abstract_sents/9651416.txt,7,0.162510056315,-0.0109873104302,0.139250797795,0.0356431803763,0.0,0.147491951132,0.0406218519426,0.396242739052
tagged_abstract_sents/9651416.txt,8,0.101769911504,-0.000959455277004,0.139250797795,0.0356431803763,0.120048167377,0.291043652262,0.030373365279,0.603007576076
tagged_abstract_sents/9651416.txt,9,0.0852775543041,0.0268956979263,0.139250797795,0.0356431803763,0.0652198382382,0.360732049327,0.0347545536225,0.614625977227
tagged_abstract_sents/9651416.txt,10,0.0711987127916,0.00015475085113,0.139250797795,0.0356431803763,0.0139251167032,0.189413808604,0.0424585896284,0.383105788349
tagged_abstract_sents/9651416.txt,11,0.0458567980692,0.0179820489013,0.139250797795,0.0356431803763,0.0646161475642,0.309427457567,0.0403189577718,0.534962764149
tagged_abstract_sents/9651416.txt,12,0.0458567980692,0.0118539151965,0.139250797795,0.0356431803763,0.111366349933,0.450435240372,0.0326265348907,0.7138026997
tagged_abstract_sents/9651416.txt,13,0.0245374094932,-0.00151655834107,0.139250797795,0.0356431803763,0.117440715053,0.311961677903,0.0260241799467,0.555071541839
tagged_abstract_sents/9651416.txt,14,0.0245374094932,-0.0494274218508,0.0616692308323,0.142474783506,0.0,0.0,0.0,0.0833214936922
tagged_abstract_sents/9651416.txt,15,0.00844730490748,0.0140823274528,0.139250797795,0.0356431803763,0.336253496802,0.24953526429,0.0303328092243,0.706014232743
tagged_abstract_sents/9651416.txt,16,0.00844730490748,0.0430516867843,0.139250797795,0.0356431803763,0.14300424155,0.305741448792,0.0325184029256,0.576950627561
tagged_abstract_sents/9651416.txt,17,0.00120675784393,0.00182606004333,0.139250797795,0.0356431803763,0.356854496816,0.341774774981,0.0213012878107,0.801579530902
tagged_abstract_sents/9651416.txt,18,0.00120675784393,0.0118539151965,0.139250797795,0.0356431803763,0.287807083774,0.272992082924,0.0244334631127,0.668887172135
