tagged_abstract_sents/9679792.txt,1,0.125905068383,-0.0526576101293,0.0616692308323,0.142474783506,0.0,0.0,0.0,0.163769583148
tagged_abstract_sents/9679792.txt,2,0.239742558327,0.080189923503,0.188769469584,0.202456734834,0.437591259751,0.253598171743,0.162940884252,1.21708410235
tagged_abstract_sents/9679792.txt,3,0.239742558327,-0.054339224479,0.0616692308323,0.142474783506,0.0,0.0,0.0,0.254503252233
tagged_abstract_sents/9679792.txt,4,0.218020917136,0.0813109997362,0.0616692308323,0.142474783506,0.163795419563,0.233882556977,0.144540398126,0.80647435879
tagged_abstract_sents/9679792.txt,5,0.218020917136,0.0106831970456,0.0616692308323,0.142474783506,0.185337701186,0.179875957178,0.153570302648,0.768914384599
tagged_abstract_sents/9679792.txt,6,0.162510056315,-0.0184647850171,0.0616692308323,0.142474783506,0.0345819537309,0.081628348922,0.0232728337237,0.339375274893
tagged_abstract_sents/9679792.txt,7,0.101769911504,-0.00949617515168,0.0616692308323,0.142474783506,0.0180283352604,0.142164942989,0.0771624579982,0.390449480888
tagged_abstract_sents/9679792.txt,8,0.101769911504,0.00283566341335,0.0616692308323,0.142474783506,0.135172165287,0.167864839565,0.118750636391,0.577347753597
tagged_abstract_sents/9679792.txt,9,0.0711987127916,0.0667370087048,0.0616692308323,0.142474783506,0.186233970731,0.178828012909,0.0987763466042,0.607721752687
tagged_abstract_sents/9679792.txt,10,0.0711987127916,-0.054339224479,0.0616692308323,0.142474783506,0.0,0.0,0.0,0.119668175805
tagged_abstract_sents/9679792.txt,11,0.0458567980692,-0.0319176998154,0.0616692308323,0.142474783506,0.129930851975,0.108116740298,0.0315157771478,0.37344231838
tagged_abstract_sents/9679792.txt,12,0.0245374094932,0.0443154840412,0.139250797795,0.0356431803763,0.214951212536,0.172418886297,0.112101141686,0.608282617932
tagged_abstract_sents/9679792.txt,13,0.0245374094932,-0.0279939329992,0.139250797795,0.0356431803763,0.0451189940297,0.0762959622136,0.0478044496487,0.263568899897
tagged_abstract_sents/9679792.txt,14,0.00844730490748,-0.0408863096808,0.139250797795,0.0356431803763,0.0318229435618,0.0673636673402,0.0349301605888,0.213015706491
tagged_abstract_sents/9679792.txt,15,0.00844730490748,-0.0520970720127,0.0616692308323,0.142474783506,0.0,0.0,0.0,0.0699154799913
tagged_abstract_sents/9679792.txt,16,0.00120675784393,0.0297414930098,0.139250797795,0.0356431803763,0.311977760393,0.178343564796,0.11431498829,0.691868371367
tagged_abstract_sents/9679792.txt,17,0.00120675784393,0.0263782643102,0.139250797795,0.0356431803763,0.297424480038,0.223315514645,0.156197003957,0.763496410787
