tagged_abstract_sents/9707055.txt,2,0.206355591311,-0.0662712738525,0.0616692308323,0.106008497564,0.061502008855,0.0,0.0,0.214467382964
tagged_abstract_sents/9707055.txt,4,0.0048270313757,-0.015729757607,0.0616692308323,0.106008497564,0.061502008855,0.141875533903,0.0612730253926,0.352730913209
tagged_abstract_sents/9707055.txt,5,0.0048270313757,-0.0673027333677,0.0616692308323,0.106008497564,0.061502008855,0.0,0.0,0.0530382431123
tagged_abstract_sents/9707055.txt,7,0.0261464199517,0.015729757607,0.194899689933,0.0581677376677,0.061502008855,0.155960263422,0.0584811734641,0.524515528247
tagged_abstract_sents/9707055.txt,8,0.0353982300885,-0.0673027333677,0.139250797795,0.521468892835,0.061502008855,0.0,0.0,0.240924104145
tagged_abstract_sents/9707055.txt,9,0.0518905872888,0.0642083548221,0.139250797795,0.521468892835,0.061502008855,0.202414998202,0.0626740646387,0.594923941784
tagged_abstract_sents/9707055.txt,10,0.0993563958166,0.0683341928829,0.139250797795,0.521468892835,0.061502008855,0.175098250296,0.0613046790425,0.594388622869
tagged_abstract_sents/9707055.txt,11,0.172566371681,-0.0296544610624,0.139250797795,0.521468892835,0.061502008855,0.118776392938,0.0486371365835,0.567432318345
tagged_abstract_sents/9707055.txt,12,0.172566371681,0.0214027849407,0.139250797795,0.521468892835,0.061502008855,0.16435481115,0.0595736372622,0.583815694627
tagged_abstract_sents/9707055.txt,13,0.206355591311,-0.0657555440949,0.0616692308323,0.106008497564,0.061502008855,0.0,0.0,0.214570528915
tagged_abstract_sents/9707055.txt,14,0.262268704747,-0.00850954100052,0.139250797795,0.521468892835,0.061502008855,0.161918131003,0.0553466180185,0.812672863233
tagged_abstract_sents/9707055.txt,15,0.262268704747,0.0100567302733,0.139250797795,0.521468892835,0.061502008855,0.189352599446,0.05962905791,0.650109274436
