tagged_abstract_sents/9718051.txt,2,0.0954875100725,-0.03194065503,0.0616692308323,0.247294108221,0.0975858019688,0.0,0.0,0.175024724935
tagged_abstract_sents/9718051.txt,4,0.0253827558421,-0.0313051291323,0.0616692308323,0.247294108221,0.0975858019688,0.0,0.0,0.11906802673
tagged_abstract_sents/9718051.txt,5,0.0253827558421,0.00905076537041,0.188769469584,0.123191979006,0.0975858019688,0.285565499499,0.0166237451231,0.388835463067
tagged_abstract_sents/9718051.txt,6,0.0253827558421,-0.0322584179788,0.0616692308323,0.247294108221,0.0975858019688,0.0,0.0,0.11887736896
tagged_abstract_sents/9718051.txt,7,0.0805801772764,-0.0131926410484,0.0616692308323,0.247294108221,0.0975858019688,0.22490977764,0.0167887489013,0.34481872637
tagged_abstract_sents/9718051.txt,8,0.0805801772764,-0.03194065503,0.0616692308323,0.247294108221,0.0975858019688,0.0,0.0,0.163098858698
tagged_abstract_sents/9718051.txt,9,0.0805801772764,-0.0154169816903,0.0616692308323,0.247294108221,0.0975858019688,0.182113475401,0.00493024408934,0.262290379488
tagged_abstract_sents/9718051.txt,10,0.123690572119,-0.0303518402858,0.0616692308323,0.247294108221,0.0975858019688,0.0,0.0,0.197904937521
tagged_abstract_sents/9718051.txt,11,0.123690572119,0.000153402802888,0.210342442448,0.141687475369,0.0975858019688,0.185842620895,0.0181292118371,0.377496203389
tagged_abstract_sents/9718051.txt,12,0.123690572119,-0.0268564478485,0.0616692308323,0.247294108221,0.0975858019688,0.0473634620117,0.00211202265846,0.217137042388
tagged_abstract_sents/9718051.txt,13,0.140209508461,-0.0303518402858,0.0616692308323,0.247294108221,0.0975858019688,0.0,0.0,0.211120086594
tagged_abstract_sents/9718051.txt,14,0.140209508461,0.0185836538356,0.194899689933,0.293363477728,0.0975858019688,0.350220916231,0.013484248207,0.583318651629
tagged_abstract_sents/9718051.txt,15,0.140209508461,0.0100040542169,0.194899689933,0.293363477728,0.0975858019688,0.278968773608,0.0138325597175,0.546243007727
tagged_abstract_sents/9718051.txt,16,0.149879129734,-0.0274919737462,0.0616692308323,0.247294108221,0.0975858019688,0.0,0.0,0.219427756921
tagged_abstract_sents/9718051.txt,17,0.149879129734,-0.00556633027623,0.139250797795,0.194462959676,0.0975858019688,0.237639377784,0.0225892828076,0.47211134058
tagged_abstract_sents/9718051.txt,18,0.149879129734,0.0328829865334,0.139250797795,0.194462959676,0.0975858019688,0.409225797048,0.0204643503036,0.57952871795
tagged_abstract_sents/9718051.txt,19,0.176470588235,-0.0217722406671,0.139250797795,0.194462959676,0.0975858019688,0.138967960626,0.0269624164292,0.432650899931
tagged_abstract_sents/9718051.txt,20,0.176470588235,-0.03194065503,0.139250797795,0.194462959676,0.0975858019688,0.0,0.0,0.262752626382
tagged_abstract_sents/9718051.txt,21,0.176470588235,0.0586217853895,0.139250797795,0.194462959676,0.0975858019688,0.317570296123,0.00624363428348,0.596345380081
tagged_abstract_sents/9718051.txt,22,0.166800966962,0.0395560084591,0.139250797795,0.194462959676,0.0975858019688,0.409356655382,0.0154790506885,0.656526042904
tagged_abstract_sents/9718051.txt,23,0.166800966962,0.0249389128124,0.139250797795,0.194462959676,0.0975858019688,0.28692860526,0.00823476799235,0.541403395286
tagged_abstract_sents/9718051.txt,24,0.166800966962,0.0300231199939,0.139250797795,0.194462959676,0.0975858019688,0.275794327041,0.0163834358824,0.506571539896
tagged_abstract_sents/9718051.txt,25,0.0954875100725,0.0265277275566,0.139250797795,0.194462959676,0.0975858019688,0.299765962379,0.0178240062506,0.440654904557
tagged_abstract_sents/9718051.txt,26,0.0954875100725,-0.0306696032346,0.0616692308323,0.247294108221,0.0975858019688,0.0,0.0,0.175278935294
tagged_abstract_sents/9718051.txt,27,0.0954875100725,0.0373316678172,0.139250797795,0.194462959676,0.0975858019688,0.459126949709,0.0140790284612,0.605062052463
tagged_abstract_sents/9718051.txt,28,0.0342465753425,-0.00747290796928,0.139250797795,0.194462959676,0.0975858019688,0.174885455282,0.0225269895648,0.322928677538
tagged_abstract_sents/9718051.txt,29,0.0342465753425,0.0303408829427,0.139250797795,0.194462959676,0.0975858019688,0.330983721551,0.0179560770317,0.479548797514
tagged_abstract_sents/9718051.txt,30,0.0342465753425,0.0169948390914,0.139250797795,0.194462959676,0.0975858019688,0.339580105607,0.00993194470341,0.425779350201
