tagged_abstract_sents/9757979.txt,2,0.206355591311,-0.0745683930943,0.0616692308323,0.106008497564,0.126129966885,0.0,0.0,0.212807959116
tagged_abstract_sents/9757979.txt,4,0.0048270313757,-0.0729747675963,0.0616692308323,0.106008497564,0.126129966885,0.0,0.0,0.0519038362666
tagged_abstract_sents/9757979.txt,5,0.0108608205953,0.107104913679,0.210342442448,0.0253702522065,0.126129966885,0.444967503231,0.0496049587278,0.620516246194
tagged_abstract_sents/9757979.txt,6,0.0261464199517,-0.0331341301461,0.0616692308323,0.106008497564,0.126129966885,0.171162568858,0.0259354987234,0.275350510834
tagged_abstract_sents/9757979.txt,7,0.0353982300885,-0.0769588313413,0.0616692308323,0.106008497564,0.126129966885,0.0,0.0,0.0755639824878
tagged_abstract_sents/9757979.txt,8,0.0518905872888,-0.019588313413,0.139250797795,0.521468892835,0.126129966885,0.265675809223,0.0258531620584,0.598306305002
tagged_abstract_sents/9757979.txt,10,0.172566371681,0.0194555112882,0.139250797795,0.521468892835,0.126129966885,0.352871154115,0.0457320050786,0.770385404687
tagged_abstract_sents/9757979.txt,11,0.206355591311,-0.0737715803453,0.0616692308323,0.106008497564,0.126129966885,0.0,0.0,0.212967321665
tagged_abstract_sents/9757979.txt,12,0.262268704747,0.0234395750332,0.139250797795,0.521468892835,0.126129966885,0.408630006231,0.035140692993,0.877778417516
tagged_abstract_sents/9757979.txt,13,0.262268704747,0.0322045152722,0.139250797795,0.521468892835,0.126129966885,0.318074881039,0.0410654116613,0.825295244817
