tagged_abstract_sents/9819446.txt,1,0.125905068383,-0.0775862068966,0.0616692308323,0.142474783506,0.0,0.0,0.0,0.158783863795
tagged_abstract_sents/9819446.txt,2,0.239742558327,-0.0222048066876,0.188769469584,0.202456734834,0.0832974855552,0.290890475329,0.0496841670899,0.76634696854
tagged_abstract_sents/9819446.txt,3,0.218020917136,0.0274294670846,0.188769469584,0.202456734834,0.104242007392,0.379215212583,0.0366781760811,0.855159778424
tagged_abstract_sents/9819446.txt,4,0.162510056315,0.0316091954023,0.0616692308323,0.142474783506,0.0281505378187,0.348741636072,0.0338955737,0.620694682191
tagged_abstract_sents/9819446.txt,5,0.101769911504,-0.0190700104493,0.0616692308323,0.142474783506,0.120279815785,0.263316006422,0.0602678571429,0.595042656932
tagged_abstract_sents/9819446.txt,6,0.0852775543041,-0.0791536050157,0.0616692308323,0.142474783506,0.0,0.0,0.0,0.125968372908
tagged_abstract_sents/9819446.txt,7,0.0711987127916,0.199843260188,0.139250797795,0.0356431803763,0.0296652966644,0.456461992098,0.0524390655974,0.715812329641
tagged_abstract_sents/9819446.txt,8,0.0458567980692,-0.00914315569488,0.139250797795,0.0356431803763,0.0303591834823,0.336689098059,0.0452129888268,0.527436430695
tagged_abstract_sents/9819446.txt,9,0.0245374094932,0.05355276907,0.139250797795,0.0356431803763,0.00332198047726,0.290281104617,0.0348606526155,0.439122572129
tagged_abstract_sents/9819446.txt,10,0.00844730490748,-0.0180250783699,0.139250797795,0.0356431803763,0.105873351173,0.271954164124,0.0494687749401,0.510767471499
tagged_abstract_sents/9819446.txt,11,0.00120675784393,-0.0770637408568,0.0616692308323,0.142474783506,0.0,0.0,0.0,0.0591297085716
tagged_abstract_sents/9819446.txt,12,0.00120675784393,-0.0101880877743,0.139250797795,0.0356431803763,0.0908390348361,0.307638085278,0.0354703060481,0.513193567893
