tagged_abstract_sents/9829011.txt,1,0.250201126307,-0.0902135231317,0.0616692308323,0.142474783506,0.0,0.0,0.0,0.255695246887
tagged_abstract_sents/9829011.txt,2,0.229283990346,0.0548042704626,0.188769469584,0.202456734834,0.147471252628,0.406022102065,0.0338489784757,0.93685213478
tagged_abstract_sents/9829011.txt,3,0.206757843926,-0.0937722419929,0.0616692308323,0.142474783506,0.0,0.0,0.0,0.22022887721
tagged_abstract_sents/9829011.txt,4,0.118262268705,0.118861209964,0.139250797795,0.0356431803763,0.0793360356178,0.513044391583,0.0361521776616,0.82723301483
tagged_abstract_sents/9829011.txt,5,0.0852775543041,-0.0928825622776,0.139250797795,0.0356431803763,0.0,0.0,0.0,0.129963883998
tagged_abstract_sents/9829011.txt,6,0.0571198712792,0.0298932384342,0.139250797795,0.0356431803763,0.112649738393,0.38671717259,0.0441618813235,0.675521690027
tagged_abstract_sents/9829011.txt,7,0.0345937248592,-0.0208185053381,0.139250797795,0.0356431803763,0.0625163838448,0.312916978866,0.0312874363582,0.510550430899
tagged_abstract_sents/9829011.txt,8,0.0144810941271,0.130427046263,0.139250797795,0.0356431803763,0.121056848537,0.384298179126,0.0423519147883,0.665695580015
tagged_abstract_sents/9829011.txt,9,0.00120675784393,-0.0893238434164,0.139250797795,0.0356431803763,0.0,0.0,0.0,0.0634189906021
tagged_abstract_sents/9829011.txt,10,0.00120675784393,0.053024911032,0.139250797795,0.0356431803763,0.221667831619,0.450617507223,0.0494962135798,0.813670293914
