tagged_abstract_sents/9972386.txt,2,0.0954875100725,-0.0609654123907,0.0616692308323,0.247294108221,0.0430883308029,0.0,0.0,0.169219773462
tagged_abstract_sents/9972386.txt,3,0.0253827558421,0.0194222729,0.188769469584,0.123191979006,0.0430883308029,0.178935893161,0.00541201117318,0.383244052307
tagged_abstract_sents/9972386.txt,4,0.0451248992748,-0.0598251615355,0.0616692308323,0.247294108221,0.0430883308029,0.0,0.0,0.129157734995
tagged_abstract_sents/9972386.txt,5,0.0805801772764,0.037666286583,0.0616692308323,0.247294108221,0.0430883308029,0.191374407419,0.00549348230912,0.286260531906
tagged_abstract_sents/9972386.txt,7,0.131345688961,0.0131508931965,0.139250797795,0.194462959676,0.0430883308029,0.132914184942,0.0332358589385,0.309980342791
tagged_abstract_sents/9972386.txt,8,0.140209508461,-0.0621056632459,0.139250797795,0.194462959676,0.0430883308029,0.0,0.0,0.22771076092
tagged_abstract_sents/9972386.txt,9,0.149879129734,0.00916001520334,0.139250797795,0.194462959676,0.0430883308029,0.217171458018,0.0144080676964,0.399723058844
tagged_abstract_sents/9972386.txt,10,0.150684931507,0.0764348156594,0.139250797795,0.194462959676,0.0430883308029,0.234958040655,0.0289416511484,0.248402739745
tagged_abstract_sents/9972386.txt,11,0.176470588235,0.0182820220448,0.139250797795,0.194462959676,0.0430883308029,0.187211188591,0.0144902234637,0.24061934992
tagged_abstract_sents/9972386.txt,12,0.166800966962,-0.0598251615355,0.139250797795,0.194462959676,0.0430883308029,0.0,0.0,0.249440028063
tagged_abstract_sents/9972386.txt,13,0.131345688961,-0.0187761307488,0.139250797795,0.194462959676,0.0430883308029,0.15481283201,0.0136911796304,0.476803250634
tagged_abstract_sents/9972386.txt,14,0.0954875100725,0.0274040288864,0.139250797795,0.194462959676,0.0430883308029,0.275286338266,0.0267414455307,0.430374764605
tagged_abstract_sents/9972386.txt,15,0.0342465753425,-0.0062333713417,0.139250797795,0.194462959676,0.0430883308029,0.136935313817,0.00944192271881,0.363241390057
tagged_abstract_sents/9972386.txt,16,0.0342465753425,-0.00167236792094,0.139250797795,0.194462959676,0.0430883308029,0.132712790665,0.0168397928305,0.295938566466
