('warfarin', 'noun', 'C0043031', ['hops', 'orch', 'phsu'], 0.0)||('is', '', '', '', 0.0)||('very', 'adv', 'C0442824', ['qlco'], 0.0)||('effective', 'adj', 'C1704419', ['qlco'], 0.0)||('in', '', '', '', 0.0)||('preventing', 'noun', 'C1292733', ['ftcn'], 0.0)||('recurrent', 'adj', 'C0034897', ['phpr'], 0.0)||('venous thromboembolism', 'noun', 'C1861172', ['patf'], 0.0)||('but', '', '', '', 0.0)||('is', '', '', '', 0.0)||('also', '', '', '', 0.0)||('associated', 'verb', 'C0332281', ['qlco'], 0.0)||('with', '', '', '', 0.0)||('a', '', '', '', 0.0)||('substantial', '', '', '', 0.0)||('risk', 'noun', 'C0035647', ['qlco'], 0.0)||('of', '', '', '', 0.0)||('bleeding', 'noun', 'C0019080', ['fndg'], 0.0)||('.', '', '', '', 0.0)||
('after', '', '', '', 0.0)||('three', '', 'C0205449', ['qnco'], 0.0)||('months', 'noun', 'C0439231', ['tmco'], 0.0)||('of', '', '', '', 0.0)||('conventional', 'adj', 'C0439858', ['qlco'], 0.0)||('warfarin', 'noun', 'C0043031', ['hops', 'orch', 'phsu'], 0.0)||('therapy', 'noun', 'C0039798', ['ftcn'], 0.0)||(',', '', '', '', 0.0)||('a', '', '', '', 0.0)||('lower dose', '', '', '', 0.0)||('of', '', '', '', 0.0)||('anticoagulant', 'noun', 'C0003280', ['phsu'], 0.0)||('medication', '', '', '', 0.0)||('may', '', '', '', 0.0)||('result', 'verb', 'C1274040', ['ftcn'], 0.0)||('in', '', '', '', 0.0)||('less', '', '', '', 0.0)||('bleeding', 'noun', 'C0019080', ['fndg'], 0.0)||('and', '', '', '', 0.0)||('still', '', '', '', 0.0)||('prevent', 'verb', 'C0309872', ['phsu'], 0.0)||('recurrent', 'adj', 'C0034897', ['phpr'], 0.0)||('venous thromboembolism', 'noun', 'C1861172', ['patf'], 0.0)||('.', '', '', '', 0.0)||
('we', '', '', '', 0.0)||('conducted', '', '', '', 0.0)||('a', '', '', '', 0.0)||('randomized', 'adj', 'C0034656', ['resa'], 0.0)||(',', '', '', '', 0.0)||('double - blind study', '', '', '', 0.0)||(',', '', '', '', 0.0)||('in', '', '', '', 0.0)||('which', '', '', '', 0.0)||('738', '', '', '', 0.0)||('patients', 'noun', 'C0030705', ['podg'], 0.0)||('who', '', '', '', 0.0)||('had', '', '', '', 0.0)||('completed', 'adj', 'C0205197', ['qlco'], 0.0)||('three', '', 'C0205449', ['qnco'], 0.0)||('or', '', '', '', 0.0)||('more', '', '', '', 0.0)||('months', 'noun', 'C0439231', ['tmco'], 0.0)||('of', '', '', '', 0.0)||('warfarin', 'noun', 'C0043031', ['hops', 'orch', 'phsu'], 0.0)||('therapy', 'noun', 'C0039798', ['ftcn'], 0.0)||('for', '', '', '', 0.0)||('unprovoked', '', '', '', 0.0)||('venous thromboembolism', 'noun', 'C1861172', ['patf'], 0.0)||('were', '', '', '', 0.0)||('randomly', '', '', '', 0.0)||('assigned', 'verb', 'C1516050', ['ftcn'], 0.0)||('to', '', '', '', 0.0)||('continue', 'verb', 'C0549178', ['idcn'], 0.0)||('warfarin', 'noun', 'C0043031', ['hops', 'orch', 'phsu'], 0.0)||('therapy', 'noun', 'C0039798', ['ftcn'], 0.0)||('with', '', '', '', 0.0)||('a', '', '', '', 0.0)||('target', 'noun', 'C1521840', ['ftcn'], 0.0)||('international normalized ratio', 'noun', 'C0525032', ['lbpr'], 0.0)||('of', '', '', '', 0.0)||('2 . 0', '', '', '', 0.0)||('to', '', '', '', 0.0)||('3 . 0', '', '', '', 0.0)||('(', '', '', '', 0.0)||('conventional', 'adj', 'C0439858', ['qlco'], 0.0)||('intensity', 'noun', 'C0522510', ['qlco'], 0.0)||(')', '', '', '', 0.0)||('or', '', '', '', 0.0)||('a', '', '', '', 0.0)||('target', 'noun', 'C1521840', ['ftcn'], 0.0)||('international normalized ratio', 'noun', 'C0525032', ['lbpr'], 0.0)||('of', '', '', '', 0.0)||('1 . 5', '', '', '', 0.0)||('to', '', '', '', 0.0)||('1 . 9', '', '', '', 0.0)||('(', '', '', '', 0.0)||('low intensity', '', '', '', 0.0)||(')', '', '', '', 0.0)||('.', '', '', '', 0.0)||
('patients', 'noun', 'C0030705', ['podg'], 0.0)||('were', '', '', '', 0.0)||('followed', '', '', '', 0.0)||('for', '', '', '', 0.0)||('an', '', '', '', 0.0)||('average', 'noun', 'C1510992', ['qnco'], 0.0)||('of', '', '', '', 0.0)||('2 . 4', '', '', '', 0.0)||('years', 'noun', 'C0439234', ['tmco'], 0.0)||('.', '', '', '', 0.0)||
('of', '', '', '', 0.0)||('369', '', '', '', 0.0)||('patients', 'noun', 'C0030705', ['podg'], 0.0)||('assigned', 'verb', 'C1516050', ['ftcn'], 0.0)||('to', '', '', '', 0.0)||('low - intensity', '', '', '', 0.0)||('therapy', 'noun', 'C0039798', ['ftcn'], 0.0)||(',', '', '', '', 0.0)||('16', '', '', '', 0.0)||('had', '', '', '', 0.0)||('recurrent', 'adj', 'C0034897', ['phpr'], 0.0)||('venous thromboembolism', 'noun', 'C1861172', ['patf'], 0.0)||('(', '', '', '', 0.0)||('1 . 9', '', '', '', 0.0)||('per', '', '', '', 0.0)||('100', '', '', '', 0.0)||('person - years', '', '', '', 0.0)||(')', '', '', '', 0.0)||(',', '', '', '', 0.0)||('as', '', '', '', 0.0)||('compared', 'verb', 'C1707455', ['acty'], 0.0)||('with', '', '', '', 0.0)||('6', '', '', '', 0.0)||('of', '', '', '', 0.0)||('369', '', '', '', 0.0)||('assigned', 'verb', 'C1516050', ['ftcn'], 0.0)||('to', '', '', '', 0.0)||('conventional', 'adj', 'C0439858', ['qlco'], 0.0)||('-', '', '', '', 0.0)||('intensity', 'noun', 'C0522510', ['qlco'], 0.0)||('therapy', 'noun', 'C0039798', ['ftcn'], 0.0)||('(', '', '', '', 0.0)||('0 . 7', '', '', '', 0.0)||('per', '', '', '', 0.0)||('100', '', '', '', 0.0)||('person - years', '', '', '', 0.0)||(';', '', '', '', 0.0)||('hazard ratio', '', '', '', 0.0)||(',', '', '', '', 0.0)||('2 . 8', '', '', '', 0.0)||(';', '', '', '', 0.0)||('95', '', '', '', 0.0)||('percent', 'noun', 'C0439165', ['qnco'], 0.0)||('confidence interval', 'noun', 'C0009667', ['qnco'], 0.0)||(',', '', '', '', 0.0)||('1 . 1', '', '', '', 0.0)||('to', '', '', '', 0.0)||('7 . 0', '', '', '', 0.0)||(')', '', '', '', 0.0)||('.', '', '', '', 0.0)||
('a', '', '', '', 0.0)||('major', 'adj', 'C0205164', ['qlco'], 0.0)||('bleeding', 'adj', 'C0019080', ['fndg'], 0.0)||('episode', '', '', '', 0.0)||('occurred', 'verb', 'C1709305', ['cnce'], 0.0)||('in', '', '', '', 0.0)||('nine', '', 'C0205455', ['qnco'], 0.0)||('patients', 'noun', 'C0030705', ['podg'], 0.0)||('assigned', 'verb', 'C1516050', ['ftcn'], 0.0)||('to', '', '', '', 0.0)||('low - intensity', '', '', '', 0.0)||('therapy', 'noun', 'C0039798', ['ftcn'], 0.0)||('(', '', '', '', 0.0)||('1 . 1', '', '', '', 0.0)||('events', 'noun', 'C0441471', ['evnt'], 0.0)||('per', '', '', '', 0.0)||('100', '', '', '', 0.0)||('person - years', '', '', '', 0.0)||(')', '', '', '', 0.0)||('and', '', '', '', 0.0)||('eight', '', 'C0205454', ['qnco'], 0.0)||('patients', 'noun', 'C0030705', ['podg'], 0.0)||('assigned', 'verb', 'C1516050', ['ftcn'], 0.0)||('to', '', '', '', 0.0)||('conventional', 'adj', 'C0439858', ['qlco'], 0.0)||('-', '', '', '', 0.0)||('intensity', 'noun', 'C0522510', ['qlco'], 0.0)||('therapy', 'noun', 'C0039798', ['ftcn'], 0.0)||('(', '', '', '', 0.0)||('0 . 9', '', '', '', 0.0)||('event', 'noun', 'C0441471', ['evnt'], 0.0)||('per', '', '', '', 0.0)||('100', '', '', '', 0.0)||('person - years', '', '', '', 0.0)||(';', '', '', '', 0.0)||('hazard ratio', '', '', '', 0.0)||(',', '', '', '', 0.0)||('1 . 2', '', '', '', 0.0)||(';', '', '', '', 0.0)||('95', '', '', '', 0.0)||('percent', 'noun', 'C0439165', ['qnco'], 0.0)||('confidence interval', 'noun', 'C0009667', ['qnco'], 0.0)||(',', '', '', '', 0.0)||('0 . 4', '', '', '', 0.0)||('to', '', '', '', 0.0)||('3 . 0', '', '', '', 0.0)||(')', '', '', '', 0.0)||('.', '', '', '', 0.0)||
('there', '', '', '', 0.0)||('was', '', '', '', 0.0)||('no', '', '', '', 0.0)||('significant', 'adj', 'C0750502', ['idcn'], 0.0)||('difference', 'noun', 'C1705242', ['qlco'], 0.0)||('in', '', '', '', 0.0)||('the', '', '', '', 0.0)||('frequency', 'noun', 'C0376249', ['qnco'], 0.0)||('of', '', '', '', 0.0)||('overall', 'adj', 'C0282416', ['inpr'], 0.0)||('bleeding', 'noun', 'C0019080', ['fndg'], 0.0)||('between', '', '', '', 0.0)||('the', '', '', '', 0.0)||('two', 'adj', 'C0205448', ['qnco'], 0.0)||('groups', 'noun', 'C0441833', ['idcn'], 0.0)||('(', '', '', '', 0.0)||('hazard ratio', '', '', '', 0.0)||(',', '', '', '', 0.0)||('1 . 3', '', '', '', 0.0)||(';', '', '', '', 0.0)||('95', '', '', '', 0.0)||('percent', 'noun', 'C0439165', ['qnco'], 0.0)||('confidence interval', 'noun', 'C0009667', ['qnco'], 0.0)||(',', '', '', '', 0.0)||('0 . 8', '', '', '', 0.0)||('to', '', '', '', 0.0)||('2 . 1', '', '', '', 0.0)||(')', '', '', '', 0.0)||('.', '', '', '', 0.0)||
('conventional', 'adj', 'C0439858', ['qlco'], 0.0)||('-', '', '', '', 0.0)||('intensity', 'noun', 'C0522510', ['qlco'], 0.0)||('warfarin', 'noun', 'C0043031', ['hops', 'orch', 'phsu'], 0.0)||('therapy', 'noun', 'C0039798', ['ftcn'], 0.0)||('is', '', '', '', 0.0)||('more', '', '', '', 0.0)||('effective', 'adj', 'C1704419', ['qlco'], 0.0)||('than', '', '', '', 0.0)||('low - intensity', '', '', '', 0.0)||('warfarin', 'noun', 'C0043031', ['hops', 'orch', 'phsu'], 0.0)||('therapy', 'noun', 'C0039798', ['ftcn'], 0.0)||('for', '', '', '', 0.0)||('the', '', '', '', 0.0)||('long - term', '', '', '', 0.0)||('prevention', 'noun', 'C0199176', ['topp'], 0.0)||('of', '', '', '', 0.0)||('recurrent', 'adj', 'C0034897', ['phpr'], 0.0)||('venous thromboembolism', 'noun', 'C1861172', ['patf'], 0.0)||('.', '', '', '', 0.0)||
('the', '', '', '', 0.0)||('low - intensity', '', '', '', 0.0)||('warfarin', 'noun', 'C0043031', ['hops', 'orch', 'phsu'], 0.0)||('regimen', 'noun', 'C0040808', ['topp'], 0.0)||('does', '', '', '', 0.0)||('not', 'adv', 'C1518422', ['ftcn'], 0.0)||('reduce', '', '', '', 0.0)||('the', '', '', '', 0.0)||('risk', 'noun', 'C0035647', ['qlco'], 0.0)||('of', '', '', '', 0.0)||('clinically', '', '', '', 0.0)||('important', '', '', '', 0.0)||('bleeding', 'noun', 'C0019080', ['fndg'], 0.0)||('.', '', '', '', 0.0)||
