('a', '', '', '', 0.0)||('meta - analysis', '', '', '', 0.0)||('found', '', '', '', 0.0)||('treatment', 'noun', 'C0039798', ['ftcn'], 0.0)||('with', '', '', '', 0.0)||('warfarin', 'noun', 'C0043031', ['hops', 'orch', 'phsu'], 0.0)||('for', '', '', '', 0.0)||('12', '', '', '', 0.0)||('to', '', '', '', 0.0)||('24', '', '', '', 0.0)||('weeks', 'noun', 'C0439230', ['tmco'], 0.0)||('decreased', 'verb', 'C0205216', ['qnco'], 0.0)||('dvt', 'noun', 'C0149871', ['dsyn'], 0.0)||('recurrence', 'noun', 'C0034897', ['phpr'], 0.0)||('compared', 'verb', 'C1707455', ['acty'], 0.0)||('with', '', '', '', 0.0)||('2', '', '', '', 0.0)||('-', '', '', '', 0.0)||('to', '', '', '', 0.0)||('6', '', '', '', 0.0)||('-', '', '', '', 0.0)||('week', 'noun', 'C0439230', ['tmco'], 0.0)||('regimens', '', '', '', 0.0)||('relative risk', 'noun', 'C0242492', ['qnco'], 0.0)||('=', '', '', '', 0.0)||('0 . 60', '', '', '', 0.0)||(';', '', '', '', 0.0)||
('95 %', '', '', '', 0.0)||('ci', 'noun', 'C1417638', ['gngm'], 0.0)||(',', '', '', '', 0.0)||('0 . 45', '', '', '', 0.0)||('-', '', '', '', 0.0)||('0 . 79', '', '', '', 0.0)||(';', '', '', '', 0.0)||
('nnt', 'noun', 'C1417750', ['gngm'], 0.0)||('=', '', '', '', 0.0)||('21', '', '', '', 0.0)||('.', '', '', '', 0.0)||
