('the', '', '', '', 0.0)||('efficacy', 'noun', 'C1707887', ['resa'], 0.0)||('and', '', '', '', 0.0)||('safety', 'noun', 'C0036043', ['hcpp'], 0.0)||('of', '', '', '', 0.0)||('antithrombotic', '', '', '', 0.0)||('treatment', 'noun', 'C0039798', ['ftcn'], 0.0)||('in', '', '', '', 0.0)||('patients', 'noun', 'C0030705', ['podg'], 0.0)||('with', '', '', '', 0.0)||('superficial vein thrombosis', 'noun', 'C0235511', ['patf'], 0.0)||('remain', '', '', '', 0.0)||('to', '', '', '', 0.0)||('be', '', '', '', 0.0)||('established', 'verb', 'C0443211', ['qlco'], 0.0)||('in', '', '', '', 0.0)||('adequately', '', '', '', 0.0)||('designed', '', '', '', 0.0)||('trials', '', '', '', 0.0)||('.', '', '', '', 0.0)||
('in', '', '', '', 0.0)||('a', '', '', '', 0.0)||('double - blind', '', '', '', 0.0)||('trial', 'noun', 'C0008976', ['resa'], 0.0)||(',', '', '', '', 0.0)||('427', '', '', '', 0.0)||('patients', 'noun', 'C0030705', ['podg'], 0.0)||('older', '', '', '', 0.0)||('than', '', '', '', 0.0)||('18', '', '', '', 0.0)||('years', 'noun', 'C0439234', ['tmco'], 0.0)||(',', '', '', '', 0.0)||('with', '', '', '', 0.0)||('documented', 'adj', 'C1301725', ['hlca'], 0.0)||('acute', 'adj', 'C0205178', ['tmco'], 0.0)||('symptomatic', 'adj', 'C0231220', ['ftcn'], 0.0)||('superficial vein thrombosis', 'noun', 'C0235511', ['patf'], 0.0)||('of', '', '', '', 0.0)||('the', '', '', '', 0.0)||('legs', 'noun', 'C1140621', ['blor'], 0.0)||(',', '', '', '', 0.0)||('were', '', '', '', 0.0)||('randomly', '', '', '', 0.0)||('assigned', 'verb', 'C1516050', ['ftcn'], 0.0)||('to', '', '', '', 0.0)||('receive', 'verb', 'C1514756', ['qlco'], 0.0)||('subcutaneous', 'adj', 'C0205523', ['ftcn'], 0.0)||('enoxaparin', 'noun', 'C0206460', ['carb', 'phsu'], 0.0)||('sodium', 'noun', 'C0037473', ['bacs', 'elii'], 0.0)||(',', '', '', '', 0.0)||('40', '', '', '', 0.0)||('mg', '', '', '', 0.0)||(';', '', '', '', 0.0)||
('subcutaneous', 'adj', 'C0205523', ['ftcn'], 0.0)||('enoxaparin', 'noun', 'C0206460', ['carb', 'phsu'], 0.0)||(',', '', '', '', 0.0)||('1 . 5', '', '', '', 0.0)||('mg / kg', '', '', '', 0.0)||(';', '', '', '', 0.0)||
('oral', 'adj', 'C0442027', ['spco'], 0.0)||('tenoxicam', 'noun', 'C0076096', ['orch', 'phsu'], 0.0)||(';', '', '', '', 0.0)||
('or', '', '', '', 0.0)||('placebo', 'noun', 'C0032042', ['topp'], 0.0)||(',', '', '', '', 0.0)||('once', '', '', '', 0.0)||('daily', 'adv', 'C0332173', ['tmco'], 0.0)||('for', '', '', '', 0.0)||('8', '', '', '', 0.0)||('to', '', '', '', 0.0)||('12', '', '', '', 0.0)||('days', 'noun', 'C0439228', ['tmco'], 0.0)||('.', '', '', '', 0.0)||
('the', '', '', '', 0.0)||('primary', 'adj', 'C0205225', ['qlco'], 0.0)||('efficacy', 'noun', 'C1707887', ['resa'], 0.0)||('outcome', 'noun', 'C1274040', ['ftcn'], 0.0)||('was', '', '', '', 0.0)||('deep', 'adj', 'C0205125', ['spco'], 0.0)||('venous thromboembolism', 'noun', 'C1861172', ['patf'], 0.0)||('between', '', '', '', 0.0)||('days', 'noun', 'C0439228', ['tmco'], 0.0)||('1', '', '', '', 0.0)||('and', '', '', '', 0.0)||('12', '', '', '', 0.0)||(',', '', '', '', 0.0)||('defined', 'verb', 'C1704788', ['cnce'], 0.0)||('as', '', '', '', 0.0)||('deep vein thrombosis', 'noun', 'C0042487', ['patf'], 0.0)||('detected', 'verb', 'C0442726', ['fndg'], 0.0)||('by', '', '', '', 0.0)||('ultrasonography', 'noun', 'C0041618', ['diap'], 0.0)||('between', '', '', '', 0.0)||('days', 'noun', 'C0439228', ['tmco'], 0.0)||('8', '', '', '', 0.0)||('and', '', '', '', 0.0)||('12', '', '', '', 0.0)||('or', '', '', '', 0.0)||('earlier', '', '', '', 0.0)||('if', '', '', '', 0.0)||('clinically', '', '', '', 0.0)||('indicated', 'verb', 'C1444656', ['fndg'], 0.0)||(',', '', '', '', 0.0)||('or', '', '', '', 0.0)||('documented', 'adj', 'C1301725', ['hlca'], 0.0)||('symptomatic', 'adj', 'C0231220', ['ftcn'], 0.0)||('pulmonary embolism', 'noun', 'C0034065', ['dsyn'], 0.0)||('.', '', '', '', 0.0)||
('for', '', '', '', 0.0)||('the', '', '', '', 0.0)||('secondary', 'adj', 'C0175668', ['tmco'], 0.0)||('efficacy', 'noun', 'C1707887', ['resa'], 0.0)||('outcomes', 'noun', 'C0085415', ['qlco'], 0.0)||(',', '', '', '', 0.0)||('superficial vein thrombosis', 'noun', 'C0235511', ['patf'], 0.0)||('recurrence', 'noun', 'C0034897', ['phpr'], 0.0)||('or', '', '', '', 0.0)||('extension', 'noun', 'C0231448', ['ftcn'], 0.0)||('was', '', '', '', 0.0)||('also', '', '', '', 0.0)||('considered', '', '', '', 0.0)||('.', '', '', '', 0.0)||
('the', '', '', '', 0.0)||('incidence', 'noun', 'C0021149', ['qnco'], 0.0)||('of', '', '', '', 0.0)||('deep', 'adj', 'C0205125', ['spco'], 0.0)||('venous thromboembolism', 'noun', 'C1861172', ['patf'], 0.0)||('by', '', '', '', 0.0)||('day', 'noun', 'C0439228', ['tmco'], 0.0)||('12', '', '', '', 0.0)||('was', '', '', '', 0.0)||('3 . 6 %', '', '', '', 0.0)||('(', '', '', '', 0.0)||('4', '', '', '', 0.0)||('of', '', '', '', 0.0)||('111', '', '', '', 0.0)||('patients', 'noun', 'C0030705', ['podg'], 0.0)||(')', '', '', '', 0.0)||('in', '', '', '', 0.0)||('the', '', '', '', 0.0)||('placebo', 'noun', 'C0032042', ['topp'], 0.0)||('group', 'noun', 'C0441833', ['idcn'], 0.0)||(',', '', '', '', 0.0)||('0 . 9 %', '', '', '', 0.0)||('(', '', '', '', 0.0)||('1', '', '', '', 0.0)||('of', '', '', '', 0.0)||('109', '', '', '', 0.0)||('patients', 'noun', 'C0030705', ['podg'], 0.0)||(')', '', '', '', 0.0)||('in', '', '', '', 0.0)||('the', '', '', '', 0.0)||('40', '', '', '', 0.0)||('-', '', '', '', 0.0)||('mg', '', '', '', 0.0)||('enoxaparin', 'noun', 'C0206460', ['carb', 'phsu'], 0.0)||('group', 'noun', 'C0441833', ['idcn'], 0.0)||('(', '', '', '', 0.0)||('p', '', '', '', 0.0)||('=', '', '', '', 0.0)||('.', '', '', '', 0.0)||('37', '', '', '', 0.0)||('vs', '', '', '', 0.0)||('placebo', 'noun', 'C0032042', ['topp'], 0.0)||(')', '', '', '', 0.0)||(',', '', '', '', 0.0)||('1 . 0 %', '', '', '', 0.0)||('(', '', '', '', 0.0)||('1', '', '', '', 0.0)||('of', '', '', '', 0.0)||('102', '', '', '', 0.0)||('patients', 'noun', 'C0030705', ['podg'], 0.0)||(')', '', '', '', 0.0)||('in', '', '', '', 0.0)||('the', '', '', '', 0.0)||('1 . 5', '', '', '', 0.0)||('-', '', '', '', 0.0)||('mg / kg', '', '', '', 0.0)||('enoxaparin', 'noun', 'C0206460', ['carb', 'phsu'], 0.0)||('group', 'noun', 'C0441833', ['idcn'], 0.0)||('(', '', '', '', 0.0)||('p', '', '', '', 0.0)||('=', '', '', '', 0.0)||('.', '', '', '', 0.0)||('37', '', '', '', 0.0)||('vs', '', '', '', 0.0)||('placebo', 'noun', 'C0032042', ['topp'], 0.0)||(')', '', '', '', 0.0)||(',', '', '', '', 0.0)||('and', '', '', '', 0.0)||('2 . 1 %', '', '', '', 0.0)||('(', '', '', '', 0.0)||('2', '', '', '', 0.0)||('of', '', '', '', 0.0)||('94', '', '', '', 0.0)||('patients', 'noun', 'C0030705', ['podg'], 0.0)||(')', '', '', '', 0.0)||('in', '', '', '', 0.0)||('the', '', '', '', 0.0)||('tenoxicam', 'noun', 'C0076096', ['orch', 'phsu'], 0.0)||('group', 'noun', 'C0441833', ['idcn'], 0.0)||('(', '', '', '', 0.0)||('p', '', '', '', 0.0)||('=', '', '', '', 0.0)||('.', '', '', '', 0.0)||('69', '', '', '', 0.0)||('vs', '', '', '', 0.0)||('placebo', 'noun', 'C0032042', ['topp'], 0.0)||(')', '', '', '', 0.0)||('.', '', '', '', 0.0)||
('the', '', '', '', 0.0)||('incidence', 'noun', 'C0021149', ['qnco'], 0.0)||('of', '', '', '', 0.0)||('deep', 'adj', 'C0205125', ['spco'], 0.0)||('and', '', '', '', 0.0)||('superficial', 'adj', 'C0205124', ['spco'], 0.0)||('venous thromboembolism', 'noun', 'C1861172', ['patf'], 0.0)||('by', '', '', '', 0.0)||('day', 'noun', 'C0439228', ['tmco'], 0.0)||('12', '', '', '', 0.0)||('was', '', '', '', 0.0)||('significantly', '', '', '', 0.0)||('reduced', 'verb', 'C0392756', ['qlco'], 0.0)||('in', '', '', '', 0.0)||('all', '', '', '', 0.0)||('active treatment', 'noun', 'C1704532', ['topp'], 0.0)||('groups', 'noun', 'C0441833', ['idcn'], 0.0)||(',', '', '', '', 0.0)||('from', '', '', '', 0.0)||('30 . 6 %', '', '', '', 0.0)||('(', '', '', '', 0.0)||('34', '', '', '', 0.0)||('of', '', '', '', 0.0)||('111', '', '', '', 0.0)||('patients', 'noun', 'C0030705', ['podg'], 0.0)||(')', '', '', '', 0.0)||('in', '', '', '', 0.0)||('the', '', '', '', 0.0)||('placebo', 'noun', 'C0032042', ['topp'], 0.0)||('group', 'noun', 'C0441833', ['idcn'], 0.0)||('to', '', '', '', 0.0)||('8 . 3 %', '', '', '', 0.0)||('(', '', '', '', 0.0)||('9', '', '', '', 0.0)||('of', '', '', '', 0.0)||('109', '', '', '', 0.0)||('patients', 'noun', 'C0030705', ['podg'], 0.0)||(')', '', '', '', 0.0)||(',', '', '', '', 0.0)||('6 . 9 %', '', '', '', 0.0)||('(', '', '', '', 0.0)||('7', '', '', '', 0.0)||('of', '', '', '', 0.0)||('102', '', '', '', 0.0)||('patients', 'noun', 'C0030705', ['podg'], 0.0)||(')', '', '', '', 0.0)||(',', '', '', '', 0.0)||('and', '', '', '', 0.0)||('14 . 9 %', '', '', '', 0.0)||('(', '', '', '', 0.0)||('14', '', '', '', 0.0)||('of', '', '', '', 0.0)||('94', '', '', '', 0.0)||('patients', 'noun', 'C0030705', ['podg'], 0.0)||(')', '', '', '', 0.0)||('in', '', '', '', 0.0)||('the', '', '', '', 0.0)||('40', '', '', '', 0.0)||('-', '', '', '', 0.0)||('mg', '', '', '', 0.0)||('enoxaparin', 'noun', 'C0206460', ['carb', 'phsu'], 0.0)||('(', '', '', '', 0.0)||('p', '', '', '', 0.0)||('<', '', '', '', 0.0)||('.', '', '', '', 0.0)||('001', '', '', '', 0.0)||(')', '', '', '', 0.0)||(',', '', '', '', 0.0)||('1 . 5', '', '', '', 0.0)||('-', '', '', '', 0.0)||('mg / kg', '', '', '', 0.0)||('enoxaparin', 'noun', 'C0206460', ['carb', 'phsu'], 0.0)||('(', '', '', '', 0.0)||('p', '', '', '', 0.0)||('<', '', '', '', 0.0)||('.', '', '', '', 0.0)||('001', '', '', '', 0.0)||(')', '', '', '', 0.0)||(',', '', '', '', 0.0)||('and', '', '', '', 0.0)||('tenoxicam', 'noun', 'C0076096', ['orch', 'phsu'], 0.0)||('(', '', '', '', 0.0)||('p', '', '', '', 0.0)||('<', '', '', '', 0.0)||('.', '', '', '', 0.0)||('01', '', '', '', 0.0)||(')', '', '', '', 0.0)||('groups', 'noun', 'C0441833', ['idcn'], 0.0)||(',', '', '', '', 0.0)||('respectively', '', '', '', 0.0)||('.', '', '', '', 0.0)||
('no', '', '', '', 0.0)||('death', 'noun', 'C0011065', ['orgf'], 0.0)||('or', '', '', '', 0.0)||('major', 'adj', 'C0205164', ['qlco'], 0.0)||('hemorrhage', '', '', '', 0.0)||('occurred', 'verb', 'C1709305', ['cnce'], 0.0)||('during', '', '', '', 0.0)||('the', '', '', '', 0.0)||('study', 'noun', 'C0008976', ['resa'], 0.0)||('.', '', '', '', 0.0)||
('treatment', 'noun', 'C0039798', ['ftcn'], 0.0)||('with', '', '', '', 0.0)||('a', '', '', '', 0.0)||('low - molecular - weight heparin', '', '', '', 0.0)||('or', '', '', '', 0.0)||('with', '', '', '', 0.0)||('an', '', '', '', 0.0)||('oral', 'adj', 'C0442027', ['spco'], 0.0)||('nonsteroidal anti - inflammatory agent', '', '', '', 0.0)||('should', '', '', '', 0.0)||('be', '', '', '', 0.0)||('evaluated', 'verb', 'C0220825', ['ftcn'], 0.0)||('further', 'adv', 'C1517331', ['spco'], 0.0)||('in', '', '', '', 0.0)||('the', '', '', '', 0.0)||('prevention', 'noun', 'C0199176', ['topp'], 0.0)||('of', '', '', '', 0.0)||('thromboembolic', 'adj', 'C0333214', ['ftcn'], 0.0)||('complications', 'noun', 'C0009566', ['patf'], 0.0)||('in', '', '', '', 0.0)||('patients', 'noun', 'C0030705', ['podg'], 0.0)||('with', '', '', '', 0.0)||('superficial vein thrombosis', 'noun', 'C0235511', ['patf'], 0.0)||('.', '', '', '', 0.0)||
