('one', 'noun', 'C0205447', ['qnco'], 0.0)||('large', 'adj', 'C0549177', ['qnco'], 0.0)||('double - blind', '', '', '', 0.0)||('randomized controlled trial', '', '', '', 0.0)||('compared', 'verb', 'C1707455', ['acty'], 0.0)||('tenoxicam', 'noun', 'C0076096', ['orch', 'phsu'], 0.0)||('(', '', '', '', 0.0)||('an', '', '', '', 0.0)||('nsaid', 'noun', 'C0003211', ['phsu'], 0.0)||('available', 'adj', 'C0470187', ['ftcn'], 0.0)||('in', '', '', '', 0.0)||('canada', 'noun', 'C0006823', ['geoa'], 0.0)||(',', '', '', '', 0.0)||('similar', 'adj', 'C2348205', ['qlco'], 0.0)||('to', '', '', '', 0.0)||('piroxicam', 'verb', 'C0031990', ['orch', 'phsu'], 0.0)||(')', '', '', '', 0.0)||(',', '', '', '', 0.0)||('enoxaparin', 'noun', 'C0206460', ['carb', 'phsu'], 0.0)||('(', '', '', '', 0.0)||('lovenox', 'noun', 'C0728963', ['carb', 'phsu'], 0.0)||(')', '', '', '', 0.0)||(',', '', '', '', 0.0)||('and', '', '', '', 0.0)||('placebo', 'noun', 'C0032042', ['topp'], 0.0)||('for', '', '', '', 0.0)||('8', '', '', '', 0.0)||('to', '', '', '', 0.0)||('12', '', '', '', 0.0)||('days', 'noun', 'C0439228', ['tmco'], 0.0)||('in', '', '', '', 0.0)||('427', '', '', '', 0.0)||('patients', 'noun', 'C0030705', ['podg'], 0.0)||('with', '', '', '', 0.0)||('svtp', '', '', '', 0.0)||('of', '', '', '', 0.0)||('the', '', '', '', 0.0)||('leg', 'noun', 'C1140621', ['blor'], 0.0)||('measuring', 'verb', 'C0242485', ['ftcn'], 0.0)||('5', '', '', '', 0.0)||('cm', '', '', '', 0.0)||('or', '', '', '', 0.0)||('more', '', '', '', 0.0)||('.', '', '', '', 0.0)||
('patients', 'noun', 'C0030705', ['podg'], 0.0)||('were', '', '', '', 0.0)||('also', '', '', '', 0.0)||('treated', 'verb', 'C1522326', ['ftcn'], 0.0)||('with', '', '', '', 0.0)||('compression', 'noun', 'C0332459', ['ftcn'], 0.0)||('hose', 'noun', 'C0181222', ['medd'], 0.0)||('.', '', '', '', 0.0)||
('patients', 'noun', 'C0030705', ['podg'], 0.0)||('who', '', '', '', 0.0)||('required', 'verb', 'C1514873', ['ftcn'], 0.0)||('immediate', 'adj', 'C0205253', ['tmco'], 0.0)||('anticoagulation', 'noun', 'C0003281', ['topp'], 0.0)||('or', '', '', '', 0.0)||('venous', 'adj', 'C0042449', ['bpoc'], 0.0)||('ligation', 'noun', 'C0023690', ['topp'], 0.0)||('were', '', '', '', 0.0)||('excluded', 'verb', 'C1554077', ['idcn'], 0.0)||('.', '', '', '', 0.0)||
('within', '', '', '', 0.0)||('3', '', '', '', 0.0)||('months', 'noun', 'C0439231', ['tmco'], 0.0)||(',', '', '', '', 0.0)||('35 %', '', '', '', 0.0)||('of', '', '', '', 0.0)||('patients', 'noun', 'C0030705', ['podg'], 0.0)||('taking', '', '', '', 0.0)||('placebo', 'noun', 'C0032042', ['topp'], 0.0)||('developed', '', '', '', 0.0)||('an', '', '', '', 0.0)||('extension', 'noun', 'C0231448', ['ftcn'], 0.0)||('or', '', '', '', 0.0)||('recurrence', 'noun', 'C0034897', ['phpr'], 0.0)||('of', '', '', '', 0.0)||('their', '', '', '', 0.0)||('svtp', '', '', '', 0.0)||('or', '', '', '', 0.0)||('a', '', '', '', 0.0)||('dvt', 'noun', 'C0149871', ['dsyn'], 0.0)||(',', '', '', '', 0.0)||('compared', 'verb', 'C1707455', ['acty'], 0.0)||('with', '', '', '', 0.0)||('16 %', '', '', '', 0.0)||('to', '', '', '', 0.0)||('17 %', '', '', '', 0.0)||('of', '', '', '', 0.0)||('treated', 'adj', 'C1522326', ['ftcn'], 0.0)||('patients', 'noun', 'C0030705', ['podg'], 0.0)||('(', '', '', '', 0.0)||('nnt', 'noun', 'C1417750', ['gngm'], 0.0)||('=', '', '', '', 0.0)||('6', '', '', '', 0.0)||(')', '', '', '', 0.0)||('.', '', '', '', 0.0)||
('there', '', '', '', 0.0)||('was', '', '', '', 0.0)||('no', '', '', '', 0.0)||('significant', 'adj', 'C0750502', ['idcn'], 0.0)||('difference', 'noun', 'C1705242', ['qlco'], 0.0)||('in', '', '', '', 0.0)||('outcome', 'noun', 'C1274040', ['ftcn'], 0.0)||('between', '', '', '', 0.0)||('subcutaneous', 'adj', 'C0205523', ['ftcn'], 0.0)||('enoxaparin', 'noun', 'C0206460', ['carb', 'phsu'], 0.0)||('at', '', '', '', 0.0)||('fixed', 'adj', 'C0231441', ['fndg'], 0.0)||('(', '', '', '', 0.0)||('40', '', '', '', 0.0)||('mg', '', '', '', 0.0)||('/', '', '', '', 0.0)||('d )', '', '', '', 0.0)||('or', '', '', '', 0.0)||('adjusted', 'adj', 'C0456081', ['ftcn'], 0.0)||('doses', 'noun', 'C0178602', ['qnco'], 0.0)||('(', '', '', '', 0.0)||('1 . 5', '', '', '', 0.0)||('mg / kg', '', '', '', 0.0)||(')', '', '', '', 0.0)||(',', '', '', '', 0.0)||('or', '', '', '', 0.0)||('20', '', '', '', 0.0)||('mg', '', '', '', 0.0)||('/', '', '', '', 0.0)||('d', '', '', '', 0.0)||('oral', 'adj', 'C0442027', ['spco'], 0.0)||('tenoxicam', 'noun', 'C0076096', ['orch', 'phsu'], 0.0)||('.', '', '', '', 0.0)||
