('the', '', '', '', 0.0)||('charts', 'noun', 'C0007963', ['medd'], 0.0)||('of', '', '', '', 0.0)||('500', '', '', '', 0.0)||('sequential', 'adj', 'C1548958', ['idcn'], 0.0)||('perimenopausal', 'adj', 'C0677925', ['tmco'], 0.0)||('patients', 'noun', 'C0030705', ['podg'], 0.0)||('were', '', '', '', 0.0)||('reviewed', 'verb', 'C1709940', ['qlco'], 0.0)||('and', '', '', '', 0.0)||('their', '', '', '', 0.0)||('alterations', '', '', '', 0.0)||('in', '', '', '', 0.0)||('menstrual', 'adj', 'C0025344', ['orgf'], 0.0)||('flow', 'noun', 'C0806140', ['npop'], 0.0)||('were', '', '', '', 0.0)||('characterized', 'verb', 'C1880022', ['acty'], 0.0)||('as', '', '', '', 0.0)||('fitting', 'adj', 'C0009951', ['dsyn'], 0.0)||('one', 'noun', 'C0205447', ['qnco'], 0.0)||('of', '', '', '', 0.0)||('three', '', 'C0205449', ['qnco'], 0.0)||('patterns', 'noun', 'C0449774', ['spco'], 0.0)||('.', '', '', '', 0.0)||
('sixty', '', '', '', 0.0)||('-', '', '', '', 0.0)||('two', 'noun', 'C0205448', ['qnco'], 0.0)||('patients', 'noun', 'C0030705', ['podg'], 0.0)||('(', '', '', '', 0.0)||('12 %', '', '', '', 0.0)||(')', '', '', '', 0.0)||('had', '', '', '', 0.0)||('sudden', 'adj', 'C1276802', ['qlco'], 0.0)||('amenorrhea', 'noun', 'C2219717', ['sosy'], 0.0)||(',', '', '', '', 0.0)||('347', '', '', '', 0.0)||('(', '', '', '', 0.0)||('70 %', '', '', '', 0.0)||(')', '', '', '', 0.0)||('had', '', '', '', 0.0)||('oligomenorrhea', 'noun', 'C2057730', ['sosy'], 0.0)||('and / or', '', '', '', 0.0)||('hypomenorrhea', 'noun', 'C0020624', ['dsyn'], 0.0)||(',', '', '', '', 0.0)||('and', '', '', '', 0.0)||('91', '', '', '', 0.0)||('(', '', '', '', 0.0)||('18 %', '', '', '', 0.0)||(')', '', '', '', 0.0)||('had', '', '', '', 0.0)||('menorrhagia', 'noun', 'C0025323', ['patf'], 0.0)||(',', '', '', '', 0.0)||('metrorrhagia', 'noun', 'C0025874', ['patf'], 0.0)||(',', '', '', '', 0.0)||('and / or', '', '', '', 0.0)||('hypermenorrhea', 'noun', 'C0025323', ['patf'], 0.0)||('.', '', '', '', 0.0)||
('all', '', '', '', 0.0)||('of', '', '', '', 0.0)||('the', '', '', '', 0.0)||('patients', 'noun', 'C0030705', ['podg'], 0.0)||('in', '', '', '', 0.0)||('the', '', '', '', 0.0)||('menorrhagia', 'noun', 'C0025323', ['patf'], 0.0)||('/', '', '', '', 0.0)||('metrorrhagia', 'noun', 'C0025874', ['patf'], 0.0)||('and / or', '', '', '', 0.0)||('hypermenorrhea', 'noun', 'C0025323', ['patf'], 0.0)||('group', 'noun', 'C0441833', ['idcn'], 0.0)||('had', '', '', '', 0.0)||('histologic', 'adj', 'C0205462', ['ftcn'], 0.0)||('evaluations', 'noun', 'C0220825', ['ftcn'], 0.0)||('to', '', '', '', 0.0)||('rule', 'verb', 'C0805874', ['idcn'], 0.0)||('out', '', '', '', 0.0)||('the', '', '', '', 0.0)||('presence', 'noun', 'C0392148', ['topp'], 0.0)||('of', '', '', '', 0.0)||('premalignant', 'adj', 'C1514391', ['qlco'], 0.0)||('or', '', '', '', 0.0)||('malignant disease', '', '', '', 0.0)||(';', '', '', '', 0.0)||
('17', '', '', '', 0.0)||('women', 'noun', 'C0043210', ['popg'], 0.0)||('(', '', '', '', 0.0)||('19 %', '', '', '', 0.0)||(')', '', '', '', 0.0)||('in', '', '', '', 0.0)||('this', '', '', '', 0.0)||('group', 'noun', 'C0441833', ['idcn'], 0.0)||('had', '', '', '', 0.0)||('premalignant', 'adj', 'C1514391', ['qlco'], 0.0)||('or', '', '', '', 0.0)||('malignant', 'adj', 'C0205282', ['qlco'], 0.0)||('findings', 'noun', 'C2607943', ['ftcn'], 0.0)||('.', '', '', '', 0.0)||
('in', '', '', '', 0.0)||('addition', 'noun', 'C1883712', ['ftcn'], 0.0)||(',', '', '', '', 0.0)||('4', '', '', '', 0.0)||('of', '', '', '', 0.0)||('the', '', '', '', 0.0)||('5', '', '', '', 0.0)||('women', 'noun', 'C0043210', ['popg'], 0.0)||('with', '', '', '', 0.0)||('malignancies', 'noun', 'C0006826', ['neop'], 0.0)||('had', '', '', '', 0.0)||('intermenstrual', '', '', '', 0.0)||('bleeding', 'noun', 'C0019080', ['fndg'], 0.0)||('.', '', '', '', 0.0)||
('of', '', '', '', 0.0)||('the', '', '', '', 0.0)||('9', '', '', '', 0.0)||('women', 'noun', 'C0043210', ['popg'], 0.0)||('in', '', '', '', 0.0)||('the', '', '', '', 0.0)||('study', 'noun', 'C0008976', ['resa'], 0.0)||('with', '', '', '', 0.0)||('intermenstrual', '', '', '', 0.0)||('bleeding', 'noun', 'C0019080', ['fndg'], 0.0)||(',', '', '', '', 0.0)||('4', '', '', '', 0.0)||('had', '', '', '', 0.0)||('invasive', 'adj', 'C0205281', ['qlco'], 0.0)||('cancer', 'noun', 'C0006826', ['neop'], 0.0)||('and', '', '', '', 0.0)||('2', '', '', '', 0.0)||('had', '', '', '', 0.0)||('endometrial hyperplasia', 'noun', 'C0014173', ['dsyn'], 0.0)||('.', '', '', '', 0.0)||
('this', '', '', '', 0.0)||('study', 'noun', 'C0008976', ['resa'], 0.0)||('documents', 'noun', 'C1301746', ['inpr'], 0.0)||('and', '', '', '', 0.0)||('highlights', '', '', '', 0.0)||('the', '', '', '', 0.0)||('high', 'adj', 'C0205250', ['qlco'], 0.0)||('incidence', 'noun', 'C0021149', ['qnco'], 0.0)||('of', '', '', '', 0.0)||('premalignant', 'adj', 'C1514391', ['qlco'], 0.0)||('and', '', '', '', 0.0)||('malignant', 'adj', 'C0205282', ['qlco'], 0.0)||('findings', 'noun', 'C2607943', ['ftcn'], 0.0)||('in', '', '', '', 0.0)||('perimenopausal', 'adj', 'C0677925', ['tmco'], 0.0)||('patients', 'noun', 'C0030705', ['podg'], 0.0)||('with', '', '', '', 0.0)||('bleeding', 'adj', 'C0019080', ['fndg'], 0.0)||('patterns', 'noun', 'C0449774', ['spco'], 0.0)||('other than', '', '', '', 0.0)||('amenorrhea', 'noun', 'C2219717', ['sosy'], 0.0)||('or', '', '', '', 0.0)||('oligomenorrhea', 'noun', 'C2057730', ['sosy'], 0.0)||('/', '', '', '', 0.0)||('hypomenorrhea', 'noun', 'C0020624', ['dsyn'], 0.0)||(',', '', '', '', 0.0)||('and', '', '', '', 0.0)||('underscores', '', '', '', 0.0)||('the', '', '', '', 0.0)||('need', 'noun', 'C0027552', ['qlco'], 0.0)||('for', '', '', '', 0.0)||('perimenopausal', 'adj', 'C0677925', ['tmco'], 0.0)||('women', 'noun', 'C0043210', ['popg'], 0.0)||('with', '', '', '', 0.0)||('menorrhagia', 'noun', 'C0025323', ['patf'], 0.0)||(',', '', '', '', 0.0)||('metrorrhagia', 'noun', 'C0025874', ['patf'], 0.0)||(',', '', '', '', 0.0)||('and / or', '', '', '', 0.0)||('hypermenorrhea', 'noun', 'C0025323', ['patf'], 0.0)||('to', '', '', '', 0.0)||('undergo', '', '', '', 0.0)||('thorough', '', '', '', 0.0)||('evaluation', 'noun', 'C0220825', ['ftcn'], 0.0)||('.', '', '', '', 0.0)||
