('a', '', '', '', 0.0)||('review', 'noun', 'C0282443', ['inpr'], 0.0)||('article', 'noun', 'C1706852', ['inpr'], 0.0)||('of', '', '', '', 0.0)||('currently', 'adv', 'C0521116', ['tmco'], 0.0)||('available', 'adj', 'C0470187', ['ftcn'], 0.0)||('evidence', 'noun', 'C0332120', ['ftcn'], 0.0)||('on', '', '', '', 0.0)||('endometrial', 'adj', 'C0227843', ['spco'], 0.0)||('ablation', 'noun', 'C0547070', ['topp'], 0.0)||('for', '', '', '', 0.0)||('heavy menstrual bleeding', 'noun', 'C0025323', ['patf'], 0.0)||('concluded', '', '', '', 0.0)||('that', '', '', '', 0.0)||('both', '', '', '', 0.0)||('resectoscopic', '', '', '', 0.0)||('endometrial', 'adj', 'C0227843', ['spco'], 0.0)||('ablation', 'noun', 'C0547070', ['topp'], 0.0)||('(', '', '', '', 0.0)||('via', '', '', '', 0.0)||('hysteroscopy', 'noun', 'C0020710', ['diap', 'topp'], 0.0)||(')', '', '', '', 0.0)||('and', '', '', '', 0.0)||('nonresectoscopic', '', '', '', 0.0)||('endometrial', 'adj', 'C0227843', ['spco'], 0.0)||('ablative', '', '', '', 0.0)||('technologies', '', '', '', 0.0)||('(', '', '', '', 0.0)||('radio - frequency', '', '', '', 0.0)||('electrosurgical', '', '', '', 0.0)||('ablation', 'noun', 'C0547070', ['topp'], 0.0)||(',', '', '', '', 0.0)||('balloon', 'noun', 'C0004704', ['topp'], 0.0)||('thermal', '', '', '', 0.0)||('ablation', 'noun', 'C0547070', ['topp'], 0.0)||(',', '', '', '', 0.0)||('free', 'adj', 'C1880497', ['qlco'], 0.0)||('fluid', 'noun', 'C0005889', ['bdsu'], 0.0)||('ablation', 'noun', 'C0547070', ['topp'], 0.0)||(',', '', '', '', 0.0)||('cryotherapy', 'noun', 'C0010412', ['topp'], 0.0)||(',', '', '', '', 0.0)||('microwaves', 'verb', 'C0026051', ['npop'], 0.0)||(')', '', '', '', 0.0)||('significantly', '', '', '', 0.0)||('reduce', '', '', '', 0.0)||('menstrual', 'adj', 'C0025344', ['orgf'], 0.0)||('blood flow', 'noun', 'C0232338', ['orgf'], 0.0)||('.', '', '', '', 0.0)||
('these', '', '', '', 0.0)||('minimally', '', '', '', 0.0)||('invasive', 'adj', 'C0205281', ['qlco'], 0.0)||('techniques', 'noun', 'C0025664', ['inpr'], 0.0)||('were', '', '', '', 0.0)||('an', '', '', '', 0.0)||('option', 'noun', 'C1518601', ['ftcn'], 0.0)||('for', '', '', '', 0.0)||('women', 'noun', 'C0043210', ['popg'], 0.0)||('who', '', '', '', 0.0)||("weren ' t", '', '', '', 0.0)||('concerned', '', '', '', 0.0)||('about', '', '', '', 0.0)||('preserving', 'adj', 'C0728887', ['ftcn'], 0.0)||('fertility', 'noun', 'C0015895', ['orgf'], 0.0)||('.', '', '', '', 0.0)||
('however', '', '', '', 0.0)||(',', '', '', '', 0.0)||('20 %', '', '', '', 0.0)||('to', '', '', '', 0.0)||('40 %', '', '', '', 0.0)||('of', '', '', '', 0.0)||('patients', 'noun', 'C0030705', ['podg'], 0.0)||('who', '', '', '', 0.0)||('were', '', '', '', 0.0)||('followed', '', '', '', 0.0)||('for', '', '', '', 0.0)||('more', '', '', '', 0.0)||('than', '', '', '', 0.0)||('5', '', '', '', 0.0)||('years', 'noun', 'C0439234', ['tmco'], 0.0)||('required', 'verb', 'C1514873', ['ftcn'], 0.0)||('repeat', 'noun', 'C0205341', ['ftcn'], 0.0)||('treatment', 'noun', 'C0039798', ['ftcn'], 0.0)||('or', '', '', '', 0.0)||('hysterectomy', 'noun', 'C0020699', ['topp'], 0.0)||('.', '', '', '', 0.0)||
