('although', '', '', '', 0.0)||('postmenopausal hormone', '', '', '', 0.0)||('replacement therapy', 'noun', 'C0279033', ['topp'], 0.0)||('is', '', '', '', 0.0)||('widely', '', '', '', 0.0)||('used', '', '', '', 0.0)||('in', '', '', '', 0.0)||('the', '', '', '', 0.0)||('united states', 'noun', 'C0041703', ['geoa'], 0.0)||(',', '', '', '', 0.0)||('new', 'adj', 'C0205314', ['tmco'], 0.0)||('evidence', 'noun', 'C0332120', ['ftcn'], 0.0)||('about', '', '', '', 0.0)||('its', '', '', '', 0.0)||('benefits', 'noun', 'C0814225', ['qnco'], 0.0)||('and', '', '', '', 0.0)||('harms', '', '', '', 0.0)||('requires', '', '', '', 0.0)||('reconsideration', '', '', '', 0.0)||('of', '', '', '', 0.0)||('its', '', '', '', 0.0)||('use', 'noun', 'C0042153', ['ftcn'], 0.0)||('for', '', '', '', 0.0)||('the', '', '', '', 0.0)||('primary', 'adj', 'C0205225', ['qlco'], 0.0)||('prevention', 'noun', 'C0199176', ['topp'], 0.0)||('of', '', '', '', 0.0)||('chronic', 'adj', 'C0205191', ['tmco'], 0.0)||('conditions', '', '', '', 0.0)||('.', '', '', '', 0.0)||
('to', '', '', '', 0.0)||('assess', 'verb', 'C1516048', ['acty'], 0.0)||('the', '', '', '', 0.0)||('benefits', 'noun', 'C0814225', ['qnco'], 0.0)||('and', '', '', '', 0.0)||('harms', '', '', '', 0.0)||('of', '', '', '', 0.0)||('hormone replacement therapy', 'noun', 'C0282402', ['topp'], 0.0)||('for', '', '', '', 0.0)||('the', '', '', '', 0.0)||('primary', 'adj', 'C0205225', ['qlco'], 0.0)||('prevention', 'noun', 'C0199176', ['topp'], 0.0)||('of', '', '', '', 0.0)||('cardiovascular disease', 'noun', 'C0007222', ['dsyn'], 0.0)||(',', '', '', '', 0.0)||('thromboembolism', 'noun', 'C0040038', ['dsyn'], 0.0)||(',', '', '', '', 0.0)||('osteoporosis', 'noun', 'C0029456', ['dsyn'], 0.0)||(',', '', '', '', 0.0)||('cancer', 'noun', 'C0006826', ['neop'], 0.0)||(',', '', '', '', 0.0)||('dementia', 'noun', 'C0497327', ['dsyn'], 0.0)||(',', '', '', '', 0.0)||('and', '', '', '', 0.0)||('cholecystitis', 'noun', 'C0008325', ['dsyn'], 0.0)||('by', '', '', '', 0.0)||('reviewing', 'noun', 'C1704362', ['qlco'], 0.0)||('the', '', '', '', 0.0)||('literature', 'noun', 'C0023866', ['inpr'], 0.0)||(',', '', '', '', 0.0)||('conducting', '', '', '', 0.0)||('meta - analyses', '', '', '', 0.0)||(',', '', '', '', 0.0)||('and', '', '', '', 0.0)||('calculating', 'adj', 'C1441506', ['acty'], 0.0)||('outcome', 'noun', 'C1274040', ['ftcn'], 0.0)||('rates', '', '', '', 0.0)||('.', '', '', '', 0.0)||
('all', '', '', '', 0.0)||('relevant', 'adj', 'C2347946', ['qlco'], 0.0)||('english', 'noun', 'C1556083', ['popg'], 0.0)||('-', '', '', '', 0.0)||('language', 'noun', 'C0023008', ['lang'], 0.0)||('studies', '', '', '', 0.0)||('were', '', '', '', 0.0)||('identified', 'verb', 'C0205396', ['qlco'], 0.0)||('in', '', '', '', 0.0)||('medline', 'noun', 'C0025141', ['inpr'], 0.0)||('(', '', '', '', 0.0)||('1966', '', '', '', 0.0)||('-', '', '', '', 0.0)||('2001', '', '', '', 0.0)||(')', '', '', '', 0.0)||(',', '', '', '', 0.0)||('healthstar', '', '', '', 0.0)||('(', '', '', '', 0.0)||('1975', '', '', '', 0.0)||('-', '', '', '', 0.0)||('2001', '', '', '', 0.0)||(')', '', '', '', 0.0)||(',', '', '', '', 0.0)||('cochrane', '', '', '', 0.0)||('library', 'noun', 'C0023621', ['mnob', 'orgt'], 0.0)||('databases', 'noun', 'C0242356', ['inpr'], 0.0)||(',', '', '', '', 0.0)||('and', '', '', '', 0.0)||('reference', 'noun', 'C1514811', ['idcn'], 0.0)||('lists', '', '', '', 0.0)||('of', '', '', '', 0.0)||('key', '', '', '', 0.0)||('articles', '', '', '', 0.0)||('.', '', '', '', 0.0)||
('recent', 'adj', 'C0332185', ['tmco'], 0.0)||('results', 'noun', 'C1274040', ['ftcn'], 0.0)||('of', '', '', '', 0.0)||('the', '', '', '', 0.0)||('women', 'noun', 'C0043210', ['popg'], 0.0)||("' s", '', '', '', 0.0)||('health', 'noun', 'C0018684', ['idcn'], 0.0)||('initiative', 'noun', 'C0424093', ['menp'], 0.0)||('and', '', '', '', 0.0)||('the', '', '', '', 0.0)||('heart', 'noun', 'C0018787', ['bpoc'], 0.0)||('and', '', '', '', 0.0)||('estrogen', 'noun', 'C0014939', ['horm', 'phsu', 'strd'], 0.0)||('/', '', '', '', 0.0)||('progestin', 'noun', 'C0033306', ['horm', 'phsu', 'strd'], 0.0)||('replacement', 'noun', 'C0035139', ['topp'], 0.0)||('study', 'noun', 'C0008976', ['resa'], 0.0)||('are', '', '', '', 0.0)||('included', '', '', '', 0.0)||('for', '', '', '', 0.0)||('reported', 'adj', 'C0684224', ['inpr'], 0.0)||('outcomes', 'noun', 'C0085415', ['qlco'], 0.0)||('.', '', '', '', 0.0)||
('we', '', '', '', 0.0)||('used', '', '', '', 0.0)||('all', '', '', '', 0.0)||('published', 'adj', 'C0034037', ['ocac'], 0.0)||('studies', '', '', '', 0.0)||('of', '', '', '', 0.0)||('hormone replacement therapy', 'noun', 'C0282402', ['topp'], 0.0)||('if', '', '', '', 0.0)||('they', '', '', '', 0.0)||('contained', 'verb', 'C2700400', ['acty'], 0.0)||('a', '', '', '', 0.0)||('comparison', 'noun', 'C1707455', ['acty'], 0.0)||('group', 'noun', 'C0441833', ['idcn'], 0.0)||('of', '', '', '', 0.0)||('hormone replacement therapy', 'noun', 'C0282402', ['topp'], 0.0)||('nonusers', '', '', '', 0.0)||('and', '', '', '', 0.0)||('reported', 'adj', 'C0684224', ['inpr'], 0.0)||('data', 'noun', 'C1511726', ['idcn'], 0.0)||('relating', 'verb', 'C2003855', ['ftcn'], 0.0)||('to', '', '', '', 0.0)||('hormone replacement therapy', 'noun', 'C0282402', ['topp'], 0.0)||('use', 'noun', 'C0042153', ['ftcn'], 0.0)||('and', '', '', '', 0.0)||('clinical', 'adj', 'C0205210', ['qlco'], 0.0)||('outcomes', 'noun', 'C0085415', ['qlco'], 0.0)||('of', '', '', '', 0.0)||('interest', 'noun', 'C0543488', ['menp'], 0.0)||('.', '', '', '', 0.0)||
('studies', '', '', '', 0.0)||('were', '', '', '', 0.0)||('excluded', 'verb', 'C1554077', ['idcn'], 0.0)||('if', '', '', '', 0.0)||('the', '', '', '', 0.0)||('population', 'noun', 'C0032659', ['qnco'], 0.0)||('was', '', '', '', 0.0)||('selected', '', '', '', 0.0)||('according to', '', '', '', 0.0)||('prior', 'adj', 'C0332152', ['tmco'], 0.0)||('events', 'noun', 'C0441471', ['evnt'], 0.0)||('or', '', '', '', 0.0)||('presence', 'noun', 'C0392148', ['topp'], 0.0)||('of', '', '', '', 0.0)||('conditions', '', '', '', 0.0)||('associated', 'verb', 'C0332281', ['qlco'], 0.0)||('with', '', '', '', 0.0)||('higher', '', '', '', 0.0)||('risks', 'noun', 'C0035647', ['qlco'], 0.0)||('for', '', '', '', 0.0)||('targeted', 'adj', 'C1521840', ['ftcn'], 0.0)||('outcomes', 'noun', 'C0085415', ['qlco'], 0.0)||('.', '', '', '', 0.0)||
('meta - analyses', '', '', '', 0.0)||('of', '', '', '', 0.0)||('observational', 'adj', 'C1964257', ['diap'], 0.0)||('studies', '', '', '', 0.0)||('indicated', 'verb', 'C1444656', ['fndg'], 0.0)||('summary', 'noun', 'C1552616', ['inpr'], 0.0)||('relative risks', 'noun', 'C0242492', ['qnco'], 0.0)||('for', '', '', '', 0.0)||('coronary heart disease', 'noun', 'C0010068', ['dsyn'], 0.0)||('incidence', 'noun', 'C0021149', ['qnco'], 0.0)||('and', '', '', '', 0.0)||('mortality', 'noun', 'C0026565', ['qnco'], 0.0)||('that', '', '', '', 0.0)||('were', '', '', '', 0.0)||('significantly', '', '', '', 0.0)||('reduced', 'verb', 'C0392756', ['qlco'], 0.0)||('among', '', '', '', 0.0)||('current', 'adj', 'C0521116', ['tmco'], 0.0)||('hormone replacement therapy', 'noun', 'C0282402', ['topp'], 0.0)||('users', 'noun', 'C1706077', ['humn'], 0.0)||('only', '', '', '', 0.0)||(',', '', '', '', 0.0)||('although', '', '', '', 0.0)||('risk', 'noun', 'C0035647', ['qlco'], 0.0)||('for', '', '', '', 0.0)||('incidence', 'noun', 'C0021149', ['qnco'], 0.0)||('was', '', '', '', 0.0)||('not', 'adv', 'C1518422', ['ftcn'], 0.0)||('reduced', 'verb', 'C0392756', ['qlco'], 0.0)||('when', '', '', '', 0.0)||('only', '', '', '', 0.0)||('studies', '', '', '', 0.0)||('that', '', '', '', 0.0)||('controlled', 'verb', 'C2587213', ['ftcn'], 0.0)||('for', '', '', '', 0.0)||('socioeconomic status', 'noun', 'C0086996', ['qlco'], 0.0)||('were', '', '', '', 0.0)||('included', '', '', '', 0.0)||('.', '', '', '', 0.0)||
('the', '', '', '', 0.0)||('women', 'noun', 'C0043210', ['popg'], 0.0)||("' s", '', '', '', 0.0)||('health', 'noun', 'C0018684', ['idcn'], 0.0)||('initiative', 'noun', 'C0424093', ['menp'], 0.0)||('reported', 'verb', 'C0684224', ['inpr'], 0.0)||('increased', 'adj', 'C0205217', ['qnco'], 0.0)||('coronary heart disease', 'noun', 'C0010068', ['dsyn'], 0.0)||('events', 'noun', 'C0441471', ['evnt'], 0.0)||('(', '', '', '', 0.0)||('hazard ratio', '', '', '', 0.0)||(',', '', '', '', 0.0)||('1 . 29', '', '', '', 0.0)||(';', '', '', '', 0.0)||('95 %', '', '', '', 0.0)||('confidence interval', 'noun', 'C0009667', ['qnco'], 0.0)||(',', '', '', '', 0.0)||('1 . 02', '', '', '', 0.0)||('-', '', '', '', 0.0)||('1 . 63', '', '', '', 0.0)||(')', '', '', '', 0.0)||('.', '', '', '', 0.0)||
('stroke', 'noun', 'C0038454', ['dsyn'], 0.0)||('incidence', 'noun', 'C0021149', ['qnco'], 0.0)||('but', '', '', '', 0.0)||('not', 'adv', 'C1518422', ['ftcn'], 0.0)||('mortality', 'noun', 'C0026565', ['qnco'], 0.0)||('was', '', '', '', 0.0)||('significantly', '', '', '', 0.0)||('increased', 'verb', 'C0205217', ['qnco'], 0.0)||('among', '', '', '', 0.0)||('hormone replacement therapy', 'noun', 'C0282402', ['topp'], 0.0)||('users', 'noun', 'C1706077', ['humn'], 0.0)||('in', '', '', '', 0.0)||('the', '', '', '', 0.0)||('meta - analysis', '', '', '', 0.0)||('and', '', '', '', 0.0)||('the', '', '', '', 0.0)||('women', 'noun', 'C0043210', ['popg'], 0.0)||("' s", '', '', '', 0.0)||('health', 'noun', 'C0018684', ['idcn'], 0.0)||('initiative', 'noun', 'C0424093', ['menp'], 0.0)||('.', '', '', '', 0.0)||
('the', '', '', '', 0.0)||('meta - analysis', '', '', '', 0.0)||('indicated', 'verb', 'C1444656', ['fndg'], 0.0)||('that', '', '', '', 0.0)||('risk', 'noun', 'C0035647', ['qlco'], 0.0)||('was', '', '', '', 0.0)||('significantly', '', '', '', 0.0)||('elevated', 'verb', 'C0205250', ['qlco'], 0.0)||('for', '', '', '', 0.0)||('thromboembolic', 'adj', 'C0333214', ['ftcn'], 0.0)||('stroke', 'noun', 'C0038454', ['dsyn'], 0.0)||('(', '', '', '', 0.0)||('rr', 'noun', 'C0231832', ['clna'], 0.0)||(',', '', '', '', 0.0)||('1 . 20', '', '', '', 0.0)||(';', '', '', '', 0.0)||('95 %', '', '', '', 0.0)||('confidence interval', 'noun', 'C0009667', ['qnco'], 0.0)||(',', '', '', '', 0.0)||('1 . 01', '', '', '', 0.0)||('-', '', '', '', 0.0)||('1 . 40', '', '', '', 0.0)||(')', '', '', '', 0.0)||('but', '', '', '', 0.0)||('not', 'adv', 'C1518422', ['ftcn'], 0.0)||('subarachnoid', 'noun', 'C1515008', ['ftcn'], 0.0)||('or', '', '', '', 0.0)||('intracerebral', 'adj', 'C0442111', ['spco'], 0.0)||('stroke', 'noun', 'C0038454', ['dsyn'], 0.0)||('.', '', '', '', 0.0)||
('risk', 'noun', 'C0035647', ['qlco'], 0.0)||('of', '', '', '', 0.0)||('venous thromboembolism', 'noun', 'C1861172', ['patf'], 0.0)||('among', '', '', '', 0.0)||('current', 'adj', 'C0521116', ['tmco'], 0.0)||('hormone replacement therapy', 'noun', 'C0282402', ['topp'], 0.0)||('users', 'noun', 'C1706077', ['humn'], 0.0)||('was', '', '', '', 0.0)||('increased', 'verb', 'C0205217', ['qnco'], 0.0)||('overall', 'adv', 'C0282416', ['inpr'], 0.0)||('(', '', '', '', 0.0)||('rr', 'noun', 'C0231832', ['clna'], 0.0)||(',', '', '', '', 0.0)||('2 . 14', '', '', '', 0.0)||(';', '', '', '', 0.0)||('95 %', '', '', '', 0.0)||('confidence interval', 'noun', 'C0009667', ['qnco'], 0.0)||(',', '', '', '', 0.0)||('1 . 64', '', '', '', 0.0)||('-', '', '', '', 0.0)||('2 . 81', '', '', '', 0.0)||(')', '', '', '', 0.0)||('and', '', '', '', 0.0)||('was', '', '', '', 0.0)||('highest', 'adj', 'C1522410', ['qlco'], 0.0)||('during', '', '', '', 0.0)||('the', '', '', '', 0.0)||('first', 'adj', 'C0205435', ['qnco'], 0.0)||('year', 'noun', 'C0439234', ['tmco'], 0.0)||('of', '', '', '', 0.0)||('use', 'noun', 'C0042153', ['ftcn'], 0.0)||('(', '', '', '', 0.0)||('rr', 'noun', 'C0231832', ['clna'], 0.0)||(',', '', '', '', 0.0)||('3 . 49', '', '', '', 0.0)||(';', '', '', '', 0.0)||('95 %', '', '', '', 0.0)||('confidence interval', 'noun', 'C0009667', ['qnco'], 0.0)||(',', '', '', '', 0.0)||('2 . 33', '', '', '', 0.0)||('-', '', '', '', 0.0)||('5 . 59', '', '', '', 0.0)||(')', '', '', '', 0.0)||('according to', '', '', '', 0.0)||('a', '', '', '', 0.0)||('meta - analysis', '', '', '', 0.0)||('of', '', '', '', 0.0)||('12', '', '', '', 0.0)||('studies', '', '', '', 0.0)||('.', '', '', '', 0.0)||
('protection', 'noun', 'C1545588', ['fndg'], 0.0)||('against', '', '', '', 0.0)||('osteoporotic', '', '', '', 0.0)||('fractures', 'noun', 'C0016658', ['inpo'], 0.0)||('is', '', '', '', 0.0)||('supported', 'verb', 'C1521721', ['cnce'], 0.0)||('by', '', '', '', 0.0)||('a', '', '', '', 0.0)||('meta - analysis', '', '', '', 0.0)||('of', '', '', '', 0.0)||('22', '', '', '', 0.0)||('estrogen', 'noun', 'C0014939', ['horm', 'phsu', 'strd'], 0.0)||('trials', '', '', '', 0.0)||(',', '', '', '', 0.0)||('cohort studies', 'noun', 'C0009247', ['qnco'], 0.0)||(',', '', '', '', 0.0)||('results', 'verb', 'C1274040', ['ftcn'], 0.0)||('of', '', '', '', 0.0)||('the', '', '', '', 0.0)||('women', 'noun', 'C0043210', ['popg'], 0.0)||("' s", '', '', '', 0.0)||('health', 'noun', 'C0018684', ['idcn'], 0.0)||('initiative', 'noun', 'C0424093', ['menp'], 0.0)||(',', '', '', '', 0.0)||('and', '', '', '', 0.0)||('trials', '', '', '', 0.0)||('with', '', '', '', 0.0)||('bone density', 'noun', 'C0005938', ['clna'], 0.0)||('outcomes', 'noun', 'C0085415', ['qlco'], 0.0)||('.', '', '', '', 0.0)||
('current', 'adj', 'C0521116', ['tmco'], 0.0)||('estrogen', 'noun', 'C0014939', ['horm', 'phsu', 'strd'], 0.0)||('users', 'noun', 'C1706077', ['humn'], 0.0)||('have', '', '', '', 0.0)||('an', '', '', '', 0.0)||('increased risk', '', '', '', 0.0)||('of', '', '', '', 0.0)||('breast cancer', 'noun', 'C0006142', ['neop'], 0.0)||('that', '', '', '', 0.0)||('increases', '', '', '', 0.0)||('with', '', '', '', 0.0)||('duration', 'noun', 'C0449238', ['tmco'], 0.0)||('of', '', '', '', 0.0)||('use', 'noun', 'C0042153', ['ftcn'], 0.0)||('.', '', '', '', 0.0)||
('endometrial cancer', 'noun', 'C0476089', ['neop'], 0.0)||('incidence', 'noun', 'C0021149', ['qnco'], 0.0)||(',', '', '', '', 0.0)||('but', '', '', '', 0.0)||('not', 'adv', 'C1518422', ['ftcn'], 0.0)||('mortality', 'noun', 'C0026565', ['qnco'], 0.0)||(',', '', '', '', 0.0)||('is', '', '', '', 0.0)||('increased', 'verb', 'C0205217', ['qnco'], 0.0)||('with', '', '', '', 0.0)||('unopposed', '', '', '', 0.0)||('estrogen', 'noun', 'C0014939', ['horm', 'phsu', 'strd'], 0.0)||('use', 'noun', 'C0042153', ['ftcn'], 0.0)||('but', '', '', '', 0.0)||('not', 'adv', 'C1518422', ['ftcn'], 0.0)||('with', '', '', '', 0.0)||('estrogen', 'noun', 'C0014939', ['horm', 'phsu', 'strd'], 0.0)||('with', '', '', '', 0.0)||('progestin', 'noun', 'C0033306', ['horm', 'phsu', 'strd'], 0.0)||('.', '', '', '', 0.0)||
('a', '', '', '', 0.0)||('meta - analysis', '', '', '', 0.0)||('of', '', '', '', 0.0)||('18', '', '', '', 0.0)||('observational', 'adj', 'C1964257', ['diap'], 0.0)||('studies', '', '', '', 0.0)||('showed', '', '', '', 0.0)||('a', '', '', '', 0.0)||('20 %', '', '', '', 0.0)||('reduction', 'noun', 'C0301630', ['npop'], 0.0)||('in', '', '', '', 0.0)||('colon cancer', 'noun', 'C0007102', ['neop'], 0.0)||('incidence', 'noun', 'C0021149', ['qnco'], 0.0)||('among', '', '', '', 0.0)||('women', 'noun', 'C0043210', ['popg'], 0.0)||('who', '', '', '', 0.0)||('had', '', '', '', 0.0)||('ever', '', '', '', 0.0)||('used', '', '', '', 0.0)||('hormone replacement therapy', 'noun', 'C0282402', ['topp'], 0.0)||('(', '', '', '', 0.0)||('rr', 'noun', 'C0231832', ['clna'], 0.0)||(',', '', '', '', 0.0)||('0 . 80', '', '', '', 0.0)||(';', '', '', '', 0.0)||('95 %', '', '', '', 0.0)||('confidence interval', 'noun', 'C0009667', ['qnco'], 0.0)||(',', '', '', '', 0.0)||('0 . 74', '', '', '', 0.0)||('-', '', '', '', 0.0)||('0 . 86', '', '', '', 0.0)||(')', '', '', '', 0.0)||(',', '', '', '', 0.0)||('a', '', '', '', 0.0)||('finding', 'noun', 'C0037088', ['sosy'], 0.0)||('supported', 'verb', 'C1521721', ['cnce'], 0.0)||('by', '', '', '', 0.0)||('the', '', '', '', 0.0)||('women', 'noun', 'C0043210', ['popg'], 0.0)||("' s", '', '', '', 0.0)||('health', 'noun', 'C0018684', ['idcn'], 0.0)||('initiative', 'noun', 'C0424093', ['menp'], 0.0)||('.', '', '', '', 0.0)||
('women', 'noun', 'C0043210', ['popg'], 0.0)||('symptomatic', 'adj', 'C0231220', ['ftcn'], 0.0)||('from', '', '', '', 0.0)||('menopause', 'noun', 'C0025320', ['phsf'], 0.0)||('had', '', '', '', 0.0)||('improvement', '', '', '', 0.0)||('in', '', '', '', 0.0)||('certain', '', '', '', 0.0)||('aspects', '', '', '', 0.0)||('of', '', '', '', 0.0)||('cognition', 'noun', 'C0009240', ['menp'], 0.0)||('.', '', '', '', 0.0)||
('current', 'adj', 'C0521116', ['tmco'], 0.0)||('studies', '', '', '', 0.0)||('of', '', '', '', 0.0)||('estrogen', 'noun', 'C0014939', ['horm', 'phsu', 'strd'], 0.0)||('and', '', '', '', 0.0)||('dementia', 'noun', 'C0497327', ['dsyn'], 0.0)||('are', '', '', '', 0.0)||('not', 'adv', 'C1518422', ['ftcn'], 0.0)||('definitive', 'adj', 'C0443196', ['tmco'], 0.0)||('.', '', '', '', 0.0)||
('in', '', '', '', 0.0)||('a', '', '', '', 0.0)||('cohort study', 'noun', 'C0009247', ['qnco'], 0.0)||(',', '', '', '', 0.0)||('current', 'adj', 'C0521116', ['tmco'], 0.0)||('hormone replacement therapy', 'noun', 'C0282402', ['topp'], 0.0)||('users', 'noun', 'C1706077', ['humn'], 0.0)||('had', '', '', '', 0.0)||('an', '', '', '', 0.0)||('age - adjusted', '', '', '', 0.0)||('rr', 'noun', 'C0231832', ['clna'], 0.0)||('for', '', '', '', 0.0)||('cholecystitis', 'noun', 'C0008325', ['dsyn'], 0.0)||('of', '', '', '', 0.0)||('1 . 8', '', '', '', 0.0)||('(', '', '', '', 0.0)||('95 %', '', '', '', 0.0)||('confidence interval', 'noun', 'C0009667', ['qnco'], 0.0)||(',', '', '', '', 0.0)||('1 . 6', '', '', '', 0.0)||('-', '', '', '', 0.0)||('2 . 0', '', '', '', 0.0)||(')', '', '', '', 0.0)||(',', '', '', '', 0.0)||('increasing', 'verb', 'C0442808', ['ftcn'], 0.0)||('to', '', '', '', 0.0)||('2 . 5', '', '', '', 0.0)||('(', '', '', '', 0.0)||('95 %', '', '', '', 0.0)||('confidence interval', 'noun', 'C0009667', ['qnco'], 0.0)||(',', '', '', '', 0.0)||('2 . 0', '', '', '', 0.0)||('-', '', '', '', 0.0)||('2 . 9', '', '', '', 0.0)||(')', '', '', '', 0.0)||('after', '', '', '', 0.0)||('5', '', '', '', 0.0)||('years', 'noun', 'C0439234', ['tmco'], 0.0)||('of', '', '', '', 0.0)||('use', 'noun', 'C0042153', ['ftcn'], 0.0)||('.', '', '', '', 0.0)||
('benefits', 'noun', 'C0814225', ['qnco'], 0.0)||('of', '', '', '', 0.0)||('hormone replacement therapy', 'noun', 'C0282402', ['topp'], 0.0)||('include', 'verb', 'C1552866', ['idcn'], 0.0)||('prevention', 'noun', 'C0199176', ['topp'], 0.0)||('of', '', '', '', 0.0)||('osteoporotic', '', '', '', 0.0)||('fractures', 'noun', 'C0016658', ['inpo'], 0.0)||('and', '', '', '', 0.0)||('colorectal cancer', 'noun', 'C0009402', ['neop'], 0.0)||(',', '', '', '', 0.0)||('while', '', '', '', 0.0)||('prevention', 'noun', 'C0199176', ['topp'], 0.0)||('of', '', '', '', 0.0)||('dementia', 'noun', 'C0497327', ['dsyn'], 0.0)||('is', '', '', '', 0.0)||('uncertain', 'adj', 'C0087130', ['idcn'], 0.0)||('.', '', '', '', 0.0)||
('harms', '', '', '', 0.0)||('include', 'verb', 'C1552866', ['idcn'], 0.0)||('coronary heart disease', 'noun', 'C0010068', ['dsyn'], 0.0)||(',', '', '', '', 0.0)||('stroke', 'noun', 'C0038454', ['dsyn'], 0.0)||(',', '', '', '', 0.0)||('thromboembolic', 'adj', 'C0333214', ['ftcn'], 0.0)||('events', 'noun', 'C0441471', ['evnt'], 0.0)||(',', '', '', '', 0.0)||('breast cancer', 'noun', 'C0006142', ['neop'], 0.0)||('with', '', '', '', 0.0)||('5', '', '', '', 0.0)||('or', '', '', '', 0.0)||('more', '', '', '', 0.0)||('years', 'noun', 'C0439234', ['tmco'], 0.0)||('of', '', '', '', 0.0)||('use', 'noun', 'C0042153', ['ftcn'], 0.0)||(',', '', '', '', 0.0)||('and', '', '', '', 0.0)||('cholecystitis', 'noun', 'C0008325', ['dsyn'], 0.0)||('.', '', '', '', 0.0)||
