('to', '', '', '', 0.0)||('briefly', '', '', '', 0.0)||('discuss', '', '', '', 0.0)||('the', '', '', '', 0.0)||('pathophysiology', 'noun', 'C0031847', ['ftcn'], 0.0)||('of', '', '', '', 0.0)||('heart failure', 'noun', 'C0018801', ['dsyn'], 0.0)||('and', '', '', '', 0.0)||('the', '', '', '', 0.0)||('rationale', 'noun', 'C2699007', ['idcn'], 0.0)||('for', '', '', '', 0.0)||('the', '', '', '', 0.0)||('use', 'noun', 'C0042153', ['ftcn'], 0.0)||('of', '', '', '', 0.0)||('beta - blockers', '', '', '', 0.0)||('in', '', '', '', 0.0)||('the', '', '', '', 0.0)||('treatment', 'noun', 'C0039798', ['ftcn'], 0.0)||('of', '', '', '', 0.0)||('chronic', 'adj', 'C0205191', ['tmco'], 0.0)||('heart failure', 'noun', 'C0018801', ['dsyn'], 0.0)||('.', '', '', '', 0.0)||
('key', '', '', '', 0.0)||('morbidity', 'noun', 'C0026538', ['qnco'], 0.0)||('reduction', 'noun', 'C0301630', ['npop'], 0.0)||('trials', '', '', '', 0.0)||('are', '', '', '', 0.0)||('briefly', '', '', '', 0.0)||('mentioned', '', '', '', 0.0)||(',', '', '', '', 0.0)||('and', '', '', '', 0.0)||('recent', 'adj', 'C0332185', ['tmco'], 0.0)||('mortality', 'noun', 'C0026565', ['qnco'], 0.0)||('reduction', 'noun', 'C0301630', ['npop'], 0.0)||('trials', '', '', '', 0.0)||('are', '', '', '', 0.0)||('reviewed', 'verb', 'C1709940', ['qlco'], 0.0)||('.', '', '', '', 0.0)||
('general', 'adj', 'C0205246', ['spco'], 0.0)||('recommendations', 'noun', 'C0034866', ['idcn'], 0.0)||('regarding', '', '', '', 0.0)||('the', '', '', '', 0.0)||('use', 'noun', 'C0042153', ['ftcn'], 0.0)||('of', '', '', '', 0.0)||('beta - blockers', '', '', '', 0.0)||('in', '', '', '', 0.0)||('heart failure', 'noun', 'C0018801', ['dsyn'], 0.0)||('are', '', '', '', 0.0)||('also', '', '', '', 0.0)||('included', '', '', '', 0.0)||('to', '', '', '', 0.0)||('guide', 'verb', 'C0181090', ['prog'], 0.0)||('clinical', 'adj', 'C0205210', ['qlco'], 0.0)||('practice', 'noun', 'C0237607', ['menp'], 0.0)||('.', '', '', '', 0.0)||
('randomized', 'verb', 'C0034656', ['resa'], 0.0)||(',', '', '', '', 0.0)||('placebo - controlled', '', '', '', 0.0)||('clinical trials', 'noun', 'C0008976', ['resa'], 0.0)||('and', '', '', '', 0.0)||('meta - analyses', '', '', '', 0.0)||('evaluating', 'verb', 'C0220825', ['ftcn'], 0.0)||('mortality', 'noun', 'C0026565', ['qnco'], 0.0)||('reduction', 'noun', 'C0301630', ['npop'], 0.0)||('with', '', '', '', 0.0)||('beta - blockers', '', '', '', 0.0)||('in', '', '', '', 0.0)||('the', '', '', '', 0.0)||('treatment', 'noun', 'C0039798', ['ftcn'], 0.0)||('of', '', '', '', 0.0)||('heart failure', 'noun', 'C0018801', ['dsyn'], 0.0)||('were', '', '', '', 0.0)||('identified', 'verb', 'C0205396', ['qlco'], 0.0)||('using', 'verb', 'C1524063', ['ftcn'], 0.0)||('a', '', '', '', 0.0)||('medline', 'noun', 'C0025141', ['inpr'], 0.0)||('search', 'verb', 'C1552603', ['idcn'], 0.0)||('from', '', '', '', 0.0)||('january', '', '', '', 0.0)||('1993', '', '', '', 0.0)||('to', '', '', '', 0.0)||('march', '', '', '', 0.0)||('2000', '', '', '', 0.0)||('.', '', '', '', 0.0)||
('abstracts', 'noun', 'C0600678', ['inpr'], 0.0)||('and', '', '', '', 0.0)||('presented', 'adj', 'C0449450', ['idcn'], 0.0)||('results', 'noun', 'C1274040', ['ftcn'], 0.0)||('from', '', '', '', 0.0)||('recent', 'adj', 'C0332185', ['tmco'], 0.0)||('scientific', 'adj', 'C0036397', ['ocdi'], 0.0)||('meetings', 'noun', 'C0556656', ['hlca'], 0.0)||('were', '', '', '', 0.0)||('also', '', '', '', 0.0)||('considered', '', '', '', 0.0)||('.', '', '', '', 0.0)||
('beta - blockers', '', '', '', 0.0)||('have', '', '', '', 0.0)||('been', '', '', '', 0.0)||('shown', '', '', '', 0.0)||('to', '', '', '', 0.0)||('decrease', 'verb', 'C0392756', ['qlco'], 0.0)||('hospitalization', '', '', '', 0.0)||('for', '', '', '', 0.0)||('worsening', 'adj', 'C0332271', ['qlco'], 0.0)||('heart failure', 'noun', 'C0018801', ['dsyn'], 0.0)||(',', '', '', '', 0.0)||('decrease', 'verb', 'C0392756', ['qlco'], 0.0)||('the', '', '', '', 0.0)||('need', 'noun', 'C0027552', ['qlco'], 0.0)||('for', '', '', '', 0.0)||('heart transplant', 'noun', 'C0018823', ['topp'], 0.0)||(',', '', '', '', 0.0)||('improve', 'verb', 'C0332161', ['qlco'], 0.0)||('new york heart association functional class', '', '', '', 0.0)||(',', '', '', '', 0.0)||('and', '', '', '', 0.0)||('increase', 'noun', 'C0442805', ['ftcn'], 0.0)||('left - ventricular ejection fraction', '', '', '', 0.0)||('.', '', '', '', 0.0)||
('a', '', '', '', 0.0)||('mortality', 'noun', 'C0026565', ['qnco'], 0.0)||('benefit', 'noun', 'C0814225', ['qnco'], 0.0)||('has', '', '', '', 0.0)||('recently', 'adv', 'C0332185', ['tmco'], 0.0)||('been', '', '', '', 0.0)||('demonstrated', '', '', '', 0.0)||('for', '', '', '', 0.0)||('patients', 'noun', 'C0030705', ['podg'], 0.0)||('with', '', '', '', 0.0)||('chronic', 'adj', 'C0205191', ['tmco'], 0.0)||('heart failure', 'noun', 'C0018801', ['dsyn'], 0.0)||('.', '', '', '', 0.0)||
('carvedilol', 'noun', 'C0054836', ['orch', 'phsu'], 0.0)||(',', '', '', '', 0.0)||('bisoprolol', 'noun', 'C0053799', ['orch', 'phsu'], 0.0)||(',', '', '', '', 0.0)||('and', '', '', '', 0.0)||('controlled - release', '', '', '', 0.0)||('/', '', '', '', 0.0)||('extended - release', '', '', '', 0.0)||('metoprolol', 'noun', 'C0025859', ['orch', 'phsu'], 0.0)||('decreased', 'verb', 'C0205216', ['qnco'], 0.0)||('the', '', '', '', 0.0)||('risk', 'noun', 'C0035647', ['qlco'], 0.0)||('of', '', '', '', 0.0)||('dying', 'noun', 'C0184532', ['orgf'], 0.0)||('by', '', '', '', 0.0)||('65 %', '', '', '', 0.0)||(',', '', '', '', 0.0)||('34 %', '', '', '', 0.0)||(',', '', '', '', 0.0)||('and', '', '', '', 0.0)||('34 %', '', '', '', 0.0)||(',', '', '', '', 0.0)||('respectively', '', '', '', 0.0)||(',', '', '', '', 0.0)||('in', '', '', '', 0.0)||('patients', 'noun', 'C0030705', ['podg'], 0.0)||('with', '', '', '', 0.0)||('primarily', '', '', '', 0.0)||('new york heart association functional class', '', '', '', 0.0)||('ii', '', '', '', 0.0)||('or', '', '', '', 0.0)||('iii', 'noun', 'C0439070', ['inpr'], 0.0)||('and', '', '', '', 0.0)||('systolic', 'adj', 'C0039155', ['tmco'], 0.0)||('dysfunction', 'noun', 'C0031847', ['ftcn'], 0.0)||('.', '', '', '', 0.0)||
('the', '', '', '', 0.0)||('benefit', 'noun', 'C0814225', ['qnco'], 0.0)||('of', '', '', '', 0.0)||('these', '', '', '', 0.0)||('agents', '', '', '', 0.0)||('in', '', '', '', 0.0)||('patients', 'noun', 'C0030705', ['podg'], 0.0)||('with', '', '', '', 0.0)||('class', 'noun', 'C0456387', ['inpr'], 0.0)||('iv', '', '', '', 0.0)||('heart failure', 'noun', 'C0018801', ['dsyn'], 0.0)||('or', '', '', '', 0.0)||('determining', 'verb', 'C2004162', ['acty'], 0.0)||('whether', '', '', '', 0.0)||('one', 'noun', 'C0205447', ['qnco'], 0.0)||('agent', 'noun', 'C0450442', ['chvf'], 0.0)||('has', '', '', '', 0.0)||('an', '', '', '', 0.0)||('advantage', '', '', '', 0.0)||('over', '', '', '', 0.0)||('another', '', '', '', 0.0)||('is', '', '', '', 0.0)||('being', '', '', '', 0.0)||('investigated', '', '', '', 0.0)||('in', '', '', '', 0.0)||('ongoing', 'noun', 'C0549178', ['idcn'], 0.0)||('clinical trials', 'noun', 'C0008976', ['resa'], 0.0)||('.', '', '', '', 0.0)||
('several', '', '', '', 0.0)||('beta - blockers', '', '', '', 0.0)||('have', '', '', '', 0.0)||('demonstrated', '', '', '', 0.0)||('mortality', 'noun', 'C0026565', ['qnco'], 0.0)||('reduction', 'noun', 'C0301630', ['npop'], 0.0)||('in', '', '', '', 0.0)||('the', '', '', '', 0.0)||('treatment', 'noun', 'C0039798', ['ftcn'], 0.0)||('of', '', '', '', 0.0)||('patients', 'noun', 'C0030705', ['podg'], 0.0)||('with', '', '', '', 0.0)||('new york heart association functional class', '', '', '', 0.0)||('ii', '', '', '', 0.0)||('or', '', '', '', 0.0)||('iii', 'noun', 'C0439070', ['inpr'], 0.0)||('heart failure', 'noun', 'C0018801', ['dsyn'], 0.0)||('and', '', '', '', 0.0)||('systolic', 'adj', 'C0039155', ['tmco'], 0.0)||('dysfunction', 'noun', 'C0031847', ['ftcn'], 0.0)||('.', '', '', '', 0.0)||
('beta - blockers', '', '', '', 0.0)||('should', '', '', '', 0.0)||('be', '', '', '', 0.0)||('considered', '', '', '', 0.0)||('in', '', '', '', 0.0)||('these', '', '', '', 0.0)||('patients', 'noun', 'C0030705', ['podg'], 0.0)||('when', '', '', '', 0.0)||('they', '', '', '', 0.0)||('are', '', '', '', 0.0)||('clinically', '', '', '', 0.0)||('stable', 'adj', 'C0205360', ['qlco'], 0.0)||('and', '', '', '', 0.0)||('taking', '', '', '', 0.0)||('the', '', '', '', 0.0)||('current', 'adj', 'C0521116', ['tmco'], 0.0)||('standard', 'adj', 'C1442989', ['ftcn'], 0.0)||('therapy', 'noun', 'C0039798', ['ftcn'], 0.0)||('of', '', '', '', 0.0)||('a', '', '', '', 0.0)||('diuretic', 'adj', 'C0012798', ['phsu'], 0.0)||('plus', '', '', '', 0.0)||('an', '', '', '', 0.0)||('angiotensin - converting enzyme inhibitor', '', '', '', 0.0)||('or', '', '', '', 0.0)||('other', '', '', '', 0.0)||('vasodilator agent', '', '', '', 0.0)||('.', '', '', '', 0.0)||
