('beta - blocking', '', '', '', 0.0)||('agents', '', '', '', 0.0)||('reduce', '', '', '', 0.0)||('the', '', '', '', 0.0)||('risk', 'noun', 'C0035647', ['qlco'], 0.0)||('of', '', '', '', 0.0)||('hospitalization', '', '', '', 0.0)||('and', '', '', '', 0.0)||('death', 'noun', 'C0011065', ['orgf'], 0.0)||('in', '', '', '', 0.0)||('patients', 'noun', 'C0030705', ['podg'], 0.0)||('with', '', '', '', 0.0)||('mild - to - moderate', '', '', '', 0.0)||('heart failure', 'noun', 'C0018801', ['dsyn'], 0.0)||(',', '', '', '', 0.0)||('but', '', '', '', 0.0)||('little', 'adj', 'C0700321', ['qnco'], 0.0)||('is', '', '', '', 0.0)||('known', 'verb', 'C0205309', ['qlco'], 0.0)||('about', '', '', '', 0.0)||('their', '', '', '', 0.0)||('effects', '', '', '', 0.0)||('in', '', '', '', 0.0)||('severe', 'adj', 'C0205082', ['qlco'], 0.0)||('heart failure', 'noun', 'C0018801', ['dsyn'], 0.0)||('.', '', '', '', 0.0)||
('we', '', '', '', 0.0)||('evaluated', 'verb', 'C0220825', ['ftcn'], 0.0)||('2289', '', '', '', 0.0)||('patients', 'noun', 'C0030705', ['podg'], 0.0)||('who', '', '', '', 0.0)||('had', '', '', '', 0.0)||('symptoms', 'noun', 'C0683368', ['ftcn'], 0.0)||('of', '', '', '', 0.0)||('heart failure', 'noun', 'C0018801', ['dsyn'], 0.0)||('at', '', '', '', 0.0)||('rest', 'noun', 'C0035253', ['dora'], 0.0)||('or', '', '', '', 0.0)||('on', '', '', '', 0.0)||('minimal', 'adj', 'C0547040', ['qlco'], 0.0)||('exertion', 'noun', 'C0015264', ['orgf'], 0.0)||(',', '', '', '', 0.0)||('who', '', '', '', 0.0)||('were', '', '', '', 0.0)||('clinically', '', '', '', 0.0)||('euvolemic', '', '', '', 0.0)||(',', '', '', '', 0.0)||('and', '', '', '', 0.0)||('who', '', '', '', 0.0)||('had', '', '', '', 0.0)||('an', '', '', '', 0.0)||('ejection fraction', 'noun', 'C0489482', ['diap'], 0.0)||('of', '', '', '', 0.0)||('less', '', '', '', 0.0)||('than', '', '', '', 0.0)||('25', '', '', '', 0.0)||('percent', 'noun', 'C0439165', ['qnco'], 0.0)||('.', '', '', '', 0.0)||
('in', '', '', '', 0.0)||('a', '', '', '', 0.0)||('double - blind', '', '', '', 0.0)||('fashion', '', '', '', 0.0)||(',', '', '', '', 0.0)||('we', '', '', '', 0.0)||('randomly', '', '', '', 0.0)||('assigned', 'verb', 'C1516050', ['ftcn'], 0.0)||('1133', '', '', '', 0.0)||('patients', 'noun', 'C0030705', ['podg'], 0.0)||('to', '', '', '', 0.0)||('placebo', 'noun', 'C0032042', ['topp'], 0.0)||('and', '', '', '', 0.0)||('1156', '', '', '', 0.0)||('patients', 'noun', 'C0030705', ['podg'], 0.0)||('to', '', '', '', 0.0)||('treatment', 'noun', 'C0039798', ['ftcn'], 0.0)||('with', '', '', '', 0.0)||('carvedilol', 'noun', 'C0054836', ['orch', 'phsu'], 0.0)||('for', '', '', '', 0.0)||('a', '', '', '', 0.0)||('mean', 'noun', 'C0444504', ['qnco'], 0.0)||('period', 'noun', 'C1948053', ['tmco'], 0.0)||('of', '', '', '', 0.0)||('10 . 4', '', '', '', 0.0)||('months', 'noun', 'C0439231', ['tmco'], 0.0)||(',', '', '', '', 0.0)||('during', '', '', '', 0.0)||('which', '', '', '', 0.0)||('standard', 'adj', 'C1442989', ['ftcn'], 0.0)||('therapy', 'noun', 'C0039798', ['ftcn'], 0.0)||('for', '', '', '', 0.0)||('heart failure', 'noun', 'C0018801', ['dsyn'], 0.0)||('was', '', '', '', 0.0)||('continued', 'verb', 'C0549178', ['idcn'], 0.0)||('.', '', '', '', 0.0)||
('patients', 'noun', 'C0030705', ['podg'], 0.0)||('who', '', '', '', 0.0)||('required', 'verb', 'C1514873', ['ftcn'], 0.0)||('intensive care', 'adj', 'C0085559', ['hlca'], 0.0)||(',', '', '', '', 0.0)||('had', '', '', '', 0.0)||('marked', 'adj', 'C0522501', ['qlco'], 0.0)||('fluid', 'noun', 'C0005889', ['bdsu'], 0.0)||('retention', 'noun', 'C0035280', ['menp'], 0.0)||(',', '', '', '', 0.0)||('or', '', '', '', 0.0)||('were', '', '', '', 0.0)||('receiving', '', '', '', 0.0)||('intravenous', 'adj', 'C0205520', ['ftcn'], 0.0)||('vasodilators', 'noun', 'C0042402', ['phsu'], 0.0)||('or', '', '', '', 0.0)||('positive', 'adj', 'C1446409', ['qlco'], 0.0)||('inotropic', '', '', '', 0.0)||('drugs', 'noun', 'C0013227', ['phsu'], 0.0)||('were', '', '', '', 0.0)||('excluded', 'verb', 'C1554077', ['idcn'], 0.0)||('.', '', '', '', 0.0)||
('there', '', '', '', 0.0)||('were', '', '', '', 0.0)||('190', '', '', '', 0.0)||('deaths', 'noun', 'C1306577', ['fndg'], 0.0)||('in', '', '', '', 0.0)||('the', '', '', '', 0.0)||('placebo', 'noun', 'C0032042', ['topp'], 0.0)||('group', 'noun', 'C0441833', ['idcn'], 0.0)||('and', '', '', '', 0.0)||('130', '', '', '', 0.0)||('deaths', 'noun', 'C1306577', ['fndg'], 0.0)||('in', '', '', '', 0.0)||('the', '', '', '', 0.0)||('carvedilol', 'noun', 'C0054836', ['orch', 'phsu'], 0.0)||('group', 'noun', 'C0441833', ['idcn'], 0.0)||('.', '', '', '', 0.0)||
('this', '', '', '', 0.0)||('difference', 'noun', 'C1705242', ['qlco'], 0.0)||('reflected', '', '', '', 0.0)||('a', '', '', '', 0.0)||('35', '', '', '', 0.0)||('percent', 'noun', 'C0439165', ['qnco'], 0.0)||('decrease', 'noun', 'C0392756', ['qlco'], 0.0)||('in', '', '', '', 0.0)||('the', '', '', '', 0.0)||('risk', 'noun', 'C0035647', ['qlco'], 0.0)||('of', '', '', '', 0.0)||('death', 'noun', 'C0011065', ['orgf'], 0.0)||('with', '', '', '', 0.0)||('carvedilol', 'noun', 'C0054836', ['orch', 'phsu'], 0.0)||('(', '', '', '', 0.0)||('95', '', '', '', 0.0)||('percent', 'noun', 'C0439165', ['qnco'], 0.0)||('confidence interval', 'noun', 'C0009667', ['qnco'], 0.0)||(',', '', '', '', 0.0)||('19', '', '', '', 0.0)||('to', '', '', '', 0.0)||('48', '', '', '', 0.0)||('percent', 'noun', 'C0439165', ['qnco'], 0.0)||(';', '', '', '', 0.0)||('p', '', '', '', 0.0)||('=', '', '', '', 0.0)||('0 . 00013', '', '', '', 0.0)||(',', '', '', '', 0.0)||('unadjusted', 'verb', 'C1439367', ['ftcn'], 0.0)||(';', '', '', '', 0.0)||('p', '', '', '', 0.0)||('=', '', '', '', 0.0)||('0 . 0014', '', '', '', 0.0)||(',', '', '', '', 0.0)||('adjusted', 'verb', 'C0456081', ['ftcn'], 0.0)||('for', '', '', '', 0.0)||('interim', '', '', '', 0.0)||('analyses', '', '', '', 0.0)||(')', '', '', '', 0.0)||('.', '', '', '', 0.0)||
('a', '', '', '', 0.0)||('total', 'noun', 'C0439810', ['qlco'], 0.0)||('of', '', '', '', 0.0)||('507', '', '', '', 0.0)||('patients', 'noun', 'C0030705', ['podg'], 0.0)||('died', 'verb', 'C1306577', ['fndg'], 0.0)||('or', '', '', '', 0.0)||('were', '', '', '', 0.0)||('hospitalized', 'verb', 'C0701159', ['fndg'], 0.0)||('in', '', '', '', 0.0)||('the', '', '', '', 0.0)||('placebo', 'noun', 'C0032042', ['topp'], 0.0)||('group', 'noun', 'C0441833', ['idcn'], 0.0)||(',', '', '', '', 0.0)||('as', '', '', '', 0.0)||('compared', 'verb', 'C1707455', ['acty'], 0.0)||('with', '', '', '', 0.0)||('425', '', '', '', 0.0)||('in', '', '', '', 0.0)||('the', '', '', '', 0.0)||('carvedilol', 'noun', 'C0054836', ['orch', 'phsu'], 0.0)||('group', 'noun', 'C0441833', ['idcn'], 0.0)||('.', '', '', '', 0.0)||
('this', '', '', '', 0.0)||('difference', 'noun', 'C1705242', ['qlco'], 0.0)||('reflected', '', '', '', 0.0)||('a', '', '', '', 0.0)||('24', '', '', '', 0.0)||('percent', 'noun', 'C0439165', ['qnco'], 0.0)||('decrease', 'noun', 'C0392756', ['qlco'], 0.0)||('in', '', '', '', 0.0)||('the', '', '', '', 0.0)||('combined', 'adj', 'C0205195', ['qlco'], 0.0)||('risk', 'noun', 'C0035647', ['qlco'], 0.0)||('of', '', '', '', 0.0)||('death', 'noun', 'C0011065', ['orgf'], 0.0)||('or', '', '', '', 0.0)||('hospitalization', '', '', '', 0.0)||('with', '', '', '', 0.0)||('carvedilol', 'noun', 'C0054836', ['orch', 'phsu'], 0.0)||('(', '', '', '', 0.0)||('95', '', '', '', 0.0)||('percent', 'noun', 'C0439165', ['qnco'], 0.0)||('confidence interval', 'noun', 'C0009667', ['qnco'], 0.0)||(',', '', '', '', 0.0)||('13', '', '', '', 0.0)||('to', '', '', '', 0.0)||('33', '', '', '', 0.0)||('percent', 'noun', 'C0439165', ['qnco'], 0.0)||(';', '', '', '', 0.0)||('p', '', '', '', 0.0)||('<', '', '', '', 0.0)||('0 . 001', '', '', '', 0.0)||(')', '', '', '', 0.0)||('.', '', '', '', 0.0)||
('the', '', '', '', 0.0)||('favorable', '', '', '', 0.0)||('effects', '', '', '', 0.0)||('on', '', '', '', 0.0)||('both', '', '', '', 0.0)||('end points', '', '', '', 0.0)||('were', '', '', '', 0.0)||('seen', 'verb', 'C0205397', ['qlco'], 0.0)||('consistently', '', '', '', 0.0)||('in', '', '', '', 0.0)||('all', '', '', '', 0.0)||('the', '', '', '', 0.0)||('subgroups', '', '', '', 0.0)||('we', '', '', '', 0.0)||('examined', 'verb', 'C0332128', ['fndg'], 0.0)||(',', '', '', '', 0.0)||('including', '', '', '', 0.0)||('patients', 'noun', 'C0030705', ['podg'], 0.0)||('with', '', '', '', 0.0)||('a', '', '', '', 0.0)||('history', 'noun', 'C0019664', ['ocdi'], 0.0)||('of', '', '', '', 0.0)||('recent', 'adj', 'C0332185', ['tmco'], 0.0)||('or', '', '', '', 0.0)||('recurrent', 'adj', 'C0034897', ['phpr'], 0.0)||('cardiac', 'adj', 'C0018787', ['bpoc'], 0.0)||('decompensation', 'noun', 'C0231187', ['fndg'], 0.0)||('.', '', '', '', 0.0)||
('fewer', '', '', '', 0.0)||('patients', 'noun', 'C0030705', ['podg'], 0.0)||('in', '', '', '', 0.0)||('the', '', '', '', 0.0)||('carvedilol', 'noun', 'C0054836', ['orch', 'phsu'], 0.0)||('group', 'noun', 'C0441833', ['idcn'], 0.0)||('than', '', '', '', 0.0)||('in', '', '', '', 0.0)||('the', '', '', '', 0.0)||('placebo', 'noun', 'C0032042', ['topp'], 0.0)||('group', 'noun', 'C0441833', ['idcn'], 0.0)||('withdrew', '', '', '', 0.0)||('because of', '', '', '', 0.0)||('adverse effects', 'noun', 'C0001688', ['ftcn'], 0.0)||('or', '', '', '', 0.0)||('for', '', '', '', 0.0)||('other', '', '', '', 0.0)||('reasons', '', '', '', 0.0)||('(', '', '', '', 0.0)||('p', '', '', '', 0.0)||('=', '', '', '', 0.0)||('0 . 02', '', '', '', 0.0)||(')', '', '', '', 0.0)||('.', '', '', '', 0.0)||
('the', '', '', '', 0.0)||('previously', '', '', '', 0.0)||('reported', 'adj', 'C0684224', ['inpr'], 0.0)||('benefits', 'noun', 'C0814225', ['qnco'], 0.0)||('of', '', '', '', 0.0)||('carvedilol', 'noun', 'C0054836', ['orch', 'phsu'], 0.0)||('with', '', '', '', 0.0)||('regard', '', '', '', 0.0)||('to', '', '', '', 0.0)||('morbidity', 'noun', 'C0026538', ['qnco'], 0.0)||('and', '', '', '', 0.0)||('mortality', 'noun', 'C0026565', ['qnco'], 0.0)||('in', '', '', '', 0.0)||('patients', 'noun', 'C0030705', ['podg'], 0.0)||('with', '', '', '', 0.0)||('mild - to - moderate', '', '', '', 0.0)||('heart failure', 'noun', 'C0018801', ['dsyn'], 0.0)||('were', '', '', '', 0.0)||('also', '', '', '', 0.0)||('apparent', 'adj', 'C0750489', ['idcn'], 0.0)||('in', '', '', '', 0.0)||('the', '', '', '', 0.0)||('patients', 'noun', 'C0030705', ['podg'], 0.0)||('with', '', '', '', 0.0)||('severe', 'adj', 'C0205082', ['qlco'], 0.0)||('heart failure', 'noun', 'C0018801', ['dsyn'], 0.0)||('who', '', '', '', 0.0)||('were', '', '', '', 0.0)||('evaluated', 'verb', 'C0220825', ['ftcn'], 0.0)||('in', '', '', '', 0.0)||('this', '', '', '', 0.0)||('trial', 'noun', 'C0008976', ['resa'], 0.0)||('.', '', '', '', 0.0)||
