('although', '', '', '', 0.0)||('beta - adrenergic - receptor', '', '', '', 0.0)||('antagonists', 'noun', 'C0243076', ['chvf'], 0.0)||('reduce', '', '', '', 0.0)||('morbidity', 'noun', 'C0026538', ['qnco'], 0.0)||('and', '', '', '', 0.0)||('mortality', 'noun', 'C0026565', ['qnco'], 0.0)||('in', '', '', '', 0.0)||('patients', 'noun', 'C0030705', ['podg'], 0.0)||('with', '', '', '', 0.0)||('mild - to - moderate', '', '', '', 0.0)||('chronic', 'adj', 'C0205191', ['tmco'], 0.0)||('heart failure', 'noun', 'C0018801', ['dsyn'], 0.0)||(',', '', '', '', 0.0)||('their', '', '', '', 0.0)||('effect', 'noun', 'C1280500', ['qlco'], 0.0)||('on', '', '', '', 0.0)||('survival', 'noun', 'C0038952', ['acty'], 0.0)||('in', '', '', '', 0.0)||('patients', 'noun', 'C0030705', ['podg'], 0.0)||('with', '', '', '', 0.0)||('more', '', '', '', 0.0)||('advanced', 'adj', 'C0205179', ['qlco'], 0.0)||('heart failure', 'noun', 'C0018801', ['dsyn'], 0.0)||('is', '', '', '', 0.0)||('unknown', 'verb', 'C0439673', ['idcn'], 0.0)||('.', '', '', '', 0.0)||
('a', '', '', '', 0.0)||('total', 'noun', 'C0439810', ['qlco'], 0.0)||('of', '', '', '', 0.0)||('2708', '', '', '', 0.0)||('patients', 'noun', 'C0030705', ['podg'], 0.0)||('with', '', '', '', 0.0)||('heart failure', 'noun', 'C0018801', ['dsyn'], 0.0)||('designated', 'verb', 'C1524084', ['ftcn'], 0.0)||('as', '', '', '', 0.0)||('new york heart association functional class', '', '', '', 0.0)||('iii', 'noun', 'C0439070', ['inpr'], 0.0)||('(', '', '', '', 0.0)||('in', '', '', '', 0.0)||('92', '', '', '', 0.0)||('percent', 'noun', 'C0439165', ['qnco'], 0.0)||('of', '', '', '', 0.0)||('the', '', '', '', 0.0)||('patients', 'noun', 'C0030705', ['podg'], 0.0)||(')', '', '', '', 0.0)||('or', '', '', '', 0.0)||('iv', '', '', '', 0.0)||('(', '', '', '', 0.0)||('in', '', '', '', 0.0)||('8', '', '', '', 0.0)||('percent', 'noun', 'C0439165', ['qnco'], 0.0)||(')', '', '', '', 0.0)||('and', '', '', '', 0.0)||('a', '', '', '', 0.0)||('left ventricular ejection fraction', 'noun', 'C0428772', ['lbtr'], 0.0)||('of', '', '', '', 0.0)||('35', '', '', '', 0.0)||('percent', 'noun', 'C0439165', ['qnco'], 0.0)||('or', '', '', '', 0.0)||('lower', 'adj', 'C0441994', ['ftcn'], 0.0)||('were', '', '', '', 0.0)||('randomly', '', '', '', 0.0)||('assigned', 'verb', 'C1516050', ['ftcn'], 0.0)||('to', '', '', '', 0.0)||('double - blind', '', '', '', 0.0)||('treatment', 'noun', 'C0039798', ['ftcn'], 0.0)||('with', '', '', '', 0.0)||('either', '', '', '', 0.0)||('bucindolol', 'noun', 'C0054196', ['orch', 'phsu'], 0.0)||('(', '', '', '', 0.0)||('1354', '', '', '', 0.0)||('patients', 'noun', 'C0030705', ['podg'], 0.0)||(')', '', '', '', 0.0)||('or', '', '', '', 0.0)||('placebo', 'noun', 'C0032042', ['topp'], 0.0)||('(', '', '', '', 0.0)||('1354', '', '', '', 0.0)||('patients', 'noun', 'C0030705', ['podg'], 0.0)||(')', '', '', '', 0.0)||('and', '', '', '', 0.0)||('followed', '', '', '', 0.0)||('for', '', '', '', 0.0)||('the', '', '', '', 0.0)||('primary', 'adj', 'C0205225', ['qlco'], 0.0)||('end point', 'noun', 'C2349179', ['qlco'], 0.0)||('of', '', '', '', 0.0)||('death', 'noun', 'C0011065', ['orgf'], 0.0)||('from', '', '', '', 0.0)||('any', '', '', '', 0.0)||('cause', 'noun', 'C1524003', ['cnce'], 0.0)||('.', '', '', '', 0.0)||
('the', '', '', '', 0.0)||('data', 'noun', 'C1511726', ['idcn'], 0.0)||('and', '', '', '', 0.0)||('safety', 'noun', 'C0036043', ['hcpp'], 0.0)||('monitoring', 'adj', 'C0150369', ['hlca'], 0.0)||('board', 'noun', 'C1948070', ['orgt'], 0.0)||('recommended', 'verb', 'C0034866', ['idcn'], 0.0)||('stopping', '', '', '', 0.0)||('the', '', '', '', 0.0)||('trial', 'noun', 'C0008976', ['resa'], 0.0)||('after', '', '', '', 0.0)||('the', '', '', '', 0.0)||('seventh', 'adj', 'C0205441', ['qnco'], 0.0)||('interim', '', '', '', 0.0)||('analysis', 'noun', 'C0002778', ['lbpr'], 0.0)||('.', '', '', '', 0.0)||
('at', '', '', '', 0.0)||('that', '', '', '', 0.0)||('time', 'noun', 'C0040223', ['tmco'], 0.0)||(',', '', '', '', 0.0)||('there', '', '', '', 0.0)||('was', '', '', '', 0.0)||('no', '', '', '', 0.0)||('significant', 'adj', 'C0750502', ['idcn'], 0.0)||('difference', 'noun', 'C1705242', ['qlco'], 0.0)||('in', '', '', '', 0.0)||('mortality', 'noun', 'C0026565', ['qnco'], 0.0)||('between', '', '', '', 0.0)||('the', '', '', '', 0.0)||('two', 'adj', 'C0205448', ['qnco'], 0.0)||('groups', 'noun', 'C0441833', ['idcn'], 0.0)||('(', '', '', '', 0.0)||('unadjusted', 'noun', 'C1439367', ['ftcn'], 0.0)||('p', '', '', '', 0.0)||('=', '', '', '', 0.0)||('0 . 16', '', '', '', 0.0)||(')', '', '', '', 0.0)||('.', '', '', '', 0.0)||
('the', '', '', '', 0.0)||('results', 'noun', 'C1274040', ['ftcn'], 0.0)||('presented', 'verb', 'C0449450', ['idcn'], 0.0)||('here', '', '', '', 0.0)||('are', '', '', '', 0.0)||('based', 'verb', 'C1527178', ['ftcn'], 0.0)||('on', '', '', '', 0.0)||('complete', 'adj', 'C0205197', ['qlco'], 0.0)||('follow - up', '', '', '', 0.0)||('at', '', '', '', 0.0)||('the', '', '', '', 0.0)||('time', 'noun', 'C0040223', ['tmco'], 0.0)||('of', '', '', '', 0.0)||('study', 'noun', 'C0008976', ['resa'], 0.0)||('termination', 'noun', 'C1549081', ['inpr'], 0.0)||('(', '', '', '', 0.0)||('average', 'noun', 'C1510992', ['qnco'], 0.0)||(',', '', '', '', 0.0)||('2 . 0', '', '', '', 0.0)||('years', 'noun', 'C0439234', ['tmco'], 0.0)||(')', '', '', '', 0.0)||('.', '', '', '', 0.0)||
('there', '', '', '', 0.0)||('were', '', '', '', 0.0)||('a', '', '', '', 0.0)||('total', 'noun', 'C0439810', ['qlco'], 0.0)||('of', '', '', '', 0.0)||('449', '', '', '', 0.0)||('deaths', 'noun', 'C1306577', ['fndg'], 0.0)||('in', '', '', '', 0.0)||('the', '', '', '', 0.0)||('placebo', 'noun', 'C0032042', ['topp'], 0.0)||('group', 'noun', 'C0441833', ['idcn'], 0.0)||('(', '', '', '', 0.0)||('33', '', '', '', 0.0)||('percent', 'noun', 'C0439165', ['qnco'], 0.0)||(')', '', '', '', 0.0)||('and', '', '', '', 0.0)||('411', '', '', '', 0.0)||('deaths', 'noun', 'C1306577', ['fndg'], 0.0)||('in', '', '', '', 0.0)||('the', '', '', '', 0.0)||('bucindolol', 'noun', 'C0054196', ['orch', 'phsu'], 0.0)||('group', 'noun', 'C0441833', ['idcn'], 0.0)||('(', '', '', '', 0.0)||('30', '', '', '', 0.0)||('percent', 'noun', 'C0439165', ['qnco'], 0.0)||(';', '', '', '', 0.0)||('adjusted', 'adj', 'C0456081', ['ftcn'], 0.0)||('p', '', '', '', 0.0)||('=', '', '', '', 0.0)||('0 . 13', '', '', '', 0.0)||(')', '', '', '', 0.0)||('.', '', '', '', 0.0)||
('the', '', '', '', 0.0)||('risk', 'noun', 'C0035647', ['qlco'], 0.0)||('of', '', '', '', 0.0)||('the', '', '', '', 0.0)||('secondary', 'adj', 'C0175668', ['tmco'], 0.0)||('end point', 'noun', 'C2349179', ['qlco'], 0.0)||('of', '', '', '', 0.0)||('death', 'noun', 'C0011065', ['orgf'], 0.0)||('from', '', '', '', 0.0)||('cardiovascular', 'adj', 'C0007226', ['bdsy'], 0.0)||('causes', 'noun', 'C0015127', ['ftcn'], 0.0)||('was', '', '', '', 0.0)||('lower', 'adj', 'C0441994', ['ftcn'], 0.0)||('in', '', '', '', 0.0)||('the', '', '', '', 0.0)||('bucindolol', 'noun', 'C0054196', ['orch', 'phsu'], 0.0)||('group', 'noun', 'C0441833', ['idcn'], 0.0)||('(', '', '', '', 0.0)||('hazard ratio', '', '', '', 0.0)||(',', '', '', '', 0.0)||('0 . 86', '', '', '', 0.0)||(';', '', '', '', 0.0)||('95', '', '', '', 0.0)||('percent', 'noun', 'C0439165', ['qnco'], 0.0)||('confidence interval', 'noun', 'C0009667', ['qnco'], 0.0)||(',', '', '', '', 0.0)||('0 . 74', '', '', '', 0.0)||('to', '', '', '', 0.0)||('0 . 99', '', '', '', 0.0)||(')', '', '', '', 0.0)||(',', '', '', '', 0.0)||('as', '', '', '', 0.0)||('was', '', '', '', 0.0)||('the', '', '', '', 0.0)||('risk', 'noun', 'C0035647', ['qlco'], 0.0)||('of', '', '', '', 0.0)||('heart transplantation', 'noun', 'C0018823', ['topp'], 0.0)||('or', '', '', '', 0.0)||('death', 'noun', 'C0011065', ['orgf'], 0.0)||('(', '', '', '', 0.0)||('hazard ratio', '', '', '', 0.0)||(',', '', '', '', 0.0)||('0 . 87', '', '', '', 0.0)||(';', '', '', '', 0.0)||('95', '', '', '', 0.0)||('percent', 'noun', 'C0439165', ['qnco'], 0.0)||('confidence interval', 'noun', 'C0009667', ['qnco'], 0.0)||(',', '', '', '', 0.0)||('0 . 77', '', '', '', 0.0)||('to', '', '', '', 0.0)||('0 . 99', '', '', '', 0.0)||(')', '', '', '', 0.0)||('.', '', '', '', 0.0)||
('in', '', '', '', 0.0)||('a', '', '', '', 0.0)||('demographically', '', '', '', 0.0)||('diverse', 'adj', 'C1880371', ['qlco'], 0.0)||('group', 'noun', 'C0441833', ['idcn'], 0.0)||('of', '', '', '', 0.0)||('patients', 'noun', 'C0030705', ['podg'], 0.0)||('with', '', '', '', 0.0)||('new york heart association', '', '', '', 0.0)||('class', 'noun', 'C0456387', ['inpr'], 0.0)||('iii', 'noun', 'C0439070', ['inpr'], 0.0)||('and', '', '', '', 0.0)||('iv', '', '', '', 0.0)||('heart failure', 'noun', 'C0018801', ['dsyn'], 0.0)||(',', '', '', '', 0.0)||('bucindolol', 'noun', 'C0054196', ['orch', 'phsu'], 0.0)||('resulted', '', '', '', 0.0)||('in', '', '', '', 0.0)||('no', '', '', '', 0.0)||('significant', 'adj', 'C0750502', ['idcn'], 0.0)||('overall', 'adj', 'C0282416', ['inpr'], 0.0)||('survival', 'noun', 'C0038952', ['acty'], 0.0)||('benefit', 'noun', 'C0814225', ['qnco'], 0.0)||('.', '', '', '', 0.0)||
