('in', '', '', '', 0.0)||('large', 'adj', 'C0549177', ['qnco'], 0.0)||('clinical trials', 'noun', 'C0008976', ['resa'], 0.0)||('both', '', '', '', 0.0)||('carvedilol', 'noun', 'C0054836', ['orch', 'phsu'], 0.0)||('and', '', '', '', 0.0)||('metoprolol', 'noun', 'C0025859', ['orch', 'phsu'], 0.0)||('have', '', '', '', 0.0)||('been', '', '', '', 0.0)||('shown', '', '', '', 0.0)||('to', '', '', '', 0.0)||('reduce', '', '', '', 0.0)||('mortality', 'noun', 'C0026565', ['qnco'], 0.0)||('and', '', '', '', 0.0)||('morbidity', 'noun', 'C0026538', ['qnco'], 0.0)||('in', '', '', '', 0.0)||('patients', 'noun', 'C0030705', ['podg'], 0.0)||('with', '', '', '', 0.0)||('chronic', 'adj', 'C0205191', ['tmco'], 0.0)||('heart failure', 'noun', 'C0018801', ['dsyn'], 0.0)||('.', '', '', '', 0.0)||
('carvedilol', 'noun', 'C0054836', ['orch', 'phsu'], 0.0)||('is', '', '', '', 0.0)||('an', '', '', '', 0.0)||('adrenoceptor', '', '', '', 0.0)||('antagonist', 'noun', 'C0231491', ['ortf'], 0.0)||(',', '', '', '', 0.0)||('which', '', '', '', 0.0)||('inhibits', '', '', '', 0.0)||('beta', 'noun', 'C0330390', ['plnt'], 0.0)||('(', '', '', '', 0.0)||('1', '', '', '', 0.0)||(')', '', '', '', 0.0)||('-', '', '', '', 0.0)||(',', '', '', '', 0.0)||('beta', 'noun', 'C0330390', ['plnt'], 0.0)||('(', '', '', '', 0.0)||('2', '', '', '', 0.0)||(')', '', '', '', 0.0)||('-', '', '', '', 0.0)||(',', '', '', '', 0.0)||('and', '', '', '', 0.0)||('alpha ( 1 ) - adrenergic receptors', '', '', '', 0.0)||('.', '', '', '', 0.0)||
('carvedilol', 'noun', 'C0054836', ['orch', 'phsu'], 0.0)||('has', '', '', '', 0.0)||('additional', 'adj', 'C1524062', ['ftcn'], 0.0)||('metabolic', 'adj', 'C0311400', ['ftcn'], 0.0)||('and', '', '', '', 0.0)||('antioxidant', 'noun', 'C0003402', ['phsu'], 0.0)||('properties', '', '', '', 0.0)||('.', '', '', '', 0.0)||
('metoprolol', 'noun', 'C0025859', ['orch', 'phsu'], 0.0)||('is', '', '', '', 0.0)||('a', '', '', '', 0.0)||('selective', '', '', '', 0.0)||('antagonist', 'noun', 'C0231491', ['ortf'], 0.0)||('of', '', '', '', 0.0)||('beta', 'noun', 'C0330390', ['plnt'], 0.0)||('(', '', '', '', 0.0)||('1', '', '', '', 0.0)||(')', '', '', '', 0.0)||('-', '', '', '', 0.0)||('adrenergic receptors', 'noun', 'C0034783', ['aapp', 'rcpt'], 0.0)||('.', '', '', '', 0.0)||
('the', '', '', '', 0.0)||('carvedilol', 'noun', 'C0054836', ['orch', 'phsu'], 0.0)||('or', '', '', '', 0.0)||('metoprolol', 'noun', 'C0025859', ['orch', 'phsu'], 0.0)||('european', 'noun', 'C0239307', ['popg'], 0.0)||('trial', 'noun', 'C0008976', ['resa'], 0.0)||('is', '', '', '', 0.0)||('the', '', '', '', 0.0)||('first', '', '', '', 0.0)||('study', 'verb', 'C0008976', ['resa'], 0.0)||('to', '', '', '', 0.0)||('investigate', '', '', '', 0.0)||('whether', '', '', '', 0.0)||('beta - blocking', '', '', '', 0.0)||('agents', '', '', '', 0.0)||('with', '', '', '', 0.0)||('differing', '', '', '', 0.0)||('pharmacological', 'adj', 'C0031330', ['bmod'], 0.0)||('profiles', '', '', '', 0.0)||('exert', '', '', '', 0.0)||('different', 'adj', 'C1705242', ['qlco'], 0.0)||('effects', '', '', '', 0.0)||('on', '', '', '', 0.0)||('morbidity', 'noun', 'C0026538', ['qnco'], 0.0)||('and', '', '', '', 0.0)||('mortality', 'noun', 'C0026565', ['qnco'], 0.0)||('in', '', '', '', 0.0)||('patients', 'noun', 'C0030705', ['podg'], 0.0)||('with', '', '', '', 0.0)||('chronic', 'adj', 'C0205191', ['tmco'], 0.0)||('heart failure', 'noun', 'C0018801', ['dsyn'], 0.0)||('.', '', '', '', 0.0)||
('3029', '', '', '', 0.0)||('patients', 'noun', 'C0030705', ['podg'], 0.0)||('from', '', '', '', 0.0)||('15', '', '', '', 0.0)||('different', 'adj', 'C1705242', ['qlco'], 0.0)||('european', 'adj', 'C0239307', ['popg'], 0.0)||('countries', 'noun', 'C0454664', ['geoa'], 0.0)||('were', '', '', '', 0.0)||('enrolled', '', '', '', 0.0)||('into', '', '', '', 0.0)||('carvedilol', 'noun', 'C0054836', ['orch', 'phsu'], 0.0)||('or', '', '', '', 0.0)||('metoprolol', 'noun', 'C0025859', ['orch', 'phsu'], 0.0)||('european', 'noun', 'C0239307', ['popg'], 0.0)||('trial', 'noun', 'C0008976', ['resa'], 0.0)||('and', '', '', '', 0.0)||('will', '', '', '', 0.0)||('be', '', '', '', 0.0)||('followed', '', '', '', 0.0)||('until', '', '', '', 0.0)||('1020', '', '', '', 0.0)||('fatal', 'adj', 'C1302234', ['qlco'], 0.0)||('events', 'noun', 'C0441471', ['evnt'], 0.0)||('have', '', '', '', 0.0)||('been', '', '', '', 0.0)||('observed', 'verb', 'C1441672', ['ftcn'], 0.0)||(',', '', '', '', 0.0)||('unless', '', '', '', 0.0)||('the', '', '', '', 0.0)||('data and safety monitoring committee', '', '', '', 0.0)||('recommends', '', '', '', 0.0)||('early', 'adj', 'C1279919', ['tmco'], 0.0)||('termination', 'noun', 'C1549081', ['inpr'], 0.0)||('.', '', '', '', 0.0)||
('the', '', '', '', 0.0)||('target', 'noun', 'C1521840', ['ftcn'], 0.0)||('dose', 'noun', 'C0178602', ['qnco'], 0.0)||('for', '', '', '', 0.0)||('carvedilol', 'noun', 'C0054836', ['orch', 'phsu'], 0.0)||('is', '', '', '', 0.0)||('25', '', '', '', 0.0)||('mg', '', '', '', 0.0)||('bid', '', '', '', 0.0)||('and', '', '', '', 0.0)||('for', '', '', '', 0.0)||('metoprolol', 'noun', 'C0025859', ['orch', 'phsu'], 0.0)||('tartrate', 'noun', 'C0039328', ['carb'], 0.0)||('50', '', '', '', 0.0)||('mg', '', '', '', 0.0)||('bid', '', '', '', 0.0)||('.', '', '', '', 0.0)||
('this', '', '', '', 0.0)||('manuscript', 'noun', 'C0600659', ['inpr', 'mnob'], 0.0)||('outlines', 'verb', 'C0600661', ['inpr'], 0.0)||('the', '', '', '', 0.0)||('rationale', 'noun', 'C2699007', ['idcn'], 0.0)||(',', '', '', '', 0.0)||('design', 'noun', 'C1707689', ['acty'], 0.0)||('and', '', '', '', 0.0)||('possible', 'adj', 'C0332149', ['qlco'], 0.0)||('outcomes', 'noun', 'C0085415', ['qlco'], 0.0)||('of', '', '', '', 0.0)||('carvedilol', 'noun', 'C0054836', ['orch', 'phsu'], 0.0)||('or', '', '', '', 0.0)||('metoprolol', 'noun', 'C0025859', ['orch', 'phsu'], 0.0)||('european', 'noun', 'C0239307', ['popg'], 0.0)||('trial', 'noun', 'C0008976', ['resa'], 0.0)||('.', '', '', '', 0.0)||
