('the', '', '', '', 0.0)||('aim', 'noun', 'C1947946', ['idcn'], 0.0)||('of', '', '', '', 0.0)||('this', '', '', '', 0.0)||('study', 'noun', 'C0008976', ['resa'], 0.0)||('was', '', '', '', 0.0)||('to', '', '', '', 0.0)||('compare', 'verb', 'C1707455', ['acty'], 0.0)||('the', '', '', '', 0.0)||('response', 'noun', 'C0871261', ['clna'], 0.0)||('of', '', '', '', 0.0)||('symptoms', 'noun', 'C0683368', ['ftcn'], 0.0)||('and', '', '', '', 0.0)||('cytokine', 'noun', 'C0079189', ['aapp', 'imft'], 0.0)||('ratios', 'noun', 'C0456603', ['qnco'], 0.0)||('in', '', '', '', 0.0)||('irritable bowel syndrome', 'noun', 'C0022104', ['dsyn'], 0.0)||('with', '', '', '', 0.0)||('ingestion', 'noun', 'C0232478', ['biof'], 0.0)||('of', '', '', '', 0.0)||('probiotic', 'adj', 'C0525033', ['bact'], 0.0)||('preparations', '', '', '', 0.0)||('containing', 'verb', 'C0332256', ['ftcn'], 0.0)||('a', '', '', '', 0.0)||('lactobacillus', 'noun', 'C0022938', ['bact'], 0.0)||('or', '', '', '', 0.0)||('bifidobacterium', 'noun', 'C0005380', ['bact'], 0.0)||('strain', 'noun', 'C0080194', ['inpo'], 0.0)||('.', '', '', '', 0.0)||
('seventy', '', '', '', 0.0)||('-', '', '', '', 0.0)||('seven', '', 'C0205453', ['qnco'], 0.0)||('subjects', '', '', '', 0.0)||('with', '', '', '', 0.0)||('irritable bowel syndrome', 'noun', 'C0022104', ['dsyn'], 0.0)||('were', '', '', '', 0.0)||('randomized', 'verb', 'C0034656', ['resa'], 0.0)||('to', '', '', '', 0.0)||('receive', 'verb', 'C1514756', ['qlco'], 0.0)||('either', '', '', '', 0.0)||('lactobacillus salivarius', 'noun', 'C0317593', ['bact'], 0.0)||('ucc4331', '', '', '', 0.0)||('or', '', '', '', 0.0)||('bifidobacterium infantis', 'noun', 'C0314976', ['bact'], 0.0)||('35624', '', '', '', 0.0)||(',', '', '', '', 0.0)||('each', '', '', '', 0.0)||('in', '', '', '', 0.0)||('a', '', '', '', 0.0)||('dose', 'noun', 'C0178602', ['qnco'], 0.0)||('of', '', '', '', 0.0)||('1', '', '', '', 0.0)||('x', '', '', '', 0.0)||('10', '', '', '', 0.0)||('10', '', '', '', 0.0)||('live', 'adj', 'C1548795', ['qlco'], 0.0)||('bacterial', 'adj', 'C0521009', ['qlco'], 0.0)||('cells', 'noun', 'C0007634', ['cell'], 0.0)||('in', '', '', '', 0.0)||('a', '', '', '', 0.0)||('malted', '', '', '', 0.0)||('milk', 'noun', 'C0026131', ['bdsu'], 0.0)||('drink', 'noun', 'C0452428', ['food'], 0.0)||(',', '', '', '', 0.0)||('or', '', '', '', 0.0)||('the', '', '', '', 0.0)||('malted', '', '', '', 0.0)||('milk', 'noun', 'C0026131', ['bdsu'], 0.0)||('drink', 'verb', 'C0452428', ['food'], 0.0)||('alone', 'adj', 'C0439044', ['fndg'], 0.0)||('as', '', '', '', 0.0)||('placebo', 'noun', 'C0032042', ['topp'], 0.0)||('for', '', '', '', 0.0)||('8', '', '', '', 0.0)||('weeks', 'noun', 'C0439230', ['tmco'], 0.0)||('.', '', '', '', 0.0)||
('the', '', '', '', 0.0)||('cardinal symptoms', '', '', '', 0.0)||('of', '', '', '', 0.0)||('irritable bowel syndrome', 'noun', 'C0022104', ['dsyn'], 0.0)||('were', '', '', '', 0.0)||('recorded', '', '', '', 0.0)||('on', '', '', '', 0.0)||('a', '', '', '', 0.0)||('daily', 'adj', 'C0332173', ['tmco'], 0.0)||('basis', 'noun', 'C1527178', ['ftcn'], 0.0)||('and', '', '', '', 0.0)||('assessed', 'verb', 'C1516048', ['acty'], 0.0)||('each', '', '', '', 0.0)||('week', 'noun', 'C0439230', ['tmco'], 0.0)||('.', '', '', '', 0.0)||
('quality', 'noun', 'C0332306', ['qlco'], 0.0)||('of', '', '', '', 0.0)||('life', 'noun', 'C0376558', ['idcn'], 0.0)||('assessment', 'noun', 'C1261322', ['hlca'], 0.0)||(',', '', '', '', 0.0)||('stool', 'noun', 'C0015733', ['bdsu'], 0.0)||('microbiologic', '', '', '', 0.0)||('studies', '', '', '', 0.0)||(',', '', '', '', 0.0)||('and', '', '', '', 0.0)||('blood sampling', 'noun', 'C0005834', ['diap'], 0.0)||('for', '', '', '', 0.0)||('estimation', 'noun', 'C0680844', ['menp'], 0.0)||('of', '', '', '', 0.0)||('peripheral blood mononuclear cell', 'noun', 'C1321301', ['cell'], 0.0)||('release', 'noun', 'C0391871', ['ftcn'], 0.0)||('of', '', '', '', 0.0)||('the', '', '', '', 0.0)||('cytokines', 'noun', 'C0079189', ['aapp', 'imft'], 0.0)||('interleukin - 10', '', '', '', 0.0)||('and', '', '', '', 0.0)||('interleukin - 12', '', '', '', 0.0)||('were', '', '', '', 0.0)||('performed', 'verb', 'C0884358', ['ftcn'], 0.0)||('at', '', '', '', 0.0)||('the', '', '', '', 0.0)||('beginning', 'noun', 'C0439659', ['tmco'], 0.0)||('and', '', '', '', 0.0)||('at', '', '', '', 0.0)||('the', '', '', '', 0.0)||('end', 'noun', 'C0444930', ['spco'], 0.0)||('of', '', '', '', 0.0)||('the', '', '', '', 0.0)||('treatment', 'noun', 'C0039798', ['ftcn'], 0.0)||('phase', 'noun', 'C0205390', ['tmco'], 0.0)||('.', '', '', '', 0.0)||
('for', '', '', '', 0.0)||('all', '', '', '', 0.0)||('symptoms', 'noun', 'C0683368', ['ftcn'], 0.0)||(',', '', '', '', 0.0)||('with', '', '', '', 0.0)||('the', '', '', '', 0.0)||('exception', 'noun', 'C1554961', ['idcn'], 0.0)||('of', '', '', '', 0.0)||('bowel movement', 'noun', 'C0011135', ['orgf'], 0.0)||('frequency', 'noun', 'C0376249', ['qnco'], 0.0)||('and', '', '', '', 0.0)||('consistency', 'noun', 'C0332529', ['qlco'], 0.0)||(',', '', '', '', 0.0)||('those', '', '', '', 0.0)||('randomized', 'verb', 'C0034656', ['resa'], 0.0)||('to', '', '', '', 0.0)||('b infantis', '', '', '', 0.0)||('35624', '', '', '', 0.0)||('experienced', '', '', '', 0.0)||('a', '', '', '', 0.0)||('greater', 'adj', 'C1704243', ['qnco'], 0.0)||('reduction', 'noun', 'C0301630', ['npop'], 0.0)||('in', '', '', '', 0.0)||('symptom scores', '', '', '', 0.0)||(';', '', '', '', 0.0)||
('composite', 'noun', 'C0205199', ['qlco'], 0.0)||('and', '', '', '', 0.0)||('individual', 'adj', 'C0027361', ['popg'], 0.0)||('scores', 'noun', 'C0449820', ['qnco'], 0.0)||('for', '', '', '', 0.0)||('abdominal pain', 'noun', 'C0000737', ['sosy'], 0.0)||('/', '', '', '', 0.0)||('discomfort', 'noun', 'C0231218', ['sosy'], 0.0)||(',', '', '', '', 0.0)||('bloating', 'verb', 'C1291077', ['sosy'], 0.0)||('/', '', '', '', 0.0)||('distention', 'noun', 'C0012359', ['patf'], 0.0)||(',', '', '', '', 0.0)||('and', '', '', '', 0.0)||('bowel movement', 'noun', 'C0011135', ['orgf'], 0.0)||('difficulty', 'noun', 'C1299586', ['fndg'], 0.0)||('were', '', '', '', 0.0)||('significantly', '', '', '', 0.0)||('lower', 'adj', 'C0441994', ['ftcn'], 0.0)||('than', '', '', '', 0.0)||('for', '', '', '', 0.0)||('placebo', 'noun', 'C0032042', ['topp'], 0.0)||('for', '', '', '', 0.0)||('those', '', '', '', 0.0)||('randomized', 'verb', 'C0034656', ['resa'], 0.0)||('to', '', '', '', 0.0)||('b infantis', '', '', '', 0.0)||('35624', '', '', '', 0.0)||('for', '', '', '', 0.0)||('most', '', '', '', 0.0)||('weeks', 'noun', 'C0439230', ['tmco'], 0.0)||('of', '', '', '', 0.0)||('the', '', '', '', 0.0)||('treatment', 'noun', 'C0039798', ['ftcn'], 0.0)||('phase', 'noun', 'C0205390', ['tmco'], 0.0)||('.', '', '', '', 0.0)||
('at', '', '', '', 0.0)||('baseline', 'noun', 'C0168634', ['bodm'], 0.0)||(',', '', '', '', 0.0)||('patients', 'noun', 'C0030705', ['podg'], 0.0)||('with', '', '', '', 0.0)||('irritable bowel syndrome', 'noun', 'C0022104', ['dsyn'], 0.0)||('demonstrated', '', '', '', 0.0)||('an', '', '', '', 0.0)||('abnormal', 'adj', 'C0205161', ['ftcn'], 0.0)||('interleukin - 10', '', '', '', 0.0)||('/', '', '', '', 0.0)||('interleukin - 12', '', '', '', 0.0)||('ratio', 'noun', 'C0456603', ['qnco'], 0.0)||(',', '', '', '', 0.0)||('indicative', '', '', '', 0.0)||('of', '', '', '', 0.0)||('a', '', '', '', 0.0)||('proinflammatory', '', '', '', 0.0)||(',', '', '', '', 0.0)||('th', 'noun', 'C0039725', ['geoa'], 0.0)||('-', '', '', '', 0.0)||('1', '', '', '', 0.0)||('state', 'noun', 'C1301808', ['geoa'], 0.0)||('.', '', '', '', 0.0)||
('this', '', '', '', 0.0)||('ratio', 'noun', 'C0456603', ['qnco'], 0.0)||('was', '', '', '', 0.0)||('normalized', 'verb', 'C1882115', ['acty'], 0.0)||('by', '', '', '', 0.0)||('b infantis', '', '', '', 0.0)||('35624', '', '', '', 0.0)||('feeding', 'verb', 'C0204695', ['hlca'], 0.0)||('alone', 'adj', 'C0439044', ['fndg'], 0.0)||('.', '', '', '', 0.0)||
('b infantis', '', '', '', 0.0)||('35624', '', '', '', 0.0)||('alleviates', '', '', '', 0.0)||('symptoms', 'noun', 'C0683368', ['ftcn'], 0.0)||('in', '', '', '', 0.0)||('irritable bowel syndrome', 'noun', 'C0022104', ['dsyn'], 0.0)||(';', '', '', '', 0.0)||
('this', '', '', '', 0.0)||('symptomatic', 'adj', 'C0231220', ['ftcn'], 0.0)||('response', 'noun', 'C0871261', ['clna'], 0.0)||('was', '', '', '', 0.0)||('associated', 'verb', 'C0332281', ['qlco'], 0.0)||('with', '', '', '', 0.0)||('normalization', 'noun', 'C1882115', ['acty'], 0.0)||('of', '', '', '', 0.0)||('the', '', '', '', 0.0)||('ratio', 'noun', 'C0456603', ['qnco'], 0.0)||('of', '', '', '', 0.0)||('an', '', '', '', 0.0)||('anti - inflammatory', '', '', '', 0.0)||('to', '', '', '', 0.0)||('a', '', '', '', 0.0)||('proinflammatory cytokine', '', '', '', 0.0)||(',', '', '', '', 0.0)||('suggesting', '', '', '', 0.0)||('an', '', '', '', 0.0)||('immune', 'adj', 'C0439662', ['ftcn'], 0.0)||('-', '', '', '', 0.0)||('modulating', 'adj', 'C1709059', ['celf'], 0.0)||('role', 'noun', 'C0035820', ['socb'], 0.0)||('for', '', '', '', 0.0)||('this', '', '', '', 0.0)||('organism', 'noun', 'C0029235', ['orgm'], 0.0)||(',', '', '', '', 0.0)||('in', '', '', '', 0.0)||('this', '', '', '', 0.0)||('disorder', 'noun', 'C0012634', ['dsyn'], 0.0)||('.', '', '', '', 0.0)||
