('a', '', '', '', 0.0)||('systematic review', '', '', '', 0.0)||('revealed', 'verb', 'C0443289', ['qlco'], 0.0)||('that', '', '', '', 0.0)||('dihydroergotamine', 'noun', 'C0012291', ['orch', 'phsu'], 0.0)||('alone', 'adj', 'C0439044', ['fndg'], 0.0)||('was', '', '', '', 0.0)||('less', '', '', '', 0.0)||('effective', 'adj', 'C1704419', ['qlco'], 0.0)||('than', '', '', '', 0.0)||('subcutaneous', 'adj', 'C0205523', ['ftcn'], 0.0)||('sumatriptan', 'noun', 'C0075632', ['orch', 'phsu'], 0.0)||('in', '', '', '', 0.0)||('migraine', 'noun', 'C0149931', ['dsyn'], 0.0)||('pain reduction', '', '', '', 0.0)||('(', '', '', '', 0.0)||('or', '', '', '', 0.0)||('=', '', '', '', 0.0)||('0 . 44', '', '', '', 0.0)||(';', '', '', '', 0.0)||('95 %', '', '', '', 0.0)||('ci', 'noun', 'C1417638', ['gngm'], 0.0)||(',', '', '', '', 0.0)||('0 . 25', '', '', '', 0.0)||('-', '', '', '', 0.0)||('0 . 77', '', '', '', 0.0)||(')', '', '', '', 0.0)||('or', '', '', '', 0.0)||('headache', 'noun', 'C0018681', ['sosy'], 0.0)||('resolution', 'noun', 'C1514893', ['idcn'], 0.0)||('(', '', '', '', 0.0)||('or', '', '', '', 0.0)||('=', '', '', '', 0.0)||('0 . 05', '', '', '', 0.0)||(';', '', '', '', 0.0)||('95 %', '', '', '', 0.0)||('ci', 'noun', 'C1417638', ['gngm'], 0.0)||(',', '', '', '', 0.0)||('0 . 01', '', '', '', 0.0)||('-', '', '', '', 0.0)||('0 . 42', '', '', '', 0.0)||(')', '', '', '', 0.0)||('.', '', '', '', 0.0)||
('no', '', '', '', 0.0)||('differences', '', '', '', 0.0)||('were', '', '', '', 0.0)||('seen', 'verb', 'C0205397', ['qlco'], 0.0)||('between', '', '', '', 0.0)||('dihydroergotamine', 'noun', 'C0012291', ['orch', 'phsu'], 0.0)||('alone', 'adj', 'C0439044', ['fndg'], 0.0)||('and', '', '', '', 0.0)||('chlorpromazine', 'noun', 'C0008286', ['orch', 'phsu'], 0.0)||('or', '', '', '', 0.0)||('lidocaine', 'noun', 'C0023660', ['orch', 'phsu'], 0.0)||('.', '', '', '', 0.0)||
('three', '', 'C0205449', ['qnco'], 0.0)||('studies', '', '', '', 0.0)||('revealed', 'verb', 'C0443289', ['qlco'], 0.0)||('dihydroergotamine', 'noun', 'C0012291', ['orch', 'phsu'], 0.0)||('plus', '', '', '', 0.0)||('metoclopramide', '', '', '', 0.0)||('was', '', '', '', 0.0)||('more', '', '', '', 0.0)||('effective', 'adj', 'C1704419', ['qlco'], 0.0)||('than', '', '', '', 0.0)||('or', '', '', '', 0.0)||('equal', 'adj', 'C0205163', ['qlco'], 0.0)||('to', '', '', '', 0.0)||('other', '', '', '', 0.0)||('agents', '', '', '', 0.0)||('for', '', '', '', 0.0)||('headache', 'noun', 'C0018681', ['sosy'], 0.0)||('pain reduction', '', '', '', 0.0)||('at 2', '', '', '', 0.0)||('hours', 'noun', 'C0439227', ['tmco'], 0.0)||(':', '', '', '', 0.0)||('one', 'noun', 'C0205447', ['qnco'], 0.0)||('vs', '', '', '', 0.0)||('ketorolac', 'noun', 'C0073631', ['orch', 'phsu'], 0.0)||('im', '', '', '', 0.0)||('(', '', '', '', 0.0)||('or', '', '', '', 0.0)||('=', '', '', '', 0.0)||('7', '', '', '', 0.0)||(';', '', '', '', 0.0)||('95 %', '', '', '', 0.0)||('ci', 'noun', 'C1417638', ['gngm'], 0.0)||(',', '', '', '', 0.0)||('0 . 86', '', '', '', 0.0)||('-', '', '', '', 0.0)||('56 . 89', '', '', '', 0.0)||(')', '', '', '', 0.0)||(',', '', '', '', 0.0)||('one', 'noun', 'C0205447', ['qnco'], 0.0)||('vs', '', '', '', 0.0)||('meperidine', 'noun', 'C0025376', ['orch', 'phsu'], 0.0)||('(', '', '', '', 0.0)||('demerol', 'noun', 'C0935966', ['orch', 'phsu'], 0.0)||(')', '', '', '', 0.0)||('plus', '', '', '', 0.0)||('hydroxyzine', 'noun', 'C0020404', ['orch', 'phsu'], 0.0)||('(', '', '', '', 0.0)||('vistaril', 'noun', 'C0936278', ['orch', 'phsu'], 0.0)||(',', '', '', '', 0.0)||('atarax', 'noun', 'C0684229', ['orch', 'phsu'], 0.0)||(')', '', '', '', 0.0)||('im', '', '', '', 0.0)||('(', '', '', '', 0.0)||('or', '', '', '', 0.0)||('=', '', '', '', 0.0)||('47 . 67', '', '', '', 0.0)||(';', '', '', '', 0.0)||('95 %', '', '', '', 0.0)||('ci', 'noun', 'C1417638', ['gngm'], 0.0)||(',', '', '', '', 0.0)||('4 . 32', '', '', '', 0.0)||('-', '', '', '', 0.0)||('526 . 17', '', '', '', 0.0)||(')', '', '', '', 0.0)||(',', '', '', '', 0.0)||('and', '', '', '', 0.0)||('one', 'noun', 'C0205447', ['qnco'], 0.0)||('vs', '', '', '', 0.0)||('valproate', 'noun', 'C0080356', ['lipd', 'phsu'], 0.0)||('iv', '', '', '', 0.0)||('(', '', '', '', 0.0)||('or', '', '', '', 0.0)||('=', '', '', '', 0.0)||('0 . 67', '', '', '', 0.0)||(';', '', '', '', 0.0)||('95 %', '', '', '', 0.0)||('ci', 'noun', 'C1417638', ['gngm'], 0.0)||(',', '', '', '', 0.0)||('0 . 19', '', '', '', 0.0)||('-', '', '', '', 0.0)||('2 . 33', '', '', '', 0.0)||(')', '', '', '', 0.0)||('.', '', '', '', 0.0)||
('specifically', '', '', '', 0.0)||(',', '', '', '', 0.0)||('treatment', 'noun', 'C0039798', ['ftcn'], 0.0)||('with', '', '', '', 0.0)||('dihydroergotamine', 'noun', 'C0012291', ['orch', 'phsu'], 0.0)||('plus', '', '', '', 0.0)||('metoclopramide', '', '', '', 0.0)||('was', '', '', '', 0.0)||('superior', 'adj', 'C1282910', ['spco'], 0.0)||('to', '', '', '', 0.0)||('ketorolac', 'noun', 'C0073631', ['orch', 'phsu'], 0.0)||('for', '', '', '', 0.0)||('pain reduction', '', '', '', 0.0)||('(', '', '', '', 0.0)||('p', '', '', '', 0.0)||('=', '', '', '', 0.0)||('.', '', '', '', 0.0)||('03', '', '', '', 0.0)||(')', '', '', '', 0.0)||(',', '', '', '', 0.0)||('but', '', '', '', 0.0)||('patients', 'noun', 'C0030705', ['podg'], 0.0)||('did', '', '', '', 0.0)||('not', 'adv', 'C1518422', ['ftcn'], 0.0)||('differ', '', '', '', 0.0)||('in', '', '', '', 0.0)||('disability', 'noun', 'C0231170', ['fndg'], 0.0)||('scores', 'noun', 'C0449820', ['qnco'], 0.0)||('(', '', '', '', 0.0)||('p', '', '', '', 0.0)||('=', '', '', '', 0.0)||('.', '', '', '', 0.0)||('06', '', '', '', 0.0)||(')', '', '', '', 0.0)||('.', '', '', '', 0.0)||
('dihydroergotamine', 'noun', 'C0012291', ['orch', 'phsu'], 0.0)||('plus', '', '', '', 0.0)||('metoclopramide', '', '', '', 0.0)||('achieved', '', '', '', 0.0)||('greater', 'adj', 'C1704243', ['qnco'], 0.0)||('reductions', '', '', '', 0.0)||('in', '', '', '', 0.0)||('pain scale', 'noun', 'C1504479', ['diap'], 0.0)||('scores', 'noun', 'C0449820', ['qnco'], 0.0)||('than', '', '', '', 0.0)||('meperidine', 'noun', 'C0025376', ['orch', 'phsu'], 0.0)||('plus', '', '', '', 0.0)||('hydroxyzine', 'noun', 'C0020404', ['orch', 'phsu'], 0.0)||('(', '', '', '', 0.0)||('p', '', '', '', 0.0)||('<', '', '', '', 0.0)||('.', '', '', '', 0.0)||('001', '', '', '', 0.0)||(')', '', '', '', 0.0)||('.', '', '', '', 0.0)||
('no', '', '', '', 0.0)||('significant', 'adj', 'C0750502', ['idcn'], 0.0)||('difference', 'noun', 'C1705242', ['qlco'], 0.0)||('in', '', '', '', 0.0)||('pain reduction', '', '', '', 0.0)||('was', '', '', '', 0.0)||('noted', '', '', '', 0.0)||('between', '', '', '', 0.0)||('dihydroergotamine', 'noun', 'C0012291', ['orch', 'phsu'], 0.0)||('plus', '', '', '', 0.0)||('metoclopramide', '', '', '', 0.0)||('and', '', '', '', 0.0)||('valproate', 'noun', 'C0080356', ['lipd', 'phsu'], 0.0)||('(', '', '', '', 0.0)||('p', '', '', '', 0.0)||('=', '', '', '', 0.0)||('.', '', '', '', 0.0)||('36', '', '', '', 0.0)||(')', '', '', '', 0.0)||('.', '', '', '', 0.0)||
