('to', '', '', '', 0.0)||('determine', '', '', '', 0.0)||('whether', '', '', '', 0.0)||('antipyretic', 'adj', 'C0003419', ['phsu'], 0.0)||('therapy', 'noun', 'C0039798', ['ftcn'], 0.0)||('prolongs', '', '', '', 0.0)||('the', '', '', '', 0.0)||('course', 'noun', 'C0750729', ['tmco'], 0.0)||('of', '', '', '', 0.0)||('experimental', 'adj', 'C1517004', ['ftcn'], 0.0)||('influenza a', 'noun', 'C2062441', ['dsyn'], 0.0)||(',', '', '', '', 0.0)||('shigella sonnei', 'noun', 'C0036960', ['bact'], 0.0)||(',', '', '', '', 0.0)||('and', '', '', '', 0.0)||('rickettsia rickettsii', 'noun', 'C0035588', ['bact'], 0.0)||('infections', 'noun', 'C0021311', ['dsyn'], 0.0)||('.', '', '', '', 0.0)||
('retrospective', 'adj', 'C1514923', ['qlco'], 0.0)||('observational', 'adj', 'C1964257', ['diap'], 0.0)||('study', 'noun', 'C0008976', ['resa'], 0.0)||('.', '', '', '', 0.0)||
('university', 'noun', 'C0041740', ['mnob', 'orgt'], 0.0)||('center', 'noun', 'C0205099', ['spco'], 0.0)||('for', '', '', '', 0.0)||('vaccine', 'noun', 'C0042210', ['imft', 'phsu'], 0.0)||('development', 'noun', 'C0020119', ['phsf'], 0.0)||('.', '', '', '', 0.0)||
('fifty - four', '', '', '', 0.0)||('volunteers', 'noun', 'C0042960', ['prog'], 0.0)||('with', '', '', '', 0.0)||('experimentally', '', '', '', 0.0)||('induced', 'adj', 'C0205263', ['ftcn'], 0.0)||('influenza a', 'noun', 'C2062441', ['dsyn'], 0.0)||(',', '', '', '', 0.0)||('45', '', '', '', 0.0)||('with', '', '', '', 0.0)||('s', '', '', '', 0.0)||('.', '', '', '', 0.0)||
('sonnei', '', '', '', 0.0)||(',', '', '', '', 0.0)||('and', '', '', '', 0.0)||('21', '', '', '', 0.0)||('with', '', '', '', 0.0)||('r', '', '', '', 0.0)||('.', '', '', '', 0.0)||
('rickettsii', '', '', '', 0.0)||('infections', 'noun', 'C0021311', ['dsyn'], 0.0)||('participated', '', '', '', 0.0)||('.', '', '', '', 0.0)||
('subjects', '', '', '', 0.0)||('from', '', '', '', 0.0)||('the', '', '', '', 0.0)||('six', '', 'C0205452', ['qnco'], 0.0)||('influenza a', 'noun', 'C2062441', ['dsyn'], 0.0)||('studies', '', '', '', 0.0)||('were', '', '', '', 0.0)||('challenged', '', '', '', 0.0)||('intranasally', '', '', '', 0.0)||('.', '', '', '', 0.0)||
('if', '', '', '', 0.0)||('they', '', '', '', 0.0)||('met', '', '', '', 0.0)||('certain', '', '', '', 0.0)||('criteria', 'noun', 'C0243161', ['inpr'], 0.0)||(',', '', '', '', 0.0)||('they', '', '', '', 0.0)||('were', '', '', '', 0.0)||('offered', 'verb', 'C1444648', ['fndg'], 0.0)||('aspirin', 'noun', 'C0004057', ['orch', 'phsu'], 0.0)||('or', '', '', '', 0.0)||('acetaminophen', 'noun', 'C0000970', ['orch', 'phsu'], 0.0)||('for', '', '', '', 0.0)||('symptomatic', 'adj', 'C0231220', ['ftcn'], 0.0)||('relief', 'noun', 'C0564405', ['fndg'], 0.0)||('.', '', '', '', 0.0)||
('subjects', '', '', '', 0.0)||('from', '', '', '', 0.0)||('the', '', '', '', 0.0)||('three', '', 'C0205449', ['qnco'], 0.0)||('shigella', 'noun', 'C0013371', ['dsyn'], 0.0)||('studies', '', '', '', 0.0)||('were', '', '', '', 0.0)||('challenged', '', '', '', 0.0)||('with', '', '', '', 0.0)||('the', '', '', '', 0.0)||('bacteria', 'noun', 'C0004611', ['bact'], 0.0)||('and', '', '', '', 0.0)||('then', 'adv', 'C1883708', ['tmco'], 0.0)||('given', '', '', '', 0.0)||('trimethoprimsulfamethoxazole', '', '', '', 0.0)||('.', '', '', '', 0.0)||
('acetaminophen', 'noun', 'C0000970', ['orch', 'phsu'], 0.0)||('also', '', '', '', 0.0)||('could', '', '', '', 0.0)||('be', '', '', '', 0.0)||('administered', 'verb', 'C1521801', ['ftcn'], 0.0)||('.', '', '', '', 0.0)||
('in', '', '', '', 0.0)||('the', '', '', '', 0.0)||('one', 'noun', 'C0205447', ['qnco'], 0.0)||('r', '', '', '', 0.0)||('.', '', '', '', 0.0)||
('rickettsii', '', '', '', 0.0)||('trial', 'noun', 'C0008976', ['resa'], 0.0)||(',', '', '', '', 0.0)||('subjects', '', '', '', 0.0)||('were', '', '', '', 0.0)||('inoculated', '', '', '', 0.0)||('intradermally', '', '', '', 0.0)||('and', '', '', '', 0.0)||('treated', 'verb', 'C1522326', ['ftcn'], 0.0)||('with', '', '', '', 0.0)||('tetracycline', 'noun', 'C0039644', ['antb', 'orch'], 0.0)||('.', '', '', '', 0.0)||
('again', '', '', '', 0.0)||(',', '', '', '', 0.0)||('acetaminophen', 'noun', 'C0000970', ['orch', 'phsu'], 0.0)||('was', '', '', '', 0.0)||('administered', 'verb', 'C1521801', ['ftcn'], 0.0)||('for', '', '', '', 0.0)||('symptomatic', 'adj', 'C0231220', ['ftcn'], 0.0)||('relief', 'noun', 'C0564405', ['fndg'], 0.0)||('.', '', '', '', 0.0)||
('data', 'noun', 'C1511726', ['idcn'], 0.0)||(',', '', '', '', 0.0)||('excerpted', '', '', '', 0.0)||('from', '', '', '', 0.0)||('subjects', '', '', '', 0.0)||("'", '', '', '', 0.0)||('study', 'noun', 'C0008976', ['resa'], 0.0)||('records', 'noun', 'C0034869', ['inpr'], 0.0)||(',', '', '', '', 0.0)||('were', '', '', '', 0.0)||('evaluated', 'verb', 'C0220825', ['ftcn'], 0.0)||('using', 'verb', 'C1524063', ['ftcn'], 0.0)||('wilcoxon tests', '', '', '', 0.0)||(',', '', '', '', 0.0)||('spearman', '', '', '', 0.0)||("' s", '', '', '', 0.0)||('correlation coefficients', '', '', '', 0.0)||(',', '', '', '', 0.0)||('and', '', '', '', 0.0)||('multiple regression', 'noun', 'C0681923', ['qlco'], 0.0)||('analysis', 'noun', 'C0002778', ['lbpr'], 0.0)||('.', '', '', '', 0.0)||
('two - tailed', '', '', '', 0.0)||('hypotheses', '', '', '', 0.0)||('with', '', '', '', 0.0)||('a p', '', '', '', 0.0)||('value', 'noun', 'C0042295', ['qlco'], 0.0)||('of', '', '', '', 0.0)||('0 . 05', '', '', '', 0.0)||('were', '', '', '', 0.0)||('used', '', '', '', 0.0)||('for', '', '', '', 0.0)||('all', '', '', '', 0.0)||('of', '', '', '', 0.0)||('the', '', '', '', 0.0)||('analyses', '', '', '', 0.0)||('.', '', '', '', 0.0)||
('there', '', '', '', 0.0)||('was', '', '', '', 0.0)||('a', '', '', '', 0.0)||('striking', '', '', '', 0.0)||('correlation', 'noun', 'C1707520', ['qlco'], 0.0)||('between', '', '', '', 0.0)||('antipyretic', 'adj', 'C0003419', ['phsu'], 0.0)||('therapy', 'noun', 'C0039798', ['ftcn'], 0.0)||('and', '', '', '', 0.0)||('duration', 'noun', 'C0449238', ['tmco'], 0.0)||('of', '', '', '', 0.0)||('illness', 'noun', 'C0221423', ['fndg'], 0.0)||('in', '', '', '', 0.0)||('subjects', '', '', '', 0.0)||('infected', 'verb', 'C0439663', ['ftcn'], 0.0)||('with', '', '', '', 0.0)||('influenza a', 'noun', 'C2062441', ['dsyn'], 0.0)||('and s', '', '', '', 0.0)||('.', '', '', '', 0.0)||
('sonnei', '', '', '', 0.0)||(',', '', '', '', 0.0)||('but', '', '', '', 0.0)||('not', 'adv', 'C1518422', ['ftcn'], 0.0)||('r', '', '', '', 0.0)||('.', '', '', '', 0.0)||
('rickettsii', '', '', '', 0.0)||('.', '', '', '', 0.0)||
('multivariate analysis', 'noun', 'C0026777', ['qnco'], 0.0)||('suggested', '', '', '', 0.0)||('that', '', '', '', 0.0)||('antipyretic', 'adj', 'C0003419', ['phsu'], 0.0)||('therapy', 'noun', 'C0039798', ['ftcn'], 0.0)||('prolonged', 'verb', 'C0439590', ['tmco'], 0.0)||('illness', 'noun', 'C0221423', ['fndg'], 0.0)||('in', '', '', '', 0.0)||('subjects', '', '', '', 0.0)||('infected', 'verb', 'C0439663', ['ftcn'], 0.0)||('with', '', '', '', 0.0)||('influenza a', 'noun', 'C2062441', ['dsyn'], 0.0)||(',', '', '', '', 0.0)||('but', '', '', '', 0.0)||('its', '', '', '', 0.0)||('use', 'noun', 'C0042153', ['ftcn'], 0.0)||('was', '', '', '', 0.0)||('the', '', '', '', 0.0)||('result', 'noun', 'C1274040', ['ftcn'], 0.0)||('of', '', '', '', 0.0)||('prolonged', 'adj', 'C0439590', ['tmco'], 0.0)||('illness', 'noun', 'C0221423', ['fndg'], 0.0)||('in', '', '', '', 0.0)||('those', '', '', '', 0.0)||('infected', 'verb', 'C0439663', ['ftcn'], 0.0)||('with', '', '', '', 0.0)||('s', '', '', '', 0.0)||('.', '', '', '', 0.0)||
('sonnei', '', '', '', 0.0)||('.', '', '', '', 0.0)||
('the', '', '', '', 0.0)||('precise', '', '', '', 0.0)||('nature', 'noun', 'C0349590', ['idcn'], 0.0)||('of', '', '', '', 0.0)||('these', '', '', '', 0.0)||('relationships', 'noun', 'C0439849', ['qlco'], 0.0)||('requires', '', '', '', 0.0)||('a', '', '', '', 0.0)||('prospective', 'adj', 'C0023981', ['resa'], 0.0)||(',', '', '', '', 0.0)||('randomized', 'verb', 'C0034656', ['resa'], 0.0)||(',', '', '', '', 0.0)||('placebo - controlled', '', '', '', 0.0)||('trial', 'noun', 'C0008976', ['resa'], 0.0)||('.', '', '', '', 0.0)||
