('in', '', '', '', 0.0)||('two', 'noun', 'C0205448', ['qnco'], 0.0)||('double - blind', '', '', '', 0.0)||('trials', '', '', '', 0.0)||(',', '', '', '', 0.0)||('volunteers', 'noun', 'C0042960', ['prog'], 0.0)||('challenged', '', '', '', 0.0)||('with', '', '', '', 0.0)||('rhinovirus', 'noun', 'C0035473', ['virs'], 0.0)||('were', '', '', '', 0.0)||('treated', 'verb', 'C1522326', ['ftcn'], 0.0)||('with', '', '', '', 0.0)||('aspirin', 'noun', 'C0004057', ['orch', 'phsu'], 0.0)||('or', '', '', '', 0.0)||('placebo', 'noun', 'C0032042', ['topp'], 0.0)||('.', '', '', '', 0.0)||
('aspirin', 'noun', 'C0004057', ['orch', 'phsu'], 0.0)||('treatment', 'noun', 'C0039798', ['ftcn'], 0.0)||('did', '', '', '', 0.0)||('not', 'adv', 'C1518422', ['ftcn'], 0.0)||('alter', '', '', '', 0.0)||('the', '', '', '', 0.0)||('rates', '', '', '', 0.0)||('of', '', '', '', 0.0)||('infection', 'noun', 'C0021311', ['dsyn'], 0.0)||('or', '', '', '', 0.0)||('illness', 'noun', 'C0221423', ['fndg'], 0.0)||('but', '', '', '', 0.0)||('was', '', '', '', 0.0)||('associated', 'verb', 'C0332281', ['qlco'], 0.0)||('with', '', '', '', 0.0)||('a', '', '', '', 0.0)||('moderate', 'adj', 'C0205081', ['qlco'], 0.0)||('reduction', 'noun', 'C0301630', ['npop'], 0.0)||('in', '', '', '', 0.0)||('the', '', '', '', 0.0)||('frequency', 'noun', 'C0376249', ['qnco'], 0.0)||('or', '', '', '', 0.0)||('severity', 'noun', 'C0439793', ['qlco'], 0.0)||('of', '', '', '', 0.0)||('some', '', '', '', 0.0)||('symptoms', 'noun', 'C0683368', ['ftcn'], 0.0)||('.', '', '', '', 0.0)||
('the', '', '', '', 0.0)||('overall', 'adj', 'C0282416', ['inpr'], 0.0)||('benefit', 'noun', 'C0814225', ['qnco'], 0.0)||('in', '', '', '', 0.0)||('rhinovirus', 'noun', 'C0035473', ['virs'], 0.0)||('infection', 'noun', 'C0021311', ['dsyn'], 0.0)||('was', '', '', '', 0.0)||('not', 'adv', 'C1518422', ['ftcn'], 0.0)||('statistically significant', 'adj', 'C0237881', ['qnco'], 0.0)||('.', '', '', '', 0.0)||
('aspirin', 'noun', 'C0004057', ['orch', 'phsu'], 0.0)||('treatment', 'noun', 'C0039798', ['ftcn'], 0.0)||('appeared', '', '', '', 0.0)||('to', '', '', '', 0.0)||('cause', 'verb', 'C1524003', ['cnce'], 0.0)||('a', '', '', '', 0.0)||('highly', 'adv', 'C0205250', ['qlco'], 0.0)||('significant', 'adj', 'C0750502', ['idcn'], 0.0)||('increase', 'noun', 'C0442805', ['ftcn'], 0.0)||('in', '', '', '', 0.0)||('the', '', '', '', 0.0)||('rate', 'noun', 'C0871208', ['acty'], 0.0)||('of', '', '', '', 0.0)||('virus shedding', 'noun', 'C0162633', ['patf'], 0.0)||('in treated', '', '', '', 0.0)||('subjects', '', '', '', 0.0)||('.', '', '', '', 0.0)||
('the', '', '', '', 0.0)||('increase', 'noun', 'C0442805', ['ftcn'], 0.0)||('in', '', '', '', 0.0)||('virus shedding', 'noun', 'C0162633', ['patf'], 0.0)||('must', '', '', '', 0.0)||('be', '', '', '', 0.0)||('considered', '', '', '', 0.0)||('an', '', '', '', 0.0)||('adverse', '', '', '', 0.0)||('event', 'noun', 'C0441471', ['evnt'], 0.0)||('that', '', '', '', 0.0)||('could', '', '', '', 0.0)||('influence', '', '', '', 0.0)||('the', '', '', '', 0.0)||('course', 'noun', 'C0750729', ['tmco'], 0.0)||('of', '', '', '', 0.0)||('the', '', '', '', 0.0)||('disease', 'noun', 'C0012634', ['dsyn'], 0.0)||('in', '', '', '', 0.0)||('the', '', '', '', 0.0)||('individual', 'noun', 'C0027361', ['popg'], 0.0)||('and', '', '', '', 0.0)||('increase', 'verb', 'C0442805', ['ftcn'], 0.0)||('the', '', '', '', 0.0)||('likelihood', 'noun', 'C0033204', ['qnco'], 0.0)||('of', '', '', '', 0.0)||('the', '', '', '', 0.0)||('spread', 'verb', 'C0332261', ['qlco'], 0.0)||('of', '', '', '', 0.0)||('the', '', '', '', 0.0)||('infection', 'noun', 'C0021311', ['dsyn'], 0.0)||('to', '', '', '', 0.0)||('contacts', '', '', '', 0.0)||('.', '', '', '', 0.0)||
