('all', '', '', '', 0.0)||('reviews', '', '', '', 0.0)||('suggest', 'verb', 'C1705535', ['idcn'], 0.0)||('that', '', '', '', 0.0)||('the', '', '', '', 0.0)||('best', 'adv', 'C1522427', ['qlco'], 0.0)||('diagnostic', 'adj', 'C0011900', ['fndg'], 0.0)||('approach', 'noun', 'C0449445', ['spco'], 0.0)||('to', '', '', '', 0.0)||('leg', 'noun', 'C1140621', ['blor'], 0.0)||('cramps', 'noun', 'C0026821', ['sosy'], 0.0)||('is', '', '', '', 0.0)||('a', '', '', '', 0.0)||('thorough', '', '', '', 0.0)||('history', 'noun', 'C0019664', ['ocdi'], 0.0)||(',', '', '', '', 0.0)||('and', '', '', '', 0.0)||('careful', '', '', '', 0.0)||('physical', 'adj', 'C0031809', ['hlca'], 0.0)||('and', '', '', '', 0.0)||('neurological', 'adj', 'C0205494', ['qlco'], 0.0)||('examination', '', '', '', 0.0)||('.', '', '', '', 0.0)||
('the', '', '', '', 0.0)||('health care provider', 'noun', 'C0018724', ['prog'], 0.0)||('should', '', '', '', 0.0)||('clarify', '', '', '', 0.0)||('the', '', '', '', 0.0)||('onset', 'noun', 'C0332162', ['qlco'], 0.0)||('and', '', '', '', 0.0)||('duration', 'noun', 'C0449238', ['tmco'], 0.0)||('of', '', '', '', 0.0)||('leg', 'noun', 'C1140621', ['blor'], 0.0)||('cramps', 'noun', 'C0026821', ['sosy'], 0.0)||(',', '', '', '', 0.0)||('any', '', '', '', 0.0)||('precipitating', '', '', '', 0.0)||('activity', 'noun', 'C0441655', ['acty'], 0.0)||(',', '', '', '', 0.0)||('and', '', '', '', 0.0)||('factors', '', '', '', 0.0)||('that', '', '', '', 0.0)||('provide', 'verb', 'C0359589', ['food'], 0.0)||('relief', 'noun', 'C0564405', ['fndg'], 0.0)||('.', '', '', '', 0.0)||
('a', '', '', '', 0.0)||('detailed', 'adj', 'C1522508', ['qlco'], 0.0)||('history', 'noun', 'C0019664', ['ocdi'], 0.0)||('should', '', '', '', 0.0)||('focus', 'noun', 'C0205234', ['spco'], 0.0)||('on', '', '', '', 0.0)||('precipitating', '', '', '', 0.0)||('factors', '', '', '', 0.0)||('for', '', '', '', 0.0)||('iron deficiency anemia', '', '', '', 0.0)||('(', '', '', '', 0.0)||('gastro - intestinal bleeding', '', '', '', 0.0)||(',', '', '', '', 0.0)||('frequent', 'adj', 'C0332183', ['tmco'], 0.0)||('blood donations', 'noun', 'C0005794', ['hlca'], 0.0)||(',', '', '', '', 0.0)||('menorrhagia', 'noun', 'C0025323', ['patf'], 0.0)||(')', '', '', '', 0.0)||(',', '', '', '', 0.0)||('a', '', '', '', 0.0)||('history', 'noun', 'C0019664', ['ocdi'], 0.0)||('of', '', '', '', 0.0)||('renal disease', 'noun', 'C0022658', ['dsyn'], 0.0)||('(', '', '', '', 0.0)||('especially', '', '', '', 0.0)||('end - stage', '', '', '', 0.0)||('renal failure', 'noun', 'C0035078', ['dsyn'], 0.0)||(')', '', '', '', 0.0)||('and', '', '', '', 0.0)||('medication', '', '', '', 0.0)||('use', 'noun', 'C0042153', ['ftcn'], 0.0)||('(', '', '', '', 0.0)||('antidepressants', 'noun', 'C0003289', ['phsu'], 0.0)||('and', '', '', '', 0.0)||('diuretics', 'noun', 'C0012798', ['phsu'], 0.0)||(')', '', '', '', 0.0)||('.', '', '', '', 0.0)||
