('microalbuminuria', 'noun', 'C0730345', ['dsyn'], 0.0)||('is', '', '', '', 0.0)||('a', '', '', '', 0.0)||('well recognized', '', '', '', 0.0)||('marker', 'noun', 'C0005516', ['clna'], 0.0)||('of', '', '', '', 0.0)||('cardiovascular', 'adj', 'C0007226', ['bdsy'], 0.0)||('complications', 'noun', 'C0009566', ['patf'], 0.0)||('in', '', '', '', 0.0)||('hypertension', 'noun', 'C0020538', ['dsyn'], 0.0)||(',', '', '', '', 0.0)||('but', '', '', '', 0.0)||('whether', '', '', '', 0.0)||('microalbuminuria', 'noun', 'C0730345', ['dsyn'], 0.0)||('can', '', '', '', 0.0)||('predict', '', '', '', 0.0)||('adverse', '', '', '', 0.0)||('outcome', 'noun', 'C1274040', ['ftcn'], 0.0)||('in', '', '', '', 0.0)||('this', '', '', '', 0.0)||('clinical condition', '', '', '', 0.0)||('is', '', '', '', 0.0)||('still', '', '', '', 0.0)||('a', '', '', '', 0.0)||('subject', 'noun', 'C0681850', ['grup'], 0.0)||('for', '', '', '', 0.0)||('debate', '', '', '', 0.0)||('.', '', '', '', 0.0)||
('the', '', '', '', 0.0)||('fact', '', '', '', 0.0)||('that', '', '', '', 0.0)||('in', '', '', '', 0.0)||('hypertensive', 'adj', 'C0857121', ['fndg'], 0.0)||('cohorts', '', '', '', 0.0)||('those', '', '', '', 0.0)||('patients', 'noun', 'C0030705', ['podg'], 0.0)||('who', '', '', '', 0.0)||('showed', '', '', '', 0.0)||('an', '', '', '', 0.0)||('increase', 'noun', 'C0442805', ['ftcn'], 0.0)||('in', '', '', '', 0.0)||('albumin excretion rate', 'noun', 'C0585937', ['lbpr'], 0.0)||('also', '', '', '', 0.0)||('manifested', '', '', '', 0.0)||('an', '', '', '', 0.0)||('increased', 'adj', 'C0205217', ['qnco'], 0.0)||('incidence', 'noun', 'C0021149', ['qnco'], 0.0)||('of', '', '', '', 0.0)||('morbid', '', '', '', 0.0)||('events', 'noun', 'C0441471', ['evnt'], 0.0)||('indicates', '', '', '', 0.0)||('that', '', '', '', 0.0)||('the', '', '', '', 0.0)||('presence', 'noun', 'C0392148', ['topp'], 0.0)||('of', '', '', '', 0.0)||('microalbuminuria', 'noun', 'C0730345', ['dsyn'], 0.0)||('in', '', '', '', 0.0)||('hypertension', 'noun', 'C0020538', ['dsyn'], 0.0)||('may', '', '', '', 0.0)||('carry', '', '', '', 0.0)||('an', '', '', '', 0.0)||('increased', 'adj', 'C0205217', ['qnco'], 0.0)||('cardiovascular risk', '', '', '', 0.0)||('.', '', '', '', 0.0)||
('however', '', '', '', 0.0)||(',', '', '', '', 0.0)||('the', '', '', '', 0.0)||('prognostic', 'adj', 'C0220901', ['inpr'], 0.0)||('significance', 'noun', 'C0237881', ['qnco'], 0.0)||('of', '', '', '', 0.0)||('microalbuminuria', 'noun', 'C0730345', ['dsyn'], 0.0)||('remains', '', '', '', 0.0)||('controversial', '', '', '', 0.0)||('because', '', '', '', 0.0)||('no', '', '', '', 0.0)||('results', 'noun', 'C1274040', ['ftcn'], 0.0)||('of', '', '', '', 0.0)||('prospective studies', 'noun', 'C0033522', ['resa'], 0.0)||('performed', 'verb', 'C0884358', ['ftcn'], 0.0)||('in', '', '', '', 0.0)||('hypertensive', 'adj', 'C0857121', ['fndg'], 0.0)||('subjects', '', '', '', 0.0)||('without', '', '', '', 0.0)||('diabetes mellitus', 'noun', 'C0011849', ['dsyn'], 0.0)||('are', '', '', '', 0.0)||('available', 'adj', 'C0470187', ['ftcn'], 0.0)||('.', '', '', '', 0.0)||
('several', '', '', '', 0.0)||('factors', '', '', '', 0.0)||('can', '', '', '', 0.0)||('affect', 'verb', 'C0001721', ['menp'], 0.0)||('the', '', '', '', 0.0)||('prevalence', 'noun', 'C0033105', ['qnco'], 0.0)||('of', '', '', '', 0.0)||('microalbuminuria', 'noun', 'C0730345', ['dsyn'], 0.0)||('in', '', '', '', 0.0)||('hypertension', 'noun', 'C0020538', ['dsyn'], 0.0)||(',', '', '', '', 0.0)||('including', '', '', '', 0.0)||('severity', 'noun', 'C0439793', ['qlco'], 0.0)||('of', '', '', '', 0.0)||('the', '', '', '', 0.0)||('disease', 'noun', 'C0012634', ['dsyn'], 0.0)||(',', '', '', '', 0.0)||('selection', 'noun', 'C0036576', ['genf'], 0.0)||('procedures', 'noun', 'C0025664', ['inpr'], 0.0)||(',', '', '', '', 0.0)||('concomitant', 'adj', 'C0521115', ['tmco'], 0.0)||('risk factors', 'noun', 'C0035648', ['qnco'], 0.0)||(',', '', '', '', 0.0)||('degree', 'noun', 'C0441889', ['qlco'], 0.0)||('of', '', '', '', 0.0)||('obesity', 'noun', 'C0028754', ['dsyn'], 0.0)||(',', '', '', '', 0.0)||('age', 'noun', 'C0001779', ['orga'], 0.0)||(',', '', '', '', 0.0)||('and', '', '', '', 0.0)||('sex', 'noun', 'C0036864', ['bhvr'], 0.0)||('distribution', 'noun', 'C0520511', ['idcn'], 0.0)||('.', '', '', '', 0.0)||
('this', '', '', '', 0.0)||('accounts', '', '', '', 0.0)||('for', '', '', '', 0.0)||('the', '', '', '', 0.0)||('large', 'adj', 'C0549177', ['qnco'], 0.0)||('differences', '', '', '', 0.0)||('in', '', '', '', 0.0)||('the', '', '', '', 0.0)||('prevalence', 'noun', 'C0033105', ['qnco'], 0.0)||('of', '', '', '', 0.0)||('microalbuminuria', 'noun', 'C0730345', ['dsyn'], 0.0)||('that', '', '', '', 0.0)||('can', '', '', '', 0.0)||('be', '', '', '', 0.0)||('found', '', '', '', 0.0)||('in', '', '', '', 0.0)||('the', '', '', '', 0.0)||('literature', 'noun', 'C0023866', ['inpr'], 0.0)||(',', '', '', '', 0.0)||('with', '', '', '', 0.0)||('prevalence rates', '', '', '', 0.0)||('going', '', '', '', 0.0)||('from', '', '', '', 0.0)||('a', '', '', '', 0.0)||('low', 'adj', 'C0205251', ['qlco'], 0.0)||('of', '', '', '', 0.0)||('4 . 7 %', '', '', '', 0.0)||('to', '', '', '', 0.0)||('a', '', '', '', 0.0)||('high', 'adj', 'C0205250', ['qlco'], 0.0)||('of', '', '', '', 0.0)||('40 %', '', '', '', 0.0)||('.', '', '', '', 0.0)||
('there', '', '', '', 0.0)||('is', '', '', '', 0.0)||('still', '', '', '', 0.0)||('conflict', 'verb', 'C0009671', ['inbe'], 0.0)||('over', 'adv', 'C0205136', ['spco'], 0.0)||('whether', '', '', '', 0.0)||('microalbuminuria', 'noun', 'C0730345', ['dsyn'], 0.0)||('in', '', '', '', 0.0)||('hypertension', 'noun', 'C0020538', ['dsyn'], 0.0)||('is', '', '', '', 0.0)||('due to', '', '', '', 0.0)||('increased', 'adj', 'C0205217', ['qnco'], 0.0)||('intraglomerular', '', '', '', 0.0)||('pressure', 'noun', 'C0033095', ['phpr'], 0.0)||('or', '', '', '', 0.0)||('to', '', '', '', 0.0)||('glomerular', 'adj', 'C0022663', ['bpoc'], 0.0)||('damage', 'noun', 'C0010957', ['inpo'], 0.0)||('.', '', '', '', 0.0)||
('the', '', '', '', 0.0)||('data', 'noun', 'C1511726', ['idcn'], 0.0)||('from', '', '', '', 0.0)||('the', '', '', '', 0.0)||('literature', 'noun', 'C0023866', ['inpr'], 0.0)||('suggest', 'verb', 'C1705535', ['idcn'], 0.0)||('that', '', '', '', 0.0)||('in', '', '', '', 0.0)||('subjects', '', '', '', 0.0)||('with', '', '', '', 0.0)||('mild', 'adj', 'C0547040', ['qlco'], 0.0)||('hypertension', 'noun', 'C0020538', ['dsyn'], 0.0)||('the', '', '', '', 0.0)||('main', 'adj', 'C0205225', ['qlco'], 0.0)||('determinant', 'noun', 'C1521761', ['ftcn'], 0.0)||('of', '', '', '', 0.0)||('albumin excretion rate', 'noun', 'C0585937', ['lbpr'], 0.0)||('is', '', '', '', 0.0)||('the', '', '', '', 0.0)||('haemodynamic', '', '', '', 0.0)||('load', 'noun', 'C1550025', ['idcn'], 0.0)||('.', '', '', '', 0.0)||
('in', '', '', '', 0.0)||('subjects', '', '', '', 0.0)||('with', '', '', '', 0.0)||('more', '', '', '', 0.0)||('severe', 'adj', 'C0205082', ['qlco'], 0.0)||('hypertension', 'noun', 'C0020538', ['dsyn'], 0.0)||('and', '', '', '', 0.0)||('hypertensive', 'adj', 'C0857121', ['fndg'], 0.0)||('complications', 'noun', 'C0009566', ['patf'], 0.0)||(',', '', '', '', 0.0)||('the', '', '', '', 0.0)||('augmented', 'adj', 'C0205217', ['qnco'], 0.0)||('urinary', 'adj', 'C0042027', ['bpoc'], 0.0)||('albumin', 'noun', 'C0001924', ['aapp', 'bacs'], 0.0)||('leak', 'noun', 'C1881366', ['phpr'], 0.0)||('is', '', '', '', 0.0)||('probably', 'adv', 'C0750492', ['idcn'], 0.0)||('the', '', '', '', 0.0)||('consequence', 'noun', 'C0686907', ['ftcn'], 0.0)||('of', '', '', '', 0.0)||('a', '', '', '', 0.0)||('systemic', 'adj', 'C0205373', ['ftcn'], 0.0)||('microvascular', 'adj', 'C0443258', ['ftcn'], 0.0)||('disturbance', 'noun', 'C2699787', ['qlco'], 0.0)||('which', '', '', '', 0.0)||('involves', '', '', '', 0.0)||('the', '', '', '', 0.0)||('glomeruli', '', '', '', 0.0)||('.', '', '', '', 0.0)||
('in', '', '', '', 0.0)||('this', '', '', '', 0.0)||('respect', 'noun', 'C0679133', ['socb'], 0.0)||(',', '', '', '', 0.0)||('the', '', '', '', 0.0)||('insulin resistance', 'noun', 'C0021655', ['patf'], 0.0)||('state', 'verb', 'C1301808', ['geoa'], 0.0)||('often', 'adv', 'C0332183', ['tmco'], 0.0)||('associated', 'verb', 'C0332281', ['qlco'], 0.0)||('to', '', '', '', 0.0)||('high blood pressure', '', '', '', 0.0)||('appears', '', '', '', 0.0)||('as', '', '', '', 0.0)||('one', 'noun', 'C0205447', ['qnco'], 0.0)||('of', '', '', '', 0.0)||('the', '', '', '', 0.0)||('main', 'adj', 'C0205225', ['qlco'], 0.0)||('pathogenetic factors', '', '', '', 0.0)||('.', '', '', '', 0.0)||
('whether', '', '', '', 0.0)||('management', 'noun', 'C0001554', ['ocac'], 0.0)||('of', '', '', '', 0.0)||('hypertensive', 'adj', 'C0857121', ['fndg'], 0.0)||('populations', 'noun', 'C0032659', ['qnco'], 0.0)||('may', '', '', '', 0.0)||('be', '', '', '', 0.0)||('improved', 'verb', 'C0184511', ['qlco'], 0.0)||('by', '', '', '', 0.0)||('monitoring', 'noun', 'C0150369', ['hlca'], 0.0)||('of', '', '', '', 0.0)||('albumin excretion rate', 'noun', 'C0585937', ['lbpr'], 0.0)||('and', '', '', '', 0.0)||('whether', '', '', '', 0.0)||('antihypertensive', 'adj', 'C0003364', ['phsu'], 0.0)||('drugs', 'noun', 'C0013227', ['phsu'], 0.0)||('which', '', '', '', 0.0)||('are', '', '', '', 0.0)||('more', '', '', '', 0.0)||('effective', 'adj', 'C1704419', ['qlco'], 0.0)||('in', '', '', '', 0.0)||('decreasing', 'noun', 'C0442797', ['qlco'], 0.0)||('urinary', 'adj', 'C0042027', ['bpoc'], 0.0)||('albumin', 'noun', 'C0001924', ['aapp', 'bacs'], 0.0)||('can', '', '', '', 0.0)||('be', '', '', '', 0.0)||('more', '', '', '', 0.0)||('beneficial', '', '', '', 0.0)||('in', '', '', '', 0.0)||('patients', 'noun', 'C0030705', ['podg'], 0.0)||('with', '', '', '', 0.0)||('microalbuminuria', 'noun', 'C0730345', ['dsyn'], 0.0)||('remains', '', '', '', 0.0)||('to', '', '', '', 0.0)||('be', '', '', '', 0.0)||('determined', '', '', '', 0.0)||('.', '', '', '', 0.0)||
