('to', '', '', '', 0.0)||('determine', '', '', '', 0.0)||('the', '', '', '', 0.0)||('effects', '', '', '', 0.0)||('and', '', '', '', 0.0)||('toxicity', 'noun', 'C0040539', ['qlco'], 0.0)||('of', '', '', '', 0.0)||('prazosin', 'noun', 'C0032912', ['orch', 'phsu'], 0.0)||('versus', '', '', '', 0.0)||('placebo', 'noun', 'C0032042', ['topp'], 0.0)||('proposed', 'verb', 'C1441414', ['idcn'], 0.0)||('for', '', '', '', 0.0)||('the', '', '', '', 0.0)||('treatment', 'noun', 'C0039798', ['ftcn'], 0.0)||('of', '', '', '', 0.0)||("raynaud ' s phenomenon", '', '', '', 0.0)||('in', '', '', '', 0.0)||('scleroderma', 'noun', 'C0011644', ['dsyn'], 0.0)||('.', '', '', '', 0.0)||
('we', '', '', '', 0.0)||('searched', 'verb', 'C1706202', ['acty'], 0.0)||('the', '', '', '', 0.0)||('cochrane', '', '', '', 0.0)||('controlled', 'adj', 'C2587213', ['ftcn'], 0.0)||('trials', '', '', '', 0.0)||('register', '', '', '', 0.0)||(',', '', '', '', 0.0)||('and', '', '', '', 0.0)||('medline', 'noun', 'C0025141', ['inpr'], 0.0)||('up to', '', '', '', 0.0)||('december', '', '', '', 0.0)||('1996', '', '', '', 0.0)||('using', 'verb', 'C1524063', ['ftcn'], 0.0)||('the', '', '', '', 0.0)||('cochrane', '', '', '', 0.0)||('collaboration', 'noun', 'C0282116', ['acty'], 0.0)||('search', 'noun', 'C1552603', ['idcn'], 0.0)||('strategy', 'noun', 'C0679199', ['menp'], 0.0)||('developed', '', '', '', 0.0)||('by', '', '', '', 0.0)||('dickersin', '', '', '', 0.0)||('et', '', '', '', 0.0)||('al', '', '', '', 0.0)||('.', '', '', '', 0.0)||('(', '', '', '', 0.0)||('1994', '', '', '', 0.0)||(')', '', '', '', 0.0)||('.', '', '', '', 0.0)||
('key words', '', '', '', 0.0)||('included', '', '', '', 0.0)||(':', '', '', '', 0.0)||('raynaud', 'noun', 'C0034734', ['dsyn'], 0.0)||("' s", '', '', '', 0.0)||('or', '', '', '', 0.0)||('vasospasm', 'noun', 'C0042396', ['ortf'], 0.0)||(',', '', '', '', 0.0)||('scleroderma', 'noun', 'C0011644', ['dsyn'], 0.0)||('or', '', '', '', 0.0)||('progressive systemic sclerosis', 'noun', 'C0036421', ['dsyn'], 0.0)||('or', '', '', '', 0.0)||('connective tissue disease', '', '', '', 0.0)||('or', '', '', '', 0.0)||('autoimmune disease', 'noun', 'C0004364', ['dsyn'], 0.0)||('.', '', '', '', 0.0)||
('current', 'adj', 'C0521116', ['tmco'], 0.0)||('contents', 'noun', 'C0456205', ['cnce'], 0.0)||('were', '', '', '', 0.0)||('searched', 'verb', 'C1706202', ['acty'], 0.0)||('up to', '', '', '', 0.0)||('and', '', '', '', 0.0)||('including', '', '', '', 0.0)||('april', '', '', '', 0.0)||('7', '', '', '', 0.0)||(',', '', '', '', 0.0)||('1997', '', '', '', 0.0)||('.', '', '', '', 0.0)||
('all', '', '', '', 0.0)||('bibliographies', '', '', '', 0.0)||('of', '', '', '', 0.0)||('articles', '', '', '', 0.0)||('retrieved', '', '', '', 0.0)||('were', '', '', '', 0.0)||('searched', 'verb', 'C1706202', ['acty'], 0.0)||('and', '', '', '', 0.0)||('key', '', '', '', 0.0)||('experts', '', '', '', 0.0)||('in', '', '', '', 0.0)||('the', '', '', '', 0.0)||('area', 'noun', 'C0017446', ['geoa'], 0.0)||('were', '', '', '', 0.0)||('contacted', '', '', '', 0.0)||('for', '', '', '', 0.0)||('additional', 'adj', 'C1524062', ['ftcn'], 0.0)||('and', '', '', '', 0.0)||('unpublished', '', '', '', 0.0)||('data', 'noun', 'C1511726', ['idcn'], 0.0)||('.', '', '', '', 0.0)||
('the', '', '', '', 0.0)||('initial', 'adj', 'C0205265', ['tmco'], 0.0)||('search', 'noun', 'C1552603', ['idcn'], 0.0)||('strategy', 'noun', 'C0679199', ['menp'], 0.0)||('included', '', '', '', 0.0)||('all', '', '', '', 0.0)||('languages', 'noun', 'C0023008', ['lang'], 0.0)||('.', '', '', '', 0.0)||
('randomized controlled trials', '', '', '', 0.0)||('comparing', '', '', '', 0.0)||('prazosin', 'noun', 'C0032912', ['orch', 'phsu'], 0.0)||('versus', '', '', '', 0.0)||('placebo', 'noun', 'C0032042', ['topp'], 0.0)||('were', '', '', '', 0.0)||('eligible', 'adj', 'C1548635', ['idcn'], 0.0)||('if', '', '', '', 0.0)||('they', '', '', '', 0.0)||('reported', 'verb', 'C0684224', ['inpr'], 0.0)||('clinical', 'adj', 'C0205210', ['qlco'], 0.0)||('outcomes', 'noun', 'C0085415', ['qlco'], 0.0)||('from', '', '', '', 0.0)||('the', '', '', '', 0.0)||('start', 'noun', 'C0439659', ['tmco'], 0.0)||('of', '', '', '', 0.0)||('therapy', 'noun', 'C0039798', ['ftcn'], 0.0)||('.', '', '', '', 0.0)||
('trials', '', '', '', 0.0)||('with', '', '', '', 0.0)||('a', '', '', '', 0.0)||('greater', 'adj', 'C1704243', ['qnco'], 0.0)||('than', '', '', '', 0.0)||('35 %', '', '', '', 0.0)||('dropout', 'noun', 'C0013135', ['popg'], 0.0)||('were', '', '', '', 0.0)||('excluded', 'verb', 'C1554077', ['idcn'], 0.0)||('.', '', '', '', 0.0)||
('trials', '', '', '', 0.0)||('were', '', '', '', 0.0)||('included', '', '', '', 0.0)||('if', '', '', '', 0.0)||('patients', 'noun', 'C0030705', ['podg'], 0.0)||('with', '', '', '', 0.0)||('diffuse', 'adj', 'C0205219', ['qlco'], 0.0)||('or', '', '', '', 0.0)||('limited', 'adj', 'C0439801', ['ftcn'], 0.0)||('scleroderma', 'noun', 'C0011644', ['dsyn'], 0.0)||('were', '', '', '', 0.0)||('the', '', '', '', 0.0)||('subjects', '', '', '', 0.0)||('.', '', '', '', 0.0)||
('if', '', '', '', 0.0)||('patients', 'noun', 'C0030705', ['podg'], 0.0)||('with', '', '', '', 0.0)||('other', '', '', '', 0.0)||('connective tissue diseases', 'noun', 'C0009782', ['dsyn'], 0.0)||('or', '', '', '', 0.0)||('primary', 'adj', 'C0205225', ['qlco'], 0.0)||('raynaud', 'noun', 'C0034734', ['dsyn'], 0.0)||("' s", '', '', '', 0.0)||('were', '', '', '', 0.0)||('included', '', '', '', 0.0)||(',', '', '', '', 0.0)||('the', '', '', '', 0.0)||('trial', 'noun', 'C0008976', ['resa'], 0.0)||('was', '', '', '', 0.0)||('used', '', '', '', 0.0)||('if', '', '', '', 0.0)||('the', '', '', '', 0.0)||('data', 'noun', 'C1511726', ['idcn'], 0.0)||('on', '', '', '', 0.0)||('the', '', '', '', 0.0)||('scleroderma', 'noun', 'C0011644', ['dsyn'], 0.0)||('patients', 'noun', 'C0030705', ['podg'], 0.0)||('could', '', '', '', 0.0)||('be', '', '', '', 0.0)||('extracted', 'verb', 'C0185115', ['topp'], 0.0)||('from', '', '', '', 0.0)||('the', '', '', '', 0.0)||('paper', 'noun', 'C0030351', ['mnob'], 0.0)||('.', '', '', '', 0.0)||
('all', '', '', '', 0.0)||('data', 'noun', 'C1511726', ['idcn'], 0.0)||('were', '', '', '', 0.0)||('abstracted', '', '', '', 0.0)||('by', '', '', '', 0.0)||('two', 'adj', 'C0205448', ['qnco'], 0.0)||('independent', 'adj', 'C0085862', ['idcn'], 0.0)||('and', '', '', '', 0.0)||('trained', '', '', '', 0.0)||('reviewers', '', '', '', 0.0)||('(', '', '', '', 0.0)||('df', 'noun', 'C1824729', ['gngm'], 0.0)||(',', '', '', '', 0.0)||('at', '', '', '', 0.0)||(')', '', '', '', 0.0)||(',', '', '', '', 0.0)||('and', '', '', '', 0.0)||('verified', 'verb', 'C1711411', ['ftcn'], 0.0)||('by', '', '', '', 0.0)||('a', '', '', '', 0.0)||('third', 'adj', 'C0205437', ['qnco'], 0.0)||('reviewer', 'noun', 'C1709941', ['qlco'], 0.0)||('(', '', '', '', 0.0)||('jp', 'noun', 'C0022341', ['geoa'], 0.0)||(')', '', '', '', 0.0)||('.', '', '', '', 0.0)||
('each', '', '', '', 0.0)||('trial', 'noun', 'C0008976', ['resa'], 0.0)||('was', '', '', '', 0.0)||('assessed', 'verb', 'C1516048', ['acty'], 0.0)||('independently', '', '', '', 0.0)||('by', '', '', '', 0.0)||('the', '', '', '', 0.0)||('same', 'adj', 'C0445247', ['qlco'], 0.0)||('two', 'noun', 'C0205448', ['qnco'], 0.0)||('reviewers', '', '', '', 0.0)||('for', '', '', '', 0.0)||('its', '', '', '', 0.0)||('quality', 'noun', 'C0332306', ['qlco'], 0.0)||('using', 'verb', 'C1524063', ['ftcn'], 0.0)||('a', '', '', '', 0.0)||('validated', '', '', '', 0.0)||('quality', 'noun', 'C0332306', ['qlco'], 0.0)||('assessment', 'noun', 'C1261322', ['hlca'], 0.0)||('tool', 'noun', 'C0336791', ['mnob'], 0.0)||('(', '', '', '', 0.0)||('jadad', '', '', '', 0.0)||('1996', '', '', '', 0.0)||(')', '', '', '', 0.0)||('.', '', '', '', 0.0)||
('peto', '', '', '', 0.0)||("' s", '', '', '', 0.0)||('odds ratios', 'noun', 'C0028873', ['qnco'], 0.0)||('were', '', '', '', 0.0)||('calculated', 'verb', 'C0444686', ['ftcn'], 0.0)||('for', '', '', '', 0.0)||('all', '', '', '', 0.0)||('dichotomous', '', '', '', 0.0)||('outcomes', 'noun', 'C0085415', ['qlco'], 0.0)||('and', '', '', '', 0.0)||('a', '', '', '', 0.0)||('weighted', '', '', '', 0.0)||('mean difference', '', '', '', 0.0)||('was', '', '', '', 0.0)||('carried', '', '', '', 0.0)||('out', '', '', '', 0.0)||('on', '', '', '', 0.0)||('all', '', '', '', 0.0)||('continuous', 'adj', 'C0549178', ['idcn'], 0.0)||('outcomes', 'noun', 'C0085415', ['qlco'], 0.0)||('.', '', '', '', 0.0)||
('fixed', 'adj', 'C0231441', ['fndg'], 0.0)||('effects', '', '', '', 0.0)||('and', '', '', '', 0.0)||('random effects model', '', '', '', 0.0)||('were', '', '', '', 0.0)||('used', '', '', '', 0.0)||('if', '', '', '', 0.0)||('the', '', '', '', 0.0)||('data', 'noun', 'C1511726', ['idcn'], 0.0)||('was', '', '', '', 0.0)||('homogeneous', 'adj', 'C1881065', ['qlco'], 0.0)||('or', '', '', '', 0.0)||('heterogeneous', 'adj', 'C0019409', ['qlco'], 0.0)||(',', '', '', '', 0.0)||('respectively', '', '', '', 0.0)||('.', '', '', '', 0.0)||
('two', 'adj', 'C0205448', ['qnco'], 0.0)||('trials', '', '', '', 0.0)||('with', '', '', '', 0.0)||('a', '', '', '', 0.0)||('total', 'noun', 'C0439810', ['qlco'], 0.0)||('of', '', '', '', 0.0)||('40', '', '', '', 0.0)||('patients', 'noun', 'C0030705', ['podg'], 0.0)||('were', '', '', '', 0.0)||('included', '', '', '', 0.0)||('.', '', '', '', 0.0)||
('prazosin', 'noun', 'C0032912', ['orch', 'phsu'], 0.0)||('has', '', '', '', 0.0)||('been', '', '', '', 0.0)||('found', '', '', '', 0.0)||('in', '', '', '', 0.0)||('two', 'noun', 'C0205448', ['qnco'], 0.0)||('randomized', 'verb', 'C0034656', ['resa'], 0.0)||('controlled', 'adj', 'C2587213', ['ftcn'], 0.0)||('cross - over trials', '', '', '', 0.0)||('to', '', '', '', 0.0)||('be', '', '', '', 0.0)||('more', '', '', '', 0.0)||('effective', 'adj', 'C1704419', ['qlco'], 0.0)||('than', '', '', '', 0.0)||('placebo', 'noun', 'C0032042', ['topp'], 0.0)||('in', '', '', '', 0.0)||('the', '', '', '', 0.0)||('treatment', 'noun', 'C0039798', ['ftcn'], 0.0)||('of', '', '', '', 0.0)||('raynaud', 'noun', 'C0034734', ['dsyn'], 0.0)||("' s", '', '', '', 0.0)||('secondary', 'adj', 'C0175668', ['tmco'], 0.0)||('to', '', '', '', 0.0)||('scleroderma', 'noun', 'C0011644', ['dsyn'], 0.0)||('.', '', '', '', 0.0)||
('however', '', '', '', 0.0)||(',', '', '', '', 0.0)||('the', '', '', '', 0.0)||('positive', 'adj', 'C1446409', ['qlco'], 0.0)||('response', 'noun', 'C0871261', ['clna'], 0.0)||('is', '', '', '', 0.0)||('modest', '', '', '', 0.0)||('and', '', '', '', 0.0)||('side effects', 'noun', 'C0001688', ['ftcn'], 0.0)||('are', '', '', '', 0.0)||('not', 'adv', 'C1518422', ['ftcn'], 0.0)||('rare', 'adj', 'C0521114', ['tmco'], 0.0)||('in', '', '', '', 0.0)||('those', '', '', '', 0.0)||('taking', '', '', '', 0.0)||('prazosin', 'noun', 'C0032912', ['orch', 'phsu'], 0.0)||('.', '', '', '', 0.0)||
('prazosin', 'noun', 'C0032912', ['orch', 'phsu'], 0.0)||('is', '', '', '', 0.0)||('modestly', '', '', '', 0.0)||('effective', 'adj', 'C1704419', ['qlco'], 0.0)||('in', '', '', '', 0.0)||('the', '', '', '', 0.0)||('treatment', 'noun', 'C0039798', ['ftcn'], 0.0)||('of', '', '', '', 0.0)||("raynaud ' s phenomenon", '', '', '', 0.0)||('secondary', 'adj', 'C0175668', ['tmco'], 0.0)||('to', '', '', '', 0.0)||('scleroderma', 'noun', 'C0011644', ['dsyn'], 0.0)||('.', '', '', '', 0.0)||
