('a', '', '', '', 0.0)||('large', 'adj', 'C0549177', ['qnco'], 0.0)||('rct', '', '', '', 0.0)||('has', '', '', '', 0.0)||('addressed', '', '', '', 0.0)||('whether', '', '', '', 0.0)||('combining', '', '', '', 0.0)||('the', '', '', '', 0.0)||('nasal', 'adj', 'C0028429', ['bpoc'], 0.0)||('steroids', 'noun', 'C0038317', ['strd'], 0.0)||('and', '', '', '', 0.0)||('nonsedating', '', '', '', 0.0)||('antihistamines', 'noun', 'C0003360', ['orch', 'phsu'], 0.0)||('would', '', '', '', 0.0)||('achieve', '', '', '', 0.0)||('greater', 'adj', 'C1704243', ['qnco'], 0.0)||('symptom control', 'noun', 'C1274136', ['topp'], 0.0)||('.', '', '', '', 0.0)||
('the', '', '', '', 0.0)||('study', 'noun', 'C0008976', ['resa'], 0.0)||('found', '', '', '', 0.0)||('combination', 'noun', 'C0205195', ['qlco'], 0.0)||('therapy', 'noun', 'C0039798', ['ftcn'], 0.0)||('to', '', '', '', 0.0)||('be', '', '', '', 0.0)||('superior', 'adj', 'C1282910', ['spco'], 0.0)||('.', '', '', '', 0.0)||
('this', '', '', '', 0.0)||('rct', '', '', '', 0.0)||('compared', 'verb', 'C1707455', ['acty'], 0.0)||('beclomethasone dipropionate', 'noun', 'C0004906', ['phsu', 'strd'], 0.0)||('with', '', '', '', 0.0)||('loratadine', 'noun', 'C0065180', ['orch', 'phsu'], 0.0)||('or', '', '', '', 0.0)||('placebo', 'noun', 'C0032042', ['topp'], 0.0)||('daily', 'adv', 'C0332173', ['tmco'], 0.0)||('in', '', '', '', 0.0)||('154', '', '', '', 0.0)||('patients', 'noun', 'C0030705', ['podg'], 0.0)||('.', '', '', '', 0.0)||
('total symptom scores', '', '', '', 0.0)||('were', '', '', '', 0.0)||('better', 'adj', 'C0332272', ['qlco'], 0.0)||('for', '', '', '', 0.0)||('the', '', '', '', 0.0)||('combination', 'noun', 'C0205195', ['qlco'], 0.0)||('group', 'noun', 'C0441833', ['idcn'], 0.0)||('mainly', '', '', '', 0.0)||('due to', '', '', '', 0.0)||('improved', 'adj', 'C0184511', ['qlco'], 0.0)||('relief', 'noun', 'C0564405', ['fndg'], 0.0)||('from', '', '', '', 0.0)||('ocular', 'adj', 'C1299003', ['spco'], 0.0)||('symptoms', 'noun', 'C0683368', ['ftcn'], 0.0)||('.', '', '', '', 0.0)||
