('few', '', '', '', 0.0)||('data', 'noun', 'C1511726', ['idcn'], 0.0)||('have', '', '', '', 0.0)||('been', '', '', '', 0.0)||('published', 'verb', 'C0034037', ['ocac'], 0.0)||('recently', 'adv', 'C0332185', ['tmco'], 0.0)||('on', '', '', '', 0.0)||('the', '', '', '', 0.0)||('etiology', 'noun', 'C0015127', ['ftcn'], 0.0)||('of', '', '', '', 0.0)||('outpatient', 'adj', 'C0029921', ['podg'], 0.0)||('pediatric', 'adj', 'C1521725', ['qlco'], 0.0)||('diarrhea', 'noun', 'C1963091', ['fndg'], 0.0)||('in', '', '', '', 0.0)||('the', '', '', '', 0.0)||('us', '', '', '', 0.0)||('.', '', '', '', 0.0)||
('we', '', '', '', 0.0)||('determined', '', '', '', 0.0)||('the', '', '', '', 0.0)||('etiology', 'noun', 'C0015127', ['ftcn'], 0.0)||('of', '', '', '', 0.0)||('acute', 'adj', 'C0205178', ['tmco'], 0.0)||(',', '', '', '', 0.0)||('nondysenteric', '', '', '', 0.0)||('diarrhea', 'noun', 'C1963091', ['fndg'], 0.0)||('among', '', '', '', 0.0)||('147', '', '', '', 0.0)||('children', 'noun', 'C0008059', ['aggp'], 0.0)||('between', '', '', '', 0.0)||('2', '', '', '', 0.0)||('and', '', '', '', 0.0)||('11', '', '', '', 0.0)||('years', 'noun', 'C0439234', ['tmco'], 0.0)||('old', 'adj', 'C0580836', ['tmco'], 0.0)||('presenting', 'noun', 'C0449450', ['idcn'], 0.0)||('to', '', '', '', 0.0)||('9', '', '', '', 0.0)||('outpatient', 'adj', 'C0029921', ['podg'], 0.0)||('clinics', 'noun', 'C0442592', ['hcro', 'mnob'], 0.0)||('in', '', '', '', 0.0)||('various', 'adj', 'C0440102', ['irda'], 0.0)||('regions', '', '', '', 0.0)||('of', '', '', '', 0.0)||('the', '', '', '', 0.0)||('us', '', '', '', 0.0)||('between', '', '', '', 0.0)||('august', '', '', '', 0.0)||(',', '', '', '', 0.0)||('1991', '', '', '', 0.0)||(',', '', '', '', 0.0)||('and', '', '', '', 0.0)||('august', '', '', '', 0.0)||(',', '', '', '', 0.0)||('1993', '', '', '', 0.0)||('.', '', '', '', 0.0)||
('enteropathogens', '', '', '', 0.0)||('were', '', '', '', 0.0)||('sought', '', '', '', 0.0)||('by', '', '', '', 0.0)||('conventional', 'adj', 'C0439858', ['qlco'], 0.0)||('laboratory methods', '', '', '', 0.0)||('.', '', '', '', 0.0)||
('the', '', '', '', 0.0)||('various', 'adj', 'C0440102', ['irda'], 0.0)||('diarrheagenic', '', '', '', 0.0)||('escherichia coli', 'noun', 'C0014834', ['bact'], 0.0)||('were', '', '', '', 0.0)||('sought', '', '', '', 0.0)||('.', '', '', '', 0.0)||
('a', '', '', '', 0.0)||('recognized', '', '', '', 0.0)||('etiologic', '', '', '', 0.0)||('agent', 'noun', 'C0450442', ['chvf'], 0.0)||('was', '', '', '', 0.0)||('detected', 'verb', 'C0442726', ['fndg'], 0.0)||('in', '', '', '', 0.0)||('the', '', '', '', 0.0)||('stools', 'noun', 'C0015733', ['bdsu'], 0.0)||('of', '', '', '', 0.0)||('89', '', '', '', 0.0)||('(', '', '', '', 0.0)||('60 . 5 %', '', '', '', 0.0)||(')', '', '', '', 0.0)||('children', 'noun', 'C0008059', ['aggp'], 0.0)||('and', '', '', '', 0.0)||('15', '', '', '', 0.0)||('(', '', '', '', 0.0)||('10', '', '', '', 0.0)||(')', '', '', '', 0.0)||('patients', 'noun', 'C0030705', ['podg'], 0.0)||('had', '', '', '', 0.0)||('multiple', 'adj', 'C0439064', ['qnco'], 0.0)||('agents', '', '', '', 0.0)||('detected', 'verb', 'C0442726', ['fndg'], 0.0)||('.', '', '', '', 0.0)||
('rotavirus', 'noun', 'C0035870', ['virs'], 0.0)||('was', '', '', '', 0.0)||('found', '', '', '', 0.0)||('in', '', '', '', 0.0)||('43', '', '', '', 0.0)||('(', '', '', '', 0.0)||('29 . 3 %', '', '', '', 0.0)||(')', '', '', '', 0.0)||('of', '', '', '', 0.0)||('the', '', '', '', 0.0)||('children', 'noun', 'C0008059', ['aggp'], 0.0)||(',', '', '', '', 0.0)||('with', '', '', '', 0.0)||('a', '', '', '', 0.0)||('spring', 'noun', 'C0241232', ['tmco'], 0.0)||('and', '', '', '', 0.0)||('winter', 'noun', 'C0241737', ['tmco'], 0.0)||('peak', 'noun', 'C0444505', ['qnco'], 0.0)||('in', '', '', '', 0.0)||('occurrence', 'noun', 'C0243132', ['qnco'], 0.0)||('.', '', '', '', 0.0)||
('giardia lamblia', 'noun', 'C0017535', ['euka'], 0.0)||('was', '', '', '', 0.0)||('identified', 'verb', 'C0205396', ['qlco'], 0.0)||('in', '', '', '', 0.0)||('22', '', '', '', 0.0)||('(', '', '', '', 0.0)||('15 %', '', '', '', 0.0)||(')', '', '', '', 0.0)||('cases', 'noun', 'C0868928', ['ftcn'], 0.0)||('with', '', '', '', 0.0)||('a', '', '', '', 0.0)||('spring', 'noun', 'C0241232', ['tmco'], 0.0)||('peak', 'noun', 'C0444505', ['qnco'], 0.0)||('.', '', '', '', 0.0)||
('hep', '', '', '', 0.0)||('-', '', '', '', 0.0)||('2 cell', '', '', '', 0.0)||('-', '', '', '', 0.0)||('adherent', 'adj', 'C0334154', ['ftcn'], 0.0)||('e', '', '', '', 0.0)||('.', '', '', '', 0.0)||
('coli', '', '', '', 0.0)||('were', '', '', '', 0.0)||('found', '', '', '', 0.0)||('in', '', '', '', 0.0)||('15', '', '', '', 0.0)||('(', '', '', '', 0.0)||('10 . 2 %', '', '', '', 0.0)||(')', '', '', '', 0.0)||('.', '', '', '', 0.0)||
('other', '', '', '', 0.0)||('agents', '', '', '', 0.0)||('found', '', '', '', 0.0)||('included', '', '', '', 0.0)||(':', '', '', '', 0.0)||('enteric adenovirus', '', '', '', 0.0)||('in', '', '', '', 0.0)||('7', '', '', '', 0.0)||('(', '', '', '', 0.0)||('4 . 8 %', '', '', '', 0.0)||(')', '', '', '', 0.0)||(';', '', '', '', 0.0)||
('salmonella', 'noun', 'C0036111', ['bact'], 0.0)||('in', '', '', '', 0.0)||('5', '', '', '', 0.0)||('(', '', '', '', 0.0)||('3 . 4 %', '', '', '', 0.0)||(')', '', '', '', 0.0)||(';', '', '', '', 0.0)||
('enterohemorrhagic', '', '', '', 0.0)||('e', '', '', '', 0.0)||('.', '', '', '', 0.0)||
('coli', '', '', '', 0.0)||('in', '', '', '', 0.0)||('5', '', '', '', 0.0)||('(', '', '', '', 0.0)||('3 . 4 %', '', '', '', 0.0)||(')', '', '', '', 0.0)||(';', '', '', '', 0.0)||
('enteropathogenic', 'adj', 'C0444749', ['qlco'], 0.0)||('e', '', '', '', 0.0)||('.', '', '', '', 0.0)||
('coli', '', '', '', 0.0)||('in', '', '', '', 0.0)||('2', '', '', '', 0.0)||('(', '', '', '', 0.0)||('1 . 4 %', '', '', '', 0.0)||(')', '', '', '', 0.0)||(';', '', '', '', 0.0)||
('enterotoxigenic', '', '', '', 0.0)||('e', '', '', '', 0.0)||('.', '', '', '', 0.0)||
('coli', '', '', '', 0.0)||('in', '', '', '', 0.0)||('2', '', '', '', 0.0)||('(', '', '', '', 0.0)||('1 . 4 %', '', '', '', 0.0)||(')', '', '', '', 0.0)||(';', '', '', '', 0.0)||
('entamoeba histolytica', '', '', '', 0.0)||('in', '', '', '', 0.0)||('1', '', '', '', 0.0)||('(', '', '', '', 0.0)||('0 . 70 %', '', '', '', 0.0)||(')', '', '', '', 0.0)||(';', '', '', '', 0.0)||
('and', '', '', '', 0.0)||('campylobacter jejuni', 'noun', 'C0006819', ['bact'], 0.0)||('in', '', '', '', 0.0)||('1', '', '', '', 0.0)||('(', '', '', '', 0.0)||('0 . 7 %', '', '', '', 0.0)||(')', '', '', '', 0.0)||('.', '', '', '', 0.0)||
('in', '', '', '', 0.0)||('addition', 'noun', 'C1883712', ['ftcn'], 0.0)||('to', '', '', '', 0.0)||('the', '', '', '', 0.0)||('presence', 'noun', 'C0392148', ['topp'], 0.0)||('of', '', '', '', 0.0)||('conventional', 'adj', 'C0439858', ['qlco'], 0.0)||('enteropathogens', '', '', '', 0.0)||(',', '', '', '', 0.0)||('diarrheagenic', '', '', '', 0.0)||('e', '', '', '', 0.0)||('.', '', '', '', 0.0)||
('coli', '', '', '', 0.0)||('(', '', '', '', 0.0)||('hep', '', '', '', 0.0)||('-', '', '', '', 0.0)||('2 cell', '', '', '', 0.0)||('-', '', '', '', 0.0)||('adherent', 'adj', 'C0334154', ['ftcn'], 0.0)||('e', '', '', '', 0.0)||('.', '', '', '', 0.0)||('coli', '', '', '', 0.0)||(',', '', '', '', 0.0)||('enterohemorrhagic', '', '', '', 0.0)||('e', '', '', '', 0.0)||('.', '', '', '', 0.0)||('coli', '', '', '', 0.0)||(',', '', '', '', 0.0)||('enteropathogenic', 'adj', 'C0444749', ['qlco'], 0.0)||('e', '', '', '', 0.0)||('.', '', '', '', 0.0)||('coli', '', '', '', 0.0)||('and', '', '', '', 0.0)||('enterotoxigenic', '', '', '', 0.0)||('e', '', '', '', 0.0)||('.', '', '', '', 0.0)||('coli', '', '', '', 0.0)||(')', '', '', '', 0.0)||('were', '', '', '', 0.0)||('associated', 'verb', 'C0332281', ['qlco'], 0.0)||('with', '', '', '', 0.0)||('endemic', '', '', '', 0.0)||('pediatric', 'adj', 'C1521725', ['qlco'], 0.0)||('diarrhea', 'noun', 'C1963091', ['fndg'], 0.0)||('in', '', '', '', 0.0)||('the', '', '', '', 0.0)||('us', '', '', '', 0.0)||('.', '', '', '', 0.0)||
