('limited', 'adj', 'C0439801', ['ftcn'], 0.0)||('evidence', 'noun', 'C0332120', ['ftcn'], 0.0)||('delineates', '', '', '', 0.0)||('the', '', '', '', 0.0)||('relative', 'adj', 'C0080103', ['famg'], 0.0)||('probabilities', 'noun', 'C0033204', ['qnco'], 0.0)||('of', '', '', '', 0.0)||('causes', 'noun', 'C0015127', ['ftcn'], 0.0)||('of', '', '', '', 0.0)||('acute', 'adj', 'C0205178', ['tmco'], 0.0)||('diarrhea', 'noun', 'C1963091', ['fndg'], 0.0)||(',', '', '', '', 0.0)||('typically', '', '', '', 0.0)||('defined', 'verb', 'C1704788', ['cnce'], 0.0)||('as', '', '', '', 0.0)||('a', '', '', '', 0.0)||('diarrheal', '', '', '', 0.0)||('disease', 'noun', 'C0012634', ['dsyn'], 0.0)||('lasting', '', '', '', 0.0)||('14', '', '', '', 0.0)||('days', 'noun', 'C0439228', ['tmco'], 0.0)||('or', '', '', '', 0.0)||('fewer', '', '', '', 0.0)||(',', '', '', '', 0.0)||('in', '', '', '', 0.0)||('the', '', '', '', 0.0)||('developed', '', '', '', 0.0)||('world', 'noun', 'C2700280', ['popg'], 0.0)||('.', '', '', '', 0.0)||
('viruses', 'noun', 'C0042776', ['virs'], 0.0)||('(', '', '', '', 0.0)||('rotavirus', 'noun', 'C0035870', ['virs'], 0.0)||(',', '', '', '', 0.0)||('norwalk', '', '', '', 0.0)||(',', '', '', '', 0.0)||('and', '', '', '', 0.0)||('other', '', '', '', 0.0)||('enteric viruses', '', '', '', 0.0)||(')', '', '', '', 0.0)||('are', '', '', '', 0.0)||('responsible', 'adj', 'C1273518', ['fndg'], 0.0)||('for', '', '', '', 0.0)||('most', '', '', '', 0.0)||('cases', 'noun', 'C0868928', ['ftcn'], 0.0)||('.', '', '', '', 0.0)||
('stool culture', 'noun', 'C0430414', ['lbpr'], 0.0)||('helps', '', '', '', 0.0)||('to', '', '', '', 0.0)||('identify', '', '', '', 0.0)||('bacterial', 'adj', 'C0521009', ['qlco'], 0.0)||('causes', 'noun', 'C0015127', ['ftcn'], 0.0)||('(', '', '', '', 0.0)||('salmonella', 'noun', 'C0036111', ['bact'], 0.0)||(',', '', '', '', 0.0)||('shigella', 'noun', 'C0013371', ['dsyn'], 0.0)||(',', '', '', '', 0.0)||('enterotoxic', 'adj', 'C0444750', ['inpr'], 0.0)||('escherichia coli', 'noun', 'C0014834', ['bact'], 0.0)||(')', '', '', '', 0.0)||(',', '', '', '', 0.0)||('especially', '', '', '', 0.0)||('in', '', '', '', 0.0)||('patients', 'noun', 'C0030705', ['podg'], 0.0)||('with', '', '', '', 0.0)||('fever', 'noun', 'C0015967', ['fndg'], 0.0)||('and', '', '', '', 0.0)||('bloody', '', '', '', 0.0)||('stool', 'noun', 'C0015733', ['bdsu'], 0.0)||('.', '', '', '', 0.0)||
('a', '', '', '', 0.0)||('modified', 'adj', 'C0205349', ['ftcn'], 0.0)||('3', '', '', '', 0.0)||('-', '', '', '', 0.0)||('day', 'noun', 'C0439228', ['tmco'], 0.0)||('rule', 'noun', 'C0805874', ['idcn'], 0.0)||('(', '', '', '', 0.0)||('eg', 'noun', 'C0013715', ['geoa'], 0.0)||(',', '', '', '', 0.0)||('performing', 'verb', 'C1999219', ['ftcn'], 0.0)||('only', '', '', '', 0.0)||('clostridium difficile', 'noun', 'C0079134', ['bact'], 0.0)||('toxin', 'noun', 'C0040549', ['bacs', 'hops'], 0.0)||('tests', 'verb', 'C0022885', ['lbpr'], 0.0)||('on', '', '', '', 0.0)||('low - risk', '', '', '', 0.0)||('patients', 'noun', 'C0030705', ['podg'], 0.0)||('who', '', '', '', 0.0)||('have', '', '', '', 0.0)||('been', '', '', '', 0.0)||('hospitalized', 'verb', 'C0701159', ['fndg'], 0.0)||('for', '', '', '', 0.0)||('3', '', '', '', 0.0)||('or', '', '', '', 0.0)||('more', '', '', '', 0.0)||('days', 'noun', 'C0439228', ['tmco'], 0.0)||(')', '', '', '', 0.0)||('leads', 'verb', 'C0181586', ['medd'], 0.0)||('to', '', '', '', 0.0)||('a', '', '', '', 0.0)||('more', '', '', '', 0.0)||('rational', '', '', '', 0.0)||('use', 'noun', 'C0042153', ['ftcn'], 0.0)||('of', '', '', '', 0.0)||('stool cultures', '', '', '', 0.0)||('without', '', '', '', 0.0)||('missing', 'adj', 'C1551393', ['idcn'], 0.0)||('cases', 'noun', 'C0868928', ['ftcn'], 0.0)||('of', '', '', '', 0.0)||('clinically', '', '', '', 0.0)||('significant', 'adj', 'C0750502', ['idcn'], 0.0)||('disease', 'noun', 'C0012634', ['dsyn'], 0.0)||('.', '', '', '', 0.0)||
