('as', '', '', '', 0.0)||('part', 'noun', 'C0449719', ['spco'], 0.0)||('of', '', '', '', 0.0)||('the', '', '', '', 0.0)||('myocardial infarction', 'noun', 'C0027051', ['dsyn'], 0.0)||('triage', 'noun', 'C0040861', ['topp'], 0.0)||('and', '', '', '', 0.0)||('intervention', 'noun', 'C1273869', ['hlca'], 0.0)||('project', 'noun', 'C1709701', ['cnce'], 0.0)||(',', '', '', '', 0.0)||('the', '', '', '', 0.0)||('investigators', 'noun', 'C0035173', ['prog'], 0.0)||('found', '', '', '', 0.0)||('that', '', '', '', 0.0)||('when', '', '', '', 0.0)||('compared', 'verb', 'C1707455', ['acty'], 0.0)||('with', '', '', '', 0.0)||('a', '', '', '', 0.0)||('single', 'adj', 'C0037179', ['popg'], 0.0)||('ecg', 'noun', 'C0018064', ['aapp', 'horm', 'phsu'], 0.0)||(',', '', '', '', 0.0)||('serial', 'adj', 'C0031082', ['inpr', 'mnob'], 0.0)||('exams', '', '', '', 0.0)||('increased', 'verb', 'C0205217', ['qnco'], 0.0)||('the', '', '', '', 0.0)||('diagnostic', 'adj', 'C0011900', ['fndg'], 0.0)||('sensitivity', 'noun', 'C0036667', ['qnco'], 0.0)||('for', '', '', '', 0.0)||('acute coronary syndrome', 'noun', 'C0948089', ['dsyn'], 0.0)||('from', '', '', '', 0.0)||('~', '', '', '', 0.0)||('34 %', '', '', '', 0.0)||('to', '', '', '', 0.0)||('46 %', '', '', '', 0.0)||('with', '', '', '', 0.0)||('a', '', '', '', 0.0)||('reduction', 'noun', 'C0301630', ['npop'], 0.0)||('in', '', '', '', 0.0)||('specificity', 'noun', 'C0037791', ['qnco'], 0.0)||('from', '', '', '', 0.0)||('96 %', '', '', '', 0.0)||('to', '', '', '', 0.0)||('93 %', '', '', '', 0.0)||('and', '', '', '', 0.0)||('positive predictive value', '', '', '', 0.0)||('from', '', '', '', 0.0)||('88 %', '', '', '', 0.0)||('to', '', '', '', 0.0)||('84 %', '', '', '', 0.0)||('.', '', '', '', 0.0)||
('this', '', '', '', 0.0)||('particular', '', '', '', 0.0)||('study', 'noun', 'C0008976', ['resa'], 0.0)||('was', '', '', '', 0.0)||('unusual', 'adj', 'C2700116', ['qlco'], 0.0)||('in', '', '', '', 0.0)||('that', '', '', '', 0.0)||('it', '', '', '', 0.0)||('used', '', '', '', 0.0)||('the', '', '', '', 0.0)||('hospital', 'noun', 'C0019994', ['hcro', 'mnob'], 0.0)||('discharge diagnosis', 'noun', 'C1555319', ['inpr'], 0.0)||('to', '', '', '', 0.0)||('define', '', '', '', 0.0)||('the', '', '', '', 0.0)||('outcome', 'noun', 'C1274040', ['ftcn'], 0.0)||('.', '', '', '', 0.0)||
('in', '', '', '', 0.0)||('most', '', '', '', 0.0)||('other', '', '', '', 0.0)||('studies', '', '', '', 0.0)||(',', '', '', '', 0.0)||('cardiac', 'adj', 'C0018787', ['bpoc'], 0.0)||('enzymes', 'noun', 'C0014442', ['enzy', 'orch'], 0.0)||('were', '', '', '', 0.0)||('used', '', '', '', 0.0)||('as', '', '', '', 0.0)||('the', '', '', '', 0.0)||('gold', 'adj', 'C0018026', ['elii', 'phsu'], 0.0)||('standard', 'noun', 'C1442989', ['ftcn'], 0.0)||('for', '', '', '', 0.0)||('defining', '', '', '', 0.0)||('outcome', 'noun', 'C1274040', ['ftcn'], 0.0)||('.', '', '', '', 0.0)||
