('the', '', '', '', 0.0)||('epworth sleepiness scale', '', '', '', 0.0)||('is', '', '', '', 0.0)||('a', '', '', '', 0.0)||('self - administered', '', '', '', 0.0)||('eight', '', 'C0205454', ['qnco'], 0.0)||('-', '', '', '', 0.0)||('item', 'noun', 'C1551338', ['enty'], 0.0)||('questionnaire', 'noun', 'C0034394', ['inpr'], 0.0)||('that', '', '', '', 0.0)||('has', '', '', '', 0.0)||('been', '', '', '', 0.0)||('proposed', 'verb', 'C1441414', ['idcn'], 0.0)||('as', '', '', '', 0.0)||('a', '', '', '', 0.0)||('simple', 'adj', 'C0205352', ['qlco'], 0.0)||('method', 'noun', 'C0025663', ['inpr'], 0.0)||('for', '', '', '', 0.0)||('measuring', 'adj', 'C0242485', ['ftcn'], 0.0)||('daytime', 'noun', 'C0332169', ['tmco'], 0.0)||('sleepiness', 'noun', 'C0013144', ['fndg'], 0.0)||('in', '', '', '', 0.0)||('adults', 'noun', 'C0001675', ['aggp'], 0.0)||('.', '', '', '', 0.0)||
('this', '', '', '', 0.0)||('investigation', 'noun', 'C1261322', ['hlca'], 0.0)||('was', '', '', '', 0.0)||('concerned', '', '', '', 0.0)||('with', '', '', '', 0.0)||('the', '', '', '', 0.0)||('reliability', 'noun', 'C2347947', ['qnco'], 0.0)||('and', '', '', '', 0.0)||('internal', 'adj', 'C0205102', ['spco'], 0.0)||('consistency', 'noun', 'C0332529', ['qlco'], 0.0)||('of', '', '', '', 0.0)||('the', '', '', '', 0.0)||('epworth sleepiness scale', '', '', '', 0.0)||('.', '', '', '', 0.0)||
('when', '', '', '', 0.0)||('87', '', '', '', 0.0)||('healthy', '', '', '', 0.0)||('medical students', '', '', '', 0.0)||('were', '', '', '', 0.0)||('tested', '', '', '', 0.0)||('and', '', '', '', 0.0)||('retested', '', '', '', 0.0)||('5', '', '', '', 0.0)||('months', 'noun', 'C0439231', ['tmco'], 0.0)||('later', '', '', '', 0.0)||(',', '', '', '', 0.0)||('their', '', '', '', 0.0)||('paired', 'adj', 'C1709450', ['qlco'], 0.0)||('epworth sleepiness scale', '', '', '', 0.0)||('scores', 'noun', 'C0449820', ['qnco'], 0.0)||('did', '', '', '', 0.0)||('not', 'adv', 'C1518422', ['ftcn'], 0.0)||('change', 'verb', 'C0392747', ['ftcn'], 0.0)||('significantly', '', '', '', 0.0)||('and', '', '', '', 0.0)||('were', '', '', '', 0.0)||('highly', 'adv', 'C0205250', ['qlco'], 0.0)||('correlated', 'verb', 'C1707520', ['qlco'], 0.0)||('(', '', '', '', 0.0)||('r', '', '', '', 0.0)||('=', '', '', '', 0.0)||('0 . 82', '', '', '', 0.0)||(')', '', '', '', 0.0)||('.', '', '', '', 0.0)||
('by', '', '', '', 0.0)||('contrast', 'noun', 'C1979874', ['irda'], 0.0)||(',', '', '', '', 0.0)||('epworth sleepiness scale', '', '', '', 0.0)||('scores', 'verb', 'C0449820', ['qnco'], 0.0)||('that', '', '', '', 0.0)||('were', '', '', '', 0.0)||('initially', 'adv', 'C0205265', ['tmco'], 0.0)||('high', 'adj', 'C0205250', ['qlco'], 0.0)||('in', '', '', '', 0.0)||('54', '', '', '', 0.0)||('patients', 'noun', 'C0030705', ['podg'], 0.0)||('suffering', 'verb', 'C0683278', ['mobd'], 0.0)||('from', '', '', '', 0.0)||('obstructive sleep apnea syndrome', '', '', '', 0.0)||('returned', '', '', '', 0.0)||('to', '', '', '', 0.0)||('more', '', '', '', 0.0)||('normal', 'adj', 'C0205307', ['qlco'], 0.0)||('levels', 'noun', 'C0441889', ['qlco'], 0.0)||(',', '', '', '', 0.0)||('as', '', '', '', 0.0)||('expected', 'verb', 'C1517001', ['idcn'], 0.0)||(',', '', '', '', 0.0)||('after', '', '', '', 0.0)||('3', '', '', '', 0.0)||('-', '', '', '', 0.0)||('9', '', '', '', 0.0)||('months', 'noun', 'C0439231', ['tmco'], 0.0)||("'", '', '', '', 0.0)||('treatment', 'noun', 'C0039798', ['ftcn'], 0.0)||('with', '', '', '', 0.0)||('nasal continuous positive airway pressure', 'noun', 'C1258045', ['topp'], 0.0)||('.', '', '', '', 0.0)||
('the', '', '', '', 0.0)||('questionnaire', 'noun', 'C0034394', ['inpr'], 0.0)||('had', '', '', '', 0.0)||('a', '', '', '', 0.0)||('high level', '', '', '', 0.0)||('of', '', '', '', 0.0)||('internal', 'adj', 'C0205102', ['spco'], 0.0)||('consistency', 'noun', 'C0332529', ['qlco'], 0.0)||('as', '', '', '', 0.0)||('measured', 'verb', 'C0444706', ['qlco'], 0.0)||('by', '', '', '', 0.0)||('cronbach', '', '', '', 0.0)||("' s", '', '', '', 0.0)||('alpha', 'noun', 'C0439095', ['inpr'], 0.0)||('(', '', '', '', 0.0)||('0 . 88', '', '', '', 0.0)||(')', '', '', '', 0.0)||('.', '', '', '', 0.0)||
('factor analysis', '', '', '', 0.0)||('of', '', '', '', 0.0)||('item', 'noun', 'C1551338', ['enty'], 0.0)||('scores', 'noun', 'C0449820', ['qnco'], 0.0)||('showed', '', '', '', 0.0)||('that', '', '', '', 0.0)||('the', '', '', '', 0.0)||('epworth sleepiness scale', '', '', '', 0.0)||('had', '', '', '', 0.0)||('only', '', '', '', 0.0)||('one', 'noun', 'C0205447', ['qnco'], 0.0)||('factor', 'noun', 'C1521761', ['ftcn'], 0.0)||('for', '', '', '', 0.0)||('104', '', '', '', 0.0)||('medical students', '', '', '', 0.0)||('and', '', '', '', 0.0)||('for', '', '', '', 0.0)||('150', '', '', '', 0.0)||('patients', 'noun', 'C0030705', ['podg'], 0.0)||('with', '', '', '', 0.0)||('various', 'adj', 'C0440102', ['irda'], 0.0)||('sleep disorders', 'noun', 'C0851578', ['dsyn'], 0.0)||('.', '', '', '', 0.0)||
('the', '', '', '', 0.0)||('epworth sleepiness scale', '', '', '', 0.0)||('is', '', '', '', 0.0)||('a', '', '', '', 0.0)||('simple', 'adj', 'C0205352', ['qlco'], 0.0)||('and', '', '', '', 0.0)||('reliable', '', '', '', 0.0)||('method', 'noun', 'C0025663', ['inpr'], 0.0)||('for', '', '', '', 0.0)||('measuring', 'noun', 'C0242485', ['ftcn'], 0.0)||('persistent', 'adj', 'C0205322', ['tmco'], 0.0)||('daytime', 'noun', 'C0332169', ['tmco'], 0.0)||('sleepiness', 'noun', 'C0013144', ['fndg'], 0.0)||('in', '', '', '', 0.0)||('adults', 'noun', 'C0001675', ['aggp'], 0.0)||('.', '', '', '', 0.0)||
