('to', '', '', '', 0.0)||('assess', 'verb', 'C1516048', ['acty'], 0.0)||('the', '', '', '', 0.0)||('clinical', 'adj', 'C0205210', ['qlco'], 0.0)||('usefulness', '', '', '', 0.0)||('of', '', '', '', 0.0)||('the', '', '', '', 0.0)||('mallampati score', 'noun', 'C0451276', ['inpr'], 0.0)||('in', '', '', '', 0.0)||('patients', 'noun', 'C0030705', ['podg'], 0.0)||('with', '', '', '', 0.0)||('obstructive sleep apnea', '', '', '', 0.0)||('.', '', '', '', 0.0)||
('mallampati', '', '', '', 0.0)||('scoring', 'noun', 'C1552081', ['idcn'], 0.0)||('of', '', '', '', 0.0)||('the', '', '', '', 0.0)||('orophyarynx', '', '', '', 0.0)||('is', '', '', '', 0.0)||('a', '', '', '', 0.0)||('simple', 'adj', 'C0205352', ['qlco'], 0.0)||('noninvasive', '', '', '', 0.0)||('method', 'noun', 'C0025663', ['inpr'], 0.0)||('used', '', '', '', 0.0)||('to', '', '', '', 0.0)||('assess', 'verb', 'C1516048', ['acty'], 0.0)||('the', '', '', '', 0.0)||('difficulty', 'noun', 'C1299586', ['fndg'], 0.0)||('of', '', '', '', 0.0)||('endotracheal intubation', '', '', '', 0.0)||(',', '', '', '', 0.0)||('but', '', '', '', 0.0)||('its', '', '', '', 0.0)||('clinical', 'adj', 'C0205210', ['qlco'], 0.0)||('usefulness', '', '', '', 0.0)||('has', '', '', '', 0.0)||('not', 'adv', 'C1518422', ['ftcn'], 0.0)||('been', '', '', '', 0.0)||('validated', '', '', '', 0.0)||('in', '', '', '', 0.0)||('patients', 'noun', 'C0030705', ['podg'], 0.0)||('with', '', '', '', 0.0)||('sleep - disordered breathing', '', '', '', 0.0)||('.', '', '', '', 0.0)||
('prospective', 'adj', 'C0023981', ['resa'], 0.0)||('multivariate', '', '', '', 0.0)||('assessment', 'noun', 'C1261322', ['hlca'], 0.0)||('of', '', '', '', 0.0)||('a', '', '', '', 0.0)||('predictor', 'noun', 'C2698872', ['idcn'], 0.0)||('variable', 'noun', 'C0439828', ['qlco'], 0.0)||('.', '', '', '', 0.0)||
('the', '', '', '', 0.0)||('ucsf', '', '', '', 0.0)||('sleep disorders', 'noun', 'C0851578', ['dsyn'], 0.0)||('center', 'verb', 'C0205099', ['spco'], 0.0)||('.', '', '', '', 0.0)||
('one', 'noun', 'C0205447', ['qnco'], 0.0)||('hundred', '', '', '', 0.0)||('thirty - seven', '', '', '', 0.0)||('adult', 'noun', 'C0001675', ['aggp'], 0.0)||('patients', 'noun', 'C0030705', ['podg'], 0.0)||('who', '', '', '', 0.0)||('were', '', '', '', 0.0)||('evaluated', 'verb', 'C0220825', ['ftcn'], 0.0)||('for', '', '', '', 0.0)||('possible', 'adj', 'C0332149', ['qlco'], 0.0)||('obstructive sleep apnea', '', '', '', 0.0)||('.', '', '', '', 0.0)||
('prospective', 'adj', 'C0023981', ['resa'], 0.0)||('determination', 'noun', 'C1148554', ['lbpr'], 0.0)||('of', '', '', '', 0.0)||('the', '', '', '', 0.0)||('mallampati score', 'noun', 'C0451276', ['inpr'], 0.0)||(',', '', '', '', 0.0)||('assessment', 'noun', 'C1261322', ['hlca'], 0.0)||('of', '', '', '', 0.0)||('other', '', '', '', 0.0)||('variables', '', '', '', 0.0)||('for', '', '', '', 0.0)||('multivariate analysis', 'noun', 'C0026777', ['qnco'], 0.0)||(',', '', '', '', 0.0)||('and', '', '', '', 0.0)||('subsequent', 'adj', 'C0332282', ['tmco'], 0.0)||('overnight', 'adj', 'C0439583', ['tmco'], 0.0)||('polysomnography', 'noun', 'C0162701', ['diap'], 0.0)||('.', '', '', '', 0.0)||
('the', '', '', '', 0.0)||('mallampati score', 'noun', 'C0451276', ['inpr'], 0.0)||('was', '', '', '', 0.0)||('an', '', '', '', 0.0)||('independent', 'adj', 'C0085862', ['idcn'], 0.0)||('predictor', 'noun', 'C2698872', ['idcn'], 0.0)||('of', '', '', '', 0.0)||('both', '', '', '', 0.0)||('the', '', '', '', 0.0)||('presence', 'noun', 'C0392148', ['topp'], 0.0)||('and', '', '', '', 0.0)||('severity', 'noun', 'C0439793', ['qlco'], 0.0)||('of', '', '', '', 0.0)||('obstructive sleep apnea', '', '', '', 0.0)||('.', '', '', '', 0.0)||
('on', '', '', '', 0.0)||('average', 'noun', 'C1510992', ['qnco'], 0.0)||(',', '', '', '', 0.0)||('for', '', '', '', 0.0)||('every', '', '', '', 0.0)||('1', '', '', '', 0.0)||('-', '', '', '', 0.0)||('point', 'noun', 'C1552961', ['qnco'], 0.0)||('increase', 'noun', 'C0442805', ['ftcn'], 0.0)||('in', '', '', '', 0.0)||('the', '', '', '', 0.0)||('mallampati score', 'noun', 'C0451276', ['inpr'], 0.0)||(',', '', '', '', 0.0)||('the', '', '', '', 0.0)||('odds', '', '', '', 0.0)||('of', '', '', '', 0.0)||('having', '', '', '', 0.0)||('obstructive sleep apnea', '', '', '', 0.0)||('(', '', '', '', 0.0)||('apnea', 'noun', 'C1963065', ['fndg'], 0.0)||('-', '', '', '', 0.0)||('hypopnea', '', '', '', 0.0)||('index', 'noun', 'C0918012', ['inpr'], 0.0)||('>', '', '', '', 0.0)||('or', '', '', '', 0.0)||('=', '', '', '', 0.0)||('5', '', '', '', 0.0)||(')', '', '', '', 0.0)||('increased', 'verb', 'C0205217', ['qnco'], 0.0)||('more', '', '', '', 0.0)||('than', '', '', '', 0.0)||('2', '', '', '', 0.0)||('-', '', '', '', 0.0)||('fold', 'noun', 'C0332462', ['spco'], 0.0)||('(', '', '', '', 0.0)||('odds ratio', 'noun', 'C0028873', ['qnco'], 0.0)||('[', '', '', '', 0.0)||('per', '', '', '', 0.0)||('1', '', '', '', 0.0)||('-', '', '', '', 0.0)||('point', 'noun', 'C1552961', ['qnco'], 0.0)||('increase', 'noun', 'C0442805', ['ftcn'], 0.0)||(']', '', '', '', 0.0)||('=', '', '', '', 0.0)||('2 . 5', '', '', '', 0.0)||(';', '', '', '', 0.0)||('95 %', '', '', '', 0.0)||('confidence interval', 'noun', 'C0009667', ['qnco'], 0.0)||(':', '', '', '', 0.0)||('1 . 2', '', '', '', 0.0)||('-', '', '', '', 0.0)||('5 . 0', '', '', '', 0.0)||(';', '', '', '', 0.0)||('p', '', '', '', 0.0)||('=', '', '', '', 0.0)||('.', '', '', '', 0.0)||('01', '', '', '', 0.0)||(')', '', '', '', 0.0)||(',', '', '', '', 0.0)||('and', '', '', '', 0.0)||('the', '', '', '', 0.0)||('apnea', 'noun', 'C1963065', ['fndg'], 0.0)||('-', '', '', '', 0.0)||('hypopnea', '', '', '', 0.0)||('index', 'noun', 'C0918012', ['inpr'], 0.0)||('increased', 'verb', 'C0205217', ['qnco'], 0.0)||('by', '', '', '', 0.0)||('more', '', '', '', 0.0)||('than', '', '', '', 0.0)||('5', '', '', '', 0.0)||('events', 'noun', 'C0441471', ['evnt'], 0.0)||('per', '', '', '', 0.0)||('hour', 'noun', 'C0439227', ['tmco'], 0.0)||('(', '', '', '', 0.0)||('coefficient', '', '', '', 0.0)||('=', '', '', '', 0.0)||('5 . 2', '', '', '', 0.0)||(';', '', '', '', 0.0)||('95 %', '', '', '', 0.0)||('confidence interval', 'noun', 'C0009667', ['qnco'], 0.0)||(':', '', '', '', 0.0)||('0 . 2', '', '', '', 0.0)||('-', '', '', '', 0.0)||('10', '', '', '', 0.0)||(';', '', '', '', 0.0)||('p', '', '', '', 0.0)||('=', '', '', '', 0.0)||('.', '', '', '', 0.0)||('04', '', '', '', 0.0)||(')', '', '', '', 0.0)||('.', '', '', '', 0.0)||
('these', '', '', '', 0.0)||('results', 'noun', 'C1274040', ['ftcn'], 0.0)||('were', '', '', '', 0.0)||('independent of', '', '', '', 0.0)||('more', '', '', '', 0.0)||('than', '', '', '', 0.0)||('30', '', '', '', 0.0)||('variables', '', '', '', 0.0)||('that', '', '', '', 0.0)||('reflected', '', '', '', 0.0)||('airway', 'noun', 'C0178987', ['medd'], 0.0)||('anatomy', 'noun', 'C0002808', ['bmod'], 0.0)||(',', '', '', '', 0.0)||('body', 'noun', 'C0460148', ['anst'], 0.0)||('habitus', '', '', '', 0.0)||(',', '', '', '', 0.0)||('symptoms', 'noun', 'C0683368', ['ftcn'], 0.0)||(',', '', '', '', 0.0)||('and', '', '', '', 0.0)||('medical history', 'noun', 'C0262926', ['fndg'], 0.0)||('.', '', '', '', 0.0)||
('our', '', '', '', 0.0)||('results', 'noun', 'C1274040', ['ftcn'], 0.0)||('indicate', '', '', '', 0.0)||('that', '', '', '', 0.0)||('mallampati', '', '', '', 0.0)||('scoring', 'noun', 'C1552081', ['idcn'], 0.0)||('is', '', '', '', 0.0)||('a', '', '', '', 0.0)||('useful', '', '', '', 0.0)||('part', 'noun', 'C0449719', ['spco'], 0.0)||('of', '', '', '', 0.0)||('the', '', '', '', 0.0)||('physical examination', 'noun', 'C0031809', ['hlca'], 0.0)||('of', '', '', '', 0.0)||('patients', 'noun', 'C0030705', ['podg'], 0.0)||('prior to', '', '', '', 0.0)||('polysomnography', 'noun', 'C0162701', ['diap'], 0.0)||('.', '', '', '', 0.0)||
('the', '', '', '', 0.0)||('independent', 'adj', 'C0085862', ['idcn'], 0.0)||('association', 'noun', 'C0004083', ['menp'], 0.0)||('between', '', '', '', 0.0)||('mallampati score', 'noun', 'C0451276', ['inpr'], 0.0)||('and', '', '', '', 0.0)||('presence', 'noun', 'C0392148', ['topp'], 0.0)||('and', '', '', '', 0.0)||('severity', 'noun', 'C0439793', ['qlco'], 0.0)||('of', '', '', '', 0.0)||('obstructive sleep apnea', '', '', '', 0.0)||('suggests', '', '', '', 0.0)||('that', '', '', '', 0.0)||('this', '', '', '', 0.0)||('scoring', 'adj', 'C1552081', ['idcn'], 0.0)||('system', 'noun', 'C0449913', ['ftcn'], 0.0)||('will', '', '', '', 0.0)||('have', '', '', '', 0.0)||('practical', '', '', '', 0.0)||('value', 'noun', 'C0042295', ['qlco'], 0.0)||('in', '', '', '', 0.0)||('clinical', 'adj', 'C0205210', ['qlco'], 0.0)||('settings', '', '', '', 0.0)||('and', '', '', '', 0.0)||('prospective studies', 'noun', 'C0033522', ['resa'], 0.0)||('of', '', '', '', 0.0)||('sleep - disordered breathing', '', '', '', 0.0)||('.', '', '', '', 0.0)||
