('the', '', '', '', 0.0)||('renaal', '', '', '', 0.0)||('reduction', 'noun', 'C0301630', ['npop'], 0.0)||('of', '', '', '', 0.0)||('endpoints', '', '', '', 0.0)||('in', '', '', '', 0.0)||('niddm', 'noun', 'C0011860', ['dsyn'], 0.0)||('with', '', '', '', 0.0)||('the', '', '', '', 0.0)||('angiotensin ii', 'noun', 'C0003009', ['aapp', 'bacs', 'phsu'], 0.0)||('antagonist', 'noun', 'C0231491', ['ortf'], 0.0)||('losartan', 'noun', 'C0126174', ['orch', 'phsu'], 0.0)||('study', 'noun', 'C0008976', ['resa'], 0.0)||('-', '', '', '', 0.0)||('a', '', '', '', 0.0)||('multicenter', '', '', '', 0.0)||(',', '', '', '', 0.0)||('randomized', 'verb', 'C0034656', ['resa'], 0.0)||(',', '', '', '', 0.0)||('double - blind', '', '', '', 0.0)||(',', '', '', '', 0.0)||('placebo - controlled', '', '', '', 0.0)||('trial', 'noun', 'C0008976', ['resa'], 0.0)||('-', '', '', '', 0.0)||('followed', '', '', '', 0.0)||('1513', '', '', '', 0.0)||('patients', 'noun', 'C0030705', ['podg'], 0.0)||('with', '', '', '', 0.0)||('type 2 diabetes', 'noun', 'C0011860', ['dsyn'], 0.0)||('and', '', '', '', 0.0)||('nephropathy', 'noun', 'C0022658', ['dsyn'], 0.0)||('over', '', '', '', 0.0)||('a', '', '', '', 0.0)||('mean', 'noun', 'C0444504', ['qnco'], 0.0)||('of', '', '', '', 0.0)||('3 . 4', '', '', '', 0.0)||('years', 'noun', 'C0439234', ['tmco'], 0.0)||('.', '', '', '', 0.0)||
('patients', 'noun', 'C0030705', ['podg'], 0.0)||('were', '', '', '', 0.0)||('randomized', 'verb', 'C0034656', ['resa'], 0.0)||('to', '', '', '', 0.0)||('receive', 'verb', 'C1514756', ['qlco'], 0.0)||('losartan', 'noun', 'C0126174', ['orch', 'phsu'], 0.0)||('cozaar', 'noun', 'C0591301', ['orch', 'phsu'], 0.0)||('or', '', '', '', 0.0)||('placebo', 'noun', 'C0032042', ['topp'], 0.0)||(',', '', '', '', 0.0)||('both', '', '', '', 0.0)||('taken', 'verb', 'C1883727', ['cnce'], 0.0)||('in', '', '', '', 0.0)||('addition', 'noun', 'C1883712', ['ftcn'], 0.0)||('to', '', '', '', 0.0)||('conventional', 'adj', 'C0439858', ['qlco'], 0.0)||('anti - hypertensive', '', '', '', 0.0)||('therapy', 'noun', 'C0039798', ['ftcn'], 0.0)||('but', '', '', '', 0.0)||('not', 'adv', 'C1518422', ['ftcn'], 0.0)||('including', '', '', '', 0.0)||('renin - angiotensin - aldosterone system', '', '', '', 0.0)||('antagonist', 'noun', 'C0231491', ['ortf'], 0.0)||('medications', 'noun', 'C0013227', ['phsu'], 0.0)||('.', '', '', '', 0.0)||
('the', '', '', '', 0.0)||('primary', 'adj', 'C0205225', ['qlco'], 0.0)||('outcome', 'noun', 'C1274040', ['ftcn'], 0.0)||('was', '', '', '', 0.0)||('a', '', '', '', 0.0)||('composite', 'noun', 'C0205199', ['qlco'], 0.0)||('of', '', '', '', 0.0)||('a', '', '', '', 0.0)||('doubling', 'noun', 'C1705764', ['acty'], 0.0)||('of', '', '', '', 0.0)||('serum creatinine', 'noun', 'C0201976', ['lbpr'], 0.0)||(',', '', '', '', 0.0)||('end - stage renal disease', '', '', '', 0.0)||(',', '', '', '', 0.0)||('or', '', '', '', 0.0)||('death', 'noun', 'C0011065', ['orgf'], 0.0)||('.', '', '', '', 0.0)||
('the', '', '', '', 0.0)||('number', 'noun', 'C0449788', ['qnco'], 0.0)||('needed', 'verb', 'C0027552', ['qlco'], 0.0)||('to', '', '', '', 0.0)||('treat', 'verb', 'C1292734', ['ftcn'], 0.0)||('nnt', 'noun', 'C1417750', ['gngm'], 0.0)||('for', '', '', '', 0.0)||('the', '', '', '', 0.0)||('composite', 'adj', 'C0205199', ['qlco'], 0.0)||('outcome', 'noun', 'C1274040', ['ftcn'], 0.0)||('was', '', '', '', 0.0)||('34', '', '', '', 0.0)||('.', '', '', '', 0.0)||
('the', '', '', '', 0.0)||('nnt', 'noun', 'C1417750', ['gngm'], 0.0)||('for', '', '', '', 0.0)||('a', '', '', '', 0.0)||('doubling', 'noun', 'C1705764', ['acty'], 0.0)||('of', '', '', '', 0.0)||('the', '', '', '', 0.0)||('serum creatinine', 'noun', 'C0201976', ['lbpr'], 0.0)||('was', '', '', '', 0.0)||('25', '', '', '', 0.0)||(',', '', '', '', 0.0)||('and', '', '', '', 0.0)||('for', '', '', '', 0.0)||('end - stage renal disease', '', '', '', 0.0)||('was', '', '', '', 0.0)||('17', '', '', '', 0.0)||('.', '', '', '', 0.0)||
