('the', '', '', '', 0.0)||('shapiro', '', '', '', 0.0)||('study', 'noun', 'C0008976', ['resa'], 0.0)||('enrolled', '', '', '', 0.0)||('children', 'noun', 'C0008059', ['aggp'], 0.0)||('who', '', '', '', 0.0)||('had', '', '', '', 0.0)||('documented', 'adj', 'C1301725', ['hlca'], 0.0)||('allergic rhinitis', 'noun', 'C2607914', ['dsyn'], 0.0)||('and', '', '', '', 0.0)||('ome', '', '', '', 0.0)||('with', '', '', '', 0.0)||('failure', 'noun', 'C0231174', ['ftcn'], 0.0)||('to', '', '', '', 0.0)||('respond', '', '', '', 0.0)||('to', '', '', '', 0.0)||('4', '', '', '', 0.0)||('weeks', 'noun', 'C0439230', ['tmco'], 0.0)||('of', '', '', '', 0.0)||('oral', 'adj', 'C0442027', ['spco'], 0.0)||('antihistamine', 'noun', 'C0003360', ['orch', 'phsu'], 0.0)||('and', '', '', '', 0.0)||('decongestant', '', '', '', 0.0)||('therapy', 'noun', 'C0039798', ['ftcn'], 0.0)||('at', '', '', '', 0.0)||('time', 'noun', 'C0040223', ['tmco'], 0.0)||('of', '', '', '', 0.0)||('entry', 'noun', 'C1550548', ['ftcn'], 0.0)||('.', '', '', '', 0.0)||
('this', '', '', '', 0.0)||('was', '', '', '', 0.0)||('the', '', '', '', 0.0)||('only', '', '', '', 0.0)||('study', 'verb', 'C0008976', ['resa'], 0.0)||('with', '', '', '', 0.0)||('short - term', '', '', '', 0.0)||('follow - up', '', '', '', 0.0)||('comparing', '', '', '', 0.0)||('intranasal steroids', '', '', '', 0.0)||('with', '', '', '', 0.0)||('control', 'noun', 'C0243148', ['qlco'], 0.0)||('.', '', '', '', 0.0)||
('the', '', '', '', 0.0)||('odds ratio', 'noun', 'C0028873', ['qnco'], 0.0)||('for', '', '', '', 0.0)||('ome', '', '', '', 0.0)||('persisting', '', '', '', 0.0)||('after', '', '', '', 0.0)||('3', '', '', '', 0.0)||('weeks', 'noun', 'C0439230', ['tmco'], 0.0)||('was', '', '', '', 0.0)||('2 . 12', '', '', '', 0.0)||('(', '', '', '', 0.0)||('95 %', '', '', '', 0.0)||('confidence interval', 'noun', 'C0009667', ['qnco'], 0.0)||(',', '', '', '', 0.0)||('0 . 65', '', '', '', 0.0)||('-', '', '', '', 0.0)||('6 . 90', '', '', '', 0.0)||(')', '', '', '', 0.0)||('.', '', '', '', 0.0)||
