('despite', '', '', '', 0.0)||('major', 'adj', 'C0205164', ['qlco'], 0.0)||('advances', '', '', '', 0.0)||('in', '', '', '', 0.0)||('the', '', '', '', 0.0)||('pharmacotherapy', 'noun', 'C0013216', ['topp'], 0.0)||('of', '', '', '', 0.0)||('heart failure', 'noun', 'C0018801', ['dsyn'], 0.0)||(',', '', '', '', 0.0)||('hospitalization rates', '', '', '', 0.0)||('remain', '', '', '', 0.0)||('high', 'adj', 'C0205250', ['qlco'], 0.0)||(',', '', '', '', 0.0)||('owing', '', '', '', 0.0)||('in', '', '', '', 0.0)||('large', 'adj', 'C0549177', ['qnco'], 0.0)||('part', 'noun', 'C0449719', ['spco'], 0.0)||('to', '', '', '', 0.0)||('a', '', '', '', 0.0)||('multitude', '', '', '', 0.0)||('of', '', '', '', 0.0)||('psychosocial', 'adj', 'C0542298', ['ftcn'], 0.0)||(',', '', '', '', 0.0)||('behavioral', 'adj', 'C0004927', ['inbe'], 0.0)||(',', '', '', '', 0.0)||('and', '', '', '', 0.0)||('financial', 'adj', 'C0376243', ['qnco'], 0.0)||('factors', '', '', '', 0.0)||('that', '', '', '', 0.0)||('serve', '', '', '', 0.0)||('as', '', '', '', 0.0)||('barriers', '', '', '', 0.0)||('to', '', '', '', 0.0)||('effective', 'adj', 'C1704419', ['qlco'], 0.0)||('compliance', 'noun', 'C0009563', ['qnco'], 0.0)||('with', '', '', '', 0.0)||('prescribed', 'adj', 'C0278329', ['hlca'], 0.0)||('treatment', 'noun', 'C0039798', ['ftcn'], 0.0)||('.', '', '', '', 0.0)||
('to', '', '', '', 0.0)||('deal', '', '', '', 0.0)||('with', '', '', '', 0.0)||('these', '', '', '', 0.0)||('issues', '', '', '', 0.0)||(',', '', '', '', 0.0)||('many', '', '', '', 0.0)||('centers', '', '', '', 0.0)||('have', '', '', '', 0.0)||('adopted', 'verb', 'C0425382', ['fndg'], 0.0)||('a', '', '', '', 0.0)||('multidisciplinary', 'adj', 'C0242479', ['ocac'], 0.0)||('approach', 'noun', 'C0449445', ['spco'], 0.0)||('to', '', '', '', 0.0)||('heart failure', 'noun', 'C0018801', ['dsyn'], 0.0)||('disease management', 'noun', 'C0039798', ['ftcn'], 0.0)||('.', '', '', '', 0.0)||
('a', '', '', '', 0.0)||('systematic review', '', '', '', 0.0)||('of', '', '', '', 0.0)||('the', '', '', '', 0.0)||('literature', 'noun', 'C0023866', ['inpr'], 0.0)||('was', '', '', '', 0.0)||('conducted', '', '', '', 0.0)||('using', 'verb', 'C1524063', ['ftcn'], 0.0)||('the', '', '', '', 0.0)||('medline', 'noun', 'C0025141', ['inpr'], 0.0)||('database', 'noun', 'C0242356', ['inpr'], 0.0)||('supplemented', '', '', '', 0.0)||('by', '', '', '', 0.0)||('reference', 'noun', 'C1514811', ['idcn'], 0.0)||('lists', '', '', '', 0.0)||('from', '', '', '', 0.0)||('published', 'adj', 'C0034037', ['ocac'], 0.0)||('articles', '', '', '', 0.0)||('.', '', '', '', 0.0)||
('from', '', '', '', 0.0)||('1983', '', '', '', 0.0)||('to', '', '', '', 0.0)||('1998', '', '', '', 0.0)||(',', '', '', '', 0.0)||('16', '', '', '', 0.0)||('studies', '', '', '', 0.0)||('describing', 'verb', 'C1552738', ['idcn'], 0.0)||('multidisciplinary', 'adj', 'C0242479', ['ocac'], 0.0)||('heart failure', 'noun', 'C0018801', ['dsyn'], 0.0)||('disease management', 'noun', 'C0039798', ['ftcn'], 0.0)||('programs', 'noun', 'C0376691', ['inpr'], 0.0)||('were', '', '', '', 0.0)||('published', 'verb', 'C0034037', ['ocac'], 0.0)||('in', '', '', '', 0.0)||('the', '', '', '', 0.0)||('english', 'adj', 'C1556083', ['popg'], 0.0)||('language', 'noun', 'C0023008', ['lang'], 0.0)||('literature', 'noun', 'C0023866', ['inpr'], 0.0)||('.', '', '', '', 0.0)||
('of', '', '', '', 0.0)||('these', '', '', '', 0.0)||(',', '', '', '', 0.0)||('10', '', '', '', 0.0)||('were', '', '', '', 0.0)||('nonrandomized', '', '', '', 0.0)||(',', '', '', '', 0.0)||('observational', 'adj', 'C1964257', ['diap'], 0.0)||('studies', '', '', '', 0.0)||('and', '', '', '', 0.0)||('6', '', '', '', 0.0)||('were', '', '', '', 0.0)||('randomized clinical trials', '', '', '', 0.0)||('.', '', '', '', 0.0)||
('all', '', '', '', 0.0)||('studies', '', '', '', 0.0)||('reported', 'adj', 'C0684224', ['inpr'], 0.0)||('significant', 'adj', 'C0750502', ['idcn'], 0.0)||('benefits', 'noun', 'C0814225', ['qnco'], 0.0)||('in', '', '', '', 0.0)||('terms', '', '', '', 0.0)||('of', '', '', '', 0.0)||('reducing', 'adj', 'C0392756', ['qlco'], 0.0)||('hospital', 'noun', 'C0019994', ['hcro', 'mnob'], 0.0)||('utilization', 'noun', 'C0042153', ['ftcn'], 0.0)||(',', '', '', '', 0.0)||('and', '', '', '', 0.0)||('several', '', '', '', 0.0)||('studies', '', '', '', 0.0)||('reported', 'verb', 'C0684224', ['inpr'], 0.0)||('improved', 'adj', 'C0184511', ['qlco'], 0.0)||('quality', 'noun', 'C0332306', ['qlco'], 0.0)||('of', '', '', '', 0.0)||('life', 'noun', 'C0376558', ['idcn'], 0.0)||(',', '', '', '', 0.0)||('functional', 'adj', 'C0205245', ['ftcn'], 0.0)||('capacity', 'noun', 'C1516240', ['qnco'], 0.0)||(',', '', '', '', 0.0)||('patient', '', '', '', 0.0)||('satisfaction', 'noun', 'C0242428', ['menp'], 0.0)||(',', '', '', '', 0.0)||('and', '', '', '', 0.0)||('compliance', 'noun', 'C0009563', ['qnco'], 0.0)||('with', '', '', '', 0.0)||('diet', 'noun', 'C0012155', ['food'], 0.0)||('and', '', '', '', 0.0)||('medications', 'noun', 'C0013227', ['phsu'], 0.0)||('.', '', '', '', 0.0)||
('in', '', '', '', 0.0)||('all', '', '', '', 0.0)||('studies', '', '', '', 0.0)||('in', '', '', '', 0.0)||('which', '', '', '', 0.0)||('a', '', '', '', 0.0)||('cost analysis', 'noun', 'C0010171', ['ocac'], 0.0)||('was', '', '', '', 0.0)||('performed', 'verb', 'C0884358', ['ftcn'], 0.0)||(',', '', '', '', 0.0)||('heart failure', 'noun', 'C0018801', ['dsyn'], 0.0)||('disease management', 'noun', 'C0039798', ['ftcn'], 0.0)||('programs', 'noun', 'C0376691', ['inpr'], 0.0)||('were', '', '', '', 0.0)||('found', '', '', '', 0.0)||('to', '', '', '', 0.0)||('be', '', '', '', 0.0)||('cost - effective', '', '', '', 0.0)||('.', '', '', '', 0.0)||
('the', '', '', '', 0.0)||('limitations', '', '', '', 0.0)||('of', '', '', '', 0.0)||('the', '', '', '', 0.0)||('current', 'adj', 'C0521116', ['tmco'], 0.0)||('data', 'noun', 'C1511726', ['idcn'], 0.0)||('include', 'verb', 'C1552866', ['idcn'], 0.0)||('concerns', '', '', '', 0.0)||('about', '', '', '', 0.0)||('the', '', '', '', 0.0)||('generalizability', '', '', '', 0.0)||('of', '', '', '', 0.0)||('published', 'adj', 'C0034037', ['ocac'], 0.0)||('findings', 'noun', 'C2607943', ['ftcn'], 0.0)||('to', '', '', '', 0.0)||('the', '', '', '', 0.0)||('large', 'adj', 'C0549177', ['qnco'], 0.0)||('and', '', '', '', 0.0)||('heterogenous', 'adj', 'C1512426', ['idcn'], 0.0)||('population', 'noun', 'C0032659', ['qnco'], 0.0)||('of', '', '', '', 0.0)||('patients', 'noun', 'C0030705', ['podg'], 0.0)||('with', '', '', '', 0.0)||('heart failure', 'noun', 'C0018801', ['dsyn'], 0.0)||('in', '', '', '', 0.0)||('the', '', '', '', 0.0)||('community', 'noun', 'C0009462', ['geoa'], 0.0)||(',', '', '', '', 0.0)||('the', '', '', '', 0.0)||('feasibility', '', '', '', 0.0)||('of', '', '', '', 0.0)||('translating', 'noun', 'C0040710', ['ocac'], 0.0)||('specific disease', '', '', '', 0.0)||('management', 'noun', 'C0001554', ['ocac'], 0.0)||('programs', 'verb', 'C0376691', ['inpr'], 0.0)||('into', '', '', '', 0.0)||('diverse', 'adj', 'C1880371', ['qlco'], 0.0)||('practice', 'noun', 'C0237607', ['menp'], 0.0)||('environments', 'noun', 'C0014406', ['spco'], 0.0)||(',', '', '', '', 0.0)||('uncertainty', 'noun', 'C0087130', ['idcn'], 0.0)||('about', '', '', '', 0.0)||('how', '', '', '', 0.0)||('to', '', '', '', 0.0)||('design', 'verb', 'C1707689', ['acty'], 0.0)||('and', '', '', '', 0.0)||('implement', '', '', '', 0.0)||('a', '', '', '', 0.0)||('maximally', '', '', '', 0.0)||('cost - effective', '', '', '', 0.0)||('heart failure', 'noun', 'C0018801', ['dsyn'], 0.0)||('disease management', 'noun', 'C0039798', ['ftcn'], 0.0)||('strategy', 'noun', 'C0679199', ['menp'], 0.0)||(',', '', '', '', 0.0)||('and', '', '', '', 0.0)||('how', '', '', '', 0.0)||('to', '', '', '', 0.0)||('best', 'adj', 'C1522427', ['qlco'], 0.0)||('tailor', 'verb', 'C0402883', ['prog'], 0.0)||('the', '', '', '', 0.0)||('treatment', 'noun', 'C0039798', ['ftcn'], 0.0)||('program', 'noun', 'C1709697', ['cnce'], 0.0)||('to', '', '', '', 0.0)||('the', '', '', '', 0.0)||('needs', 'noun', 'C0027552', ['qlco'], 0.0)||('of', '', '', '', 0.0)||('each', '', '', '', 0.0)||('individual', 'adj', 'C0027361', ['popg'], 0.0)||('patient', '', '', '', 0.0)||('.', '', '', '', 0.0)||
('the', '', '', '', 0.0)||('impact', '', '', '', 0.0)||('of', '', '', '', 0.0)||('heart failure', 'noun', 'C0018801', ['dsyn'], 0.0)||('disease management', 'noun', 'C0039798', ['ftcn'], 0.0)||('programs', 'verb', 'C0376691', ['inpr'], 0.0)||('on', '', '', '', 0.0)||('survival', 'noun', 'C0038952', ['acty'], 0.0)||('is', '', '', '', 0.0)||('also', '', '', '', 0.0)||('unknown', 'verb', 'C0439673', ['idcn'], 0.0)||('.', '', '', '', 0.0)||
('based', 'verb', 'C1527178', ['ftcn'], 0.0)||('on', '', '', '', 0.0)||('currently', 'adv', 'C0521116', ['tmco'], 0.0)||('available', 'adj', 'C0470187', ['ftcn'], 0.0)||('data', 'noun', 'C1511726', ['idcn'], 0.0)||(',', '', '', '', 0.0)||('heart failure', 'noun', 'C0018801', ['dsyn'], 0.0)||('disease management', 'noun', 'C0039798', ['ftcn'], 0.0)||('programs', 'noun', 'C0376691', ['inpr'], 0.0)||('appear', '', '', '', 0.0)||('to', '', '', '', 0.0)||('be', '', '', '', 0.0)||('a', '', '', '', 0.0)||('cost - effective', '', '', '', 0.0)||('approach', 'noun', 'C0449445', ['spco'], 0.0)||('to', '', '', '', 0.0)||('reducing', 'adj', 'C0392756', ['qlco'], 0.0)||('morbidity', 'noun', 'C0026538', ['qnco'], 0.0)||('and', '', '', '', 0.0)||('enhancing', 'adj', 'C1999177', ['qlco'], 0.0)||('quality', 'noun', 'C0332306', ['qlco'], 0.0)||('of', '', '', '', 0.0)||('life', 'noun', 'C0376558', ['idcn'], 0.0)||('in', '', '', '', 0.0)||('selected', '', '', '', 0.0)||('patients', 'noun', 'C0030705', ['podg'], 0.0)||('with', '', '', '', 0.0)||('heart failure', 'noun', 'C0018801', ['dsyn'], 0.0)||('.', '', '', '', 0.0)||
('however', '', '', '', 0.0)||(',', '', '', '', 0.0)||('additional', 'adj', 'C1524062', ['ftcn'], 0.0)||('study', 'noun', 'C0008976', ['resa'], 0.0)||('is', '', '', '', 0.0)||('needed', 'verb', 'C0027552', ['qlco'], 0.0)||('involving', 'verb', 'C1314939', ['ftcn'], 0.0)||('larger', 'adj', 'C0549177', ['qnco'], 0.0)||('and', '', '', '', 0.0)||('more', '', '', '', 0.0)||('diverse', 'adj', 'C1880371', ['qlco'], 0.0)||('populations', 'noun', 'C0032659', ['qnco'], 0.0)||('to', '', '', '', 0.0)||('define', '', '', '', 0.0)||('the', '', '', '', 0.0)||('optimal', 'adj', 'C2698651', ['qlco'], 0.0)||('approach', 'noun', 'C0449445', ['spco'], 0.0)||('to', '', '', '', 0.0)||('heart failure', 'noun', 'C0018801', ['dsyn'], 0.0)||('disease management', 'noun', 'C0039798', ['ftcn'], 0.0)||('.', '', '', '', 0.0)||
