('nonpharmacologic', '', '', '', 0.0)||('interventions', '', '', '', 0.0)||('are', '', '', '', 0.0)||('frequently', 'adv', 'C0332183', ['tmco'], 0.0)||('recommended', 'verb', 'C0034866', ['idcn'], 0.0)||('for', '', '', '', 0.0)||('treatment', 'noun', 'C0039798', ['ftcn'], 0.0)||('of', '', '', '', 0.0)||('hypertension', 'noun', 'C0020538', ['dsyn'], 0.0)||('in', '', '', '', 0.0)||('the', '', '', '', 0.0)||('elderly', 'noun', 'C0001792', ['popg'], 0.0)||(',', '', '', '', 0.0)||('but', '', '', '', 0.0)||('there', '', '', '', 0.0)||('is', '', '', '', 0.0)||('a', '', '', '', 0.0)||('paucity', '', '', '', 0.0)||('of', '', '', '', 0.0)||('evidence', 'noun', 'C0332120', ['ftcn'], 0.0)||('from', '', '', '', 0.0)||('randomized controlled trials', '', '', '', 0.0)||('in', '', '', '', 0.0)||('support', 'noun', 'C0183683', ['medd'], 0.0)||('of', '', '', '', 0.0)||('this', '', '', '', 0.0)||('recommendation', 'noun', 'C0034866', ['idcn'], 0.0)||('.', '', '', '', 0.0)||
('to', '', '', '', 0.0)||('determine', '', '', '', 0.0)||('whether', '', '', '', 0.0)||('weight loss', '', '', '', 0.0)||('or', '', '', '', 0.0)||('reduced', 'adj', 'C0392756', ['qlco'], 0.0)||('sodium', 'noun', 'C0037473', ['bacs', 'elii'], 0.0)||('intake', 'noun', 'C1512806', ['ftcn'], 0.0)||('is', '', '', '', 0.0)||('effective', 'adj', 'C1704419', ['qlco'], 0.0)||('in', '', '', '', 0.0)||('the', '', '', '', 0.0)||('treatment', 'noun', 'C0039798', ['ftcn'], 0.0)||('of', '', '', '', 0.0)||('older', '', '', '', 0.0)||('persons', 'noun', 'C0027361', ['popg'], 0.0)||('with', '', '', '', 0.0)||('hypertension', 'noun', 'C0020538', ['dsyn'], 0.0)||('.', '', '', '', 0.0)||
('randomized controlled trial', '', '', '', 0.0)||('.', '', '', '', 0.0)||
('a', '', '', '', 0.0)||('total', 'noun', 'C0439810', ['qlco'], 0.0)||('of', '', '', '', 0.0)||('975', '', '', '', 0.0)||('[', '', '', '', 0.0)||('corrected', 'adj', 'C0205202', ['qlco'], 0.0)||(']', '', '', '', 0.0)||('men', 'noun', 'C0025266', ['popg'], 0.0)||('and', '', '', '', 0.0)||('women', 'noun', 'C0043210', ['popg'], 0.0)||('aged', 'verb', 'C0001779', ['orga'], 0.0)||('60', '', '', '', 0.0)||('to', '', '', '', 0.0)||('80', '', '', '', 0.0)||('years', 'noun', 'C0439234', ['tmco'], 0.0)||('with', '', '', '', 0.0)||('systolic blood pressure', 'noun', 'C0488055', ['clna'], 0.0)||('lower', 'adj', 'C0441994', ['ftcn'], 0.0)||('than', '', '', '', 0.0)||('145', '', '', '', 0.0)||('mm hg', 'noun', 'C0439475', ['qnco'], 0.0)||('and', '', '', '', 0.0)||('diastolic blood pressure', 'noun', 'C0428883', ['clna'], 0.0)||('lower', 'adj', 'C0441994', ['ftcn'], 0.0)||('than', '', '', '', 0.0)||('85', '', '', '', 0.0)||('mm hg', 'noun', 'C0439475', ['qnco'], 0.0)||('while', '', '', '', 0.0)||('receiving', '', '', '', 0.0)||('treatment', 'noun', 'C0039798', ['ftcn'], 0.0)||('with', '', '', '', 0.0)||('a', '', '', '', 0.0)||('single', 'adj', 'C0037179', ['popg'], 0.0)||('antihypertensive medication', '', '', '', 0.0)||('.', '', '', '', 0.0)||
('four', '', 'C0205450', ['qnco'], 0.0)||('academic health centers', '', '', '', 0.0)||('.', '', '', '', 0.0)||
('the', '', '', '', 0.0)||('585', '', '', '', 0.0)||('obese', 'adj', 'C0028754', ['dsyn'], 0.0)||('participants', '', '', '', 0.0)||('were', '', '', '', 0.0)||('randomized', 'verb', 'C0034656', ['resa'], 0.0)||('to', '', '', '', 0.0)||('reduced', 'adj', 'C0392756', ['qlco'], 0.0)||('sodium', 'noun', 'C0037473', ['bacs', 'elii'], 0.0)||('intake', 'noun', 'C1512806', ['ftcn'], 0.0)||(',', '', '', '', 0.0)||('weight loss', '', '', '', 0.0)||(',', '', '', '', 0.0)||('both', '', '', '', 0.0)||(',', '', '', '', 0.0)||('or', '', '', '', 0.0)||('usual', '', '', '', 0.0)||('care', 'noun', 'C0580931', ['fndg'], 0.0)||(',', '', '', '', 0.0)||('and', '', '', '', 0.0)||('the', '', '', '', 0.0)||('390', '', '', '', 0.0)||('nonobese', '', '', '', 0.0)||('participants', '', '', '', 0.0)||('were', '', '', '', 0.0)||('randomized', 'verb', 'C0034656', ['resa'], 0.0)||('to', '', '', '', 0.0)||('reduced', 'adj', 'C0392756', ['qlco'], 0.0)||('sodium', 'noun', 'C0037473', ['bacs', 'elii'], 0.0)||('intake', 'noun', 'C1512806', ['ftcn'], 0.0)||('or', '', '', '', 0.0)||('usual', '', '', '', 0.0)||('care', 'noun', 'C0580931', ['fndg'], 0.0)||('.', '', '', '', 0.0)||
('withdrawal', 'noun', 'C0237955', ['menp'], 0.0)||('of', '', '', '', 0.0)||('antihypertensive medication', '', '', '', 0.0)||('was', '', '', '', 0.0)||('attempted', '', '', '', 0.0)||('after', '', '', '', 0.0)||('3', '', '', '', 0.0)||('months', 'noun', 'C0439231', ['tmco'], 0.0)||('of', '', '', '', 0.0)||('intervention', 'noun', 'C1273869', ['hlca'], 0.0)||('.', '', '', '', 0.0)||
('diagnosis', 'noun', 'C0011900', ['fndg'], 0.0)||('of', '', '', '', 0.0)||('high blood pressure', '', '', '', 0.0)||('at', '', '', '', 0.0)||('1', '', '', '', 0.0)||('or', '', '', '', 0.0)||('more', '', '', '', 0.0)||('follow - up', '', '', '', 0.0)||('visits', 'noun', 'C0545082', ['bhvr'], 0.0)||(',', '', '', '', 0.0)||('or', '', '', '', 0.0)||('treatment', 'noun', 'C0039798', ['ftcn'], 0.0)||('with', '', '', '', 0.0)||('antihypertensive medication', '', '', '', 0.0)||(',', '', '', '', 0.0)||('or', '', '', '', 0.0)||('a', '', '', '', 0.0)||('cardiovascular', 'adj', 'C0007226', ['bdsy'], 0.0)||('event', 'noun', 'C0441471', ['evnt'], 0.0)||('during', '', '', '', 0.0)||('follow - up', '', '', '', 0.0)||('(', '', '', '', 0.0)||('range', 'noun', 'C1514721', ['qnco'], 0.0)||(',', '', '', '', 0.0)||('15', '', '', '', 0.0)||('-', '', '', '', 0.0)||('36', '', '', '', 0.0)||('months', 'noun', 'C0439231', ['tmco'], 0.0)||(';', '', '', '', 0.0)||('median', 'noun', 'C0549183', ['spco'], 0.0)||(',', '', '', '', 0.0)||('29', '', '', '', 0.0)||('months', 'noun', 'C0439231', ['tmco'], 0.0)||(')', '', '', '', 0.0)||('.', '', '', '', 0.0)||
('the', '', '', '', 0.0)||('combined', 'adj', 'C0205195', ['qlco'], 0.0)||('outcome', 'noun', 'C1274040', ['ftcn'], 0.0)||('measure', 'noun', 'C0079809', ['qnco'], 0.0)||('was', '', '', '', 0.0)||('less', '', '', '', 0.0)||('frequent', 'adj', 'C0332183', ['tmco'], 0.0)||('among', '', '', '', 0.0)||('those', '', '', '', 0.0)||('assigned', 'adj', 'C1516050', ['ftcn'], 0.0)||('vs', '', '', '', 0.0)||('not', 'adv', 'C1518422', ['ftcn'], 0.0)||('assigned', 'verb', 'C1516050', ['ftcn'], 0.0)||('to', '', '', '', 0.0)||('reduced', 'adj', 'C0392756', ['qlco'], 0.0)||('sodium', 'noun', 'C0037473', ['bacs', 'elii'], 0.0)||('intake', 'noun', 'C1512806', ['ftcn'], 0.0)||('(', '', '', '', 0.0)||('relative hazard', '', '', '', 0.0)||('ratio', 'noun', 'C0456603', ['qnco'], 0.0)||(',', '', '', '', 0.0)||('0 . 69', '', '', '', 0.0)||(';', '', '', '', 0.0)||('95 %', '', '', '', 0.0)||('confidence interval', 'noun', 'C0009667', ['qnco'], 0.0)||(',', '', '', '', 0.0)||('0 . 59', '', '', '', 0.0)||('-', '', '', '', 0.0)||('0 . 81', '', '', '', 0.0)||(';', '', '', '', 0.0)||('p', '', '', '', 0.0)||('<', '', '', '', 0.0)||('.', '', '', '', 0.0)||('001', '', '', '', 0.0)||(')', '', '', '', 0.0)||('and', '', '', '', 0.0)||(',', '', '', '', 0.0)||('in', '', '', '', 0.0)||('obese', 'adj', 'C0028754', ['dsyn'], 0.0)||('participants', '', '', '', 0.0)||(',', '', '', '', 0.0)||('among', '', '', '', 0.0)||('those', '', '', '', 0.0)||('assigned', 'adj', 'C1516050', ['ftcn'], 0.0)||('vs', '', '', '', 0.0)||('not', 'adv', 'C1518422', ['ftcn'], 0.0)||('assigned', 'verb', 'C1516050', ['ftcn'], 0.0)||('to', '', '', '', 0.0)||('weight loss', '', '', '', 0.0)||('(', '', '', '', 0.0)||('relative hazard', '', '', '', 0.0)||('ratio', 'noun', 'C0456603', ['qnco'], 0.0)||(',', '', '', '', 0.0)||('0 . 70', '', '', '', 0.0)||(';', '', '', '', 0.0)||('95 %', '', '', '', 0.0)||('confidence interval', 'noun', 'C0009667', ['qnco'], 0.0)||(',', '', '', '', 0.0)||('0 . 57', '', '', '', 0.0)||('-', '', '', '', 0.0)||('0 . 87', '', '', '', 0.0)||(';', '', '', '', 0.0)||('p', '', '', '', 0.0)||('<', '', '', '', 0.0)||('.', '', '', '', 0.0)||('001', '', '', '', 0.0)||(')', '', '', '', 0.0)||('.', '', '', '', 0.0)||
('relative', 'adj', 'C0080103', ['famg'], 0.0)||('to', '', '', '', 0.0)||('usual', '', '', '', 0.0)||('care', 'noun', 'C0580931', ['fndg'], 0.0)||(',', '', '', '', 0.0)||('hazard ratios', '', '', '', 0.0)||('among', '', '', '', 0.0)||('the', '', '', '', 0.0)||('obese', 'adj', 'C0028754', ['dsyn'], 0.0)||('participants', '', '', '', 0.0)||('were', '', '', '', 0.0)||('0 . 60', '', '', '', 0.0)||('(', '', '', '', 0.0)||('95 %', '', '', '', 0.0)||('confidence interval', 'noun', 'C0009667', ['qnco'], 0.0)||(',', '', '', '', 0.0)||('0 . 45', '', '', '', 0.0)||('-', '', '', '', 0.0)||('0 . 80', '', '', '', 0.0)||(';', '', '', '', 0.0)||('p', '', '', '', 0.0)||('<', '', '', '', 0.0)||('.', '', '', '', 0.0)||('001', '', '', '', 0.0)||(')', '', '', '', 0.0)||('for', '', '', '', 0.0)||('reduced', 'adj', 'C0392756', ['qlco'], 0.0)||('sodium', 'noun', 'C0037473', ['bacs', 'elii'], 0.0)||('intake', 'noun', 'C1512806', ['ftcn'], 0.0)||('alone', 'adj', 'C0439044', ['fndg'], 0.0)||(',', '', '', '', 0.0)||('0 . 64', '', '', '', 0.0)||('(', '', '', '', 0.0)||('95 %', '', '', '', 0.0)||('confidence interval', 'noun', 'C0009667', ['qnco'], 0.0)||(',', '', '', '', 0.0)||('0 . 49', '', '', '', 0.0)||('-', '', '', '', 0.0)||('0 . 85', '', '', '', 0.0)||(';', '', '', '', 0.0)||('p', '', '', '', 0.0)||('=', '', '', '', 0.0)||('.', '', '', '', 0.0)||('002', '', '', '', 0.0)||(')', '', '', '', 0.0)||('for', '', '', '', 0.0)||('weight loss', '', '', '', 0.0)||('alone', 'adj', 'C0439044', ['fndg'], 0.0)||(',', '', '', '', 0.0)||('and', '', '', '', 0.0)||('0 . 47', '', '', '', 0.0)||('(', '', '', '', 0.0)||('95 %', '', '', '', 0.0)||('confidence interval', 'noun', 'C0009667', ['qnco'], 0.0)||(',', '', '', '', 0.0)||('0 . 35', '', '', '', 0.0)||('-', '', '', '', 0.0)||('0 . 64', '', '', '', 0.0)||(';', '', '', '', 0.0)||('p', '', '', '', 0.0)||('<', '', '', '', 0.0)||('.', '', '', '', 0.0)||('001', '', '', '', 0.0)||(')', '', '', '', 0.0)||('for', '', '', '', 0.0)||('reduced', 'adj', 'C0392756', ['qlco'], 0.0)||('sodium', 'noun', 'C0037473', ['bacs', 'elii'], 0.0)||('intake', 'noun', 'C1512806', ['ftcn'], 0.0)||('and', '', '', '', 0.0)||('weight loss', '', '', '', 0.0)||('combined', 'verb', 'C0205195', ['qlco'], 0.0)||('.', '', '', '', 0.0)||
('the', '', '', '', 0.0)||('frequency', 'noun', 'C0376249', ['qnco'], 0.0)||('of', '', '', '', 0.0)||('cardiovascular', 'adj', 'C0007226', ['bdsy'], 0.0)||('events', 'noun', 'C0441471', ['evnt'], 0.0)||('during', '', '', '', 0.0)||('follow - up', '', '', '', 0.0)||('was', '', '', '', 0.0)||('similar', 'adj', 'C2348205', ['qlco'], 0.0)||('in', '', '', '', 0.0)||('each', '', '', '', 0.0)||('of', '', '', '', 0.0)||('the', '', '', '', 0.0)||('6', '', '', '', 0.0)||('treatment', 'noun', 'C0039798', ['ftcn'], 0.0)||('groups', 'noun', 'C0441833', ['idcn'], 0.0)||('.', '', '', '', 0.0)||
('reduced', 'adj', 'C0392756', ['qlco'], 0.0)||('sodium', 'noun', 'C0037473', ['bacs', 'elii'], 0.0)||('intake', 'noun', 'C1512806', ['ftcn'], 0.0)||('and', '', '', '', 0.0)||('weight loss', '', '', '', 0.0)||('constitute', '', '', '', 0.0)||('a', '', '', '', 0.0)||('feasible', '', '', '', 0.0)||(',', '', '', '', 0.0)||('effective', 'adj', 'C1704419', ['qlco'], 0.0)||(',', '', '', '', 0.0)||('and', '', '', '', 0.0)||('safe', '', '', '', 0.0)||('nonpharmacologic', '', '', '', 0.0)||('therapy', 'noun', 'C0039798', ['ftcn'], 0.0)||('of', '', '', '', 0.0)||('hypertension', 'noun', 'C0020538', ['dsyn'], 0.0)||('in', '', '', '', 0.0)||('older', '', '', '', 0.0)||('persons', 'noun', 'C0027361', ['popg'], 0.0)||('.', '', '', '', 0.0)||
