('a', '', '', '', 0.0)||('prospective cohort study', 'noun', 'C1709709', ['resa'], 0.0)||('found', '', '', '', 0.0)||('an', '', '', '', 0.0)||('increased', 'adj', 'C0205217', ['qnco'], 0.0)||('incidence', 'noun', 'C0021149', ['qnco'], 0.0)||('of', '', '', '', 0.0)||('new', 'adj', 'C0205314', ['tmco'], 0.0)||('hypertension', 'noun', 'C0020538', ['dsyn'], 0.0)||('developing', 'verb', 'C1999145', ['acty'], 0.0)||('among', '', '', '', 0.0)||('women', 'noun', 'C0043210', ['popg'], 0.0)||('taking', '', '', '', 0.0)||('ocs', '', '', '', 0.0)||('.', '', '', '', 0.0)||
('the', '', '', '', 0.0)||('study', 'noun', 'C0008976', ['resa'], 0.0)||(',', '', '', '', 0.0)||('conducted', '', '', '', 0.0)||('in', '', '', '', 0.0)||('the', '', '', '', 0.0)||('us', '', '', '', 0.0)||(',', '', '', '', 0.0)||('included', '', '', '', 0.0)||('68 , 297', '', '', '', 0.0)||('female', 'noun', 'C0015780', ['orga'], 0.0)||('nurses', 'noun', 'C0028661', ['prog'], 0.0)||('aged', 'verb', 'C0001779', ['orga'], 0.0)||('25', '', '', '', 0.0)||('to', '', '', '', 0.0)||('42', '', '', '', 0.0)||('years', 'noun', 'C0439234', ['tmco'], 0.0)||('without', '', '', '', 0.0)||('a', '', '', '', 0.0)||('previous', 'adj', 'C0205156', ['tmco'], 0.0)||('diagnosis', 'noun', 'C0011900', ['fndg'], 0.0)||('of', '', '', '', 0.0)||('hypertension', 'noun', 'C0020538', ['dsyn'], 0.0)||(',', '', '', '', 0.0)||('diabetes', 'noun', 'C0011847', ['dsyn'], 0.0)||(',', '', '', '', 0.0)||('coronary heart disease', 'noun', 'C0010068', ['dsyn'], 0.0)||(',', '', '', '', 0.0)||('stroke', 'noun', 'C0038454', ['dsyn'], 0.0)||(',', '', '', '', 0.0)||('or', '', '', '', 0.0)||('cancer', 'noun', 'C0006826', ['neop'], 0.0)||(',', '', '', '', 0.0)||('who', '', '', '', 0.0)||('were', '', '', '', 0.0)||('followed', '', '', '', 0.0)||('for', '', '', '', 0.0)||('4', '', '', '', 0.0)||('years', 'noun', 'C0439234', ['tmco'], 0.0)||('.', '', '', '', 0.0)||
('women', 'noun', 'C0043210', ['popg'], 0.0)||('were', '', '', '', 0.0)||('excluded', 'verb', 'C1554077', ['idcn'], 0.0)||('from', '', '', '', 0.0)||('the', '', '', '', 0.0)||('study', 'noun', 'C0008976', ['resa'], 0.0)||('if', '', '', '', 0.0)||('they', '', '', '', 0.0)||('had', '', '', '', 0.0)||('not', 'adv', 'C1518422', ['ftcn'], 0.0)||('had', '', '', '', 0.0)||('a', '', '', '', 0.0)||('physical', 'adj', 'C0031809', ['hlca'], 0.0)||('exam', 'noun', 'C0582103', ['hlca'], 0.0)||('in', '', '', '', 0.0)||('the', '', '', '', 0.0)||('last', '', '', '', 0.0)||('2', '', '', '', 0.0)||('years', 'noun', 'C0439234', ['tmco'], 0.0)||('or', '', '', '', 0.0)||('were', '', '', '', 0.0)||('taking', '', '', '', 0.0)||('antihypertensive medication', '', '', '', 0.0)||('at', '', '', '', 0.0)||('study', 'noun', 'C0008976', ['resa'], 0.0)||('inception', '', '', '', 0.0)||('.', '', '', '', 0.0)||
('the', '', '', '', 0.0)||('nurses', 'noun', 'C0028661', ['prog'], 0.0)||('self - reported', '', '', '', 0.0)||('their', '', '', '', 0.0)||('blood pressure', 'noun', 'C0005823', ['orgf'], 0.0)||('readings', 'noun', 'C0034754', ['dora'], 0.0)||('via', '', '', '', 0.0)||('questionnaire', 'noun', 'C0034394', ['inpr'], 0.0)||(';', '', '', '', 0.0)||
('medical records', 'noun', 'C0025102', ['inpr'], 0.0)||('were', '', '', '', 0.0)||('sampled', '', '', '', 0.0)||('to', '', '', '', 0.0)||('validate', '', '', '', 0.0)||('the', '', '', '', 0.0)||('accuracy', 'noun', 'C0443131', ['qlco'], 0.0)||('of', '', '', '', 0.0)||('self - reports', '', '', '', 0.0)||('.', '', '', '', 0.0)||
('after', '', '', '', 0.0)||('adjusting', 'noun', 'C0456081', ['ftcn'], 0.0)||('for', '', '', '', 0.0)||('risk factors', 'noun', 'C0035648', ['qnco'], 0.0)||(',', '', '', '', 0.0)||('current', 'adj', 'C0521116', ['tmco'], 0.0)||('oral contraceptive', 'noun', 'C0009905', ['phsu'], 0.0)||('use', 'noun', 'C0042153', ['ftcn'], 0.0)||('increased', 'verb', 'C0205217', ['qnco'], 0.0)||('the', '', '', '', 0.0)||('risk', 'noun', 'C0035647', ['qlco'], 0.0)||('of', '', '', '', 0.0)||('developing', 'adj', 'C1999145', ['acty'], 0.0)||('hypertension', 'noun', 'C0020538', ['dsyn'], 0.0)||('(', '', '', '', 0.0)||('relative risk', 'noun', 'C0242492', ['qnco'], 0.0)||('=', '', '', '', 0.0)||('1 . 8', '', '', '', 0.0)||(';', '', '', '', 0.0)||('95 %', '', '', '', 0.0)||('confidence interval', 'noun', 'C0009667', ['qnco'], 0.0)||(',', '', '', '', 0.0)||('1 . 5', '', '', '', 0.0)||('-', '', '', '', 0.0)||('2 . 3', '', '', '', 0.0)||(';', '', '', '', 0.0)||('corresponding', '', '', '', 0.0)||('to', '', '', '', 0.0)||('41 . 5', '', '', '', 0.0)||('new', 'adj', 'C0205314', ['tmco'], 0.0)||('cases', 'noun', 'C0868928', ['ftcn'], 0.0)||('of', '', '', '', 0.0)||('hypertension', 'noun', 'C0020538', ['dsyn'], 0.0)||('per', '', '', '', 0.0)||('10 , 000', '', '', '', 0.0)||('person - years', '', '', '', 0.0)||(')', '', '', '', 0.0)||('.', '', '', '', 0.0)||
