('the', '', '', '', 0.0)||('lipid', 'noun', 'C0023779', ['lipd'], 0.0)||('trial', 'noun', 'C0008976', ['resa'], 0.0)||('randomized', 'verb', 'C0034656', ['resa'], 0.0)||('9014', '', '', '', 0.0)||('patients', 'noun', 'C0030705', ['podg'], 0.0)||('with', '', '', '', 0.0)||('a', '', '', '', 0.0)||('history', 'noun', 'C0019664', ['ocdi'], 0.0)||('of', '', '', '', 0.0)||('acute', 'adj', 'C0205178', ['tmco'], 0.0)||('coronary', 'adj', 'C0018787', ['bpoc'], 0.0)||('syndromes', 'noun', 'C0039082', ['dsyn'], 0.0)||('and', '', '', '', 0.0)||('total cholesterol', 'noun', 'C0543421', ['strd'], 0.0)||('of', '', '', '', 0.0)||('150', '', '', '', 0.0)||('to', '', '', '', 0.0)||('270', '', '', '', 0.0)||('mg', '', '', '', 0.0)||('/', '', '', '', 0.0)||('dl', '', '', '', 0.0)||('(', '', '', '', 0.0)||('4', '', '', '', 0.0)||('to', '', '', '', 0.0)||('7', '', '', '', 0.0)||('mmol', '', '', '', 0.0)||('/', '', '', '', 0.0)||('l )', '', '', '', 0.0)||('to', '', '', '', 0.0)||('either', '', '', '', 0.0)||('pravastatin', 'noun', 'C0085542', ['orch', 'phsu'], 0.0)||('or', '', '', '', 0.0)||('placebo', 'noun', 'C0032042', ['topp'], 0.0)||('and', '', '', '', 0.0)||('followed', '', '', '', 0.0)||('them', '', '', '', 0.0)||('for', '', '', '', 0.0)||('6', '', '', '', 0.0)||('years', 'noun', 'C0439234', ['tmco'], 0.0)||('.', '', '', '', 0.0)||
('among', '', '', '', 0.0)||('the', '', '', '', 0.0)||('350', '', '', '', 0.0)||('patients', 'noun', 'C0030705', ['podg'], 0.0)||('with', '', '', '', 0.0)||('prior', 'adj', 'C0332152', ['tmco'], 0.0)||('ischemic stroke', '', '', '', 0.0)||(',', '', '', '', 0.0)||('there', '', '', '', 0.0)||('were', '', '', '', 0.0)||('388', '', '', '', 0.0)||('new', 'adj', 'C0205314', ['tmco'], 0.0)||('ischemic', '', '', '', 0.0)||('stokes', 'noun', 'C1551086', ['qnco'], 0.0)||('over', '', '', '', 0.0)||('the', '', '', '', 0.0)||('course', 'noun', 'C0750729', ['tmco'], 0.0)||('of', '', '', '', 0.0)||('the', '', '', '', 0.0)||('study', 'noun', 'C0008976', ['resa'], 0.0)||('.', '', '', '', 0.0)||
('when', '', '', '', 0.0)||('adjusted', 'verb', 'C0456081', ['ftcn'], 0.0)||('for', '', '', '', 0.0)||('risk factors', 'noun', 'C0035648', ['qnco'], 0.0)||('(', '', '', '', 0.0)||('atrial fibrillation', 'noun', 'C0004238', ['patf'], 0.0)||(',', '', '', '', 0.0)||('history', 'noun', 'C0019664', ['ocdi'], 0.0)||('of', '', '', '', 0.0)||('cerebrovascular accident', 'noun', 'C0038454', ['dsyn'], 0.0)||(',', '', '', '', 0.0)||('diabetes', 'noun', 'C0011847', ['dsyn'], 0.0)||(',', '', '', '', 0.0)||('hypertension', 'noun', 'C0020538', ['dsyn'], 0.0)||(',', '', '', '', 0.0)||('cigarette', 'noun', 'C0677453', ['mnob'], 0.0)||('smoking', 'noun', 'C0037369', ['inbe'], 0.0)||(',', '', '', '', 0.0)||('body mass index', 'noun', 'C0005893', ['diap'], 0.0)||(',', '', '', '', 0.0)||('and', '', '', '', 0.0)||('male', 'noun', 'C0024554', ['orga'], 0.0)||('sex', 'noun', 'C0036864', ['bhvr'], 0.0)||(')', '', '', '', 0.0)||(',', '', '', '', 0.0)||('pravastatin', 'noun', 'C0085542', ['orch', 'phsu'], 0.0)||('reduced', 'verb', 'C0392756', ['qlco'], 0.0)||('recurrent', 'adj', 'C0034897', ['phpr'], 0.0)||('ischemic stroke', '', '', '', 0.0)||('by', '', '', '', 0.0)||('21 %', '', '', '', 0.0)||('relative', 'adj', 'C0080103', ['famg'], 0.0)||('to', '', '', '', 0.0)||('placebo', 'noun', 'C0032042', ['topp'], 0.0)||('(', '', '', '', 0.0)||('p', '', '', '', 0.0)||('=', '', '', '', 0.0)||('.', '', '', '', 0.0)||('024', '', '', '', 0.0)||(')', '', '', '', 0.0)||('.', '', '', '', 0.0)||
('the', '', '', '', 0.0)||('reduction', 'noun', 'C0301630', ['npop'], 0.0)||('was', '', '', '', 0.0)||('not', 'adv', 'C1518422', ['ftcn'], 0.0)||('modified', 'verb', 'C0205349', ['ftcn'], 0.0)||('by', '', '', '', 0.0)||('baseline lipid level', '', '', '', 0.0)||('.', '', '', '', 0.0)||
