('the', '', '', '', 0.0)||('burden', '', '', '', 0.0)||('of', '', '', '', 0.0)||('cardiovascular disease', 'noun', 'C0007222', ['dsyn'], 0.0)||('world - wide', '', '', '', 0.0)||('is', '', '', '', 0.0)||('one', 'verb', 'C0205447', ['qnco'], 0.0)||('of', '', '', '', 0.0)||('great', 'adj', 'C0549177', ['qnco'], 0.0)||('concern', 'noun', 'C2699424', ['idcn'], 0.0)||('to', '', '', '', 0.0)||('patients', 'noun', 'C0030705', ['podg'], 0.0)||('and', '', '', '', 0.0)||('health care', 'noun', 'C0086388', ['hlca'], 0.0)||('agencies', 'noun', 'C0237463', ['orgt'], 0.0)||('alike', '', '', '', 0.0)||('.', '', '', '', 0.0)||
('circulatory', 'adj', 'C0005775', ['phsf'], 0.0)||('diseases', 'noun', 'C0012634', ['dsyn'], 0.0)||(',', '', '', '', 0.0)||('including', '', '', '', 0.0)||('myocardial infarction', 'noun', 'C0027051', ['dsyn'], 0.0)||('and', '', '', '', 0.0)||('stroke', 'noun', 'C0038454', ['dsyn'], 0.0)||(',', '', '', '', 0.0)||('kill', 'verb', 'C0681205', ['idcn'], 0.0)||('more', '', '', '', 0.0)||('people', 'noun', 'C0027361', ['popg'], 0.0)||('than', '', '', '', 0.0)||('any', '', '', '', 0.0)||('other', '', '', '', 0.0)||('disease', 'noun', 'C0012634', ['dsyn'], 0.0)||('.', '', '', '', 0.0)||
('cardiac rehabilitation', 'noun', 'C0700431', ['topp'], 0.0)||('aims', 'verb', 'C1947946', ['idcn'], 0.0)||('to', '', '', '', 0.0)||('restore', '', '', '', 0.0)||('patients', 'noun', 'C0030705', ['podg'], 0.0)||('who', '', '', '', 0.0)||('have', '', '', '', 0.0)||('suffered', '', '', '', 0.0)||('myocardial infarction', 'noun', 'C0027051', ['dsyn'], 0.0)||('to', '', '', '', 0.0)||('optimal', 'adj', 'C2698651', ['qlco'], 0.0)||('health', 'noun', 'C0018684', ['idcn'], 0.0)||('through', '', '', '', 0.0)||('exercise', 'noun', 'C0015259', ['dora'], 0.0)||('only', '', '', '', 0.0)||('based', 'adj', 'C1527178', ['ftcn'], 0.0)||('rehabilitation', 'noun', 'C0034991', ['topp'], 0.0)||('or', '', '', '', 0.0)||('comprehensive', 'adj', 'C1880156', ['qlco'], 0.0)||('cardiac rehabilitation', 'noun', 'C0700431', ['topp'], 0.0)||('(', '', '', '', 0.0)||('eg', 'noun', 'C0013715', ['geoa'], 0.0)||('.', '', '', '', 0.0)||('smoking', 'adj', 'C0037369', ['inbe'], 0.0)||('cessation', 'noun', 'C1880019', ['acty'], 0.0)||('advice', 'noun', 'C0150600', ['hlca'], 0.0)||(',', '', '', '', 0.0)||('diet', 'noun', 'C0012155', ['food'], 0.0)||('and', '', '', '', 0.0)||('counselling', 'noun', 'C0341618', ['prog'], 0.0)||('as well as', '', '', '', 0.0)||('exercise', 'noun', 'C0015259', ['dora'], 0.0)||(')', '', '', '', 0.0)||('.', '', '', '', 0.0)||
('data', 'noun', 'C1511726', ['idcn'], 0.0)||('from', '', '', '', 0.0)||('two', 'noun', 'C0205448', ['qnco'], 0.0)||('published', 'verb', 'C0034037', ['ocac'], 0.0)||('and', '', '', '', 0.0)||('widely', '', '', '', 0.0)||('cited', '', '', '', 0.0)||('meta - analyses', '', '', '', 0.0)||('(', '', '', '', 0.0)||('oldridge', '', '', '', 0.0)||('1988', '', '', '', 0.0)||(',', '', '', '', 0.0)||('o', '', '', '', 0.0)||("'", '', '', '', 0.0)||('connor', '', '', '', 0.0)||('1989', '', '', '', 0.0)||(')', '', '', '', 0.0)||('of', '', '', '', 0.0)||('over', 'adv', 'C0205136', ['spco'], 0.0)||('4 , 000', '', '', '', 0.0)||('patients', 'noun', 'C0030705', ['podg'], 0.0)||('each', '', '', '', 0.0)||('have', '', '', '', 0.0)||('demonstrated', '', '', '', 0.0)||('that', '', '', '', 0.0)||('patients', 'noun', 'C0030705', ['podg'], 0.0)||('randomised', '', '', '', 0.0)||('to', '', '', '', 0.0)||('exercise - based', '', '', '', 0.0)||('cardiac rehabilitation', 'noun', 'C0700431', ['topp'], 0.0)||('after', '', '', '', 0.0)||('myocardial infarction', 'noun', 'C0027051', ['dsyn'], 0.0)||('have', '', '', '', 0.0)||('a', '', '', '', 0.0)||('statistically significant', 'adj', 'C0237881', ['qnco'], 0.0)||('reduction', 'noun', 'C0301630', ['npop'], 0.0)||('in', '', '', '', 0.0)||('all', '', '', '', 0.0)||('-', '', '', '', 0.0)||('cause', 'noun', 'C1524003', ['cnce'], 0.0)||('and', '', '', '', 0.0)||('cardiac', 'adj', 'C0018787', ['bpoc'], 0.0)||('mortality', 'noun', 'C0026565', ['qnco'], 0.0)||('of', '', '', '', 0.0)||('about', '', '', '', 0.0)||('20', '', '', '', 0.0)||('to', '', '', '', 0.0)||('25 %', '', '', '', 0.0)||('compared', 'verb', 'C1707455', ['acty'], 0.0)||('to', '', '', '', 0.0)||('patients', 'noun', 'C0030705', ['podg'], 0.0)||('receiving', '', '', '', 0.0)||('conventional', 'adj', 'C0439858', ['qlco'], 0.0)||('care', 'noun', 'C0580931', ['fndg'], 0.0)||('.', '', '', '', 0.0)||
('however', '', '', '', 0.0)||(',', '', '', '', 0.0)||('the', '', '', '', 0.0)||('trials', '', '', '', 0.0)||('included', '', '', '', 0.0)||('were', '', '', '', 0.0)||('small', 'adj', 'C0700321', ['qnco'], 0.0)||('and', '', '', '', 0.0)||('often', 'adv', 'C0332183', ['tmco'], 0.0)||('of', '', '', '', 0.0)||('poor', 'adj', 'C0032854', ['grpa'], 0.0)||('methodological', '', '', '', 0.0)||('quality', 'noun', 'C0332306', ['qlco'], 0.0)||('.', '', '', '', 0.0)||
('incomplete', 'adj', 'C0205257', ['qnco'], 0.0)||('literature review', 'noun', 'C0282441', ['inpr'], 0.0)||('methods', 'noun', 'C0025663', ['inpr'], 0.0)||('may', '', '', '', 0.0)||('have', '', '', '', 0.0)||('resulted', '', '', '', 0.0)||('in', '', '', '', 0.0)||('publication', 'noun', 'C0034036', ['inpr', 'mnob'], 0.0)||('bias', 'verb', 'C0242568', ['idcn'], 0.0)||('thereby', '', '', '', 0.0)||('resulting', '', '', '', 0.0)||('in', '', '', '', 0.0)||('an', '', '', '', 0.0)||('over - estimate', '', '', '', 0.0)||('of', '', '', '', 0.0)||('the', '', '', '', 0.0)||('benefit', 'noun', 'C0814225', ['qnco'], 0.0)||('of', '', '', '', 0.0)||('cardiac rehabilitation', 'noun', 'C0700431', ['topp'], 0.0)||('.', '', '', '', 0.0)||
('the', '', '', '', 0.0)||('randomised controlled trials', '', '', '', 0.0)||('used', '', '', '', 0.0)||('in', '', '', '', 0.0)||('the', '', '', '', 0.0)||('reviews', '', '', '', 0.0)||('have', '', '', '', 0.0)||('focused', 'verb', 'C0205234', ['spco'], 0.0)||('almost', '', '', '', 0.0)||('exclusively', '', '', '', 0.0)||('on', '', '', '', 0.0)||('low - risk', '', '', '', 0.0)||(',', '', '', '', 0.0)||('middle - aged', '', '', '', 0.0)||('males', 'noun', 'C0024554', ['orga'], 0.0)||('post myocardial infarction', '', '', '', 0.0)||(',', '', '', '', 0.0)||('thereby', '', '', '', 0.0)||('excluding', '', '', '', 0.0)||('women', 'noun', 'C0043210', ['popg'], 0.0)||('and', '', '', '', 0.0)||('the', '', '', '', 0.0)||('elderly', 'noun', 'C0001792', ['popg'], 0.0)||('.', '', '', '', 0.0)||
('to', '', '', '', 0.0)||('determine', '', '', '', 0.0)||('the', '', '', '', 0.0)||('effectiveness', 'noun', 'C1280519', ['qlco'], 0.0)||('of', '', '', '', 0.0)||('exercise', 'noun', 'C0015259', ['dora'], 0.0)||('only', '', '', '', 0.0)||('rehabilitation', 'noun', 'C0034991', ['topp'], 0.0)||('and', '', '', '', 0.0)||('exercise', 'noun', 'C0015259', ['dora'], 0.0)||('in', '', '', '', 0.0)||('addition', 'noun', 'C1883712', ['ftcn'], 0.0)||('to', '', '', '', 0.0)||('other', '', '', '', 0.0)||('rehabilitation', 'noun', 'C0034991', ['topp'], 0.0)||('interventions', '', '', '', 0.0)||('(', '', '', '', 0.0)||('termed', '', '', '', 0.0)||('comprehensive', 'adj', 'C1880156', ['qlco'], 0.0)||('cardiac rehabilitation', 'noun', 'C0700431', ['topp'], 0.0)||(')', '', '', '', 0.0)||('compared', 'verb', 'C1707455', ['acty'], 0.0)||('with', '', '', '', 0.0)||('usual', '', '', '', 0.0)||('care', 'noun', 'C0580931', ['fndg'], 0.0)||('on', '', '', '', 0.0)||('the', '', '', '', 0.0)||('mortality', 'noun', 'C0026565', ['qnco'], 0.0)||(',', '', '', '', 0.0)||('morbidity', 'noun', 'C0026538', ['qnco'], 0.0)||(',', '', '', '', 0.0)||('health', 'noun', 'C0018684', ['idcn'], 0.0)||('-', '', '', '', 0.0)||('related', 'adj', 'C0439849', ['qlco'], 0.0)||('quality', 'noun', 'C0332306', ['qlco'], 0.0)||('of', '', '', '', 0.0)||('life', 'noun', 'C0376558', ['idcn'], 0.0)||('and', '', '', '', 0.0)||('modifiable', '', '', '', 0.0)||('cardiac', 'adj', 'C0018787', ['bpoc'], 0.0)||('risk factors', 'noun', 'C0035648', ['qnco'], 0.0)||('of', '', '', '', 0.0)||('patients', 'noun', 'C0030705', ['podg'], 0.0)||('with', '', '', '', 0.0)||('coronary heart disease', 'noun', 'C0010068', ['dsyn'], 0.0)||('.', '', '', '', 0.0)||
('electronic', 'adj', 'C0013850', ['mnob'], 0.0)||('databases', 'noun', 'C0242356', ['inpr'], 0.0)||('were', '', '', '', 0.0)||('searched', 'verb', 'C1706202', ['acty'], 0.0)||('for', '', '', '', 0.0)||('randomised controlled trials', '', '', '', 0.0)||(',', '', '', '', 0.0)||('using', 'verb', 'C1524063', ['ftcn'], 0.0)||('standardised', '', '', '', 0.0)||('trial', 'noun', 'C0008976', ['resa'], 0.0)||('filters', 'noun', 'C0180860', ['mnob'], 0.0)||(',', '', '', '', 0.0)||('from', '', '', '', 0.0)||('the', '', '', '', 0.0)||('earliest', '', '', '', 0.0)||('date', 'noun', 'C0011008', ['tmco'], 0.0)||('available', 'adj', 'C0470187', ['ftcn'], 0.0)||('to', '', '', '', 0.0)||('december', '', '', '', 0.0)||('31st', '', '', '', 0.0)||('1998', '', '', '', 0.0)||('.', '', '', '', 0.0)||
('men', 'noun', 'C0025266', ['popg'], 0.0)||('and', '', '', '', 0.0)||('women', 'noun', 'C0043210', ['popg'], 0.0)||('of', '', '', '', 0.0)||('all', '', '', '', 0.0)||('ages', '', '', '', 0.0)||(',', '', '', '', 0.0)||('in', '', '', '', 0.0)||('both', '', '', '', 0.0)||('hospital - based', '', '', '', 0.0)||('and', '', '', '', 0.0)||('community - based', '', '', '', 0.0)||('settings', '', '', '', 0.0)||(',', '', '', '', 0.0)||('who', '', '', '', 0.0)||('have', '', '', '', 0.0)||('had', '', '', '', 0.0)||('myocardial infarction', 'noun', 'C0027051', ['dsyn'], 0.0)||(',', '', '', '', 0.0)||('coronary artery bypass graft', 'noun', 'C0010055', ['topp'], 0.0)||('or', '', '', '', 0.0)||('percutaneous transluminal coronary angioplasty', 'noun', 'C0002997', ['topp'], 0.0)||(',', '', '', '', 0.0)||('or', '', '', '', 0.0)||('who', '', '', '', 0.0)||('have', '', '', '', 0.0)||('angina pectoris', 'noun', 'C0002962', ['sosy'], 0.0)||('or', '', '', '', 0.0)||('coronary artery disease', 'noun', 'C0010068', ['dsyn'], 0.0)||('defined', 'verb', 'C1704788', ['cnce'], 0.0)||('by', '', '', '', 0.0)||('angiography', 'noun', 'C0002978', ['diap'], 0.0)||('have', '', '', '', 0.0)||('been', '', '', '', 0.0)||('included', '', '', '', 0.0)||('.', '', '', '', 0.0)||
('studies', '', '', '', 0.0)||('involving', 'verb', 'C1314939', ['ftcn'], 0.0)||('participants', '', '', '', 0.0)||('following', '', '', '', 0.0)||('heart transplant', 'noun', 'C0018823', ['topp'], 0.0)||(',', '', '', '', 0.0)||('heart valve', 'noun', 'C0018826', ['bpoc'], 0.0)||('surgery', 'noun', 'C0038894', ['bmod'], 0.0)||('or', '', '', '', 0.0)||('heart failure', 'noun', 'C0018801', ['dsyn'], 0.0)||('have', '', '', '', 0.0)||('been', '', '', '', 0.0)||('excluded', 'verb', 'C1554077', ['idcn'], 0.0)||('.', '', '', '', 0.0)||
('follow up', '', '', '', 0.0)||('periods', '', '', '', 0.0)||('of', '', '', '', 0.0)||('less', '', '', '', 0.0)||('than', '', '', '', 0.0)||('6', '', '', '', 0.0)||('months', 'noun', 'C0439231', ['tmco'], 0.0)||('were', '', '', '', 0.0)||('excluded', 'verb', 'C1554077', ['idcn'], 0.0)||('.', '', '', '', 0.0)||
('studies', '', '', '', 0.0)||('were', '', '', '', 0.0)||('selected', '', '', '', 0.0)||('independently', '', '', '', 0.0)||('by', '', '', '', 0.0)||('two', 'adj', 'C0205448', ['qnco'], 0.0)||('reviewers', '', '', '', 0.0)||(',', '', '', '', 0.0)||('and', '', '', '', 0.0)||('data', 'noun', 'C1511726', ['idcn'], 0.0)||('extracted', 'verb', 'C0185115', ['topp'], 0.0)||('independently', '', '', '', 0.0)||('.', '', '', '', 0.0)||
('authors', 'noun', 'C0341628', ['prog'], 0.0)||('were', '', '', '', 0.0)||('contacted', '', '', '', 0.0)||('where', '', '', '', 0.0)||('possible', 'adj', 'C0332149', ['qlco'], 0.0)||('to', '', '', '', 0.0)||('obtain', 'verb', 'C1301820', ['ftcn'], 0.0)||('missing', 'adj', 'C1551393', ['idcn'], 0.0)||('information', 'noun', 'C1533716', ['idcn'], 0.0)||('.', '', '', '', 0.0)||
('the', '', '', '', 0.0)||('current', 'adj', 'C0521116', ['tmco'], 0.0)||('systematic review', '', '', '', 0.0)||('has', '', '', '', 0.0)||('allowed', '', '', '', 0.0)||('analysis', 'noun', 'C0002778', ['lbpr'], 0.0)||('of', '', '', '', 0.0)||('an', '', '', '', 0.0)||('increased', 'adj', 'C0205217', ['qnco'], 0.0)||('number', 'noun', 'C0449788', ['qnco'], 0.0)||('of', '', '', '', 0.0)||('patients', 'noun', 'C0030705', ['podg'], 0.0)||('from', '', '', '', 0.0)||('approximately', 'adv', 'C0332232', ['qlco'], 0.0)||('4500', '', '', '', 0.0)||('in', '', '', '', 0.0)||('the', '', '', '', 0.0)||('earlier', '', '', '', 0.0)||('meta - analyses', '', '', '', 0.0)||('to', '', '', '', 0.0)||('7683', '', '', '', 0.0)||('(', '', '', '', 0.0)||('2582', '', '', '', 0.0)||('in', '', '', '', 0.0)||('exercise', 'noun', 'C0015259', ['dora'], 0.0)||('only', '', '', '', 0.0)||('and', '', '', '', 0.0)||('5101', '', '', '', 0.0)||('in', '', '', '', 0.0)||('the', '', '', '', 0.0)||('comprehensive', 'adj', 'C1880156', ['qlco'], 0.0)||('cardiac rehabilitation', 'noun', 'C0700431', ['topp'], 0.0)||('group', 'noun', 'C0441833', ['idcn'], 0.0)||(')', '', '', '', 0.0)||('.', '', '', '', 0.0)||
('the', '', '', '', 0.0)||('quality', 'noun', 'C0332306', ['qlco'], 0.0)||('of', '', '', '', 0.0)||('reporting', 'noun', 'C0700287', ['hlca'], 0.0)||('overall', 'adv', 'C0282416', ['inpr'], 0.0)||('was', '', '', '', 0.0)||('poor', 'adj', 'C0032854', ['grpa'], 0.0)||(',', '', '', '', 0.0)||('with', '', '', '', 0.0)||('generally', '', '', '', 0.0)||('high', 'adj', 'C0205250', ['qlco'], 0.0)||('losses', '', '', '', 0.0)||('to', '', '', '', 0.0)||('follow up', '', '', '', 0.0)||('.', '', '', '', 0.0)||
('the', '', '', '', 0.0)||('pooled', 'adj', 'C1709595', ['cnce'], 0.0)||('effect', 'noun', 'C1280500', ['qlco'], 0.0)||('estimate', 'noun', 'C0750572', ['qnco'], 0.0)||('for', '', '', '', 0.0)||('total', 'adj', 'C0439810', ['qlco'], 0.0)||('mortality', 'noun', 'C0026565', ['qnco'], 0.0)||('for', '', '', '', 0.0)||('the', '', '', '', 0.0)||('exercise', 'noun', 'C0015259', ['dora'], 0.0)||('only', '', '', '', 0.0)||('intervention', 'noun', 'C1273869', ['hlca'], 0.0)||('shows', '', '', '', 0.0)||('a', '', '', '', 0.0)||('27 %', '', '', '', 0.0)||('reduction', 'noun', 'C0301630', ['npop'], 0.0)||('in', '', '', '', 0.0)||('all', '', '', '', 0.0)||('cause', 'noun', 'C1524003', ['cnce'], 0.0)||('mortality', 'noun', 'C0026565', ['qnco'], 0.0)||('(', '', '', '', 0.0)||('random effects model', '', '', '', 0.0)||('or', '', '', '', 0.0)||('0 . 73', '', '', '', 0.0)||('(', '', '', '', 0.0)||('0 . 54', '', '', '', 0.0)||(',', '', '', '', 0.0)||('0 . 98', '', '', '', 0.0)||(')', '', '', '', 0.0)||(')', '', '', '', 0.0)||('.', '', '', '', 0.0)||
('similarly', '', '', '', 0.0)||(',', '', '', '', 0.0)||('comprehensive', 'adj', 'C1880156', ['qlco'], 0.0)||('cardiac rehabilitation', 'noun', 'C0700431', ['topp'], 0.0)||('reduced', 'verb', 'C0392756', ['qlco'], 0.0)||('all', '', '', '', 0.0)||('cause', 'noun', 'C1524003', ['cnce'], 0.0)||('mortality', 'noun', 'C0026565', ['qnco'], 0.0)||('compared', 'verb', 'C1707455', ['acty'], 0.0)||('to', '', '', '', 0.0)||('usual', '', '', '', 0.0)||('care', 'noun', 'C0580931', ['fndg'], 0.0)||(',', '', '', '', 0.0)||('but', '', '', '', 0.0)||('to', '', '', '', 0.0)||('a', '', '', '', 0.0)||('lesser', 'adj', 'C0547044', ['qlco'], 0.0)||('degree', 'noun', 'C0441889', ['qlco'], 0.0)||('(', '', '', '', 0.0)||('or', '', '', '', 0.0)||('0 . 87', '', '', '', 0.0)||('(', '', '', '', 0.0)||('0 . 71', '', '', '', 0.0)||(',', '', '', '', 0.0)||('1 . 05', '', '', '', 0.0)||(')', '', '', '', 0.0)||(')', '', '', '', 0.0)||('.', '', '', '', 0.0)||
('total', 'adj', 'C0439810', ['qlco'], 0.0)||('cardiac', 'adj', 'C0018787', ['bpoc'], 0.0)||('mortality', 'noun', 'C0026565', ['qnco'], 0.0)||('was', '', '', '', 0.0)||('reduced', 'verb', 'C0392756', ['qlco'], 0.0)||('by', '', '', '', 0.0)||('31 %', '', '', '', 0.0)||('(', '', '', '', 0.0)||('random effects model', '', '', '', 0.0)||('or', '', '', '', 0.0)||('0 . 69', '', '', '', 0.0)||('(', '', '', '', 0.0)||('0 . 51', '', '', '', 0.0)||(',', '', '', '', 0.0)||('0 . 94', '', '', '', 0.0)||(')', '', '', '', 0.0)||(')', '', '', '', 0.0)||('and', '', '', '', 0.0)||('26 %', '', '', '', 0.0)||('(', '', '', '', 0.0)||('random effects model', '', '', '', 0.0)||('or', '', '', '', 0.0)||('0 . 74', '', '', '', 0.0)||('(', '', '', '', 0.0)||('0 . 57', '', '', '', 0.0)||(',', '', '', '', 0.0)||('0 . 96', '', '', '', 0.0)||(')', '', '', '', 0.0)||(')', '', '', '', 0.0)||('in', '', '', '', 0.0)||('the', '', '', '', 0.0)||('exercise', 'noun', 'C0015259', ['dora'], 0.0)||('only', '', '', '', 0.0)||('and', '', '', '', 0.0)||('comprehensive', 'adj', 'C1880156', ['qlco'], 0.0)||('cardiac rehabilitation', 'noun', 'C0700431', ['topp'], 0.0)||('intervention', 'noun', 'C1273869', ['hlca'], 0.0)||('groups', 'verb', 'C0441833', ['idcn'], 0.0)||('respectively', '', '', '', 0.0)||('when', '', '', '', 0.0)||('compared', 'verb', 'C1707455', ['acty'], 0.0)||('to', '', '', '', 0.0)||('usual', '', '', '', 0.0)||('care', 'noun', 'C0580931', ['fndg'], 0.0)||('.', '', '', '', 0.0)||
('neither', '', '', '', 0.0)||('intervention', 'noun', 'C1273869', ['hlca'], 0.0)||('had', '', '', '', 0.0)||('any', '', '', '', 0.0)||('effect', 'noun', 'C1280500', ['qlco'], 0.0)||('on', '', '', '', 0.0)||('the', '', '', '', 0.0)||('ocurrence', '', '', '', 0.0)||('of', '', '', '', 0.0)||('non - fatal', '', '', '', 0.0)||('myocardial infarction', 'noun', 'C0027051', ['dsyn'], 0.0)||('.', '', '', '', 0.0)||
('there', '', '', '', 0.0)||('was', '', '', '', 0.0)||('a', '', '', '', 0.0)||('significant', 'adj', 'C0750502', ['idcn'], 0.0)||('net', '', '', '', 0.0)||('reduction', 'noun', 'C0301630', ['npop'], 0.0)||('in', '', '', '', 0.0)||('total cholesterol', 'noun', 'C0543421', ['strd'], 0.0)||('in', '', '', '', 0.0)||('the', '', '', '', 0.0)||('comprehensive', 'adj', 'C1880156', ['qlco'], 0.0)||('cardiac rehabilitation', 'noun', 'C0700431', ['topp'], 0.0)||('group', 'noun', 'C0441833', ['idcn'], 0.0)||('(', '', '', '', 0.0)||('pooled', 'adj', 'C1709595', ['cnce'], 0.0)||('wmd', '', '', '', 0.0)||('random effects model', '', '', '', 0.0)||('-', '', '', '', 0.0)||('0 . 57', '', '', '', 0.0)||('mmol', '', '', '', 0.0)||('/', '', '', '', 0.0)||('l ( -', '', '', '', 0.0)||('0 . 83', '', '', '', 0.0)||(',', '', '', '', 0.0)||('-', '', '', '', 0.0)||('0 . 31', '', '', '', 0.0)||(')', '', '', '', 0.0)||(')', '', '', '', 0.0)||(',', '', '', '', 0.0)||('but', '', '', '', 0.0)||('not', 'adv', 'C1518422', ['ftcn'], 0.0)||('the', '', '', '', 0.0)||('exercise', 'noun', 'C0015259', ['dora'], 0.0)||('only', '', '', '', 0.0)||('rehabilitation', 'noun', 'C0034991', ['topp'], 0.0)||('group', 'noun', 'C0441833', ['idcn'], 0.0)||('.', '', '', '', 0.0)||
('similarly', '', '', '', 0.0)||(',', '', '', '', 0.0)||('ldl', 'noun', 'C0428474', ['lbpr'], 0.0)||('was', '', '', '', 0.0)||('significantly', '', '', '', 0.0)||('reduced', 'verb', 'C0392756', ['qlco'], 0.0)||('in', '', '', '', 0.0)||('the', '', '', '', 0.0)||('comprehensive', 'adj', 'C1880156', ['qlco'], 0.0)||('cardiac rehabilitation', 'noun', 'C0700431', ['topp'], 0.0)||('group', 'noun', 'C0441833', ['idcn'], 0.0)||('(', '', '', '', 0.0)||('pooled', 'adj', 'C1709595', ['cnce'], 0.0)||('wmd', '', '', '', 0.0)||('random effects model', '', '', '', 0.0)||('-', '', '', '', 0.0)||('0 . 51', '', '', '', 0.0)||('mmol', '', '', '', 0.0)||('/', '', '', '', 0.0)||('l ( -', '', '', '', 0.0)||('0 . 82', '', '', '', 0.0)||(',', '', '', '', 0.0)||('-', '', '', '', 0.0)||('0 . 19', '', '', '', 0.0)||(')', '', '', '', 0.0)||('.', '', '', '', 0.0)||
('the', '', '', '', 0.0)||('effect', 'noun', 'C1280500', ['qlco'], 0.0)||('of', '', '', '', 0.0)||('exercise', 'noun', 'C0015259', ['dora'], 0.0)||('only', '', '', '', 0.0)||('rehabilitation', 'noun', 'C0034991', ['topp'], 0.0)||('or', '', '', '', 0.0)||('comprehensive', 'adj', 'C1880156', ['qlco'], 0.0)||('cardiac rehabilitation', 'noun', 'C0700431', ['topp'], 0.0)||('interventions', '', '', '', 0.0)||('on', '', '', '', 0.0)||('revascularisation', 'noun', 'C0581603', ['topp'], 0.0)||('rates', '', '', '', 0.0)||(',', '', '', '', 0.0)||('blood pressure', 'noun', 'C0005823', ['orgf'], 0.0)||('or', '', '', '', 0.0)||('smoking', 'adj', 'C0037369', ['inbe'], 0.0)||('behaviour', '', '', '', 0.0)||('could', '', '', '', 0.0)||('not', 'adv', 'C1518422', ['ftcn'], 0.0)||('be', '', '', '', 0.0)||('determined', '', '', '', 0.0)||('by', '', '', '', 0.0)||('this', '', '', '', 0.0)||('meta - analysis', '', '', '', 0.0)||('due to', '', '', '', 0.0)||('the', '', '', '', 0.0)||('small', 'adj', 'C0700321', ['qnco'], 0.0)||('number', 'noun', 'C0449788', ['qnco'], 0.0)||('of', '', '', '', 0.0)||('trials', '', '', '', 0.0)||('reporting', 'verb', 'C0700287', ['hlca'], 0.0)||('these', '', '', '', 0.0)||('outcomes', 'noun', 'C0085415', ['qlco'], 0.0)||('and', '', '', '', 0.0)||('heterogeneity', 'noun', 'C0019409', ['qlco'], 0.0)||('between', '', '', '', 0.0)||('trials', '', '', '', 0.0)||('.', '', '', '', 0.0)||
('it', '', '', '', 0.0)||('was', '', '', '', 0.0)||('not', 'adv', 'C1518422', ['ftcn'], 0.0)||('possible', 'adj', 'C0332149', ['qlco'], 0.0)||('to', '', '', '', 0.0)||('combine', 'verb', 'C0336789', ['mnob'], 0.0)||('the', '', '', '', 0.0)||('data', 'noun', 'C1511726', ['idcn'], 0.0)||('from', '', '', '', 0.0)||('studies', '', '', '', 0.0)||('reporting', 'verb', 'C0700287', ['hlca'], 0.0)||('health', 'noun', 'C0018684', ['idcn'], 0.0)||('-', '', '', '', 0.0)||('related', 'adj', 'C0439849', ['qlco'], 0.0)||('quality', 'noun', 'C0332306', ['qlco'], 0.0)||('of', '', '', '', 0.0)||('life', 'noun', 'C0376558', ['idcn'], 0.0)||('as', '', '', '', 0.0)||('an', '', '', '', 0.0)||('outcome', 'noun', 'C1274040', ['ftcn'], 0.0)||('.', '', '', '', 0.0)||
('eighteen', '', '', '', 0.0)||('different', 'adj', 'C1705242', ['qlco'], 0.0)||('instruments', 'noun', 'C0348000', ['medd'], 0.0)||('were', '', '', '', 0.0)||('used', '', '', '', 0.0)||('to', '', '', '', 0.0)||('assess', 'verb', 'C1516048', ['acty'], 0.0)||('health', 'noun', 'C0018684', ['idcn'], 0.0)||('-', '', '', '', 0.0)||('related', 'adj', 'C0439849', ['qlco'], 0.0)||('quality', 'noun', 'C0332306', ['qlco'], 0.0)||('of', '', '', '', 0.0)||('life', 'noun', 'C0376558', ['idcn'], 0.0)||('in', '', '', '', 0.0)||('the', '', '', '', 0.0)||('11', '', '', '', 0.0)||('studies', '', '', '', 0.0)||('reporting', 'verb', 'C0700287', ['hlca'], 0.0)||('it', '', '', '', 0.0)||('as', '', '', '', 0.0)||('an', '', '', '', 0.0)||('outcome', 'noun', 'C1274040', ['ftcn'], 0.0)||('.', '', '', '', 0.0)||
('the', '', '', '', 0.0)||('data', 'noun', 'C1511726', ['idcn'], 0.0)||('are', '', '', '', 0.0)||('presented', 'verb', 'C0449450', ['idcn'], 0.0)||('qualitatively', '', '', '', 0.0)||(',', '', '', '', 0.0)||('only', '', '', '', 0.0)||('one', 'noun', 'C0205447', ['qnco'], 0.0)||('trial', 'noun', 'C0008976', ['resa'], 0.0)||('reporting', 'verb', 'C0700287', ['hlca'], 0.0)||('significant', 'adj', 'C0750502', ['idcn'], 0.0)||('improvements', '', '', '', 0.0)||('with', '', '', '', 0.0)||('the', '', '', '', 0.0)||('intervention', 'noun', 'C1273869', ['hlca'], 0.0)||('.', '', '', '', 0.0)||
('exercise - based', '', '', '', 0.0)||('cardiac rehabilitation', 'noun', 'C0700431', ['topp'], 0.0)||('appears', '', '', '', 0.0)||('to', '', '', '', 0.0)||('be', '', '', '', 0.0)||('effective', 'adj', 'C1704419', ['qlco'], 0.0)||('in', '', '', '', 0.0)||('reducing', 'noun', 'C0392756', ['qlco'], 0.0)||('cardiac', 'adj', 'C0018787', ['bpoc'], 0.0)||('deaths', 'noun', 'C1306577', ['fndg'], 0.0)||('but', '', '', '', 0.0)||('the', '', '', '', 0.0)||('evidence', 'noun', 'C0332120', ['ftcn'], 0.0)||('base', 'noun', 'C0178499', ['chvf'], 0.0)||('is', '', '', '', 0.0)||('weakened', '', '', '', 0.0)||('by', '', '', '', 0.0)||('poor', 'adj', 'C0032854', ['grpa'], 0.0)||('quality', 'noun', 'C0332306', ['qlco'], 0.0)||('trials', '', '', '', 0.0)||('.', '', '', '', 0.0)||
('it', '', '', '', 0.0)||('is', '', '', '', 0.0)||('not', 'adv', 'C1518422', ['ftcn'], 0.0)||('clear', 'verb', 'C0522503', ['qlco'], 0.0)||('from', '', '', '', 0.0)||('this', '', '', '', 0.0)||('review', 'noun', 'C0282443', ['inpr'], 0.0)||('whether', '', '', '', 0.0)||('exercise', 'noun', 'C0015259', ['dora'], 0.0)||('only', '', '', '', 0.0)||('or', '', '', '', 0.0)||('a', '', '', '', 0.0)||('comprehensive', 'adj', 'C1880156', ['qlco'], 0.0)||('cardiac rehabilitation', 'noun', 'C0700431', ['topp'], 0.0)||('intervention', 'noun', 'C1273869', ['hlca'], 0.0)||('is', '', '', '', 0.0)||('more', '', '', '', 0.0)||('beneficial', '', '', '', 0.0)||('.', '', '', '', 0.0)||
('the', '', '', '', 0.0)||('population', 'noun', 'C0032659', ['qnco'], 0.0)||('studied', '', '', '', 0.0)||('in', '', '', '', 0.0)||('this', '', '', '', 0.0)||('review', 'noun', 'C0282443', ['inpr'], 0.0)||('is', '', '', '', 0.0)||('still', '', '', '', 0.0)||('predominately', 'adv', 'C0332251', ['qlco'], 0.0)||('male', 'noun', 'C0024554', ['orga'], 0.0)||(',', '', '', '', 0.0)||('middle aged', 'adj', 'C0205847', ['aggp'], 0.0)||('and', '', '', '', 0.0)||('low risk', '', '', '', 0.0)||('.', '', '', '', 0.0)||
('identification', 'noun', 'C0020792', ['menp'], 0.0)||('of', '', '', '', 0.0)||('the', '', '', '', 0.0)||('ethnic', 'adj', 'C0680174', ['fndg'], 0.0)||('origin', 'noun', 'C0439659', ['tmco'], 0.0)||('of', '', '', '', 0.0)||('the', '', '', '', 0.0)||('participants', '', '', '', 0.0)||('was', '', '', '', 0.0)||('seldom', 'adv', 'C0522498', ['qlco'], 0.0)||('reported', 'verb', 'C0684224', ['inpr'], 0.0)||('.', '', '', '', 0.0)||
('(', '', '', '', 0.0)||('abstract', 'noun', 'C0600678', ['inpr'], 0.0)||('truncated', '', '', '', 0.0)||(')', '', '', '', 0.0)||
