('six', '', 'C0205452', ['qnco'], 0.0)||('weeks', 'noun', 'C0439230', ['tmco'], 0.0)||('after', '', '', '', 0.0)||('acute myocardial infarction', 'noun', 'C0155626', ['dsyn'], 0.0)||(',', '', '', '', 0.0)||('303', '', '', '', 0.0)||('men', 'noun', 'C0025266', ['popg'], 0.0)||('were', '', '', '', 0.0)||('randomly', '', '', '', 0.0)||('divided', 'verb', 'C0332849', ['ftcn'], 0.0)||('into', '', '', '', 0.0)||('exercise', 'noun', 'C0015259', ['dora'], 0.0)||('and', '', '', '', 0.0)||('control groups', 'noun', 'C0009932', ['grup'], 0.0)||('.', '', '', '', 0.0)||
('the', '', '', '', 0.0)||('exercise', 'noun', 'C0015259', ['dora'], 0.0)||('group', 'noun', 'C0441833', ['idcn'], 0.0)||('attended', 'verb', 'C1456498', ['ftcn'], 0.0)||('the', '', '', '', 0.0)||('hospital', 'noun', 'C0019994', ['hcro', 'mnob'], 0.0)||('gymnasium', 'noun', 'C0442572', ['mnob'], 0.0)||('twice weekly', 'adj', 'C0556985', ['tmco'], 0.0)||('for', '', '', '', 0.0)||('a', '', '', '', 0.0)||('three', '', 'C0205449', ['qnco'], 0.0)||('-', '', '', '', 0.0)||('month', 'noun', 'C0439231', ['tmco'], 0.0)||('supervised', '', '', '', 0.0)||('exercise', 'noun', 'C0015259', ['dora'], 0.0)||('course', 'noun', 'C0750729', ['tmco'], 0.0)||('.', '', '', '', 0.0)||
('both', '', '', '', 0.0)||('groups', 'noun', 'C0441833', ['idcn'], 0.0)||('were', '', '', '', 0.0)||('exercise', 'noun', 'C0015259', ['dora'], 0.0)||('tested', '', '', '', 0.0)||('before', '', '', '', 0.0)||('and', '', '', '', 0.0)||('after', '', '', '', 0.0)||('the', '', '', '', 0.0)||('course', 'noun', 'C0750729', ['tmco'], 0.0)||('and', '', '', '', 0.0)||('at', '', '', '', 0.0)||('subsequent', 'adj', 'C0332282', ['tmco'], 0.0)||('follow - up', '', '', '', 0.0)||('.', '', '', '', 0.0)||
('the', '', '', '', 0.0)||('exercise', 'noun', 'C0015259', ['dora'], 0.0)||('group', 'noun', 'C0441833', ['idcn'], 0.0)||('increased', 'verb', 'C0205217', ['qnco'], 0.0)||('their', '', '', '', 0.0)||('physical fitness', 'noun', 'C0031812', ['idcn'], 0.0)||('greatly', '', '', '', 0.0)||('compared', 'verb', 'C1707455', ['acty'], 0.0)||('with', '', '', '', 0.0)||('the', '', '', '', 0.0)||('control group', 'noun', 'C0009932', ['grup'], 0.0)||('.', '', '', '', 0.0)||
('eight', '', 'C0205454', ['qnco'], 0.0)||('per cent', '', '', '', 0.0)||('of', '', '', '', 0.0)||('the', '', '', '', 0.0)||('exercise', 'noun', 'C0015259', ['dora'], 0.0)||('group', 'noun', 'C0441833', ['idcn'], 0.0)||('died', 'verb', 'C1306577', ['fndg'], 0.0)||('during', '', '', '', 0.0)||('the', '', '', '', 0.0)||('period', 'noun', 'C1948053', ['tmco'], 0.0)||('of', '', '', '', 0.0)||('follow - up', '', '', '', 0.0)||(',', '', '', '', 0.0)||('compared', 'verb', 'C1707455', ['acty'], 0.0)||('with', '', '', '', 0.0)||('14', '', '', '', 0.0)||('per cent', '', '', '', 0.0)||('of', '', '', '', 0.0)||('the', '', '', '', 0.0)||('control group', 'noun', 'C0009932', ['grup'], 0.0)||(';', '', '', '', 0.0)||
('this', '', '', '', 0.0)||('difference', 'noun', 'C1705242', ['qlco'], 0.0)||('is', '', '', '', 0.0)||('not', 'adv', 'C1518422', ['ftcn'], 0.0)||('significant', 'adj', 'C0750502', ['idcn'], 0.0)||('.', '', '', '', 0.0)||
('there', '', '', '', 0.0)||('was', '', '', '', 0.0)||('an', '', '', '', 0.0)||('apparent', 'adj', 'C0750489', ['idcn'], 0.0)||('improvement', '', '', '', 0.0)||('in', '', '', '', 0.0)||('mortality', 'noun', 'C0026565', ['qnco'], 0.0)||('in', '', '', '', 0.0)||('those', '', '', '', 0.0)||('with', '', '', '', 0.0)||('inferior', 'adj', 'C0542339', ['spco'], 0.0)||('mi', '', '', '', 0.0)||('who', '', '', '', 0.0)||('completed', 'verb', 'C0205197', ['qlco'], 0.0)||('the', '', '', '', 0.0)||('exercise', 'noun', 'C0015259', ['dora'], 0.0)||('course', 'noun', 'C0750729', ['tmco'], 0.0)||(',', '', '', '', 0.0)||('which', '', '', '', 0.0)||('was', '', '', '', 0.0)||('not', 'adv', 'C1518422', ['ftcn'], 0.0)||('seen', 'verb', 'C0205397', ['qlco'], 0.0)||('in', '', '', '', 0.0)||('those', '', '', '', 0.0)||('with', '', '', '', 0.0)||('mi', '', '', '', 0.0)||('in', '', '', '', 0.0)||('other', '', '', '', 0.0)||('sites', 'noun', 'C0205145', ['spco'], 0.0)||('.', '', '', '', 0.0)||
('for', '', '', '', 0.0)||('many', '', '', '', 0.0)||('patients', 'noun', 'C0030705', ['podg'], 0.0)||('after', '', '', '', 0.0)||('mi', '', '', '', 0.0)||('progressive', 'adj', 'C0205329', ['ftcn'], 0.0)||('exercise', 'noun', 'C0015259', ['dora'], 0.0)||('is', '', '', '', 0.0)||('safe', '', '', '', 0.0)||(',', '', '', '', 0.0)||('improves', '', '', '', 0.0)||('physical fitness', 'noun', 'C0031812', ['idcn'], 0.0)||('and', '', '', '', 0.0)||('may', '', '', '', 0.0)||('reduce', '', '', '', 0.0)||('mortality', 'noun', 'C0026565', ['qnco'], 0.0)||('for', '', '', '', 0.0)||('those', '', '', '', 0.0)||('after', '', '', '', 0.0)||('inferior', 'adj', 'C0542339', ['spco'], 0.0)||('mi', '', '', '', 0.0)||('.', '', '', '', 0.0)||
