('a', '', '', '', 0.0)||('meta - analysis', '', '', '', 0.0)||('by', '', '', '', 0.0)||('the', '', '', '', 0.0)||('centers for disease control and prevention', 'noun', 'C0007670', ['hcro'], 0.0)||("' s", '', '', '', 0.0)||('(', '', '', '', 0.0)||('cdc', 'noun', 'C0007670', ['hcro'], 0.0)||(')', '', '', '', 0.0)||('bacterial vaginosis', 'noun', 'C0085166', ['dsyn'], 0.0)||('working', 'adj', 'C0043227', ['ocac'], 0.0)||('group', 'noun', 'C0441833', ['idcn'], 0.0)||('reviewed', 'verb', 'C1709940', ['qlco'], 0.0)||('the', '', '', '', 0.0)||('indications', 'noun', 'C0392360', ['idcn'], 0.0)||('for', '', '', '', 0.0)||('therapy', 'noun', 'C0039798', ['ftcn'], 0.0)||('and', '', '', '', 0.0)||('best', 'adj', 'C1522427', ['qlco'], 0.0)||('treatments', 'noun', 'C0087111', ['topp'], 0.0)||('for', '', '', '', 0.0)||('bacterial vaginosis', 'noun', 'C0085166', ['dsyn'], 0.0)||('.', '', '', '', 0.0)||
('the', '', '', '', 0.0)||('group', 'noun', 'C0441833', ['idcn'], 0.0)||('found', '', '', '', 0.0)||('25', '', '', '', 0.0)||('trials', '', '', '', 0.0)||('evaluating', 'verb', 'C0220825', ['ftcn'], 0.0)||('oral', 'adj', 'C0442027', ['spco'], 0.0)||('metronidazole', 'noun', 'C0025872', ['orch', 'phsu'], 0.0)||('therapy', 'noun', 'C0039798', ['ftcn'], 0.0)||('involving', 'verb', 'C1314939', ['ftcn'], 0.0)||('2742', '', '', '', 0.0)||('women', 'noun', 'C0043210', ['popg'], 0.0)||('.', '', '', '', 0.0)||
('although', '', '', '', 0.0)||('cure', 'noun', 'C1511495', ['gora'], 0.0)||('rates', '', '', '', 0.0)||('using', 'verb', 'C1524063', ['ftcn'], 0.0)||('either', '', '', '', 0.0)||('500', '', '', '', 0.0)||('mg', '', '', '', 0.0)||('twice daily', 'adv', 'C0585361', ['tmco'], 0.0)||('for', '', '', '', 0.0)||('5', '', '', '', 0.0)||('to', '', '', '', 0.0)||('7', '', '', '', 0.0)||('days', 'noun', 'C0439228', ['tmco'], 0.0)||('or', '', '', '', 0.0)||('2', '', '', '', 0.0)||('g', '', '', '', 0.0)||('as', '', '', '', 0.0)||('a', '', '', '', 0.0)||('single dose', '', '', '', 0.0)||('were', '', '', '', 0.0)||('similar', 'adj', 'C2348205', ['qlco'], 0.0)||('at 2', '', '', '', 0.0)||('weeks', 'noun', 'C0439230', ['tmco'], 0.0)||('post', '', '', '', 0.0)||('follow - up', '', '', '', 0.0)||('(', '', '', '', 0.0)||('85 %', '', '', '', 0.0)||(';', '', '', '', 0.0)||('range', 'noun', 'C1514721', ['qnco'], 0.0)||('67 %', '', '', '', 0.0)||('-', '', '', '', 0.0)||('98 %', '', '', '', 0.0)||(')', '', '', '', 0.0)||(',', '', '', '', 0.0)||('the', '', '', '', 0.0)||('single - dose regimen', '', '', '', 0.0)||('led', '', '', '', 0.0)||('to', '', '', '', 0.0)||('higher', '', '', '', 0.0)||('relapse rates', '', '', '', 0.0)||('1', '', '', '', 0.0)||('month', 'noun', 'C0439231', ['tmco'], 0.0)||('after', '', '', '', 0.0)||('treatment', 'noun', 'C0039798', ['ftcn'], 0.0)||('(', '', '', '', 0.0)||('35 %', '', '', '', 0.0)||('-', '', '', '', 0.0)||('50 %', '', '', '', 0.0)||('vs', '', '', '', 0.0)||('20 %', '', '', '', 0.0)||('-', '', '', '', 0.0)||('33 %', '', '', '', 0.0)||(')', '', '', '', 0.0)||('.', '', '', '', 0.0)||
('six', '', 'C0205452', ['qnco'], 0.0)||('trials', '', '', '', 0.0)||('enrolling', '', '', '', 0.0)||('946', '', '', '', 0.0)||('women', 'noun', 'C0043210', ['popg'], 0.0)||('assessed', 'verb', 'C1516048', ['acty'], 0.0)||('the', '', '', '', 0.0)||('efficacy', 'noun', 'C1707887', ['resa'], 0.0)||('of', '', '', '', 0.0)||('various', 'adj', 'C0440102', ['irda'], 0.0)||('topical', 'adj', 'C0205530', ['spco'], 0.0)||('vaginal', 'adj', 'C0042232', ['bpoc'], 0.0)||('treatments', 'noun', 'C0087111', ['topp'], 0.0)||('.', '', '', '', 0.0)||
('metronidazole', 'noun', 'C0025872', ['orch', 'phsu'], 0.0)||('gel', 'noun', 'C0017243', ['bodm'], 0.0)||(',', '', '', '', 0.0)||('clindamycin', 'noun', 'C0008947', ['antb', 'carb'], 0.0)||('cream', 'noun', 'C0700385', ['food'], 0.0)||(',', '', '', '', 0.0)||('and', '', '', '', 0.0)||('clindamycin', 'noun', 'C0008947', ['antb', 'carb'], 0.0)||('ovules', 'noun', 'C2718098', ['plnt'], 0.0)||('had', '', '', '', 0.0)||('a', '', '', '', 0.0)||('wide', 'adj', 'C0332464', ['spco'], 0.0)||('range', 'noun', 'C1514721', ['qnco'], 0.0)||('of', '', '', '', 0.0)||('initial', 'adj', 'C0205265', ['tmco'], 0.0)||('cure', 'noun', 'C1511495', ['gora'], 0.0)||('rates', '', '', '', 0.0)||('(', '', '', '', 0.0)||('50 %', '', '', '', 0.0)||('-', '', '', '', 0.0)||('95 %', '', '', '', 0.0)||(')', '', '', '', 0.0)||(',', '', '', '', 0.0)||('but', '', '', '', 0.0)||('all', '', '', '', 0.0)||('had', '', '', '', 0.0)||('higher', '', '', '', 0.0)||('relapse rates', '', '', '', 0.0)||('at', '', '', '', 0.0)||('4', '', '', '', 0.0)||('weeks', 'noun', 'C0439230', ['tmco'], 0.0)||('than', '', '', '', 0.0)||('did', '', '', '', 0.0)||('oral', 'adj', 'C0442027', ['spco'], 0.0)||('metronidazole', 'noun', 'C0025872', ['orch', 'phsu'], 0.0)||('for', '', '', '', 0.0)||('1', '', '', '', 0.0)||('week', 'noun', 'C0439230', ['tmco'], 0.0)||('(', '', '', '', 0.0)||('34 %', '', '', '', 0.0)||('-', '', '', '', 0.0)||('49 %', '', '', '', 0.0)||(')', '', '', '', 0.0)||('.', '', '', '', 0.0)||
