('the', '', '', '', 0.0)||('objectives', 'noun', 'C0018017', ['inpr'], 0.0)||('of', '', '', '', 0.0)||('the', '', '', '', 0.0)||('prostate', 'noun', 'C0033572', ['bpoc'], 0.0)||(',', '', '', '', 0.0)||('lung', 'noun', 'C0024109', ['bpoc'], 0.0)||(',', '', '', '', 0.0)||('colorectal', 'adj', 'C0555952', ['spco'], 0.0)||('and', '', '', '', 0.0)||('ovarian cancer', 'noun', 'C1140680', ['neop'], 0.0)||('screening', 'adj', 'C0220908', ['hlca'], 0.0)||('trial', 'noun', 'C0008976', ['resa'], 0.0)||('are', '', '', '', 0.0)||('to', '', '', '', 0.0)||('determine', '', '', '', 0.0)||('in', '', '', '', 0.0)||('screenees', '', '', '', 0.0)||('ages', '', '', '', 0.0)||('55', '', '', '', 0.0)||('-', '', '', '', 0.0)||('74', '', '', '', 0.0)||('at', '', '', '', 0.0)||('entry', 'noun', 'C1550548', ['ftcn'], 0.0)||('whether', '', '', '', 0.0)||('screening', 'noun', 'C0220908', ['hlca'], 0.0)||('with', '', '', '', 0.0)||('flexible', 'adj', 'C0443220', ['qlco'], 0.0)||('sigmoidoscopy', 'noun', 'C0037075', ['diap'], 0.0)||('(', '', '', '', 0.0)||('60', '', '', '', 0.0)||('-', '', '', '', 0.0)||('cm', '', '', '', 0.0)||('sigmoidoscope', 'noun', 'C0183294', ['medd'], 0.0)||(')', '', '', '', 0.0)||('can', '', '', '', 0.0)||('reduce', '', '', '', 0.0)||('mortality', 'noun', 'C0026565', ['qnco'], 0.0)||('from', '', '', '', 0.0)||('colorectal cancer', 'noun', 'C0009402', ['neop'], 0.0)||(',', '', '', '', 0.0)||('whether', '', '', '', 0.0)||('screening', 'noun', 'C0220908', ['hlca'], 0.0)||('with', '', '', '', 0.0)||('chest x - ray', '', '', '', 0.0)||('can', '', '', '', 0.0)||('reduce', '', '', '', 0.0)||('mortality', 'noun', 'C0026565', ['qnco'], 0.0)||('from', '', '', '', 0.0)||('lung cancer', 'noun', 'C0242379', ['neop'], 0.0)||(',', '', '', '', 0.0)||('whether', '', '', '', 0.0)||('screening', 'adj', 'C0220908', ['hlca'], 0.0)||('men', 'noun', 'C0025266', ['popg'], 0.0)||('with', '', '', '', 0.0)||('digital', 'adj', 'C0442015', ['inpr'], 0.0)||('rectal', 'adj', 'C0205052', ['spco'], 0.0)||('examination', '', '', '', 0.0)||('plus', '', '', '', 0.0)||('serum', 'noun', 'C0229671', ['bdsu'], 0.0)||('prostate - specific antigen', '', '', '', 0.0)||('can', '', '', '', 0.0)||('reduce', '', '', '', 0.0)||('mortality', 'noun', 'C0026565', ['qnco'], 0.0)||('from', '', '', '', 0.0)||('prostate cancer', 'noun', 'C0376358', ['neop'], 0.0)||(',', '', '', '', 0.0)||('and', '', '', '', 0.0)||('whether', '', '', '', 0.0)||('screening', 'adj', 'C0220908', ['hlca'], 0.0)||('women', 'noun', 'C0043210', ['popg'], 0.0)||('with', '', '', '', 0.0)||('ca125', '', '', '', 0.0)||('and', '', '', '', 0.0)||('transvaginal ultrasound', '', '', '', 0.0)||('can', '', '', '', 0.0)||('reduce', '', '', '', 0.0)||('mortality', 'noun', 'C0026565', ['qnco'], 0.0)||('from', '', '', '', 0.0)||('ovarian cancer', 'noun', 'C1140680', ['neop'], 0.0)||('.', '', '', '', 0.0)||
('secondary', 'adj', 'C0175668', ['tmco'], 0.0)||('objectives', 'noun', 'C0018017', ['inpr'], 0.0)||('are', '', '', '', 0.0)||('to', '', '', '', 0.0)||('assess', 'verb', 'C1516048', ['acty'], 0.0)||('screening', 'adj', 'C0220908', ['hlca'], 0.0)||('variables', '', '', '', 0.0)||('other than', '', '', '', 0.0)||('mortality', 'noun', 'C0026565', ['qnco'], 0.0)||('for', '', '', '', 0.0)||('each', '', '', '', 0.0)||('of', '', '', '', 0.0)||('the', '', '', '', 0.0)||('interventions', '', '', '', 0.0)||('including', '', '', '', 0.0)||('sensitivity', 'noun', 'C0036667', ['qnco'], 0.0)||(',', '', '', '', 0.0)||('specificity', 'noun', 'C0037791', ['qnco'], 0.0)||(',', '', '', '', 0.0)||('and', '', '', '', 0.0)||('positive predictive value', '', '', '', 0.0)||(';', '', '', '', 0.0)||
('to', '', '', '', 0.0)||('assess', 'verb', 'C1516048', ['acty'], 0.0)||('incidence', 'noun', 'C0021149', ['qnco'], 0.0)||(',', '', '', '', 0.0)||('stage', 'noun', 'C0205390', ['tmco'], 0.0)||(',', '', '', '', 0.0)||('and', '', '', '', 0.0)||('survival', 'noun', 'C0038952', ['acty'], 0.0)||('of', '', '', '', 0.0)||('cancer', 'noun', 'C0006826', ['neop'], 0.0)||('cases', 'noun', 'C0868928', ['ftcn'], 0.0)||(';', '', '', '', 0.0)||
('and', '', '', '', 0.0)||('to', '', '', '', 0.0)||('investigate', '', '', '', 0.0)||('biologic', 'adj', 'C0005532', ['bmod'], 0.0)||('and / or', '', '', '', 0.0)||('prognostic', 'adj', 'C0220901', ['inpr'], 0.0)||('characterizations', '', '', '', 0.0)||('of', '', '', '', 0.0)||('tumor', 'noun', 'C0027651', ['neop'], 0.0)||('tissue', 'noun', 'C0040300', ['tisu'], 0.0)||('and', '', '', '', 0.0)||('biochemical', 'adj', 'C0205474', ['ftcn'], 0.0)||('products', 'noun', 'C1514468', ['enty'], 0.0)||('as', '', '', '', 0.0)||('intermediate', 'adj', 'C0205103', ['spco'], 0.0)||('endpoints', '', '', '', 0.0)||('.', '', '', '', 0.0)||
('the', '', '', '', 0.0)||('design', 'noun', 'C1707689', ['acty'], 0.0)||('is', '', '', '', 0.0)||('a', '', '', '', 0.0)||('multicenter', '', '', '', 0.0)||(',', '', '', '', 0.0)||('two - armed', '', '', '', 0.0)||(',', '', '', '', 0.0)||('randomized', 'adj', 'C0034656', ['resa'], 0.0)||('trial', 'noun', 'C0008976', ['resa'], 0.0)||('with', '', '', '', 0.0)||('37 , 000', '', '', '', 0.0)||('females', 'noun', 'C0015780', ['orga'], 0.0)||('and', '', '', '', 0.0)||('37 , 000', '', '', '', 0.0)||('males', 'noun', 'C0024554', ['orga'], 0.0)||('in', '', '', '', 0.0)||('each', '', '', '', 0.0)||('of', '', '', '', 0.0)||('the', '', '', '', 0.0)||('two', 'adj', 'C0205448', ['qnco'], 0.0)||('arms', 'noun', 'C0446516', ['blor'], 0.0)||('.', '', '', '', 0.0)||
('in', '', '', '', 0.0)||('the', '', '', '', 0.0)||('intervention', 'noun', 'C1273869', ['hlca'], 0.0)||('arm', 'noun', 'C0446516', ['blor'], 0.0)||(',', '', '', '', 0.0)||('the', '', '', '', 0.0)||('prostate - specific antigen', '', '', '', 0.0)||('and', '', '', '', 0.0)||('ca125', '', '', '', 0.0)||('tests', 'noun', 'C0022885', ['lbpr'], 0.0)||('are', '', '', '', 0.0)||('performed', 'verb', 'C0884358', ['ftcn'], 0.0)||('at', '', '', '', 0.0)||('entry', 'noun', 'C1550548', ['ftcn'], 0.0)||(',', '', '', '', 0.0)||('then', 'adv', 'C1883708', ['tmco'], 0.0)||('annually', 'adv', 'C0332181', ['tmco'], 0.0)||('for', '', '', '', 0.0)||('5', '', '', '', 0.0)||('years', 'noun', 'C0439234', ['tmco'], 0.0)||('.', '', '', '', 0.0)||
('the', '', '', '', 0.0)||('digital', 'adj', 'C0442015', ['inpr'], 0.0)||('rectal', 'adj', 'C0205052', ['spco'], 0.0)||('examination', '', '', '', 0.0)||(',', '', '', '', 0.0)||('transvaginal ultrasound', '', '', '', 0.0)||(',', '', '', '', 0.0)||('and', '', '', '', 0.0)||('chest x - ray', '', '', '', 0.0)||('exams', '', '', '', 0.0)||('are', '', '', '', 0.0)||('performed', 'verb', 'C0884358', ['ftcn'], 0.0)||('at', '', '', '', 0.0)||('entry', 'noun', 'C1550548', ['ftcn'], 0.0)||('and', '', '', '', 0.0)||('then', 'adv', 'C1883708', ['tmco'], 0.0)||('annually', 'adv', 'C0332181', ['tmco'], 0.0)||('for', '', '', '', 0.0)||('3', '', '', '', 0.0)||('years', 'noun', 'C0439234', ['tmco'], 0.0)||('.', '', '', '', 0.0)||
('sigmoidoscopy', 'noun', 'C0037075', ['diap'], 0.0)||('is', '', '', '', 0.0)||('performed', 'verb', 'C0884358', ['ftcn'], 0.0)||('at', '', '', '', 0.0)||('entry', 'noun', 'C1550548', ['ftcn'], 0.0)||('and', '', '', '', 0.0)||('then', 'adv', 'C1883708', ['tmco'], 0.0)||('at', '', '', '', 0.0)||('the', '', '', '', 0.0)||('5', '', '', '', 0.0)||('-', '', '', '', 0.0)||('year', 'noun', 'C0439234', ['tmco'], 0.0)||('point', 'noun', 'C1552961', ['qnco'], 0.0)||('.', '', '', '', 0.0)||
('participants', '', '', '', 0.0)||('in', '', '', '', 0.0)||('the', '', '', '', 0.0)||('control arm', '', '', '', 0.0)||('follow', 'verb', 'C1719822', ['inpr'], 0.0)||('their', '', '', '', 0.0)||('usual', '', '', '', 0.0)||('medical', 'adj', 'C0205476', ['ftcn'], 0.0)||('care', 'noun', 'C0580931', ['fndg'], 0.0)||('practices', '', '', '', 0.0)||('.', '', '', '', 0.0)||
('participants', '', '', '', 0.0)||('will', '', '', '', 0.0)||('be', '', '', '', 0.0)||('followed', '', '', '', 0.0)||('for', '', '', '', 0.0)||('at', '', '', '', 0.0)||('least', '', '', '', 0.0)||('13', '', '', '', 0.0)||('years', 'noun', 'C0439234', ['tmco'], 0.0)||('from', '', '', '', 0.0)||('randomization', 'noun', 'C0034656', ['resa'], 0.0)||('to', '', '', '', 0.0)||('ascertain', '', '', '', 0.0)||('all', '', '', '', 0.0)||('cancers', 'noun', 'C0006826', ['neop'], 0.0)||('of', '', '', '', 0.0)||('the', '', '', '', 0.0)||('prostate', 'noun', 'C0033572', ['bpoc'], 0.0)||(',', '', '', '', 0.0)||('lung', 'noun', 'C0024109', ['bpoc'], 0.0)||(',', '', '', '', 0.0)||('colorectum', '', '', '', 0.0)||(',', '', '', '', 0.0)||('and', '', '', '', 0.0)||('ovary', 'noun', 'C0029939', ['bpoc'], 0.0)||(',', '', '', '', 0.0)||('as well as', '', '', '', 0.0)||('deaths', 'noun', 'C1306577', ['fndg'], 0.0)||('from', '', '', '', 0.0)||('all', '', '', '', 0.0)||('causes', 'noun', 'C0015127', ['ftcn'], 0.0)||('.', '', '', '', 0.0)||
('a', '', '', '', 0.0)||('pilot', 'noun', 'C0473169', ['prog'], 0.0)||('phase', 'noun', 'C0205390', ['tmco'], 0.0)||('was', '', '', '', 0.0)||('undertaken', '', '', '', 0.0)||('to', '', '', '', 0.0)||('assess', 'verb', 'C1516048', ['acty'], 0.0)||('the', '', '', '', 0.0)||('randomization', 'noun', 'C0034656', ['resa'], 0.0)||(',', '', '', '', 0.0)||('screening', 'verb', 'C0220908', ['hlca'], 0.0)||(',', '', '', '', 0.0)||('and', '', '', '', 0.0)||('data collection', 'noun', 'C0010995', ['resa'], 0.0)||('procedures', 'noun', 'C0025664', ['inpr'], 0.0)||('of', '', '', '', 0.0)||('the', '', '', '', 0.0)||('trial', 'noun', 'C0008976', ['resa'], 0.0)||('and', '', '', '', 0.0)||('to', '', '', '', 0.0)||('estimate', 'verb', 'C0750572', ['qnco'], 0.0)||('design', 'noun', 'C1707689', ['acty'], 0.0)||('parameters', 'noun', 'C0449381', ['fndg'], 0.0)||('such as', '', '', '', 0.0)||('compliance', 'noun', 'C0009563', ['qnco'], 0.0)||('and', '', '', '', 0.0)||('contamination levels', '', '', '', 0.0)||('.', '', '', '', 0.0)||
('this', '', '', '', 0.0)||('paper', 'noun', 'C0030351', ['mnob'], 0.0)||('describes', '', '', '', 0.0)||('eligibility', 'noun', 'C0013893', ['hlca'], 0.0)||(',', '', '', '', 0.0)||('consent', 'noun', 'C1511481', ['ftcn'], 0.0)||(',', '', '', '', 0.0)||('and', '', '', '', 0.0)||('other', '', '', '', 0.0)||('design', 'noun', 'C1707689', ['acty'], 0.0)||('features', '', '', '', 0.0)||('of', '', '', '', 0.0)||('the', '', '', '', 0.0)||('trial', 'noun', 'C0008976', ['resa'], 0.0)||(',', '', '', '', 0.0)||('randomization', 'noun', 'C0034656', ['resa'], 0.0)||('and', '', '', '', 0.0)||('screening', 'adj', 'C0220908', ['hlca'], 0.0)||('procedures', 'noun', 'C0025664', ['inpr'], 0.0)||(',', '', '', '', 0.0)||('and', '', '', '', 0.0)||('an', '', '', '', 0.0)||('outline', '', '', '', 0.0)||('of', '', '', '', 0.0)||('the', '', '', '', 0.0)||('follow - up', '', '', '', 0.0)||('procedures', 'noun', 'C0025664', ['inpr'], 0.0)||('.', '', '', '', 0.0)||
('sample', 'noun', 'C0370003', ['sbst'], 0.0)||('-', '', '', '', 0.0)||('size', 'noun', 'C0456389', ['spco'], 0.0)||('calculations', '', '', '', 0.0)||('are', '', '', '', 0.0)||('reported', 'verb', 'C0684224', ['inpr'], 0.0)||(',', '', '', '', 0.0)||('and', '', '', '', 0.0)||('a', '', '', '', 0.0)||('data analysis', 'noun', 'C0010992', ['ocac'], 0.0)||('plan', 'noun', 'C0032074', ['menp'], 0.0)||('is', '', '', '', 0.0)||('presented', 'verb', 'C0449450', ['idcn'], 0.0)||('.', '', '', '', 0.0)||
