('clinicians', 'noun', 'C0871685', ['prog'], 0.0)||('recognize', '', '', '', 0.0)||('the', '', '', '', 0.0)||('importance', '', '', '', 0.0)||('of', '', '', '', 0.0)||('monitoring', 'noun', 'C0150369', ['hlca'], 0.0)||('aberrant', 'adj', 'C0443127', ['qlco'], 0.0)||('medication', '', '', '', 0.0)||('-', '', '', '', 0.0)||('related', 'adj', 'C0439849', ['qlco'], 0.0)||('behaviors', 'noun', 'C0004927', ['inbe'], 0.0)||('of', '', '', '', 0.0)||('chronic pain', 'noun', 'C0150055', ['dsyn'], 0.0)||('patients', 'noun', 'C0030705', ['podg'], 0.0)||('while', '', '', '', 0.0)||('being', '', '', '', 0.0)||('prescribed', 'adj', 'C0278329', ['hlca'], 0.0)||('opioid', 'noun', 'C0242402', ['hops', 'phsu'], 0.0)||('therapy', 'noun', 'C0039798', ['ftcn'], 0.0)||('.', '', '', '', 0.0)||
('the', '', '', '', 0.0)||('purpose', 'noun', 'C1285529', ['ftcn'], 0.0)||('of', '', '', '', 0.0)||('this', '', '', '', 0.0)||('study', 'noun', 'C0008976', ['resa'], 0.0)||('was', '', '', '', 0.0)||('to', '', '', '', 0.0)||('develop', '', '', '', 0.0)||('and', '', '', '', 0.0)||('validate', '', '', '', 0.0)||('the', '', '', '', 0.0)||('current', 'adj', 'C0521116', ['tmco'], 0.0)||('opioid', 'noun', 'C0242402', ['hops', 'phsu'], 0.0)||('misuse', 'noun', 'C0549649', ['fndg'], 0.0)||('measure', 'noun', 'C0079809', ['qnco'], 0.0)||('for', '', '', '', 0.0)||('those', '', '', '', 0.0)||('pain', 'noun', 'C0030193', ['sosy'], 0.0)||('patients', 'noun', 'C0030705', ['podg'], 0.0)||('already', '', '', '', 0.0)||('on', '', '', '', 0.0)||('long - term', '', '', '', 0.0)||('opioid', 'noun', 'C0242402', ['hops', 'phsu'], 0.0)||('therapy', 'noun', 'C0039798', ['ftcn'], 0.0)||('.', '', '', '', 0.0)||
('an', '', '', '', 0.0)||('initial', 'adj', 'C0205265', ['tmco'], 0.0)||('pool', 'noun', 'C0337051', ['geoa'], 0.0)||('of', '', '', '', 0.0)||('177', '', '', '', 0.0)||('items', '', '', '', 0.0)||('was', '', '', '', 0.0)||('developed', '', '', '', 0.0)||('with', '', '', '', 0.0)||('input', 'noun', 'C1708517', ['cnce'], 0.0)||('from', '', '', '', 0.0)||('26', '', '', '', 0.0)||('pain management', 'noun', 'C0002766', ['topp'], 0.0)||('and', '', '', '', 0.0)||('addiction', 'noun', 'C0085281', ['mobd'], 0.0)||('specialists', 'noun', 'C0087009', ['prog'], 0.0)||('.', '', '', '', 0.0)||
('concept', 'noun', 'C0178566', ['idcn'], 0.0)||('mapping', 'noun', 'C1283195', ['acty'], 0.0)||('identified', 'adj', 'C0205396', ['qlco'], 0.0)||('six', '', 'C0205452', ['qnco'], 0.0)||('primary', 'adj', 'C0205225', ['qlco'], 0.0)||('concepts', '', '', '', 0.0)||('underlying', '', '', '', 0.0)||('medication', '', '', '', 0.0)||('misuse', 'noun', 'C0549649', ['fndg'], 0.0)||(',', '', '', '', 0.0)||('which', '', '', '', 0.0)||('were', '', '', '', 0.0)||('used', '', '', '', 0.0)||('to', '', '', '', 0.0)||('develop', '', '', '', 0.0)||('an', '', '', '', 0.0)||('initial', 'adj', 'C0205265', ['tmco'], 0.0)||('item', 'noun', 'C1551338', ['enty'], 0.0)||('pool', 'noun', 'C0337051', ['geoa'], 0.0)||('.', '', '', '', 0.0)||
('twenty - two', '', '', '', 0.0)||('pain', 'noun', 'C0030193', ['sosy'], 0.0)||('and', '', '', '', 0.0)||('addiction', 'noun', 'C0085281', ['mobd'], 0.0)||('specialists', 'noun', 'C0087009', ['prog'], 0.0)||('rated', 'verb', 'C0871208', ['acty'], 0.0)||('the', '', '', '', 0.0)||('items', '', '', '', 0.0)||('on', '', '', '', 0.0)||('importance', '', '', '', 0.0)||('and', '', '', '', 0.0)||('relevance', 'noun', 'C2347946', ['qlco'], 0.0)||(',', '', '', '', 0.0)||('resulting', '', '', '', 0.0)||('in', '', '', '', 0.0)||('selection', 'noun', 'C0036576', ['genf'], 0.0)||('of', '', '', '', 0.0)||('a', '', '', '', 0.0)||('40', '', '', '', 0.0)||('-', '', '', '', 0.0)||('item', 'noun', 'C1551338', ['enty'], 0.0)||('alpha', 'noun', 'C0439095', ['inpr'], 0.0)||('current', 'noun', 'C0521116', ['tmco'], 0.0)||('opioid', 'noun', 'C0242402', ['hops', 'phsu'], 0.0)||('misuse', 'noun', 'C0549649', ['fndg'], 0.0)||('measure', 'noun', 'C0079809', ['qnco'], 0.0)||('.', '', '', '', 0.0)||
('final', 'adj', 'C0205088', ['tmco'], 0.0)||('item', 'noun', 'C1551338', ['enty'], 0.0)||('selection', 'noun', 'C0036576', ['genf'], 0.0)||('was', '', '', '', 0.0)||('based', 'verb', 'C1527178', ['ftcn'], 0.0)||('on', '', '', '', 0.0)||('empirical', 'adj', 'C1880496', ['qlco'], 0.0)||('evaluation', 'noun', 'C0220825', ['ftcn'], 0.0)||('of', '', '', '', 0.0)||('items', '', '', '', 0.0)||('with', '', '', '', 0.0)||('patients', 'noun', 'C0030705', ['podg'], 0.0)||('taking', '', '', '', 0.0)||('opioids', 'noun', 'C0242402', ['hops', 'phsu'], 0.0)||('for', '', '', '', 0.0)||('chronic', 'adj', 'C0205191', ['tmco'], 0.0)||(',', '', '', '', 0.0)||('noncancer', '', '', '', 0.0)||('pain', 'noun', 'C0030193', ['sosy'], 0.0)||('(', '', '', '', 0.0)||('n =', '', '', '', 0.0)||('227', '', '', '', 0.0)||(')', '', '', '', 0.0)||('.', '', '', '', 0.0)||
('one', 'noun', 'C0205447', ['qnco'], 0.0)||('-', '', '', '', 0.0)||('week', 'noun', 'C0439230', ['tmco'], 0.0)||('test - retest reliability', '', '', '', 0.0)||('was', '', '', '', 0.0)||('examined', 'verb', 'C0332128', ['fndg'], 0.0)||('with', '', '', '', 0.0)||('55', '', '', '', 0.0)||('participants', '', '', '', 0.0)||('.', '', '', '', 0.0)||
('all', '', '', '', 0.0)||('participants', '', '', '', 0.0)||('were', '', '', '', 0.0)||('administered', 'verb', 'C1521801', ['ftcn'], 0.0)||('the', '', '', '', 0.0)||('alpha', 'noun', 'C0439095', ['inpr'], 0.0)||('version', 'noun', 'C0333052', ['ftcn'], 0.0)||('of', '', '', '', 0.0)||('the', '', '', '', 0.0)||('current', 'adj', 'C0521116', ['tmco'], 0.0)||('opioid', 'noun', 'C0242402', ['hops', 'phsu'], 0.0)||('misuse', 'noun', 'C0549649', ['fndg'], 0.0)||('measure', 'noun', 'C0079809', ['qnco'], 0.0)||(',', '', '', '', 0.0)||('the', '', '', '', 0.0)||('prescription drug', '', '', '', 0.0)||('use', 'noun', 'C0042153', ['ftcn'], 0.0)||('questionnaire', 'noun', 'C0034394', ['inpr'], 0.0)||('interview', 'noun', 'C0021822', ['acty'], 0.0)||(',', '', '', '', 0.0)||('and', '', '', '', 0.0)||('submitted', 'verb', 'C1515023', ['ftcn'], 0.0)||('a', '', '', '', 0.0)||('urine', 'noun', 'C0042036', ['bdsu'], 0.0)||('sample', 'noun', 'C0370003', ['sbst'], 0.0)||('for', '', '', '', 0.0)||('toxicology', 'noun', 'C0040541', ['bmod'], 0.0)||('screening', 'noun', 'C0220908', ['hlca'], 0.0)||('.', '', '', '', 0.0)||
('physician', 'noun', 'C0031831', ['prog'], 0.0)||('ratings', '', '', '', 0.0)||('of', '', '', '', 0.0)||('patient', '', '', '', 0.0)||('aberrant', 'adj', 'C0443127', ['qlco'], 0.0)||('behaviors', 'noun', 'C0004927', ['inbe'], 0.0)||('were', '', '', '', 0.0)||('also', '', '', '', 0.0)||('obtained', 'verb', 'C1301820', ['ftcn'], 0.0)||('.', '', '', '', 0.0)||
('of', '', '', '', 0.0)||('the', '', '', '', 0.0)||('40', '', '', '', 0.0)||('items', '', '', '', 0.0)||(',', '', '', '', 0.0)||('17', '', '', '', 0.0)||('items', '', '', '', 0.0)||('appeared', '', '', '', 0.0)||('to', '', '', '', 0.0)||('adequately', '', '', '', 0.0)||('measure', 'verb', 'C0079809', ['qnco'], 0.0)||('aberrant', 'adj', 'C0443127', ['qlco'], 0.0)||('behavior', 'noun', 'C0004927', ['inbe'], 0.0)||(',', '', '', '', 0.0)||('demonstrating', 'verb', 'C1999141', ['hlca'], 0.0)||('excellent', 'adj', 'C1548784', ['qlco'], 0.0)||('internal', 'adj', 'C0205102', ['spco'], 0.0)||('consistency', 'noun', 'C0332529', ['qlco'], 0.0)||('and', '', '', '', 0.0)||('test - retest reliability', '', '', '', 0.0)||('.', '', '', '', 0.0)||
('cutoff', 'noun', 'C1442160', ['ftcn'], 0.0)||('scores', 'noun', 'C0449820', ['qnco'], 0.0)||('were', '', '', '', 0.0)||('examined', 'verb', 'C0332128', ['fndg'], 0.0)||('using', 'verb', 'C1524063', ['ftcn'], 0.0)||('roc', 'noun', 'C0683187', ['aapp', 'bacs'], 0.0)||('curve', 'noun', 'C0205134', ['spco'], 0.0)||('analysis', 'noun', 'C0002778', ['lbpr'], 0.0)||('and', '', '', '', 0.0)||('reasonable', '', '', '', 0.0)||('sensitivity and specificity', 'noun', 'C0036668', ['qnco'], 0.0)||('were', '', '', '', 0.0)||('established', 'verb', 'C0443211', ['qlco'], 0.0)||('.', '', '', '', 0.0)||
('to', '', '', '', 0.0)||('evaluate', 'verb', 'C0220825', ['ftcn'], 0.0)||('the', '', '', '', 0.0)||('current', 'adj', 'C0521116', ['tmco'], 0.0)||('opioid', 'noun', 'C0242402', ['hops', 'phsu'], 0.0)||('misuse', 'noun', 'C0549649', ['fndg'], 0.0)||('measure', 'verb', 'C0079809', ['qnco'], 0.0)||("' s", '', '', '', 0.0)||('ability', 'noun', 'C0085732', ['orga'], 0.0)||('to', '', '', '', 0.0)||('capture', '', '', '', 0.0)||('change', 'noun', 'C0392747', ['ftcn'], 0.0)||('in', '', '', '', 0.0)||('patient', '', '', '', 0.0)||('status', 'noun', 'C0449438', ['qlco'], 0.0)||(',', '', '', '', 0.0)||('it', '', '', '', 0.0)||('was', '', '', '', 0.0)||('tested', '', '', '', 0.0)||('on', '', '', '', 0.0)||('a', '', '', '', 0.0)||('subset', 'noun', 'C1515021', ['clas'], 0.0)||('of', '', '', '', 0.0)||('patients', 'noun', 'C0030705', ['podg'], 0.0)||('(', '', '', '', 0.0)||('n =', '', '', '', 0.0)||('86', '', '', '', 0.0)||(')', '', '', '', 0.0)||('that', '', '', '', 0.0)||('were', '', '', '', 0.0)||('followed', '', '', '', 0.0)||('and', '', '', '', 0.0)||('reassessed', '', '', '', 0.0)||('three', '', 'C0205449', ['qnco'], 0.0)||('months', 'noun', 'C0439231', ['tmco'], 0.0)||('later', '', '', '', 0.0)||('.', '', '', '', 0.0)||
('the', '', '', '', 0.0)||('current', 'adj', 'C0521116', ['tmco'], 0.0)||('opioid', 'noun', 'C0242402', ['hops', 'phsu'], 0.0)||('misuse', 'noun', 'C0549649', ['fndg'], 0.0)||('measure', 'noun', 'C0079809', ['qnco'], 0.0)||('was', '', '', '', 0.0)||('found', '', '', '', 0.0)||('to', '', '', '', 0.0)||('have', '', '', '', 0.0)||('promise', 'noun', 'C1555307', ['idcn'], 0.0)||('as', '', '', '', 0.0)||('a', '', '', '', 0.0)||('brief', 'adj', 'C1879313', ['tmco'], 0.0)||(',', '', '', '', 0.0)||('self - report', '', '', '', 0.0)||('measure', 'noun', 'C0079809', ['qnco'], 0.0)||('of', '', '', '', 0.0)||('current', 'adj', 'C0521116', ['tmco'], 0.0)||('aberrant', 'adj', 'C0443127', ['qlco'], 0.0)||('drug - related', '', '', '', 0.0)||('behavior', 'noun', 'C0004927', ['inbe'], 0.0)||('.', '', '', '', 0.0)||
('further', 'adj', 'C1517331', ['spco'], 0.0)||('cross - validation', '', '', '', 0.0)||('and', '', '', '', 0.0)||('replication', 'noun', 'C0598312', ['genf'], 0.0)||('of', '', '', '', 0.0)||('these', '', '', '', 0.0)||('preliminary', 'adj', 'C0439611', ['tmco'], 0.0)||('results', 'noun', 'C1274040', ['ftcn'], 0.0)||('is', '', '', '', 0.0)||('pending', '', '', '', 0.0)||('.', '', '', '', 0.0)||
