('to', '', '', '', 0.0)||('evaluate', 'verb', 'C0220825', ['ftcn'], 0.0)||('the', '', '', '', 0.0)||('treatment', 'noun', 'C0039798', ['ftcn'], 0.0)||('of', '', '', '', 0.0)||('bacterial vaginosis', 'noun', 'C0085166', ['dsyn'], 0.0)||('with', '', '', '', 0.0)||('metronidazole', 'noun', 'C0025872', ['orch', 'phsu'], 0.0)||('to', '', '', '', 0.0)||('determine', '', '', '', 0.0)||('if', '', '', '', 0.0)||('there', '', '', '', 0.0)||('is', '', '', '', 0.0)||('a', '', '', '', 0.0)||('therapeutic', 'adj', 'C0039796', ['topp'], 0.0)||('regimen', 'noun', 'C0040808', ['topp'], 0.0)||('that', '', '', '', 0.0)||('is', '', '', '', 0.0)||('superior', 'adj', 'C1282910', ['spco'], 0.0)||('to', '', '', '', 0.0)||('all', '', '', '', 0.0)||('others', 'noun', 'C1955473', ['fndg'], 0.0)||('with', '', '', '', 0.0)||('regard', '', '', '', 0.0)||('to', '', '', '', 0.0)||('cure', 'verb', 'C1511495', ['gora'], 0.0)||('and', '', '', '', 0.0)||('recurrence rates', '', '', '', 0.0)||('.', '', '', '', 0.0)||
('computer - assisted', '', '', '', 0.0)||('literature', 'noun', 'C0023866', ['inpr'], 0.0)||('search', 'noun', 'C1552603', ['idcn'], 0.0)||(',', '', '', '', 0.0)||('medical', 'adj', 'C0205476', ['ftcn'], 0.0)||('subject index', '', '', '', 0.0)||('review', 'noun', 'C0282443', ['inpr'], 0.0)||(',', '', '', '', 0.0)||('and', '', '', '', 0.0)||('references', '', '', '', 0.0)||('cited', '', '', '', 0.0)||('in', '', '', '', 0.0)||('articles', '', '', '', 0.0)||('identified', 'verb', 'C0205396', ['qlco'], 0.0)||('.', '', '', '', 0.0)||
('clinical trials', 'noun', 'C0008976', ['resa'], 0.0)||('comparing', '', '', '', 0.0)||('different', 'adj', 'C1705242', ['qlco'], 0.0)||('oral', 'adj', 'C0442027', ['spco'], 0.0)||('metronidazole', 'noun', 'C0025872', ['orch', 'phsu'], 0.0)||('regimens', '', '', '', 0.0)||('in', '', '', '', 0.0)||('which', '', '', '', 0.0)||('diagnostic', 'adj', 'C0011900', ['fndg'], 0.0)||('criteria', 'noun', 'C0243161', ['inpr'], 0.0)||('for', '', '', '', 0.0)||('bacterial vaginosis', 'noun', 'C0085166', ['dsyn'], 0.0)||('and', '', '', '', 0.0)||('criteria', 'noun', 'C0243161', ['inpr'], 0.0)||('to', '', '', '', 0.0)||('detect', '', '', '', 0.0)||('cure', 'noun', 'C1511495', ['gora'], 0.0)||('to', '', '', '', 0.0)||('treatment', 'noun', 'C0039798', ['ftcn'], 0.0)||('were', '', '', '', 0.0)||('described', 'verb', 'C1552738', ['idcn'], 0.0)||('.', '', '', '', 0.0)||
('articles', '', '', '', 0.0)||('that', '', '', '', 0.0)||('met', '', '', '', 0.0)||('inclusion', 'noun', 'C1512693', ['qlco'], 0.0)||('criteria', 'noun', 'C0243161', ['inpr'], 0.0)||('were', '', '', '', 0.0)||('critically', '', '', '', 0.0)||('appraised', '', '', '', 0.0)||('and', '', '', '', 0.0)||('those', '', '', '', 0.0)||('that', '', '', '', 0.0)||('passed', '', '', '', 0.0)||('were', '', '', '', 0.0)||('included', '', '', '', 0.0)||('in', '', '', '', 0.0)||('the', '', '', '', 0.0)||('analysis', 'noun', 'C0002778', ['lbpr'], 0.0)||('.', '', '', '', 0.0)||
('of', '', '', '', 0.0)||('52', '', '', '', 0.0)||('initial', 'adj', 'C0205265', ['tmco'], 0.0)||('articles', '', '', '', 0.0)||(',', '', '', '', 0.0)||('10', '', '', '', 0.0)||('met', '', '', '', 0.0)||('criteria', 'noun', 'C0243161', ['inpr'], 0.0)||('for', '', '', '', 0.0)||('inclusion', 'noun', 'C1512693', ['qlco'], 0.0)||('and', '', '', '', 0.0)||('passed', '', '', '', 0.0)||('critical', 'adj', 'C1511545', ['qlco'], 0.0)||('appraisal', '', '', '', 0.0)||('.', '', '', '', 0.0)||
('patients', 'noun', 'C0030705', ['podg'], 0.0)||('were', '', '', '', 0.0)||('divided', 'verb', 'C0332849', ['ftcn'], 0.0)||('in', '', '', '', 0.0)||('groups', 'noun', 'C0441833', ['idcn'], 0.0)||('according to', '', '', '', 0.0)||('the', '', '', '', 0.0)||('duration', 'noun', 'C0449238', ['tmco'], 0.0)||('of', '', '', '', 0.0)||('therapy', 'noun', 'C0039798', ['ftcn'], 0.0)||('received', 'verb', 'C1514756', ['qlco'], 0.0)||(':', '', '', '', 0.0)||('group a', 'noun', 'C0441835', ['clas'], 0.0)||('(', '', '', '', 0.0)||('n =', '', '', '', 0.0)||('413', '', '', '', 0.0)||(')', '', '', '', 0.0)||(',', '', '', '', 0.0)||('2', '', '', '', 0.0)||('-', '', '', '', 0.0)||('g', '', '', '', 0.0)||('single dose', '', '', '', 0.0)||(';', '', '', '', 0.0)||
('group b', '', '', '', 0.0)||('(', '', '', '', 0.0)||('n =', '', '', '', 0.0)||('193', '', '', '', 0.0)||(')', '', '', '', 0.0)||(',', '', '', '', 0.0)||('2', '', '', '', 0.0)||('-', '', '', '', 0.0)||('g', '', '', '', 0.0)||('single', 'adj', 'C0037179', ['popg'], 0.0)||('daily dose', 'noun', 'C2348070', ['qnco'], 0.0)||('for', '', '', '', 0.0)||('2', '', '', '', 0.0)||('days', 'noun', 'C0439228', ['tmco'], 0.0)||(';', '', '', '', 0.0)||
('group', 'noun', 'C0441833', ['idcn'], 0.0)||('c', '', '', '', 0.0)||('(', '', '', '', 0.0)||('n =', '', '', '', 0.0)||('317', '', '', '', 0.0)||(')', '', '', '', 0.0)||(',', '', '', '', 0.0)||('5', '', '', '', 0.0)||('days', 'noun', 'C0439228', ['tmco'], 0.0)||(';', '', '', '', 0.0)||
('and', '', '', '', 0.0)||('group', 'noun', 'C0441833', ['idcn'], 0.0)||('d (', '', '', '', 0.0)||('n =', '', '', '', 0.0)||('280', '', '', '', 0.0)||(')', '', '', '', 0.0)||(',', '', '', '', 0.0)||('7', '', '', '', 0.0)||('days', 'noun', 'C0439228', ['tmco'], 0.0)||('.', '', '', '', 0.0)||
('cure', 'noun', 'C1511495', ['gora'], 0.0)||('rates', '', '', '', 0.0)||('on', '', '', '', 0.0)||('initial', 'adj', 'C0205265', ['tmco'], 0.0)||('evaluation', 'noun', 'C0220825', ['ftcn'], 0.0)||('for', '', '', '', 0.0)||('the', '', '', '', 0.0)||('groups', 'noun', 'C0441833', ['idcn'], 0.0)||('were', '', '', '', 0.0)||('85 %', '', '', '', 0.0)||(',', '', '', '', 0.0)||('87 %', '', '', '', 0.0)||(',', '', '', '', 0.0)||('86 %', '', '', '', 0.0)||(',', '', '', '', 0.0)||('and', '', '', '', 0.0)||('87 %', '', '', '', 0.0)||(',', '', '', '', 0.0)||('respectively', '', '', '', 0.0)||('.', '', '', '', 0.0)||
('chi', 'noun', 'C1720589', ['inpr'], 0.0)||('2', '', '', '', 0.0)||('contingency table analysis', '', '', '', 0.0)||('showed', '', '', '', 0.0)||('no', '', '', '', 0.0)||('significant', 'adj', 'C0750502', ['idcn'], 0.0)||('difference', 'noun', 'C1705242', ['qlco'], 0.0)||('in', '', '', '', 0.0)||('cure', 'noun', 'C1511495', ['gora'], 0.0)||('rates', '', '', '', 0.0)||('among', '', '', '', 0.0)||('the', '', '', '', 0.0)||('groups', 'noun', 'C0441833', ['idcn'], 0.0)||('(', '', '', '', 0.0)||('p', '', '', '', 0.0)||('=', '', '', '', 0.0)||('.', '', '', '', 0.0)||('78', '', '', '', 0.0)||(')', '', '', '', 0.0)||('.', '', '', '', 0.0)||
('only', '', '', '', 0.0)||('465', '', '', '', 0.0)||('of', '', '', '', 0.0)||('these', '', '', '', 0.0)||('patients', 'noun', 'C0030705', ['podg'], 0.0)||('were', '', '', '', 0.0)||('evaluated', 'verb', 'C0220825', ['ftcn'], 0.0)||('for', '', '', '', 0.0)||('recurrence', 'noun', 'C0034897', ['phpr'], 0.0)||('of', '', '', '', 0.0)||('disease', 'noun', 'C0012634', ['dsyn'], 0.0)||('.', '', '', '', 0.0)||
('there', '', '', '', 0.0)||('was', '', '', '', 0.0)||('no', '', '', '', 0.0)||('significant', 'adj', 'C0750502', ['idcn'], 0.0)||('difference', 'noun', 'C1705242', ['qlco'], 0.0)||('in', '', '', '', 0.0)||('cure', 'noun', 'C1511495', ['gora'], 0.0)||('rates', '', '', '', 0.0)||('after', '', '', '', 0.0)||('4', '', '', '', 0.0)||('weeks', 'noun', 'C0439230', ['tmco'], 0.0)||('of', '', '', '', 0.0)||('therapy', 'noun', 'C0039798', ['ftcn'], 0.0)||('(', '', '', '', 0.0)||('p', '', '', '', 0.0)||('=', '', '', '', 0.0)||('.', '', '', '', 0.0)||('4', '', '', '', 0.0)||(')', '', '', '', 0.0)||('.', '', '', '', 0.0)||
('a', '', '', '', 0.0)||('2', '', '', '', 0.0)||('-', '', '', '', 0.0)||('g', '', '', '', 0.0)||('single - dose', '', '', '', 0.0)||('metronidazole', 'noun', 'C0025872', ['orch', 'phsu'], 0.0)||('regimen', 'noun', 'C0040808', ['topp'], 0.0)||('is', '', '', '', 0.0)||('as', '', '', '', 0.0)||('effective', 'adj', 'C1704419', ['qlco'], 0.0)||('as', '', '', '', 0.0)||('a', '', '', '', 0.0)||('single', 'adj', 'C0037179', ['popg'], 0.0)||('daily dose', 'noun', 'C2348070', ['qnco'], 0.0)||('given', '', '', '', 0.0)||('for', '', '', '', 0.0)||('2', '', '', '', 0.0)||('days', 'noun', 'C0439228', ['tmco'], 0.0)||('or', '', '', '', 0.0)||('a', '', '', '', 0.0)||('5', '', '', '', 0.0)||('-', '', '', '', 0.0)||('day', 'noun', 'C0439228', ['tmco'], 0.0)||('course', 'noun', 'C0750729', ['tmco'], 0.0)||('or', '', '', '', 0.0)||('a', '', '', '', 0.0)||('7', '', '', '', 0.0)||('-', '', '', '', 0.0)||('day', 'noun', 'C0439228', ['tmco'], 0.0)||('course', 'noun', 'C0750729', ['tmco'], 0.0)||('.', '', '', '', 0.0)||
