('either', '', '', '', 0.0)||('oral', 'adj', 'C0442027', ['spco'], 0.0)||('or', '', '', '', 0.0)||('vaginal', 'adj', 'C0042232', ['bpoc'], 0.0)||('metronidazole', 'noun', 'C0025872', ['orch', 'phsu'], 0.0)||('or', '', '', '', 0.0)||('vaginal', 'adj', 'C0042232', ['bpoc'], 0.0)||('clindamycin', 'noun', 'C0008947', ['antb', 'carb'], 0.0)||('provides', '', '', '', 0.0)||('equivalent', 'adj', 'C0205163', ['qlco'], 0.0)||('treatment', 'noun', 'C0039798', ['ftcn'], 0.0)||('for', '', '', '', 0.0)||('bacterial vaginosis', 'noun', 'C0085166', ['dsyn'], 0.0)||('in', '', '', '', 0.0)||('nonpregnant', '', '', '', 0.0)||('women', 'noun', 'C0043210', ['popg'], 0.0)||('.', '', '', '', 0.0)||
('oral', 'adj', 'C0442027', ['spco'], 0.0)||('clindamycin', 'noun', 'C0008947', ['antb', 'carb'], 0.0)||('300', '', '', '', 0.0)||('mg', '', '', '', 0.0)||('twice daily', 'adv', 'C0585361', ['tmco'], 0.0)||('for', '', '', '', 0.0)||('7', '', '', '', 0.0)||('days', 'noun', 'C0439228', ['tmco'], 0.0)||('is', '', '', '', 0.0)||('an', '', '', '', 0.0)||('effective', 'adj', 'C1704419', ['qlco'], 0.0)||('alternative', 'noun', 'C1523987', ['cnce'], 0.0)||('.', '', '', '', 0.0)||
('there', '', '', '', 0.0)||('is', '', '', '', 0.0)||('conflicting', '', '', '', 0.0)||('evidence', 'noun', 'C0332120', ['ftcn'], 0.0)||('regarding', '', '', '', 0.0)||('the', '', '', '', 0.0)||('efficacy', 'noun', 'C1707887', ['resa'], 0.0)||('of', '', '', '', 0.0)||('a', '', '', '', 0.0)||('single', 'adj', 'C0037179', ['popg'], 0.0)||('2', '', '', '', 0.0)||('-', '', '', '', 0.0)||('g', '', '', '', 0.0)||('dose', 'noun', 'C0178602', ['qnco'], 0.0)||('of', '', '', '', 0.0)||('oral', 'adj', 'C0442027', ['spco'], 0.0)||('metronidazole', 'noun', 'C0025872', ['orch', 'phsu'], 0.0)||('.', '', '', '', 0.0)||
('ofloxacin', 'noun', 'C0028902', ['antb', 'orch'], 0.0)||('200', '', '', '', 0.0)||('mg', '', '', '', 0.0)||('or', '', '', '', 0.0)||('300', '', '', '', 0.0)||('mg', '', '', '', 0.0)||('twice daily', 'adv', 'C0585361', ['tmco'], 0.0)||('is', '', '', '', 0.0)||('less', '', '', '', 0.0)||('effective', 'adj', 'C1704419', ['qlco'], 0.0)||('but', '', '', '', 0.0)||('could', '', '', '', 0.0)||('be', '', '', '', 0.0)||('considered', '', '', '', 0.0)||('for', '', '', '', 0.0)||('women', 'noun', 'C0043210', ['popg'], 0.0)||('with', '', '', '', 0.0)||('intolerance', 'noun', 'C0231199', ['orgf'], 0.0)||('to', '', '', '', 0.0)||('metronidazole', 'noun', 'C0025872', ['orch', 'phsu'], 0.0)||('or', '', '', '', 0.0)||('clindamycin', 'noun', 'C0008947', ['antb', 'carb'], 0.0)||('.', '', '', '', 0.0)||
('overall', 'adj', 'C0282416', ['inpr'], 0.0)||('recurrence rates', '', '', '', 0.0)||('of', '', '', '', 0.0)||('up to', '', '', '', 0.0)||('30 %', '', '', '', 0.0)||('have', '', '', '', 0.0)||('been', '', '', '', 0.0)||('reported', 'verb', 'C0684224', ['inpr'], 0.0)||('.', '', '', '', 0.0)||
