('injuries', 'noun', 'C0175677', ['inpo'], 0.0)||('involving', 'verb', 'C1314939', ['ftcn'], 0.0)||('the', '', '', '', 0.0)||('achilles tendon', 'noun', 'C0001074', ['bpoc'], 0.0)||('and', '', '', '', 0.0)||('manifested', '', '', '', 0.0)||('as', '', '', '', 0.0)||('chronic', 'adj', 'C0205191', ['tmco'], 0.0)||('tendon', 'noun', 'C0039508', ['bpoc'], 0.0)||('pain', 'noun', 'C0030193', ['sosy'], 0.0)||('are', '', '', '', 0.0)||('common', 'adj', 'C0205214', ['qnco'], 0.0)||(',', '', '', '', 0.0)||('especially', '', '', '', 0.0)||('among', '', '', '', 0.0)||('recreational', '', '', '', 0.0)||('athletes', 'noun', 'C0238703', ['prog'], 0.0)||('.', '', '', '', 0.0)||
('in', '', '', '', 0.0)||('a', '', '', '', 0.0)||('pilot study', 'noun', 'C0031928', ['resa'], 0.0)||('on', '', '', '', 0.0)||('a', '', '', '', 0.0)||('small', 'adj', 'C0700321', ['qnco'], 0.0)||('group', 'noun', 'C0441833', ['idcn'], 0.0)||('of', '', '', '', 0.0)||('patients', 'noun', 'C0030705', ['podg'], 0.0)||('with', '', '', '', 0.0)||('chronic', 'adj', 'C0205191', ['tmco'], 0.0)||('painful', 'adj', 'C0030193', ['sosy'], 0.0)||('mid - portion', '', '', '', 0.0)||('achilles', 'noun', 'C0001074', ['bpoc'], 0.0)||('tendinosis', 'noun', 'C1568363', ['dsyn'], 0.0)||(',', '', '', '', 0.0)||('eccentric', 'adj', 'C0439740', ['qlco'], 0.0)||('calf - muscle', '', '', '', 0.0)||('training', 'noun', 'C0040607', ['edac'], 0.0)||('was', '', '', '', 0.0)||('shown', '', '', '', 0.0)||('to', '', '', '', 0.0)||('give', 'verb', 'C1947971', ['ftcn'], 0.0)||('good', 'adj', 'C0205170', ['qlco'], 0.0)||('clinical results', '', '', '', 0.0)||('.', '', '', '', 0.0)||
('the', '', '', '', 0.0)||('aim', 'noun', 'C1947946', ['idcn'], 0.0)||('of', '', '', '', 0.0)||('this', '', '', '', 0.0)||('prospective study', 'noun', 'C0033522', ['resa'], 0.0)||('was', '', '', '', 0.0)||('to', '', '', '', 0.0)||('investigate', '', '', '', 0.0)||('if', '', '', '', 0.0)||('the', '', '', '', 0.0)||('previously', '', '', '', 0.0)||('achieved', '', '', '', 0.0)||('good', 'adj', 'C0205170', ['qlco'], 0.0)||('clinical results', '', '', '', 0.0)||('could', '', '', '', 0.0)||('be', '', '', '', 0.0)||('reproduced', '', '', '', 0.0)||('in', '', '', '', 0.0)||('a', '', '', '', 0.0)||('larger', 'adj', 'C0549177', ['qnco'], 0.0)||('group', 'noun', 'C0441833', ['idcn'], 0.0)||('of', '', '', '', 0.0)||('patients', 'noun', 'C0030705', ['podg'], 0.0)||(',', '', '', '', 0.0)||('and', '', '', '', 0.0)||('also', '', '', '', 0.0)||('to', '', '', '', 0.0)||('investigate', '', '', '', 0.0)||('the', '', '', '', 0.0)||('effects', '', '', '', 0.0)||('of', '', '', '', 0.0)||('eccentric', 'adj', 'C0439740', ['qlco'], 0.0)||('calf - muscle', '', '', '', 0.0)||('training', 'noun', 'C0040607', ['edac'], 0.0)||('in', '', '', '', 0.0)||('patients', 'noun', 'C0030705', ['podg'], 0.0)||('with', '', '', '', 0.0)||('chronic', 'adj', 'C0205191', ['tmco'], 0.0)||('insertional', '', '', '', 0.0)||('achilles tendon', 'noun', 'C0001074', ['bpoc'], 0.0)||('pain', 'noun', 'C0030193', ['sosy'], 0.0)||('.', '', '', '', 0.0)||
('seventy', '', '', '', 0.0)||('-', '', '', '', 0.0)||('eight', '', 'C0205454', ['qnco'], 0.0)||('consecutive', 'adj', 'C1707491', ['qlco'], 0.0)||('patients', 'noun', 'C0030705', ['podg'], 0.0)||(',', '', '', '', 0.0)||('having', '', '', '', 0.0)||('chronic', 'adj', 'C0205191', ['tmco'], 0.0)||('painful', 'adj', 'C0030193', ['sosy'], 0.0)||('achilles', 'noun', 'C0001074', ['bpoc'], 0.0)||('tendinosis', 'noun', 'C1568363', ['dsyn'], 0.0)||('at', '', '', '', 0.0)||('the', '', '', '', 0.0)||('mid - portion', '', '', '', 0.0)||('(', '', '', '', 0.0)||('2', '', '', '', 0.0)||('-', '', '', '', 0.0)||('6', '', '', '', 0.0)||('cm', '', '', '', 0.0)||('level', 'noun', 'C0441889', ['qlco'], 0.0)||(')', '', '', '', 0.0)||('in', '', '', '', 0.0)||('a', '', '', '', 0.0)||('total', 'noun', 'C0439810', ['qlco'], 0.0)||('of', '', '', '', 0.0)||('101', '', '', '', 0.0)||('tendons', 'noun', 'C0039508', ['bpoc'], 0.0)||('(', '', '', '', 0.0)||('55', '', '', '', 0.0)||('unilateral', 'adj', 'C0205092', ['spco'], 0.0)||('and', '', '', '', 0.0)||('23', '', '', '', 0.0)||('bilateral', 'adj', 'C0238767', ['spco'], 0.0)||(')', '', '', '', 0.0)||(',', '', '', '', 0.0)||('and', '', '', '', 0.0)||('thirty', '', '', '', 0.0)||('consecutive', 'adj', 'C1707491', ['qlco'], 0.0)||('patients', 'noun', 'C0030705', ['podg'], 0.0)||('with', '', '', '', 0.0)||('chronic', 'adj', 'C0205191', ['tmco'], 0.0)||('insertional', '', '', '', 0.0)||('achilles tendon', 'noun', 'C0001074', ['bpoc'], 0.0)||('pain', 'noun', 'C0030193', ['sosy'], 0.0)||('in', '', '', '', 0.0)||('31', '', '', '', 0.0)||('tendons', 'noun', 'C0039508', ['bpoc'], 0.0)||('(', '', '', '', 0.0)||('29', '', '', '', 0.0)||('unilateral', 'adj', 'C0205092', ['spco'], 0.0)||('and', '', '', '', 0.0)||('one', 'noun', 'C0205447', ['qnco'], 0.0)||('bilateral', 'adj', 'C0238767', ['spco'], 0.0)||(')', '', '', '', 0.0)||('were', '', '', '', 0.0)||('treated', 'verb', 'C1522326', ['ftcn'], 0.0)||('with', '', '', '', 0.0)||('eccentric', 'adj', 'C0439740', ['qlco'], 0.0)||('calf - muscle', '', '', '', 0.0)||('training', 'noun', 'C0040607', ['edac'], 0.0)||('for', '', '', '', 0.0)||('12', '', '', '', 0.0)||('weeks', 'noun', 'C0439230', ['tmco'], 0.0)||('.', '', '', '', 0.0)||
('most', '', '', '', 0.0)||('patients', 'noun', 'C0030705', ['podg'], 0.0)||('were', '', '', '', 0.0)||('recreational', '', '', '', 0.0)||('athletes', 'noun', 'C0238703', ['prog'], 0.0)||('.', '', '', '', 0.0)||
('evaluation', 'noun', 'C0220825', ['ftcn'], 0.0)||('of', '', '', '', 0.0)||('the', '', '', '', 0.0)||('amount', 'noun', 'C1265611', ['qnco'], 0.0)||('of', '', '', '', 0.0)||('tendon', 'noun', 'C0039508', ['bpoc'], 0.0)||('pain', 'noun', 'C0030193', ['sosy'], 0.0)||('during', '', '', '', 0.0)||('activity', 'noun', 'C0441655', ['acty'], 0.0)||('was', '', '', '', 0.0)||('recorded', '', '', '', 0.0)||('on', '', '', '', 0.0)||('a', '', '', '', 0.0)||('visual analogue scale', '', '', '', 0.0)||(',', '', '', '', 0.0)||('before', '', '', '', 0.0)||('and', '', '', '', 0.0)||('after', '', '', '', 0.0)||('treatment', 'noun', 'C0039798', ['ftcn'], 0.0)||('.', '', '', '', 0.0)||
('in', '', '', '', 0.0)||('90', '', '', '', 0.0)||('of', '', '', '', 0.0)||('the', '', '', '', 0.0)||('101', '', '', '', 0.0)||('achilles tendons', 'noun', 'C0001074', ['bpoc'], 0.0)||('(', '', '', '', 0.0)||('89 %', '', '', '', 0.0)||(')', '', '', '', 0.0)||('with', '', '', '', 0.0)||('chronic', 'adj', 'C0205191', ['tmco'], 0.0)||('painful', 'adj', 'C0030193', ['sosy'], 0.0)||('mid - portion', '', '', '', 0.0)||('achilles', 'noun', 'C0001074', ['bpoc'], 0.0)||('tendinosis', 'noun', 'C1568363', ['dsyn'], 0.0)||(',', '', '', '', 0.0)||('treatment', 'noun', 'C0039798', ['ftcn'], 0.0)||('was', '', '', '', 0.0)||('satisfactory', 'adj', 'C1547307', ['inpr'], 0.0)||('and', '', '', '', 0.0)||('the', '', '', '', 0.0)||('patients', 'noun', 'C0030705', ['podg'], 0.0)||('were', '', '', '', 0.0)||('back', '', '', '', 0.0)||('on', '', '', '', 0.0)||('their', '', '', '', 0.0)||('pre - injury', '', '', '', 0.0)||('activity', 'noun', 'C0441655', ['acty'], 0.0)||('level', 'noun', 'C0441889', ['qlco'], 0.0)||('after', '', '', '', 0.0)||('the', '', '', '', 0.0)||('12', '', '', '', 0.0)||('-', '', '', '', 0.0)||('week', 'noun', 'C0439230', ['tmco'], 0.0)||('training', 'adj', 'C0040607', ['edac'], 0.0)||('regimen', 'noun', 'C0040808', ['topp'], 0.0)||('.', '', '', '', 0.0)||
('in', '', '', '', 0.0)||('these', '', '', '', 0.0)||('patients', 'noun', 'C0030705', ['podg'], 0.0)||(',', '', '', '', 0.0)||('the', '', '', '', 0.0)||('amount', 'noun', 'C1265611', ['qnco'], 0.0)||('of', '', '', '', 0.0)||('pain', 'noun', 'C0030193', ['sosy'], 0.0)||('during', '', '', '', 0.0)||('activity', 'noun', 'C0441655', ['acty'], 0.0)||(',', '', '', '', 0.0)||('registered', 'verb', 'C1514821', ['hlca'], 0.0)||('on', '', '', '', 0.0)||('the', '', '', '', 0.0)||('visual analogue scale', '', '', '', 0.0)||('-', '', '', '', 0.0)||('scale', 'noun', 'C0175659', ['medd'], 0.0)||('(', '', '', '', 0.0)||('mean', 'noun', 'C0444504', ['qnco'], 0.0)||('+', '', '', '', 0.0)||('/', '', '', '', 0.0)||('-', '', '', '', 0.0)||('sd', '', '', '', 0.0)||(')', '', '', '', 0.0)||(',', '', '', '', 0.0)||('decreased', 'verb', 'C0205216', ['qnco'], 0.0)||('significantly', '', '', '', 0.0)||('from', '', '', '', 0.0)||('66 . 8', '', '', '', 0.0)||('+', '', '', '', 0.0)||('/', '', '', '', 0.0)||('-', '', '', '', 0.0)||('19 . 4', '', '', '', 0.0)||('to', '', '', '', 0.0)||('10 . 2', '', '', '', 0.0)||('+', '', '', '', 0.0)||('/', '', '', '', 0.0)||('-', '', '', '', 0.0)||('13 . 7', '', '', '', 0.0)||('.', '', '', '', 0.0)||
('on', '', '', '', 0.0)||('the', '', '', '', 0.0)||('contrary', '', '', '', 0.0)||(',', '', '', '', 0.0)||('in', '', '', '', 0.0)||('only', '', '', '', 0.0)||('ten', 'verb', 'C0014518', ['dsyn'], 0.0)||('of', '', '', '', 0.0)||('the', '', '', '', 0.0)||('tendons', 'noun', 'C0039508', ['bpoc'], 0.0)||('(', '', '', '', 0.0)||('32 %', '', '', '', 0.0)||(')', '', '', '', 0.0)||('with', '', '', '', 0.0)||('chronic', 'adj', 'C0205191', ['tmco'], 0.0)||('insertional', '', '', '', 0.0)||('achilles tendon', 'noun', 'C0001074', ['bpoc'], 0.0)||('pain', 'noun', 'C0030193', ['sosy'], 0.0)||('was', '', '', '', 0.0)||('treatment', 'noun', 'C0039798', ['ftcn'], 0.0)||('satisfactory', 'adj', 'C1547307', ['inpr'], 0.0)||(',', '', '', '', 0.0)||('with', '', '', '', 0.0)||('a', '', '', '', 0.0)||('significant', 'adj', 'C0750502', ['idcn'], 0.0)||('decrease', 'noun', 'C0392756', ['qlco'], 0.0)||('on', '', '', '', 0.0)||('the', '', '', '', 0.0)||('visual analogue scale', '', '', '', 0.0)||('-', '', '', '', 0.0)||('scale', 'noun', 'C0175659', ['medd'], 0.0)||('(', '', '', '', 0.0)||('mean', 'noun', 'C0444504', ['qnco'], 0.0)||('+', '', '', '', 0.0)||('/', '', '', '', 0.0)||('-', '', '', '', 0.0)||('sd', '', '', '', 0.0)||(')', '', '', '', 0.0)||(',', '', '', '', 0.0)||('from', '', '', '', 0.0)||('68 . 3', '', '', '', 0.0)||('+', '', '', '', 0.0)||('/', '', '', '', 0.0)||('-', '', '', '', 0.0)||('7 . 0', '', '', '', 0.0)||('to', '', '', '', 0.0)||('13 . 3', '', '', '', 0.0)||('+', '', '', '', 0.0)||('/', '', '', '', 0.0)||('-', '', '', '', 0.0)||('13 . 2', '', '', '', 0.0)||('.', '', '', '', 0.0)||
('our', '', '', '', 0.0)||('conclusion', 'noun', 'C1707478', ['idcn'], 0.0)||('is', '', '', '', 0.0)||('that', '', '', '', 0.0)||('treatment', 'noun', 'C0039798', ['ftcn'], 0.0)||('with', '', '', '', 0.0)||('eccentric', 'adj', 'C0439740', ['qlco'], 0.0)||('calf - muscle', '', '', '', 0.0)||('training', 'noun', 'C0040607', ['edac'], 0.0)||('produced', '', '', '', 0.0)||('good', 'adj', 'C0205170', ['qlco'], 0.0)||('clinical results', '', '', '', 0.0)||('in', '', '', '', 0.0)||('patients', 'noun', 'C0030705', ['podg'], 0.0)||('with', '', '', '', 0.0)||('chronic', 'adj', 'C0205191', ['tmco'], 0.0)||('painful', 'adj', 'C0030193', ['sosy'], 0.0)||('mid - portion', '', '', '', 0.0)||('achilles', 'noun', 'C0001074', ['bpoc'], 0.0)||('tendinosis', 'noun', 'C1568363', ['dsyn'], 0.0)||(',', '', '', '', 0.0)||('but', '', '', '', 0.0)||('not', 'adv', 'C1518422', ['ftcn'], 0.0)||('in', '', '', '', 0.0)||('patients', 'noun', 'C0030705', ['podg'], 0.0)||('with', '', '', '', 0.0)||('chronic', 'adj', 'C0205191', ['tmco'], 0.0)||('insertional', '', '', '', 0.0)||('achilles tendon', 'noun', 'C0001074', ['bpoc'], 0.0)||('pain', 'noun', 'C0030193', ['sosy'], 0.0)||('.', '', '', '', 0.0)||
