('surgery', 'noun', 'C0038894', ['bmod'], 0.0)||('is', '', '', '', 0.0)||('an', '', '', '', 0.0)||('option', 'noun', 'C1518601', ['ftcn'], 0.0)||('for', '', '', '', 0.0)||('patients', 'noun', 'C0030705', ['podg'], 0.0)||('with', '', '', '', 0.0)||('chronic', 'adj', 'C0205191', ['tmco'], 0.0)||('noninsertional', '', '', '', 0.0)||('achilles', 'noun', 'C0001074', ['bpoc'], 0.0)||('tendonopathy', '', '', '', 0.0)||('who', '', '', '', 0.0)||('have', '', '', '', 0.0)||('failed', 'verb', 'C0231175', ['ftcn'], 0.0)||('conservative', '', '', '', 0.0)||('measures', 'noun', 'C0079809', ['qnco'], 0.0)||('and', '', '', '', 0.0)||('a', '', '', '', 0.0)||('3', '', '', '', 0.0)||('-', '', '', '', 0.0)||('to', '', '', '', 0.0)||('6', '', '', '', 0.0)||('-', '', '', '', 0.0)||('month', 'noun', 'C0439231', ['tmco'], 0.0)||('rehabilitation', 'noun', 'C0034991', ['topp'], 0.0)||('program', 'noun', 'C1709697', ['cnce'], 0.0)||('.', '', '', '', 0.0)||
('in', '', '', '', 0.0)||('a', '', '', '', 0.0)||('systematic review', '', '', '', 0.0)||('of', '', '', '', 0.0)||('26', '', '', '', 0.0)||('studies', '', '', '', 0.0)||('of', '', '', '', 0.0)||('patients', 'noun', 'C0030705', ['podg'], 0.0)||('managed', 'verb', 'C1273870', ['ocac'], 0.0)||('surgically', 'adv', 'C0543467', ['topp'], 0.0)||(',', '', '', '', 0.0)||('the', '', '', '', 0.0)||('mean', 'noun', 'C0444504', ['qnco'], 0.0)||('success rate', '', '', '', 0.0)||('(', '', '', '', 0.0)||('full', 'adj', 'C0443225', ['qlco'], 0.0)||('return', 'noun', 'C0332156', ['qlco'], 0.0)||('to', '', '', '', 0.0)||('preinjury', '', '', '', 0.0)||('activity', 'noun', 'C0441655', ['acty'], 0.0)||('level', 'noun', 'C0441889', ['qlco'], 0.0)||(')', '', '', '', 0.0)||('was', '', '', '', 0.0)||('77 %', '', '', '', 0.0)||('.', '', '', '', 0.0)||
('however', '', '', '', 0.0)||(',', '', '', '', 0.0)||('a', '', '', '', 0.0)||('negative', 'adj', 'C0205160', ['qlco'], 0.0)||('correlation', 'noun', 'C1707520', ['qlco'], 0.0)||('was', '', '', '', 0.0)||('observed', 'verb', 'C1441672', ['ftcn'], 0.0)||('between', '', '', '', 0.0)||('the', '', '', '', 0.0)||('reported', 'adj', 'C0684224', ['inpr'], 0.0)||('success rate', '', '', '', 0.0)||('and', '', '', '', 0.0)||('the', '', '', '', 0.0)||('overall', 'adj', 'C0282416', ['inpr'], 0.0)||('methods', 'noun', 'C0025663', ['inpr'], 0.0)||('score', 'verb', 'C0449820', ['qnco'], 0.0)||(',', '', '', '', 0.0)||('a', '', '', '', 0.0)||('rating', 'noun', 'C0871208', ['acty'], 0.0)||('of', '', '', '', 0.0)||('the', '', '', '', 0.0)||('quality', 'noun', 'C0332306', ['qlco'], 0.0)||('of', '', '', '', 0.0)||('studies', '', '', '', 0.0)||('(', '', '', '', 0.0)||('r', '', '', '', 0.0)||('=', '', '', '', 0.0)||('0 . 53', '', '', '', 0.0)||(';', '', '', '', 0.0)||('p', '', '', '', 0.0)||('<', '', '', '', 0.0)||('0 . 01', '', '', '', 0.0)||(')', '', '', '', 0.0)||('.', '', '', '', 0.0)||
('only', '', '', '', 0.0)||('5', '', '', '', 0.0)||('of', '', '', '', 0.0)||('the', '', '', '', 0.0)||('studies', '', '', '', 0.0)||('reviewed', 'verb', 'C1709940', ['qlco'], 0.0)||('were', '', '', '', 0.0)||('prospective cohort studies', '', '', '', 0.0)||(';', '', '', '', 0.0)||
('the', '', '', '', 0.0)||('remaining', 'adj', 'C1527428', ['qlco'], 0.0)||('21', '', '', '', 0.0)||('were', '', '', '', 0.0)||('retrospective cohort studies', '', '', '', 0.0)||('and', '', '', '', 0.0)||('case studies', 'noun', 'C0085973', ['inpr'], 0.0)||('.', '', '', '', 0.0)||
