('a', '', '', '', 0.0)||('cochrane', '', '', '', 0.0)||('systematic review', '', '', '', 0.0)||('evaluating', 'verb', 'C0220825', ['ftcn'], 0.0)||('a', '', '', '', 0.0)||('small', 'adj', 'C0700321', ['qnco'], 0.0)||('number', 'noun', 'C0449788', ['qnco'], 0.0)||('of', '', '', '', 0.0)||('trials', '', '', '', 0.0)||(',', '', '', '', 0.0)||('with', '', '', '', 0.0)||('variable', 'adj', 'C0439828', ['qlco'], 0.0)||('quality', 'noun', 'C0332306', ['qlco'], 0.0)||('and', '', '', '', 0.0)||('inconsistent', 'adj', 'C0442809', ['qlco'], 0.0)||('outcome', 'noun', 'C1274040', ['ftcn'], 0.0)||('measures', 'noun', 'C0079809', ['qnco'], 0.0)||(',', '', '', '', 0.0)||('compared', 'verb', 'C1707455', ['acty'], 0.0)||('dietary', 'adj', 'C0012155', ['food'], 0.0)||('management', 'noun', 'C0001554', ['ocac'], 0.0)||('to', '', '', '', 0.0)||('routine', 'adj', 'C0205547', ['qlco'], 0.0)||('care', 'noun', 'C0580931', ['fndg'], 0.0)||('in', '', '', '', 0.0)||('gestational', 'adj', 'C0439671', ['tmco'], 0.0)||('diabetics', '', '', '', 0.0)||('.', '', '', '', 0.0)||
('while', '', '', '', 0.0)||('fewer', '', '', '', 0.0)||('infants', 'noun', 'C0021270', ['aggp'], 0.0)||('with', '', '', '', 0.0)||('birth weights', 'noun', 'C0005612', ['orga'], 0.0)||('>', '', '', '', 0.0)||('4000', '', '', '', 0.0)||('g', '', '', '', 0.0)||('were', '', '', '', 0.0)||('delivered', 'verb', 'C1705822', ['acty'], 0.0)||('in', '', '', '', 0.0)||('the', '', '', '', 0.0)||('diet therapy', 'noun', 'C0012159', ['topp'], 0.0)||('group', 'noun', 'C0441833', ['idcn'], 0.0)||('(', '', '', '', 0.0)||('or', '', '', '', 0.0)||('=', '', '', '', 0.0)||('0 . 78', '', '', '', 0.0)||(';', '', '', '', 0.0)||('95 %', '', '', '', 0.0)||('ci', 'noun', 'C1417638', ['gngm'], 0.0)||(',', '', '', '', 0.0)||('0 . 45', '', '', '', 0.0)||('-', '', '', '', 0.0)||('1 . 35', '', '', '', 0.0)||(')', '', '', '', 0.0)||(',', '', '', '', 0.0)||('the', '', '', '', 0.0)||('results', 'noun', 'C1274040', ['ftcn'], 0.0)||('were', '', '', '', 0.0)||('not', 'adv', 'C1518422', ['ftcn'], 0.0)||('statistically significant', 'adj', 'C0237881', ['qnco'], 0.0)||('.', '', '', '', 0.0)||
('no', '', '', '', 0.0)||('other', '', '', '', 0.0)||('important', '', '', '', 0.0)||('clinical', 'adj', 'C0205210', ['qlco'], 0.0)||('differences', '', '', '', 0.0)||('were', '', '', '', 0.0)||('found', '', '', '', 0.0)||('.', '', '', '', 0.0)||
