('laboratory', 'noun', 'C0022877', ['mnob', 'orgt'], 0.0)||('evaluation', 'noun', 'C0220825', ['ftcn'], 0.0)||('of', '', '', '', 0.0)||('acute', 'adj', 'C0205178', ['tmco'], 0.0)||('upper', 'adj', 'C1282910', ['spco'], 0.0)||('genital', 'adj', 'C0559522', ['bdsy'], 0.0)||('tract', 'noun', 'C1185740', ['bpoc'], 0.0)||('infection', 'noun', 'C0021311', ['dsyn'], 0.0)||('.', '', '', '', 0.0)||
('objective', 'noun', 'C0018017', ['inpr'], 0.0)||(':', '', '', '', 0.0)||('to', '', '', '', 0.0)||('evaluate', 'verb', 'C0220825', ['ftcn'], 0.0)||('the', '', '', '', 0.0)||('diagnostic test', 'noun', 'C0086143', ['diap'], 0.0)||('characteristics', 'noun', 'C1521970', ['qlco'], 0.0)||('of', '', '', '', 0.0)||('common', 'adj', 'C0205214', ['qnco'], 0.0)||('tests', 'noun', 'C0022885', ['lbpr'], 0.0)||('used', '', '', '', 0.0)||('to', '', '', '', 0.0)||('diagnose', '', '', '', 0.0)||('upper', 'adj', 'C1282910', ['spco'], 0.0)||('genital', 'adj', 'C0559522', ['bdsy'], 0.0)||('tract', 'noun', 'C1185740', ['bpoc'], 0.0)||('infection', 'noun', 'C0021311', ['dsyn'], 0.0)||('.', '', '', '', 0.0)||
('methods', 'noun', 'C0025663', ['inpr'], 0.0)||(':', '', '', '', 0.0)||('subjects', '', '', '', 0.0)||('included', '', '', '', 0.0)||('women', 'noun', 'C0043210', ['popg'], 0.0)||('who', '', '', '', 0.0)||('either', '', '', '', 0.0)||('met', '', '', '', 0.0)||('the', '', '', '', 0.0)||('centers for disease control and prevention', 'noun', 'C0007670', ['hcro'], 0.0)||("' s", '', '', '', 0.0)||('minimal', 'adj', 'C0547040', ['qlco'], 0.0)||('criteria', 'noun', 'C0243161', ['inpr'], 0.0)||('for', '', '', '', 0.0)||('acute', 'adj', 'C0205178', ['tmco'], 0.0)||('pelvic inflammatory disease', 'noun', 'C0242172', ['dsyn'], 0.0)||('or', '', '', '', 0.0)||('who', '', '', '', 0.0)||('had', '', '', '', 0.0)||('other', '', '', '', 0.0)||('signs', 'noun', 'C0220912', ['ftcn'], 0.0)||('of', '', '', '', 0.0)||('upper', 'adj', 'C1282910', ['spco'], 0.0)||('genital', 'adj', 'C0559522', ['bdsy'], 0.0)||('tract', 'noun', 'C1185740', ['bpoc'], 0.0)||('infection', 'noun', 'C0021311', ['dsyn'], 0.0)||('(', '', '', '', 0.0)||('i . e .', '', '', '', 0.0)||(',', '', '', '', 0.0)||('atypical', 'adj', 'C0205182', ['qlco'], 0.0)||('pelvic pain', 'noun', 'C0030794', ['sosy'], 0.0)||(',', '', '', '', 0.0)||('abnormal', 'adj', 'C0205161', ['ftcn'], 0.0)||('uterine', 'adj', 'C0042149', ['bpoc'], 0.0)||('bleeding', 'noun', 'C0019080', ['fndg'], 0.0)||(',', '', '', '', 0.0)||('or', '', '', '', 0.0)||('cervicitis', 'noun', 'C0007860', ['dsyn'], 0.0)||(')', '', '', '', 0.0)||('.', '', '', '', 0.0)||
('the', '', '', '', 0.0)||('subjects', '', '', '', 0.0)||('were', '', '', '', 0.0)||('evaluated', 'verb', 'C0220825', ['ftcn'], 0.0)||('with', '', '', '', 0.0)||('a', '', '', '', 0.0)||('baseline', 'noun', 'C0168634', ['bodm'], 0.0)||('interview', 'noun', 'C0021822', ['acty'], 0.0)||(',', '', '', '', 0.0)||('comprehensive', 'adj', 'C1880156', ['qlco'], 0.0)||('laboratory', 'noun', 'C0022877', ['mnob', 'orgt'], 0.0)||('testing', 'noun', 'C0039593', ['ftcn'], 0.0)||(',', '', '', '', 0.0)||('and', '', '', '', 0.0)||('either', '', '', '', 0.0)||('an', '', '', '', 0.0)||('endometrial biopsy', 'noun', 'C1510477', ['diap'], 0.0)||('or', '', '', '', 0.0)||('laparoscopy', 'noun', 'C0031150', ['diap'], 0.0)||('for', '', '', '', 0.0)||('definitive', 'adj', 'C0443196', ['tmco'], 0.0)||('diagnosis', 'noun', 'C0011900', ['fndg'], 0.0)||('of', '', '', '', 0.0)||('upper', 'adj', 'C1282910', ['spco'], 0.0)||('genital', 'adj', 'C0559522', ['bdsy'], 0.0)||('tract', 'noun', 'C1185740', ['bpoc'], 0.0)||('infection', 'noun', 'C0021311', ['dsyn'], 0.0)||('.', '', '', '', 0.0)||
('patients', 'noun', 'C0030705', ['podg'], 0.0)||('were', '', '', '', 0.0)||('considered', '', '', '', 0.0)||('positive', 'noun', 'C1446409', ['qlco'], 0.0)||('for', '', '', '', 0.0)||('upper', 'adj', 'C1282910', ['spco'], 0.0)||('genital', 'adj', 'C0559522', ['bdsy'], 0.0)||('tract', 'noun', 'C1185740', ['bpoc'], 0.0)||('infection', 'noun', 'C0021311', ['dsyn'], 0.0)||('if', '', '', '', 0.0)||('they', '', '', '', 0.0)||('had', '', '', '', 0.0)||('any', '', '', '', 0.0)||('of', '', '', '', 0.0)||('the', '', '', '', 0.0)||('following', '', '', '', 0.0)||('findings', 'noun', 'C2607943', ['ftcn'], 0.0)||(':', '', '', '', 0.0)||('1', '', '', '', 0.0)||(')', '', '', '', 0.0)||('histologic', 'adj', 'C0205462', ['ftcn'], 0.0)||('evidence', 'noun', 'C0332120', ['ftcn'], 0.0)||('of', '', '', '', 0.0)||('acute', 'adj', 'C0205178', ['tmco'], 0.0)||('endometriosis', 'noun', 'C0014175', ['dsyn'], 0.0)||('or', '', '', '', 0.0)||('salpingitis', 'noun', 'C0036130', ['dsyn'], 0.0)||(',', '', '', '', 0.0)||('2', '', '', '', 0.0)||(')', '', '', '', 0.0)||('laparoscopic', 'adj', 'C0031150', ['diap'], 0.0)||('visualization', 'noun', 'C0175631', ['menp'], 0.0)||('of', '', '', '', 0.0)||('purulent', 'adj', 'C0439665', ['qlco'], 0.0)||('exudate', 'noun', 'C0015388', ['bdsu'], 0.0)||('in', '', '', '', 0.0)||('the', '', '', '', 0.0)||('pelvis', 'noun', 'C0030797', ['blor'], 0.0)||('without', '', '', '', 0.0)||('another', '', '', '', 0.0)||('source', 'noun', 'C0449416', ['fndg'], 0.0)||(',', '', '', '', 0.0)||('or', '', '', '', 0.0)||('3', '', '', '', 0.0)||(')', '', '', '', 0.0)||('positive', 'noun', 'C1446409', ['qlco'], 0.0)||('testing', 'noun', 'C0039593', ['ftcn'], 0.0)||('for', '', '', '', 0.0)||('neisseria gonorrhoeae', '', '', '', 0.0)||('or', '', '', '', 0.0)||('chlamydia trachomatis', 'noun', 'C0008151', ['bact'], 0.0)||('from', '', '', '', 0.0)||('the', '', '', '', 0.0)||('endometrium', 'noun', 'C0014180', ['bpoc'], 0.0)||(',', '', '', '', 0.0)||('fallopian tubes', 'noun', 'C0015560', ['bpoc'], 0.0)||(',', '', '', '', 0.0)||('or', '', '', '', 0.0)||('pelvis', 'noun', 'C0030797', ['blor'], 0.0)||('.', '', '', '', 0.0)||
('results', 'noun', 'C1274040', ['ftcn'], 0.0)||(':', '', '', '', 0.0)||('one', 'noun', 'C0205447', ['qnco'], 0.0)||('hundred', '', '', '', 0.0)||('twenty', '', '', '', 0.0)||('women', 'noun', 'C0043210', ['popg'], 0.0)||('with', '', '', '', 0.0)||('adequate', 'adj', 'C0205410', ['qlco'], 0.0)||('endometrial', 'adj', 'C0227843', ['spco'], 0.0)||('samples', '', '', '', 0.0)||('were', '', '', '', 0.0)||('evaluated', 'verb', 'C0220825', ['ftcn'], 0.0)||('between', '', '', '', 0.0)||('august', '', '', '', 0.0)||('1993', '', '', '', 0.0)||('and', '', '', '', 0.0)||('september', '', '', '', 0.0)||('1995', '', '', '', 0.0)||('.', '', '', '', 0.0)||
('the', '', '', '', 0.0)||('median', 'adj', 'C0549183', ['spco'], 0.0)||('age', 'noun', 'C0001779', ['orga'], 0.0)||('of', '', '', '', 0.0)||('the', '', '', '', 0.0)||('study population', 'noun', 'C2348561', ['popg'], 0.0)||('was', '', '', '', 0.0)||('24', '', '', '', 0.0)||('years', 'noun', 'C0439234', ['tmco'], 0.0)||(':', '', '', '', 0.0)||('38 %', '', '', '', 0.0)||('were', '', '', '', 0.0)||('white', 'adj', 'C0007457', ['popg'], 0.0)||(',', '', '', '', 0.0)||('52 %', '', '', '', 0.0)||('were', '', '', '', 0.0)||('smokers', '', '', '', 0.0)||(',', '', '', '', 0.0)||('81 %', '', '', '', 0.0)||('were', '', '', '', 0.0)||('insured', 'verb', 'C1548605', ['inpr'], 0.0)||('by', '', '', '', 0.0)||('medicaid', 'noun', 'C0025071', ['gora'], 0.0)||('or', '', '', '', 0.0)||('were', '', '', '', 0.0)||('uninsured', 'verb', 'C0087134', ['popg'], 0.0)||(',', '', '', '', 0.0)||('and', '', '', '', 0.0)||('67 %', '', '', '', 0.0)||('were', '', '', '', 0.0)||('single', 'adj', 'C0037179', ['popg'], 0.0)||('.', '', '', '', 0.0)||
('sensitivities', 'noun', 'C0427965', ['fndg'], 0.0)||('for', '', '', '', 0.0)||('elevated', 'adj', 'C0205250', ['qlco'], 0.0)||('white blood cell count', 'noun', 'C0427512', ['lbtr'], 0.0)||(',', '', '', '', 0.0)||('erythrocyte sedimentation rate', 'noun', 'C0086250', ['lbpr'], 0.0)||(',', '', '', '', 0.0)||('c - reactive protein', '', '', '', 0.0)||(',', '', '', '', 0.0)||('and', '', '', '', 0.0)||('increased', 'adj', 'C0205217', ['qnco'], 0.0)||('vaginal', 'adj', 'C0042232', ['bpoc'], 0.0)||('white blood cells', 'noun', 'C0023508', ['lbpr'], 0.0)||('are', '', '', '', 0.0)||('57', '', '', '', 0.0)||(',', '', '', '', 0.0)||('70', '', '', '', 0.0)||(',', '', '', '', 0.0)||('71', '', '', '', 0.0)||(',', '', '', '', 0.0)||('and', '', '', '', 0.0)||('78 %', '', '', '', 0.0)||(',', '', '', '', 0.0)||('respectively', '', '', '', 0.0)||('.', '', '', '', 0.0)||
('if', '', '', '', 0.0)||('any', '', '', '', 0.0)||('one', 'noun', 'C0205447', ['qnco'], 0.0)||('test', 'noun', 'C0022885', ['lbpr'], 0.0)||('is', '', '', '', 0.0)||('abnormal', 'adj', 'C0205161', ['ftcn'], 0.0)||(',', '', '', '', 0.0)||('the', '', '', '', 0.0)||('sensitivity', 'noun', 'C0036667', ['qnco'], 0.0)||('is', '', '', '', 0.0)||('100 %', '', '', '', 0.0)||('and', '', '', '', 0.0)||('specificity', 'noun', 'C0037791', ['qnco'], 0.0)||('is', '', '', '', 0.0)||('18 %', '', '', '', 0.0)||('.', '', '', '', 0.0)||
('if', '', '', '', 0.0)||('all', '', '', '', 0.0)||('four', '', 'C0205450', ['qnco'], 0.0)||('tests', 'noun', 'C0022885', ['lbpr'], 0.0)||('are', '', '', '', 0.0)||('abnormal', 'adj', 'C0205161', ['ftcn'], 0.0)||(',', '', '', '', 0.0)||('sensitivity', 'noun', 'C0036667', ['qnco'], 0.0)||('is', '', '', '', 0.0)||('29 %', '', '', '', 0.0)||('and', '', '', '', 0.0)||('specificity', 'noun', 'C0037791', ['qnco'], 0.0)||('is', '', '', '', 0.0)||('95 %', '', '', '', 0.0)||('.', '', '', '', 0.0)||
('conclusions', 'noun', 'C1707478', ['idcn'], 0.0)||(':', '', '', '', 0.0)||('testing', 'verb', 'C0039593', ['ftcn'], 0.0)||('for', '', '', '', 0.0)||('increased', 'adj', 'C0205217', ['qnco'], 0.0)||('vaginal', 'adj', 'C0042232', ['bpoc'], 0.0)||('white blood cells', 'noun', 'C0023508', ['lbpr'], 0.0)||('was', '', '', '', 0.0)||('found', '', '', '', 0.0)||('to', '', '', '', 0.0)||('be', '', '', '', 0.0)||('the', '', '', '', 0.0)||('most', '', '', '', 0.0)||('sensitive', 'adj', 'C0332324', ['ftcn'], 0.0)||('laboratory', 'noun', 'C0022877', ['mnob', 'orgt'], 0.0)||('indicator', 'noun', 'C1235732', ['bird'], 0.0)||('for', '', '', '', 0.0)||('upper', 'adj', 'C1282910', ['spco'], 0.0)||('genital', 'adj', 'C0559522', ['bdsy'], 0.0)||('tract', 'noun', 'C1185740', ['bpoc'], 0.0)||('infection', 'noun', 'C0021311', ['dsyn'], 0.0)||(',', '', '', '', 0.0)||('whereas', '', '', '', 0.0)||('serum', 'noun', 'C0229671', ['bdsu'], 0.0)||('white blood cell count', 'noun', 'C0427512', ['lbtr'], 0.0)||('was', '', '', '', 0.0)||('the', '', '', '', 0.0)||('most', '', '', '', 0.0)||('specific', 'adj', 'C0205369', ['qlco'], 0.0)||('.', '', '', '', 0.0)||
('no one', '', '', '', 0.0)||('diagnostic', 'adj', 'C0011900', ['fndg'], 0.0)||('laboratory test', 'noun', 'C0022885', ['lbpr'], 0.0)||('is', '', '', '', 0.0)||('pathognomonic', '', '', '', 0.0)||('for', '', '', '', 0.0)||('upper', 'adj', 'C1282910', ['spco'], 0.0)||('genital', 'adj', 'C0559522', ['bdsy'], 0.0)||('tract', 'noun', 'C1185740', ['bpoc'], 0.0)||('infection', 'noun', 'C0021311', ['dsyn'], 0.0)||('.', '', '', '', 0.0)||
('combinations', 'noun', 'C0453882', ['mnob'], 0.0)||('of', '', '', '', 0.0)||('positive', 'adj', 'C1446409', ['qlco'], 0.0)||('tests', 'noun', 'C0022885', ['lbpr'], 0.0)||('can', '', '', '', 0.0)||('improve', 'verb', 'C0332161', ['qlco'], 0.0)||('diagnostic', 'adj', 'C0011900', ['fndg'], 0.0)||('specificity', 'noun', 'C0037791', ['qnco'], 0.0)||('and', '', '', '', 0.0)||('positive predictive value', '', '', '', 0.0)||(',', '', '', '', 0.0)||('but', '', '', '', 0.0)||('with', '', '', '', 0.0)||('a', '', '', '', 0.0)||('diminution', 'noun', 'C0332511', ['qlco'], 0.0)||('of', '', '', '', 0.0)||('sensitivity', 'noun', 'C0036667', ['qnco'], 0.0)||('and', '', '', '', 0.0)||('negative predictive value', '', '', '', 0.0)||('.', '', '', '', 0.0)||
('combinations', 'noun', 'C0453882', ['mnob'], 0.0)||('of', '', '', '', 0.0)||('negative', 'adj', 'C0205160', ['qlco'], 0.0)||('tests', 'noun', 'C0022885', ['lbpr'], 0.0)||('can', '', '', '', 0.0)||('reliably', '', '', '', 0.0)||('exclude', 'verb', 'C0332196', ['ftcn'], 0.0)||('upper', 'adj', 'C1282910', ['spco'], 0.0)||('genital', 'adj', 'C0559522', ['bdsy'], 0.0)||('tract', 'noun', 'C1185740', ['bpoc'], 0.0)||('infection', 'noun', 'C0021311', ['dsyn'], 0.0)||('.', '', '', '', 0.0)||
