('this', '', '', '', 0.0)||('study', 'noun', 'C0008976', ['resa'], 0.0)||('was', '', '', '', 0.0)||('undertaken', '', '', '', 0.0)||('to', '', '', '', 0.0)||('compare', 'verb', 'C1707455', ['acty'], 0.0)||('the', '', '', '', 0.0)||('use', 'noun', 'C0042153', ['ftcn'], 0.0)||('of', '', '', '', 0.0)||('glyburide', 'noun', 'C0017628', ['orch', 'phsu'], 0.0)||('with', '', '', '', 0.0)||('insulin', 'noun', 'C0021641', ['aapp', 'horm', 'phsu'], 0.0)||('for', '', '', '', 0.0)||('the', '', '', '', 0.0)||('treatment', 'noun', 'C0039798', ['ftcn'], 0.0)||('of', '', '', '', 0.0)||('gestational diabetes mellitus', '', '', '', 0.0)||('unresponsive', 'adj', 'C0205269', ['ftcn'], 0.0)||('to', '', '', '', 0.0)||('diet therapy', 'noun', 'C0012159', ['topp'], 0.0)||('.', '', '', '', 0.0)||
('a', '', '', '', 0.0)||('retrospective study', 'noun', 'C0035363', ['resa'], 0.0)||('was', '', '', '', 0.0)||('performed', 'verb', 'C0884358', ['ftcn'], 0.0)||('among', '', '', '', 0.0)||('women', 'noun', 'C0043210', ['popg'], 0.0)||('with', '', '', '', 0.0)||('singleton', 'noun', 'C1313913', ['famg'], 0.0)||('pregnancies', 'noun', 'C0032961', ['orgf'], 0.0)||('who', '', '', '', 0.0)||('had', '', '', '', 0.0)||('gestational diabetes mellitus', '', '', '', 0.0)||('diagnosed', 'verb', 'C0011900', ['fndg'], 0.0)||(',', '', '', '', 0.0)||('with', '', '', '', 0.0)||('fasting', 'adj', 'C0015663', ['fndg'], 0.0)||('plasma glucose', 'noun', 'C0202042', ['lbpr'], 0.0)||('140', '', '', '', 0.0)||('mg', '', '', '', 0.0)||('/', '', '', '', 0.0)||('dl', '', '', '', 0.0)||('or', '', '', '', 0.0)||('less', '', '', '', 0.0)||('on', '', '', '', 0.0)||('glucose tolerance', 'noun', 'C0178665', ['phsf'], 0.0)||('testing', 'noun', 'C0039593', ['ftcn'], 0.0)||(',', '', '', '', 0.0)||('between', '', '', '', 0.0)||('12', '', '', '', 0.0)||('and', '', '', '', 0.0)||('34', '', '', '', 0.0)||('weeks', 'noun', 'C0439230', ['tmco'], 0.0)||('who', '', '', '', 0.0)||('failed', 'verb', 'C0231175', ['ftcn'], 0.0)||('diet therapy', 'noun', 'C0012159', ['topp'], 0.0)||('from', '', '', '', 0.0)||('1999', '', '', '', 0.0)||('to', '', '', '', 0.0)||('2002', '', '', '', 0.0)||('.', '', '', '', 0.0)||
('we', '', '', '', 0.0)||('identified', 'verb', 'C0205396', ['qlco'], 0.0)||('584', '', '', '', 0.0)||('women', 'noun', 'C0043210', ['popg'], 0.0)||('and', '', '', '', 0.0)||('compared', 'verb', 'C1707455', ['acty'], 0.0)||('those', '', '', '', 0.0)||('treated', 'verb', 'C1522326', ['ftcn'], 0.0)||('with', '', '', '', 0.0)||('insulin', 'noun', 'C0021641', ['aapp', 'horm', 'phsu'], 0.0)||('between', '', '', '', 0.0)||('1999', '', '', '', 0.0)||('and', '', '', '', 0.0)||('2000', '', '', '', 0.0)||('with', '', '', '', 0.0)||('women', 'noun', 'C0043210', ['popg'], 0.0)||('treated', 'verb', 'C1522326', ['ftcn'], 0.0)||('with', '', '', '', 0.0)||('glyburide', 'noun', 'C0017628', ['orch', 'phsu'], 0.0)||('between', '', '', '', 0.0)||('2001', '', '', '', 0.0)||('and', '', '', '', 0.0)||('2002', '', '', '', 0.0)||('.', '', '', '', 0.0)||
('maternal', 'adj', 'C1858460', ['clna'], 0.0)||('and', '', '', '', 0.0)||('neonatal', 'adj', 'C0021289', ['aggp'], 0.0)||('outcomes', 'noun', 'C0085415', ['qlco'], 0.0)||('and', '', '', '', 0.0)||('complications', 'noun', 'C0009566', ['patf'], 0.0)||('were', '', '', '', 0.0)||('assessed', 'verb', 'C1516048', ['acty'], 0.0)||('.', '', '', '', 0.0)||
('statistical', 'adj', 'C0038215', ['ocdi'], 0.0)||('methods', 'noun', 'C0025663', ['inpr'], 0.0)||('included', '', '', '', 0.0)||('univariate', '', '', '', 0.0)||('analyses', '', '', '', 0.0)||('and', '', '', '', 0.0)||('multivariable', '', '', '', 0.0)||('logistic regression', 'noun', 'C0206031', ['resa'], 0.0)||('.', '', '', '', 0.0)||
('in', '', '', '', 0.0)||('1999', '', '', '', 0.0)||('through', '', '', '', 0.0)||('2000', '', '', '', 0.0)||(',', '', '', '', 0.0)||('268', '', '', '', 0.0)||('women', 'noun', 'C0043210', ['popg'], 0.0)||('had', '', '', '', 0.0)||('gestational diabetes mellitus', '', '', '', 0.0)||('diagnosed', 'verb', 'C0011900', ['fndg'], 0.0)||('and', '', '', '', 0.0)||('were', '', '', '', 0.0)||('treated', 'verb', 'C1522326', ['ftcn'], 0.0)||('with', '', '', '', 0.0)||('insulin', 'noun', 'C0021641', ['aapp', 'horm', 'phsu'], 0.0)||(';', '', '', '', 0.0)||
('in', '', '', '', 0.0)||('2001', '', '', '', 0.0)||('through', '', '', '', 0.0)||('2002', '', '', '', 0.0)||(',', '', '', '', 0.0)||('316', '', '', '', 0.0)||('women', 'noun', 'C0043210', ['popg'], 0.0)||('had', '', '', '', 0.0)||('gestational diabetes mellitus', '', '', '', 0.0)||('diagnosed', 'verb', 'C0011900', ['fndg'], 0.0)||('of', '', '', '', 0.0)||('which', '', '', '', 0.0)||('236', '', '', '', 0.0)||('(', '', '', '', 0.0)||('75 %', '', '', '', 0.0)||(')', '', '', '', 0.0)||('received', 'adj', 'C1514756', ['qlco'], 0.0)||('glyburide', 'noun', 'C0017628', ['orch', 'phsu'], 0.0)||('.', '', '', '', 0.0)||
('the', '', '', '', 0.0)||('2', '', '', '', 0.0)||('groups', 'noun', 'C0441833', ['idcn'], 0.0)||('were', '', '', '', 0.0)||('similar', 'adj', 'C2348205', ['qlco'], 0.0)||('with', '', '', '', 0.0)||('regard', '', '', '', 0.0)||('to', '', '', '', 0.0)||('age', 'noun', 'C0001779', ['orga'], 0.0)||(',', '', '', '', 0.0)||('nulliparity', 'noun', 'C0028641', ['orgf'], 0.0)||(',', '', '', '', 0.0)||('and', '', '', '', 0.0)||('historical', 'adj', 'C1552658', ['idcn'], 0.0)||('gestational diabetes mellitus', '', '', '', 0.0)||('risk factors', 'noun', 'C0035648', ['qnco'], 0.0)||(';', '', '', '', 0.0)||
('however', '', '', '', 0.0)||(',', '', '', '', 0.0)||('women', 'noun', 'C0043210', ['popg'], 0.0)||('in', '', '', '', 0.0)||('the', '', '', '', 0.0)||('insulin', 'noun', 'C0021641', ['aapp', 'horm', 'phsu'], 0.0)||('group', 'noun', 'C0441833', ['idcn'], 0.0)||('had', '', '', '', 0.0)||('a', '', '', '', 0.0)||('higher', '', '', '', 0.0)||('mean body mass index', '', '', '', 0.0)||('(', '', '', '', 0.0)||('31 . 9', '', '', '', 0.0)||('vs', '', '', '', 0.0)||('30 . 6', '', '', '', 0.0)||('kg', 'noun', 'C0022718', ['geoa'], 0.0)||('/', '', '', '', 0.0)||('m', '', '', '', 0.0)||('2', '', '', '', 0.0)||(',', '', '', '', 0.0)||('p', '', '', '', 0.0)||('=', '', '', '', 0.0)||('.', '', '', '', 0.0)||('04', '', '', '', 0.0)||(')', '', '', '', 0.0)||(',', '', '', '', 0.0)||('a', '', '', '', 0.0)||('greater', 'adj', 'C1704243', ['qnco'], 0.0)||('proportion', 'noun', 'C1709707', ['qnco'], 0.0)||('identified', 'verb', 'C0205396', ['qlco'], 0.0)||('themselves', '', '', '', 0.0)||('as', '', '', '', 0.0)||('white', 'noun', 'C0007457', ['popg'], 0.0)||('(', '', '', '', 0.0)||('43 %', '', '', '', 0.0)||(',', '', '', '', 0.0)||('28 %', '', '', '', 0.0)||(',', '', '', '', 0.0)||('p', '', '', '', 0.0)||('<', '', '', '', 0.0)||('.', '', '', '', 0.0)||('001', '', '', '', 0.0)||(')', '', '', '', 0.0)||('and', '', '', '', 0.0)||('fewer', '', '', '', 0.0)||('as', '', '', '', 0.0)||('asian', 'noun', 'C0078988', ['popg'], 0.0)||('(', '', '', '', 0.0)||('24 %', '', '', '', 0.0)||(',', '', '', '', 0.0)||('37 %', '', '', '', 0.0)||(',', '', '', '', 0.0)||('p', '', '', '', 0.0)||('=', '', '', '', 0.0)||('.', '', '', '', 0.0)||('001', '', '', '', 0.0)||(')', '', '', '', 0.0)||(',', '', '', '', 0.0)||('and', '', '', '', 0.0)||('they', '', '', '', 0.0)||('had', '', '', '', 0.0)||('a', '', '', '', 0.0)||('significantly', '', '', '', 0.0)||('higher', '', '', '', 0.0)||('mean', 'noun', 'C0444504', ['qnco'], 0.0)||('fasting', 'noun', 'C0015663', ['fndg'], 0.0)||('on', '', '', '', 0.0)||('glucose tolerance test', 'noun', 'C0017741', ['diap'], 0.0)||('(', '', '', '', 0.0)||('105 . 4', '', '', '', 0.0)||('vs', '', '', '', 0.0)||('102 . 4', '', '', '', 0.0)||('mg', '', '', '', 0.0)||('/', '', '', '', 0.0)||('dl', '', '', '', 0.0)||(',', '', '', '', 0.0)||('p', '', '', '', 0.0)||('=', '', '', '', 0.0)||('.', '', '', '', 0.0)||('005', '', '', '', 0.0)||(')', '', '', '', 0.0)||('compared', 'verb', 'C1707455', ['acty'], 0.0)||('with', '', '', '', 0.0)||('the', '', '', '', 0.0)||('glyburide', 'noun', 'C0017628', ['orch', 'phsu'], 0.0)||('group', 'noun', 'C0441833', ['idcn'], 0.0)||('.', '', '', '', 0.0)||
('there', '', '', '', 0.0)||('were', '', '', '', 0.0)||('no', '', '', '', 0.0)||('significant', 'adj', 'C0750502', ['idcn'], 0.0)||('differences', '', '', '', 0.0)||('in', '', '', '', 0.0)||('birth weight', 'noun', 'C0005612', ['orga'], 0.0)||('(', '', '', '', 0.0)||('3599', '', '', '', 0.0)||('+', '', '', '', 0.0)||('/', '', '', '', 0.0)||('-', '', '', '', 0.0)||('650', '', '', '', 0.0)||('g', '', '', '', 0.0)||('vs', '', '', '', 0.0)||('3661', '', '', '', 0.0)||('+', '', '', '', 0.0)||('/', '', '', '', 0.0)||('-', '', '', '', 0.0)||('629', '', '', '', 0.0)||('g', '', '', '', 0.0)||(',', '', '', '', 0.0)||('p', '', '', '', 0.0)||('=', '', '', '', 0.0)||('.', '', '', '', 0.0)||('3', '', '', '', 0.0)||(')', '', '', '', 0.0)||(',', '', '', '', 0.0)||('macrosomia', 'noun', 'C0158915', ['fndg'], 0.0)||('(', '', '', '', 0.0)||('24 %', '', '', '', 0.0)||(',', '', '', '', 0.0)||('25 %', '', '', '', 0.0)||(',', '', '', '', 0.0)||('p', '', '', '', 0.0)||('=', '', '', '', 0.0)||('.', '', '', '', 0.0)||('7', '', '', '', 0.0)||(')', '', '', '', 0.0)||(',', '', '', '', 0.0)||('or', '', '', '', 0.0)||('cesarean delivery', '', '', '', 0.0)||('(', '', '', '', 0.0)||('35 %', '', '', '', 0.0)||(',', '', '', '', 0.0)||('39 %', '', '', '', 0.0)||(',', '', '', '', 0.0)||('p', '', '', '', 0.0)||('=', '', '', '', 0.0)||('.', '', '', '', 0.0)||('4', '', '', '', 0.0)||(')', '', '', '', 0.0)||('.', '', '', '', 0.0)||
('women', 'noun', 'C0043210', ['popg'], 0.0)||('in', '', '', '', 0.0)||('the', '', '', '', 0.0)||('glyburide', 'noun', 'C0017628', ['orch', 'phsu'], 0.0)||('group', 'noun', 'C0441833', ['idcn'], 0.0)||('had', '', '', '', 0.0)||('a', '', '', '', 0.0)||('higher', '', '', '', 0.0)||('incidence', 'noun', 'C0021149', ['qnco'], 0.0)||('of', '', '', '', 0.0)||('preeclampsia', 'noun', 'C0032914', ['dsyn'], 0.0)||('(', '', '', '', 0.0)||('12 %', '', '', '', 0.0)||(',', '', '', '', 0.0)||('6 %', '', '', '', 0.0)||(',', '', '', '', 0.0)||('p', '', '', '', 0.0)||('=', '', '', '', 0.0)||('.', '', '', '', 0.0)||('02', '', '', '', 0.0)||(')', '', '', '', 0.0)||(',', '', '', '', 0.0)||('and', '', '', '', 0.0)||('neonates', 'noun', 'C0021289', ['aggp'], 0.0)||('in', '', '', '', 0.0)||('the', '', '', '', 0.0)||('glyburide', 'noun', 'C0017628', ['orch', 'phsu'], 0.0)||('group', 'noun', 'C0441833', ['idcn'], 0.0)||('were', '', '', '', 0.0)||('more', '', '', '', 0.0)||('likely', 'adv', 'C0332148', ['qlco'], 0.0)||('to', '', '', '', 0.0)||('receive', 'verb', 'C1514756', ['qlco'], 0.0)||('phototherapy', 'noun', 'C0031765', ['topp'], 0.0)||('(', '', '', '', 0.0)||('9 %', '', '', '', 0.0)||(',', '', '', '', 0.0)||('5 %', '', '', '', 0.0)||(',', '', '', '', 0.0)||('p', '', '', '', 0.0)||('<', '', '', '', 0.0)||('.', '', '', '', 0.0)||('05', '', '', '', 0.0)||(')', '', '', '', 0.0)||(',', '', '', '', 0.0)||('and', '', '', '', 0.0)||('less', '', '', '', 0.0)||('likely', 'adv', 'C0332148', ['qlco'], 0.0)||('to', '', '', '', 0.0)||('be', '', '', '', 0.0)||('admitted', '', '', '', 0.0)||('to', '', '', '', 0.0)||('the', '', '', '', 0.0)||('neonatal intensive care unit', 'noun', 'C0021709', ['hcro', 'mnob'], 0.0)||('(', '', '', '', 0.0)||('15 %', '', '', '', 0.0)||(',', '', '', '', 0.0)||('24 %', '', '', '', 0.0)||(',', '', '', '', 0.0)||('p', '', '', '', 0.0)||('=', '', '', '', 0.0)||('.', '', '', '', 0.0)||('008', '', '', '', 0.0)||(')', '', '', '', 0.0)||('though', '', '', '', 0.0)||('they', '', '', '', 0.0)||('had', '', '', '', 0.0)||('a', '', '', '', 0.0)||('longer', '', '', '', 0.0)||('neonatal intensive care unit', 'noun', 'C0021709', ['hcro', 'mnob'], 0.0)||('length', 'noun', 'C1444754', ['qnco'], 0.0)||('of', '', '', '', 0.0)||('stay', '', '', '', 0.0)||('(', '', '', '', 0.0)||('4 . 3', '', '', '', 0.0)||('+', '', '', '', 0.0)||('/', '', '', '', 0.0)||('-', '', '', '', 0.0)||('9 . 6', '', '', '', 0.0)||('vs', '', '', '', 0.0)||('8 . 0', '', '', '', 0.0)||('+', '', '', '', 0.0)||('/', '', '', '', 0.0)||('-', '', '', '', 0.0)||('10 . 1', '', '', '', 0.0)||(',', '', '', '', 0.0)||('p', '', '', '', 0.0)||('=', '', '', '', 0.0)||('.', '', '', '', 0.0)||('002', '', '', '', 0.0)||(')', '', '', '', 0.0)||('.', '', '', '', 0.0)||
('posttreatment', '', '', '', 0.0)||('glycemic control', '', '', '', 0.0)||('data', 'noun', 'C1511726', ['idcn'], 0.0)||('were', '', '', '', 0.0)||('available', 'adj', 'C0470187', ['ftcn'], 0.0)||('for', '', '', '', 0.0)||('122', '', '', '', 0.0)||('women', 'noun', 'C0043210', ['popg'], 0.0)||('treated', 'verb', 'C1522326', ['ftcn'], 0.0)||('with', '', '', '', 0.0)||('insulin', 'noun', 'C0021641', ['aapp', 'horm', 'phsu'], 0.0)||('and', '', '', '', 0.0)||('137', '', '', '', 0.0)||('women', 'noun', 'C0043210', ['popg'], 0.0)||('treated', 'verb', 'C1522326', ['ftcn'], 0.0)||('with', '', '', '', 0.0)||('glyburide', 'noun', 'C0017628', ['orch', 'phsu'], 0.0)||('.', '', '', '', 0.0)||
('more', '', '', '', 0.0)||('women', 'noun', 'C0043210', ['popg'], 0.0)||('in', '', '', '', 0.0)||('the', '', '', '', 0.0)||('glyburide', 'noun', 'C0017628', ['orch', 'phsu'], 0.0)||('group', 'noun', 'C0441833', ['idcn'], 0.0)||('achieved', '', '', '', 0.0)||('mean', 'noun', 'C0444504', ['qnco'], 0.0)||('fasting', 'noun', 'C0015663', ['fndg'], 0.0)||('and', '', '', '', 0.0)||('postprandial', 'adj', 'C0376674', ['tmco'], 0.0)||('goals', 'noun', 'C0018017', ['inpr'], 0.0)||('(', '', '', '', 0.0)||('86 %', '', '', '', 0.0)||(',', '', '', '', 0.0)||('63 %', '', '', '', 0.0)||(',', '', '', '', 0.0)||('p', '', '', '', 0.0)||('<', '', '', '', 0.0)||('.', '', '', '', 0.0)||('001', '', '', '', 0.0)||(')', '', '', '', 0.0)||('.', '', '', '', 0.0)||
('these', '', '', '', 0.0)||('findings', 'noun', 'C2607943', ['ftcn'], 0.0)||('remained', '', '', '', 0.0)||('significant', 'adj', 'C0750502', ['idcn'], 0.0)||('in', '', '', '', 0.0)||('logistic regression', 'noun', 'C0206031', ['resa'], 0.0)||('analysis', 'noun', 'C0002778', ['lbpr'], 0.0)||('.', '', '', '', 0.0)||
('in', '', '', '', 0.0)||('a', '', '', '', 0.0)||('large', 'adj', 'C0549177', ['qnco'], 0.0)||('managed care organization', 'noun', 'C1552476', ['hcro', 'mnob'], 0.0)||(',', '', '', '', 0.0)||('glyburide', 'noun', 'C0017628', ['orch', 'phsu'], 0.0)||('was', '', '', '', 0.0)||('at', '', '', '', 0.0)||('least', '', '', '', 0.0)||('as', '', '', '', 0.0)||('effective', 'adj', 'C1704419', ['qlco'], 0.0)||('as', '', '', '', 0.0)||('insulin', 'noun', 'C0021641', ['aapp', 'horm', 'phsu'], 0.0)||('in', '', '', '', 0.0)||('achieving', '', '', '', 0.0)||('glycemic control', '', '', '', 0.0)||('and', '', '', '', 0.0)||('similar', 'adj', 'C2348205', ['qlco'], 0.0)||('birth weights', 'noun', 'C0005612', ['orga'], 0.0)||('in', '', '', '', 0.0)||('women', 'noun', 'C0043210', ['popg'], 0.0)||('with', '', '', '', 0.0)||('gestational diabetes mellitus', '', '', '', 0.0)||('who', '', '', '', 0.0)||('failed', 'verb', 'C0231175', ['ftcn'], 0.0)||('diet therapy', 'noun', 'C0012159', ['topp'], 0.0)||('.', '', '', '', 0.0)||
('the', '', '', '', 0.0)||('increased risk', '', '', '', 0.0)||('of', '', '', '', 0.0)||('preeclampsia', 'noun', 'C0032914', ['dsyn'], 0.0)||('and', '', '', '', 0.0)||('phototherapy', 'noun', 'C0031765', ['topp'], 0.0)||('in', '', '', '', 0.0)||('the', '', '', '', 0.0)||('glyburide', 'noun', 'C0017628', ['orch', 'phsu'], 0.0)||('group', 'noun', 'C0441833', ['idcn'], 0.0)||('warrant', '', '', '', 0.0)||('further', 'adj', 'C1517331', ['spco'], 0.0)||('study', 'noun', 'C0008976', ['resa'], 0.0)||('.', '', '', '', 0.0)||
