('chronic', 'adj', 'C0205191', ['tmco'], 0.0)||('kidney disease', 'noun', 'C0022658', ['dsyn'], 0.0)||('is', '', '', '', 0.0)||('a', '', '', '', 0.0)||('serious', 'adj', 'C0205404', ['qlco'], 0.0)||('condition', 'noun', 'C0348080', ['qlco'], 0.0)||('associated', 'verb', 'C0332281', ['qlco'], 0.0)||('with', '', '', '', 0.0)||('premature', 'adj', 'C0205252', ['tmco'], 0.0)||('mortality', 'noun', 'C0026565', ['qnco'], 0.0)||(',', '', '', '', 0.0)||('decreased', 'adj', 'C0205216', ['qnco'], 0.0)||('quality', 'noun', 'C0332306', ['qlco'], 0.0)||('of', '', '', '', 0.0)||('life', 'noun', 'C0376558', ['idcn'], 0.0)||(',', '', '', '', 0.0)||('and', '', '', '', 0.0)||('increased', 'adj', 'C0205217', ['qnco'], 0.0)||('health - care', '', '', '', 0.0)||('expenditures', 'noun', 'C0015316', ['qnco'], 0.0)||('.', '', '', '', 0.0)||
('untreated', '', '', '', 0.0)||('chronic', 'adj', 'C0205191', ['tmco'], 0.0)||('kidney disease', 'noun', 'C0022658', ['dsyn'], 0.0)||('can', '', '', '', 0.0)||('result', 'verb', 'C1274040', ['ftcn'], 0.0)||('in', '', '', '', 0.0)||('end - stage renal disease', '', '', '', 0.0)||('and', '', '', '', 0.0)||('necessitate', '', '', '', 0.0)||('dialysis', 'noun', 'C0011945', ['npop'], 0.0)||('or', '', '', '', 0.0)||('kidney transplantation', 'noun', 'C0022671', ['topp'], 0.0)||('.', '', '', '', 0.0)||
('risk factors', 'noun', 'C0035648', ['qnco'], 0.0)||('for', '', '', '', 0.0)||('chronic', 'adj', 'C0205191', ['tmco'], 0.0)||('kidney disease', 'noun', 'C0022658', ['dsyn'], 0.0)||('include', 'verb', 'C1552866', ['idcn'], 0.0)||('cardiovascular disease', 'noun', 'C0007222', ['dsyn'], 0.0)||(',', '', '', '', 0.0)||('diabetes', 'noun', 'C0011847', ['dsyn'], 0.0)||(',', '', '', '', 0.0)||('hypertension', 'noun', 'C0020538', ['dsyn'], 0.0)||(',', '', '', '', 0.0)||('and', '', '', '', 0.0)||('obesity', 'noun', 'C0028754', ['dsyn'], 0.0)||('.', '', '', '', 0.0)||
('to', '', '', '', 0.0)||('estimate', 'verb', 'C0750572', ['qnco'], 0.0)||('the', '', '', '', 0.0)||('prevalence', 'noun', 'C0033105', ['qnco'], 0.0)||('of', '', '', '', 0.0)||('chronic', 'adj', 'C0205191', ['tmco'], 0.0)||('kidney disease', 'noun', 'C0022658', ['dsyn'], 0.0)||('in', '', '', '', 0.0)||('the', '', '', '', 0.0)||('united states', 'noun', 'C0041703', ['geoa'], 0.0)||('(', '', '', '', 0.0)||('overall', 'adj', 'C0282416', ['inpr'], 0.0)||('and', '', '', '', 0.0)||('by', '', '', '', 0.0)||('health', 'noun', 'C0018684', ['idcn'], 0.0)||('risk factors', 'noun', 'C0035648', ['qnco'], 0.0)||('and', '', '', '', 0.0)||('other', '', '', '', 0.0)||('characteristics', 'noun', 'C1521970', ['qlco'], 0.0)||(')', '', '', '', 0.0)||(',', '', '', '', 0.0)||('cdc', 'noun', 'C0007670', ['hcro'], 0.0)||('analyzed', 'verb', 'C0936012', ['resa'], 0.0)||('the', '', '', '', 0.0)||('most', '', '', '', 0.0)||('recent', 'adj', 'C0332185', ['tmco'], 0.0)||('data', 'noun', 'C1511726', ['idcn'], 0.0)||('from', '', '', '', 0.0)||('the', '', '', '', 0.0)||('national', '', '', '', 0.0)||('health', 'noun', 'C0018684', ['idcn'], 0.0)||('and', '', '', '', 0.0)||('nutrition', 'noun', 'C0028707', ['bmod'], 0.0)||('examination', '', '', '', 0.0)||('survey', 'noun', 'C0038951', ['inpr'], 0.0)||('.', '', '', '', 0.0)||
('this', '', '', '', 0.0)||('report', 'noun', 'C0684224', ['inpr'], 0.0)||('summarizes', '', '', '', 0.0)||('the', '', '', '', 0.0)||('results', 'noun', 'C1274040', ['ftcn'], 0.0)||('of', '', '', '', 0.0)||('that', '', '', '', 0.0)||('analysis', 'noun', 'C0002778', ['lbpr'], 0.0)||(',', '', '', '', 0.0)||('which', '', '', '', 0.0)||('determined', '', '', '', 0.0)||('that', '', '', '', 0.0)||('16 . 8 %', '', '', '', 0.0)||('of', '', '', '', 0.0)||('the', '', '', '', 0.0)||('u', '', '', '', 0.0)||('.', '', '', '', 0.0)||('s', '', '', '', 0.0)||('.', '', '', '', 0.0)||
('population', 'noun', 'C0032659', ['qnco'], 0.0)||('aged', 'noun', 'C0001779', ['orga'], 0.0)||('>', '', '', '', 0.0)||('/', '', '', '', 0.0)||('=', '', '', '', 0.0)||('20', '', '', '', 0.0)||('years', 'noun', 'C0439234', ['tmco'], 0.0)||('had', '', '', '', 0.0)||('chronic', 'adj', 'C0205191', ['tmco'], 0.0)||('kidney disease', 'noun', 'C0022658', ['dsyn'], 0.0)||(',', '', '', '', 0.0)||('according to', '', '', '', 0.0)||('1999', '', '', '', 0.0)||('-', '', '', '', 0.0)||('2004', '', '', '', 0.0)||('national', '', '', '', 0.0)||('health', 'noun', 'C0018684', ['idcn'], 0.0)||('and', '', '', '', 0.0)||('nutrition', 'noun', 'C0028707', ['bmod'], 0.0)||('examination', '', '', '', 0.0)||('survey', 'noun', 'C0038951', ['inpr'], 0.0)||('data', 'noun', 'C1511726', ['idcn'], 0.0)||(',', '', '', '', 0.0)||('compared', 'verb', 'C1707455', ['acty'], 0.0)||('with', '', '', '', 0.0)||('14 . 5 %', '', '', '', 0.0)||('from', '', '', '', 0.0)||('the', '', '', '', 0.0)||('1988', '', '', '', 0.0)||('-', '', '', '', 0.0)||('1994', '', '', '', 0.0)||('national', '', '', '', 0.0)||('health', 'noun', 'C0018684', ['idcn'], 0.0)||('and', '', '', '', 0.0)||('nutrition', 'noun', 'C0028707', ['bmod'], 0.0)||('examination', '', '', '', 0.0)||('survey', 'noun', 'C0038951', ['inpr'], 0.0)||('(', '', '', '', 0.0)||('i . e .', '', '', '', 0.0)||(',', '', '', '', 0.0)||('national', '', '', '', 0.0)||('health', 'noun', 'C0018684', ['idcn'], 0.0)||('and', '', '', '', 0.0)||('nutrition', 'noun', 'C0028707', ['bmod'], 0.0)||('examination', '', '', '', 0.0)||('survey', 'noun', 'C0038951', ['inpr'], 0.0)||('iii', 'noun', 'C0439070', ['inpr'], 0.0)||(')', '', '', '', 0.0)||(',', '', '', '', 0.0)||('an', '', '', '', 0.0)||('increase', 'noun', 'C0442805', ['ftcn'], 0.0)||('of', '', '', '', 0.0)||('15 . 9 %', '', '', '', 0.0)||('based', 'verb', 'C1527178', ['ftcn'], 0.0)||('on', '', '', '', 0.0)||('crude', '', '', '', 0.0)||('estimates', '', '', '', 0.0)||('of', '', '', '', 0.0)||('prevalence', 'noun', 'C0033105', ['qnco'], 0.0)||('.', '', '', '', 0.0)||
('persons', 'noun', 'C0027361', ['popg'], 0.0)||('with', '', '', '', 0.0)||('diabetes', 'noun', 'C0011847', ['dsyn'], 0.0)||('or', '', '', '', 0.0)||('cardiovascular disease', 'noun', 'C0007222', ['dsyn'], 0.0)||('had', '', '', '', 0.0)||('a', '', '', '', 0.0)||('greater', 'adj', 'C1704243', ['qnco'], 0.0)||('prevalence', 'noun', 'C0033105', ['qnco'], 0.0)||('of', '', '', '', 0.0)||('chronic', 'adj', 'C0205191', ['tmco'], 0.0)||('kidney disease', 'noun', 'C0022658', ['dsyn'], 0.0)||('than', '', '', '', 0.0)||('persons', 'noun', 'C0027361', ['popg'], 0.0)||('without', '', '', '', 0.0)||('those', '', '', '', 0.0)||('conditions', '', '', '', 0.0)||('.', '', '', '', 0.0)||
('the', '', '', '', 0.0)||('results', 'noun', 'C1274040', ['ftcn'], 0.0)||('underscore', '', '', '', 0.0)||('the', '', '', '', 0.0)||('need', 'noun', 'C0027552', ['qlco'], 0.0)||('to', '', '', '', 0.0)||('continue', 'verb', 'C0549178', ['idcn'], 0.0)||('surveillance', 'noun', 'C0220920', ['ftcn'], 0.0)||('for', '', '', '', 0.0)||('chronic', 'adj', 'C0205191', ['tmco'], 0.0)||('kidney disease', 'noun', 'C0022658', ['dsyn'], 0.0)||('and', '', '', '', 0.0)||('its', '', '', '', 0.0)||('risk factors', 'noun', 'C0035648', ['qnco'], 0.0)||('in', '', '', '', 0.0)||('the', '', '', '', 0.0)||('united states', 'noun', 'C0041703', ['geoa'], 0.0)||('and', '', '', '', 0.0)||('to', '', '', '', 0.0)||('implement', '', '', '', 0.0)||('new', 'adj', 'C0205314', ['tmco'], 0.0)||('strategies', 'noun', 'C0679199', ['menp'], 0.0)||('to', '', '', '', 0.0)||('reduce', '', '', '', 0.0)||('the', '', '', '', 0.0)||('number', 'noun', 'C0449788', ['qnco'], 0.0)||('of', '', '', '', 0.0)||('persons', 'noun', 'C0027361', ['popg'], 0.0)||('with', '', '', '', 0.0)||('this', '', '', '', 0.0)||('condition', 'noun', 'C0348080', ['qlco'], 0.0)||('.', '', '', '', 0.0)||
