('a', '', '', '', 0.0)||('2003', '', '', '', 0.0)||('systematic review', '', '', '', 0.0)||('found', '', '', '', 0.0)||('the', '', '', '', 0.0)||('evidence', 'noun', 'C0332120', ['ftcn'], 0.0)||('supporting', '', '', '', 0.0)||('the', '', '', '', 0.0)||('association', 'noun', 'C0004083', ['menp'], 0.0)||('between', '', '', '', 0.0)||('antibiotics', 'noun', 'C0003232', ['antb'], 0.0)||('and', '', '', '', 0.0)||('vvc', '', '', '', 0.0)||('limited', 'verb', 'C0439801', ['ftcn'], 0.0)||('and', '', '', '', 0.0)||('contradictory', '', '', '', 0.0)||('.', '', '', '', 0.0)||
('most', '', '', '', 0.0)||('were', '', '', '', 0.0)||('case', 'noun', 'C0868928', ['ftcn'], 0.0)||('-', '', '', '', 0.0)||('control', 'noun', 'C0243148', ['qlco'], 0.0)||('or', '', '', '', 0.0)||('cohort studies', 'noun', 'C0009247', ['qnco'], 0.0)||('with', '', '', '', 0.0)||('small', 'adj', 'C0700321', ['qnco'], 0.0)||('sample', 'noun', 'C0370003', ['sbst'], 0.0)||('sizes', 'noun', 'C0456389', ['spco'], 0.0)||('.', '', '', '', 0.0)||
('no', '', '', '', 0.0)||('rcts', '', '', '', 0.0)||('compare', 'verb', 'C1707455', ['acty'], 0.0)||('the', '', '', '', 0.0)||('incidence', 'noun', 'C0021149', ['qnco'], 0.0)||('of', '', '', '', 0.0)||('culture', 'noun', 'C0010453', ['idcn'], 0.0)||('-', '', '', '', 0.0)||('confirmed', 'adj', 'C0750484', ['idcn'], 0.0)||('vvc', '', '', '', 0.0)||('among', '', '', '', 0.0)||('women', 'noun', 'C0043210', ['popg'], 0.0)||('receiving', '', '', '', 0.0)||('antibiotics', 'noun', 'C0003232', ['antb'], 0.0)||('or', '', '', '', 0.0)||('placebo', 'noun', 'C0032042', ['topp'], 0.0)||('.', '', '', '', 0.0)||
('nineteen', '', '', '', 0.0)||('reports', 'noun', 'C0684224', ['inpr'], 0.0)||('of', '', '', '', 0.0)||('18', '', '', '', 0.0)||('original', 'adj', 'C0205313', ['idcn'], 0.0)||('studies', '', '', '', 0.0)||('had', '', '', '', 0.0)||('sufficient', 'adj', 'C0205410', ['qlco'], 0.0)||('data', 'noun', 'C1511726', ['idcn'], 0.0)||('to', '', '', '', 0.0)||('calculate', 'verb', 'C1441506', ['acty'], 0.0)||('a', '', '', '', 0.0)||('relative risk', 'noun', 'C0242492', ['qnco'], 0.0)||('or', '', '', '', 0.0)||('odds ratio', 'noun', 'C0028873', ['qnco'], 0.0)||('for', '', '', '', 0.0)||('antibiotic', 'noun', 'C0003232', ['antb'], 0.0)||('-', '', '', '', 0.0)||('associated', 'adj', 'C0332281', ['qlco'], 0.0)||('vvc', '', '', '', 0.0)||('.', '', '', '', 0.0)||
('thirteen', '', '', '', 0.0)||('of', '', '', '', 0.0)||('the', '', '', '', 0.0)||('19', '', '', '', 0.0)||('reports', 'noun', 'C0684224', ['inpr'], 0.0)||('showed', '', '', '', 0.0)||('an', '', '', '', 0.0)||('increase', 'noun', 'C0442805', ['ftcn'], 0.0)||('(', '', '', '', 0.0)||('around', '', '', '', 0.0)||('twofold', '', '', '', 0.0)||(';', '', '', '', 0.0)||('range', 'noun', 'C1514721', ['qnco'], 0.0)||(',', '', '', '', 0.0)||('0 . 43', '', '', '', 0.0)||('-', '', '', '', 0.0)||('5', '', '', '', 0.0)||(')', '', '', '', 0.0)||('in', '', '', '', 0.0)||('vaginal', 'adj', 'C0042232', ['bpoc'], 0.0)||('candida', 'noun', 'C0006836', ['fngs'], 0.0)||('prevalence', 'noun', 'C0033105', ['qnco'], 0.0)||(';', '', '', '', 0.0)||
('however', '', '', '', 0.0)||(',', '', '', '', 0.0)||('3', '', '', '', 0.0)||('of', '', '', '', 0.0)||('the', '', '', '', 0.0)||('13', '', '', '', 0.0)||('reports', 'noun', 'C0684224', ['inpr'], 0.0)||('had', '', '', '', 0.0)||('no', '', '', '', 0.0)||('mycological', 'adj', 'C0205467', ['qlco'], 0.0)||('culture', 'noun', 'C0010453', ['idcn'], 0.0)||('data', 'noun', 'C1511726', ['idcn'], 0.0)||('.', '', '', '', 0.0)||
('six', '', 'C0205452', ['qnco'], 0.0)||('studies', '', '', '', 0.0)||('did', '', '', '', 0.0)||('not', 'adv', 'C1518422', ['ftcn'], 0.0)||('show', 'verb', 'C1547282', ['inpr'], 0.0)||('significant', 'adj', 'C0750502', ['idcn'], 0.0)||('association', 'noun', 'C0004083', ['menp'], 0.0)||('between', '', '', '', 0.0)||('antibiotics', 'noun', 'C0003232', ['antb'], 0.0)||('and', '', '', '', 0.0)||('vaginal', 'adj', 'C0042232', ['bpoc'], 0.0)||('yeast', 'noun', 'C0036025', ['fngs'], 0.0)||('.', '', '', '', 0.0)||
