('to', '', '', '', 0.0)||('evaluate', 'verb', 'C0220825', ['ftcn'], 0.0)||('the', '', '', '', 0.0)||('efficacy', 'noun', 'C1707887', ['resa'], 0.0)||('and', '', '', '', 0.0)||('safety', 'noun', 'C0036043', ['hcpp'], 0.0)||('of', '', '', '', 0.0)||('low dose', 'noun', 'C0445550', ['qnco'], 0.0)||('(', '', '', '', 0.0)||('10', '', '', '', 0.0)||('mg', '', '', '', 0.0)||(')', '', '', '', 0.0)||('pravastatin', 'noun', 'C0085542', ['orch', 'phsu'], 0.0)||('in', '', '', '', 0.0)||('hypercholesterolemic', '', '', '', 0.0)||(',', '', '', '', 0.0)||('hypertensive', 'adj', 'C0857121', ['fndg'], 0.0)||('elderly', 'adj', 'C0001792', ['popg'], 0.0)||('subjects', '', '', '', 0.0)||('undergoing', '', '', '', 0.0)||('antihypertensive', 'adj', 'C0003364', ['phsu'], 0.0)||('treatment', 'noun', 'C0039798', ['ftcn'], 0.0)||(',', '', '', '', 0.0)||('a', '', '', '', 0.0)||('randomized', 'adj', 'C0034656', ['resa'], 0.0)||(',', '', '', '', 0.0)||('double - blind', '', '', '', 0.0)||(',', '', '', '', 0.0)||('placebo - controlled', '', '', '', 0.0)||('6', '', '', '', 0.0)||('-', '', '', '', 0.0)||('month', 'noun', 'C0439231', ['tmco'], 0.0)||('trial', 'noun', 'C0008976', ['resa'], 0.0)||('was', '', '', '', 0.0)||('conducted', '', '', '', 0.0)||('.', '', '', '', 0.0)||
('the', '', '', '', 0.0)||('subjects', '', '', '', 0.0)||('had', '', '', '', 0.0)||('a', '', '', '', 0.0)||('total plasma cholesterol', '', '', '', 0.0)||('of', '', '', '', 0.0)||('at', '', '', '', 0.0)||('least', '', '', '', 0.0)||('250', '', '', '', 0.0)||('mg', '', '', '', 0.0)||('/', '', '', '', 0.0)||('dl', '', '', '', 0.0)||('and', '', '', '', 0.0)||('had', '', '', '', 0.0)||('been', '', '', '', 0.0)||(',', '', '', '', 0.0)||('for', '', '', '', 0.0)||('at', '', '', '', 0.0)||('least', '', '', '', 0.0)||('3', '', '', '', 0.0)||('months', 'noun', 'C0439231', ['tmco'], 0.0)||(',', '', '', '', 0.0)||('consuming', '', '', '', 0.0)||('a', '', '', '', 0.0)||('standard', 'adj', 'C1442989', ['ftcn'], 0.0)||('lipid', 'noun', 'C0023779', ['lipd'], 0.0)||('-', '', '', '', 0.0)||('lowering', 'adj', 'C2003888', ['ftcn'], 0.0)||('diet', 'noun', 'C0012155', ['food'], 0.0)||('(', '', '', '', 0.0)||('american heart association', 'noun', 'C0002458', ['hcro'], 0.0)||('step', 'noun', 'C1261552', ['cnce'], 0.0)||('1', '', '', '', 0.0)||('diet', 'noun', 'C0012155', ['food'], 0.0)||(')', '', '', '', 0.0)||('.', '', '', '', 0.0)||
('sixty', '', '', '', 0.0)||('elderly', 'adj', 'C0001792', ['popg'], 0.0)||('hypertensive', 'adj', 'C0857121', ['fndg'], 0.0)||('patients', 'noun', 'C0030705', ['podg'], 0.0)||('randomly', '', '', '', 0.0)||('received', 'adj', 'C1514756', ['qlco'], 0.0)||('placebo', 'noun', 'C0032042', ['topp'], 0.0)||('(', '', '', '', 0.0)||('n =', '', '', '', 0.0)||('30', '', '', '', 0.0)||(')', '', '', '', 0.0)||('or', '', '', '', 0.0)||('pravastatin', 'noun', 'C0085542', ['orch', 'phsu'], 0.0)||('(', '', '', '', 0.0)||('n =', '', '', '', 0.0)||('30', '', '', '', 0.0)||(')', '', '', '', 0.0)||('treatment', 'noun', 'C0039798', ['ftcn'], 0.0)||('.', '', '', '', 0.0)||
('the', '', '', '', 0.0)||('dosage', 'noun', 'C0178602', ['qnco'], 0.0)||('consisted', '', '', '', 0.0)||('of', '', '', '', 0.0)||('10', '', '', '', 0.0)||('mg', '', '', '', 0.0)||('of', '', '', '', 0.0)||('pravastatin', 'noun', 'C0085542', ['orch', 'phsu'], 0.0)||('daily', 'adv', 'C0332173', ['tmco'], 0.0)||('during', '', '', '', 0.0)||('the', '', '', '', 0.0)||('6', '', '', '', 0.0)||('-', '', '', '', 0.0)||('month', 'noun', 'C0439231', ['tmco'], 0.0)||('trial', 'noun', 'C0008976', ['resa'], 0.0)||('.', '', '', '', 0.0)||
('over', 'adv', 'C0205136', ['spco'], 0.0)||('that', '', '', '', 0.0)||('period', 'noun', 'C1948053', ['tmco'], 0.0)||(',', '', '', '', 0.0)||('in', '', '', '', 0.0)||('the', '', '', '', 0.0)||('pravastatin', 'noun', 'C0085542', ['orch', 'phsu'], 0.0)||('group', 'noun', 'C0441833', ['idcn'], 0.0)||(',', '', '', '', 0.0)||('plasma levels', '', '', '', 0.0)||('of', '', '', '', 0.0)||('total cholesterol', 'noun', 'C0543421', ['strd'], 0.0)||('and', '', '', '', 0.0)||('ldl', 'noun', 'C0428474', ['lbpr'], 0.0)||('-', '', '', '', 0.0)||('cholesterol', 'noun', 'C0008377', ['bacs', 'strd'], 0.0)||('significantly', '', '', '', 0.0)||('(', '', '', '', 0.0)||('p', '', '', '', 0.0)||('<', '', '', '', 0.0)||('.', '', '', '', 0.0)||('01', '', '', '', 0.0)||(')', '', '', '', 0.0)||('dropped', 'verb', 'C1705648', ['acty'], 0.0)||('(', '', '', '', 0.0)||('-', '', '', '', 0.0)||('20 %', '', '', '', 0.0)||('and', '', '', '', 0.0)||('-', '', '', '', 0.0)||('25 %', '', '', '', 0.0)||(',', '', '', '', 0.0)||('respectively', '', '', '', 0.0)||(')', '', '', '', 0.0)||('compared', 'verb', 'C1707455', ['acty'], 0.0)||('to', '', '', '', 0.0)||('the', '', '', '', 0.0)||('placebo', 'noun', 'C0032042', ['topp'], 0.0)||('group', 'noun', 'C0441833', ['idcn'], 0.0)||('.', '', '', '', 0.0)||
('the', '', '', '', 0.0)||('plasma level', '', '', '', 0.0)||('of', '', '', '', 0.0)||('hdl - cholesterol', '', '', '', 0.0)||('increased', 'verb', 'C0205217', ['qnco'], 0.0)||('(', '', '', '', 0.0)||('+', '', '', '', 0.0)||('5 %', '', '', '', 0.0)||(')', '', '', '', 0.0)||('while', '', '', '', 0.0)||('triglycerides', 'noun', 'C0041004', ['bacs', 'lipd'], 0.0)||('slightly', 'adv', 'C0750482', ['idcn'], 0.0)||('decreased', 'verb', 'C0205216', ['qnco'], 0.0)||('(', '', '', '', 0.0)||('-', '', '', '', 0.0)||('8 %', '', '', '', 0.0)||(')', '', '', '', 0.0)||('(', '', '', '', 0.0)||('p', '', '', '', 0.0)||('<', '', '', '', 0.0)||('.', '', '', '', 0.0)||('05', '', '', '', 0.0)||(')', '', '', '', 0.0)||('.', '', '', '', 0.0)||
('no', '', '', '', 0.0)||('serious', 'adj', 'C0205404', ['qlco'], 0.0)||('side effects', 'noun', 'C0001688', ['ftcn'], 0.0)||('occurred', 'verb', 'C1709305', ['cnce'], 0.0)||(',', '', '', '', 0.0)||('and', '', '', '', 0.0)||('pravastatin', 'noun', 'C0085542', ['orch', 'phsu'], 0.0)||('was', '', '', '', 0.0)||('generally', '', '', '', 0.0)||('tolerated', '', '', '', 0.0)||('.', '', '', '', 0.0)||
('fasting', 'adj', 'C0015663', ['fndg'], 0.0)||('hyperinsulinemia', '', '', '', 0.0)||('(', '', '', '', 0.0)||('11 . 0', '', '', '', 0.0)||('+', '', '', '', 0.0)||('/', '', '', '', 0.0)||('-', '', '', '', 0.0)||('0 . 8', '', '', '', 0.0)||('v', '', '', '', 0.0)||('9 . 3', '', '', '', 0.0)||('+', '', '', '', 0.0)||('/', '', '', '', 0.0)||('-', '', '', '', 0.0)||('0 . 7', '', '', '', 0.0)||('microu', '', '', '', 0.0)||('/', '', '', '', 0.0)||('ml', '', '', '', 0.0)||(';', '', '', '', 0.0)||('p', '', '', '', 0.0)||('=', '', '', '', 0.0)||('.', '', '', '', 0.0)||('06', '', '', '', 0.0)||(')', '', '', '', 0.0)||('also', '', '', '', 0.0)||('improved', 'verb', 'C0184511', ['qlco'], 0.0)||(',', '', '', '', 0.0)||('although', '', '', '', 0.0)||('not', 'adv', 'C1518422', ['ftcn'], 0.0)||('significantly', '', '', '', 0.0)||(',', '', '', '', 0.0)||('after', '', '', '', 0.0)||('6', '', '', '', 0.0)||('months', 'noun', 'C0439231', ['tmco'], 0.0)||('of', '', '', '', 0.0)||('pravastatin', 'noun', 'C0085542', ['orch', 'phsu'], 0.0)||('therapy', 'noun', 'C0039798', ['ftcn'], 0.0)||('.', '', '', '', 0.0)||
('results', 'noun', 'C1274040', ['ftcn'], 0.0)||('from', '', '', '', 0.0)||('this', '', '', '', 0.0)||('study', 'noun', 'C0008976', ['resa'], 0.0)||('confirmed', 'verb', 'C0750484', ['idcn'], 0.0)||('that', '', '', '', 0.0)||('a', '', '', '', 0.0)||('low dose', 'noun', 'C0445550', ['qnco'], 0.0)||('(', '', '', '', 0.0)||('10', '', '', '', 0.0)||('mg', '', '', '', 0.0)||(')', '', '', '', 0.0)||('of', '', '', '', 0.0)||('pravastatin', 'noun', 'C0085542', ['orch', 'phsu'], 0.0)||('daily', 'adv', 'C0332173', ['tmco'], 0.0)||('is', '', '', '', 0.0)||('a', '', '', '', 0.0)||('safe', '', '', '', 0.0)||('and', '', '', '', 0.0)||('effective', 'adj', 'C1704419', ['qlco'], 0.0)||('method', 'noun', 'C0025663', ['inpr'], 0.0)||('of', '', '', '', 0.0)||('reducing', 'adj', 'C0392756', ['qlco'], 0.0)||('plasma', 'noun', 'C0032105', ['bdsu'], 0.0)||('total', 'noun', 'C0439810', ['qlco'], 0.0)||('and', '', '', '', 0.0)||('ldl', 'noun', 'C0428474', ['lbpr'], 0.0)||('-', '', '', '', 0.0)||('cholesterol', 'noun', 'C0008377', ['bacs', 'strd'], 0.0)||('in', '', '', '', 0.0)||('hypercholesterolemic', '', '', '', 0.0)||(',', '', '', '', 0.0)||('hypertensive', 'adj', 'C0857121', ['fndg'], 0.0)||('elderly', 'adj', 'C0001792', ['popg'], 0.0)||('patients', 'noun', 'C0030705', ['podg'], 0.0)||('who', '', '', '', 0.0)||('are', '', '', '', 0.0)||('on', '', '', '', 0.0)||('concurrent', 'adj', 'C0205420', ['tmco'], 0.0)||('antihypertensive', 'adj', 'C0003364', ['phsu'], 0.0)||('drug therapy', 'noun', 'C0013216', ['topp'], 0.0)||('.', '', '', '', 0.0)||
