('the', '', '', '', 0.0)||('objective', 'noun', 'C0018017', ['inpr'], 0.0)||('of', '', '', '', 0.0)||('this', '', '', '', 0.0)||('paper', 'noun', 'C0030351', ['mnob'], 0.0)||('was', '', '', '', 0.0)||('to', '', '', '', 0.0)||('evaluate', 'verb', 'C0220825', ['ftcn'], 0.0)||('the', '', '', '', 0.0)||('cardiovascular risk', '', '', '', 0.0)||('in', '', '', '', 0.0)||('white coat hypertension', 'noun', 'C0262534', ['dsyn'], 0.0)||('.', '', '', '', 0.0)||
('white coat hypertension', 'noun', 'C0262534', ['dsyn'], 0.0)||('is', '', '', '', 0.0)||('a', '', '', '', 0.0)||('well - known', '', '', '', 0.0)||('clinical', 'adj', 'C0205210', ['qlco'], 0.0)||('entity', 'noun', 'C1551338', ['enty'], 0.0)||('defined', 'verb', 'C1704788', ['cnce'], 0.0)||('by', '', '', '', 0.0)||('persistently', 'adv', 'C0750508', ['idcn'], 0.0)||('elevated', 'adj', 'C0205250', ['qlco'], 0.0)||('blood pressure', 'noun', 'C0005823', ['orgf'], 0.0)||('in', '', '', '', 0.0)||('the', '', '', '', 0.0)||('doctor', 'noun', 'C0031831', ['prog'], 0.0)||("' s", '', '', '', 0.0)||('office', 'noun', 'C0442603', ['mnob'], 0.0)||(',', '', '', '', 0.0)||('whereas', '', '', '', 0.0)||('blood pressure', 'noun', 'C0005823', ['orgf'], 0.0)||('in', '', '', '', 0.0)||('other', '', '', '', 0.0)||('conditions', '', '', '', 0.0)||('is', '', '', '', 0.0)||('normal', 'adj', 'C0205307', ['qlco'], 0.0)||('.', '', '', '', 0.0)||
('the', '', '', '', 0.0)||('prognosis', 'noun', 'C0033325', ['hlca'], 0.0)||('of', '', '', '', 0.0)||('white coat hypertension', 'noun', 'C0262534', ['dsyn'], 0.0)||('is', '', '', '', 0.0)||('unsettled', '', '', '', 0.0)||(',', '', '', '', 0.0)||('although', '', '', '', 0.0)||('two', 'adj', 'C0205448', ['qnco'], 0.0)||('prospective studies', 'noun', 'C0033522', ['resa'], 0.0)||('that', '', '', '', 0.0)||('include', 'verb', 'C1552866', ['idcn'], 0.0)||('normal control', 'noun', 'C2705716', ['qlco'], 0.0)||('groups', 'noun', 'C0441833', ['idcn'], 0.0)||('imply', '', '', '', 0.0)||('that', '', '', '', 0.0)||('the', '', '', '', 0.0)||('condition', 'noun', 'C0348080', ['qlco'], 0.0)||('is', '', '', '', 0.0)||('benign', 'adj', 'C0205183', ['qlco'], 0.0)||('.', '', '', '', 0.0)||
('this', '', '', '', 0.0)||('study', 'noun', 'C0008976', ['resa'], 0.0)||('is', '', '', '', 0.0)||('a', '', '', '', 0.0)||('10', '', '', '', 0.0)||('-', '', '', '', 0.0)||('year', 'noun', 'C0439234', ['tmco'], 0.0)||('follow - up study', '', '', '', 0.0)||('on', '', '', '', 0.0)||('420', '', '', '', 0.0)||('patients', 'noun', 'C0030705', ['podg'], 0.0)||('with', '', '', '', 0.0)||('grade', 'noun', 'C0441800', ['clas'], 0.0)||('i', '', '', '', 0.0)||('-', '', '', '', 0.0)||('ii', '', '', '', 0.0)||('hypertension', 'noun', 'C0020538', ['dsyn'], 0.0)||('newly', 'adv', 'C0750546', ['idcn'], 0.0)||('diagnosed', 'verb', 'C0011900', ['fndg'], 0.0)||('by', '', '', '', 0.0)||('their', '', '', '', 0.0)||('general practitioner', 'noun', 'C0017319', ['prog'], 0.0)||('and', '', '', '', 0.0)||('146', '', '', '', 0.0)||('normal controls', '', '', '', 0.0)||('(', '', '', '', 0.0)||('nts', 'noun', 'C0175518', ['bpoc'], 0.0)||(')', '', '', '', 0.0)||('.', '', '', '', 0.0)||
('ambulatory blood pressure', '', '', '', 0.0)||('monitoring', 'noun', 'C0150369', ['hlca'], 0.0)||('was', '', '', '', 0.0)||('performed', 'verb', 'C0884358', ['ftcn'], 0.0)||('at', '', '', '', 0.0)||('baseline', 'noun', 'C0168634', ['bodm'], 0.0)||('.', '', '', '', 0.0)||
('with', '', '', '', 0.0)||('our', '', '', '', 0.0)||('protocollated', '', '', '', 0.0)||('cutoff value', '', '', '', 0.0)||('of', '', '', '', 0.0)||('daytime', 'noun', 'C0332169', ['tmco'], 0.0)||('-', '', '', '', 0.0)||('ambulatory blood pressure', '', '', '', 0.0)||('<', '', '', '', 0.0)||('135 / 90', '', '', '', 0.0)||('mmhg', 'noun', 'C0439475', ['qnco'], 0.0)||(',', '', '', '', 0.0)||('76', '', '', '', 0.0)||('(', '', '', '', 0.0)||('18 . 1 %', '', '', '', 0.0)||(')', '', '', '', 0.0)||('of', '', '', '', 0.0)||('the', '', '', '', 0.0)||('420', '', '', '', 0.0)||('hypertensives', '', '', '', 0.0)||('were', '', '', '', 0.0)||('white coat', '', '', '', 0.0)||('hypertensives', '', '', '', 0.0)||('and', '', '', '', 0.0)||('344', '', '', '', 0.0)||('were', '', '', '', 0.0)||('established', 'verb', 'C0443211', ['qlco'], 0.0)||('hypertensives', '', '', '', 0.0)||('.', '', '', '', 0.0)||
('with', '', '', '', 0.0)||('a', '', '', '', 0.0)||('lower', 'adj', 'C0441994', ['ftcn'], 0.0)||('cutoff', 'noun', 'C1442160', ['ftcn'], 0.0)||('of', '', '', '', 0.0)||('135 / 85', '', '', '', 0.0)||('mmhg', 'noun', 'C0439475', ['qnco'], 0.0)||(',', '', '', '', 0.0)||('40', '', '', '', 0.0)||('(', '', '', '', 0.0)||('9 . 5 %', '', '', '', 0.0)||(')', '', '', '', 0.0)||('were', '', '', '', 0.0)||('white coat', '', '', '', 0.0)||('hypertensives', '', '', '', 0.0)||('.', '', '', '', 0.0)||
('complete', 'verb', 'C0205197', ['qlco'], 0.0)||('follow - up', '', '', '', 0.0)||('data', 'noun', 'C1511726', ['idcn'], 0.0)||('were', '', '', '', 0.0)||('obtained', 'verb', 'C1301820', ['ftcn'], 0.0)||('for', '', '', '', 0.0)||('all', '', '', '', 0.0)||('566', '', '', '', 0.0)||('subjects', '', '', '', 0.0)||('.', '', '', '', 0.0)||
('the', '', '', '', 0.0)||('mean', 'noun', 'C0444504', ['qnco'], 0.0)||('duration', 'noun', 'C0449238', ['tmco'], 0.0)||('of', '', '', '', 0.0)||('follow - up', '', '', '', 0.0)||('was', '', '', '', 0.0)||('10 . 2', '', '', '', 0.0)||('years', 'noun', 'C0439234', ['tmco'], 0.0)||('(', '', '', '', 0.0)||('range', 'noun', 'C1514721', ['qnco'], 0.0)||('9 . 0', '', '', '', 0.0)||('-', '', '', '', 0.0)||('12 . 5', '', '', '', 0.0)||(')', '', '', '', 0.0)||('.', '', '', '', 0.0)||
('in', '', '', '', 0.0)||('the', '', '', '', 0.0)||('white coat hypertension', 'noun', 'C0262534', ['dsyn'], 0.0)||('group', 'noun', 'C0441833', ['idcn'], 0.0)||(',', '', '', '', 0.0)||('14', '', '', '', 0.0)||('first', 'adj', 'C0205435', ['qnco'], 0.0)||('events', 'noun', 'C0441471', ['evnt'], 0.0)||('were', '', '', '', 0.0)||('recorded', '', '', '', 0.0)||('(', '', '', '', 0.0)||('18 . 4 %', '', '', '', 0.0)||(')', '', '', '', 0.0)||('consisting', '', '', '', 0.0)||('of', '', '', '', 0.0)||('two', 'adj', 'C0205448', ['qnco'], 0.0)||('cardiovascular', 'adj', 'C0007226', ['bdsy'], 0.0)||('deaths', 'noun', 'C1306577', ['fndg'], 0.0)||('and', '', '', '', 0.0)||('12', '', '', '', 0.0)||('nonfatal', '', '', '', 0.0)||('cardiovascular', 'adj', 'C0007226', ['bdsy'], 0.0)||('events', 'noun', 'C0441471', ['evnt'], 0.0)||('.', '', '', '', 0.0)||
('in', '', '', '', 0.0)||('the', '', '', '', 0.0)||('eh', 'noun', 'C1520135', ['geoa'], 0.0)||('group', 'noun', 'C0441833', ['idcn'], 0.0)||(',', '', '', '', 0.0)||('the', '', '', '', 0.0)||('corresponding', '', '', '', 0.0)||('number', 'noun', 'C0449788', ['qnco'], 0.0)||('of', '', '', '', 0.0)||('events', 'noun', 'C0441471', ['evnt'], 0.0)||('were', '', '', '', 0.0)||('56', '', '', '', 0.0)||('first', 'adj', 'C0205435', ['qnco'], 0.0)||('events', 'noun', 'C0441471', ['evnt'], 0.0)||('(', '', '', '', 0.0)||('16 . 3 %', '', '', '', 0.0)||(')', '', '', '', 0.0)||(',', '', '', '', 0.0)||('12', '', '', '', 0.0)||('cardiovascular', 'adj', 'C0007226', ['bdsy'], 0.0)||('deaths', 'noun', 'C1306577', ['fndg'], 0.0)||('and', '', '', '', 0.0)||('44', '', '', '', 0.0)||('nonfatal', '', '', '', 0.0)||('cardiovascular', 'adj', 'C0007226', ['bdsy'], 0.0)||('events', 'noun', 'C0441471', ['evnt'], 0.0)||(',', '', '', '', 0.0)||('and', '', '', '', 0.0)||('in', '', '', '', 0.0)||('the', '', '', '', 0.0)||('nt', 'noun', 'C0332126', ['qlco'], 0.0)||('group', 'noun', 'C0441833', ['idcn'], 0.0)||('10', '', '', '', 0.0)||('first', 'adj', 'C0205435', ['qnco'], 0.0)||('events', 'noun', 'C0441471', ['evnt'], 0.0)||('(', '', '', '', 0.0)||('6 . 8 %', '', '', '', 0.0)||(')', '', '', '', 0.0)||(',', '', '', '', 0.0)||('two', 'adv', 'C0205448', ['qnco'], 0.0)||('cardiovascular', 'adj', 'C0007226', ['bdsy'], 0.0)||('deaths', 'noun', 'C1306577', ['fndg'], 0.0)||('and', '', '', '', 0.0)||('eight', '', 'C0205454', ['qnco'], 0.0)||('nonfatal', '', '', '', 0.0)||('cardiovascular', 'adj', 'C0007226', ['bdsy'], 0.0)||('events', 'noun', 'C0441471', ['evnt'], 0.0)||('.', '', '', '', 0.0)||
('the', '', '', '', 0.0)||('event', 'noun', 'C0441471', ['evnt'], 0.0)||('rate', 'noun', 'C0871208', ['acty'], 0.0)||('was', '', '', '', 0.0)||('similar', 'adj', 'C2348205', ['qlco'], 0.0)||('in', '', '', '', 0.0)||('the', '', '', '', 0.0)||('white coat hypertension', 'noun', 'C0262534', ['dsyn'], 0.0)||('group', 'noun', 'C0441833', ['idcn'], 0.0)||('and', '', '', '', 0.0)||('the', '', '', '', 0.0)||('eh', 'noun', 'C1520135', ['geoa'], 0.0)||('group', 'noun', 'C0441833', ['idcn'], 0.0)||('and', '', '', '', 0.0)||('significantly', '', '', '', 0.0)||('lower', 'adj', 'C0441994', ['ftcn'], 0.0)||('in', '', '', '', 0.0)||('the', '', '', '', 0.0)||('nt', 'noun', 'C0332126', ['qlco'], 0.0)||('group', 'noun', 'C0441833', ['idcn'], 0.0)||('(', '', '', '', 0.0)||('p', '', '', '', 0.0)||('<', '', '', '', 0.0)||('0 . 05', '', '', '', 0.0)||(')', '', '', '', 0.0)||('.', '', '', '', 0.0)||
('when', '', '', '', 0.0)||('corrected', 'verb', 'C0205202', ['qlco'], 0.0)||('for', '', '', '', 0.0)||('daytime', 'noun', 'C0332169', ['tmco'], 0.0)||('-', '', '', '', 0.0)||('ambulatory blood pressure', '', '', '', 0.0)||(',', '', '', '', 0.0)||('age', 'noun', 'C0001779', ['orga'], 0.0)||('and', '', '', '', 0.0)||('other', '', '', '', 0.0)||('confounders', '', '', '', 0.0)||(',', '', '', '', 0.0)||('the', '', '', '', 0.0)||('difference', 'noun', 'C1705242', ['qlco'], 0.0)||('remained', '', '', '', 0.0)||('statistically significant', 'adj', 'C0237881', ['qnco'], 0.0)||('.', '', '', '', 0.0)||
('when', '', '', '', 0.0)||('using', 'verb', 'C1524063', ['ftcn'], 0.0)||('the', '', '', '', 0.0)||('lower', 'adj', 'C0441994', ['ftcn'], 0.0)||('cutoff', 'noun', 'C1442160', ['ftcn'], 0.0)||('of', '', '', '', 0.0)||('135 / 85', '', '', '', 0.0)||('mmhg', 'noun', 'C0439475', ['qnco'], 0.0)||(',', '', '', '', 0.0)||('white coat hypertension', 'noun', 'C0262534', ['dsyn'], 0.0)||('was', '', '', '', 0.0)||('still', '', '', '', 0.0)||('associated', 'verb', 'C0332281', ['qlco'], 0.0)||('with', '', '', '', 0.0)||('a', '', '', '', 0.0)||('significantly', '', '', '', 0.0)||('higher', '', '', '', 0.0)||('cardiovascular event rate', '', '', '', 0.0)||('.', '', '', '', 0.0)||
('in', '', '', '', 0.0)||('conclusion', 'noun', 'C1707478', ['idcn'], 0.0)||(',', '', '', '', 0.0)||('the', '', '', '', 0.0)||('main', 'adj', 'C0205225', ['qlco'], 0.0)||('finding', 'noun', 'C0037088', ['sosy'], 0.0)||('of', '', '', '', 0.0)||('this', '', '', '', 0.0)||('10', '', '', '', 0.0)||('-', '', '', '', 0.0)||('year', 'noun', 'C0439234', ['tmco'], 0.0)||('follow - up study', '', '', '', 0.0)||('is', '', '', '', 0.0)||('an', '', '', '', 0.0)||('increased', 'adj', 'C0205217', ['qnco'], 0.0)||('cardiovascular risk', '', '', '', 0.0)||('in', '', '', '', 0.0)||('white coat hypertension', 'noun', 'C0262534', ['dsyn'], 0.0)||('compared', 'verb', 'C1707455', ['acty'], 0.0)||('to', '', '', '', 0.0)||('normotensive', 'adj', 'C0232105', ['fndg'], 0.0)||('controls', '', '', '', 0.0)||('.', '', '', '', 0.0)||
