('inhaled', 'adj', 'C0004048', ['orgf'], 0.0)||('nedocromil sodium', 'noun', 'C0886658', ['orch', 'phsu'], 0.0)||(',', '', '', '', 0.0)||('an', '', '', '', 0.0)||('anti - inflammatory', '', '', '', 0.0)||('agent', 'noun', 'C0450442', ['chvf'], 0.0)||('for', '', '', '', 0.0)||('the', '', '', '', 0.0)||('maintenance', 'noun', 'C0024501', ['acty'], 0.0)||('treatment', 'noun', 'C0039798', ['ftcn'], 0.0)||('of', '', '', '', 0.0)||('asthma', 'noun', 'C0004096', ['dsyn'], 0.0)||(',', '', '', '', 0.0)||('has', '', '', '', 0.0)||('been', '', '', '', 0.0)||('the', '', '', '', 0.0)||('subject', 'noun', 'C0681850', ['grup'], 0.0)||('of', '', '', '', 0.0)||('many', '', '', '', 0.0)||('clinical trials', 'noun', 'C0008976', ['resa'], 0.0)||('but', '', '', '', 0.0)||('only', '', '', '', 0.0)||('a', '', '', '', 0.0)||('proportion', 'noun', 'C1709707', ['qnco'], 0.0)||('have', '', '', '', 0.0)||('been', '', '', '', 0.0)||('published', 'verb', 'C0034037', ['ocac'], 0.0)||('.', '', '', '', 0.0)||
('this', '', '', '', 0.0)||('paper', 'noun', 'C0030351', ['mnob'], 0.0)||('provides', '', '', '', 0.0)||('an', '', '', '', 0.0)||('overview', 'noun', 'C0814812', ['inpr'], 0.0)||('analysis', 'noun', 'C0002778', ['lbpr'], 0.0)||('of', '', '', '', 0.0)||('all', '', '', '', 0.0)||('known', 'adj', 'C0205309', ['qlco'], 0.0)||('placebo - controlled', '', '', '', 0.0)||(',', '', '', '', 0.0)||('double - blind', '', '', '', 0.0)||(',', '', '', '', 0.0)||('randomized', 'verb', 'C0034656', ['resa'], 0.0)||('therapeutic', 'adj', 'C0039796', ['topp'], 0.0)||('trials', '', '', '', 0.0)||('.', '', '', '', 0.0)||
('both', '', '', '', 0.0)||('single', 'adj', 'C0037179', ['popg'], 0.0)||('centre', '', '', '', 0.0)||('and', '', '', '', 0.0)||('multicentre', '', '', '', 0.0)||('trials', '', '', '', 0.0)||('are', '', '', '', 0.0)||('included', '', '', '', 0.0)||('.', '', '', '', 0.0)||
('a', '', '', '', 0.0)||('comparison', 'noun', 'C1707455', ['acty'], 0.0)||('has', '', '', '', 0.0)||('been', '', '', '', 0.0)||('made', '', '', '', 0.0)||('between', '', '', '', 0.0)||('the', '', '', '', 0.0)||('treatment effects', '', '', '', 0.0)||('of', '', '', '', 0.0)||('nedocromil sodium', 'noun', 'C0886658', ['orch', 'phsu'], 0.0)||('and', '', '', '', 0.0)||('placebo', 'noun', 'C0032042', ['topp'], 0.0)||(',', '', '', '', 0.0)||('using', 'verb', 'C1524063', ['ftcn'], 0.0)||('six', '', 'C0205452', ['qnco'], 0.0)||('efficacy', 'noun', 'C1707887', ['resa'], 0.0)||('variables', '', '', '', 0.0)||('(', '', '', '', 0.0)||('day', 'noun', 'C0439228', ['tmco'], 0.0)||('and', '', '', '', 0.0)||('night', 'noun', 'C0240526', ['tmco'], 0.0)||('asthma', 'noun', 'C0004096', ['dsyn'], 0.0)||(',', '', '', '', 0.0)||('cough', 'noun', 'C0010200', ['sosy'], 0.0)||(',', '', '', '', 0.0)||('mean', 'noun', 'C0444504', ['qnco'], 0.0)||('daily', 'adj', 'C0332173', ['tmco'], 0.0)||('peak expiratory flow rate', 'noun', 'C0030735', ['diap'], 0.0)||(',', '', '', '', 0.0)||('inhaled', 'adj', 'C0004048', ['orgf'], 0.0)||('bronchodilator', 'noun', 'C0006280', ['phsu'], 0.0)||('use', 'noun', 'C0042153', ['ftcn'], 0.0)||(',', '', '', '', 0.0)||('clinic', 'noun', 'C0002424', ['hcro', 'mnob'], 0.0)||('lung', 'noun', 'C0024109', ['bpoc'], 0.0)||('function', 'noun', 'C0031843', ['phsf'], 0.0)||('(', '', '', '', 0.0)||('forced expiratory volume', 'noun', 'C0016529', ['ortf'], 0.0)||('in', '', '', '', 0.0)||('one', 'noun', 'C0205447', ['qnco'], 0.0)||('second', 'noun', 'C0205436', ['qnco'], 0.0)||(')', '', '', '', 0.0)||('and', '', '', '', 0.0)||('global', 'adj', 'C0205246', ['spco'], 0.0)||('opinion', '', '', '', 0.0)||('of', '', '', '', 0.0)||('treatment', 'noun', 'C0039798', ['ftcn'], 0.0)||('efficacy', 'noun', 'C1707887', ['resa'], 0.0)||('.', '', '', '', 0.0)||
('one', 'noun', 'C0205447', ['qnco'], 0.0)||('hundred', '', '', '', 0.0)||('and', '', '', '', 0.0)||('twenty seven', '', '', '', 0.0)||('trial', 'noun', 'C0008976', ['resa'], 0.0)||('centres', '', '', '', 0.0)||(',', '', '', '', 0.0)||('involving', 'verb', 'C1314939', ['ftcn'], 0.0)||('4 , 723', '', '', '', 0.0)||('patients', 'noun', 'C0030705', ['podg'], 0.0)||(',', '', '', '', 0.0)||('have', '', '', '', 0.0)||('been', '', '', '', 0.0)||('included', '', '', '', 0.0)||('.', '', '', '', 0.0)||
('the', '', '', '', 0.0)||('results', 'noun', 'C1274040', ['ftcn'], 0.0)||('demonstrate', '', '', '', 0.0)||('the', '', '', '', 0.0)||('efficacy', 'noun', 'C1707887', ['resa'], 0.0)||('of', '', '', '', 0.0)||('inhaled', 'adj', 'C0004048', ['orgf'], 0.0)||('nedocromil sodium', 'noun', 'C0886658', ['orch', 'phsu'], 0.0)||('in', '', '', '', 0.0)||('a', '', '', '', 0.0)||('variety', 'noun', 'C1883525', ['cnce'], 0.0)||('of', '', '', '', 0.0)||('patients', 'noun', 'C0030705', ['podg'], 0.0)||('with', '', '', '', 0.0)||('asthma', 'noun', 'C0004096', ['dsyn'], 0.0)||('.', '', '', '', 0.0)||
('optimal', 'adj', 'C2698651', ['qlco'], 0.0)||('effects', '', '', '', 0.0)||('are', '', '', '', 0.0)||('evident', '', '', '', 0.0)||('in', '', '', '', 0.0)||('patients', 'noun', 'C0030705', ['podg'], 0.0)||('with', '', '', '', 0.0)||('moderate', 'adj', 'C0205081', ['qlco'], 0.0)||('asthma', 'noun', 'C0004096', ['dsyn'], 0.0)||(',', '', '', '', 0.0)||('currently', 'adv', 'C0521116', ['tmco'], 0.0)||('receiving', '', '', '', 0.0)||('treatment', 'noun', 'C0039798', ['ftcn'], 0.0)||('with', '', '', '', 0.0)||('inhaled', 'adj', 'C0004048', ['orgf'], 0.0)||('and', '', '', '', 0.0)||('oral', 'adj', 'C0442027', ['spco'], 0.0)||('bronchodilators', 'noun', 'C0006280', ['phsu'], 0.0)||('.', '', '', '', 0.0)||
