('a', '', '', '', 0.0)||('history', 'noun', 'C0019664', ['ocdi'], 0.0)||('of', '', '', '', 0.0)||('diabetic ketoacidosis', 'noun', 'C0011880', ['dsyn'], 0.0)||('also', '', '', '', 0.0)||('does', '', '', '', 0.0)||('not', 'adv', 'C1518422', ['ftcn'], 0.0)||('reliably', '', '', '', 0.0)||('distinguish', '', '', '', 0.0)||('between', '', '', '', 0.0)||('types', 'noun', 'C0332307', ['qlco'], 0.0)||('1', '', '', '', 0.0)||('and', '', '', '', 0.0)||('2', '', '', '', 0.0)||('.', '', '', '', 0.0)||
('a', '', '', '', 0.0)||('retrospective', 'adj', 'C1514923', ['qlco'], 0.0)||('chart review', 'noun', 'C0541653', ['hlca'], 0.0)||('gathered', '', '', '', 0.0)||('data', 'noun', 'C1511726', ['idcn'], 0.0)||('on', '', '', '', 0.0)||('adults', 'noun', 'C0001675', ['aggp'], 0.0)||('over', '', '', '', 0.0)||('18', '', '', '', 0.0)||('years', 'noun', 'C0439234', ['tmco'], 0.0)||('of', '', '', '', 0.0)||('age', 'noun', 'C0001779', ['orga'], 0.0)||('who', '', '', '', 0.0)||('were', '', '', '', 0.0)||('admitted', '', '', '', 0.0)||('for', '', '', '', 0.0)||('diabetic ketoacidosis', 'noun', 'C0011880', ['dsyn'], 0.0)||('in', '', '', '', 0.0)||('a', '', '', '', 0.0)||('urban', 'adj', 'C0442529', ['geoa'], 0.0)||('us', '', '', '', 0.0)||('hospital', 'noun', 'C0019994', ['hcro', 'mnob'], 0.0)||('.', '', '', '', 0.0)||
('many', '', '', '', 0.0)||('patients', 'noun', 'C0030705', ['podg'], 0.0)||('with', '', '', '', 0.0)||('diabetic ketoacidosis', 'noun', 'C0011880', ['dsyn'], 0.0)||('were', '', '', '', 0.0)||('subsequently', '', '', '', 0.0)||('diagnosed', 'verb', 'C0011900', ['fndg'], 0.0)||('with', '', '', '', 0.0)||('type 2 diabetes', 'noun', 'C0011860', ['dsyn'], 0.0)||('.', '', '', '', 0.0)||
('rates', '', '', '', 0.0)||('of', '', '', '', 0.0)||('type 2 diabetes', 'noun', 'C0011860', ['dsyn'], 0.0)||('in', '', '', '', 0.0)||('patients', 'noun', 'C0030705', ['podg'], 0.0)||('with', '', '', '', 0.0)||('diabetic ketoacidosis', 'noun', 'C0011880', ['dsyn'], 0.0)||('varied', '', '', '', 0.0)||('by', '', '', '', 0.0)||('race', 'noun', 'C0034510', ['popg'], 0.0)||(':', '', '', '', 0.0)||('47 %', '', '', '', 0.0)||('of', '', '', '', 0.0)||('hispanics', 'noun', 'C0086409', ['popg'], 0.0)||(',', '', '', '', 0.0)||('44 %', '', '', '', 0.0)||('of', '', '', '', 0.0)||('african americans', 'noun', 'C0085756', ['popg'], 0.0)||(',', '', '', '', 0.0)||('and', '', '', '', 0.0)||('17 %', '', '', '', 0.0)||('of', '', '', '', 0.0)||('caucasians', 'noun', 'C0007457', ['popg'], 0.0)||('had', '', '', '', 0.0)||('type 2 diabetes', 'noun', 'C0011860', ['dsyn'], 0.0)||('.', '', '', '', 0.0)||
