('autoantibodies', 'noun', 'C0004358', ['aapp', 'imft'], 0.0)||('do', '', '', '', 0.0)||('predict', '', '', '', 0.0)||('an', '', '', '', 0.0)||('earlier', '', '', '', 0.0)||('need', 'noun', 'C0027552', ['qlco'], 0.0)||('for', '', '', '', 0.0)||('insulin', 'noun', 'C0021641', ['aapp', 'horm', 'phsu'], 0.0)||('.', '', '', '', 0.0)||
('one', 'noun', 'C0205447', ['qnco'], 0.0)||('prevalence study', 'noun', 'C0033106', ['qnco'], 0.0)||('of', '', '', '', 0.0)||('101', '', '', '', 0.0)||('type', 'noun', 'C0332307', ['qlco'], 0.0)||('2', '', '', '', 0.0)||('adult', 'noun', 'C0001675', ['aggp'], 0.0)||('patients', 'noun', 'C0030705', ['podg'], 0.0)||('found', '', '', '', 0.0)||('20 %', '', '', '', 0.0)||('were', '', '', '', 0.0)||('positive', 'adj', 'C1446409', ['qlco'], 0.0)||('for', '', '', '', 0.0)||('glutamic acid decarboxylase', 'noun', 'C0017785', ['aapp', 'enzy'], 0.0)||('autoantibody', 'noun', 'C0004358', ['aapp', 'imft'], 0.0)||(',', '', '', '', 0.0)||('which', '', '', '', 0.0)||('was', '', '', '', 0.0)||('positively', '', '', '', 0.0)||('associated', 'verb', 'C0332281', ['qlco'], 0.0)||('with', '', '', '', 0.0)||('insulin', 'noun', 'C0021641', ['aapp', 'horm', 'phsu'], 0.0)||('dependence', 'noun', 'C0011546', ['menp'], 0.0)||('at', '', '', '', 0.0)||('4', '', '', '', 0.0)||('years', 'noun', 'C0439234', ['tmco'], 0.0)||('postdiagnosis', '', '', '', 0.0)||('(', '', '', '', 0.0)||('or', '', '', '', 0.0)||('=', '', '', '', 0.0)||('5 . 8', '', '', '', 0.0)||(';', '', '', '', 0.0)||('95 %', '', '', '', 0.0)||('ci', 'noun', 'C1417638', ['gngm'], 0.0)||(',', '', '', '', 0.0)||('1 . 8', '', '', '', 0.0)||('-', '', '', '', 0.0)||('18 . 9', '', '', '', 0.0)||(')', '', '', '', 0.0)||('.', '', '', '', 0.0)||
('eighty', '', '', '', 0.0)||('percent', 'noun', 'C0439165', ['qnco'], 0.0)||('of', '', '', '', 0.0)||('patients', 'noun', 'C0030705', ['podg'], 0.0)||('with', '', '', '', 0.0)||('autoantibodies', 'noun', 'C0004358', ['aapp', 'imft'], 0.0)||('required', 'verb', 'C1514873', ['ftcn'], 0.0)||('insulin', 'noun', 'C0021641', ['aapp', 'horm', 'phsu'], 0.0)||('compared', 'verb', 'C1707455', ['acty'], 0.0)||('with', '', '', '', 0.0)||('41 %', '', '', '', 0.0)||('of', '', '', '', 0.0)||('patients', 'noun', 'C0030705', ['podg'], 0.0)||('without', '', '', '', 0.0)||('autoantibodies', 'noun', 'C0004358', ['aapp', 'imft'], 0.0)||('.', '', '', '', 0.0)||
