('a', '', '', '', 0.0)||('case', 'noun', 'C0868928', ['ftcn'], 0.0)||('series', 'noun', 'C0205549', ['qnco'], 0.0)||('reported', 'verb', 'C0684224', ['inpr'], 0.0)||('on', '', '', '', 0.0)||('135', '', '', '', 0.0)||('patients', 'noun', 'C0030705', ['podg'], 0.0)||('(', '', '', '', 0.0)||('mean', 'noun', 'C0444504', ['qnco'], 0.0)||('age', 'noun', 'C0001779', ['orga'], 0.0)||('26', '', '', '', 0.0)||('years', 'noun', 'C0439234', ['tmco'], 0.0)||(';', '', '', '', 0.0)||('range', 'noun', 'C1514721', ['qnco'], 0.0)||('4', '', '', '', 0.0)||('months', 'noun', 'C0439231', ['tmco'], 0.0)||('to', '', '', '', 0.0)||('70', '', '', '', 0.0)||('years', 'noun', 'C0439234', ['tmco'], 0.0)||(')', '', '', '', 0.0)||('whose', '', '', '', 0.0)||('pyogenic granulomas', '', '', '', 0.0)||('were', '', '', '', 0.0)||('treated', 'verb', 'C1522326', ['ftcn'], 0.0)||('with', '', '', '', 0.0)||('cryotherapy', 'noun', 'C0010412', ['topp'], 0.0)||('.', '', '', '', 0.0)||
('seventy', '', '', '', 0.0)||('-', '', '', '', 0.0)||('eight', '', 'C0205454', ['qnco'], 0.0)||('(', '', '', '', 0.0)||('58 %', '', '', '', 0.0)||(')', '', '', '', 0.0)||('had', '', '', '', 0.0)||('complete', 'adj', 'C0205197', ['qlco'], 0.0)||('resolution', 'noun', 'C1514893', ['idcn'], 0.0)||('with', '', '', '', 0.0)||('1', '', '', '', 0.0)||('session', 'noun', 'C1883016', ['evnt'], 0.0)||(',', '', '', '', 0.0)||('30 %', '', '', '', 0.0)||('needed', 'verb', 'C0027552', ['qlco'], 0.0)||('2', '', '', '', 0.0)||('sessions', '', '', '', 0.0)||(',', '', '', '', 0.0)||('8 %', '', '', '', 0.0)||('needed', 'verb', 'C0027552', ['qlco'], 0.0)||('3', '', '', '', 0.0)||('sessions', '', '', '', 0.0)||(',', '', '', '', 0.0)||('and', '', '', '', 0.0)||('5 %', '', '', '', 0.0)||('needed', 'verb', 'C0027552', ['qlco'], 0.0)||('4', '', '', '', 0.0)||('sessions', '', '', '', 0.0)||('(', '', '', '', 0.0)||('mean', 'noun', 'C0444504', ['qnco'], 0.0)||('1 . 58', '', '', '', 0.0)||('sessions', '', '', '', 0.0)||(')', '', '', '', 0.0)||('.', '', '', '', 0.0)||
('ninety - four', '', '', '', 0.0)||('percent', 'noun', 'C0439165', ['qnco'], 0.0)||('had', '', '', '', 0.0)||('an', '', '', '', 0.0)||('excellent', 'adj', 'C1548784', ['qlco'], 0.0)||('cosmetic', 'adj', 'C0010164', ['mnob'], 0.0)||('result', 'noun', 'C1274040', ['ftcn'], 0.0)||('(', '', '', '', 0.0)||('including', '', '', '', 0.0)||('12 %', '', '', '', 0.0)||('with', '', '', '', 0.0)||('a', '', '', '', 0.0)||('small', 'adj', 'C0700321', ['qnco'], 0.0)||('flat', 'adj', 'C0205324', ['spco'], 0.0)||('scar', 'noun', 'C1419736', ['gngm'], 0.0)||(')', '', '', '', 0.0)||(';', '', '', '', 0.0)||
('5 %', '', '', '', 0.0)||('had', '', '', '', 0.0)||('residual', 'adj', 'C1609982', ['qlco'], 0.0)||('hypopigmentation', 'noun', 'C0162835', ['dsyn'], 0.0)||('.', '', '', '', 0.0)||
