('background', 'noun', 'C1706907', ['cnce'], 0.0)||('-', '', '', '', 0.0)||('treatment', 'noun', 'C0039798', ['ftcn'], 0.0)||('with', '', '', '', 0.0)||('diuretics', 'noun', 'C0012798', ['phsu'], 0.0)||('has', '', '', '', 0.0)||('been', '', '', '', 0.0)||('reported', 'verb', 'C0684224', ['inpr'], 0.0)||('to', '', '', '', 0.0)||('increase', 'verb', 'C0442805', ['ftcn'], 0.0)||('the', '', '', '', 0.0)||('risk', 'noun', 'C0035647', ['qlco'], 0.0)||('of', '', '', '', 0.0)||('arrhythmic', '', '', '', 0.0)||('death', 'noun', 'C0011065', ['orgf'], 0.0)||('in', '', '', '', 0.0)||('patients', 'noun', 'C0030705', ['podg'], 0.0)||('with', '', '', '', 0.0)||('hypertension', 'noun', 'C0020538', ['dsyn'], 0.0)||('.', '', '', '', 0.0)||
('the', '', '', '', 0.0)||('effect', 'noun', 'C1280500', ['qlco'], 0.0)||('of', '', '', '', 0.0)||('diuretic', 'adj', 'C0012798', ['phsu'], 0.0)||('therapy', 'noun', 'C0039798', ['ftcn'], 0.0)||('on', '', '', '', 0.0)||('arrhythmic', '', '', '', 0.0)||('death', 'noun', 'C0011065', ['orgf'], 0.0)||('in', '', '', '', 0.0)||('patients', 'noun', 'C0030705', ['podg'], 0.0)||('with', '', '', '', 0.0)||('left ventricular', '', '', '', 0.0)||('dysfunction', 'noun', 'C0031847', ['ftcn'], 0.0)||('is', '', '', '', 0.0)||('unknown', 'verb', 'C0439673', ['idcn'], 0.0)||('.', '', '', '', 0.0)||
('methods', 'noun', 'C0025663', ['inpr'], 0.0)||('and', '', '', '', 0.0)||('results', 'noun', 'C1274040', ['ftcn'], 0.0)||('-', '', '', '', 0.0)||('we', '', '', '', 0.0)||('conducted', '', '', '', 0.0)||('a', '', '', '', 0.0)||('retrospective', 'adj', 'C1514923', ['qlco'], 0.0)||('analysis', 'noun', 'C0002778', ['lbpr'], 0.0)||('of', '', '', '', 0.0)||('6797', '', '', '', 0.0)||('patients', 'noun', 'C0030705', ['podg'], 0.0)||('with', '', '', '', 0.0)||('an', '', '', '', 0.0)||('ejection fraction', 'noun', 'C0489482', ['diap'], 0.0)||('<', '', '', '', 0.0)||('0 . 36', '', '', '', 0.0)||('enrolled', '', '', '', 0.0)||('in', '', '', '', 0.0)||('the', '', '', '', 0.0)||('studies', '', '', '', 0.0)||('of', '', '', '', 0.0)||('left ventricular', '', '', '', 0.0)||('dysfunction', 'noun', 'C0031847', ['ftcn'], 0.0)||('to', '', '', '', 0.0)||('assess', 'verb', 'C1516048', ['acty'], 0.0)||('the', '', '', '', 0.0)||('relation', 'noun', 'C0080103', ['famg'], 0.0)||('between', '', '', '', 0.0)||('diuretic', 'adj', 'C0012798', ['phsu'], 0.0)||('use', 'noun', 'C0042153', ['ftcn'], 0.0)||('at', '', '', '', 0.0)||('baseline', 'noun', 'C0168634', ['bodm'], 0.0)||('and', '', '', '', 0.0)||('the', '', '', '', 0.0)||('subsequent', 'adj', 'C0332282', ['tmco'], 0.0)||('risk', 'noun', 'C0035647', ['qlco'], 0.0)||('of', '', '', '', 0.0)||('arrhythmic', '', '', '', 0.0)||('death', 'noun', 'C0011065', ['orgf'], 0.0)||('.', '', '', '', 0.0)||
('participants', '', '', '', 0.0)||('receiving', '', '', '', 0.0)||('a', '', '', '', 0.0)||('diuretic', 'adj', 'C0012798', ['phsu'], 0.0)||('at', '', '', '', 0.0)||('baseline', 'noun', 'C0168634', ['bodm'], 0.0)||('were', '', '', '', 0.0)||('more', '', '', '', 0.0)||('likely', 'adv', 'C0332148', ['qlco'], 0.0)||('to', '', '', '', 0.0)||('have', '', '', '', 0.0)||('an', '', '', '', 0.0)||('arrhythmic', '', '', '', 0.0)||('death', 'noun', 'C0011065', ['orgf'], 0.0)||('than', '', '', '', 0.0)||('those', '', '', '', 0.0)||('not', 'adv', 'C1518422', ['ftcn'], 0.0)||('receiving', '', '', '', 0.0)||('a', '', '', '', 0.0)||('diuretic', 'adj', 'C0012798', ['phsu'], 0.0)||('(', '', '', '', 0.0)||('3 . 1', '', '', '', 0.0)||('vs', '', '', '', 0.0)||('1 . 7', '', '', '', 0.0)||('arrhythmic', '', '', '', 0.0)||('deaths', 'noun', 'C1306577', ['fndg'], 0.0)||('per', '', '', '', 0.0)||('100', '', '', '', 0.0)||('person - years', '', '', '', 0.0)||(',', '', '', '', 0.0)||('p', '', '', '', 0.0)||('=', '', '', '', 0.0)||('0 . 001', '', '', '', 0.0)||(')', '', '', '', 0.0)||('.', '', '', '', 0.0)||
('on', '', '', '', 0.0)||('univariate', '', '', '', 0.0)||('analysis', 'noun', 'C0002778', ['lbpr'], 0.0)||(',', '', '', '', 0.0)||('diuretic', 'adj', 'C0012798', ['phsu'], 0.0)||('use', 'noun', 'C0042153', ['ftcn'], 0.0)||('was', '', '', '', 0.0)||('associated', 'verb', 'C0332281', ['qlco'], 0.0)||('with', '', '', '', 0.0)||('an', '', '', '', 0.0)||('increased risk', '', '', '', 0.0)||('of', '', '', '', 0.0)||('arrhythmic', '', '', '', 0.0)||('death', 'noun', 'C0011065', ['orgf'], 0.0)||('(', '', '', '', 0.0)||('relative risk', 'noun', 'C0242492', ['qnco'], 0.0)||('1 . 85', '', '', '', 0.0)||(',', '', '', '', 0.0)||('p', '', '', '', 0.0)||('=', '', '', '', 0.0)||('0 . 0001', '', '', '', 0.0)||(')', '', '', '', 0.0)||('.', '', '', '', 0.0)||
('after', '', '', '', 0.0)||('controlling', 'noun', 'C2239193', ['phpr'], 0.0)||('for', '', '', '', 0.0)||('important', '', '', '', 0.0)||('covariates', '', '', '', 0.0)||(',', '', '', '', 0.0)||('diuretic', 'adj', 'C0012798', ['phsu'], 0.0)||('use', 'noun', 'C0042153', ['ftcn'], 0.0)||('remained', '', '', '', 0.0)||('significantly', '', '', '', 0.0)||('associated', 'verb', 'C0332281', ['qlco'], 0.0)||('with', '', '', '', 0.0)||('an', '', '', '', 0.0)||('increased risk', '', '', '', 0.0)||('of', '', '', '', 0.0)||('arrhythmic', '', '', '', 0.0)||('death', 'noun', 'C0011065', ['orgf'], 0.0)||('(', '', '', '', 0.0)||('relative risk', 'noun', 'C0242492', ['qnco'], 0.0)||('1 . 37', '', '', '', 0.0)||(',', '', '', '', 0.0)||('p', '', '', '', 0.0)||('=', '', '', '', 0.0)||('0 . 009', '', '', '', 0.0)||(')', '', '', '', 0.0)||('.', '', '', '', 0.0)||
('only', '', '', '', 0.0)||('non', 'noun', 'C1518422', ['ftcn'], 0.0)||('-', '', '', '', 0.0)||('potassium - sparing diuretic', '', '', '', 0.0)||('use', 'noun', 'C0042153', ['ftcn'], 0.0)||('was', '', '', '', 0.0)||('independently', '', '', '', 0.0)||('associated', 'verb', 'C0332281', ['qlco'], 0.0)||('with', '', '', '', 0.0)||('arrhythmic', '', '', '', 0.0)||('death', 'noun', 'C0011065', ['orgf'], 0.0)||('(', '', '', '', 0.0)||('relative risk', 'noun', 'C0242492', ['qnco'], 0.0)||('1 . 33', '', '', '', 0.0)||(',', '', '', '', 0.0)||('p', '', '', '', 0.0)||('=', '', '', '', 0.0)||('0 . 02', '', '', '', 0.0)||(')', '', '', '', 0.0)||('.', '', '', '', 0.0)||
('use', 'noun', 'C0042153', ['ftcn'], 0.0)||('of', '', '', '', 0.0)||('a', '', '', '', 0.0)||('potassium - sparing diuretic', '', '', '', 0.0)||(',', '', '', '', 0.0)||('alone', 'adj', 'C0439044', ['fndg'], 0.0)||('or', '', '', '', 0.0)||('in', '', '', '', 0.0)||('combination', 'noun', 'C0205195', ['qlco'], 0.0)||('with', '', '', '', 0.0)||('a', '', '', '', 0.0)||('non', 'noun', 'C1518422', ['ftcn'], 0.0)||('-', '', '', '', 0.0)||('potassium - sparing diuretic', '', '', '', 0.0)||(',', '', '', '', 0.0)||('was', '', '', '', 0.0)||('not', 'adv', 'C1518422', ['ftcn'], 0.0)||('independently', '', '', '', 0.0)||('associated', 'verb', 'C0332281', ['qlco'], 0.0)||('with', '', '', '', 0.0)||('an', '', '', '', 0.0)||('increased risk', '', '', '', 0.0)||('of', '', '', '', 0.0)||('arrhythmic', '', '', '', 0.0)||('death', 'noun', 'C0011065', ['orgf'], 0.0)||('(', '', '', '', 0.0)||('relative risk', 'noun', 'C0242492', ['qnco'], 0.0)||('0 . 90', '', '', '', 0.0)||(',', '', '', '', 0.0)||('p', '', '', '', 0.0)||('=', '', '', '', 0.0)||('0 . 6', '', '', '', 0.0)||(')', '', '', '', 0.0)||('.', '', '', '', 0.0)||
('conclusions', 'noun', 'C1707478', ['idcn'], 0.0)||('-', '', '', '', 0.0)||('in', '', '', '', 0.0)||('studies', '', '', '', 0.0)||('of', '', '', '', 0.0)||('left ventricular', '', '', '', 0.0)||('dysfunction', 'noun', 'C0031847', ['ftcn'], 0.0)||(',', '', '', '', 0.0)||('baseline', 'noun', 'C0168634', ['bodm'], 0.0)||('use', 'noun', 'C0042153', ['ftcn'], 0.0)||('of', '', '', '', 0.0)||('a', '', '', '', 0.0)||('non', 'noun', 'C1518422', ['ftcn'], 0.0)||('-', '', '', '', 0.0)||('potassium - sparing diuretic', '', '', '', 0.0)||('was', '', '', '', 0.0)||('associated', 'verb', 'C0332281', ['qlco'], 0.0)||('with', '', '', '', 0.0)||('an', '', '', '', 0.0)||('increased risk', '', '', '', 0.0)||('of', '', '', '', 0.0)||('arrhythmic', '', '', '', 0.0)||('death', 'noun', 'C0011065', ['orgf'], 0.0)||(',', '', '', '', 0.0)||('whereas', '', '', '', 0.0)||('baseline', 'noun', 'C0168634', ['bodm'], 0.0)||('use', 'noun', 'C0042153', ['ftcn'], 0.0)||('of', '', '', '', 0.0)||('a', '', '', '', 0.0)||('potassium - sparing diuretic', '', '', '', 0.0)||('was', '', '', '', 0.0)||('not', 'adv', 'C1518422', ['ftcn'], 0.0)||('.', '', '', '', 0.0)||
('these', '', '', '', 0.0)||('data', 'noun', 'C1511726', ['idcn'], 0.0)||('suggest', 'verb', 'C1705535', ['idcn'], 0.0)||('that', '', '', '', 0.0)||('diuretic', 'adj', 'C0012798', ['phsu'], 0.0)||('-', '', '', '', 0.0)||('induced', 'adj', 'C0205263', ['ftcn'], 0.0)||('electrolyte', 'noun', 'C0013832', ['inch', 'phsu'], 0.0)||('disturbances', '', '', '', 0.0)||('may', '', '', '', 0.0)||('result', 'verb', 'C1274040', ['ftcn'], 0.0)||('in', '', '', '', 0.0)||('fatal', 'adj', 'C1302234', ['qlco'], 0.0)||('arrhythmias', 'noun', 'C0003811', ['patf'], 0.0)||('in', '', '', '', 0.0)||('patients', 'noun', 'C0030705', ['podg'], 0.0)||('with', '', '', '', 0.0)||('systolic', 'adj', 'C0039155', ['tmco'], 0.0)||('left ventricular', '', '', '', 0.0)||('dysfunction', 'noun', 'C0031847', ['ftcn'], 0.0)||('.', '', '', '', 0.0)||
