('folate levels', '', '', '', 0.0)||('are', '', '', '', 0.0)||('routinely', '', '', '', 0.0)||('ordered', 'verb', 'C1705176', ['qlco'], 0.0)||('in', '', '', '', 0.0)||('the', '', '', '', 0.0)||('evaluation', 'noun', 'C0220825', ['ftcn'], 0.0)||('of', '', '', '', 0.0)||('macrocytosis', 'noun', 'C0085662', ['dsyn'], 0.0)||('with', '', '', '', 0.0)||('or', '', '', '', 0.0)||('without', '', '', '', 0.0)||('frank', 'noun', 'C0043117', ['dsyn'], 0.0)||('anemia', 'noun', 'C1000483', ['plnt'], 0.0)||(',', '', '', '', 0.0)||('yet', '', '', '', 0.0)||('the', '', '', '', 0.0)||('value', 'noun', 'C0042295', ['qlco'], 0.0)||('of', '', '', '', 0.0)||('these', '', '', '', 0.0)||('tests', 'noun', 'C0022885', ['lbpr'], 0.0)||('is', '', '', '', 0.0)||('questionable', 'adj', 'C0750481', ['idcn'], 0.0)||('.', '', '', '', 0.0)||
('we', '', '', '', 0.0)||('evaluated', 'verb', 'C0220825', ['ftcn'], 0.0)||('the', '', '', '', 0.0)||('clinical', 'adj', 'C0205210', ['qlco'], 0.0)||('utility', '', '', '', 0.0)||('of', '', '', '', 0.0)||('folate', 'noun', 'C0178638', ['orch', 'phsu', 'vita'], 0.0)||('testing', 'noun', 'C0039593', ['ftcn'], 0.0)||('in', '', '', '', 0.0)||('routine', 'adj', 'C0205547', ['qlco'], 0.0)||('clinical', 'adj', 'C0205210', ['qlco'], 0.0)||('practice', 'noun', 'C0237607', ['menp'], 0.0)||('.', '', '', '', 0.0)||
('we', '', '', '', 0.0)||('conducted', '', '', '', 0.0)||('a', '', '', '', 0.0)||('retrospective', 'adj', 'C1514923', ['qlco'], 0.0)||('review', 'noun', 'C0282443', ['inpr'], 0.0)||('of', '', '', '', 0.0)||('all', '', '', '', 0.0)||('serum', 'noun', 'C0229671', ['bdsu'], 0.0)||('and', '', '', '', 0.0)||('erythrocyte', 'noun', 'C0014792', ['cell'], 0.0)||('folate', 'noun', 'C0178638', ['orch', 'phsu', 'vita'], 0.0)||('assays', '', '', '', 0.0)||('performed', 'verb', 'C0884358', ['ftcn'], 0.0)||('over', '', '', '', 0.0)||('a', '', '', '', 0.0)||('one', 'noun', 'C0205447', ['qnco'], 0.0)||('-', '', '', '', 0.0)||('year', 'noun', 'C0439234', ['tmco'], 0.0)||('period', 'noun', 'C1948053', ['tmco'], 0.0)||('at', '', '', '', 0.0)||('three', '', 'C0205449', ['qnco'], 0.0)||('hospitals', 'noun', 'C0019994', ['hcro', 'mnob'], 0.0)||('.', '', '', '', 0.0)||
('we', '', '', '', 0.0)||('determined', '', '', '', 0.0)||('the', '', '', '', 0.0)||('frequency', 'noun', 'C0376249', ['qnco'], 0.0)||('of', '', '', '', 0.0)||('low', 'adj', 'C0205251', ['qlco'], 0.0)||('values', 'noun', 'C0042295', ['qlco'], 0.0)||(',', '', '', '', 0.0)||('then', 'adv', 'C1883708', ['tmco'], 0.0)||('reviewed', 'verb', 'C1709940', ['qlco'], 0.0)||('the', '', '', '', 0.0)||('medical records', 'noun', 'C0025102', ['inpr'], 0.0)||('of', '', '', '', 0.0)||('all', '', '', '', 0.0)||('patients', 'noun', 'C0030705', ['podg'], 0.0)||('with', '', '', '', 0.0)||('low', 'adj', 'C0205251', ['qlco'], 0.0)||('values', 'noun', 'C0042295', ['qlco'], 0.0)||('to', '', '', '', 0.0)||('determine', '', '', '', 0.0)||('whether', '', '', '', 0.0)||('low', 'adj', 'C0205251', ['qlco'], 0.0)||('folate levels', '', '', '', 0.0)||('changed', 'verb', 'C0392747', ['ftcn'], 0.0)||('clinician', 'noun', 'C1550470', ['idcn'], 0.0)||('behavior', 'noun', 'C0004927', ['inbe'], 0.0)||('.', '', '', '', 0.0)||
('we', '', '', '', 0.0)||('also', '', '', '', 0.0)||('performed', 'verb', 'C0884358', ['ftcn'], 0.0)||('a', '', '', '', 0.0)||('cost analysis', 'noun', 'C0010171', ['ocac'], 0.0)||('to', '', '', '', 0.0)||('determine', '', '', '', 0.0)||('the', '', '', '', 0.0)||('cost', 'noun', 'C0010186', ['qnco'], 0.0)||('of', '', '', '', 0.0)||('testing', 'noun', 'C0039593', ['ftcn'], 0.0)||('per', '', '', '', 0.0)||('case', 'noun', 'C0868928', ['ftcn'], 0.0)||('in', '', '', '', 0.0)||('which', '', '', '', 0.0)||('behavior', 'noun', 'C0004927', ['inbe'], 0.0)||('changed', 'verb', 'C0392747', ['ftcn'], 0.0)||('.', '', '', '', 0.0)||
('only', '', '', '', 0.0)||('2 . 3 %', '', '', '', 0.0)||('of', '', '', '', 0.0)||('the', '', '', '', 0.0)||('2 , 998', '', '', '', 0.0)||('folate levels', '', '', '', 0.0)||('obtained', 'verb', 'C1301820', ['ftcn'], 0.0)||('during', '', '', '', 0.0)||('the', '', '', '', 0.0)||('study', 'noun', 'C0008976', ['resa'], 0.0)||('period', 'noun', 'C1948053', ['tmco'], 0.0)||('were', '', '', '', 0.0)||('low', 'adj', 'C0205251', ['qlco'], 0.0)||('.', '', '', '', 0.0)||
('the', '', '', '', 0.0)||('low', 'adj', 'C0205251', ['qlco'], 0.0)||('levels', 'noun', 'C0441889', ['qlco'], 0.0)||('were', '', '', '', 0.0)||('noted', '', '', '', 0.0)||('in', '', '', '', 0.0)||('the', '', '', '', 0.0)||('record', 'noun', 'C0034869', ['inpr'], 0.0)||('in', '', '', '', 0.0)||('53 %', '', '', '', 0.0)||('of', '', '', '', 0.0)||('cases', 'noun', 'C0868928', ['ftcn'], 0.0)||(',', '', '', '', 0.0)||('and', '', '', '', 0.0)||('folic acid', 'noun', 'C0016410', ['orch', 'phsu', 'vita'], 0.0)||('was', '', '', '', 0.0)||('prescribed', 'verb', 'C0278329', ['hlca'], 0.0)||('or', '', '', '', 0.0)||('continued', 'verb', 'C0549178', ['idcn'], 0.0)||('at', '', '', '', 0.0)||('discharge', 'noun', 'C0012621', ['bdsu'], 0.0)||('in', '', '', '', 0.0)||('only', '', '', '', 0.0)||('24 %', '', '', '', 0.0)||('.', '', '', '', 0.0)||
('the', '', '', '', 0.0)||('cost analysis', 'noun', 'C0010171', ['ocac'], 0.0)||('showed', '', '', '', 0.0)||('that', '', '', '', 0.0)||('nearly', '', '', '', 0.0)||('$ 10 , 000', '', '', '', 0.0)||('was', '', '', '', 0.0)||('spent', '', '', '', 0.0)||('in', '', '', '', 0.0)||('folate', 'noun', 'C0178638', ['orch', 'phsu', 'vita'], 0.0)||('testing', 'noun', 'C0039593', ['ftcn'], 0.0)||('per', '', '', '', 0.0)||('patient', '', '', '', 0.0)||('in', '', '', '', 0.0)||('which', '', '', '', 0.0)||('behavior', 'noun', 'C0004927', ['inbe'], 0.0)||('changed', 'verb', 'C0392747', ['ftcn'], 0.0)||('.', '', '', '', 0.0)||
('folate', 'noun', 'C0178638', ['orch', 'phsu', 'vita'], 0.0)||('values', 'noun', 'C0042295', ['qlco'], 0.0)||('were', '', '', '', 0.0)||('rarely', 'adv', 'C0522498', ['qlco'], 0.0)||('low', 'adj', 'C0205251', ['qlco'], 0.0)||('in', '', '', '', 0.0)||('the', '', '', '', 0.0)||('population', 'noun', 'C0032659', ['qnco'], 0.0)||('tested', '', '', '', 0.0)||(',', '', '', '', 0.0)||('and', '', '', '', 0.0)||('low', 'adj', 'C0205251', ['qlco'], 0.0)||('values', 'noun', 'C0042295', ['qlco'], 0.0)||('infrequently', 'adv', 'C0521114', ['tmco'], 0.0)||('led', '', '', '', 0.0)||('to', '', '', '', 0.0)||('a', '', '', '', 0.0)||('change', 'noun', 'C0392747', ['ftcn'], 0.0)||('in', '', '', '', 0.0)||('clinician', 'noun', 'C1550470', ['idcn'], 0.0)||('behavior', 'noun', 'C0004927', ['inbe'], 0.0)||('.', '', '', '', 0.0)||
('given', '', '', '', 0.0)||('the', '', '', '', 0.0)||('limited', 'adj', 'C0439801', ['ftcn'], 0.0)||('clinical value', '', '', '', 0.0)||('of', '', '', '', 0.0)||('folate', 'noun', 'C0178638', ['orch', 'phsu', 'vita'], 0.0)||('tests', 'noun', 'C0022885', ['lbpr'], 0.0)||(',', '', '', '', 0.0)||('we', '', '', '', 0.0)||('propose', '', '', '', 0.0)||('that', '', '', '', 0.0)||(',', '', '', '', 0.0)||('in', '', '', '', 0.0)||('cases', 'noun', 'C0868928', ['ftcn'], 0.0)||('of', '', '', '', 0.0)||('macrocytosis', 'noun', 'C0085662', ['dsyn'], 0.0)||('with', '', '', '', 0.0)||('or', '', '', '', 0.0)||('without', '', '', '', 0.0)||('anemia', 'noun', 'C1000483', ['plnt'], 0.0)||(',', '', '', '', 0.0)||('to', '', '', '', 0.0)||('minimize', '', '', '', 0.0)||('cost', 'noun', 'C0010186', ['qnco'], 0.0)||('and', '', '', '', 0.0)||('prevent', 'verb', 'C0309872', ['phsu'], 0.0)||('missed', 'adj', 'C1705492', ['qlco'], 0.0)||('cases', 'noun', 'C0868928', ['ftcn'], 0.0)||('of', '', '', '', 0.0)||('true', 'adj', 'C0205238', ['qlco'], 0.0)||('folate', 'noun', 'C0178638', ['orch', 'phsu', 'vita'], 0.0)||('deficiency', 'noun', 'C0011155', ['ftcn'], 0.0)||(',', '', '', '', 0.0)||('empirical', 'adj', 'C1880496', ['qlco'], 0.0)||('supplementation', 'noun', 'C1515075', ['topp'], 0.0)||('with', '', '', '', 0.0)||('folic acid', 'noun', 'C0016410', ['orch', 'phsu', 'vita'], 0.0)||('should', '', '', '', 0.0)||('be', '', '', '', 0.0)||('used', '', '', '', 0.0)||('in', '', '', '', 0.0)||('place', 'noun', 'C0442504', ['spco'], 0.0)||('of', '', '', '', 0.0)||('testing', 'noun', 'C0039593', ['ftcn'], 0.0)||('for', '', '', '', 0.0)||('deficiency', 'noun', 'C0011155', ['ftcn'], 0.0)||('.', '', '', '', 0.0)||
