('to', '', '', '', 0.0)||('investigate', '', '', '', 0.0)||('primary care', 'noun', 'C0033137', ['hlca'], 0.0)||('physicians', 'noun', 'C0031831', ['prog'], 0.0)||("'", '', '', '', 0.0)||('recognition', 'noun', 'C0524637', ['menp'], 0.0)||('and', '', '', '', 0.0)||('evaluation', 'noun', 'C0220825', ['ftcn'], 0.0)||('of', '', '', '', 0.0)||('red blood cell', '', '', '', 0.0)||('macrocytosis', 'noun', 'C0085662', ['dsyn'], 0.0)||('in', '', '', '', 0.0)||('adults', 'noun', 'C0001675', ['aggp'], 0.0)||('.', '', '', '', 0.0)||
('retrospective', 'adj', 'C1514923', ['qlco'], 0.0)||('chart review', 'noun', 'C0541653', ['hlca'], 0.0)||('.', '', '', '', 0.0)||
('utilizing', '', '', '', 0.0)||('a', '', '', '', 0.0)||('computerized', '', '', '', 0.0)||('laboratory', 'noun', 'C0022877', ['mnob', 'orgt'], 0.0)||('result', 'noun', 'C1274040', ['ftcn'], 0.0)||('system', 'noun', 'C0449913', ['ftcn'], 0.0)||(',', '', '', '', 0.0)||('all', '', '', '', 0.0)||('complete blood counts', '', '', '', 0.0)||('with', '', '', '', 0.0)||('red blood cell', '', '', '', 0.0)||('indices', 'noun', 'C1637833', ['qnco'], 0.0)||('performed', 'verb', 'C0884358', ['ftcn'], 0.0)||('between', '', '', '', 0.0)||('may', '', '', '', 0.0)||('1986', '', '', '', 0.0)||('and', '', '', '', 0.0)||('may', '', '', '', 0.0)||('1987', '', '', '', 0.0)||('were', '', '', '', 0.0)||('retrieved', '', '', '', 0.0)||('.', '', '', '', 0.0)||
('patients', 'noun', 'C0030705', ['podg'], 0.0)||('having', '', '', '', 0.0)||('mean corpuscular volumes', '', '', '', 0.0)||('more', '', '', '', 0.0)||('than', '', '', '', 0.0)||('three', '', 'C0205449', ['qnco'], 0.0)||('standard deviations', '', '', '', 0.0)||('from', '', '', '', 0.0)||('the', '', '', '', 0.0)||('mean', 'noun', 'C0444504', ['qnco'], 0.0)||('(', '', '', '', 0.0)||('greater', 'adj', 'C1704243', ['qnco'], 0.0)||('than', '', '', '', 0.0)||('98 . 5', '', '', '', 0.0)||('fl )', '', '', '', 0.0)||('were', '', '', '', 0.0)||('selected', '', '', '', 0.0)||('for', '', '', '', 0.0)||('evaluation', 'noun', 'C0220825', ['ftcn'], 0.0)||('.', '', '', '', 0.0)||
('the', '', '', '', 0.0)||('primary care clinics', '', '', '', 0.0)||('of', '', '', '', 0.0)||('a', '', '', '', 0.0)||('public', '', '', '', 0.0)||('university hospital', 'noun', 'C0020028', ['hcro', 'mnob'], 0.0)||('.', '', '', '', 0.0)||
('138', '', '', '', 0.0)||('(', '', '', '', 0.0)||('3 . 7 %', '', '', '', 0.0)||(')', '', '', '', 0.0)||('of', '', '', '', 0.0)||('3 , 805', '', '', '', 0.0)||('adult', 'noun', 'C0001675', ['aggp'], 0.0)||('outpatients', 'noun', 'C0029921', ['podg'], 0.0)||('had', '', '', '', 0.0)||('mean corpuscular volumes', '', '', '', 0.0)||('greater', 'adj', 'C1704243', ['qnco'], 0.0)||('than', '', '', '', 0.0)||('98 . 5', '', '', '', 0.0)||('fl', 'noun', 'C1333567', ['gngm'], 0.0)||(',', '', '', '', 0.0)||('and', '', '', '', 0.0)||('of', '', '', '', 0.0)||('these', '', '', '', 0.0)||(',', '', '', '', 0.0)||('128', '', '', '', 0.0)||('(', '', '', '', 0.0)||('93 . 4 %', '', '', '', 0.0)||(')', '', '', '', 0.0)||('had', '', '', '', 0.0)||('medical', 'adj', 'C0205476', ['ftcn'], 0.0)||('charts', 'noun', 'C0007963', ['medd'], 0.0)||('available', 'adj', 'C0470187', ['ftcn'], 0.0)||('for', '', '', '', 0.0)||('review', 'noun', 'C0282443', ['inpr'], 0.0)||('.', '', '', '', 0.0)||
('55', '', '', '', 0.0)||('patients', 'noun', 'C0030705', ['podg'], 0.0)||('with', '', '', '', 0.0)||('elevated', 'adj', 'C0205250', ['qlco'], 0.0)||('mean corpuscular volumes', '', '', '', 0.0)||('were', '', '', '', 0.0)||('not', 'adv', 'C1518422', ['ftcn'], 0.0)||('evaluated', 'verb', 'C0220825', ['ftcn'], 0.0)||('for', '', '', '', 0.0)||('this', '', '', '', 0.0)||('finding', 'noun', 'C0037088', ['sosy'], 0.0)||(',', '', '', '', 0.0)||('and', '', '', '', 0.0)||('their', '', '', '', 0.0)||('mean', 'noun', 'C0444504', ['qnco'], 0.0)||('mcv', '', '', '', 0.0)||('(', '', '', '', 0.0)||('100 . 6', '', '', '', 0.0)||('fl )', '', '', '', 0.0)||('was', '', '', '', 0.0)||('significantly', '', '', '', 0.0)||('lower', 'adj', 'C0441994', ['ftcn'], 0.0)||('than', '', '', '', 0.0)||('that', '', '', '', 0.0)||('of', '', '', '', 0.0)||('the', '', '', '', 0.0)||('73', '', '', '', 0.0)||('patients', 'noun', 'C0030705', ['podg'], 0.0)||('who', '', '', '', 0.0)||('were', '', '', '', 0.0)||('evaluated', 'verb', 'C0220825', ['ftcn'], 0.0)||('(', '', '', '', 0.0)||('102 . 5', '', '', '', 0.0)||('fl', 'noun', 'C1333567', ['gngm'], 0.0)||(';', '', '', '', 0.0)||('p', '', '', '', 0.0)||('=', '', '', '', 0.0)||('0 . 003', '', '', '', 0.0)||(')', '', '', '', 0.0)||('.', '', '', '', 0.0)||
('the', '', '', '', 0.0)||('investigation', 'noun', 'C1261322', ['hlca'], 0.0)||('of', '', '', '', 0.0)||('macrocytosis', 'noun', 'C0085662', ['dsyn'], 0.0)||('included', '', '', '', 0.0)||('vitamin b12', 'noun', 'C0042845', ['orch', 'phsu', 'vita'], 0.0)||('and', '', '', '', 0.0)||('folate levels', '', '', '', 0.0)||('consistently', '', '', '', 0.0)||(',', '', '', '', 0.0)||('and', '', '', '', 0.0)||('the', '', '', '', 0.0)||('reticulocyte', 'noun', 'C0035286', ['cell'], 0.0)||('count', 'noun', 'C0750480', ['acty'], 0.0)||('and', '', '', '', 0.0)||('peripheral', 'adj', 'C0205100', ['spco'], 0.0)||('smear', 'noun', 'C0444186', ['diap'], 0.0)||('were', '', '', '', 0.0)||('examined', 'verb', 'C0332128', ['fndg'], 0.0)||('infrequently', 'adv', 'C0521114', ['tmco'], 0.0)||('.', '', '', '', 0.0)||
('five', '', 'C0205451', ['qnco'], 0.0)||('patients', 'noun', 'C0030705', ['podg'], 0.0)||('had', '', '', '', 0.0)||('vitamin b12', 'noun', 'C0042845', ['orch', 'phsu', 'vita'], 0.0)||('deficiency', 'noun', 'C0011155', ['ftcn'], 0.0)||(',', '', '', '', 0.0)||('and', '', '', '', 0.0)||('two', 'noun', 'C0205448', ['qnco'], 0.0)||('had', '', '', '', 0.0)||('hypothyroidism', 'noun', 'C0020676', ['dsyn'], 0.0)||('.', '', '', '', 0.0)||
('macrocytosis', 'noun', 'C0085662', ['dsyn'], 0.0)||('was', '', '', '', 0.0)||('ascribed', '', '', '', 0.0)||('to', '', '', '', 0.0)||('alcohol abuse', 'noun', 'C0085762', ['mobd'], 0.0)||('in', '', '', '', 0.0)||('47', '', '', '', 0.0)||('patients', 'noun', 'C0030705', ['podg'], 0.0)||(',', '', '', '', 0.0)||('six', '', 'C0205452', ['qnco'], 0.0)||('of', '', '', '', 0.0)||('whom', '', '', '', 0.0)||('had', '', '', '', 0.0)||('no', '', '', '', 0.0)||('laboratory', 'noun', 'C0022877', ['mnob', 'orgt'], 0.0)||('evaluation', 'noun', 'C0220825', ['ftcn'], 0.0)||('.', '', '', '', 0.0)||
('nine', '', 'C0205455', ['qnco'], 0.0)||('alcoholic', 'adj', 'C0687725', ['podg'], 0.0)||('patients', 'noun', 'C0030705', ['podg'], 0.0)||('with', '', '', '', 0.0)||('macrocytosis', 'noun', 'C0085662', ['dsyn'], 0.0)||('had', '', '', '', 0.0)||('other', '', '', '', 0.0)||('causes', 'noun', 'C0015127', ['ftcn'], 0.0)||('for', '', '', '', 0.0)||('this', '', '', '', 0.0)||('finding', 'noun', 'C0037088', ['sosy'], 0.0)||('.', '', '', '', 0.0)||
('among', '', '', '', 0.0)||('the', '', '', '', 0.0)||('55', '', '', '', 0.0)||('patients', 'noun', 'C0030705', ['podg'], 0.0)||('whose', '', '', '', 0.0)||('macrocytosis', 'noun', 'C0085662', ['dsyn'], 0.0)||('was', '', '', '', 0.0)||('not', 'adv', 'C1518422', ['ftcn'], 0.0)||('evaluated', 'verb', 'C0220825', ['ftcn'], 0.0)||(',', '', '', '', 0.0)||('12', '', '', '', 0.0)||('were', '', '', '', 0.0)||('anemic', '', '', '', 0.0)||('and', '', '', '', 0.0)||('one', 'noun', 'C0205447', ['qnco'], 0.0)||('had', '', '', '', 0.0)||('a', '', '', '', 0.0)||('peripheral neuropathy', 'noun', 'C0031117', ['dsyn'], 0.0)||('.', '', '', '', 0.0)||
('clinically', '', '', '', 0.0)||('significant', 'adj', 'C0750502', ['idcn'], 0.0)||('and', '', '', '', 0.0)||('treatable', '', '', '', 0.0)||('disease', 'noun', 'C0012634', ['dsyn'], 0.0)||('was', '', '', '', 0.0)||('often', 'adv', 'C0332183', ['tmco'], 0.0)||('associated', 'verb', 'C0332281', ['qlco'], 0.0)||('with', '', '', '', 0.0)||('macrocytosis', 'noun', 'C0085662', ['dsyn'], 0.0)||('in', '', '', '', 0.0)||('our', '', '', '', 0.0)||('study', 'noun', 'C0008976', ['resa'], 0.0)||('.', '', '', '', 0.0)||
('macrocytosis', 'noun', 'C0085662', ['dsyn'], 0.0)||('was', '', '', '', 0.0)||('common', 'adj', 'C0205214', ['qnco'], 0.0)||(',', '', '', '', 0.0)||('and', '', '', '', 0.0)||('its', '', '', '', 0.0)||('recognition', 'noun', 'C0524637', ['menp'], 0.0)||('and', '', '', '', 0.0)||('evaluation', 'noun', 'C0220825', ['ftcn'], 0.0)||('were', '', '', '', 0.0)||('variable', 'adj', 'C0439828', ['qlco'], 0.0)||('in', '', '', '', 0.0)||('this', '', '', '', 0.0)||('primary care', 'noun', 'C0033137', ['hlca'], 0.0)||('outpatient', 'adj', 'C0029921', ['podg'], 0.0)||('setting', 'noun', 'C0542559', ['ftcn'], 0.0)||('.', '', '', '', 0.0)||
