('we', '', '', '', 0.0)||('evaluated', 'verb', 'C0220825', ['ftcn'], 0.0)||('260', '', '', '', 0.0)||('previously', '', '', '', 0.0)||('healthy', '', '', '', 0.0)||('children', 'noun', 'C0008059', ['aggp'], 0.0)||('ages', '', '', '', 0.0)||('3', '', '', '', 0.0)||('through', '', '', '', 0.0)||('12', '', '', '', 0.0)||('years', 'noun', 'C0439234', ['tmco'], 0.0)||('who', '', '', '', 0.0)||('had', '', '', '', 0.0)||('clinical', 'adj', 'C0205210', ['qlco'], 0.0)||('signs', 'noun', 'C0220912', ['ftcn'], 0.0)||('and', '', '', '', 0.0)||('symptoms', 'noun', 'C0683368', ['ftcn'], 0.0)||('of', '', '', '', 0.0)||('pneumonia', 'noun', 'C0032285', ['dsyn'], 0.0)||(',', '', '', '', 0.0)||('radiographically', '', '', '', 0.0)||('confirmed', 'verb', 'C0750484', ['idcn'], 0.0)||('.', '', '', '', 0.0)||
('patients', 'noun', 'C0030705', ['podg'], 0.0)||('were', '', '', '', 0.0)||('randomized', 'verb', 'C0034656', ['resa'], 0.0)||('1', '', '', '', 0.0)||(':', '', '', '', 0.0)||('1', '', '', '', 0.0)||('to', '', '', '', 0.0)||('a', '', '', '', 0.0)||('10', '', '', '', 0.0)||('-', '', '', '', 0.0)||('day', 'noun', 'C0439228', ['tmco'], 0.0)||('course', 'noun', 'C0750729', ['tmco'], 0.0)||('of', '', '', '', 0.0)||('either', '', '', '', 0.0)||('clarithromycin', 'noun', 'C0055856', ['antb', 'orch'], 0.0)||('suspension', 'noun', 'C0038960', ['bodm'], 0.0)||('15', '', '', '', 0.0)||('mg / kg', '', '', '', 0.0)||('/', '', '', '', 0.0)||('day', 'noun', 'C0439228', ['tmco'], 0.0)||('divided', 'verb', 'C0332849', ['ftcn'], 0.0)||('twice', '', '', '', 0.0)||('a', '', '', '', 0.0)||('day', 'noun', 'C0439228', ['tmco'], 0.0)||('or', '', '', '', 0.0)||('erythromycin', 'noun', 'C0014806', ['antb', 'orch'], 0.0)||('suspension', 'noun', 'C0038960', ['bodm'], 0.0)||('40', '', '', '', 0.0)||('mg / kg', '', '', '', 0.0)||('/', '', '', '', 0.0)||('day', 'noun', 'C0439228', ['tmco'], 0.0)||('divided', 'verb', 'C0332849', ['ftcn'], 0.0)||('twice', '', '', '', 0.0)||('a', '', '', '', 0.0)||('day', 'noun', 'C0439228', ['tmco'], 0.0)||('or', '', '', '', 0.0)||('three', '', 'C0205449', ['qnco'], 0.0)||('times', '', '', '', 0.0)||('a', '', '', '', 0.0)||('day', 'noun', 'C0439228', ['tmco'], 0.0)||('.', '', '', '', 0.0)||
('evidence', 'noun', 'C0332120', ['ftcn'], 0.0)||('of', '', '', '', 0.0)||('infection', 'noun', 'C0021311', ['dsyn'], 0.0)||('with', '', '', '', 0.0)||('chlamydia pneumoniae', 'noun', 'C0085504', ['bact'], 0.0)||('was', '', '', '', 0.0)||('detected', 'verb', 'C0442726', ['fndg'], 0.0)||('in', '', '', '', 0.0)||('28 %', '', '', '', 0.0)||('(', '', '', '', 0.0)||('74', '', '', '', 0.0)||(')', '', '', '', 0.0)||('of', '', '', '', 0.0)||('patients', 'noun', 'C0030705', ['podg'], 0.0)||(':', '', '', '', 0.0)||('13 %', '', '', '', 0.0)||('(', '', '', '', 0.0)||('34', '', '', '', 0.0)||(')', '', '', '', 0.0)||('by', '', '', '', 0.0)||('nasopharyngeal culture', 'noun', 'C2238152', ['lbpr'], 0.0)||('and', '', '', '', 0.0)||('18 %', '', '', '', 0.0)||('(', '', '', '', 0.0)||('48', '', '', '', 0.0)||(')', '', '', '', 0.0)||('by', '', '', '', 0.0)||('serology', 'noun', 'C0036745', ['bmod'], 0.0)||('with', '', '', '', 0.0)||('the', '', '', '', 0.0)||('microimmunofluorescence', '', '', '', 0.0)||('assay', 'noun', 'C0005507', ['lbpr'], 0.0)||('.', '', '', '', 0.0)||
('evidence', 'noun', 'C0332120', ['ftcn'], 0.0)||('of', '', '', '', 0.0)||('infection', 'noun', 'C0021311', ['dsyn'], 0.0)||('with', '', '', '', 0.0)||('mycoplasma pneumoniae', 'noun', 'C0026941', ['bact'], 0.0)||('was', '', '', '', 0.0)||('detected', 'verb', 'C0442726', ['fndg'], 0.0)||('in', '', '', '', 0.0)||('27 %', '', '', '', 0.0)||('(', '', '', '', 0.0)||('69', '', '', '', 0.0)||(')', '', '', '', 0.0)||('of', '', '', '', 0.0)||('patients', 'noun', 'C0030705', ['podg'], 0.0)||(':', '', '', '', 0.0)||('20 %', '', '', '', 0.0)||('(', '', '', '', 0.0)||('53', '', '', '', 0.0)||(')', '', '', '', 0.0)||('by', '', '', '', 0.0)||('nasopharyngeal culture', 'noun', 'C2238152', ['lbpr'], 0.0)||('or', '', '', '', 0.0)||('polymerase chain reaction', 'noun', 'C0032520', ['lbpr', 'mbrt'], 0.0)||('and', '', '', '', 0.0)||('17 %', '', '', '', 0.0)||('(', '', '', '', 0.0)||('44', '', '', '', 0.0)||(')', '', '', '', 0.0)||('by', '', '', '', 0.0)||('serology', 'noun', 'C0036745', ['bmod'], 0.0)||('with', '', '', '', 0.0)||('the', '', '', '', 0.0)||('use', 'noun', 'C0042153', ['ftcn'], 0.0)||('of', '', '', '', 0.0)||('enzyme - linked immunosorbent assay', '', '', '', 0.0)||('.', '', '', '', 0.0)||
('serologic', 'adj', 'C0205473', ['ftcn'], 0.0)||('confirmation', 'noun', 'C0750484', ['idcn'], 0.0)||('of', '', '', '', 0.0)||('infection', 'noun', 'C0021311', ['dsyn'], 0.0)||('was', '', '', '', 0.0)||('observed', 'verb', 'C1441672', ['ftcn'], 0.0)||('in', '', '', '', 0.0)||('23 %', '', '', '', 0.0)||('(', '', '', '', 0.0)||('8', '', '', '', 0.0)||(')', '', '', '', 0.0)||('and', '', '', '', 0.0)||('53 %', '', '', '', 0.0)||('(', '', '', '', 0.0)||('28', '', '', '', 0.0)||(')', '', '', '', 0.0)||('of', '', '', '', 0.0)||('patients', 'noun', 'C0030705', ['podg'], 0.0)||('with', '', '', '', 0.0)||('bacteriologically', '', '', '', 0.0)||('detected', 'adj', 'C0442726', ['fndg'], 0.0)||('c', '', '', '', 0.0)||('.', '', '', '', 0.0)||
('pneumoniae', 'noun', 'C0032285', ['dsyn'], 0.0)||('and', '', '', '', 0.0)||('m', '', '', '', 0.0)||('.', '', '', '', 0.0)||
('pneumoniae', 'noun', 'C0032285', ['dsyn'], 0.0)||(',', '', '', '', 0.0)||('respectively', '', '', '', 0.0)||('.', '', '', '', 0.0)||
('treatment', 'noun', 'C0039798', ['ftcn'], 0.0)||('with', '', '', '', 0.0)||('clarithromycin', 'noun', 'C0055856', ['antb', 'orch'], 0.0)||('vs', '', '', '', 0.0)||('.', '', '', '', 0.0)||
('erythromycin', 'noun', 'C0014806', ['antb', 'orch'], 0.0)||(',', '', '', '', 0.0)||('respectively', '', '', '', 0.0)||(',', '', '', '', 0.0)||('yielded', '', '', '', 0.0)||('the', '', '', '', 0.0)||('following', '', '', '', 0.0)||('outcomes', 'noun', 'C0085415', ['qlco'], 0.0)||(':', '', '', '', 0.0)||('clinical', 'adj', 'C0205210', ['qlco'], 0.0)||('success', 'noun', 'C0597535', ['socb'], 0.0)||('98 %', '', '', '', 0.0)||('(', '', '', '', 0.0)||('121', '', '', '', 0.0)||('of', '', '', '', 0.0)||('124', '', '', '', 0.0)||(')', '', '', '', 0.0)||('vs', '', '', '', 0.0)||('.', '', '', '', 0.0)||
('95 %', '', '', '', 0.0)||('(', '', '', '', 0.0)||('105', '', '', '', 0.0)||('of', '', '', '', 0.0)||('110', '', '', '', 0.0)||(')', '', '', '', 0.0)||(';', '', '', '', 0.0)||
('radiologic', 'adj', 'C0034599', ['bmod'], 0.0)||('success', 'noun', 'C0597535', ['socb'], 0.0)||('98 %', '', '', '', 0.0)||('(', '', '', '', 0.0)||('109', '', '', '', 0.0)||('of', '', '', '', 0.0)||('111', '', '', '', 0.0)||(')', '', '', '', 0.0)||('vs', '', '', '', 0.0)||('.', '', '', '', 0.0)||
('94 %', '', '', '', 0.0)||('(', '', '', '', 0.0)||('92', '', '', '', 0.0)||('of', '', '', '', 0.0)||('110', '', '', '', 0.0)||(')', '', '', '', 0.0)||(';', '', '', '', 0.0)||
('and', '', '', '', 0.0)||('eradication', '', '', '', 0.0)||('by', '', '', '', 0.0)||('pathogen', 'noun', 'C0450254', ['orgm'], 0.0)||(',', '', '', '', 0.0)||('c', '', '', '', 0.0)||('.', '', '', '', 0.0)||
('pneumoniae', 'noun', 'C0032285', ['dsyn'], 0.0)||('79 %', '', '', '', 0.0)||('(', '', '', '', 0.0)||('15', '', '', '', 0.0)||('of', '', '', '', 0.0)||('19', '', '', '', 0.0)||(')', '', '', '', 0.0)||('vs', '', '', '', 0.0)||('.', '', '', '', 0.0)||
('86 %', '', '', '', 0.0)||('(', '', '', '', 0.0)||('12', '', '', '', 0.0)||('of', '', '', '', 0.0)||('14', '', '', '', 0.0)||(')', '', '', '', 0.0)||('and', '', '', '', 0.0)||('m', '', '', '', 0.0)||('.', '', '', '', 0.0)||
('pneumoniae', 'noun', 'C0032285', ['dsyn'], 0.0)||('100 %', '', '', '', 0.0)||('(', '', '', '', 0.0)||('9', '', '', '', 0.0)||('of', '', '', '', 0.0)||('9', '', '', '', 0.0)||(')', '', '', '', 0.0)||('vs', '', '', '', 0.0)||('.', '', '', '', 0.0)||
('100 %', '', '', '', 0.0)||('(', '', '', '', 0.0)||('4', '', '', '', 0.0)||('of', '', '', '', 0.0)||('4', '', '', '', 0.0)||(')', '', '', '', 0.0)||('.', '', '', '', 0.0)||
('adverse', '', '', '', 0.0)||('events', 'noun', 'C0441471', ['evnt'], 0.0)||('were', '', '', '', 0.0)||('primarily', '', '', '', 0.0)||('gastrointestinal', 'adj', 'C0521362', ['spco'], 0.0)||('occurring', '', '', '', 0.0)||('in', '', '', '', 0.0)||('almost', '', '', '', 0.0)||('one', 'noun', 'C0205447', ['qnco'], 0.0)||('-', '', '', '', 0.0)||('fourth', 'adv', 'C0205438', ['qnco'], 0.0)||('of', '', '', '', 0.0)||('patients', 'noun', 'C0030705', ['podg'], 0.0)||('in', '', '', '', 0.0)||('both', '', '', '', 0.0)||('groups', 'noun', 'C0441833', ['idcn'], 0.0)||(',', '', '', '', 0.0)||('and', '', '', '', 0.0)||('were', '', '', '', 0.0)||('mild to moderate', 'adj', 'C1299392', ['qlco'], 0.0)||('in', '', '', '', 0.0)||('severity', 'noun', 'C0439793', ['qlco'], 0.0)||('.', '', '', '', 0.0)||
('clarithromycin', 'noun', 'C0055856', ['antb', 'orch'], 0.0)||('and', '', '', '', 0.0)||('erythromycin', 'noun', 'C0014806', ['antb', 'orch'], 0.0)||('were', '', '', '', 0.0)||('similarly', '', '', '', 0.0)||('effective', 'adj', 'C1704419', ['qlco'], 0.0)||('and', '', '', '', 0.0)||('safe', '', '', '', 0.0)||('for', '', '', '', 0.0)||('the', '', '', '', 0.0)||('treatment', 'noun', 'C0039798', ['ftcn'], 0.0)||('of', '', '', '', 0.0)||('radiographically', '', '', '', 0.0)||('proved', '', '', '', 0.0)||(',', '', '', '', 0.0)||('community - acquired pneumonia', '', '', '', 0.0)||('in', '', '', '', 0.0)||('children', 'noun', 'C0008059', ['aggp'], 0.0)||('older', '', '', '', 0.0)||('than', '', '', '', 0.0)||('2', '', '', '', 0.0)||('years', 'noun', 'C0439234', ['tmco'], 0.0)||('old', 'adj', 'C0580836', ['tmco'], 0.0)||
