('to', '', '', '', 0.0)||('determine', '', '', '', 0.0)||(',', '', '', '', 0.0)||('for', '', '', '', 0.0)||('a', '', '', '', 0.0)||('woman', 'noun', 'C0043210', ['popg'], 0.0)||('aged', 'noun', 'C0001779', ['orga'], 0.0)||('>', '', '', '', 0.0)||('45', '', '', '', 0.0)||('years', 'noun', 'C0439234', ['tmco'], 0.0)||(',', '', '', '', 0.0)||('whether', '', '', '', 0.0)||('selected', '', '', '', 0.0)||('hormonal', 'adj', 'C0458083', ['qlco'], 0.0)||(',', '', '', '', 0.0)||('health status', 'noun', 'C0018759', ['qlco'], 0.0)||(',', '', '', '', 0.0)||('and', '', '', '', 0.0)||('demographic', '', '', '', 0.0)||('measures', 'noun', 'C0079809', ['qnco'], 0.0)||('are', '', '', '', 0.0)||('related', 'verb', 'C0439849', ['qlco'], 0.0)||('to', '', '', '', 0.0)||('the', '', '', '', 0.0)||('time', 'noun', 'C0040223', ['tmco'], 0.0)||('to', '', '', '', 0.0)||('final', 'adj', 'C0205088', ['tmco'], 0.0)||('menstrual period', 'noun', 'C0025329', ['orgf'], 0.0)||('from', '', '', '', 0.0)||('a', '', '', '', 0.0)||('point', 'noun', 'C1552961', ['qnco'], 0.0)||('where', '', '', '', 0.0)||('6', '', '', '', 0.0)||('weeks', 'noun', 'C0439230', ['tmco'], 0.0)||('separate', 'verb', 'C0443299', ['spco'], 0.0)||('the', '', '', '', 0.0)||('shortest', 'adj', 'C1806781', ['qnco'], 0.0)||('and', '', '', '', 0.0)||('longest', 'adj', 'C1522425', ['qlco'], 0.0)||('cycles', '', '', '', 0.0)||('experienced', '', '', '', 0.0)||('to', '', '', '', 0.0)||('date', 'noun', 'C0011008', ['tmco'], 0.0)||('.', '', '', '', 0.0)||
('cohort study', 'noun', 'C0009247', ['qnco'], 0.0)||('.', '', '', '', 0.0)||
('volunteers', 'noun', 'C0042960', ['prog'], 0.0)||('in', '', '', '', 0.0)||('an', '', '', '', 0.0)||('academic', 'adj', 'C1510747', ['orgt'], 0.0)||('research', 'noun', 'C0035168', ['resa'], 0.0)||('environment', 'noun', 'C0014406', ['spco'], 0.0)||('.', '', '', '', 0.0)||
('ninety - nine', '', '', '', 0.0)||('menstruating', '', '', '', 0.0)||('women', 'noun', 'C0043210', ['popg'], 0.0)||('aged', 'verb', 'C0001779', ['orga'], 0.0)||('46', '', '', '', 0.0)||('years', 'noun', 'C0439234', ['tmco'], 0.0)||('to', '', '', '', 0.0)||('55', '', '', '', 0.0)||('years', 'noun', 'C0439234', ['tmco'], 0.0)||('on', '', '', '', 0.0)||('entry', 'noun', 'C1550548', ['ftcn'], 0.0)||('completed', 'verb', 'C0205197', ['qlco'], 0.0)||('menstrual', 'adj', 'C0025344', ['orgf'], 0.0)||('diaries', 'noun', 'C0376660', ['inpr'], 0.0)||(',', '', '', '', 0.0)||('gave', '', '', '', 0.0)||('annual', 'adj', 'C0332181', ['tmco'], 0.0)||('blood', 'noun', 'C0005767', ['tisu'], 0.0)||('samples', '', '', '', 0.0)||(',', '', '', '', 0.0)||('and', '', '', '', 0.0)||('were', '', '', '', 0.0)||('interviewed', '', '', '', 0.0)||('annually', 'adv', 'C0332181', ['tmco'], 0.0)||('.', '', '', '', 0.0)||
('they', '', '', '', 0.0)||('were', '', '', '', 0.0)||('observed', 'verb', 'C1441672', ['ftcn'], 0.0)||('for', '', '', '', 0.0)||('a', '', '', '', 0.0)||('mean', 'noun', 'C0444504', ['qnco'], 0.0)||('period', 'noun', 'C1948053', ['tmco'], 0.0)||('of', '', '', '', 0.0)||('1 . 5', '', '', '', 0.0)||('years', 'noun', 'C0439234', ['tmco'], 0.0)||('.', '', '', '', 0.0)||
('seventy', '', '', '', 0.0)||('-', '', '', '', 0.0)||('seven', '', 'C0205453', ['qnco'], 0.0)||('reached', '', '', '', 0.0)||('final', 'adj', 'C0205088', ['tmco'], 0.0)||('menstrual period', 'noun', 'C0025329', ['orgf'], 0.0)||('during', '', '', '', 0.0)||('observation', 'noun', 'C0302523', ['resa'], 0.0)||('.', '', '', '', 0.0)||
('none', 'noun', 'C0549184', ['qnco'], 0.0)||('.', '', '', '', 0.0)||
('time', 'noun', 'C0040223', ['tmco'], 0.0)||('to', '', '', '', 0.0)||('reach', '', '', '', 0.0)||('final', 'adj', 'C0205088', ['tmco'], 0.0)||('menstrual period', 'noun', 'C0025329', ['orgf'], 0.0)||('from', '', '', '', 0.0)||('the', '', '', '', 0.0)||('date', 'noun', 'C0011008', ['tmco'], 0.0)||('of', '', '', '', 0.0)||('a', '', '', '', 0.0)||('marker', 'noun', 'C0005516', ['clna'], 0.0)||('event', 'noun', 'C0441471', ['evnt'], 0.0)||('-', '', '', '', 0.0)||('the', '', '', '', 0.0)||('difference', 'noun', 'C1705242', ['qlco'], 0.0)||('between', '', '', '', 0.0)||('the', '', '', '', 0.0)||('longest', 'adj', 'C1522425', ['qlco'], 0.0)||('and', '', '', '', 0.0)||('shortest', 'noun', 'C1806781', ['qnco'], 0.0)||('of', '', '', '', 0.0)||('recent', 'adj', 'C0332185', ['tmco'], 0.0)||('cycles', '', '', '', 0.0)||('reaching', 'verb', 'C2584321', ['orgf'], 0.0)||('6', '', '', '', 0.0)||('weeks', 'noun', 'C0439230', ['tmco'], 0.0)||('.', '', '', '', 0.0)||
('women', 'noun', 'C0043210', ['popg'], 0.0)||('self - rating', '', '', '', 0.0)||('as', '', '', '', 0.0)||('in', '', '', '', 0.0)||('the', '', '', '', 0.0)||('transition', 'noun', 'C1705165', ['comd'], 0.0)||('have', '', '', '', 0.0)||('a', '', '', '', 0.0)||('greater', 'adj', 'C1704243', ['qnco'], 0.0)||('"', '', '', '', 0.0)||('hazard', 'noun', 'C0598697', ['qlco'], 0.0)||('"', '', '', '', 0.0)||('or', '', '', '', 0.0)||('probability', 'noun', 'C0033204', ['qnco'], 0.0)||('of', '', '', '', 0.0)||('final', 'adj', 'C0205088', ['tmco'], 0.0)||('menstrual period', 'noun', 'C0025329', ['orgf'], 0.0)||('at', '', '', '', 0.0)||('any time', '', '', '', 0.0)||('after', '', '', '', 0.0)||('the', '', '', '', 0.0)||('marker', 'noun', 'C0005516', ['clna'], 0.0)||('event', 'noun', 'C0441471', ['evnt'], 0.0)||('.', '', '', '', 0.0)||
('allowing', 'noun', 'C0683607', ['socb'], 0.0)||('for', '', '', '', 0.0)||('this', '', '', '', 0.0)||('and', '', '', '', 0.0)||('other', '', '', '', 0.0)||('covariates', '', '', '', 0.0)||(',', '', '', '', 0.0)||('the', '', '', '', 0.0)||('hazard', 'noun', 'C0598697', ['qlco'], 0.0)||('is', '', '', '', 0.0)||('estimated', 'verb', 'C0750572', ['qnco'], 0.0)||('to', '', '', '', 0.0)||('increase', 'verb', 'C0442805', ['ftcn'], 0.0)||('by', '', '', '', 0.0)||('30 %', '', '', '', 0.0)||('(', '', '', '', 0.0)||('confidence interval', 'noun', 'C0009667', ['qnco'], 0.0)||(':', '', '', '', 0.0)||('10 %', '', '', '', 0.0)||(',', '', '', '', 0.0)||('60 %', '', '', '', 0.0)||(')', '', '', '', 0.0)||('for', '', '', '', 0.0)||('each', '', '', '', 0.0)||('year', 'noun', 'C0439234', ['tmco'], 0.0)||('of', '', '', '', 0.0)||('age', 'noun', 'C0001779', ['orga'], 0.0)||('and', '', '', '', 0.0)||('50 %', '', '', '', 0.0)||('(', '', '', '', 0.0)||('confidence interval', 'noun', 'C0009667', ['qnco'], 0.0)||(':', '', '', '', 0.0)||('7 %', '', '', '', 0.0)||(',', '', '', '', 0.0)||('118 %', '', '', '', 0.0)||(')', '', '', '', 0.0)||('for', '', '', '', 0.0)||('each', '', '', '', 0.0)||('unit', 'noun', 'C0439148', ['qnco'], 0.0)||('increase', 'noun', 'C0442805', ['ftcn'], 0.0)||('in', '', '', '', 0.0)||('log', 'noun', 'C1708728', ['inpr'], 0.0)||('fsh', '', '', '', 0.0)||(',', '', '', '', 0.0)||('measured', 'verb', 'C0444706', ['qlco'], 0.0)||('at', '', '', '', 0.0)||('the', '', '', '', 0.0)||('time', 'noun', 'C0040223', ['tmco'], 0.0)||('of', '', '', '', 0.0)||('the', '', '', '', 0.0)||('marker', 'noun', 'C0005516', ['clna'], 0.0)||('event', 'noun', 'C0441471', ['evnt'], 0.0)||('.', '', '', '', 0.0)||
('for', '', '', '', 0.0)||('women', 'noun', 'C0043210', ['popg'], 0.0)||('aged', 'verb', 'C0001779', ['orga'], 0.0)||('>', '', '', '', 0.0)||('45', '', '', '', 0.0)||('years', 'noun', 'C0439234', ['tmco'], 0.0)||(',', '', '', '', 0.0)||('the', '', '', '', 0.0)||('time', 'noun', 'C0040223', ['tmco'], 0.0)||('remaining', 'noun', 'C1527428', ['qlco'], 0.0)||('in', '', '', '', 0.0)||('the', '', '', '', 0.0)||('menopausal', 'adj', 'C0025320', ['phsf'], 0.0)||('transition', 'noun', 'C1705165', ['comd'], 0.0)||('from', '', '', '', 0.0)||('the', '', '', '', 0.0)||('day', 'noun', 'C0439228', ['tmco'], 0.0)||('on', '', '', '', 0.0)||('which', '', '', '', 0.0)||('>', '', '', '', 0.0)||('or', '', '', '', 0.0)||('=', '', '', '', 0.0)||('6', '', '', '', 0.0)||('weeks', 'noun', 'C0439230', ['tmco'], 0.0)||('separate', 'verb', 'C0443299', ['spco'], 0.0)||('the', '', '', '', 0.0)||('longest', 'adj', 'C1522425', ['qlco'], 0.0)||('and', '', '', '', 0.0)||('shortest', 'adv', 'C1806781', ['qnco'], 0.0)||('recent', 'adj', 'C0332185', ['tmco'], 0.0)||('cycles', '', '', '', 0.0)||('is', '', '', '', 0.0)||('related', 'verb', 'C0439849', ['qlco'], 0.0)||('to', '', '', '', 0.0)||('self - rating', '', '', '', 0.0)||('of', '', '', '', 0.0)||('menopausal', 'adj', 'C0025320', ['phsf'], 0.0)||('status', 'noun', 'C0449438', ['qlco'], 0.0)||('and', '', '', '', 0.0)||('to', '', '', '', 0.0)||('serum', 'noun', 'C0229671', ['bdsu'], 0.0)||('fsh', '', '', '', 0.0)||('level', 'noun', 'C0441889', ['qlco'], 0.0)||('.', '', '', '', 0.0)||
('the', '', '', '', 0.0)||('median', 'adj', 'C0549183', ['spco'], 0.0)||('number', 'noun', 'C0449788', ['qnco'], 0.0)||('of', '', '', '', 0.0)||('months', 'noun', 'C0439231', ['tmco'], 0.0)||('remaining', 'verb', 'C1527428', ['qlco'], 0.0)||('ranges', '', '', '', 0.0)||('from', '', '', '', 0.0)||('11', '', '', '', 0.0)||('for', '', '', '', 0.0)||('those', '', '', '', 0.0)||('with', '', '', '', 0.0)||('fsh', '', '', '', 0.0)||('of', '', '', '', 0.0)||('>', '', '', '', 0.0)||('20', '', '', '', 0.0)||('iu', 'noun', 'C0439453', ['qnco'], 0.0)||('/', '', '', '', 0.0)||('l', '', '', '', 0.0)||('and', '', '', '', 0.0)||('who', '', '', '', 0.0)||('see', 'verb', 'C1947903', ['acty'], 0.0)||('themselves', '', '', '', 0.0)||('as', '', '', '', 0.0)||('in', '', '', '', 0.0)||('transition', 'noun', 'C1705165', ['comd'], 0.0)||('to', '', '', '', 0.0)||('21', '', '', '', 0.0)||('months', 'noun', 'C0439231', ['tmco'], 0.0)||('for', '', '', '', 0.0)||('those', '', '', '', 0.0)||('with', '', '', '', 0.0)||('lower', 'adj', 'C0441994', ['ftcn'], 0.0)||('fsh', '', '', '', 0.0)||('and', '', '', '', 0.0)||('who', '', '', '', 0.0)||('notice', '', '', '', 0.0)||('little', '', '', '', 0.0)||('evidence', 'noun', 'C0332120', ['ftcn'], 0.0)||('of', '', '', '', 0.0)||('being', '', '', '', 0.0)||('in', '', '', '', 0.0)||('transition', 'noun', 'C1705165', ['comd'], 0.0)||('.', '', '', '', 0.0)||
