('major depression', 'noun', 'C0041696', ['mobd'], 0.0)||('with', '', '', '', 0.0)||('comorbid', '', '', '', 0.0)||('anxiety disorder', '', '', '', 0.0)||('is', '', '', '', 0.0)||('associated', 'verb', 'C0332281', ['qlco'], 0.0)||('with', '', '', '', 0.0)||('poor', 'adj', 'C0032854', ['grpa'], 0.0)||('antidepressant', 'noun', 'C0003289', ['phsu'], 0.0)||('outcome', 'noun', 'C1274040', ['ftcn'], 0.0)||('compared', 'verb', 'C1707455', ['acty'], 0.0)||('to', '', '', '', 0.0)||('major depression', 'noun', 'C0041696', ['mobd'], 0.0)||('without', '', '', '', 0.0)||('comorbid', '', '', '', 0.0)||('anxiety disorder', '', '', '', 0.0)||('.', '', '', '', 0.0)||
('the', '', '', '', 0.0)||('purpose', 'noun', 'C1285529', ['ftcn'], 0.0)||('of', '', '', '', 0.0)||('our', '', '', '', 0.0)||('study', 'noun', 'C0008976', ['resa'], 0.0)||('was', '', '', '', 0.0)||('to', '', '', '', 0.0)||('assess', 'verb', 'C1516048', ['acty'], 0.0)||('changes', '', '', '', 0.0)||('in', '', '', '', 0.0)||('severity', 'noun', 'C0439793', ['qlco'], 0.0)||('of', '', '', '', 0.0)||('both', '', '', '', 0.0)||('depressive', '', '', '', 0.0)||('and', '', '', '', 0.0)||('anxiety', 'noun', 'C0003467', ['menp'], 0.0)||('symptoms', 'noun', 'C0683368', ['ftcn'], 0.0)||('in', '', '', '', 0.0)||('outpatients', 'noun', 'C0029921', ['podg'], 0.0)||('with', '', '', '', 0.0)||('major depression', 'noun', 'C0041696', ['mobd'], 0.0)||('with', '', '', '', 0.0)||('comorbid', '', '', '', 0.0)||('anxiety disorder', '', '', '', 0.0)||('following', '', '', '', 0.0)||('fluoxetine', 'noun', 'C0016365', ['orch', 'phsu'], 0.0)||('treatment', 'noun', 'C0039798', ['ftcn'], 0.0)||('.', '', '', '', 0.0)||
('we', '', '', '', 0.0)||('enrolled', '', '', '', 0.0)||('123', '', '', '', 0.0)||('outpatients', 'noun', 'C0029921', ['podg'], 0.0)||('(', '', '', '', 0.0)||('mean', 'noun', 'C0444504', ['qnco'], 0.0)||('age', 'noun', 'C0001779', ['orga'], 0.0)||('38 . 9', '', '', '', 0.0)||('+', '', '', '', 0.0)||('/', '', '', '', 0.0)||('-', '', '', '', 0.0)||('10 . 8', '', '', '', 0.0)||('years', 'noun', 'C0439234', ['tmco'], 0.0)||(';', '', '', '', 0.0)||('49 %', '', '', '', 0.0)||('women', 'noun', 'C0043210', ['popg'], 0.0)||(')', '', '', '', 0.0)||('with', '', '', '', 0.0)||('major depressive disorder', 'noun', 'C0041696', ['mobd'], 0.0)||('accompanied', '', '', '', 0.0)||('by', '', '', '', 0.0)||('one', 'noun', 'C0205447', ['qnco'], 0.0)||('or', '', '', '', 0.0)||('more', '', '', '', 0.0)||('current', 'adj', 'C0521116', ['tmco'], 0.0)||('comorbid', '', '', '', 0.0)||('anxiety disorders', 'noun', 'C0003469', ['mobd'], 0.0)||('in', '', '', '', 0.0)||('our', '', '', '', 0.0)||('study', 'noun', 'C0008976', ['resa'], 0.0)||('.', '', '', '', 0.0)||
('patients', 'noun', 'C0030705', ['podg'], 0.0)||('were', '', '', '', 0.0)||('treated', 'verb', 'C1522326', ['ftcn'], 0.0)||('openly', '', '', '', 0.0)||('with', '', '', '', 0.0)||('fluoxetine', 'noun', 'C0016365', ['orch', 'phsu'], 0.0)||('20', '', '', '', 0.0)||('mg', '', '', '', 0.0)||('/', '', '', '', 0.0)||('day', 'noun', 'C0439228', ['tmco'], 0.0)||('for', '', '', '', 0.0)||('8', '', '', '', 0.0)||('weeks', 'noun', 'C0439230', ['tmco'], 0.0)||('.', '', '', '', 0.0)||
('efficacy', 'noun', 'C1707887', ['resa'], 0.0)||('assessments', '', '', '', 0.0)||('included', '', '', '', 0.0)||('the', '', '', '', 0.0)||('17', '', '', '', 0.0)||('-', '', '', '', 0.0)||('item', 'noun', 'C1551338', ['enty'], 0.0)||('hamilton rating scale for depression', 'noun', 'C0451203', ['inpr'], 0.0)||('(', '', '', '', 0.0)||('ham - d', '', '', '', 0.0)||(')', '', '', '', 0.0)||('and', '', '', '', 0.0)||('the', '', '', '', 0.0)||('patient', '', '', '', 0.0)||('-', '', '', '', 0.0)||('rated', 'adj', 'C0871208', ['acty'], 0.0)||('symptom questionnaire', '', '', '', 0.0)||('scales', 'verb', 'C0175659', ['medd'], 0.0)||('for', '', '', '', 0.0)||('depression', 'noun', 'C0011570', ['mobd'], 0.0)||('and', '', '', '', 0.0)||('anxiety', 'noun', 'C0003467', ['menp'], 0.0)||('.', '', '', '', 0.0)||
('the', '', '', '', 0.0)||('mood', 'noun', 'C0026516', ['menp'], 0.0)||('and', '', '', '', 0.0)||('anxiety disorder', '', '', '', 0.0)||('modules', '', '', '', 0.0)||('of', '', '', '', 0.0)||('the', '', '', '', 0.0)||('structured clinical interview', 'noun', 'C0935589', ['diap'], 0.0)||('for', '', '', '', 0.0)||('dsm', '', '', '', 0.0)||('-', '', '', '', 0.0)||('iii', 'noun', 'C0439070', ['inpr'], 0.0)||('-', '', '', '', 0.0)||('r', '', '', '', 0.0)||('were', '', '', '', 0.0)||('administered', 'verb', 'C1521801', ['ftcn'], 0.0)||('at', '', '', '', 0.0)||('screen', 'noun', 'C0430054', ['lbpr'], 0.0)||('and', '', '', '', 0.0)||('endpoint', 'noun', 'C2349179', ['qlco'], 0.0)||('.', '', '', '', 0.0)||
('we', '', '', '', 0.0)||('used', '', '', '', 0.0)||("'", '', '', '', 0.0)||('intent', 'noun', 'C0162425', ['menp'], 0.0)||('-', '', '', '', 0.0)||('to', '', '', '', 0.0)||('-', '', '', '', 0.0)||('treat', 'verb', 'C1292734', ['ftcn'], 0.0)||("'", '', '', '', 0.0)||('analysis', 'noun', 'C0002778', ['lbpr'], 0.0)||('in', '', '', '', 0.0)||('examining', 'noun', 'C2004054', ['acty'], 0.0)||('all', '', '', '', 0.0)||('patients', 'noun', 'C0030705', ['podg'], 0.0)||('assigned', 'verb', 'C1516050', ['ftcn'], 0.0)||('to', '', '', '', 0.0)||('treatment', 'noun', 'C0039798', ['ftcn'], 0.0)||('and', '', '', '', 0.0)||('completing', 'noun', 'C0205197', ['qlco'], 0.0)||('the', '', '', '', 0.0)||('baseline', 'noun', 'C0168634', ['bodm'], 0.0)||('visit', 'noun', 'C0545082', ['bhvr'], 0.0)||('.', '', '', '', 0.0)||
('the', '', '', '', 0.0)||('mean number', '', '', '', 0.0)||('of', '', '', '', 0.0)||('comorbid', '', '', '', 0.0)||('anxiety disorders', 'noun', 'C0003469', ['mobd'], 0.0)||('per', '', '', '', 0.0)||('patient', '', '', '', 0.0)||('was', '', '', '', 0.0)||('1 . 5', '', '', '', 0.0)||('+', '', '', '', 0.0)||('/', '', '', '', 0.0)||('-', '', '', '', 0.0)||('0 . 68', '', '', '', 0.0)||('.', '', '', '', 0.0)||
('the', '', '', '', 0.0)||('mean', 'noun', 'C0444504', ['qnco'], 0.0)||('ham - d', '', '', '', 0.0)||('-', '', '', '', 0.0)||('17', '', '', '', 0.0)||('score', 'noun', 'C0449820', ['qnco'], 0.0)||('and', '', '', '', 0.0)||('mean', 'noun', 'C0444504', ['qnco'], 0.0)||('clinical', 'adj', 'C0205210', ['qlco'], 0.0)||('global', 'adj', 'C0205246', ['spco'], 0.0)||('impressions', '', '', '', 0.0)||('-', '', '', '', 0.0)||('severity scores', '', '', '', 0.0)||('decreased', 'verb', 'C0205216', ['qnco'], 0.0)||('significantly', '', '', '', 0.0)||('from', '', '', '', 0.0)||('baseline', 'noun', 'C0168634', ['bodm'], 0.0)||('to', '', '', '', 0.0)||('endpoint', 'noun', 'C2349179', ['qlco'], 0.0)||('(', '', '', '', 0.0)||('week', 'noun', 'C0439230', ['tmco'], 0.0)||('8', '', '', '', 0.0)||(')', '', '', '', 0.0)||('following', '', '', '', 0.0)||('fluoxetine', 'noun', 'C0016365', ['orch', 'phsu'], 0.0)||('treatment', 'noun', 'C0039798', ['ftcn'], 0.0)||('(', '', '', '', 0.0)||('p', '', '', '', 0.0)||('<', '', '', '', 0.0)||('0 . 0001', '', '', '', 0.0)||(')', '', '', '', 0.0)||('.', '', '', '', 0.0)||
('there', '', '', '', 0.0)||('were', '', '', '', 0.0)||('significant', 'adj', 'C0750502', ['idcn'], 0.0)||('decreases', '', '', '', 0.0)||('in', '', '', '', 0.0)||('all', '', '', '', 0.0)||('four', '', 'C0205450', ['qnco'], 0.0)||('symptom questionnaire', '', '', '', 0.0)||('scale', 'noun', 'C0175659', ['medd'], 0.0)||('scores', 'noun', 'C0449820', ['qnco'], 0.0)||(',', '', '', '', 0.0)||('from', '', '', '', 0.0)||('baseline', 'noun', 'C0168634', ['bodm'], 0.0)||('to', '', '', '', 0.0)||('endpoint', 'noun', 'C2349179', ['qlco'], 0.0)||(':', '', '', '', 0.0)||('depression', 'noun', 'C0011570', ['mobd'], 0.0)||(',', '', '', '', 0.0)||('anxiety', 'noun', 'C0003467', ['menp'], 0.0)||(',', '', '', '', 0.0)||('somatic', '', '', '', 0.0)||('symptoms', 'noun', 'C0683368', ['ftcn'], 0.0)||('and', '', '', '', 0.0)||('anger', 'noun', 'C0002957', ['menp'], 0.0)||('-', '', '', '', 0.0)||('hostility', 'noun', 'C0020039', ['menp'], 0.0)||('(', '', '', '', 0.0)||('p', '', '', '', 0.0)||('<', '', '', '', 0.0)||('0 . 0001', '', '', '', 0.0)||(')', '', '', '', 0.0)||('.', '', '', '', 0.0)||
('fifty - three', '', '', '', 0.0)||('percent', 'noun', 'C0439165', ['qnco'], 0.0)||('of', '', '', '', 0.0)||('patients', 'noun', 'C0030705', ['podg'], 0.0)||('(', '', '', '', 0.0)||('n =', '', '', '', 0.0)||('65', '', '', '', 0.0)||(')', '', '', '', 0.0)||('were', '', '', '', 0.0)||('depression', 'noun', 'C0011570', ['mobd'], 0.0)||('responders', '', '', '', 0.0)||('(', '', '', '', 0.0)||('i . e', '', '', '', 0.0)||('.', '', '', '', 0.0)||('>', '', '', '', 0.0)||('or', '', '', '', 0.0)||('=', '', '', '', 0.0)||('50 %', '', '', '', 0.0)||('decrease', 'noun', 'C0392756', ['qlco'], 0.0)||('in', '', '', '', 0.0)||('ham - d', '', '', '', 0.0)||('-', '', '', '', 0.0)||('17', '', '', '', 0.0)||('score', 'noun', 'C0449820', ['qnco'], 0.0)||('at', '', '', '', 0.0)||('endpoint', 'noun', 'C2349179', ['qlco'], 0.0)||(')', '', '', '', 0.0)||('and', '', '', '', 0.0)||('46 %', '', '', '', 0.0)||('(', '', '', '', 0.0)||('n =', '', '', '', 0.0)||('57', '', '', '', 0.0)||(')', '', '', '', 0.0)||('were', '', '', '', 0.0)||('remitters', '', '', '', 0.0)||('(', '', '', '', 0.0)||('ham - d', '', '', '', 0.0)||('-', '', '', '', 0.0)||('17', '', '', '', 0.0)||('<', '', '', '', 0.0)||('or', '', '', '', 0.0)||('=', '', '', '', 0.0)||('7', '', '', '', 0.0)||('at', '', '', '', 0.0)||('endpoint', 'noun', 'C2349179', ['qlco'], 0.0)||(')', '', '', '', 0.0)||('.', '', '', '', 0.0)||
('patients', 'noun', 'C0030705', ['podg'], 0.0)||('with', '', '', '', 0.0)||('panic disorder', 'noun', 'C0030319', ['mobd'], 0.0)||('had', '', '', '', 0.0)||('significantly', '', '', '', 0.0)||('higher', '', '', '', 0.0)||('baseline', 'noun', 'C0168634', ['bodm'], 0.0)||('ham - d', '', '', '', 0.0)||('-', '', '', '', 0.0)||('17', '', '', '', 0.0)||('scores', 'noun', 'C0449820', ['qnco'], 0.0)||('compared', 'verb', 'C1707455', ['acty'], 0.0)||('to', '', '', '', 0.0)||('those', '', '', '', 0.0)||('without', '', '', '', 0.0)||('panic disorder', 'noun', 'C0030319', ['mobd'], 0.0)||('(', '', '', '', 0.0)||('p', '', '', '', 0.0)||('<', '', '', '', 0.0)||('0 . 01', '', '', '', 0.0)||(')', '', '', '', 0.0)||('.', '', '', '', 0.0)||
('patients', 'noun', 'C0030705', ['podg'], 0.0)||('with', '', '', '', 0.0)||('comorbid', '', '', '', 0.0)||('obsessive - compulsive disorder', '', '', '', 0.0)||('were', '', '', '', 0.0)||('significantly', '', '', '', 0.0)||('less', '', '', '', 0.0)||('likely', 'adv', 'C0332148', ['qlco'], 0.0)||('to', '', '', '', 0.0)||('be', '', '', '', 0.0)||('responders', '', '', '', 0.0)||('to', '', '', '', 0.0)||('fluoxetine', 'noun', 'C0016365', ['orch', 'phsu'], 0.0)||('at', '', '', '', 0.0)||('endpoint', 'noun', 'C2349179', ['qlco'], 0.0)||('(', '', '', '', 0.0)||('>', '', '', '', 0.0)||('or', '', '', '', 0.0)||('=', '', '', '', 0.0)||('50 %', '', '', '', 0.0)||('decrease', 'noun', 'C0392756', ['qlco'], 0.0)||('in', '', '', '', 0.0)||('ham - d', '', '', '', 0.0)||('-', '', '', '', 0.0)||('17', '', '', '', 0.0)||(')', '', '', '', 0.0)||('and', '', '', '', 0.0)||('to', '', '', '', 0.0)||('be', '', '', '', 0.0)||('remitters', '', '', '', 0.0)||('(', '', '', '', 0.0)||('ham - d', '', '', '', 0.0)||('-', '', '', '', 0.0)||('17', '', '', '', 0.0)||('score', 'noun', 'C0449820', ['qnco'], 0.0)||('of', '', '', '', 0.0)||('s', '', '', '', 0.0)||('7', '', '', '', 0.0)||('at', '', '', '', 0.0)||('endpoint', 'noun', 'C2349179', ['qlco'], 0.0)||(')', '', '', '', 0.0)||('compared', 'verb', 'C1707455', ['acty'], 0.0)||('to', '', '', '', 0.0)||('patients', 'noun', 'C0030705', ['podg'], 0.0)||('without', '', '', '', 0.0)||('comorbid', '', '', '', 0.0)||('obsessive - compulsive disorder', '', '', '', 0.0)||('(', '', '', '', 0.0)||('p', '', '', '', 0.0)||('<', '', '', '', 0.0)||('0 . 01', '', '', '', 0.0)||(')', '', '', '', 0.0)||('.', '', '', '', 0.0)||
('of', '', '', '', 0.0)||('the', '', '', '', 0.0)||('41', '', '', '', 0.0)||('patients', 'noun', 'C0030705', ['podg'], 0.0)||('on', '', '', '', 0.0)||('whom', '', '', '', 0.0)||('endpoint', 'noun', 'C2349179', ['qlco'], 0.0)||('structured clinical interview', 'noun', 'C0935589', ['diap'], 0.0)||('for', '', '', '', 0.0)||('dsm', '', '', '', 0.0)||('-', '', '', '', 0.0)||('iii', 'noun', 'C0439070', ['inpr'], 0.0)||('-', '', '', '', 0.0)||('r', '', '', '', 0.0)||('modules', '', '', '', 0.0)||('for', '', '', '', 0.0)||('anxiety disorders', 'noun', 'C0003469', ['mobd'], 0.0)||('were', '', '', '', 0.0)||('available', 'adj', 'C0470187', ['ftcn'], 0.0)||(',', '', '', '', 0.0)||('49 %', '', '', '', 0.0)||('(', '', '', '', 0.0)||('n =', '', '', '', 0.0)||('20', '', '', '', 0.0)||(')', '', '', '', 0.0)||('no', '', '', '', 0.0)||('longer', '', '', '', 0.0)||('met', '', '', '', 0.0)||('criteria', 'noun', 'C0243161', ['inpr'], 0.0)||('for', '', '', '', 0.0)||('one', 'noun', 'C0205447', ['qnco'], 0.0)||('or', '', '', '', 0.0)||('more', '', '', '', 0.0)||('of', '', '', '', 0.0)||('their', '', '', '', 0.0)||('anxiety disorder', '', '', '', 0.0)||('diagnoses', 'noun', 'C0011900', ['fndg'], 0.0)||('at', '', '', '', 0.0)||('endpoint', 'noun', 'C2349179', ['qlco'], 0.0)||('.', '', '', '', 0.0)||
('our', '', '', '', 0.0)||('preliminary', 'adj', 'C0439611', ['tmco'], 0.0)||('findings', 'noun', 'C2607943', ['ftcn'], 0.0)||('suggest', 'verb', 'C1705535', ['idcn'], 0.0)||('that', '', '', '', 0.0)||('fluoxetine', 'noun', 'C0016365', ['orch', 'phsu'], 0.0)||('is', '', '', '', 0.0)||('effective', 'adj', 'C1704419', ['qlco'], 0.0)||('in', '', '', '', 0.0)||('treating', 'adj', 'C1522326', ['ftcn'], 0.0)||('outpatients', 'noun', 'C0029921', ['podg'], 0.0)||('with', '', '', '', 0.0)||('major depression', 'noun', 'C0041696', ['mobd'], 0.0)||('with', '', '', '', 0.0)||('comorbid', '', '', '', 0.0)||('anxiety disorders', 'noun', 'C0003469', ['mobd'], 0.0)||(',', '', '', '', 0.0)||('with', '', '', '', 0.0)||('a', '', '', '', 0.0)||('significant', 'adj', 'C0750502', ['idcn'], 0.0)||('effect', 'noun', 'C1280500', ['qlco'], 0.0)||('on', '', '', '', 0.0)||('both', '', '', '', 0.0)||('depression', 'noun', 'C0011570', ['mobd'], 0.0)||('and', '', '', '', 0.0)||('anxiety', 'noun', 'C0003467', ['menp'], 0.0)||('symptoms', 'noun', 'C0683368', ['ftcn'], 0.0)||('.', '', '', '', 0.0)||
('further', 'adv', 'C1517331', ['spco'], 0.0)||('double - blind', '', '', '', 0.0)||(',', '', '', '', 0.0)||('placebo - controlled', '', '', '', 0.0)||('trials', '', '', '', 0.0)||('are', '', '', '', 0.0)||('required', 'verb', 'C1514873', ['ftcn'], 0.0)||('in', '', '', '', 0.0)||('larger', 'adj', 'C0549177', ['qnco'], 0.0)||('samples', '', '', '', 0.0)||('to', '', '', '', 0.0)||('confirm', 'verb', 'C1456348', ['qlco'], 0.0)||('our', '', '', '', 0.0)||('findings', 'noun', 'C2607943', ['ftcn'], 0.0)||('.', '', '', '', 0.0)||
