('severity', 'noun', 'C0439793', ['qlco'], 0.0)||('of', '', '', '', 0.0)||('anxiety', 'noun', 'C0003467', ['menp'], 0.0)||('does', '', '', '', 0.0)||('not', 'adv', 'C1518422', ['ftcn'], 0.0)||('appear', '', '', '', 0.0)||('to', '', '', '', 0.0)||('influence', '', '', '', 0.0)||('the', '', '', '', 0.0)||('antidepressant', 'noun', 'C0003289', ['phsu'], 0.0)||('response', 'noun', 'C0871261', ['clna'], 0.0)||('to', '', '', '', 0.0)||('fluoxetine', 'noun', 'C0016365', ['orch', 'phsu'], 0.0)||('during', '', '', '', 0.0)||('acute', 'adj', 'C0205178', ['tmco'], 0.0)||('treatment', 'noun', 'C0039798', ['ftcn'], 0.0)||('of', '', '', '', 0.0)||('major depressive disorder', 'noun', 'C0041696', ['mobd'], 0.0)||('.', '', '', '', 0.0)||
('we', '', '', '', 0.0)||('report', 'verb', 'C0684224', ['inpr'], 0.0)||('a', '', '', '', 0.0)||('retrospective', 'adj', 'C1514923', ['qlco'], 0.0)||('pooled', 'adj', 'C1709595', ['cnce'], 0.0)||('analysis', 'noun', 'C0002778', ['lbpr'], 0.0)||('of', '', '', '', 0.0)||('2', '', '', '', 0.0)||('studies', '', '', '', 0.0)||('to', '', '', '', 0.0)||('assess', 'verb', 'C1516048', ['acty'], 0.0)||('the', '', '', '', 0.0)||('effect', 'noun', 'C1280500', ['qlco'], 0.0)||('of', '', '', '', 0.0)||('associated', 'adj', 'C0332281', ['qlco'], 0.0)||('anxiety', 'noun', 'C0003467', ['menp'], 0.0)||('on', '', '', '', 0.0)||('the', '', '', '', 0.0)||('efficacy', 'noun', 'C1707887', ['resa'], 0.0)||('of', '', '', '', 0.0)||('fluoxetine', 'noun', 'C0016365', ['orch', 'phsu'], 0.0)||('in', '', '', '', 0.0)||('the', '', '', '', 0.0)||('continuation', '', '', '', 0.0)||('treatment', 'noun', 'C0039798', ['ftcn'], 0.0)||('phase', 'noun', 'C0205390', ['tmco'], 0.0)||('of', '', '', '', 0.0)||('major depressive disorder', 'noun', 'C0041696', ['mobd'], 0.0)||('.', '', '', '', 0.0)||
('patients', 'noun', 'C0030705', ['podg'], 0.0)||('whose', '', '', '', 0.0)||('major depressive disorder', 'noun', 'C0041696', ['mobd'], 0.0)||('remitted', '', '', '', 0.0)||('(', '', '', '', 0.0)||('study', 'noun', 'C0008976', ['resa'], 0.0)||('1', '', '', '', 0.0)||(')', '', '', '', 0.0)||('or', '', '', '', 0.0)||('responded', '', '', '', 0.0)||('(', '', '', '', 0.0)||('study', 'noun', 'C0008976', ['resa'], 0.0)||('2', '', '', '', 0.0)||(')', '', '', '', 0.0)||('after', '', '', '', 0.0)||('approximately', 'adv', 'C0332232', ['qlco'], 0.0)||('12', '', '', '', 0.0)||('to', '', '', '', 0.0)||('13', '', '', '', 0.0)||('weeks', 'noun', 'C0439230', ['tmco'], 0.0)||('of', '', '', '', 0.0)||('open - label', '', '', '', 0.0)||('treatment', 'noun', 'C0039798', ['ftcn'], 0.0)||('with', '', '', '', 0.0)||('fluoxetine', 'noun', 'C0016365', ['orch', 'phsu'], 0.0)||('20', '', '', '', 0.0)||('mg', '', '', '', 0.0)||('daily', 'adv', 'C0332173', ['tmco'], 0.0)||('were', '', '', '', 0.0)||('randomly', '', '', '', 0.0)||('assigned', 'verb', 'C1516050', ['ftcn'], 0.0)||('in', '', '', '', 0.0)||('double - blind', '', '', '', 0.0)||('fashion', '', '', '', 0.0)||('to', '', '', '', 0.0)||('placebo', 'noun', 'C0032042', ['topp'], 0.0)||(',', '', '', '', 0.0)||('continued', 'adj', 'C0549178', ['idcn'], 0.0)||('treatment', 'noun', 'C0039798', ['ftcn'], 0.0)||('with', '', '', '', 0.0)||('fluoxetine', 'noun', 'C0016365', ['orch', 'phsu'], 0.0)||('20', '', '', '', 0.0)||('mg', '', '', '', 0.0)||('daily', 'adv', 'C0332173', ['tmco'], 0.0)||(',', '', '', '', 0.0)||('or', '', '', '', 0.0)||(',', '', '', '', 0.0)||('in study', '', '', '', 0.0)||('2', '', '', '', 0.0)||('only', '', '', '', 0.0)||(',', '', '', '', 0.0)||('treatment', 'noun', 'C0039798', ['ftcn'], 0.0)||('with', '', '', '', 0.0)||('enteric - coated', '', '', '', 0.0)||('fluoxetine', 'noun', 'C0016365', ['orch', 'phsu'], 0.0)||('90', '', '', '', 0.0)||('mg', '', '', '', 0.0)||('once weekly', 'adj', 'C0558293', ['tmco'], 0.0)||(',', '', '', '', 0.0)||('for', '', '', '', 0.0)||('at', '', '', '', 0.0)||('least', '', '', '', 0.0)||('25', '', '', '', 0.0)||('weeks', 'noun', 'C0439230', ['tmco'], 0.0)||('.', '', '', '', 0.0)||
('both', '', '', '', 0.0)||('studies', '', '', '', 0.0)||('included', '', '', '', 0.0)||('male', 'noun', 'C0024554', ['orga'], 0.0)||('and', '', '', '', 0.0)||('female', 'noun', 'C0015780', ['orga'], 0.0)||('outpatients', 'noun', 'C0029921', ['podg'], 0.0)||('who', '', '', '', 0.0)||('met', '', '', '', 0.0)||('criteria', 'noun', 'C0243161', ['inpr'], 0.0)||('for', '', '', '', 0.0)||('major depressive disorder', 'noun', 'C0041696', ['mobd'], 0.0)||('as', '', '', '', 0.0)||('assessed', 'verb', 'C1516048', ['acty'], 0.0)||('by', '', '', '', 0.0)||('dsm', '', '', '', 0.0)||('-', '', '', '', 0.0)||('iii', 'noun', 'C0439070', ['inpr'], 0.0)||('-', '', '', '', 0.0)||('r', '', '', '', 0.0)||('(', '', '', '', 0.0)||('study', 'noun', 'C0008976', ['resa'], 0.0)||('1', '', '', '', 0.0)||(')', '', '', '', 0.0)||('or', '', '', '', 0.0)||('dsm - iv', '', '', '', 0.0)||('(', '', '', '', 0.0)||('study', 'noun', 'C0008976', ['resa'], 0.0)||('2', '', '', '', 0.0)||(')', '', '', '', 0.0)||('.', '', '', '', 0.0)||
('patients', 'noun', 'C0030705', ['podg'], 0.0)||('were', '', '', '', 0.0)||('categorized', '', '', '', 0.0)||('into', '', '', '', 0.0)||('high anxiety', '', '', '', 0.0)||('(', '', '', '', 0.0)||('>', '', '', '', 0.0)||('or', '', '', '', 0.0)||('=', '', '', '', 0.0)||('7', '', '', '', 0.0)||(')', '', '', '', 0.0)||('or', '', '', '', 0.0)||('low', 'adj', 'C0205251', ['qlco'], 0.0)||('anxiety', 'noun', 'C0003467', ['menp'], 0.0)||('(', '', '', '', 0.0)||('<', '', '', '', 0.0)||('7', '', '', '', 0.0)||(')', '', '', '', 0.0)||('subgroups', '', '', '', 0.0)||('based', 'verb', 'C1527178', ['ftcn'], 0.0)||('on', '', '', '', 0.0)||('baseline', 'noun', 'C0168634', ['bodm'], 0.0)||('hamilton rating scale for depression', 'noun', 'C0451203', ['inpr'], 0.0)||('(', '', '', '', 0.0)||('ham - d', '', '', '', 0.0)||(')', '', '', '', 0.0)||('anxiety', 'noun', 'C0003467', ['menp'], 0.0)||('/', '', '', '', 0.0)||('somatization', 'noun', 'C0149779', ['mobd'], 0.0)||('subfactor', '', '', '', 0.0)||('scores', 'noun', 'C0449820', ['qnco'], 0.0)||('.', '', '', '', 0.0)||
('subgroups', '', '', '', 0.0)||('were', '', '', '', 0.0)||('compared', 'verb', 'C1707455', ['acty'], 0.0)||('by', '', '', '', 0.0)||('therapy', 'noun', 'C0039798', ['ftcn'], 0.0)||('for', '', '', '', 0.0)||('time', 'noun', 'C0040223', ['tmco'], 0.0)||('from', '', '', '', 0.0)||('randomization', 'noun', 'C0034656', ['resa'], 0.0)||('to', '', '', '', 0.0)||('relapse', 'verb', 'C0035020', ['phpr'], 0.0)||('and', '', '', '', 0.0)||('change', 'noun', 'C0392747', ['ftcn'], 0.0)||('in', '', '', '', 0.0)||('efficacy', 'noun', 'C1707887', ['resa'], 0.0)||('scores', 'noun', 'C0449820', ['qnco'], 0.0)||('.', '', '', '', 0.0)||
('no', '', '', '', 0.0)||('significant', 'adj', 'C0750502', ['idcn'], 0.0)||('differences', '', '', '', 0.0)||('in', '', '', '', 0.0)||('time', 'noun', 'C0040223', ['tmco'], 0.0)||('to', '', '', '', 0.0)||('relapse', 'verb', 'C0035020', ['phpr'], 0.0)||('were', '', '', '', 0.0)||('observed', 'verb', 'C1441672', ['ftcn'], 0.0)||('between', '', '', '', 0.0)||('anxiety', 'noun', 'C0003467', ['menp'], 0.0)||('subgroups', '', '', '', 0.0)||('in', '', '', '', 0.0)||('either', '', '', '', 0.0)||('active treatment', 'noun', 'C1704532', ['topp'], 0.0)||('group', 'noun', 'C0441833', ['idcn'], 0.0)||('.', '', '', '', 0.0)||
('however', '', '', '', 0.0)||(',', '', '', '', 0.0)||('in', '', '', '', 0.0)||('patients', 'noun', 'C0030705', ['podg'], 0.0)||('switched', '', '', '', 0.0)||('to', '', '', '', 0.0)||('placebo', 'noun', 'C0032042', ['topp'], 0.0)||('for', '', '', '', 0.0)||('continuation', '', '', '', 0.0)||('treatment', 'noun', 'C0039798', ['ftcn'], 0.0)||(',', '', '', '', 0.0)||('the', '', '', '', 0.0)||('high anxiety', '', '', '', 0.0)||('subgroup', 'noun', 'C1515021', ['clas'], 0.0)||('had', '', '', '', 0.0)||('a', '', '', '', 0.0)||('significantly', '', '', '', 0.0)||('higher risk', '', '', '', 0.0)||('of', '', '', '', 0.0)||('relapse', 'noun', 'C0035020', ['phpr'], 0.0)||('than', '', '', '', 0.0)||('those', '', '', '', 0.0)||('with', '', '', '', 0.0)||('low', 'adj', 'C0205251', ['qlco'], 0.0)||('anxiety', 'noun', 'C0003467', ['menp'], 0.0)||('(', '', '', '', 0.0)||('risk ratio', 'noun', 'C0028873', ['qnco'], 0.0)||('=', '', '', '', 0.0)||('1 . 63', '', '', '', 0.0)||(',', '', '', '', 0.0)||('p', '', '', '', 0.0)||('=', '', '', '', 0.0)||('.', '', '', '', 0.0)||('013', '', '', '', 0.0)||(')', '', '', '', 0.0)||('.', '', '', '', 0.0)||
('significant', 'adj', 'C0750502', ['idcn'], 0.0)||('differences', '', '', '', 0.0)||('between', '', '', '', 0.0)||('anxiety', 'noun', 'C0003467', ['menp'], 0.0)||('groups', 'noun', 'C0441833', ['idcn'], 0.0)||('were', '', '', '', 0.0)||('seen', 'verb', 'C0205397', ['qlco'], 0.0)||('in', '', '', '', 0.0)||('change', 'noun', 'C0392747', ['ftcn'], 0.0)||('in', '', '', '', 0.0)||('ham - d', '', '', '', 0.0)||('anxiety', 'noun', 'C0003467', ['menp'], 0.0)||('/', '', '', '', 0.0)||('somatization', 'noun', 'C0149779', ['mobd'], 0.0)||('subfactor', '', '', '', 0.0)||('scores', 'verb', 'C0449820', ['qnco'], 0.0)||('in', '', '', '', 0.0)||('the', '', '', '', 0.0)||('fluoxetine', 'noun', 'C0016365', ['orch', 'phsu'], 0.0)||('20', '', '', '', 0.0)||('mg', '', '', '', 0.0)||('and', '', '', '', 0.0)||('placebo', 'noun', 'C0032042', ['topp'], 0.0)||('treatment', 'noun', 'C0039798', ['ftcn'], 0.0)||('groups', 'noun', 'C0441833', ['idcn'], 0.0)||(',', '', '', '', 0.0)||('and', '', '', '', 0.0)||('in', '', '', '', 0.0)||('change', 'noun', 'C0392747', ['ftcn'], 0.0)||('in', '', '', '', 0.0)||('ham - d', '', '', '', 0.0)||('-', '', '', '', 0.0)||('17', '', '', '', 0.0)||('scores', 'noun', 'C0449820', ['qnco'], 0.0)||('in', '', '', '', 0.0)||('the', '', '', '', 0.0)||('placebo', 'noun', 'C0032042', ['topp'], 0.0)||('treatment', 'noun', 'C0039798', ['ftcn'], 0.0)||('group', 'noun', 'C0441833', ['idcn'], 0.0)||('(', '', '', '', 0.0)||('p', '', '', '', 0.0)||('<', '', '', '', 0.0)||('.', '', '', '', 0.0)||('05', '', '', '', 0.0)||(')', '', '', '', 0.0)||('.', '', '', '', 0.0)||
('although', '', '', '', 0.0)||('high', 'adj', 'C0205250', ['qlco'], 0.0)||('baseline', 'noun', 'C0168634', ['bodm'], 0.0)||('anxiety', 'noun', 'C0003467', ['menp'], 0.0)||('does', '', '', '', 0.0)||('not', 'adv', 'C1518422', ['ftcn'], 0.0)||('appear', '', '', '', 0.0)||('to', '', '', '', 0.0)||('impact', '', '', '', 0.0)||('the', '', '', '', 0.0)||('benefit', 'noun', 'C0814225', ['qnco'], 0.0)||('of', '', '', '', 0.0)||('continuation', '', '', '', 0.0)||('therapy', 'noun', 'C0039798', ['ftcn'], 0.0)||('with', '', '', '', 0.0)||('fluoxetine', 'noun', 'C0016365', ['orch', 'phsu'], 0.0)||(',', '', '', '', 0.0)||('it', '', '', '', 0.0)||('does', '', '', '', 0.0)||('appear', '', '', '', 0.0)||('to', '', '', '', 0.0)||('predict', '', '', '', 0.0)||('increased risk', '', '', '', 0.0)||('of', '', '', '', 0.0)||('relapse', 'noun', 'C0035020', ['phpr'], 0.0)||('in', '', '', '', 0.0)||('individuals', '', '', '', 0.0)||('who', '', '', '', 0.0)||('do', '', '', '', 0.0)||('not', 'adv', 'C1518422', ['ftcn'], 0.0)||('remain', '', '', '', 0.0)||('on', '', '', '', 0.0)||('antidepressant', 'noun', 'C0003289', ['phsu'], 0.0)||('therapy', 'noun', 'C0039798', ['ftcn'], 0.0)||('for', '', '', '', 0.0)||('the', '', '', '', 0.0)||('duration', 'noun', 'C0449238', ['tmco'], 0.0)||('of', '', '', '', 0.0)||('continuation', '', '', '', 0.0)||('treatment', 'noun', 'C0039798', ['ftcn'], 0.0)||('.', '', '', '', 0.0)||
