('the', '', '', '', 0.0)||('objective', 'noun', 'C0018017', ['inpr'], 0.0)||('of', '', '', '', 0.0)||('this', '', '', '', 0.0)||('study', 'noun', 'C0008976', ['resa'], 0.0)||('was', '', '', '', 0.0)||('to', '', '', '', 0.0)||('compare', 'verb', 'C1707455', ['acty'], 0.0)||('the', '', '', '', 0.0)||('efficacy', 'noun', 'C1707887', ['resa'], 0.0)||('of', '', '', '', 0.0)||('the', '', '', '', 0.0)||('alpha', 'noun', 'C0439095', ['inpr'], 0.0)||('-', '', '', '', 0.0)||('2a', '', '', '', 0.0)||('agonist', 'noun', 'C0243192', ['phsu'], 0.0)||('guanfacine', 'noun', 'C0079466', ['orch', 'phsu'], 0.0)||('with', '', '', '', 0.0)||('that', '', '', '', 0.0)||('of', '', '', '', 0.0)||('dextroamphetamine', 'noun', 'C0011812', ['orch', 'phsu'], 0.0)||('for', '', '', '', 0.0)||('the', '', '', '', 0.0)||('treatment', 'noun', 'C0039798', ['ftcn'], 0.0)||('of', '', '', '', 0.0)||('adult', 'noun', 'C0001675', ['aggp'], 0.0)||('attention - deficit / hyperactivity disorder', '', '', '', 0.0)||('.', '', '', '', 0.0)||
('seventeen', '', '', '', 0.0)||('adult', 'noun', 'C0001675', ['aggp'], 0.0)||('outpatients', 'noun', 'C0029921', ['podg'], 0.0)||('who', '', '', '', 0.0)||('met', '', '', '', 0.0)||('dsm - iv', '', '', '', 0.0)||('criteria', 'noun', 'C0243161', ['inpr'], 0.0)||('for', '', '', '', 0.0)||('adult', 'noun', 'C0001675', ['aggp'], 0.0)||('attention - deficit / hyperactivity disorder', '', '', '', 0.0)||('participated', '', '', '', 0.0)||('in', '', '', '', 0.0)||('a', '', '', '', 0.0)||('double - blind', '', '', '', 0.0)||(',', '', '', '', 0.0)||('placebo - controlled', '', '', '', 0.0)||(',', '', '', '', 0.0)||('crossover', '', '', '', 0.0)||('study', 'noun', 'C0008976', ['resa'], 0.0)||('comparing', '', '', '', 0.0)||('drug effects', 'noun', 'C0728866', ['ftcn'], 0.0)||('on', '', '', '', 0.0)||('adult', 'noun', 'C0001675', ['aggp'], 0.0)||('attention - deficit / hyperactivity disorder', '', '', '', 0.0)||('symptoms', 'noun', 'C0683368', ['ftcn'], 0.0)||('.', '', '', '', 0.0)||
('measures', 'noun', 'C0079809', ['qnco'], 0.0)||('of', '', '', '', 0.0)||('change', 'noun', 'C0392747', ['ftcn'], 0.0)||('included', '', '', '', 0.0)||('the', '', '', '', 0.0)||('dsm - iv', '', '', '', 0.0)||('adult', 'noun', 'C0001675', ['aggp'], 0.0)||('attention - deficit / hyperactivity disorder', '', '', '', 0.0)||('behavior', 'noun', 'C0004927', ['inbe'], 0.0)||('checklist', 'noun', 'C1707357', ['inpr'], 0.0)||('for', '', '', '', 0.0)||('adults', 'noun', 'C0001675', ['aggp'], 0.0)||('and', '', '', '', 0.0)||('the', '', '', '', 0.0)||('copeland', '', '', '', 0.0)||('symptom checklist', 'noun', 'C0451524', ['diap', 'inpr'], 0.0)||('for', '', '', '', 0.0)||('adult', 'noun', 'C0001675', ['aggp'], 0.0)||('attention', 'noun', 'C0004268', ['menp'], 0.0)||('deficit', 'noun', 'C0011155', ['ftcn'], 0.0)||('disorders', 'noun', 'C0012634', ['dsyn'], 0.0)||('.', '', '', '', 0.0)||
('cognitive', 'adj', 'C1516691', ['ftcn'], 0.0)||('measures', 'noun', 'C0079809', ['qnco'], 0.0)||('of', '', '', '', 0.0)||('attention', 'noun', 'C0004268', ['menp'], 0.0)||('included', '', '', '', 0.0)||('the', '', '', '', 0.0)||('stroop', '', '', '', 0.0)||('and', '', '', '', 0.0)||('controlled', 'adj', 'C2587213', ['ftcn'], 0.0)||('oral', 'adj', 'C0442027', ['spco'], 0.0)||('word association test', 'noun', 'C0043223', ['diap'], 0.0)||('using', 'verb', 'C1524063', ['ftcn'], 0.0)||('the', '', '', '', 0.0)||('letters', '', '', '', 0.0)||('"', '', '', '', 0.0)||('c', '', '', '', 0.0)||(',', '', '', '', 0.0)||('"', '', '', '', 0.0)||('"', '', '', '', 0.0)||('f , "', '', '', '', 0.0)||('and', '', '', '', 0.0)||('"', '', '', '', 0.0)||('l " (', '', '', '', 0.0)||('cowat', '', '', '', 0.0)||(',', '', '', '', 0.0)||('cfl', 'noun', 'C1511564', ['hcro'], 0.0)||('version', 'noun', 'C0333052', ['ftcn'], 0.0)||(')', '', '', '', 0.0)||('.', '', '', '', 0.0)||
('for', '', '', '', 0.0)||('each', '', '', '', 0.0)||('trial', 'noun', 'C0008976', ['resa'], 0.0)||(',', '', '', '', 0.0)||('the', '', '', '', 0.0)||('drug', 'noun', 'C0013227', ['phsu'], 0.0)||('was', '', '', '', 0.0)||('administered', 'verb', 'C1521801', ['ftcn'], 0.0)||('daily', 'adv', 'C0332173', ['tmco'], 0.0)||('and', '', '', '', 0.0)||('titered', '', '', '', 0.0)||('up to', '', '', '', 0.0)||('optimal doses', '', '', '', 0.0)||('of', '', '', '', 0.0)||('maximum', 'noun', 'C0806909', ['qnco'], 0.0)||('efficacy', 'noun', 'C1707887', ['resa'], 0.0)||('but', '', '', '', 0.0)||('with', '', '', '', 0.0)||('a', '', '', '', 0.0)||('minimum', 'noun', 'C1524031', ['qlco'], 0.0)||('of', '', '', '', 0.0)||('side effects', 'noun', 'C0001688', ['ftcn'], 0.0)||(',', '', '', '', 0.0)||('and', '', '', '', 0.0)||('then', 'adv', 'C1883708', ['tmco'], 0.0)||('data', 'noun', 'C1511726', ['idcn'], 0.0)||('were', '', '', '', 0.0)||('collected', 'verb', 'C1516695', ['idcn'], 0.0)||('.', '', '', '', 0.0)||
('both', '', '', '', 0.0)||('drugs', 'noun', 'C0013227', ['phsu'], 0.0)||('significantly', '', '', '', 0.0)||('reduced', 'adj', 'C0392756', ['qlco'], 0.0)||('adult', 'noun', 'C0001675', ['aggp'], 0.0)||('attention - deficit / hyperactivity disorder', '', '', '', 0.0)||('symptoms', 'noun', 'C0683368', ['ftcn'], 0.0)||('on', '', '', '', 0.0)||('the', '', '', '', 0.0)||('dsm - iv', '', '', '', 0.0)||('adult', 'noun', 'C0001675', ['aggp'], 0.0)||('behavior', 'noun', 'C0004927', ['inbe'], 0.0)||('checklist', 'noun', 'C1707357', ['inpr'], 0.0)||('for', '', '', '', 0.0)||('adults', 'noun', 'C0001675', ['aggp'], 0.0)||('over', '', '', '', 0.0)||('placebo', 'noun', 'C0032042', ['topp'], 0.0)||('(', '', '', '', 0.0)||('p', '', '', '', 0.0)||('<', '', '', '', 0.0)||('0 . 05', '', '', '', 0.0)||(')', '', '', '', 0.0)||('.', '', '', '', 0.0)||
('the', '', '', '', 0.0)||('stroop', '', '', '', 0.0)||('color', 'noun', 'C0009393', ['npop'], 0.0)||('subscale', '', '', '', 0.0)||('showed', '', '', '', 0.0)||('significant', 'adj', 'C0750502', ['idcn'], 0.0)||('improvement', '', '', '', 0.0)||('for', '', '', '', 0.0)||('both', '', '', '', 0.0)||('drugs', 'noun', 'C0013227', ['phsu'], 0.0)||('(', '', '', '', 0.0)||('p', '', '', '', 0.0)||('<', '', '', '', 0.0)||('0 . 05', '', '', '', 0.0)||(')', '', '', '', 0.0)||(',', '', '', '', 0.0)||('but', '', '', '', 0.0)||('the', '', '', '', 0.0)||('color', 'noun', 'C0009393', ['npop'], 0.0)||('-', '', '', '', 0.0)||('word', 'noun', 'C1705313', ['idcn'], 0.0)||('measures', 'noun', 'C0079809', ['qnco'], 0.0)||('showed', '', '', '', 0.0)||('significant', 'adj', 'C0750502', ['idcn'], 0.0)||('improvement', '', '', '', 0.0)||('for', '', '', '', 0.0)||('guanfacine', 'noun', 'C0079466', ['orch', 'phsu'], 0.0)||('only', '', '', '', 0.0)||('(', '', '', '', 0.0)||('p', '', '', '', 0.0)||('<', '', '', '', 0.0)||('0 . 01', '', '', '', 0.0)||(')', '', '', '', 0.0)||('.', '', '', '', 0.0)||
('the', '', '', '', 0.0)||('average dose', '', '', '', 0.0)||('of', '', '', '', 0.0)||('guanfacine', 'noun', 'C0079466', ['orch', 'phsu'], 0.0)||('was', '', '', '', 0.0)||('1 . 10', '', '', '', 0.0)||('(', '', '', '', 0.0)||('sd', '', '', '', 0.0)||('=', '', '', '', 0.0)||('0 . 60', '', '', '', 0.0)||(')', '', '', '', 0.0)||(',', '', '', '', 0.0)||('and', '', '', '', 0.0)||('the', '', '', '', 0.0)||('most', '', '', '', 0.0)||('common', 'adj', 'C0205214', ['qnco'], 0.0)||('side effect', 'noun', 'C0879626', ['patf'], 0.0)||('of', '', '', '', 0.0)||('guanfacine', 'noun', 'C0079466', ['orch', 'phsu'], 0.0)||('was', '', '', '', 0.0)||('fatigue', 'noun', 'C0015672', ['sosy'], 0.0)||('.', '', '', '', 0.0)||
('no', '', '', '', 0.0)||('subjects', '', '', '', 0.0)||('discontinued', 'verb', 'C1444662', ['fndg'], 0.0)||('drug trials', '', '', '', 0.0)||('.', '', '', '', 0.0)||
('this', '', '', '', 0.0)||('preliminary study', '', '', '', 0.0)||('indicates', '', '', '', 0.0)||('that', '', '', '', 0.0)||('guanfacine', 'noun', 'C0079466', ['orch', 'phsu'], 0.0)||('may', '', '', '', 0.0)||('be', '', '', '', 0.0)||('a', '', '', '', 0.0)||('well - tolerated', '', '', '', 0.0)||('treatment', 'noun', 'C0039798', ['ftcn'], 0.0)||('option', 'noun', 'C1518601', ['ftcn'], 0.0)||('for', '', '', '', 0.0)||('adult', 'noun', 'C0001675', ['aggp'], 0.0)||('adult', 'noun', 'C0001675', ['aggp'], 0.0)||('attention - deficit / hyperactivity disorder', '', '', '', 0.0)||('.', '', '', '', 0.0)||
