('behavior', 'noun', 'C0004927', ['inbe'], 0.0)||('problems', 'noun', 'C1546466', ['idcn'], 0.0)||('in', '', '', '', 0.0)||('children', 'noun', 'C0008059', ['aggp'], 0.0)||('are', '', '', '', 0.0)||('an', '', '', '', 0.0)||('important', '', '', '', 0.0)||('social', 'adj', 'C0728831', ['ftcn'], 0.0)||(',', '', '', '', 0.0)||('educational', 'adj', 'C1555905', ['inpr'], 0.0)||(',', '', '', '', 0.0)||('and', '', '', '', 0.0)||('health', 'noun', 'C0018684', ['idcn'], 0.0)||('issue', 'noun', 'C0033213', ['fndg'], 0.0)||('.', '', '', '', 0.0)||
('the', '', '', '', 0.0)||('prevalence', 'noun', 'C0033105', ['qnco'], 0.0)||('of', '', '', '', 0.0)||('these', '', '', '', 0.0)||('problems', 'noun', 'C1546466', ['idcn'], 0.0)||(',', '', '', '', 0.0)||('their', '', '', '', 0.0)||('stability', 'noun', 'C0205360', ['qlco'], 0.0)||('over', '', '', '', 0.0)||('time', 'noun', 'C0040223', ['tmco'], 0.0)||(',', '', '', '', 0.0)||('their', '', '', '', 0.0)||('poor', 'adj', 'C0032854', ['grpa'], 0.0)||('prognosis', 'noun', 'C0033325', ['hlca'], 0.0)||(',', '', '', '', 0.0)||('and', '', '', '', 0.0)||('their', '', '', '', 0.0)||('costs', 'noun', 'C0010186', ['qnco'], 0.0)||('to', '', '', '', 0.0)||('both', '', '', '', 0.0)||('individuals', '', '', '', 0.0)||('and', '', '', '', 0.0)||('the', '', '', '', 0.0)||('society', 'noun', 'C0037455', ['orgt'], 0.0)||(',', '', '', '', 0.0)||('all', '', '', '', 0.0)||('point', 'noun', 'C1552961', ['qnco'], 0.0)||('to', '', '', '', 0.0)||('the', '', '', '', 0.0)||('need', 'noun', 'C0027552', ['qlco'], 0.0)||('for', '', '', '', 0.0)||('primary', 'adj', 'C0205225', ['qlco'], 0.0)||('prevention', 'noun', 'C0199176', ['topp'], 0.0)||('and', '', '', '', 0.0)||('early', 'adv', 'C1279919', ['tmco'], 0.0)||('effective', 'adj', 'C1704419', ['qlco'], 0.0)||('interventions', '', '', '', 0.0)||('.', '', '', '', 0.0)||
('a', '', '', '', 0.0)||('systematic review', '', '', '', 0.0)||('examined', 'verb', 'C0332128', ['fndg'], 0.0)||('the', '', '', '', 0.0)||('effectiveness', 'noun', 'C1280519', ['qlco'], 0.0)||('of', '', '', '', 0.0)||('group', 'noun', 'C0441833', ['idcn'], 0.0)||('parent', 'noun', 'C0030551', ['famg'], 0.0)||('education', 'noun', 'C0013621', ['edac'], 0.0)||('programs', 'verb', 'C0376691', ['inpr'], 0.0)||('that', '', '', '', 0.0)||('aimed', '', '', '', 0.0)||('to', '', '', '', 0.0)||('improve', 'verb', 'C0332161', ['qlco'], 0.0)||('behavior', 'noun', 'C0004927', ['inbe'], 0.0)||('problems', 'noun', 'C1546466', ['idcn'], 0.0)||('in', '', '', '', 0.0)||('3', '', '', '', 0.0)||('-', '', '', '', 0.0)||('to', '', '', '', 0.0)||('10', '', '', '', 0.0)||('-', '', '', '', 0.0)||('year', 'noun', 'C0439234', ['tmco'], 0.0)||('-', '', '', '', 0.0)||('old', 'adj', 'C0580836', ['tmco'], 0.0)||('children', 'noun', 'C0008059', ['aggp'], 0.0)||('.', '', '', '', 0.0)||
('the', '', '', '', 0.0)||('phrase', '', '', '', 0.0)||('"', '', '', '', 0.0)||('parent', 'noun', 'C0030551', ['famg'], 0.0)||('education', 'noun', 'C0013621', ['edac'], 0.0)||('program', 'noun', 'C1709697', ['cnce'], 0.0)||('"', '', '', '', 0.0)||('is', '', '', '', 0.0)||('used', '', '', '', 0.0)||('here', '', '', '', 0.0)||('to', '', '', '', 0.0)||('refer', '', '', '', 0.0)||('to', '', '', '', 0.0)||('group', 'noun', 'C0441833', ['idcn'], 0.0)||('-', '', '', '', 0.0)||('based', 'adj', 'C1527178', ['ftcn'], 0.0)||('programs', 'noun', 'C0376691', ['inpr'], 0.0)||('with', '', '', '', 0.0)||('a', '', '', '', 0.0)||('standardized', '', '', '', 0.0)||('format', 'noun', 'C1301627', ['inpr'], 0.0)||('aimed', '', '', '', 0.0)||('at', '', '', '', 0.0)||('enhancing', 'noun', 'C1999177', ['qlco'], 0.0)||('parenting', 'adj', 'C0085092', ['socb'], 0.0)||('skills', 'noun', 'C0678856', ['inbe'], 0.0)||('.', '', '', '', 0.0)||
('the', '', '', '', 0.0)||('term', 'noun', 'C1515273', ['tmco'], 0.0)||('"', '', '', '', 0.0)||('behavior', 'noun', 'C0004927', ['inbe'], 0.0)||('problems', 'noun', 'C1546466', ['idcn'], 0.0)||('"', '', '', '', 0.0)||('is', '', '', '', 0.0)||('used', '', '', '', 0.0)||('to', '', '', '', 0.0)||('refer', '', '', '', 0.0)||('to', '', '', '', 0.0)||('children', 'noun', 'C0008059', ['aggp'], 0.0)||('exhibiting', '', '', '', 0.0)||('externalizing', '', '', '', 0.0)||('problems', 'noun', 'C1546466', ['idcn'], 0.0)||('such as', '', '', '', 0.0)||('temper', '', '', '', 0.0)||('tantrums', 'noun', 'C0233558', ['mobd'], 0.0)||(',', '', '', '', 0.0)||('aggression', 'noun', 'C0001807', ['mobd'], 0.0)||(',', '', '', '', 0.0)||('and', '', '', '', 0.0)||('noncompliance', 'noun', 'C0376405', ['fndg'], 0.0)||('.', '', '', '', 0.0)||
('it', '', '', '', 0.0)||('does', '', '', '', 0.0)||('not', 'adv', 'C1518422', ['ftcn'], 0.0)||('include', 'verb', 'C1552866', ['idcn'], 0.0)||('children', 'noun', 'C0008059', ['aggp'], 0.0)||('diagnosed', 'verb', 'C0011900', ['fndg'], 0.0)||('as', '', '', '', 0.0)||('having', '', '', '', 0.0)||('attention - deficit hyperactivity disorder', '', '', '', 0.0)||('.', '', '', '', 0.0)||
('this', '', '', '', 0.0)||('review', 'noun', 'C0282443', ['inpr'], 0.0)||('focused', 'verb', 'C0205234', ['spco'], 0.0)||('explicitly', '', '', '', 0.0)||('on', '', '', '', 0.0)||('measures', 'noun', 'C0079809', ['qnco'], 0.0)||('of', '', '', '', 0.0)||('child', 'noun', 'C0008059', ['aggp'], 0.0)||('behavioral', 'adj', 'C0004927', ['inbe'], 0.0)||('outcomes', 'noun', 'C0085415', ['qlco'], 0.0)||(',', '', '', '', 0.0)||('which', '', '', '', 0.0)||('are', '', '', '', 0.0)||('only', '', '', '', 0.0)||('small', 'adj', 'C0700321', ['qnco'], 0.0)||(',', '', '', '', 0.0)||('albeit', '', '', '', 0.0)||('important', '', '', '', 0.0)||(',', '', '', '', 0.0)||('outcomes', 'noun', 'C0085415', ['qlco'], 0.0)||('of', '', '', '', 0.0)||('parent', 'noun', 'C0030551', ['famg'], 0.0)||('education', 'noun', 'C0013621', ['edac'], 0.0)||('programs', 'noun', 'C0376691', ['inpr'], 0.0)||('.', '', '', '', 0.0)||
('reviews', '', '', '', 0.0)||('focusing', 'verb', 'C0000936', ['clna'], 0.0)||('on', '', '', '', 0.0)||('other', '', '', '', 0.0)||('clinically', '', '', '', 0.0)||('relevant', 'adj', 'C2347946', ['qlco'], 0.0)||('outcomes', 'noun', 'C0085415', ['qlco'], 0.0)||('are', '', '', '', 0.0)||('also', '', '', '', 0.0)||('needed', 'verb', 'C0027552', ['qlco'], 0.0)||(',', '', '', '', 0.0)||('including', '', '', '', 0.0)||('parental', 'adj', 'C0030551', ['famg'], 0.0)||('well - being', '', '', '', 0.0)||('and', '', '', '', 0.0)||('attitudes', 'noun', 'C0004271', ['menp'], 0.0)||('towards', '', '', '', 0.0)||('parenting', 'noun', 'C0085092', ['socb'], 0.0)||('.', '', '', '', 0.0)||
('other', '', '', '', 0.0)||('reviews', '', '', '', 0.0)||('are', '', '', '', 0.0)||('also', '', '', '', 0.0)||('needed', 'verb', 'C0027552', ['qlco'], 0.0)||('to', '', '', '', 0.0)||('collate', '', '', '', 0.0)||('evidence', 'noun', 'C0332120', ['ftcn'], 0.0)||('concerning', '', '', '', 0.0)||('the', '', '', '', 0.0)||('effectiveness', 'noun', 'C1280519', ['qlco'], 0.0)||('of', '', '', '', 0.0)||('parent', 'noun', 'C0030551', ['famg'], 0.0)||('education', 'noun', 'C0013621', ['edac'], 0.0)||('programs', 'verb', 'C0376691', ['inpr'], 0.0)||('with', '', '', '', 0.0)||('other', '', '', '', 0.0)||('age - groups', '', '', '', 0.0)||(',', '', '', '', 0.0)||('i . e .', '', '', '', 0.0)||(',', '', '', '', 0.0)||('preschoolers', '', '', '', 0.0)||('and', '', '', '', 0.0)||('adolescents', 'noun', 'C0205653', ['aggp'], 0.0)||(',', '', '', '', 0.0)||('and', '', '', '', 0.0)||('in', '', '', '', 0.0)||('improving', 'noun', 'C1272745', ['qlco'], 0.0)||('other', '', '', '', 0.0)||('aspects', '', '', '', 0.0)||('of', '', '', '', 0.0)||('child', 'noun', 'C0008059', ['aggp'], 0.0)||('well - being', '', '', '', 0.0)||('.', '', '', '', 0.0)||
('the', '', '', '', 0.0)||('review', 'noun', 'C0282443', ['inpr'], 0.0)||('included', '', '', '', 0.0)||('published', 'adj', 'C0034037', ['ocac'], 0.0)||('studies', '', '', '', 0.0)||('only', '', '', '', 0.0)||('and', '', '', '', 0.0)||('as', '', '', '', 0.0)||('such', '', '', '', 0.0)||('may', '', '', '', 0.0)||('have', '', '', '', 0.0)||('been', '', '', '', 0.0)||('influenced', '', '', '', 0.0)||('by', '', '', '', 0.0)||('a', '', '', '', 0.0)||('"', '', '', '', 0.0)||('publication', 'noun', 'C0034036', ['inpr', 'mnob'], 0.0)||('bias', 'noun', 'C0242568', ['idcn'], 0.0)||('.', '', '', '', 0.0)||('"', '', '', '', 0.0)||
('inclusion', 'noun', 'C1512693', ['qlco'], 0.0)||('criteria', 'noun', 'C0243161', ['inpr'], 0.0)||('comprised', '', '', '', 0.0)||('the', '', '', '', 0.0)||('use', 'noun', 'C0042153', ['ftcn'], 0.0)||('of', '', '', '', 0.0)||('a', '', '', '', 0.0)||('waiting list', '', '', '', 0.0)||(',', '', '', '', 0.0)||('a', '', '', '', 0.0)||('no', '', '', '', 0.0)||('-', '', '', '', 0.0)||('treatment', 'noun', 'C0039798', ['ftcn'], 0.0)||('or', '', '', '', 0.0)||('placebo', 'noun', 'C0032042', ['topp'], 0.0)||('control group', 'noun', 'C0009932', ['grup'], 0.0)||(',', '', '', '', 0.0)||('and', '', '', '', 0.0)||('at', '', '', '', 0.0)||('least', '', '', '', 0.0)||('one', 'adv', 'C0205447', ['qnco'], 0.0)||('standardized', '', '', '', 0.0)||('measure', 'noun', 'C0079809', ['qnco'], 0.0)||('assessing', 'verb', 'C1516048', ['acty'], 0.0)||('the', '', '', '', 0.0)||('child', 'noun', 'C0008059', ['aggp'], 0.0)||("' s", '', '', '', 0.0)||('behavior', 'noun', 'C0004927', ['inbe'], 0.0)||('.', '', '', '', 0.0)||
('only', '', '', '', 0.0)||('studies', '', '', '', 0.0)||('published', 'verb', 'C0034037', ['ocac'], 0.0)||('after', '', '', '', 0.0)||('1970', '', '', '', 0.0)||('that', '', '', '', 0.0)||('included', '', '', '', 0.0)||('at', '', '', '', 0.0)||('least', '', '', '', 0.0)||('one', 'noun', 'C0205447', ['qnco'], 0.0)||('"', '', '', '', 0.0)||('group', 'noun', 'C0441833', ['idcn'], 0.0)||('-', '', '', '', 0.0)||('based', 'adj', 'C1527178', ['ftcn'], 0.0)||('"', '', '', '', 0.0)||('parent', 'noun', 'C0030551', ['famg'], 0.0)||('education', 'noun', 'C0013621', ['edac'], 0.0)||('program', 'noun', 'C1709697', ['cnce'], 0.0)||('were', '', '', '', 0.0)||('included', '', '', '', 0.0)||('.', '', '', '', 0.0)||
('a', '', '', '', 0.0)||('total', 'noun', 'C0439810', ['qlco'], 0.0)||('of', '', '', '', 0.0)||('255', '', '', '', 0.0)||('primary', 'adj', 'C0205225', ['qlco'], 0.0)||('studies', '', '', '', 0.0)||('were', '', '', '', 0.0)||('identified', 'verb', 'C0205396', ['qlco'], 0.0)||(',', '', '', '', 0.0)||('but', '', '', '', 0.0)||('only', '', '', '', 0.0)||('16', '', '', '', 0.0)||('of', '', '', '', 0.0)||('these', '', '', '', 0.0)||('and', '', '', '', 0.0)||('2', '', '', '', 0.0)||('follow - up studies', '', '', '', 0.0)||('met', '', '', '', 0.0)||('all', '', '', '', 0.0)||('of', '', '', '', 0.0)||('the', '', '', '', 0.0)||('specified', 'adj', 'C0205369', ['qlco'], 0.0)||('inclusion', 'noun', 'C1512693', ['qlco'], 0.0)||('criteria', 'noun', 'C0243161', ['inpr'], 0.0)||('.', '', '', '', 0.0)||
('critical', 'adj', 'C1511545', ['qlco'], 0.0)||('appraisal', '', '', '', 0.0)||('of', '', '', '', 0.0)||('these', '', '', '', 0.0)||('16', '', '', '', 0.0)||('studies', '', '', '', 0.0)||('revealed', 'verb', 'C0443289', ['qlco'], 0.0)||('considerable', '', '', '', 0.0)||('heterogeneity', 'noun', 'C0019409', ['qlco'], 0.0)||('in', '', '', '', 0.0)||('the', '', '', '', 0.0)||('interventions', '', '', '', 0.0)||(',', '', '', '', 0.0)||('the', '', '', '', 0.0)||('populations', 'noun', 'C0032659', ['qnco'], 0.0)||('studied', '', '', '', 0.0)||(',', '', '', '', 0.0)||('and', '', '', '', 0.0)||('the', '', '', '', 0.0)||('outcome', 'noun', 'C1274040', ['ftcn'], 0.0)||('measures', 'noun', 'C0079809', ['qnco'], 0.0)||('used', '', '', '', 0.0)||('.', '', '', '', 0.0)||
('nevertheless', '', '', '', 0.0)||(',', '', '', '', 0.0)||('these', '', '', '', 0.0)||('studies', '', '', '', 0.0)||('suggest', 'verb', 'C1705535', ['idcn'], 0.0)||('that', '', '', '', 0.0)||('structured', '', '', '', 0.0)||('parent', 'noun', 'C0030551', ['famg'], 0.0)||('education', 'noun', 'C0013621', ['edac'], 0.0)||('programs', 'noun', 'C0376691', ['inpr'], 0.0)||('can', '', '', '', 0.0)||('be', '', '', '', 0.0)||('effective', 'adj', 'C1704419', ['qlco'], 0.0)||('in', '', '', '', 0.0)||('producing', '', '', '', 0.0)||('positive', 'adj', 'C1446409', ['qlco'], 0.0)||('change', 'noun', 'C0392747', ['ftcn'], 0.0)||('in', '', '', '', 0.0)||('both', '', '', '', 0.0)||('parental', 'adj', 'C0030551', ['famg'], 0.0)||('perceptions', 'noun', 'C0030971', ['menp'], 0.0)||('and', '', '', '', 0.0)||('objective', 'adj', 'C0018017', ['inpr'], 0.0)||('measures', 'noun', 'C0079809', ['qnco'], 0.0)||('of', '', '', '', 0.0)||('children', 'noun', 'C0008059', ['aggp'], 0.0)||("' s", '', '', '', 0.0)||('behavior', 'noun', 'C0004927', ['inbe'], 0.0)||('and', '', '', '', 0.0)||('that', '', '', '', 0.0)||('these', '', '', '', 0.0)||('changes', '', '', '', 0.0)||('are', '', '', '', 0.0)||('maintained', 'verb', 'C1314677', ['ftcn'], 0.0)||('over', '', '', '', 0.0)||('time', 'noun', 'C0040223', ['tmco'], 0.0)||('.', '', '', '', 0.0)||
('because of', '', '', '', 0.0)||('the', '', '', '', 0.0)||('small', 'adj', 'C0700321', ['qnco'], 0.0)||('number', 'noun', 'C0449788', ['qnco'], 0.0)||('of', '', '', '', 0.0)||('controlled', 'adj', 'C2587213', ['ftcn'], 0.0)||('studies', '', '', '', 0.0)||('and', '', '', '', 0.0)||('their', '', '', '', 0.0)||('methodological', '', '', '', 0.0)||('variations', '', '', '', 0.0)||(',', '', '', '', 0.0)||('caution', '', '', '', 0.0)||('should', '', '', '', 0.0)||('be', '', '', '', 0.0)||('exercised', '', '', '', 0.0)||('before', '', '', '', 0.0)||('these', '', '', '', 0.0)||('findings', 'noun', 'C2607943', ['ftcn'], 0.0)||('are', '', '', '', 0.0)||('generalized', '', '', '', 0.0)||('broadly', '', '', '', 0.0)||('.', '', '', '', 0.0)||
