('in', '', '', '', 0.0)||('treating', 'noun', 'C1522326', ['ftcn'], 0.0)||('oppositional', 'adj', 'C0860661', ['menp'], 0.0)||('behaviors', 'noun', 'C0004927', ['inbe'], 0.0)||('among', '', '', '', 0.0)||('children', 'noun', 'C0008059', ['aggp'], 0.0)||('with', '', '', '', 0.0)||('adhd', 'noun', 'C1263846', ['mobd'], 0.0)||('and', '', '', '', 0.0)||('comorbid', '', '', '', 0.0)||('oppositional defiant disorder', 'noun', 'C0029121', ['mobd'], 0.0)||('or', '', '', '', 0.0)||('conduct disorder', 'noun', 'C0149654', ['mobd'], 0.0)||(',', '', '', '', 0.0)||('a', '', '', '', 0.0)||('meta - analysis', '', '', '', 0.0)||('identified', 'verb', 'C0205396', ['qlco'], 0.0)||('28', '', '', '', 0.0)||('studies', '', '', '', 0.0)||('of', '', '', '', 0.0)||('children', 'noun', 'C0008059', ['aggp'], 0.0)||('age', 'noun', 'C0001779', ['orga'], 0.0)||('7', '', '', '', 0.0)||('to', '', '', '', 0.0)||('15', '', '', '', 0.0)||('years', 'noun', 'C0439234', ['tmco'], 0.0)||('that', '', '', '', 0.0)||('addressed', '', '', '', 0.0)||('oppositional', 'adj', 'C0860661', ['menp'], 0.0)||('/', '', '', '', 0.0)||('aggression', 'noun', 'C0001807', ['mobd'], 0.0)||('-', '', '', '', 0.0)||('related', 'adj', 'C0439849', ['qlco'], 0.0)||('behaviors', 'noun', 'C0004927', ['inbe'], 0.0)||('within', '', '', '', 0.0)||('the', '', '', '', 0.0)||('context', 'noun', 'C0449255', ['fndg'], 0.0)||('of', '', '', '', 0.0)||('adhd', 'noun', 'C1263846', ['mobd'], 0.0)||('.', '', '', '', 0.0)||
('the', '', '', '', 0.0)||('analysis', 'noun', 'C0002778', ['lbpr'], 0.0)||('found', '', '', '', 0.0)||('that', '', '', '', 0.0)||('stimulants', 'noun', 'C0304402', ['phsu'], 0.0)||('are', '', '', '', 0.0)||('efficacious', '', '', '', 0.0)||('.', '', '', '', 0.0)||
('the', '', '', '', 0.0)||('overall', 'adj', 'C0282416', ['inpr'], 0.0)||('weighted', '', '', '', 0.0)||('effect', 'noun', 'C1280500', ['qlco'], 0.0)||('size', 'noun', 'C0456389', ['spco'], 0.0)||('a', '', '', '', 0.0)||('measure', 'noun', 'C0079809', ['qnco'], 0.0)||('of', '', '', '', 0.0)||('improvement', '', '', '', 0.0)||('representing', '', '', '', 0.0)||('the', '', '', '', 0.0)||('average', 'adj', 'C1510992', ['qnco'], 0.0)||('effects', '', '', '', 0.0)||('across', '', '', '', 0.0)||('all', '', '', '', 0.0)||('reporters', '', '', '', 0.0)||('was', '', '', '', 0.0)||('0 . 89', '', '', '', 0.0)||('.', '', '', '', 0.0)||
('this', '', '', '', 0.0)||('indicates', '', '', '', 0.0)||('that', '', '', '', 0.0)||('raters', '', '', '', 0.0)||('saw', 'verb', 'C0183089', ['medd'], 0.0)||('a', '', '', '', 0.0)||('change', 'noun', 'C0392747', ['ftcn'], 0.0)||('in', '', '', '', 0.0)||('oppositional', 'adj', 'C0860661', ['menp'], 0.0)||('behaviors', 'noun', 'C0004927', ['inbe'], 0.0)||('-', '', '', '', 0.0)||('noncompliance', 'noun', 'C0376405', ['fndg'], 0.0)||(',', '', '', '', 0.0)||('irritability', 'noun', 'C0022107', ['fndg'], 0.0)||(',', '', '', '', 0.0)||('and', '', '', '', 0.0)||('temper', '', '', '', 0.0)||('tantrums', 'noun', 'C0233558', ['mobd'], 0.0)||('-', '', '', '', 0.0)||('that', '', '', '', 0.0)||('corresponded', '', '', '', 0.0)||('to', '', '', '', 0.0)||('a', '', '', '', 0.0)||('drop', 'noun', 'C0991568', ['bodm'], 0.0)||('in', '', '', '', 0.0)||('scores', 'noun', 'C0449820', ['qnco'], 0.0)||('of', '', '', '', 0.0)||('approximately', 'adv', 'C0332232', ['qlco'], 0.0)||('1', '', '', '', 0.0)||('standard deviation', 'noun', 'C0871420', ['qnco'], 0.0)||('.', '', '', '', 0.0)||
