('asthma', 'noun', 'C0004096', ['dsyn'], 0.0)||('and', '', '', '', 0.0)||('chronic obstructive pulmonary disease', '', '', '', 0.0)||('are', '', '', '', 0.0)||('common', 'adj', 'C0205214', ['qnco'], 0.0)||('diseases', 'noun', 'C0012634', ['dsyn'], 0.0)||('of', '', '', '', 0.0)||('the', '', '', '', 0.0)||('airways', 'noun', 'C0178987', ['medd'], 0.0)||('and', '', '', '', 0.0)||('lungs', 'noun', 'C0024109', ['bpoc'], 0.0)||('that', '', '', '', 0.0)||('have', '', '', '', 0.0)||('a', '', '', '', 0.0)||('major', 'adj', 'C0205164', ['qlco'], 0.0)||('impact', '', '', '', 0.0)||('on', '', '', '', 0.0)||('the', '', '', '', 0.0)||('health', 'noun', 'C0018684', ['idcn'], 0.0)||('of', '', '', '', 0.0)||('the', '', '', '', 0.0)||('population', 'noun', 'C0032659', ['qnco'], 0.0)||('.', '', '', '', 0.0)||
('the', '', '', '', 0.0)||('mainstay', '', '', '', 0.0)||('of', '', '', '', 0.0)||('treatment', 'noun', 'C0039798', ['ftcn'], 0.0)||('is', '', '', '', 0.0)||('by', '', '', '', 0.0)||('inhalation', 'noun', 'C0004048', ['orgf'], 0.0)||('of', '', '', '', 0.0)||('medication', '', '', '', 0.0)||('to', '', '', '', 0.0)||('the', '', '', '', 0.0)||('site', 'noun', 'C0205145', ['spco'], 0.0)||('of', '', '', '', 0.0)||('the', '', '', '', 0.0)||('disease', 'noun', 'C0012634', ['dsyn'], 0.0)||('process', 'noun', 'C1184743', ['bpoc'], 0.0)||('.', '', '', '', 0.0)||
('this', '', '', '', 0.0)||('can', '', '', '', 0.0)||('be', '', '', '', 0.0)||('achieved', '', '', '', 0.0)||('by', '', '', '', 0.0)||('a', '', '', '', 0.0)||('number', 'noun', 'C0449788', ['qnco'], 0.0)||('of', '', '', '', 0.0)||('different', 'adj', 'C1705242', ['qlco'], 0.0)||('device', 'noun', 'C0025080', ['medd'], 0.0)||('types', 'noun', 'C0332307', ['qlco'], 0.0)||(',', '', '', '', 0.0)||('which', '', '', '', 0.0)||('have', '', '', '', 0.0)||('wide', 'adj', 'C0332464', ['spco'], 0.0)||('variations', '', '', '', 0.0)||('in', '', '', '', 0.0)||('costs', 'noun', 'C0010186', ['qnco'], 0.0)||('to', '', '', '', 0.0)||('the', '', '', '', 0.0)||('health', 'noun', 'C0018684', ['idcn'], 0.0)||('service', 'noun', 'C0557854', ['acty'], 0.0)||('.', '', '', '', 0.0)||
('a', '', '', '', 0.0)||('number', 'noun', 'C0449788', ['qnco'], 0.0)||('of', '', '', '', 0.0)||('different', 'adj', 'C1705242', ['qlco'], 0.0)||('inhalation', 'noun', 'C0004048', ['orgf'], 0.0)||('devices', 'noun', 'C0025080', ['medd'], 0.0)||('are', '', '', '', 0.0)||('available', 'adj', 'C0470187', ['ftcn'], 0.0)||('.', '', '', '', 0.0)||
('the', '', '', '', 0.0)||('pressurised metered - dose inhaler', '', '', '', 0.0)||('is', '', '', '', 0.0)||('the', '', '', '', 0.0)||('most', '', '', '', 0.0)||('commonly', '', '', '', 0.0)||('used', '', '', '', 0.0)||('and', '', '', '', 0.0)||('cheapest', '', '', '', 0.0)||('device', 'noun', 'C0025080', ['medd'], 0.0)||(',', '', '', '', 0.0)||('which', '', '', '', 0.0)||('may', '', '', '', 0.0)||('also', '', '', '', 0.0)||('be', '', '', '', 0.0)||('used', '', '', '', 0.0)||('in conjunction with', '', '', '', 0.0)||('a', '', '', '', 0.0)||('spacer', 'noun', 'C0221874', ['medd'], 0.0)||('device', 'noun', 'C0025080', ['medd'], 0.0)||('.', '', '', '', 0.0)||
('newer', '', '', '', 0.0)||('chlorofluorocarbons', 'noun', 'C0162787', ['orch'], 0.0)||('-', '', '', '', 0.0)||('free', 'adj', 'C1880497', ['qlco'], 0.0)||('inhaler', 'noun', 'C0021461', ['medd'], 0.0)||('devices', 'noun', 'C0025080', ['medd'], 0.0)||('using', 'verb', 'C1524063', ['ftcn'], 0.0)||('hydrofluoroalkanes', '', '', '', 0.0)||('have', '', '', '', 0.0)||('also', '', '', '', 0.0)||('been', '', '', '', 0.0)||('developed', '', '', '', 0.0)||('.', '', '', '', 0.0)||
('the', '', '', '', 0.0)||('drug', 'noun', 'C0013227', ['phsu'], 0.0)||('is', '', '', '', 0.0)||('dissolved', '', '', '', 0.0)||('or', '', '', '', 0.0)||('suspended', 'verb', 'C1272692', ['qlco'], 0.0)||('in', '', '', '', 0.0)||('the', '', '', '', 0.0)||('propellant', 'noun', 'C0599677', ['chvf'], 0.0)||('under pressure', '', '', '', 0.0)||('.', '', '', '', 0.0)||
('when', '', '', '', 0.0)||('activated', 'verb', 'C1879547', ['acty'], 0.0)||(',', '', '', '', 0.0)||('a', '', '', '', 0.0)||('valve', 'noun', 'C0184252', ['medd'], 0.0)||('system', 'noun', 'C0449913', ['ftcn'], 0.0)||('releases', '', '', '', 0.0)||('a', '', '', '', 0.0)||('metered', '', '', '', 0.0)||('volume', 'noun', 'C1705102', ['inpr'], 0.0)||('of', '', '', '', 0.0)||('drug', 'noun', 'C0013227', ['phsu'], 0.0)||('and', '', '', '', 0.0)||('propellant', 'noun', 'C0599677', ['chvf'], 0.0)||('.', '', '', '', 0.0)||
('other', '', '', '', 0.0)||('devices', 'noun', 'C0025080', ['medd'], 0.0)||('include', 'verb', 'C1552866', ['idcn'], 0.0)||('breath', 'noun', 'C0225386', ['bdsu'], 0.0)||('-', '', '', '', 0.0)||('actuated', '', '', '', 0.0)||('pmdis', '', '', '', 0.0)||(',', '', '', '', 0.0)||('such as', '', '', '', 0.0)||('autohaler', '', '', '', 0.0)||('and', '', '', '', 0.0)||('easi', 'noun', 'C1516931', ['lbpr'], 0.0)||('-', '', '', '', 0.0)||('breathe', '', '', '', 0.0)||('.', '', '', '', 0.0)||
('they', '', '', '', 0.0)||('incorporate', '', '', '', 0.0)||('a', '', '', '', 0.0)||('mechanism', 'noun', 'C0441712', ['ftcn'], 0.0)||('activated', 'verb', 'C1879547', ['acty'], 0.0)||('during', '', '', '', 0.0)||('inhalation', 'noun', 'C0004048', ['orgf'], 0.0)||('that', '', '', '', 0.0)||('triggers', '', '', '', 0.0)||('the', '', '', '', 0.0)||('metered - dose inhaler', '', '', '', 0.0)||('.', '', '', '', 0.0)||
('dry powder inhalers', '', '', '', 0.0)||(',', '', '', '', 0.0)||('such as', '', '', '', 0.0)||('turbohaler', '', '', '', 0.0)||(',', '', '', '', 0.0)||('diskhaler', 'noun', 'C0593058', ['medd'], 0.0)||(',', '', '', '', 0.0)||('accuhaler', '', '', '', 0.0)||('and', '', '', '', 0.0)||('rotahaler', '', '', '', 0.0)||(',', '', '', '', 0.0)||('are', '', '', '', 0.0)||('activated', 'verb', 'C1879547', ['acty'], 0.0)||('by', '', '', '', 0.0)||('inspiration', 'noun', 'C0004048', ['orgf'], 0.0)||('by', '', '', '', 0.0)||('the', '', '', '', 0.0)||('patient', '', '', '', 0.0)||('.', '', '', '', 0.0)||
('the', '', '', '', 0.0)||('powdered', '', '', '', 0.0)||('drug', 'noun', 'C0013227', ['phsu'], 0.0)||('is', '', '', '', 0.0)||('dispersed', 'verb', 'C0332624', ['spco'], 0.0)||('into', '', '', '', 0.0)||('particles', '', '', '', 0.0)||('by', '', '', '', 0.0)||('the', '', '', '', 0.0)||('inspiration', 'noun', 'C0004048', ['orgf'], 0.0)||('.', '', '', '', 0.0)||
('with', '', '', '', 0.0)||('nebulisers', '', '', '', 0.0)||('oxygen', 'noun', 'C0030054', ['elii', 'phsu'], 0.0)||(',', '', '', '', 0.0)||('compressed air', 'noun', 'C0337081', ['sbst'], 0.0)||(',', '', '', '', 0.0)||('or', '', '', '', 0.0)||('ultrasonic', 'adj', 'C0220934', ['ftcn'], 0.0)||('power', 'noun', 'C0032863', ['hcpp'], 0.0)||('is', '', '', '', 0.0)||('used', '', '', '', 0.0)||('to', '', '', '', 0.0)||('break up', '', '', '', 0.0)||('solutions', 'noun', 'C0037633', ['sbst'], 0.0)||('or', '', '', '', 0.0)||('suspensions', 'noun', 'C0038960', ['bodm'], 0.0)||('of', '', '', '', 0.0)||('medication', '', '', '', 0.0)||('into', '', '', '', 0.0)||('droplets', '', '', '', 0.0)||('for', '', '', '', 0.0)||('inhalation', 'noun', 'C0004048', ['orgf'], 0.0)||('.', '', '', '', 0.0)||
('the', '', '', '', 0.0)||('aerosol', 'noun', 'C0001712', ['chvs'], 0.0)||('is', '', '', '', 0.0)||('administered', 'verb', 'C1521801', ['ftcn'], 0.0)||('by', '', '', '', 0.0)||('mask', 'noun', 'C0024861', ['medd'], 0.0)||('or', '', '', '', 0.0)||('by', '', '', '', 0.0)||('a', '', '', '', 0.0)||('mouthpiece', '', '', '', 0.0)||('.', '', '', '', 0.0)||
('there', '', '', '', 0.0)||('has', '', '', '', 0.0)||('been', '', '', '', 0.0)||('no', '', '', '', 0.0)||('previous', 'adj', 'C0205156', ['tmco'], 0.0)||('systematic review', '', '', '', 0.0)||('of', '', '', '', 0.0)||('the', '', '', '', 0.0)||('evidence', 'noun', 'C0332120', ['ftcn'], 0.0)||('of', '', '', '', 0.0)||('clinical', 'adj', 'C0205210', ['qlco'], 0.0)||('effectiveness', 'noun', 'C1280519', ['qlco'], 0.0)||('and', '', '', '', 0.0)||('cost - effectiveness', '', '', '', 0.0)||('of', '', '', '', 0.0)||('these', '', '', '', 0.0)||('different', 'adj', 'C1705242', ['qlco'], 0.0)||('inhaler', 'noun', 'C0021461', ['medd'], 0.0)||('devices', 'noun', 'C0025080', ['medd'], 0.0)||('.', '', '', '', 0.0)||
('to', '', '', '', 0.0)||('review', 'verb', 'C0282443', ['inpr'], 0.0)||('systematically', '', '', '', 0.0)||('the', '', '', '', 0.0)||('clinical', 'adj', 'C0205210', ['qlco'], 0.0)||('effectiveness', 'noun', 'C1280519', ['qlco'], 0.0)||('and', '', '', '', 0.0)||('cost - effectiveness', '', '', '', 0.0)||('of', '', '', '', 0.0)||('inhaler', 'noun', 'C0021461', ['medd'], 0.0)||('devices', 'noun', 'C0025080', ['medd'], 0.0)||('in', '', '', '', 0.0)||('asthma', 'noun', 'C0004096', ['dsyn'], 0.0)||('and', '', '', '', 0.0)||('chronic obstructive pulmonary disease', '', '', '', 0.0)||('.', '', '', '', 0.0)||
('the', '', '', '', 0.0)||('different', 'adj', 'C1705242', ['qlco'], 0.0)||('aspects', '', '', '', 0.0)||('of', '', '', '', 0.0)||('inhaler', 'noun', 'C0021461', ['medd'], 0.0)||('devices', 'noun', 'C0025080', ['medd'], 0.0)||('were', '', '', '', 0.0)||('separated', 'verb', 'C0086972', ['fndg'], 0.0)||('into', '', '', '', 0.0)||('the', '', '', '', 0.0)||('most', '', '', '', 0.0)||('clinically', '', '', '', 0.0)||('relevant', 'adj', 'C2347946', ['qlco'], 0.0)||('comparisons', '', '', '', 0.0)||('.', '', '', '', 0.0)||
('methods', 'noun', 'C0025663', ['inpr'], 0.0)||('involved', 'verb', 'C1314939', ['ftcn'], 0.0)||('systematic', 'adj', 'C0220922', ['ftcn'], 0.0)||('searching', '', '', '', 0.0)||('of', '', '', '', 0.0)||('electronic', 'adj', 'C0013850', ['mnob'], 0.0)||('databases', 'noun', 'C0242356', ['inpr'], 0.0)||('and', '', '', '', 0.0)||('bibliographies', '', '', '', 0.0)||('for', '', '', '', 0.0)||('randomised controlled trials', '', '', '', 0.0)||('and', '', '', '', 0.0)||('systematic reviews', '', '', '', 0.0)||('.', '', '', '', 0.0)||
('pharmaceutical', 'adj', 'C0013058', ['bodm'], 0.0)||('companies', 'noun', 'C0683757', ['mnob', 'orgt'], 0.0)||('and', '', '', '', 0.0)||('experts', '', '', '', 0.0)||('in the field', '', '', '', 0.0)||('were', '', '', '', 0.0)||('contacted', '', '', '', 0.0)||('for', '', '', '', 0.0)||('further', 'adj', 'C1517331', ['spco'], 0.0)||('information', 'noun', 'C1533716', ['idcn'], 0.0)||('.', '', '', '', 0.0)||
('trials', '', '', '', 0.0)||('that', '', '', '', 0.0)||('met', '', '', '', 0.0)||('the', '', '', '', 0.0)||('inclusion', 'noun', 'C1512693', ['qlco'], 0.0)||('criteria', 'noun', 'C0243161', ['inpr'], 0.0)||('were', '', '', '', 0.0)||('appraised', '', '', '', 0.0)||('and', '', '', '', 0.0)||('data', 'noun', 'C1511726', ['idcn'], 0.0)||('extraction', 'noun', 'C0185115', ['topp'], 0.0)||('was', '', '', '', 0.0)||('under - taken', '', '', '', 0.0)||('by', '', '', '', 0.0)||('one', 'noun', 'C0205447', ['qnco'], 0.0)||('reviewer', 'noun', 'C1709941', ['qlco'], 0.0)||('and', '', '', '', 0.0)||('checked', '', '', '', 0.0)||('by', '', '', '', 0.0)||('a', '', '', '', 0.0)||('second', 'adj', 'C0205436', ['qnco'], 0.0)||('reviewer', 'noun', 'C1709941', ['qlco'], 0.0)||(',', '', '', '', 0.0)||('with', '', '', '', 0.0)||('any', '', '', '', 0.0)||('discrepancies', '', '', '', 0.0)||('being', '', '', '', 0.0)||('resolved', 'verb', 'C1514893', ['idcn'], 0.0)||('through', '', '', '', 0.0)||('agreement', 'noun', 'C0680240', ['socb'], 0.0)||('.', '', '', '', 0.0)||
('results', 'noun', 'C1274040', ['ftcn'], 0.0)||('-', '', '', '', 0.0)||('-', '', '', '', 0.0)||('in', '', '', '', 0.0)||('vitro', '', '', '', 0.0)||('characteristics', 'noun', 'C1521970', ['qlco'], 0.0)||('versus', '', '', '', 0.0)||('in', '', '', '', 0.0)||('vivo', '', '', '', 0.0)||('testing', 'noun', 'C0039593', ['ftcn'], 0.0)||('and', '', '', '', 0.0)||('clinical', 'adj', 'C0205210', ['qlco'], 0.0)||('response', 'noun', 'C0871261', ['clna'], 0.0)||(':', '', '', '', 0.0)||('there', '', '', '', 0.0)||('is', '', '', '', 0.0)||('evidence', 'noun', 'C0332120', ['ftcn'], 0.0)||('that', '', '', '', 0.0)||('when', '', '', '', 0.0)||('comparative', '', '', '', 0.0)||('testing', 'noun', 'C0039593', ['ftcn'], 0.0)||('is', '', '', '', 0.0)||('performed', 'verb', 'C0884358', ['ftcn'], 0.0)||('on', '', '', '', 0.0)||('inhaler', 'noun', 'C0021461', ['medd'], 0.0)||('devices', 'noun', 'C0025080', ['medd'], 0.0)||('using', 'verb', 'C1524063', ['ftcn'], 0.0)||('the', '', '', '', 0.0)||('same', 'adj', 'C0445247', ['qlco'], 0.0)||('methods', 'noun', 'C0025663', ['inpr'], 0.0)||(',', '', '', '', 0.0)||('there', '', '', '', 0.0)||('is', '', '', '', 0.0)||('some', '', '', '', 0.0)||('correlation', 'noun', 'C1707520', ['qlco'], 0.0)||('between', '', '', '', 0.0)||('particle size', 'noun', 'C0030608', ['qnco'], 0.0)||('measurements', '', '', '', 0.0)||('and', '', '', '', 0.0)||('clinical', 'adj', 'C0205210', ['qlco'], 0.0)||('response', 'noun', 'C0871261', ['clna'], 0.0)||('.', '', '', '', 0.0)||
('however', '', '', '', 0.0)||(',', '', '', '', 0.0)||('the', '', '', '', 0.0)||('measurements', '', '', '', 0.0)||('are', '', '', '', 0.0)||('dependent', 'adj', 'C0851827', ['qlco'], 0.0)||('upon', '', '', '', 0.0)||('the', '', '', '', 0.0)||('methods', 'noun', 'C0025663', ['inpr'], 0.0)||('used', '', '', '', 0.0)||(',', '', '', '', 0.0)||('and', '', '', '', 0.0)||('a', '', '', '', 0.0)||('single measure', '', '', '', 0.0)||('of', '', '', '', 0.0)||('a', '', '', '', 0.0)||('device', 'noun', 'C0025080', ['medd'], 0.0)||('in', '', '', '', 0.0)||('isolation', 'noun', 'C0204727', ['topp'], 0.0)||('is', '', '', '', 0.0)||('of', '', '', '', 0.0)||('limited', 'adj', 'C0439801', ['ftcn'], 0.0)||('value', 'noun', 'C0042295', ['qlco'], 0.0)||('.', '', '', '', 0.0)||
('also', '', '', '', 0.0)||(',', '', '', '', 0.0)||('there', '', '', '', 0.0)||('is', '', '', '', 0.0)||('little', 'adj', 'C0700321', ['qnco'], 0.0)||('data', 'noun', 'C1511726', ['idcn'], 0.0)||('on', '', '', '', 0.0)||('comparing', '', '', '', 0.0)||('devices', 'noun', 'C0025080', ['medd'], 0.0)||('of', '', '', '', 0.0)||('different', 'adj', 'C1705242', ['qlco'], 0.0)||('types', 'noun', 'C0332307', ['qlco'], 0.0)||('.', '', '', '', 0.0)||
('there', '', '', '', 0.0)||('is', '', '', '', 0.0)||('currently', 'adv', 'C0521116', ['tmco'], 0.0)||('insufficient', 'adj', 'C0205412', ['qlco'], 0.0)||('data', 'noun', 'C1511726', ['idcn'], 0.0)||('to', '', '', '', 0.0)||('verify', 'verb', 'C1554081', ['idcn'], 0.0)||('the', '', '', '', 0.0)||('ability', 'noun', 'C0085732', ['orga'], 0.0)||('of', '', '', '', 0.0)||('in', '', '', '', 0.0)||('vitro', '', '', '', 0.0)||('assessments', '', '', '', 0.0)||('to', '', '', '', 0.0)||('predict', '', '', '', 0.0)||('inhaler', 'noun', 'C0021461', ['medd'], 0.0)||('performance', 'noun', 'C0597198', ['inbe'], 0.0)||('in', '', '', '', 0.0)||('vivo', '', '', '', 0.0)||('.', '', '', '', 0.0)||
('results', 'noun', 'C1274040', ['ftcn'], 0.0)||('-', '', '', '', 0.0)||('-', '', '', '', 0.0)||('effectiveness', 'noun', 'C1280519', ['qlco'], 0.0)||('of', '', '', '', 0.0)||('metered - dose inhalers', '', '', '', 0.0)||('for', '', '', '', 0.0)||('the', '', '', '', 0.0)||('delivery', 'noun', 'C0011209', ['topp'], 0.0)||('of', '', '', '', 0.0)||('corticosteroids', 'noun', 'C0001617', ['horm', 'phsu', 'strd'], 0.0)||('in', '', '', '', 0.0)||('asthma', 'noun', 'C0004096', ['dsyn'], 0.0)||(':', '', '', '', 0.0)||('the', '', '', '', 0.0)||('review', 'noun', 'C0282443', ['inpr'], 0.0)||('of', '', '', '', 0.0)||('three', '', 'C0205449', ['qnco'], 0.0)||('trials', '', '', '', 0.0)||('in', '', '', '', 0.0)||('children', 'noun', 'C0008059', ['aggp'], 0.0)||('and', '', '', '', 0.0)||('21', '', '', '', 0.0)||('trials', '', '', '', 0.0)||('in', '', '', '', 0.0)||('adults', 'noun', 'C0001675', ['aggp'], 0.0)||('demonstrated', '', '', '', 0.0)||('no', '', '', '', 0.0)||('evidence', 'noun', 'C0332120', ['ftcn'], 0.0)||('to', '', '', '', 0.0)||('suggest', 'verb', 'C1705535', ['idcn'], 0.0)||('clinical', 'adj', 'C0205210', ['qlco'], 0.0)||('benefits', 'noun', 'C0814225', ['qnco'], 0.0)||('of', '', '', '', 0.0)||('any', '', '', '', 0.0)||('other', '', '', '', 0.0)||('inhaler', 'noun', 'C0021461', ['medd'], 0.0)||('device', 'noun', 'C0025080', ['medd'], 0.0)||('over', '', '', '', 0.0)||('a', '', '', '', 0.0)||('pressurised metered - dose inhaler', '', '', '', 0.0)||('in', '', '', '', 0.0)||('corticosteroid', 'noun', 'C0001617', ['horm', 'phsu', 'strd'], 0.0)||('delivery', 'noun', 'C0011209', ['topp'], 0.0)||('.', '', '', '', 0.0)||
('results', 'noun', 'C1274040', ['ftcn'], 0.0)||('-', '', '', '', 0.0)||('-', '', '', '', 0.0)||('effectiveness', 'noun', 'C1280519', ['qlco'], 0.0)||('of', '', '', '', 0.0)||('metered - dose inhalers', '', '', '', 0.0)||('for', '', '', '', 0.0)||('the', '', '', '', 0.0)||('delivery', 'noun', 'C0011209', ['topp'], 0.0)||('of', '', '', '', 0.0)||('beta - agonists', '', '', '', 0.0)||('in', '', '', '', 0.0)||('stable', 'adj', 'C0205360', ['qlco'], 0.0)||('asthma', 'noun', 'C0004096', ['dsyn'], 0.0)||(':', '', '', '', 0.0)||('in', '', '', '', 0.0)||('children', 'noun', 'C0008059', ['aggp'], 0.0)||(',', '', '', '', 0.0)||('11', '', '', '', 0.0)||('studies', '', '', '', 0.0)||('were', '', '', '', 0.0)||('reviewed', 'verb', 'C1709940', ['qlco'], 0.0)||(',', '', '', '', 0.0)||('of', '', '', '', 0.0)||('which', '', '', '', 0.0)||('seven', '', 'C0205453', ['qnco'], 0.0)||('compared', 'verb', 'C1707455', ['acty'], 0.0)||('the', '', '', '', 0.0)||('turbohaler', '', '', '', 0.0)||('with', '', '', '', 0.0)||('the', '', '', '', 0.0)||('pressurised metered - dose inhaler', '', '', '', 0.0)||('.', '', '', '', 0.0)||
('one', 'noun', 'C0205447', ['qnco'], 0.0)||('study', 'noun', 'C0008976', ['resa'], 0.0)||('found', '', '', '', 0.0)||('a', '', '', '', 0.0)||('significant', 'adj', 'C0750502', ['idcn'], 0.0)||('treatment', 'noun', 'C0039798', ['ftcn'], 0.0)||('difference', 'noun', 'C1705242', ['qlco'], 0.0)||('in', '', '', '', 0.0)||('peak expiratory flow rate', 'noun', 'C0030735', ['diap'], 0.0)||(',', '', '', '', 0.0)||('although', '', '', '', 0.0)||('there', '', '', '', 0.0)||('were', '', '', '', 0.0)||('differences', '', '', '', 0.0)||('in', '', '', '', 0.0)||('the', '', '', '', 0.0)||('patients', 'noun', 'C0030705', ['podg'], 0.0)||("'", '', '', '', 0.0)||('baseline', 'noun', 'C0168634', ['bodm'], 0.0)||('characteristics', 'noun', 'C1521970', ['qlco'], 0.0)||('.', '', '', '', 0.0)||
('in', '', '', '', 0.0)||('adults', 'noun', 'C0001675', ['aggp'], 0.0)||(',', '', '', '', 0.0)||('a', '', '', '', 0.0)||('review', 'noun', 'C0282443', ['inpr'], 0.0)||('of', '', '', '', 0.0)||('70', '', '', '', 0.0)||('studies', '', '', '', 0.0)||('found', '', '', '', 0.0)||('no', '', '', '', 0.0)||('demonstrable', 'adj', 'C0332265', ['ftcn'], 0.0)||('difference', 'noun', 'C1705242', ['qlco'], 0.0)||('in', '', '', '', 0.0)||('the', '', '', '', 0.0)||('clinical', 'adj', 'C0205210', ['qlco'], 0.0)||('bronchodilator', 'noun', 'C0006280', ['phsu'], 0.0)||('effect', 'noun', 'C1280500', ['qlco'], 0.0)||('of', '', '', '', 0.0)||('short', 'adj', 'C1806781', ['qnco'], 0.0)||('-', '', '', '', 0.0)||('acting', '', '', '', 0.0)||('b2', 'noun', 'C0507114', ['bpoc'], 0.0)||('-', '', '', '', 0.0)||('agonists', 'noun', 'C0243192', ['phsu'], 0.0)||('delivered', 'verb', 'C1705822', ['acty'], 0.0)||('by', '', '', '', 0.0)||('the', '', '', '', 0.0)||('standard', 'adj', 'C1442989', ['ftcn'], 0.0)||('pressurised metered - dose inhaler', '', '', '', 0.0)||('compared', 'verb', 'C1707455', ['acty'], 0.0)||('with', '', '', '', 0.0)||('that', '', '', '', 0.0)||('produced', '', '', '', 0.0)||('by', '', '', '', 0.0)||('any', '', '', '', 0.0)||('other', '', '', '', 0.0)||('dry powder inhalers', '', '', '', 0.0)||(',', '', '', '', 0.0)||('hfa', 'noun', 'C0015458', ['dsyn'], 0.0)||('-', '', '', '', 0.0)||('pressurised metered - dose inhaler', '', '', '', 0.0)||('or', '', '', '', 0.0)||('the', '', '', '', 0.0)||('autohaler', '', '', '', 0.0)||('device', 'noun', 'C0025080', ['medd'], 0.0)||('.', '', '', '', 0.0)||
('the', '', '', '', 0.0)||('finding', 'noun', 'C0037088', ['sosy'], 0.0)||('that', '', '', '', 0.0)||('hfa', 'noun', 'C0015458', ['dsyn'], 0.0)||('-', '', '', '', 0.0)||('pmdis', '', '', '', 0.0)||('may', '', '', '', 0.0)||('reduce', '', '', '', 0.0)||('treatment', 'noun', 'C0039798', ['ftcn'], 0.0)||('failure', 'noun', 'C0231174', ['ftcn'], 0.0)||('and', '', '', '', 0.0)||('oral', 'adj', 'C0442027', ['spco'], 0.0)||('steroid', 'noun', 'C0038317', ['strd'], 0.0)||('requirement', 'noun', 'C1514873', ['ftcn'], 0.0)||('in', '', '', '', 0.0)||('beta - agonist', '', '', '', 0.0)||('delivery', 'noun', 'C0011209', ['topp'], 0.0)||('needs', 'verb', 'C0027552', ['qlco'], 0.0)||('further', 'adv', 'C1517331', ['spco'], 0.0)||('confirmatory', 'adj', 'C0750484', ['idcn'], 0.0)||('research', 'noun', 'C0035168', ['resa'], 0.0)||('in', '', '', '', 0.0)||('adequately', '', '', '', 0.0)||('randomised clinical trials', '', '', '', 0.0)||('.', '', '', '', 0.0)||
('results', 'noun', 'C1274040', ['ftcn'], 0.0)||('-', '', '', '', 0.0)||('-', '', '', '', 0.0)||('effectiveness', 'noun', 'C1280519', ['qlco'], 0.0)||('of', '', '', '', 0.0)||('nebulisers', '', '', '', 0.0)||('versus', '', '', '', 0.0)||('metered - dose inhalers', '', '', '', 0.0)||('for', '', '', '', 0.0)||('the', '', '', '', 0.0)||('delivery', 'noun', 'C0011209', ['topp'], 0.0)||('of', '', '', '', 0.0)||('bronchodilators', 'noun', 'C0006280', ['phsu'], 0.0)||('in', '', '', '', 0.0)||('stable', 'adj', 'C0205360', ['qlco'], 0.0)||('asthma', 'noun', 'C0004096', ['dsyn'], 0.0)||(':', '', '', '', 0.0)||('in', '', '', '', 0.0)||('children', 'noun', 'C0008059', ['aggp'], 0.0)||(',', '', '', '', 0.0)||('three', '', 'C0205449', ['qnco'], 0.0)||('included', '', '', '', 0.0)||('trials', '', '', '', 0.0)||('compared', 'verb', 'C1707455', ['acty'], 0.0)||('different', 'adj', 'C1705242', ['qlco'], 0.0)||('devices', 'noun', 'C0025080', ['medd'], 0.0)||('with', '', '', '', 0.0)||('a', '', '', '', 0.0)||('nebuliser', 'noun', 'C0027524', ['medd'], 0.0)||('and', '', '', '', 0.0)||('demonstrated', '', '', '', 0.0)||('no', '', '', '', 0.0)||('evidence', 'noun', 'C0332120', ['ftcn'], 0.0)||('of', '', '', '', 0.0)||('clinical', 'adj', 'C0205210', ['qlco'], 0.0)||('superiority', 'noun', 'C0680218', ['socb'], 0.0)||('of', '', '', '', 0.0)||('nebulisers', '', '', '', 0.0)||('over', '', '', '', 0.0)||('inhaler', 'adj', 'C0021461', ['medd'], 0.0)||('devices', 'noun', 'C0025080', ['medd'], 0.0)||('in', '', '', '', 0.0)||('bronchodilator', 'noun', 'C0006280', ['phsu'], 0.0)||('delivery', 'noun', 'C0011209', ['topp'], 0.0)||('.', '', '', '', 0.0)||
('a', '', '', '', 0.0)||('total', 'noun', 'C0439810', ['qlco'], 0.0)||('of', '', '', '', 0.0)||('23', '', '', '', 0.0)||('studies', '', '', '', 0.0)||('in', '', '', '', 0.0)||('adults', 'noun', 'C0001675', ['aggp'], 0.0)||('found', '', '', '', 0.0)||('no', '', '', '', 0.0)||('equivalence', '', '', '', 0.0)||('for', '', '', '', 0.0)||('the', '', '', '', 0.0)||('main', 'adj', 'C0205225', ['qlco'], 0.0)||('pulmonary', 'adj', 'C0024109', ['bpoc'], 0.0)||('outcomes', 'noun', 'C0085415', ['qlco'], 0.0)||('and', '', '', '', 0.0)||('no', '', '', '', 0.0)||('evidence', 'noun', 'C0332120', ['ftcn'], 0.0)||('of', '', '', '', 0.0)||('difference', 'noun', 'C1705242', ['qlco'], 0.0)||('in', '', '', '', 0.0)||('other', '', '', '', 0.0)||('outcomes', 'noun', 'C0085415', ['qlco'], 0.0)||('.', '', '', '', 0.0)||
('results', 'noun', 'C1274040', ['ftcn'], 0.0)||('-', '', '', '', 0.0)||('-', '', '', '', 0.0)||('effectiveness', 'noun', 'C1280519', ['qlco'], 0.0)||('of', '', '', '', 0.0)||('metered - dose inhalers', '', '', '', 0.0)||('for', '', '', '', 0.0)||('the', '', '', '', 0.0)||('delivery', 'noun', 'C0011209', ['topp'], 0.0)||('of', '', '', '', 0.0)||('beta - agonists', '', '', '', 0.0)||('in', '', '', '', 0.0)||('chronic obstructive pulmonary disease', '', '', '', 0.0)||(':', '', '', '', 0.0)||('only', '', '', '', 0.0)||('two', 'adj', 'C0205448', ['qnco'], 0.0)||('studies', '', '', '', 0.0)||('were', '', '', '', 0.0)||('included', '', '', '', 0.0)||('in', '', '', '', 0.0)||('this', '', '', '', 0.0)||('review', 'noun', 'C0282443', ['inpr'], 0.0)||('.', '', '', '', 0.0)||
('no', '', '', '', 0.0)||('evidence', 'noun', 'C0332120', ['ftcn'], 0.0)||('of', '', '', '', 0.0)||('clinical', 'adj', 'C0205210', ['qlco'], 0.0)||('difference', 'noun', 'C1705242', ['qlco'], 0.0)||('was', '', '', '', 0.0)||('found', '', '', '', 0.0)||('in', '', '', '', 0.0)||('beta - agonist', '', '', '', 0.0)||('delivery', 'noun', 'C0011209', ['topp'], 0.0)||('.', '', '', '', 0.0)||
('results', 'noun', 'C1274040', ['ftcn'], 0.0)||('-', '', '', '', 0.0)||('-', '', '', '', 0.0)||('effectiveness', 'noun', 'C1280519', ['qlco'], 0.0)||('of', '', '', '', 0.0)||('nebulisers', '', '', '', 0.0)||('versus', '', '', '', 0.0)||('metered - dose inhalers', '', '', '', 0.0)||('for', '', '', '', 0.0)||('the', '', '', '', 0.0)||('delivery', 'noun', 'C0011209', ['topp'], 0.0)||('of', '', '', '', 0.0)||('bronchodilators', 'noun', 'C0006280', ['phsu'], 0.0)||('in', '', '', '', 0.0)||('chronic obstructive pulmonary disease', '', '', '', 0.0)||(':', '', '', '', 0.0)||('evidence', 'noun', 'C0332120', ['ftcn'], 0.0)||('from', '', '', '', 0.0)||('14', '', '', '', 0.0)||('trials', '', '', '', 0.0)||('demonstrated', '', '', '', 0.0)||('equivalence', '', '', '', 0.0)||('for', '', '', '', 0.0)||('the', '', '', '', 0.0)||('main', 'adj', 'C0205225', ['qlco'], 0.0)||('outcomes', 'noun', 'C0085415', ['qlco'], 0.0)||('of', '', '', '', 0.0)||('pulmonary function', 'noun', 'C0231921', ['ortf'], 0.0)||('.', '', '', '', 0.0)||
('for', '', '', '', 0.0)||('other', '', '', '', 0.0)||('outcomes', 'noun', 'C0085415', ['qlco'], 0.0)||('there', '', '', '', 0.0)||('was', '', '', '', 0.0)||('no', '', '', '', 0.0)||('evidence', 'noun', 'C0332120', ['ftcn'], 0.0)||('of', '', '', '', 0.0)||('treatment', 'noun', 'C0039798', ['ftcn'], 0.0)||('difference', 'noun', 'C1705242', ['qlco'], 0.0)||('in', '', '', '', 0.0)||('bronchodilator', 'noun', 'C0006280', ['phsu'], 0.0)||('delivery', 'noun', 'C0011209', ['topp'], 0.0)||('.', '', '', '', 0.0)||
('results', 'noun', 'C1274040', ['ftcn'], 0.0)||('-', '', '', '', 0.0)||('-', '', '', '', 0.0)||('patients', 'noun', 'C0030705', ['podg'], 0.0)||("'", '', '', '', 0.0)||('ability', 'noun', 'C0085732', ['orga'], 0.0)||('to', '', '', '', 0.0)||('use', 'verb', 'C0042153', ['ftcn'], 0.0)||('metered - dose inhalers', '', '', '', 0.0)||(':', '', '', '', 0.0)||('differences', '', '', '', 0.0)||('among', '', '', '', 0.0)||('studies', '', '', '', 0.0)||('and', '', '', '', 0.0)||('the', '', '', '', 0.0)||('heterogeneity', 'noun', 'C0019409', ['qlco'], 0.0)||('of', '', '', '', 0.0)||('the', '', '', '', 0.0)||('results', 'noun', 'C1274040', ['ftcn'], 0.0)||('make', 'verb', 'C1881534', ['ftcn'], 0.0)||('it', '', '', '', 0.0)||('difficult', 'adj', 'C0332218', ['qlco'], 0.0)||('to', '', '', '', 0.0)||('draw', 'verb', 'C0013113', ['inpr'], 0.0)||('conclusions', 'noun', 'C1707478', ['idcn'], 0.0)||('about', '', '', '', 0.0)||('inhaler', 'noun', 'C0021461', ['medd'], 0.0)||('technique', 'noun', 'C0449851', ['ftcn'], 0.0)||('differences', '', '', '', 0.0)||('between', '', '', '', 0.0)||('device', 'noun', 'C0025080', ['medd'], 0.0)||('types', 'noun', 'C0332307', ['qlco'], 0.0)||('.', '', '', '', 0.0)||
('the', '', '', '', 0.0)||('review', 'noun', 'C0282443', ['inpr'], 0.0)||('of', '', '', '', 0.0)||('technique', 'noun', 'C0449851', ['ftcn'], 0.0)||('after', '', '', '', 0.0)||('teaching', 'noun', 'C0039401', ['edac'], 0.0)||('the', '', '', '', 0.0)||('correct', 'adj', 'C1548444', ['inpr'], 0.0)||('technique', 'noun', 'C0449851', ['ftcn'], 0.0)||('suggests', '', '', '', 0.0)||('that', '', '', '', 0.0)||('there', '', '', '', 0.0)||('is', '', '', '', 0.0)||('no', '', '', '', 0.0)||('difference', 'noun', 'C1705242', ['qlco'], 0.0)||('in', '', '', '', 0.0)||('patients', 'noun', 'C0030705', ['podg'], 0.0)||("'", '', '', '', 0.0)||('ability', 'noun', 'C0085732', ['orga'], 0.0)||('to', '', '', '', 0.0)||('use', 'verb', 'C0042153', ['ftcn'], 0.0)||('dry powder inhalers', '', '', '', 0.0)||('or', '', '', '', 0.0)||('pmdis', '', '', '', 0.0)||('.', '', '', '', 0.0)||
('results', 'noun', 'C1274040', ['ftcn'], 0.0)||('-', '', '', '', 0.0)||('-', '', '', '', 0.0)||('economic', 'adj', 'C0013556', ['ocdi'], 0.0)||('analysis', 'noun', 'C0002778', ['lbpr'], 0.0)||(':', '', '', '', 0.0)||('the', '', '', '', 0.0)||('total number', '', '', '', 0.0)||('of', '', '', '', 0.0)||('nhs', 'noun', 'C0796085', ['dsyn'], 0.0)||('prescriptions', 'noun', 'C0033080', ['hlca'], 0.0)||('for', '', '', '', 0.0)||('inhaler', 'noun', 'C0021461', ['medd'], 0.0)||('therapy', 'noun', 'C0039798', ['ftcn'], 0.0)||('for', '', '', '', 0.0)||('asthma', 'noun', 'C0004096', ['dsyn'], 0.0)||('in', '', '', '', 0.0)||('1998', '', '', '', 0.0)||('was', '', '', '', 0.0)||('over', 'adv', 'C0205136', ['spco'], 0.0)||('31', '', '', '', 0.0)||('million', 'noun', 'C1881839', ['qnco'], 0.0)||(',', '', '', '', 0.0)||('with', '', '', '', 0.0)||('a', '', '', '', 0.0)||('net', '', '', '', 0.0)||('ingredient', 'adj', 'C1550600', ['chvf'], 0.0)||('cost', 'noun', 'C0010186', ['qnco'], 0.0)||('in', '', '', '', 0.0)||('excess', 'noun', 'C1979886', ['qlco'], 0.0)||('of', '', '', '', 0.0)||('392', '', '', '', 0.0)||('million', 'noun', 'C1881839', ['qnco'], 0.0)||('gb', 'noun', 'C0041700', ['geoa'], 0.0)||('pounds', 'noun', 'C0439219', ['qnco'], 0.0)||('.', '', '', '', 0.0)||
('this', '', '', '', 0.0)||('economic', 'adj', 'C0013556', ['ocdi'], 0.0)||('assessment', 'noun', 'C1261322', ['hlca'], 0.0)||('uses', '', '', '', 0.0)||('decision analysis', 'noun', 'C0011108', ['ocdi'], 0.0)||('to', '', '', '', 0.0)||('estimate', 'verb', 'C0750572', ['qnco'], 0.0)||('the', '', '', '', 0.0)||('relative', 'adj', 'C0080103', ['famg'], 0.0)||('cost - effectiveness', '', '', '', 0.0)||('of', '', '', '', 0.0)||('inhaler', 'noun', 'C0021461', ['medd'], 0.0)||('devices', 'noun', 'C0025080', ['medd'], 0.0)||('for', '', '', '', 0.0)||('the', '', '', '', 0.0)||('delivery', 'noun', 'C0011209', ['topp'], 0.0)||('of', '', '', '', 0.0)||('bronchodilator', 'noun', 'C0006280', ['phsu'], 0.0)||('and', '', '', '', 0.0)||('corticosteroid', 'noun', 'C0001617', ['horm', 'phsu', 'strd'], 0.0)||('inhaled', 'verb', 'C0004048', ['orgf'], 0.0)||('therapy', 'noun', 'C0039798', ['ftcn'], 0.0)||('.', '', '', '', 0.0)||
('overall', 'adv', 'C0282416', ['inpr'], 0.0)||(',', '', '', '', 0.0)||('there', '', '', '', 0.0)||('were', '', '', '', 0.0)||('no', '', '', '', 0.0)||('differences', '', '', '', 0.0)||('in', '', '', '', 0.0)||('patient', '', '', '', 0.0)||('outcomes', 'noun', 'C0085415', ['qlco'], 0.0)||('among', '', '', '', 0.0)||('the', '', '', '', 0.0)||('devices', 'noun', 'C0025080', ['medd'], 0.0)||('.', '', '', '', 0.0)||
('on', '', '', '', 0.0)||('the', '', '', '', 0.0)||('assumption', '', '', '', 0.0)||('that', '', '', '', 0.0)||('the', '', '', '', 0.0)||('devices', 'noun', 'C0025080', ['medd'], 0.0)||('were', '', '', '', 0.0)||('clinically', '', '', '', 0.0)||('equivalent', 'adj', 'C0205163', ['qlco'], 0.0)||(',', '', '', '', 0.0)||('pmdis', '', '', '', 0.0)||('were', '', '', '', 0.0)||('the', '', '', '', 0.0)||('most', '', '', '', 0.0)||('cost - effective', '', '', '', 0.0)||('devices', 'noun', 'C0025080', ['medd'], 0.0)||('for', '', '', '', 0.0)||('asthma', 'noun', 'C0004096', ['dsyn'], 0.0)||('treatment', 'noun', 'C0039798', ['ftcn'], 0.0)||('.', '', '', '', 0.0)||
('this', '', '', '', 0.0)||('systematic review', '', '', '', 0.0)||('examined', 'verb', 'C0332128', ['fndg'], 0.0)||('the', '', '', '', 0.0)||('evidence', 'noun', 'C0332120', ['ftcn'], 0.0)||('from', '', '', '', 0.0)||('clinical trials', 'noun', 'C0008976', ['resa'], 0.0)||('evaluating', 'verb', 'C0220825', ['ftcn'], 0.0)||('the', '', '', '', 0.0)||('clinical', 'adj', 'C0205210', ['qlco'], 0.0)||('effectiveness', 'noun', 'C1280519', ['qlco'], 0.0)||('of', '', '', '', 0.0)||('different', 'adj', 'C1705242', ['qlco'], 0.0)||('inhaler', 'noun', 'C0021461', ['medd'], 0.0)||('devices', 'noun', 'C0025080', ['medd'], 0.0)||('in', '', '', '', 0.0)||('the', '', '', '', 0.0)||('delivery', 'noun', 'C0011209', ['topp'], 0.0)||('of', '', '', '', 0.0)||('inhaled corticosteroids', '', '', '', 0.0)||('and', '', '', '', 0.0)||('beta2', 'noun', 'C1417683', ['gngm'], 0.0)||('-', '', '', '', 0.0)||('bronchodilators', 'noun', 'C0006280', ['phsu'], 0.0)||('for', '', '', '', 0.0)||('patients', 'noun', 'C0030705', ['podg'], 0.0)||('with', '', '', '', 0.0)||('asthma', 'noun', 'C0004096', ['dsyn'], 0.0)||('and', '', '', '', 0.0)||('chronic obstructive pulmonary disease', '', '', '', 0.0)||('.', '', '', '', 0.0)||
('the', '', '', '', 0.0)||('evidence', 'noun', 'C0332120', ['ftcn'], 0.0)||('from', '', '', '', 0.0)||('the', '', '', '', 0.0)||('published', 'adj', 'C0034037', ['ocac'], 0.0)||('clinical', 'adj', 'C0205210', ['qlco'], 0.0)||('literature', 'noun', 'C0023866', ['inpr'], 0.0)||('demonstrates', '', '', '', 0.0)||('no', '', '', '', 0.0)||('difference', 'noun', 'C1705242', ['qlco'], 0.0)||('in', '', '', '', 0.0)||('clinical', 'adj', 'C0205210', ['qlco'], 0.0)||('effectiveness', 'noun', 'C1280519', ['qlco'], 0.0)||('between', '', '', '', 0.0)||('nebulisers', '', '', '', 0.0)||('and', '', '', '', 0.0)||('alternative', 'adj', 'C1523987', ['cnce'], 0.0)||('inhaler', 'noun', 'C0021461', ['medd'], 0.0)||('devices', 'noun', 'C0025080', ['medd'], 0.0)||('compared', 'verb', 'C1707455', ['acty'], 0.0)||('to', '', '', '', 0.0)||('standard', 'adj', 'C1442989', ['ftcn'], 0.0)||('pressurised metered - dose inhaler', '', '', '', 0.0)||('with', '', '', '', 0.0)||('or', '', '', '', 0.0)||('without', '', '', '', 0.0)||('a', '', '', '', 0.0)||('spacer', 'noun', 'C0221874', ['medd'], 0.0)||('device', 'noun', 'C0025080', ['medd'], 0.0)||('.', '', '', '', 0.0)||
('the', '', '', '', 0.0)||('cost - effectiveness', '', '', '', 0.0)||('evidence', 'noun', 'C0332120', ['ftcn'], 0.0)||('therefore', '', '', '', 0.0)||('favours', '', '', '', 0.0)||('pmdis', '', '', '', 0.0)||('(', '', '', '', 0.0)||('or', '', '', '', 0.0)||('the', '', '', '', 0.0)||('cheapest', '', '', '', 0.0)||('inhaler', 'noun', 'C0021461', ['medd'], 0.0)||('device', 'noun', 'C0025080', ['medd'], 0.0)||(')', '', '', '', 0.0)||('as', '', '', '', 0.0)||('first', 'noun', 'C0205435', ['qnco'], 0.0)||('-', '', '', '', 0.0)||('line', 'noun', 'C0205132', ['spco'], 0.0)||('treatment', 'noun', 'C0039798', ['ftcn'], 0.0)||('in', '', '', '', 0.0)||('all', '', '', '', 0.0)||('patients', 'noun', 'C0030705', ['podg'], 0.0)||('with', '', '', '', 0.0)||('stable', 'adj', 'C0205360', ['qlco'], 0.0)||('asthma', 'noun', 'C0004096', ['dsyn'], 0.0)||('unless', '', '', '', 0.0)||('other', '', '', '', 0.0)||('specific', 'adj', 'C0205369', ['qlco'], 0.0)||('reasons', '', '', '', 0.0)||('are', '', '', '', 0.0)||('identified', 'verb', 'C0205396', ['qlco'], 0.0)||('.', '', '', '', 0.0)||
('patients', 'noun', 'C0030705', ['podg'], 0.0)||('can', '', '', '', 0.0)||('use', 'verb', 'C0042153', ['ftcn'], 0.0)||('pmdis', '', '', '', 0.0)||('as', '', '', '', 0.0)||('effectively', '', '', '', 0.0)||('as', '', '', '', 0.0)||('other', '', '', '', 0.0)||('inhaler', 'noun', 'C0021461', ['medd'], 0.0)||('devices', 'noun', 'C0025080', ['medd'], 0.0)||('as', '', '', '', 0.0)||('long', 'adv', 'C0205166', ['qlco'], 0.0)||('as', '', '', '', 0.0)||('the', '', '', '', 0.0)||('correct', 'adj', 'C1548444', ['inpr'], 0.0)||('inhalation', 'noun', 'C0004048', ['orgf'], 0.0)||('technique', 'noun', 'C0449851', ['ftcn'], 0.0)||('is', '', '', '', 0.0)||('taught', 'verb', 'C0348054', ['qlco'], 0.0)||('.', '', '', '', 0.0)||
('conclusions', 'noun', 'C1707478', ['idcn'], 0.0)||('-', '', '', '', 0.0)||('-', '', '', '', 0.0)||('recommendations', 'noun', 'C0034866', ['idcn'], 0.0)||('for', '', '', '', 0.0)||('research', 'noun', 'C0035168', ['resa'], 0.0)||(':', '', '', '', 0.0)||('further', 'adv', 'C1517331', ['spco'], 0.0)||('clinical trials', 'noun', 'C0008976', ['resa'], 0.0)||('are', '', '', '', 0.0)||('required', 'verb', 'C1514873', ['ftcn'], 0.0)||('to', '', '', '', 0.0)||('demonstrate', '', '', '', 0.0)||('any', '', '', '', 0.0)||('differences', '', '', '', 0.0)||('in', '', '', '', 0.0)||('the', '', '', '', 0.0)||('clinical', 'adj', 'C0205210', ['qlco'], 0.0)||('effectiveness', 'noun', 'C1280519', ['qlco'], 0.0)||('and', '', '', '', 0.0)||('cost - effectiveness', '', '', '', 0.0)||('of', '', '', '', 0.0)||('inhaler', 'noun', 'C0021461', ['medd'], 0.0)||('devices', 'noun', 'C0025080', ['medd'], 0.0)||('and', '', '', '', 0.0)||('nebulisers', '', '', '', 0.0)||('compared', 'verb', 'C1707455', ['acty'], 0.0)||('with', '', '', '', 0.0)||('pmdis', '', '', '', 0.0)||('.', '', '', '', 0.0)||
('these', '', '', '', 0.0)||('should', '', '', '', 0.0)||('be', '', '', '', 0.0)||('of', '', '', '', 0.0)||('sufficient', 'adj', 'C0205410', ['qlco'], 0.0)||('statistical', 'adj', 'C0038215', ['ocdi'], 0.0)||('power', 'noun', 'C0032863', ['hcpp'], 0.0)||('and', '', '', '', 0.0)||('methodological', '', '', '', 0.0)||('rigour', '', '', '', 0.0)||('to', '', '', '', 0.0)||('demonstrate', '', '', '', 0.0)||('any', '', '', '', 0.0)||('clinical', 'adj', 'C0205210', ['qlco'], 0.0)||('benefit', 'noun', 'C0814225', ['qnco'], 0.0)||('.', '', '', '', 0.0)||
('trials', '', '', '', 0.0)||('should', '', '', '', 0.0)||('be', '', '', '', 0.0)||('undertaken', '', '', '', 0.0)||('in', '', '', '', 0.0)||('community', 'noun', 'C0009462', ['geoa'], 0.0)||('settings', '', '', '', 0.0)||('to', '', '', '', 0.0)||('ensure', 'verb', 'C0218063', ['food'], 0.0)||('the', '', '', '', 0.0)||('generalisability', '', '', '', 0.0)||('of', '', '', '', 0.0)||('results', 'noun', 'C1274040', ['ftcn'], 0.0)||('.', '', '', '', 0.0)||
('outcome', 'noun', 'C1274040', ['ftcn'], 0.0)||('measures', 'noun', 'C0079809', ['qnco'], 0.0)||('should', '', '', '', 0.0)||('be', '', '', '', 0.0)||('more', '', '', '', 0.0)||('patient - centred', '', '', '', 0.0)||('and', '', '', '', 0.0)||('report', 'verb', 'C0684224', ['inpr'], 0.0)||('adverse effects', 'noun', 'C0001688', ['ftcn'], 0.0)||('more', '', '', '', 0.0)||('completely', '', '', '', 0.0)||('.', '', '', '', 0.0)||
('reporting', 'noun', 'C0700287', ['hlca'], 0.0)||('of', '', '', '', 0.0)||('data', 'noun', 'C1511726', ['idcn'], 0.0)||('from', '', '', '', 0.0)||('trials', '', '', '', 0.0)||('should', '', '', '', 0.0)||('be', '', '', '', 0.0)||('improved', 'verb', 'C0184511', ['qlco'], 0.0)||('.', '', '', '', 0.0)||
