('to', '', '', '', 0.0)||('determine', '', '', '', 0.0)||('whether', '', '', '', 0.0)||('the', '', '', '', 0.0)||('administration', 'noun', 'C0001554', ['ocac'], 0.0)||('of', '', '', '', 0.0)||('beta - agonists', '', '', '', 0.0)||('by', '', '', '', 0.0)||('metered - dose inhaler', '', '', '', 0.0)||('with', '', '', '', 0.0)||('a', '', '', '', 0.0)||('spacer', 'noun', 'C0221874', ['medd'], 0.0)||('device', 'noun', 'C0025080', ['medd'], 0.0)||('is', '', '', '', 0.0)||('as', '', '', '', 0.0)||('effective', 'adj', 'C1704419', ['qlco'], 0.0)||('as', '', '', '', 0.0)||('the', '', '', '', 0.0)||('administration', 'noun', 'C0001554', ['ocac'], 0.0)||('of', '', '', '', 0.0)||('beta - agonists', '', '', '', 0.0)||('by', '', '', '', 0.0)||('nebulizer', '', '', '', 0.0)||('for', '', '', '', 0.0)||('the', '', '', '', 0.0)||('treatment', 'noun', 'C0039798', ['ftcn'], 0.0)||('of', '', '', '', 0.0)||('acute asthma exacerbations', '', '', '', 0.0)||('in', '', '', '', 0.0)||('children', 'noun', 'C0008059', ['aggp'], 0.0)||('.', '', '', '', 0.0)||
('randomized', 'adj', 'C0034656', ['resa'], 0.0)||('trial', 'noun', 'C0008976', ['resa'], 0.0)||('with', '', '', '', 0.0)||('two', 'adj', 'C0205448', ['qnco'], 0.0)||('arms', 'noun', 'C0446516', ['blor'], 0.0)||('.', '', '', '', 0.0)||
('urban', 'adj', 'C0442529', ['geoa'], 0.0)||('pediatric', 'adj', 'C1521725', ['qlco'], 0.0)||('emergency department', 'noun', 'C0562508', ['hcro', 'mnob'], 0.0)||('in', '', '', '', 0.0)||('bronx', '', '', '', 0.0)||(',', '', '', '', 0.0)||('ny', 'noun', 'C0027976', ['geoa'], 0.0)||('.', '', '', '', 0.0)||
('convenience', '', '', '', 0.0)||('sample', 'noun', 'C0370003', ['sbst'], 0.0)||('of', '', '', '', 0.0)||('152', '', '', '', 0.0)||('children', 'noun', 'C0008059', ['aggp'], 0.0)||('2', '', '', '', 0.0)||('years', 'noun', 'C0439234', ['tmco'], 0.0)||('and', '', '', '', 0.0)||('older', '', '', '', 0.0)||('with', '', '', '', 0.0)||('a', '', '', '', 0.0)||('history', 'noun', 'C0019664', ['ocdi'], 0.0)||('of', '', '', '', 0.0)||('at', '', '', '', 0.0)||('least', '', '', '', 0.0)||('two', 'adj', 'C0205448', ['qnco'], 0.0)||('episodes', 'noun', 'C0332189', ['tmco'], 0.0)||('of', '', '', '', 0.0)||('wheezing', 'noun', 'C0043144', ['sosy'], 0.0)||('presenting', 'noun', 'C0449450', ['idcn'], 0.0)||('to', '', '', '', 0.0)||('the', '', '', '', 0.0)||('emergency department', 'noun', 'C0562508', ['hcro', 'mnob'], 0.0)||('with', '', '', '', 0.0)||('an', '', '', '', 0.0)||('acute asthma exacerbation', '', '', '', 0.0)||('.', '', '', '', 0.0)||
('patients', 'noun', 'C0030705', ['podg'], 0.0)||('were', '', '', '', 0.0)||('randomly', '', '', '', 0.0)||('assigned', 'verb', 'C1516050', ['ftcn'], 0.0)||('to', '', '', '', 0.0)||('receive', 'verb', 'C1514756', ['qlco'], 0.0)||('standard doses', '', '', '', 0.0)||('of', '', '', '', 0.0)||('a beta', '', '', '', 0.0)||('-', '', '', '', 0.0)||('agonist', 'noun', 'C0243192', ['phsu'], 0.0)||('(', '', '', '', 0.0)||('albuterol', 'noun', 'C0001927', ['orch', 'phsu'], 0.0)||(')', '', '', '', 0.0)||('by', '', '', '', 0.0)||('an', '', '', '', 0.0)||('metered - dose inhaler', '', '', '', 0.0)||('with', '', '', '', 0.0)||('spacer', 'noun', 'C0221874', ['medd'], 0.0)||('or', '', '', '', 0.0)||('by', '', '', '', 0.0)||('a', '', '', '', 0.0)||('nebulizer', '', '', '', 0.0)||('.', '', '', '', 0.0)||
('dosing', '', '', '', 0.0)||('intervals', '', '', '', 0.0)||('and', '', '', '', 0.0)||('the', '', '', '', 0.0)||('use', 'noun', 'C0042153', ['ftcn'], 0.0)||('of', '', '', '', 0.0)||('other', '', '', '', 0.0)||('medications', 'noun', 'C0013227', ['phsu'], 0.0)||('were', '', '', '', 0.0)||('determined', '', '', '', 0.0)||('by', '', '', '', 0.0)||('the', '', '', '', 0.0)||('treating', 'adj', 'C1522326', ['ftcn'], 0.0)||('physician', 'noun', 'C0031831', ['prog'], 0.0)||('.', '', '', '', 0.0)||
('baseline', 'noun', 'C0168634', ['bodm'], 0.0)||('characteristics', 'noun', 'C1521970', ['qlco'], 0.0)||('and', '', '', '', 0.0)||('asthma', 'noun', 'C0004096', ['dsyn'], 0.0)||('history', 'noun', 'C0019664', ['ocdi'], 0.0)||('were', '', '', '', 0.0)||('recorded', '', '', '', 0.0)||('.', '', '', '', 0.0)||
('asthma', 'noun', 'C0004096', ['dsyn'], 0.0)||('severity score', 'noun', 'C0457451', ['qnco'], 0.0)||(',', '', '', '', 0.0)||('peak expiratory flow rate', 'noun', 'C0030735', ['diap'], 0.0)||('in', '', '', '', 0.0)||('children', 'noun', 'C0008059', ['aggp'], 0.0)||('5', '', '', '', 0.0)||('years', 'noun', 'C0439234', ['tmco'], 0.0)||('or', '', '', '', 0.0)||('older', '', '', '', 0.0)||(',', '', '', '', 0.0)||('and', '', '', '', 0.0)||('oxygen saturation', 'noun', 'C0369768', ['moft'], 0.0)||('were', '', '', '', 0.0)||('determined', '', '', '', 0.0)||('at', '', '', '', 0.0)||('presentation', 'noun', 'C0449450', ['idcn'], 0.0)||('and', '', '', '', 0.0)||('before', '', '', '', 0.0)||('admission', 'noun', 'C0809949', ['hlca'], 0.0)||('or', '', '', '', 0.0)||('discharge', 'noun', 'C0012621', ['bdsu'], 0.0)||('.', '', '', '', 0.0)||
('the', '', '', '', 0.0)||('groups', 'noun', 'C0441833', ['idcn'], 0.0)||('did', '', '', '', 0.0)||('not', 'adv', 'C1518422', ['ftcn'], 0.0)||('differ', '', '', '', 0.0)||('in', '', '', '', 0.0)||('age', 'noun', 'C0001779', ['orga'], 0.0)||(',', '', '', '', 0.0)||('sex', 'noun', 'C0036864', ['bhvr'], 0.0)||(',', '', '', '', 0.0)||('ethnicity', 'noun', 'C0015031', ['popg'], 0.0)||(',', '', '', '', 0.0)||('age', 'noun', 'C0001779', ['orga'], 0.0)||('of', '', '', '', 0.0)||('onset', 'noun', 'C0332162', ['qlco'], 0.0)||('of', '', '', '', 0.0)||('asthma', 'noun', 'C0004096', ['dsyn'], 0.0)||(',', '', '', '', 0.0)||('or', '', '', '', 0.0)||('asthma', 'noun', 'C0004096', ['dsyn'], 0.0)||('severity score', 'noun', 'C0457451', ['qnco'], 0.0)||('at', '', '', '', 0.0)||('presentation', 'noun', 'C0449450', ['idcn'], 0.0)||('.', '', '', '', 0.0)||
('there', '', '', '', 0.0)||('were', '', '', '', 0.0)||('no', '', '', '', 0.0)||('significant', 'adj', 'C0750502', ['idcn'], 0.0)||('differences', '', '', '', 0.0)||('between', '', '', '', 0.0)||('the', '', '', '', 0.0)||('groups', 'noun', 'C0441833', ['idcn'], 0.0)||('in', '', '', '', 0.0)||('outcomes', 'noun', 'C0085415', ['qlco'], 0.0)||(',', '', '', '', 0.0)||('including', '', '', '', 0.0)||('mean', 'noun', 'C0444504', ['qnco'], 0.0)||('changes', '', '', '', 0.0)||('in', '', '', '', 0.0)||('respiratory rate', 'noun', 'C0231832', ['clna'], 0.0)||(',', '', '', '', 0.0)||('asthma', 'noun', 'C0004096', ['dsyn'], 0.0)||('severity score', 'noun', 'C0457451', ['qnco'], 0.0)||(',', '', '', '', 0.0)||('and', '', '', '', 0.0)||('peak expiratory flow rate', 'noun', 'C0030735', ['diap'], 0.0)||(',', '', '', '', 0.0)||('oxygen saturation', 'noun', 'C0369768', ['moft'], 0.0)||(',', '', '', '', 0.0)||('number', 'noun', 'C0449788', ['qnco'], 0.0)||('of', '', '', '', 0.0)||('treatments', 'noun', 'C0087111', ['topp'], 0.0)||('given', '', '', '', 0.0)||(',', '', '', '', 0.0)||('administration', 'noun', 'C0001554', ['ocac'], 0.0)||('of', '', '', '', 0.0)||('steroids', 'noun', 'C0038317', ['strd'], 0.0)||('in', '', '', '', 0.0)||('the', '', '', '', 0.0)||('emergency department', 'noun', 'C0562508', ['hcro', 'mnob'], 0.0)||(',', '', '', '', 0.0)||('and', '', '', '', 0.0)||('admission rate', '', '', '', 0.0)||('.', '', '', '', 0.0)||
('patients', 'noun', 'C0030705', ['podg'], 0.0)||('given', '', '', '', 0.0)||('mdis', '', '', '', 0.0)||('with', '', '', '', 0.0)||('spacers', 'noun', 'C0221874', ['medd'], 0.0)||('required', 'verb', 'C1514873', ['ftcn'], 0.0)||('shorter', '', '', '', 0.0)||('treatment times', '', '', '', 0.0)||('in', '', '', '', 0.0)||('the', '', '', '', 0.0)||('emergency department', 'noun', 'C0562508', ['hcro', 'mnob'], 0.0)||('(', '', '', '', 0.0)||('66', '', '', '', 0.0)||('minutes', 'noun', 'C0439232', ['tmco'], 0.0)||('vs', '', '', '', 0.0)||('103', '', '', '', 0.0)||('minutes', 'noun', 'C0439232', ['tmco'], 0.0)||(',', '', '', '', 0.0)||('p', '', '', '', 0.0)||('<', '', '', '', 0.0)||('.', '', '', '', 0.0)||('001', '', '', '', 0.0)||(')', '', '', '', 0.0)||('.', '', '', '', 0.0)||
('fewer', '', '', '', 0.0)||('patients', 'noun', 'C0030705', ['podg'], 0.0)||('in', '', '', '', 0.0)||('the', '', '', '', 0.0)||('spacer', 'noun', 'C0221874', ['medd'], 0.0)||('group', 'noun', 'C0441833', ['idcn'], 0.0)||('had', '', '', '', 0.0)||('episodes', 'noun', 'C0332189', ['tmco'], 0.0)||('of', '', '', '', 0.0)||('vomiting', 'noun', 'C0042963', ['sosy'], 0.0)||('in', '', '', '', 0.0)||('the', '', '', '', 0.0)||('emergency department', 'noun', 'C0562508', ['hcro', 'mnob'], 0.0)||('(', '', '', '', 0.0)||('9 %', '', '', '', 0.0)||('vs', '', '', '', 0.0)||('20 %', '', '', '', 0.0)||(',', '', '', '', 0.0)||('p', '', '', '', 0.0)||('<', '', '', '', 0.0)||('.', '', '', '', 0.0)||('04', '', '', '', 0.0)||(')', '', '', '', 0.0)||(',', '', '', '', 0.0)||('and', '', '', '', 0.0)||('patients', 'noun', 'C0030705', ['podg'], 0.0)||('in', '', '', '', 0.0)||('the', '', '', '', 0.0)||('nebulizer', '', '', '', 0.0)||('group', 'noun', 'C0441833', ['idcn'], 0.0)||('had', '', '', '', 0.0)||('a', '', '', '', 0.0)||('significantly', '', '', '', 0.0)||('greater', 'adj', 'C1704243', ['qnco'], 0.0)||('mean', 'noun', 'C0444504', ['qnco'], 0.0)||('percent', 'noun', 'C0439165', ['qnco'], 0.0)||('increase', 'noun', 'C0442805', ['ftcn'], 0.0)||('in', '', '', '', 0.0)||('heart rate', 'noun', 'C2041121', ['fndg'], 0.0)||('from', '', '', '', 0.0)||('baseline', 'noun', 'C0168634', ['bodm'], 0.0)||('to', '', '', '', 0.0)||('final', 'adj', 'C0205088', ['tmco'], 0.0)||('disposition', 'noun', 'C0743223', ['idcn'], 0.0)||('(', '', '', '', 0.0)||('15 %', '', '', '', 0.0)||('vs', '', '', '', 0.0)||('5 %', '', '', '', 0.0)||(',', '', '', '', 0.0)||('p', '', '', '', 0.0)||('<', '', '', '', 0.0)||('.', '', '', '', 0.0)||('001', '', '', '', 0.0)||(')', '', '', '', 0.0)||('.', '', '', '', 0.0)||
('these', '', '', '', 0.0)||('data', 'noun', 'C1511726', ['idcn'], 0.0)||('suggest', 'verb', 'C1705535', ['idcn'], 0.0)||('that', '', '', '', 0.0)||('mdis', '', '', '', 0.0)||('with', '', '', '', 0.0)||('spacers', 'noun', 'C0221874', ['medd'], 0.0)||('may', '', '', '', 0.0)||('be', '', '', '', 0.0)||('an', '', '', '', 0.0)||('effective', 'adj', 'C1704419', ['qlco'], 0.0)||('alternative', 'noun', 'C1523987', ['cnce'], 0.0)||('to', '', '', '', 0.0)||('nebulizers', 'noun', 'C0027524', ['medd'], 0.0)||('for', '', '', '', 0.0)||('the', '', '', '', 0.0)||('treatment', 'noun', 'C0039798', ['ftcn'], 0.0)||('of', '', '', '', 0.0)||('children', 'noun', 'C0008059', ['aggp'], 0.0)||('with', '', '', '', 0.0)||('acute asthma exacerbations', '', '', '', 0.0)||('in', '', '', '', 0.0)||('the', '', '', '', 0.0)||('emergency department', 'noun', 'C0562508', ['hcro', 'mnob'], 0.0)||('.', '', '', '', 0.0)||
