('the', '', '', '', 0.0)||('aims', 'noun', 'C1947946', ['idcn'], 0.0)||('of', '', '', '', 0.0)||('the', '', '', '', 0.0)||('study', 'noun', 'C0008976', ['resa'], 0.0)||('were', '', '', '', 0.0)||('to', '', '', '', 0.0)||('determine', '', '', '', 0.0)||(':', '', '', '', 0.0)||('1', '', '', '', 0.0)||(')', '', '', '', 0.0)||('how', '', '', '', 0.0)||('mucociliary', '', '', '', 0.0)||('activity', 'noun', 'C0441655', ['acty'], 0.0)||('in', '', '', '', 0.0)||('acute', 'adj', 'C0205178', ['tmco'], 0.0)||('bacterial', 'adj', 'C0521009', ['qlco'], 0.0)||('rhinosinusitis', 'noun', 'C0948780', ['dsyn'], 0.0)||('is', '', '', '', 0.0)||('affected', 'verb', 'C0392760', ['ftcn'], 0.0)||(';', '', '', '', 0.0)||
('2', '', '', '', 0.0)||(')', '', '', '', 0.0)||('how', '', '', '', 0.0)||('this', '', '', '', 0.0)||('activity', 'noun', 'C0441655', ['acty'], 0.0)||('is', '', '', '', 0.0)||('changed', 'verb', 'C0392747', ['ftcn'], 0.0)||('by', '', '', '', 0.0)||('therapy', 'noun', 'C0039798', ['ftcn'], 0.0)||(';', '', '', '', 0.0)||
('3', '', '', '', 0.0)||(')', '', '', '', 0.0)||('the', '', '', '', 0.0)||('effects', '', '', '', 0.0)||('of', '', '', '', 0.0)||('topical', 'adj', 'C0205530', ['spco'], 0.0)||('agents', '', '', '', 0.0)||('on', '', '', '', 0.0)||('mucociliary clearance', 'noun', 'C0026687', ['clna'], 0.0)||(',', '', '', '', 0.0)||('and', '', '', '', 0.0)||('4', '', '', '', 0.0)||(')', '', '', '', 0.0)||('the', '', '', '', 0.0)||('most', '', '', '', 0.0)||('appropriate', 'adj', 'C1548787', ['qlco'], 0.0)||('topical', 'adj', 'C0205530', ['spco'], 0.0)||('agent', 'noun', 'C0450442', ['chvf'], 0.0)||('(', '', '', '', 0.0)||('s )', '', '', '', 0.0)||('to', '', '', '', 0.0)||('be', '', '', '', 0.0)||('used', '', '', '', 0.0)||('in', '', '', '', 0.0)||('the', '', '', '', 0.0)||('therapy', 'noun', 'C0039798', ['ftcn'], 0.0)||('of', '', '', '', 0.0)||('sinusitis', 'noun', 'C0037199', ['dsyn'], 0.0)||('.', '', '', '', 0.0)||
('five', '', 'C0205451', ['qnco'], 0.0)||('groups', 'noun', 'C0441833', ['idcn'], 0.0)||('of', '', '', '', 0.0)||('patients', 'noun', 'C0030705', ['podg'], 0.0)||('with', '', '', '', 0.0)||('acute', 'adj', 'C0205178', ['tmco'], 0.0)||('bacterial', 'adj', 'C0521009', ['qlco'], 0.0)||('rhinosinusitis', 'noun', 'C0948780', ['dsyn'], 0.0)||('were', '', '', '', 0.0)||('studied', '', '', '', 0.0)||('prospectively', '', '', '', 0.0)||('.', '', '', '', 0.0)||
('all', '', '', '', 0.0)||('patients', 'noun', 'C0030705', ['podg'], 0.0)||('had', '', '', '', 0.0)||('500', '', '', '', 0.0)||('mg', '', '', '', 0.0)||('oral', 'adj', 'C0442027', ['spco'], 0.0)||('amoxicillin', 'noun', 'C0002645', ['antb', 'orch'], 0.0)||('and', '', '', '', 0.0)||('125', '', '', '', 0.0)||('mg', '', '', '', 0.0)||('oral', 'adj', 'C0442027', ['spco'], 0.0)||('clavulanic acid', 'noun', 'C0055860', ['antb', 'orch'], 0.0)||('preparations', '', '', '', 0.0)||('given', '', '', '', 0.0)||('three', '', 'C0205449', ['qnco'], 0.0)||('times', 'noun', 'C1632851', ['qnco'], 0.0)||('daily', 'adv', 'C0332173', ['tmco'], 0.0)||('for', '', '', '', 0.0)||('3', '', '', '', 0.0)||('weeks', 'noun', 'C0439230', ['tmco'], 0.0)||('.', '', '', '', 0.0)||
('according to', '', '', '', 0.0)||('the', '', '', '', 0.0)||('topical', 'adj', 'C0205530', ['spco'], 0.0)||('agent', 'noun', 'C0450442', ['chvf'], 0.0)||('applications', '', '', '', 0.0)||(',', '', '', '', 0.0)||('these', '', '', '', 0.0)||('groups', 'noun', 'C0441833', ['idcn'], 0.0)||('included', '', '', '', 0.0)||(':', '', '', '', 0.0)||('group', 'noun', 'C0441833', ['idcn'], 0.0)||('i', '', '', '', 0.0)||('(', '', '', '', 0.0)||('n =', '', '', '', 0.0)||('12', '', '', '', 0.0)||(')', '', '', '', 0.0)||(',', '', '', '', 0.0)||('no', '', '', '', 0.0)||('topical', 'adj', 'C0205530', ['spco'], 0.0)||('treatment', 'noun', 'C0039798', ['ftcn'], 0.0)||('was', '', '', '', 0.0)||('given', '', '', '', 0.0)||(';', '', '', '', 0.0)||
('group', 'noun', 'C0441833', ['idcn'], 0.0)||('ii', '', '', '', 0.0)||('(', '', '', '', 0.0)||('n =', '', '', '', 0.0)||('14', '', '', '', 0.0)||(')', '', '', '', 0.0)||(',', '', '', '', 0.0)||('two', 'noun', 'C0205448', ['qnco'], 0.0)||('puffs', 'noun', 'C1533107', ['qnco'], 0.0)||('for', '', '', '', 0.0)||('each', '', '', '', 0.0)||('nostril', 'noun', 'C0595944', ['bsoj'], 0.0)||('once', '', '', '', 0.0)||('daily', 'adj', 'C0332173', ['tmco'], 0.0)||('of', '', '', '', 0.0)||('50', '', '', '', 0.0)||('microg', 'noun', 'C0439211', ['qnco'], 0.0)||('/', '', '', '', 0.0)||('100', '', '', '', 0.0)||('ml', '', '', '', 0.0)||('fluticasone', 'noun', 'C0082607', ['orch', 'phsu'], 0.0)||('propionate', 'noun', 'C0033474', ['orch'], 0.0)||('was', '', '', '', 0.0)||('given', '', '', '', 0.0)||(';', '', '', '', 0.0)||
('group', 'noun', 'C0441833', ['idcn'], 0.0)||('iii', 'noun', 'C0439070', ['inpr'], 0.0)||('(', '', '', '', 0.0)||('n =', '', '', '', 0.0)||('9', '', '', '', 0.0)||(')', '', '', '', 0.0)||(',', '', '', '', 0.0)||('one', 'noun', 'C0205447', ['qnco'], 0.0)||('puff', 'noun', 'C1533107', ['qnco'], 0.0)||('for', '', '', '', 0.0)||('each', '', '', '', 0.0)||('nostril', 'noun', 'C0595944', ['bsoj'], 0.0)||('three', '', 'C0205449', ['qnco'], 0.0)||('times', '', '', '', 0.0)||('daily', 'adj', 'C0332173', ['tmco'], 0.0)||('of', '', '', '', 0.0)||('0 . 05 %', '', '', '', 0.0)||('oxymetazoline', 'noun', 'C0030071', ['orch', 'phsu'], 0.0)||('was', '', '', '', 0.0)||('given', '', '', '', 0.0)||(';', '', '', '', 0.0)||
('group', 'noun', 'C0441833', ['idcn'], 0.0)||('iv', '', '', '', 0.0)||('(', '', '', '', 0.0)||('n =', '', '', '', 0.0)||('12', '', '', '', 0.0)||(')', '', '', '', 0.0)||(',', '', '', '', 0.0)||('3 %', '', '', '', 0.0)||('sodium chloride', 'noun', 'C0037494', ['bacs', 'inch', 'phsu'], 0.0)||('(', '', '', '', 0.0)||('nacl', 'noun', 'C0037494', ['bacs', 'inch', 'phsu'], 0.0)||(')', '', '', '', 0.0)||('(', '', '', '', 0.0)||('buffered', 'verb', 'C0006353', ['irda', 'phsu'], 0.0)||('to', '', '', '', 0.0)||('ph', 'noun', 'C0020283', ['qnco'], 0.0)||('6 . 5', '', '', '', 0.0)||('-', '', '', '', 0.0)||('7', '', '', '', 0.0)||('at', '', '', '', 0.0)||('room temperature', 'adj', 'C1822393', ['fndg'], 0.0)||(')', '', '', '', 0.0)||('was', '', '', '', 0.0)||('given', '', '', '', 0.0)||(';', '', '', '', 0.0)||
('and', '', '', '', 0.0)||('group', 'noun', 'C0441833', ['idcn'], 0.0)||('v (', '', '', '', 0.0)||('n =', '', '', '', 0.0)||('13', '', '', '', 0.0)||(')', '', '', '', 0.0)||(',', '', '', '', 0.0)||('10', '', '', '', 0.0)||('-', '', '', '', 0.0)||('ml', '', '', '', 0.0)||('solutions', 'noun', 'C0037633', ['sbst'], 0.0)||('of', '', '', '', 0.0)||('0 . 9 %', '', '', '', 0.0)||('nacl', 'noun', 'C0037494', ['bacs', 'inch', 'phsu'], 0.0)||('(', '', '', '', 0.0)||('buffered', 'verb', 'C0006353', ['irda', 'phsu'], 0.0)||('to', '', '', '', 0.0)||('ph', 'noun', 'C0020283', ['qnco'], 0.0)||('6 . 5', '', '', '', 0.0)||('-', '', '', '', 0.0)||('-', '', '', '', 0.0)||('7', '', '', '', 0.0)||('at', '', '', '', 0.0)||('room temperature', 'adj', 'C1822393', ['fndg'], 0.0)||(')', '', '', '', 0.0)||('were', '', '', '', 0.0)||('given', '', '', '', 0.0)||('for', '', '', '', 0.0)||('nasal', 'adj', 'C0028429', ['bpoc'], 0.0)||('irrigations', 'noun', 'C0022100', ['topp'], 0.0)||('three', '', 'C0205449', ['qnco'], 0.0)||('times', '', '', '', 0.0)||('daily', 'adv', 'C0332173', ['tmco'], 0.0)||('.', '', '', '', 0.0)||
('all', '', '', '', 0.0)||('patients', 'noun', 'C0030705', ['podg'], 0.0)||('had', '', '', '', 0.0)||('medication', '', '', '', 0.0)||('for', '', '', '', 0.0)||('3', '', '', '', 0.0)||('weeks', 'noun', 'C0439230', ['tmco'], 0.0)||('and', '', '', '', 0.0)||('were', '', '', '', 0.0)||('controlled', 'verb', 'C2587213', ['ftcn'], 0.0)||('each', '', '', '', 0.0)||('week', 'noun', 'C0439230', ['tmco'], 0.0)||('.', '', '', '', 0.0)||
('the', '', '', '', 0.0)||('saccharin', 'noun', 'C0036023', ['orch', 'phsu'], 0.0)||('method', 'noun', 'C0025663', ['inpr'], 0.0)||('was', '', '', '', 0.0)||('used', '', '', '', 0.0)||('to', '', '', '', 0.0)||('measure', 'verb', 'C0079809', ['qnco'], 0.0)||('nasal', 'adj', 'C0028429', ['bpoc'], 0.0)||('mucociliary clearance', 'noun', 'C0026687', ['clna'], 0.0)||('.', '', '', '', 0.0)||
('to', '', '', '', 0.0)||('investigate', '', '', '', 0.0)||('the', '', '', '', 0.0)||('early', 'adj', 'C1279919', ['tmco'], 0.0)||('effects', '', '', '', 0.0)||('of', '', '', '', 0.0)||('the', '', '', '', 0.0)||('topical', 'adj', 'C0205530', ['spco'], 0.0)||('agents', '', '', '', 0.0)||('for', '', '', '', 0.0)||('groups', 'noun', 'C0441833', ['idcn'], 0.0)||('ii', '', '', '', 0.0)||('to', '', '', '', 0.0)||('v', '', '', '', 0.0)||(',', '', '', '', 0.0)||('an', '', '', '', 0.0)||('additional', 'adj', 'C1524062', ['ftcn'], 0.0)||('test', 'noun', 'C0022885', ['lbpr'], 0.0)||('was', '', '', '', 0.0)||('repeated', 'verb', 'C0205341', ['ftcn'], 0.0)||('20', '', '', '', 0.0)||('minutes', 'noun', 'C0439232', ['tmco'], 0.0)||('after', '', '', '', 0.0)||('the', '', '', '', 0.0)||('basal', 'adj', 'C0205112', ['spco'], 0.0)||('mucociliary clearance', 'noun', 'C0026687', ['clna'], 0.0)||('recordings', '', '', '', 0.0)||('.', '', '', '', 0.0)||
('the', '', '', '', 0.0)||('test', 'noun', 'C0022885', ['lbpr'], 0.0)||('was', '', '', '', 0.0)||('repeated', 'verb', 'C0205341', ['ftcn'], 0.0)||('in', '', '', '', 0.0)||('the', '', '', '', 0.0)||('first', 'noun', 'C0205435', ['qnco'], 0.0)||(',', '', '', '', 0.0)||('second', 'adv', 'C0205436', ['qnco'], 0.0)||(',', '', '', '', 0.0)||('and', '', '', '', 0.0)||('third', 'adj', 'C0205437', ['qnco'], 0.0)||('weeks', 'noun', 'C0439230', ['tmco'], 0.0)||('of', '', '', '', 0.0)||('the', '', '', '', 0.0)||('treatment', 'noun', 'C0039798', ['ftcn'], 0.0)||('.', '', '', '', 0.0)||
('the', '', '', '', 0.0)||('mucociliary clearance', 'noun', 'C0026687', ['clna'], 0.0)||('was', '', '', '', 0.0)||('significantly', '', '', '', 0.0)||('slower', '', '', '', 0.0)||('in', '', '', '', 0.0)||('the', '', '', '', 0.0)||('acute', 'adj', 'C0205178', ['tmco'], 0.0)||('bacterial', 'adj', 'C0521009', ['qlco'], 0.0)||('rhinosinusitis', 'noun', 'C0948780', ['dsyn'], 0.0)||('group', 'noun', 'C0441833', ['idcn'], 0.0)||('than', '', '', '', 0.0)||('in', '', '', '', 0.0)||('the', '', '', '', 0.0)||('control group', 'noun', 'C0009932', ['grup'], 0.0)||('.', '', '', '', 0.0)||
('there', '', '', '', 0.0)||('was', '', '', '', 0.0)||('no', '', '', '', 0.0)||('significant', 'adj', 'C0750502', ['idcn'], 0.0)||('difference', 'noun', 'C1705242', ['qlco'], 0.0)||('between', '', '', '', 0.0)||('the', '', '', '', 0.0)||('basal', 'adj', 'C0205112', ['spco'], 0.0)||('mucociliary clearance', 'noun', 'C0026687', ['clna'], 0.0)||('and', '', '', '', 0.0)||('the', '', '', '', 0.0)||('20th', '', '', '', 0.0)||('minute', 'noun', 'C0439232', ['tmco'], 0.0)||('mucociliary clearance', 'noun', 'C0026687', ['clna'], 0.0)||('of', '', '', '', 0.0)||('the', '', '', '', 0.0)||('fluticasone', 'noun', 'C0082607', ['orch', 'phsu'], 0.0)||('propionate', 'noun', 'C0033474', ['orch'], 0.0)||('and', '', '', '', 0.0)||('0 . 9 %', '', '', '', 0.0)||('nacl', 'noun', 'C0037494', ['bacs', 'inch', 'phsu'], 0.0)||('solution', 'noun', 'C0037633', ['sbst'], 0.0)||('groups', 'noun', 'C0441833', ['idcn'], 0.0)||('.', '', '', '', 0.0)||
('the', '', '', '', 0.0)||('mean values', '', '', '', 0.0)||('of', '', '', '', 0.0)||('the', '', '', '', 0.0)||('basal', 'adj', 'C0205112', ['spco'], 0.0)||('and', '', '', '', 0.0)||('the', '', '', '', 0.0)||('20', '', '', '', 0.0)||('minute', 'noun', 'C0439232', ['tmco'], 0.0)||("' s", '', '', '', 0.0)||('mucociliary clearance', 'noun', 'C0026687', ['clna'], 0.0)||('of', '', '', '', 0.0)||('the', '', '', '', 0.0)||('oxymetazoline', 'noun', 'C0030071', ['orch', 'phsu'], 0.0)||('group', 'noun', 'C0441833', ['idcn'], 0.0)||('were', '', '', '', 0.0)||('24 . 72', '', '', '', 0.0)||('+', '', '', '', 0.0)||('/', '', '', '', 0.0)||('-', '', '', '', 0.0)||('6 . 16', '', '', '', 0.0)||('and', '', '', '', 0.0)||('15 . 5', '', '', '', 0.0)||('+', '', '', '', 0.0)||('/', '', '', '', 0.0)||('-', '', '', '', 0.0)||('7 . 45', '', '', '', 0.0)||('minutes', 'noun', 'C0439232', ['tmco'], 0.0)||(',', '', '', '', 0.0)||('respectively', '', '', '', 0.0)||(',', '', '', '', 0.0)||('which', '', '', '', 0.0)||('were', '', '', '', 0.0)||('statistically significant', 'adj', 'C0237881', ['qnco'], 0.0)||('.', '', '', '', 0.0)||
('the', '', '', '', 0.0)||('mean values', '', '', '', 0.0)||('of', '', '', '', 0.0)||('the', '', '', '', 0.0)||('basal', 'adj', 'C0205112', ['spco'], 0.0)||('and', '', '', '', 0.0)||('the', '', '', '', 0.0)||('20th', '', '', '', 0.0)||('minute', 'noun', 'C0439232', ['tmco'], 0.0)||('mucociliary clearance', 'noun', 'C0026687', ['clna'], 0.0)||('of', '', '', '', 0.0)||('the', '', '', '', 0.0)||('3 %', '', '', '', 0.0)||('nacl', 'noun', 'C0037494', ['bacs', 'inch', 'phsu'], 0.0)||('solution', 'noun', 'C0037633', ['sbst'], 0.0)||('groups', 'noun', 'C0441833', ['idcn'], 0.0)||('were', '', '', '', 0.0)||('19 . 45', '', '', '', 0.0)||('+', '', '', '', 0.0)||('/', '', '', '', 0.0)||('-', '', '', '', 0.0)||('9 . 35', '', '', '', 0.0)||('and', '', '', '', 0.0)||('15 . 45', '', '', '', 0.0)||('+', '', '', '', 0.0)||('/', '', '', '', 0.0)||('-', '', '', '', 0.0)||('8 . 20', '', '', '', 0.0)||('minutes', 'noun', 'C0439232', ['tmco'], 0.0)||(',', '', '', '', 0.0)||('respectively', '', '', '', 0.0)||(',', '', '', '', 0.0)||('which', '', '', '', 0.0)||('were', '', '', '', 0.0)||('also', '', '', '', 0.0)||('statistically significant', 'adj', 'C0237881', ['qnco'], 0.0)||('.', '', '', '', 0.0)||
('in', '', '', '', 0.0)||('the', '', '', '', 0.0)||('first', 'adj', 'C0205435', ['qnco'], 0.0)||('group', 'noun', 'C0441833', ['idcn'], 0.0)||('(', '', '', '', 0.0)||('without', '', '', '', 0.0)||('topical', 'adj', 'C0205530', ['spco'], 0.0)||('treatment', 'noun', 'C0039798', ['ftcn'], 0.0)||(')', '', '', '', 0.0)||(',', '', '', '', 0.0)||('the', '', '', '', 0.0)||('basal', 'adj', 'C0205112', ['spco'], 0.0)||('mucociliary clearance', 'noun', 'C0026687', ['clna'], 0.0)||('became', '', '', '', 0.0)||('significantly', '', '', '', 0.0)||('shorter', '', '', '', 0.0)||('after', '', '', '', 0.0)||('the', '', '', '', 0.0)||('second', 'adj', 'C0205436', ['qnco'], 0.0)||('week', 'noun', 'C0439230', ['tmco'], 0.0)||('of', '', '', '', 0.0)||('treatment', 'noun', 'C0039798', ['ftcn'], 0.0)||('.', '', '', '', 0.0)||
('in', '', '', '', 0.0)||('the', '', '', '', 0.0)||('first', 'noun', 'C0205435', ['qnco'], 0.0)||('and', '', '', '', 0.0)||('second', 'adj', 'C0205436', ['qnco'], 0.0)||('weeks', 'noun', 'C0439230', ['tmco'], 0.0)||('of', '', '', '', 0.0)||('the', '', '', '', 0.0)||('treatment', 'noun', 'C0039798', ['ftcn'], 0.0)||('of', '', '', '', 0.0)||('the', '', '', '', 0.0)||('oxymetazoline', 'noun', 'C0030071', ['orch', 'phsu'], 0.0)||('group', 'noun', 'C0441833', ['idcn'], 0.0)||(',', '', '', '', 0.0)||('the', '', '', '', 0.0)||('mucociliary clearance', 'noun', 'C0026687', ['clna'], 0.0)||('did', '', '', '', 0.0)||('not', 'adv', 'C1518422', ['ftcn'], 0.0)||('change', 'verb', 'C0392747', ['ftcn'], 0.0)||('significantly', '', '', '', 0.0)||(',', '', '', '', 0.0)||('but', '', '', '', 0.0)||('after', '', '', '', 0.0)||('the', '', '', '', 0.0)||('third', 'adj', 'C0205437', ['qnco'], 0.0)||('week', 'noun', 'C0439230', ['tmco'], 0.0)||('the', '', '', '', 0.0)||('mucociliary clearance', 'noun', 'C0026687', ['clna'], 0.0)||('was', '', '', '', 0.0)||('significantly', '', '', '', 0.0)||('shorter', '', '', '', 0.0)||('.', '', '', '', 0.0)||
('in', '', '', '', 0.0)||('the', '', '', '', 0.0)||('3 %', '', '', '', 0.0)||('nacl', 'noun', 'C0037494', ['bacs', 'inch', 'phsu'], 0.0)||('solution', 'noun', 'C0037633', ['sbst'], 0.0)||('group', 'noun', 'C0441833', ['idcn'], 0.0)||(',', '', '', '', 0.0)||('significant', 'adj', 'C0750502', ['idcn'], 0.0)||('improvement', '', '', '', 0.0)||('began', '', '', '', 0.0)||('from', '', '', '', 0.0)||('the', '', '', '', 0.0)||('first', 'adj', 'C0205435', ['qnco'], 0.0)||('week', 'noun', 'C0439230', ['tmco'], 0.0)||('and', '', '', '', 0.0)||('continued', 'verb', 'C0549178', ['idcn'], 0.0)||('through', '', '', '', 0.0)||('the', '', '', '', 0.0)||('third', 'adj', 'C0205437', ['qnco'], 0.0)||('week', 'noun', 'C0439230', ['tmco'], 0.0)||('.', '', '', '', 0.0)||
('comparing', '', '', '', 0.0)||('the', '', '', '', 0.0)||('basal', 'adj', 'C0205112', ['spco'], 0.0)||('and', '', '', '', 0.0)||('the', '', '', '', 0.0)||('third', 'adj', 'C0205437', ['qnco'], 0.0)||('weeks', 'noun', 'C0439230', ['tmco'], 0.0)||("'", '', '', '', 0.0)||('mucociliary clearance', 'noun', 'C0026687', ['clna'], 0.0)||('values', 'noun', 'C0042295', ['qlco'], 0.0)||('among', '', '', '', 0.0)||('the', '', '', '', 0.0)||('groups', 'noun', 'C0441833', ['idcn'], 0.0)||(',', '', '', '', 0.0)||('the', '', '', '', 0.0)||('oxymetazoline', 'noun', 'C0030071', ['orch', 'phsu'], 0.0)||('and', '', '', '', 0.0)||('3 %', '', '', '', 0.0)||('nacl', 'noun', 'C0037494', ['bacs', 'inch', 'phsu'], 0.0)||('solution', 'noun', 'C0037633', ['sbst'], 0.0)||('groups', 'noun', 'C0441833', ['idcn'], 0.0)||('revealed', 'verb', 'C0443289', ['qlco'], 0.0)||('more', '', '', '', 0.0)||('significant', 'adj', 'C0750502', ['idcn'], 0.0)||('improvement', '', '', '', 0.0)||('than', '', '', '', 0.0)||('the', '', '', '', 0.0)||('other', '', '', '', 0.0)||('groups', 'noun', 'C0441833', ['idcn'], 0.0)||(',', '', '', '', 0.0)||('but', '', '', '', 0.0)||('this', '', '', '', 0.0)||('improvement', '', '', '', 0.0)||('was', '', '', '', 0.0)||('not', 'adv', 'C1518422', ['ftcn'], 0.0)||('different', 'adj', 'C1705242', ['qlco'], 0.0)||('from', '', '', '', 0.0)||('the', '', '', '', 0.0)||('improvement', '', '', '', 0.0)||('of', '', '', '', 0.0)||('group', 'noun', 'C0441833', ['idcn'], 0.0)||('i', '', '', '', 0.0)||('.', '', '', '', 0.0)||
('there', '', '', '', 0.0)||('was', '', '', '', 0.0)||('still', '', '', '', 0.0)||('a', '', '', '', 0.0)||('statistically significant', 'adj', 'C0237881', ['qnco'], 0.0)||('difference', 'noun', 'C1705242', ['qlco'], 0.0)||('in', '', '', '', 0.0)||('the', '', '', '', 0.0)||('mucociliary clearance', 'noun', 'C0026687', ['clna'], 0.0)||('of', '', '', '', 0.0)||('the', '', '', '', 0.0)||('post - treatment', '', '', '', 0.0)||('sinusitis', 'noun', 'C0037199', ['dsyn'], 0.0)||('groups', 'verb', 'C0441833', ['idcn'], 0.0)||('from', '', '', '', 0.0)||('the', '', '', '', 0.0)||('control group', 'noun', 'C0009932', ['grup'], 0.0)||('.', '', '', '', 0.0)||
('the', '', '', '', 0.0)||('oxymetazoline', 'noun', 'C0030071', ['orch', 'phsu'], 0.0)||('and', '', '', '', 0.0)||('3 %', '', '', '', 0.0)||('nacl', 'noun', 'C0037494', ['bacs', 'inch', 'phsu'], 0.0)||('solution', 'noun', 'C0037633', ['sbst'], 0.0)||('groups', 'noun', 'C0441833', ['idcn'], 0.0)||('seemed', '', '', '', 0.0)||('to', '', '', '', 0.0)||('be', '', '', '', 0.0)||('more', '', '', '', 0.0)||('effective', 'adj', 'C1704419', ['qlco'], 0.0)||('in', '', '', '', 0.0)||('mucociliary clearance', 'noun', 'C0026687', ['clna'], 0.0)||(',', '', '', '', 0.0)||('but', '', '', '', 0.0)||('there', '', '', '', 0.0)||('was', '', '', '', 0.0)||('no', '', '', '', 0.0)||('significant', 'adj', 'C0750502', ['idcn'], 0.0)||('difference', 'noun', 'C1705242', ['qlco'], 0.0)||('in', '', '', '', 0.0)||('improvement', '', '', '', 0.0)||('among', '', '', '', 0.0)||('the', '', '', '', 0.0)||('groups', 'noun', 'C0441833', ['idcn'], 0.0)||('.', '', '', '', 0.0)||
('the', '', '', '', 0.0)||('improvement', '', '', '', 0.0)||('of', '', '', '', 0.0)||('acute', 'adj', 'C0205178', ['tmco'], 0.0)||('bacterial', 'adj', 'C0521009', ['qlco'], 0.0)||('rhinosinusitis', 'noun', 'C0948780', ['dsyn'], 0.0)||('takes', '', '', '', 0.0)||('more', '', '', '', 0.0)||('than', '', '', '', 0.0)||('3', '', '', '', 0.0)||('weeks', 'noun', 'C0439230', ['tmco'], 0.0)||(',', '', '', '', 0.0)||('according to', '', '', '', 0.0)||('the', '', '', '', 0.0)||('mucociliary clearance', 'noun', 'C0026687', ['clna'], 0.0)||('values', 'noun', 'C0042295', ['qlco'], 0.0)||('of', '', '', '', 0.0)||('the', '', '', '', 0.0)||('groups', 'noun', 'C0441833', ['idcn'], 0.0)||('.', '', '', '', 0.0)||
