('two', 'adj', 'C0205448', ['qnco'], 0.0)||('trials', '', '', '', 0.0)||('investigated', '', '', '', 0.0)||('the', '', '', '', 0.0)||('efficacy', 'noun', 'C1707887', ['resa'], 0.0)||('of', '', '', '', 0.0)||('smt', '', '', '', 0.0)||('on', '', '', '', 0.0)||('tension - type headaches', '', '', '', 0.0)||('.', '', '', '', 0.0)||
('the', '', '', '', 0.0)||('first', 'noun', 'C0205435', ['qnco'], 0.0)||(',', '', '', '', 0.0)||('an', '', '', '', 0.0)||('rct', '', '', '', 0.0)||('with', '', '', '', 0.0)||('150', '', '', '', 0.0)||('patients', 'noun', 'C0030705', ['podg'], 0.0)||('with', '', '', '', 0.0)||('recurrent', 'adj', 'C0034897', ['phpr'], 0.0)||('headaches', 'noun', 'C0018681', ['sosy'], 0.0)||(',', '', '', '', 0.0)||('compared', 'adj', 'C1707455', ['acty'], 0.0)||('smt', '', '', '', 0.0)||('(', '', '', '', 0.0)||('2', '', '', '', 0.0)||('sessions', '', '', '', 0.0)||('per', '', '', '', 0.0)||('week', 'noun', 'C0439230', ['tmco'], 0.0)||(')', '', '', '', 0.0)||('with', '', '', '', 0.0)||('amitriptyline', 'noun', 'C0002600', ['orch', 'phsu'], 0.0)||('(', '', '', '', 0.0)||('10', '', '', '', 0.0)||('mg', '', '', '', 0.0)||('daily', 'adj', 'C0332173', ['tmco'], 0.0)||('week', 'noun', 'C0439230', ['tmco'], 0.0)||('1', '', '', '', 0.0)||(',', '', '', '', 0.0)||('20', '', '', '', 0.0)||('mg', '', '', '', 0.0)||('daily', 'adj', 'C0332173', ['tmco'], 0.0)||('week', 'noun', 'C0439230', ['tmco'], 0.0)||('2', '', '', '', 0.0)||(',', '', '', '', 0.0)||('then', 'adv', 'C1883708', ['tmco'], 0.0)||('30', '', '', '', 0.0)||('mg', '', '', '', 0.0)||('daily', 'adv', 'C0332173', ['tmco'], 0.0)||(')', '', '', '', 0.0)||('for', '', '', '', 0.0)||('6', '', '', '', 0.0)||('weeks', 'noun', 'C0439230', ['tmco'], 0.0)||('.', '', '', '', 0.0)||
('at', '', '', '', 0.0)||('the', '', '', '', 0.0)||('end', 'noun', 'C0444930', ['spco'], 0.0)||('of', '', '', '', 0.0)||('6', '', '', '', 0.0)||('weeks', 'noun', 'C0439230', ['tmco'], 0.0)||(',', '', '', '', 0.0)||('the', '', '', '', 0.0)||('smt', '', '', '', 0.0)||('group', 'noun', 'C0441833', ['idcn'], 0.0)||('reported', 'verb', 'C0684224', ['inpr'], 0.0)||('a', '', '', '', 0.0)||('nonsignificant', '', '', '', 0.0)||('trend', 'noun', 'C1521798', ['tmco'], 0.0)||('toward', '', '', '', 0.0)||('more', '', '', '', 0.0)||('headache', 'noun', 'C0018681', ['sosy'], 0.0)||('pain', 'noun', 'C0030193', ['sosy'], 0.0)||('(', '', '', '', 0.0)||('es', 'noun', 'C2699259', ['gngm'], 0.0)||('for', '', '', '', 0.0)||('smt', '', '', '', 0.0)||('vs', '', '', '', 0.0)||('amitriptyline', 'noun', 'C0002600', ['orch', 'phsu'], 0.0)||('=', '', '', '', 0.0)||('-', '', '', '', 0.0)||('0 . 4', '', '', '', 0.0)||(';', '', '', '', 0.0)||('95 %', '', '', '', 0.0)||('ci', 'noun', 'C1417638', ['gngm'], 0.0)||(',', '', '', '', 0.0)||('-', '', '', '', 0.0)||('0 . 8', '', '', '', 0.0)||('to', '', '', '', 0.0)||('0 . 0', '', '', '', 0.0)||(')', '', '', '', 0.0)||(',', '', '', '', 0.0)||('but', '', '', '', 0.0)||('fewer', '', '', '', 0.0)||('side effects', 'noun', 'C0001688', ['ftcn'], 0.0)||('.', '', '', '', 0.0)||
('they', '', '', '', 0.0)||('had', '', '', '', 0.0)||('similar', 'adj', 'C2348205', ['qlco'], 0.0)||('headache', 'noun', 'C0018681', ['sosy'], 0.0)||('frequency', 'noun', 'C0376249', ['qnco'], 0.0)||('and', '', '', '', 0.0)||('medication', '', '', '', 0.0)||('use', 'noun', 'C0042153', ['ftcn'], 0.0)||('.', '', '', '', 0.0)||
