('until', '', '', '', 0.0)||('operative', 'adj', 'C1882154', ['tmco'], 0.0)||('treatment', 'noun', 'C0039798', ['ftcn'], 0.0)||('involving', 'verb', 'C1314939', ['ftcn'], 0.0)||('the', '', '', '', 0.0)||('use', 'noun', 'C0042153', ['ftcn'], 0.0)||('of', '', '', '', 0.0)||('various', 'adj', 'C0440102', ['irda'], 0.0)||('implants', 'noun', 'C0021102', ['medd'], 0.0)||('was', '', '', '', 0.0)||('introduced', '', '', '', 0.0)||('in', '', '', '', 0.0)||('the', '', '', '', 0.0)||('1950s', 'noun', 'C0681754', ['tmco'], 0.0)||(',', '', '', '', 0.0)||('hip', 'noun', 'C0019552', ['bpoc'], 0.0)||('fractures', 'noun', 'C0016658', ['inpo'], 0.0)||('were', '', '', '', 0.0)||('managed', 'verb', 'C1273870', ['ocac'], 0.0)||('using', 'verb', 'C1524063', ['ftcn'], 0.0)||('conservative', '', '', '', 0.0)||('methods', 'noun', 'C0025663', ['inpr'], 0.0)||('based', 'verb', 'C1527178', ['ftcn'], 0.0)||('on', '', '', '', 0.0)||('traction', 'noun', 'C0040597', ['topp'], 0.0)||('and', '', '', '', 0.0)||('bed rest', 'noun', 'C0004910', ['topp'], 0.0)||('.', '', '', '', 0.0)||
('to', '', '', '', 0.0)||('compare', 'verb', 'C1707455', ['acty'], 0.0)||('conservative', '', '', '', 0.0)||('with', '', '', '', 0.0)||('operative', 'adj', 'C1882154', ['tmco'], 0.0)||('treatment', 'noun', 'C0039798', ['ftcn'], 0.0)||('for', '', '', '', 0.0)||('fractures', 'noun', 'C0016658', ['inpo'], 0.0)||('of', '', '', '', 0.0)||('the', '', '', '', 0.0)||('proximal', 'adj', 'C0205107', ['spco'], 0.0)||('femur', 'noun', 'C0015811', ['bpoc'], 0.0)||('(', '', '', '', 0.0)||('hip', 'noun', 'C0019552', ['bpoc'], 0.0)||(')', '', '', '', 0.0)||('in', '', '', '', 0.0)||('adults', 'noun', 'C0001675', ['aggp'], 0.0)||('.', '', '', '', 0.0)||
('we', '', '', '', 0.0)||('searched', 'verb', 'C1706202', ['acty'], 0.0)||('the', '', '', '', 0.0)||('cochrane', '', '', '', 0.0)||('musculoskeletal', 'adj', 'C0497254', ['ftcn'], 0.0)||('injuries', 'noun', 'C0175677', ['inpo'], 0.0)||('group', 'noun', 'C0441833', ['idcn'], 0.0)||('trials', '', '', '', 0.0)||('register', '', '', '', 0.0)||('and', '', '', '', 0.0)||('bibliographies', '', '', '', 0.0)||('of', '', '', '', 0.0)||('published', 'adj', 'C0034037', ['ocac'], 0.0)||('papers', 'noun', 'C0030351', ['mnob'], 0.0)||(',', '', '', '', 0.0)||('and', '', '', '', 0.0)||('contacted', '', '', '', 0.0)||('trialists', '', '', '', 0.0)||('.', '', '', '', 0.0)||
('date', 'noun', 'C0011008', ['tmco'], 0.0)||('of', '', '', '', 0.0)||('the', '', '', '', 0.0)||('most', '', '', '', 0.0)||('recent', 'adj', 'C0332185', ['tmco'], 0.0)||('search', 'noun', 'C1552603', ['idcn'], 0.0)||(':', '', '', '', 0.0)||('august', '', '', '', 0.0)||('1999', '', '', '', 0.0)||('.', '', '', '', 0.0)||
('randomised', '', '', '', 0.0)||('and', '', '', '', 0.0)||('quasi - randomised', '', '', '', 0.0)||('trials', '', '', '', 0.0)||('comparing', '', '', '', 0.0)||('these', '', '', '', 0.0)||('two', 'adj', 'C0205448', ['qnco'], 0.0)||('treatment', 'noun', 'C0039798', ['ftcn'], 0.0)||('methods', 'noun', 'C0025663', ['inpr'], 0.0)||('in', '', '', '', 0.0)||('adults', 'noun', 'C0001675', ['aggp'], 0.0)||('with', '', '', '', 0.0)||('hip', 'noun', 'C0019552', ['bpoc'], 0.0)||('fracture', 'noun', 'C0016658', ['inpo'], 0.0)||('.', '', '', '', 0.0)||
('outcomes', 'noun', 'C0085415', ['qlco'], 0.0)||('sought', '', '', '', 0.0)||('fell', '', '', '', 0.0)||('into', '', '', '', 0.0)||('four', '', 'C0205450', ['qnco'], 0.0)||('categories', 'noun', 'C0683312', ['inpr'], 0.0)||(':', '', '', '', 0.0)||('a', '', '', '', 0.0)||(')', '', '', '', 0.0)||('fracture', 'verb', 'C0016658', ['inpo'], 0.0)||('fixation', 'noun', 'C0185023', ['topp'], 0.0)||('complications', 'noun', 'C0009566', ['patf'], 0.0)||(',', '', '', '', 0.0)||('b', '', '', '', 0.0)||(')', '', '', '', 0.0)||('post - operative', '', '', '', 0.0)||('or', '', '', '', 0.0)||('clinical', 'adj', 'C0205210', ['qlco'], 0.0)||('complications', 'noun', 'C0009566', ['patf'], 0.0)||(',', '', '', '', 0.0)||('c', '', '', '', 0.0)||(')', '', '', '', 0.0)||('anatomical', 'adj', 'C0002808', ['bmod'], 0.0)||('restoration', 'noun', 'C0449982', ['inpr'], 0.0)||('and', '', '', '', 0.0)||('d )', '', '', '', 0.0)||('final', 'adj', 'C0205088', ['tmco'], 0.0)||('outcome', 'noun', 'C1274040', ['ftcn'], 0.0)||('measures', 'noun', 'C0079809', ['qnco'], 0.0)||('including', '', '', '', 0.0)||('mortality', 'noun', 'C0026565', ['qnco'], 0.0)||('.', '', '', '', 0.0)||
('two', 'noun', 'C0205448', ['qnco'], 0.0)||('reviewers', '', '', '', 0.0)||('independently', '', '', '', 0.0)||('assessed', 'adj', 'C1516048', ['acty'], 0.0)||('trial', 'noun', 'C0008976', ['resa'], 0.0)||('quality', 'noun', 'C0332306', ['qlco'], 0.0)||(',', '', '', '', 0.0)||('by', '', '', '', 0.0)||('use', 'noun', 'C0042153', ['ftcn'], 0.0)||('of', '', '', '', 0.0)||('an', '', '', '', 0.0)||('twelve', '', 'C0205458', ['qnco'], 0.0)||('item', 'noun', 'C1551338', ['enty'], 0.0)||('scale', 'noun', 'C0175659', ['medd'], 0.0)||(',', '', '', '', 0.0)||('and', '', '', '', 0.0)||('extracted', 'adj', 'C0185115', ['topp'], 0.0)||('data', 'noun', 'C1511726', ['idcn'], 0.0)||('.', '', '', '', 0.0)||
('additional', 'adj', 'C1524062', ['ftcn'], 0.0)||('information', 'noun', 'C1533716', ['idcn'], 0.0)||('was', '', '', '', 0.0)||('sought', '', '', '', 0.0)||('from', '', '', '', 0.0)||('trialists', '', '', '', 0.0)||('.', '', '', '', 0.0)||
('after', '', '', '', 0.0)||('grouping', 'noun', 'C1522242', ['ftcn'], 0.0)||('by', '', '', '', 0.0)||('fracture', 'noun', 'C0016658', ['inpo'], 0.0)||('type', 'noun', 'C0332307', ['qlco'], 0.0)||(',', '', '', '', 0.0)||('comparable', '', '', '', 0.0)||('groups', 'noun', 'C0441833', ['idcn'], 0.0)||('of', '', '', '', 0.0)||('trials', '', '', '', 0.0)||('were', '', '', '', 0.0)||('subgrouped', '', '', '', 0.0)||('by', '', '', '', 0.0)||('implant', 'noun', 'C0021102', ['medd'], 0.0)||('type', 'noun', 'C0332307', ['qlco'], 0.0)||('and', '', '', '', 0.0)||('where', '', '', '', 0.0)||('appropriate', 'adj', 'C1548787', ['qlco'], 0.0)||(',', '', '', '', 0.0)||('data', 'noun', 'C1511726', ['idcn'], 0.0)||('were', '', '', '', 0.0)||('pooled', 'verb', 'C1709595', ['cnce'], 0.0)||('using', 'verb', 'C1524063', ['ftcn'], 0.0)||('the', '', '', '', 0.0)||('fixed effects model', '', '', '', 0.0)||('.', '', '', '', 0.0)||
('the', '', '', '', 0.0)||('five', '', 'C0205451', ['qnco'], 0.0)||('randomised', '', '', '', 0.0)||('trials', '', '', '', 0.0)||('identified', 'verb', 'C0205396', ['qlco'], 0.0)||('involved', 'verb', 'C1314939', ['ftcn'], 0.0)||('only', '', '', '', 0.0)||('425', '', '', '', 0.0)||('elderly', 'adj', 'C0001792', ['popg'], 0.0)||('patients', 'noun', 'C0030705', ['podg'], 0.0)||('.', '', '', '', 0.0)||
('one', 'noun', 'C0205447', ['qnco'], 0.0)||('small', 'adj', 'C0700321', ['qnco'], 0.0)||('and', '', '', '', 0.0)||('potentially', '', '', '', 0.0)||('biased', '', '', '', 0.0)||('trial', 'noun', 'C0008976', ['resa'], 0.0)||('of', '', '', '', 0.0)||('23', '', '', '', 0.0)||('patients', 'noun', 'C0030705', ['podg'], 0.0)||('with', '', '', '', 0.0)||('undisplaced', 'adj', 'C0443336', ['qlco'], 0.0)||('intracapsular fracture', '', '', '', 0.0)||('showed', '', '', '', 0.0)||('a', '', '', '', 0.0)||('reduced', 'adj', 'C0392756', ['qlco'], 0.0)||('risk', 'noun', 'C0035647', ['qlco'], 0.0)||('of', '', '', '', 0.0)||('non - union', '', '', '', 0.0)||('for', '', '', '', 0.0)||('those', '', '', '', 0.0)||('fractures', 'noun', 'C0016658', ['inpo'], 0.0)||('treated', 'verb', 'C1522326', ['ftcn'], 0.0)||('operatively', '', '', '', 0.0)||('.', '', '', '', 0.0)||
('the', '', '', '', 0.0)||('four', '', 'C0205450', ['qnco'], 0.0)||('identified', 'adj', 'C0205396', ['qlco'], 0.0)||('studies', '', '', '', 0.0)||('on', '', '', '', 0.0)||('extracapsular', 'adj', 'C1517049', ['spco'], 0.0)||('fractures', 'noun', 'C0016658', ['inpo'], 0.0)||('tested', '', '', '', 0.0)||('a', '', '', '', 0.0)||('variety', 'noun', 'C1883525', ['cnce'], 0.0)||('of', '', '', '', 0.0)||('surgical', 'adj', 'C0543467', ['topp'], 0.0)||('techniques', 'noun', 'C0025664', ['inpr'], 0.0)||('and', '', '', '', 0.0)||('implant', 'noun', 'C0021102', ['medd'], 0.0)||('devices', 'noun', 'C0025080', ['medd'], 0.0)||('and', '', '', '', 0.0)||('only', '', '', '', 0.0)||('one', 'noun', 'C0205447', ['qnco'], 0.0)||('trial', 'noun', 'C0008976', ['resa'], 0.0)||('involving', 'verb', 'C1314939', ['ftcn'], 0.0)||('106', '', '', '', 0.0)||('patients', 'noun', 'C0030705', ['podg'], 0.0)||('can', '', '', '', 0.0)||('be', '', '', '', 0.0)||('considered', '', '', '', 0.0)||('to', '', '', '', 0.0)||('test', 'verb', 'C0022885', ['lbpr'], 0.0)||('current', 'adj', 'C0521116', ['tmco'], 0.0)||('practice', 'noun', 'C0237607', ['menp'], 0.0)||('.', '', '', '', 0.0)||
('in', '', '', '', 0.0)||('this', '', '', '', 0.0)||('trial', 'noun', 'C0008976', ['resa'], 0.0)||(',', '', '', '', 0.0)||('no', '', '', '', 0.0)||('differences', '', '', '', 0.0)||('were', '', '', '', 0.0)||('found', '', '', '', 0.0)||('in', '', '', '', 0.0)||('medical', 'adj', 'C0205476', ['ftcn'], 0.0)||('complications', 'noun', 'C0009566', ['patf'], 0.0)||(',', '', '', '', 0.0)||('mortality', 'noun', 'C0026565', ['qnco'], 0.0)||('and', '', '', '', 0.0)||('long - term', '', '', '', 0.0)||('pain', 'noun', 'C0030193', ['sosy'], 0.0)||('.', '', '', '', 0.0)||
('however', '', '', '', 0.0)||(',', '', '', '', 0.0)||('operative', 'adj', 'C1882154', ['tmco'], 0.0)||('treatment', 'noun', 'C0039798', ['ftcn'], 0.0)||('was', '', '', '', 0.0)||('more', '', '', '', 0.0)||('likely', 'adv', 'C0332148', ['qlco'], 0.0)||('to', '', '', '', 0.0)||('result', 'verb', 'C1274040', ['ftcn'], 0.0)||('in', '', '', '', 0.0)||('the', '', '', '', 0.0)||('fracture', 'noun', 'C0016658', ['inpo'], 0.0)||('healing', 'noun', 'C0043240', ['orgf'], 0.0)||('without', '', '', '', 0.0)||('leg', 'noun', 'C1140621', ['blor'], 0.0)||('shortening', 'noun', 'C0441636', ['topp'], 0.0)||(',', '', '', '', 0.0)||('a', '', '', '', 0.0)||('shorter', '', '', '', 0.0)||('hospital', 'noun', 'C0019994', ['hcro', 'mnob'], 0.0)||('stay', '', '', '', 0.0)||('and', '', '', '', 0.0)||('a', '', '', '', 0.0)||('statistically', 'adv', 'C0038215', ['ocdi'], 0.0)||('non - significant', '', '', '', 0.0)||('increase', 'noun', 'C0442805', ['ftcn'], 0.0)||('in', '', '', '', 0.0)||('the', '', '', '', 0.0)||('return', 'noun', 'C0332156', ['qlco'], 0.0)||('of', '', '', '', 0.0)||('patients', 'noun', 'C0030705', ['podg'], 0.0)||('back', '', '', '', 0.0)||('to', '', '', '', 0.0)||('their', '', '', '', 0.0)||('original', 'adj', 'C0205313', ['idcn'], 0.0)||('residence', 'noun', 'C0237096', ['spco'], 0.0)||('.', '', '', '', 0.0)||
('given', '', '', '', 0.0)||('the', '', '', '', 0.0)||('lack', 'noun', 'C0332268', ['qlco'], 0.0)||('of', '', '', '', 0.0)||('available', 'adj', 'C0470187', ['ftcn'], 0.0)||('evidence', 'noun', 'C0332120', ['ftcn'], 0.0)||('to', '', '', '', 0.0)||('inform', 'verb', 'C0537670', ['aapp', 'imft', 'phsu'], 0.0)||('practice', 'noun', 'C0237607', ['menp'], 0.0)||('and', '', '', '', 0.0)||('the', '', '', '', 0.0)||('continued', 'adj', 'C0549178', ['idcn'], 0.0)||('variation', 'noun', 'C0205419', ['qlco'], 0.0)||('in practice', '', '', '', 0.0)||(',', '', '', '', 0.0)||('good', 'adj', 'C0205170', ['qlco'], 0.0)||('quality', 'noun', 'C0332306', ['qlco'], 0.0)||('randomised', '', '', '', 0.0)||('trials', '', '', '', 0.0)||('of', '', '', '', 0.0)||('operative', 'adj', 'C1882154', ['tmco'], 0.0)||('versus', '', '', '', 0.0)||('conservative treatment', '', '', '', 0.0)||('for', '', '', '', 0.0)||('undisplaced', 'adj', 'C0443336', ['qlco'], 0.0)||('intracapsular fractures', '', '', '', 0.0)||('are', '', '', '', 0.0)||('warranted', '', '', '', 0.0)||('.', '', '', '', 0.0)||
('the', '', '', '', 0.0)||('limited', 'adj', 'C0439801', ['ftcn'], 0.0)||('available', 'adj', 'C0470187', ['ftcn'], 0.0)||('evidence', 'noun', 'C0332120', ['ftcn'], 0.0)||('from', '', '', '', 0.0)||('randomised', '', '', '', 0.0)||('trials', '', '', '', 0.0)||('does', '', '', '', 0.0)||('not', 'adv', 'C1518422', ['ftcn'], 0.0)||('suggest', 'verb', 'C1705535', ['idcn'], 0.0)||('major', 'adj', 'C0205164', ['qlco'], 0.0)||('differences', '', '', '', 0.0)||('in', '', '', '', 0.0)||('outcome', 'noun', 'C1274040', ['ftcn'], 0.0)||('between', '', '', '', 0.0)||('conservative', '', '', '', 0.0)||('and', '', '', '', 0.0)||('operative', 'adj', 'C1882154', ['tmco'], 0.0)||('management', 'noun', 'C0001554', ['ocac'], 0.0)||('programmes', '', '', '', 0.0)||('for', '', '', '', 0.0)||('extracapsular', 'adj', 'C1517049', ['spco'], 0.0)||('femoral', 'adj', 'C0015811', ['bpoc'], 0.0)||('fractures', 'noun', 'C0016658', ['inpo'], 0.0)||(',', '', '', '', 0.0)||('but', '', '', '', 0.0)||('operative', 'adj', 'C1882154', ['tmco'], 0.0)||('treatment', 'noun', 'C0039798', ['ftcn'], 0.0)||('appears', '', '', '', 0.0)||('to', '', '', '', 0.0)||('be', '', '', '', 0.0)||('associated', 'verb', 'C0332281', ['qlco'], 0.0)||('with', '', '', '', 0.0)||('a', '', '', '', 0.0)||('reduced', 'adj', 'C0392756', ['qlco'], 0.0)||('length', 'noun', 'C1444754', ['qnco'], 0.0)||('of', '', '', '', 0.0)||('hospital', 'noun', 'C0019994', ['hcro', 'mnob'], 0.0)||('stay', '', '', '', 0.0)||('and', '', '', '', 0.0)||('improved', 'adj', 'C0184511', ['qlco'], 0.0)||('rehabilitation', 'noun', 'C0034991', ['topp'], 0.0)||('.', '', '', '', 0.0)||
('however', '', '', '', 0.0)||('these', '', '', '', 0.0)||('results', 'noun', 'C1274040', ['ftcn'], 0.0)||('are', '', '', '', 0.0)||('derived', 'verb', 'C1441547', ['qlco'], 0.0)||('mainly', '', '', '', 0.0)||('from', '', '', '', 0.0)||('one', 'noun', 'C0205447', ['qnco'], 0.0)||('study', 'noun', 'C0008976', ['resa'], 0.0)||('.', '', '', '', 0.0)||
('conservative treatment', '', '', '', 0.0)||('will', '', '', '', 0.0)||('be', '', '', '', 0.0)||('acceptable', 'adj', 'C1879533', ['qlco'], 0.0)||('where', '', '', '', 0.0)||('modern', '', '', '', 0.0)||('surgical', 'adj', 'C0543467', ['topp'], 0.0)||('facilities', 'noun', 'C1547538', ['idcn'], 0.0)||('are', '', '', '', 0.0)||('unavailable', 'adj', 'C0686905', ['ftcn'], 0.0)||(',', '', '', '', 0.0)||('and', '', '', '', 0.0)||('will', '', '', '', 0.0)||('result', 'verb', 'C1274040', ['ftcn'], 0.0)||('in', '', '', '', 0.0)||('a', '', '', '', 0.0)||('reduction', 'noun', 'C0301630', ['npop'], 0.0)||('in', '', '', '', 0.0)||('complications', 'noun', 'C0009566', ['patf'], 0.0)||('associated', 'verb', 'C0332281', ['qlco'], 0.0)||('with', '', '', '', 0.0)||('surgery', 'noun', 'C0038894', ['bmod'], 0.0)||(',', '', '', '', 0.0)||('but', '', '', '', 0.0)||('rehabilitation', 'noun', 'C0034991', ['topp'], 0.0)||('is', '', '', '', 0.0)||('likely', 'adv', 'C0332148', ['qlco'], 0.0)||('to', '', '', '', 0.0)||('be', '', '', '', 0.0)||('slower', '', '', '', 0.0)||('and', '', '', '', 0.0)||('limb deformity', 'noun', 'C0239337', ['anab'], 0.0)||('more', '', '', '', 0.0)||('common', 'adj', 'C0205214', ['qnco'], 0.0)||('.', '', '', '', 0.0)||
('although', '', '', '', 0.0)||('further', 'adv', 'C1517331', ['spco'], 0.0)||('randomised', '', '', '', 0.0)||('trials', '', '', '', 0.0)||('would', '', '', '', 0.0)||('provide', 'verb', 'C0359589', ['food'], 0.0)||('more', '', '', '', 0.0)||('robust', '', '', '', 0.0)||('data', 'noun', 'C1511726', ['idcn'], 0.0)||(',', '', '', '', 0.0)||('they', '', '', '', 0.0)||('may', '', '', '', 0.0)||('be', '', '', '', 0.0)||('difficult', 'adj', 'C0332218', ['qlco'], 0.0)||('to', '', '', '', 0.0)||('mount', 'noun', 'C1709078', ['medd'], 0.0)||('.', '', '', '', 0.0)||
