('randomized', 'verb', 'C0034656', ['resa'], 0.0)||(',', '', '', '', 0.0)||('controlled', 'adj', 'C2587213', ['ftcn'], 0.0)||('trials', '', '', '', 0.0)||('have', '', '', '', 0.0)||('shown', '', '', '', 0.0)||('that', '', '', '', 0.0)||('prophylactic', 'adj', 'C0355642', ['phsu'], 0.0)||('antibiotics', 'noun', 'C0003232', ['antb'], 0.0)||('are', '', '', '', 0.0)||('effective', 'adj', 'C1704419', ['qlco'], 0.0)||('in', '', '', '', 0.0)||('preventing', 'noun', 'C1292733', ['ftcn'], 0.0)||('surgical', 'adj', 'C0543467', ['topp'], 0.0)||('-', '', '', '', 0.0)||('wound infections', '', '', '', 0.0)||('.', '', '', '', 0.0)||
('however', '', '', '', 0.0)||(',', '', '', '', 0.0)||('it', '', '', '', 0.0)||('is', '', '', '', 0.0)||('uncertain', 'adj', 'C0087130', ['idcn'], 0.0)||('how', '', '', '', 0.0)||('the', '', '', '', 0.0)||('timing', 'noun', 'C0449243', ['tmco'], 0.0)||('of', '', '', '', 0.0)||('antibiotic', 'adj', 'C0003232', ['antb'], 0.0)||('administration', 'noun', 'C0001554', ['ocac'], 0.0)||('affects', 'verb', 'C0001721', ['menp'], 0.0)||('the', '', '', '', 0.0)||('risk', 'noun', 'C0035647', ['qlco'], 0.0)||('of', '', '', '', 0.0)||('surgical', 'adj', 'C0543467', ['topp'], 0.0)||('-', '', '', '', 0.0)||('wound infection', 'noun', 'C0043241', ['patf'], 0.0)||('in', '', '', '', 0.0)||('actual', 'adj', 'C0237400', ['qlco'], 0.0)||('clinical', 'adj', 'C0205210', ['qlco'], 0.0)||('practice', 'noun', 'C0237607', ['menp'], 0.0)||('.', '', '', '', 0.0)||
('we', '', '', '', 0.0)||('prospectively', '', '', '', 0.0)||('monitored', '', '', '', 0.0)||('the', '', '', '', 0.0)||('timing', 'noun', 'C0449243', ['tmco'], 0.0)||('of', '', '', '', 0.0)||('antibiotic', 'adj', 'C0003232', ['antb'], 0.0)||('prophylaxis', 'noun', 'C0033107', ['inpr'], 0.0)||('and', '', '', '', 0.0)||('studied', '', '', '', 0.0)||('the', '', '', '', 0.0)||('occurrence', 'noun', 'C0243132', ['qnco'], 0.0)||('of', '', '', '', 0.0)||('surgical', 'adj', 'C0543467', ['topp'], 0.0)||('-', '', '', '', 0.0)||('wound infections', '', '', '', 0.0)||('in', '', '', '', 0.0)||('2847', '', '', '', 0.0)||('patients', 'noun', 'C0030705', ['podg'], 0.0)||('undergoing', '', '', '', 0.0)||('elective', 'adj', 'C0439608', ['tmco'], 0.0)||('clean', 'adj', 'C1947930', ['acty'], 0.0)||('or', '', '', '', 0.0)||('"', '', '', '', 0.0)||('clean', 'verb', 'C1947930', ['acty'], 0.0)||('-', '', '', '', 0.0)||('contaminated', 'adj', 'C0205279', ['ftcn'], 0.0)||('"', '', '', '', 0.0)||('surgical', 'adj', 'C0543467', ['topp'], 0.0)||('procedures', 'noun', 'C0025664', ['inpr'], 0.0)||('at', '', '', '', 0.0)||('a', '', '', '', 0.0)||('large', 'adj', 'C0549177', ['qnco'], 0.0)||('community', 'noun', 'C0009462', ['geoa'], 0.0)||('hospital', 'noun', 'C0019994', ['hcro', 'mnob'], 0.0)||('.', '', '', '', 0.0)||
('the', '', '', '', 0.0)||('administration', 'noun', 'C0001554', ['ocac'], 0.0)||('of', '', '', '', 0.0)||('antibiotics', 'noun', 'C0003232', ['antb'], 0.0)||('2', '', '', '', 0.0)||('to', '', '', '', 0.0)||('24', '', '', '', 0.0)||('hours', 'noun', 'C0439227', ['tmco'], 0.0)||('before', '', '', '', 0.0)||('the', '', '', '', 0.0)||('surgical', 'adj', 'C0543467', ['topp'], 0.0)||('incision', 'noun', 'C0184898', ['topp'], 0.0)||('was', '', '', '', 0.0)||('defined', 'verb', 'C1704788', ['cnce'], 0.0)||('as', '', '', '', 0.0)||('early', 'adv', 'C1279919', ['tmco'], 0.0)||(';', '', '', '', 0.0)||
('that', '', '', '', 0.0)||('during', '', '', '', 0.0)||('the', '', '', '', 0.0)||('2', '', '', '', 0.0)||('hours', 'noun', 'C0439227', ['tmco'], 0.0)||('before', '', '', '', 0.0)||('the', '', '', '', 0.0)||('incision', 'noun', 'C0184898', ['topp'], 0.0)||(',', '', '', '', 0.0)||('as', '', '', '', 0.0)||('preoperative', 'adj', 'C0445204', ['tmco'], 0.0)||(';', '', '', '', 0.0)||
('that', '', '', '', 0.0)||('during', '', '', '', 0.0)||('the', '', '', '', 0.0)||('3', '', '', '', 0.0)||('hours', 'noun', 'C0439227', ['tmco'], 0.0)||('after', '', '', '', 0.0)||('the', '', '', '', 0.0)||('incision', 'noun', 'C0184898', ['topp'], 0.0)||(',', '', '', '', 0.0)||('as', '', '', '', 0.0)||('perioperative', 'adj', 'C1518988', ['tmco'], 0.0)||(';', '', '', '', 0.0)||
('and', '', '', '', 0.0)||('that', '', '', '', 0.0)||('more', '', '', '', 0.0)||('than', '', '', '', 0.0)||('3', '', '', '', 0.0)||('but', '', '', '', 0.0)||('less', '', '', '', 0.0)||('than', '', '', '', 0.0)||('24', '', '', '', 0.0)||('hours', 'noun', 'C0439227', ['tmco'], 0.0)||('after', '', '', '', 0.0)||('the', '', '', '', 0.0)||('incision', 'noun', 'C0184898', ['topp'], 0.0)||(',', '', '', '', 0.0)||('as', '', '', '', 0.0)||('postoperative', 'adj', 'C0032790', ['tmco'], 0.0)||('.', '', '', '', 0.0)||
('of', '', '', '', 0.0)||('the', '', '', '', 0.0)||('1708', '', '', '', 0.0)||('patients', 'noun', 'C0030705', ['podg'], 0.0)||('who', '', '', '', 0.0)||('received', 'verb', 'C1514756', ['qlco'], 0.0)||('the', '', '', '', 0.0)||('prophylactic', 'adj', 'C0355642', ['phsu'], 0.0)||('antibiotics', 'noun', 'C0003232', ['antb'], 0.0)||('preoperatively', '', '', '', 0.0)||(',', '', '', '', 0.0)||('10', '', '', '', 0.0)||('(', '', '', '', 0.0)||('0 . 6', '', '', '', 0.0)||('percent', 'noun', 'C0439165', ['qnco'], 0.0)||(')', '', '', '', 0.0)||('subsequently', '', '', '', 0.0)||('had', '', '', '', 0.0)||('surgical', 'adj', 'C0543467', ['topp'], 0.0)||('-', '', '', '', 0.0)||('wound infections', '', '', '', 0.0)||('.', '', '', '', 0.0)||
('of', '', '', '', 0.0)||('the', '', '', '', 0.0)||('282', '', '', '', 0.0)||('patients', 'noun', 'C0030705', ['podg'], 0.0)||('who', '', '', '', 0.0)||('received', 'verb', 'C1514756', ['qlco'], 0.0)||('the', '', '', '', 0.0)||('antibiotics', 'noun', 'C0003232', ['antb'], 0.0)||('perioperatively', '', '', '', 0.0)||(',', '', '', '', 0.0)||('4', '', '', '', 0.0)||('(', '', '', '', 0.0)||('1 . 4', '', '', '', 0.0)||('percent', 'noun', 'C0439165', ['qnco'], 0.0)||(')', '', '', '', 0.0)||('had', '', '', '', 0.0)||('such', '', '', '', 0.0)||('infections', 'noun', 'C0021311', ['dsyn'], 0.0)||('(', '', '', '', 0.0)||('p', '', '', '', 0.0)||('=', '', '', '', 0.0)||('0 . 12', '', '', '', 0.0)||(';', '', '', '', 0.0)||('relative risk', 'noun', 'C0242492', ['qnco'], 0.0)||('as', '', '', '', 0.0)||('compared', 'verb', 'C1707455', ['acty'], 0.0)||('with', '', '', '', 0.0)||('the', '', '', '', 0.0)||('preoperatively', '', '', '', 0.0)||('treated group', '', '', '', 0.0)||(',', '', '', '', 0.0)||('2 . 4', '', '', '', 0.0)||(';', '', '', '', 0.0)||('95', '', '', '', 0.0)||('percent', 'noun', 'C0439165', ['qnco'], 0.0)||('confidence interval', 'noun', 'C0009667', ['qnco'], 0.0)||(',', '', '', '', 0.0)||('0 . 9', '', '', '', 0.0)||('to', '', '', '', 0.0)||('7 . 9', '', '', '', 0.0)||(')', '', '', '', 0.0)||('.', '', '', '', 0.0)||
('of', '', '', '', 0.0)||('488', '', '', '', 0.0)||('patients', 'noun', 'C0030705', ['podg'], 0.0)||('who', '', '', '', 0.0)||('received', 'verb', 'C1514756', ['qlco'], 0.0)||('the', '', '', '', 0.0)||('antibiotics', 'noun', 'C0003232', ['antb'], 0.0)||('postoperatively', '', '', '', 0.0)||(',', '', '', '', 0.0)||('16', '', '', '', 0.0)||('(', '', '', '', 0.0)||('3 . 3', '', '', '', 0.0)||('percent', 'noun', 'C0439165', ['qnco'], 0.0)||(')', '', '', '', 0.0)||('had', '', '', '', 0.0)||('wound infections', '', '', '', 0.0)||('(', '', '', '', 0.0)||('p', '', '', '', 0.0)||('less', '', '', '', 0.0)||('than', '', '', '', 0.0)||('0 . 0001', '', '', '', 0.0)||(';', '', '', '', 0.0)||('relative risk', 'noun', 'C0242492', ['qnco'], 0.0)||(',', '', '', '', 0.0)||('5 . 8', '', '', '', 0.0)||(';', '', '', '', 0.0)||('95', '', '', '', 0.0)||('percent', 'noun', 'C0439165', ['qnco'], 0.0)||('confidence interval', 'noun', 'C0009667', ['qnco'], 0.0)||(',', '', '', '', 0.0)||('2 . 6', '', '', '', 0.0)||('to', '', '', '', 0.0)||('12 . 3', '', '', '', 0.0)||(')', '', '', '', 0.0)||('.', '', '', '', 0.0)||
('finally', '', '', '', 0.0)||(',', '', '', '', 0.0)||('of', '', '', '', 0.0)||('369', '', '', '', 0.0)||('patients', 'noun', 'C0030705', ['podg'], 0.0)||('who', '', '', '', 0.0)||('had', '', '', '', 0.0)||('antibiotics', 'noun', 'C0003232', ['antb'], 0.0)||('administered', 'verb', 'C1521801', ['ftcn'], 0.0)||('early', 'adv', 'C1279919', ['tmco'], 0.0)||(',', '', '', '', 0.0)||('14', '', '', '', 0.0)||('(', '', '', '', 0.0)||('3 . 8', '', '', '', 0.0)||('percent', 'noun', 'C0439165', ['qnco'], 0.0)||(')', '', '', '', 0.0)||('had', '', '', '', 0.0)||('wound infections', '', '', '', 0.0)||('(', '', '', '', 0.0)||('p', '', '', '', 0.0)||('less', '', '', '', 0.0)||('than', '', '', '', 0.0)||('0 . 0001', '', '', '', 0.0)||(';', '', '', '', 0.0)||('relative risk', 'noun', 'C0242492', ['qnco'], 0.0)||(',', '', '', '', 0.0)||('6 . 7', '', '', '', 0.0)||(';', '', '', '', 0.0)||('95', '', '', '', 0.0)||('percent', 'noun', 'C0439165', ['qnco'], 0.0)||('confidence interval', 'noun', 'C0009667', ['qnco'], 0.0)||(',', '', '', '', 0.0)||('2 . 9', '', '', '', 0.0)||('to', '', '', '', 0.0)||('14 . 7', '', '', '', 0.0)||(')', '', '', '', 0.0)||('.', '', '', '', 0.0)||
('stepwise logistic - regression analysis', '', '', '', 0.0)||('confirmed', 'verb', 'C0750484', ['idcn'], 0.0)||('that', '', '', '', 0.0)||('the', '', '', '', 0.0)||('administration', 'noun', 'C0001554', ['ocac'], 0.0)||('of', '', '', '', 0.0)||('antibiotics', 'noun', 'C0003232', ['antb'], 0.0)||('in', '', '', '', 0.0)||('the', '', '', '', 0.0)||('preoperative', 'adj', 'C0445204', ['tmco'], 0.0)||('period', 'noun', 'C1948053', ['tmco'], 0.0)||('was', '', '', '', 0.0)||('associated', 'verb', 'C0332281', ['qlco'], 0.0)||('with', '', '', '', 0.0)||('the', '', '', '', 0.0)||('lowest risk', '', '', '', 0.0)||('of', '', '', '', 0.0)||('surgical', 'adj', 'C0543467', ['topp'], 0.0)||('-', '', '', '', 0.0)||('wound infection', 'noun', 'C0043241', ['patf'], 0.0)||('.', '', '', '', 0.0)||
('we', '', '', '', 0.0)||('conclude', 'verb', 'C0917903', ['bodm', 'orch'], 0.0)||('that', '', '', '', 0.0)||('in', '', '', '', 0.0)||('surgical', 'adj', 'C0543467', ['topp'], 0.0)||('practice', 'noun', 'C0237607', ['menp'], 0.0)||('there', '', '', '', 0.0)||('is', '', '', '', 0.0)||('considerable', '', '', '', 0.0)||('variation', 'noun', 'C0205419', ['qlco'], 0.0)||('in', '', '', '', 0.0)||('the', '', '', '', 0.0)||('timing', 'noun', 'C0449243', ['tmco'], 0.0)||('of', '', '', '', 0.0)||('prophylactic', 'adj', 'C0355642', ['phsu'], 0.0)||('administration', 'noun', 'C0001554', ['ocac'], 0.0)||('of', '', '', '', 0.0)||('antibiotics', 'noun', 'C0003232', ['antb'], 0.0)||('and', '', '', '', 0.0)||('that', '', '', '', 0.0)||('administration', 'noun', 'C0001554', ['ocac'], 0.0)||('in', '', '', '', 0.0)||('the', '', '', '', 0.0)||('two', 'adj', 'C0205448', ['qnco'], 0.0)||('hours', 'noun', 'C0439227', ['tmco'], 0.0)||('before', '', '', '', 0.0)||('surgery', 'noun', 'C0038894', ['bmod'], 0.0)||('reduces', '', '', '', 0.0)||('the', '', '', '', 0.0)||('risk', 'noun', 'C0035647', ['qlco'], 0.0)||('of', '', '', '', 0.0)||('wound infection', 'noun', 'C0043241', ['patf'], 0.0)||('.', '', '', '', 0.0)||
