('surgical site infection', 'noun', 'C2316459', ['patf'], 0.0)||('and', '', '', '', 0.0)||('other', '', '', '', 0.0)||('hospital - acquired', '', '', '', 0.0)||('infections', 'noun', 'C0021311', ['dsyn'], 0.0)||('cause', 'verb', 'C1524003', ['cnce'], 0.0)||('significant', 'adj', 'C0750502', ['idcn'], 0.0)||('morbidity', 'noun', 'C0026538', ['qnco'], 0.0)||('after', '', '', '', 0.0)||('internal fixation', 'noun', 'C0016642', ['topp'], 0.0)||('of', '', '', '', 0.0)||('fractures', 'noun', 'C0016658', ['inpo'], 0.0)||('.', '', '', '', 0.0)||
('the', '', '', '', 0.0)||('administration', 'noun', 'C0001554', ['ocac'], 0.0)||('of', '', '', '', 0.0)||('antibiotics', 'noun', 'C0003232', ['antb'], 0.0)||('may', '', '', '', 0.0)||('reduce', '', '', '', 0.0)||('the', '', '', '', 0.0)||('frequency', 'noun', 'C0376249', ['qnco'], 0.0)||('of', '', '', '', 0.0)||('infections', 'noun', 'C0021311', ['dsyn'], 0.0)||('.', '', '', '', 0.0)||
('to', '', '', '', 0.0)||('determine', '', '', '', 0.0)||('whether', '', '', '', 0.0)||('the', '', '', '', 0.0)||('prophylactic', 'adj', 'C0355642', ['phsu'], 0.0)||('administration', 'noun', 'C0001554', ['ocac'], 0.0)||('of', '', '', '', 0.0)||('antibiotics', 'noun', 'C0003232', ['antb'], 0.0)||('in', '', '', '', 0.0)||('people', 'noun', 'C0027361', ['popg'], 0.0)||('undergoing', '', '', '', 0.0)||('surgical', 'adj', 'C0543467', ['topp'], 0.0)||('management', 'noun', 'C0001554', ['ocac'], 0.0)||('of', '', '', '', 0.0)||('hip', 'noun', 'C0019552', ['bpoc'], 0.0)||('or', '', '', '', 0.0)||('other', '', '', '', 0.0)||('closed', 'adj', 'C0587267', ['ftcn'], 0.0)||('long bone', 'noun', 'C0222647', ['bpoc'], 0.0)||('fractures', 'noun', 'C0016658', ['inpo'], 0.0)||('reduces', '', '', '', 0.0)||('the', '', '', '', 0.0)||('incidence', 'noun', 'C0021149', ['qnco'], 0.0)||('of', '', '', '', 0.0)||('surgical site', 'noun', 'C0332850', ['spco'], 0.0)||('and', '', '', '', 0.0)||('other', '', '', '', 0.0)||('hospital - acquired', '', '', '', 0.0)||('infections', 'noun', 'C0021311', ['dsyn'], 0.0)||('.', '', '', '', 0.0)||
('we', '', '', '', 0.0)||('searched', 'verb', 'C1706202', ['acty'], 0.0)||('the', '', '', '', 0.0)||('cochrane', '', '', '', 0.0)||('bone', 'noun', 'C0262950', ['bpoc'], 0.0)||(',', '', '', '', 0.0)||('joint', 'noun', 'C0022417', ['bsoj'], 0.0)||('and', '', '', '', 0.0)||('muscle', 'noun', 'C0026845', ['tisu'], 0.0)||('trauma', 'noun', 'C0043251', ['inpo'], 0.0)||('group', 'noun', 'C0441833', ['idcn'], 0.0)||('specialised', 'noun', 'C1704211', ['cnce'], 0.0)||('register', '', '', '', 0.0)||('(', '', '', '', 0.0)||('december', '', '', '', 0.0)||('2009', '', '', '', 0.0)||(')', '', '', '', 0.0)||(',', '', '', '', 0.0)||('the', '', '', '', 0.0)||('cochrane', '', '', '', 0.0)||('central', 'adj', 'C0205099', ['spco'], 0.0)||('register', '', '', '', 0.0)||('of', '', '', '', 0.0)||('controlled', 'adj', 'C2587213', ['ftcn'], 0.0)||('trials', '', '', '', 0.0)||('(', '', '', '', 0.0)||('the', '', '', '', 0.0)||('cochrane', '', '', '', 0.0)||('library', 'noun', 'C0023621', ['mnob', 'orgt'], 0.0)||('2009', '', '', '', 0.0)||(',', '', '', '', 0.0)||('issue', 'noun', 'C0033213', ['fndg'], 0.0)||('4', '', '', '', 0.0)||(')', '', '', '', 0.0)||(',', '', '', '', 0.0)||('medline', 'noun', 'C0025141', ['inpr'], 0.0)||('(', '', '', '', 0.0)||('1950', '', '', '', 0.0)||('to', '', '', '', 0.0)||('november', '', '', '', 0.0)||('2009', '', '', '', 0.0)||(')', '', '', '', 0.0)||(',', '', '', '', 0.0)||('embase', '', '', '', 0.0)||('(', '', '', '', 0.0)||('1988', '', '', '', 0.0)||('to', '', '', '', 0.0)||('december', '', '', '', 0.0)||('2009', '', '', '', 0.0)||(')', '', '', '', 0.0)||(',', '', '', '', 0.0)||('other', '', '', '', 0.0)||('electronic', 'adj', 'C0013850', ['mnob'], 0.0)||('databases', 'noun', 'C0242356', ['inpr'], 0.0)||('including', '', '', '', 0.0)||('the', '', '', '', 0.0)||('who', '', '', '', 0.0)||('international', 'adj', 'C1512888', ['idcn'], 0.0)||('clinical trials', 'noun', 'C0008976', ['resa'], 0.0)||('registry', 'noun', 'C0034975', ['inpr'], 0.0)||('platform', 'noun', 'C1710360', ['resd'], 0.0)||('(', '', '', '', 0.0)||('december', '', '', '', 0.0)||('2009', '', '', '', 0.0)||(')', '', '', '', 0.0)||(',', '', '', '', 0.0)||('conferences', 'noun', 'C0086047', ['hcpp'], 0.0)||('proceedings', '', '', '', 0.0)||('and', '', '', '', 0.0)||('reference', 'noun', 'C1514811', ['idcn'], 0.0)||('lists', '', '', '', 0.0)||('of', '', '', '', 0.0)||('articles', '', '', '', 0.0)||('.', '', '', '', 0.0)||
('randomised', '', '', '', 0.0)||('or', '', '', '', 0.0)||('quasi - randomised controlled trials', '', '', '', 0.0)||('comparing', '', '', '', 0.0)||('any', '', '', '', 0.0)||('regimen', 'noun', 'C0040808', ['topp'], 0.0)||('of', '', '', '', 0.0)||('systemic', 'adj', 'C0205373', ['ftcn'], 0.0)||('antibiotic', 'adj', 'C0003232', ['antb'], 0.0)||('prophylaxis', 'noun', 'C0033107', ['inpr'], 0.0)||('administered', 'verb', 'C1521801', ['ftcn'], 0.0)||('at', '', '', '', 0.0)||('the', '', '', '', 0.0)||('time', 'noun', 'C0040223', ['tmco'], 0.0)||('of', '', '', '', 0.0)||('surgery', 'noun', 'C0038894', ['bmod'], 0.0)||(',', '', '', '', 0.0)||('compared', 'verb', 'C1707455', ['acty'], 0.0)||('with', '', '', '', 0.0)||('no', '', '', '', 0.0)||('prophylaxis', 'noun', 'C0033107', ['inpr'], 0.0)||(',', '', '', '', 0.0)||('placebo', 'noun', 'C0032042', ['topp'], 0.0)||(',', '', '', '', 0.0)||('or', '', '', '', 0.0)||('a', '', '', '', 0.0)||('regimen', 'noun', 'C0040808', ['topp'], 0.0)||('of', '', '', '', 0.0)||('different', 'adj', 'C1705242', ['qlco'], 0.0)||('duration', 'noun', 'C0449238', ['tmco'], 0.0)||(',', '', '', '', 0.0)||('in', '', '', '', 0.0)||('people', 'noun', 'C0027361', ['popg'], 0.0)||('with', '', '', '', 0.0)||('a', '', '', '', 0.0)||('hip', 'noun', 'C0019552', ['bpoc'], 0.0)||('fracture', 'noun', 'C0016658', ['inpo'], 0.0)||('undergoing', '', '', '', 0.0)||('surgery', 'noun', 'C0038894', ['bmod'], 0.0)||('for', '', '', '', 0.0)||('internal fixation', 'noun', 'C0016642', ['topp'], 0.0)||('or', '', '', '', 0.0)||('prosthetic', '', '', '', 0.0)||('replacement', 'noun', 'C0035139', ['topp'], 0.0)||(',', '', '', '', 0.0)||('or', '', '', '', 0.0)||('with', '', '', '', 0.0)||('any', '', '', '', 0.0)||('closed', 'adj', 'C0587267', ['ftcn'], 0.0)||('long bone', 'noun', 'C0222647', ['bpoc'], 0.0)||('fracture', 'noun', 'C0016658', ['inpo'], 0.0)||('undergoing', '', '', '', 0.0)||('internal fixation', 'noun', 'C0016642', ['topp'], 0.0)||('.', '', '', '', 0.0)||
('all', '', '', '', 0.0)||('trials', '', '', '', 0.0)||('needed', 'verb', 'C0027552', ['qlco'], 0.0)||('to', '', '', '', 0.0)||('report', 'verb', 'C0684224', ['inpr'], 0.0)||('surgical site infection', 'noun', 'C2316459', ['patf'], 0.0)||('.', '', '', '', 0.0)||
('two', 'adj', 'C0205448', ['qnco'], 0.0)||('authors', 'noun', 'C0341628', ['prog'], 0.0)||('independently', '', '', '', 0.0)||('screened', '', '', '', 0.0)||('papers', 'noun', 'C0030351', ['mnob'], 0.0)||('for', '', '', '', 0.0)||('inclusion', 'noun', 'C1512693', ['qlco'], 0.0)||(',', '', '', '', 0.0)||('assessed', 'adj', 'C1516048', ['acty'], 0.0)||('risk', 'noun', 'C0035647', ['qlco'], 0.0)||('of', '', '', '', 0.0)||('bias', 'noun', 'C0242568', ['idcn'], 0.0)||('and', '', '', '', 0.0)||('extracted', 'adj', 'C0185115', ['topp'], 0.0)||('data', 'noun', 'C1511726', ['idcn'], 0.0)||('.', '', '', '', 0.0)||
('pooled', 'adj', 'C1709595', ['cnce'], 0.0)||('data', 'noun', 'C1511726', ['idcn'], 0.0)||('are', '', '', '', 0.0)||('presented', 'verb', 'C0449450', ['idcn'], 0.0)||('graphically', '', '', '', 0.0)||('.', '', '', '', 0.0)||
('data', 'noun', 'C1511726', ['idcn'], 0.0)||('from', '', '', '', 0.0)||('8447', '', '', '', 0.0)||('participants', '', '', '', 0.0)||('in', '', '', '', 0.0)||('23', '', '', '', 0.0)||('studies', '', '', '', 0.0)||('were', '', '', '', 0.0)||('included', '', '', '', 0.0)||('in', '', '', '', 0.0)||('the', '', '', '', 0.0)||('analyses', '', '', '', 0.0)||('.', '', '', '', 0.0)||
('in', '', '', '', 0.0)||('people', 'noun', 'C0027361', ['popg'], 0.0)||('undergoing', '', '', '', 0.0)||('surgery', 'noun', 'C0038894', ['bmod'], 0.0)||('for', '', '', '', 0.0)||('closed fracture', '', '', '', 0.0)||('fixation', 'noun', 'C0185023', ['topp'], 0.0)||(',', '', '', '', 0.0)||('single dose', '', '', '', 0.0)||('antibiotic', 'noun', 'C0003232', ['antb'], 0.0)||('prophylaxis', 'noun', 'C0033107', ['inpr'], 0.0)||('significantly', '', '', '', 0.0)||('reduced', 'verb', 'C0392756', ['qlco'], 0.0)||('deep', 'adj', 'C0205125', ['spco'], 0.0)||('surgical site infection', 'noun', 'C2316459', ['patf'], 0.0)||('(', '', '', '', 0.0)||('risk ratio', 'noun', 'C0028873', ['qnco'], 0.0)||('0 . 40', '', '', '', 0.0)||(',', '', '', '', 0.0)||('95 %', '', '', '', 0.0)||('ci', 'noun', 'C1417638', ['gngm'], 0.0)||('0 . 24', '', '', '', 0.0)||('to', '', '', '', 0.0)||('0 . 67', '', '', '', 0.0)||(')', '', '', '', 0.0)||(',', '', '', '', 0.0)||('superficial', 'adj', 'C0205124', ['spco'], 0.0)||('surgical site infections', '', '', '', 0.0)||(',', '', '', '', 0.0)||('urinary', 'adj', 'C0042027', ['bpoc'], 0.0)||('infections', 'noun', 'C0021311', ['dsyn'], 0.0)||(',', '', '', '', 0.0)||('and', '', '', '', 0.0)||('respiratory tract infections', 'noun', 'C0035243', ['dsyn'], 0.0)||('.', '', '', '', 0.0)||
('multiple dose', '', '', '', 0.0)||('prophylaxis', 'noun', 'C0033107', ['inpr'], 0.0)||('had', '', '', '', 0.0)||('an', '', '', '', 0.0)||('effect', 'noun', 'C1280500', ['qlco'], 0.0)||('of', '', '', '', 0.0)||('similar', 'adj', 'C2348205', ['qlco'], 0.0)||('size', 'noun', 'C0456389', ['spco'], 0.0)||('on', '', '', '', 0.0)||('deep', 'adj', 'C0205125', ['spco'], 0.0)||('surgical site infection', 'noun', 'C2316459', ['patf'], 0.0)||('(', '', '', '', 0.0)||('risk ratio', 'noun', 'C0028873', ['qnco'], 0.0)||('0 . 35', '', '', '', 0.0)||(',', '', '', '', 0.0)||('95 %', '', '', '', 0.0)||('ci', 'noun', 'C1417638', ['gngm'], 0.0)||('0 . 19', '', '', '', 0.0)||('to', '', '', '', 0.0)||('0 . 62', '', '', '', 0.0)||(')', '', '', '', 0.0)||(',', '', '', '', 0.0)||('but', '', '', '', 0.0)||('significant', 'adj', 'C0750502', ['idcn'], 0.0)||('effects', '', '', '', 0.0)||('on', '', '', '', 0.0)||('urinary', 'adj', 'C0042027', ['bpoc'], 0.0)||('and', '', '', '', 0.0)||('respiratory', 'adj', 'C0521346', ['ftcn'], 0.0)||('infections', 'noun', 'C0021311', ['dsyn'], 0.0)||('were', '', '', '', 0.0)||('not', 'adv', 'C1518422', ['ftcn'], 0.0)||('confirmed', 'verb', 'C0750484', ['idcn'], 0.0)||('.', '', '', '', 0.0)||
('although', '', '', '', 0.0)||('the', '', '', '', 0.0)||('risk', 'noun', 'C0035647', ['qlco'], 0.0)||('of', '', '', '', 0.0)||('bias', 'noun', 'C0242568', ['idcn'], 0.0)||('in', '', '', '', 0.0)||('many', '', '', '', 0.0)||('studies', '', '', '', 0.0)||('as', '', '', '', 0.0)||('reported', 'verb', 'C0684224', ['inpr'], 0.0)||('was', '', '', '', 0.0)||('unclear', '', '', '', 0.0)||(',', '', '', '', 0.0)||('sensitivity', 'noun', 'C0036667', ['qnco'], 0.0)||('analysis', 'noun', 'C0002778', ['lbpr'], 0.0)||('showed', '', '', '', 0.0)||('that', '', '', '', 0.0)||('removal', 'noun', 'C0015252', ['topp'], 0.0)||('from', '', '', '', 0.0)||('the', '', '', '', 0.0)||('meta - analyses', '', '', '', 0.0)||('of', '', '', '', 0.0)||('studies', '', '', '', 0.0)||('at', '', '', '', 0.0)||('high risk', '', '', '', 0.0)||('of', '', '', '', 0.0)||('bias', 'noun', 'C0242568', ['idcn'], 0.0)||('did', '', '', '', 0.0)||('not', 'adv', 'C1518422', ['ftcn'], 0.0)||('alter', '', '', '', 0.0)||('the', '', '', '', 0.0)||('conclusions', 'noun', 'C1707478', ['idcn'], 0.0)||('.', '', '', '', 0.0)||
('economic', 'adj', 'C0013556', ['ocdi'], 0.0)||('modelling', '', '', '', 0.0)||('using', 'verb', 'C1524063', ['ftcn'], 0.0)||('data', 'noun', 'C1511726', ['idcn'], 0.0)||('from', '', '', '', 0.0)||('one', 'noun', 'C0205447', ['qnco'], 0.0)||('large', 'adj', 'C0549177', ['qnco'], 0.0)||('trial', 'noun', 'C0008976', ['resa'], 0.0)||('indicated', 'verb', 'C1444656', ['fndg'], 0.0)||('that', '', '', '', 0.0)||('single dose', '', '', '', 0.0)||('prophylaxis', 'noun', 'C0033107', ['inpr'], 0.0)||('with', '', '', '', 0.0)||('ceftriaxone', '', '', '', 0.0)||('is', '', '', '', 0.0)||('a', '', '', '', 0.0)||('cost - effective', '', '', '', 0.0)||('intervention', 'noun', 'C1273869', ['hlca'], 0.0)||('.', '', '', '', 0.0)||
('data', 'noun', 'C1511726', ['idcn'], 0.0)||('for', '', '', '', 0.0)||('the', '', '', '', 0.0)||('incidence', 'noun', 'C0021149', ['qnco'], 0.0)||('of', '', '', '', 0.0)||('adverse effects', 'noun', 'C0001688', ['ftcn'], 0.0)||('were', '', '', '', 0.0)||('very', 'adv', 'C0442824', ['qlco'], 0.0)||('limited', 'verb', 'C0439801', ['ftcn'], 0.0)||(',', '', '', '', 0.0)||('but', '', '', '', 0.0)||('as', '', '', '', 0.0)||('expected', 'adj', 'C1517001', ['idcn'], 0.0)||('they', '', '', '', 0.0)||('appeared', '', '', '', 0.0)||('to', '', '', '', 0.0)||('be', '', '', '', 0.0)||('more', '', '', '', 0.0)||('common', 'adj', 'C0205214', ['qnco'], 0.0)||('in', '', '', '', 0.0)||('those', '', '', '', 0.0)||('receiving', '', '', '', 0.0)||('antibiotics', 'noun', 'C0003232', ['antb'], 0.0)||(',', '', '', '', 0.0)||('compared', 'verb', 'C1707455', ['acty'], 0.0)||('with', '', '', '', 0.0)||('placebo', 'noun', 'C0032042', ['topp'], 0.0)||('or', '', '', '', 0.0)||('no', '', '', '', 0.0)||('prophylaxis', 'noun', 'C0033107', ['inpr'], 0.0)||('.', '', '', '', 0.0)||
('antibiotic', 'adj', 'C0003232', ['antb'], 0.0)||('prophylaxis', 'noun', 'C0033107', ['inpr'], 0.0)||('should', '', '', '', 0.0)||('be', '', '', '', 0.0)||('offered', 'verb', 'C1444648', ['fndg'], 0.0)||('to', '', '', '', 0.0)||('those', '', '', '', 0.0)||('undergoing', '', '', '', 0.0)||('surgery', 'noun', 'C0038894', ['bmod'], 0.0)||('for', '', '', '', 0.0)||('closed fracture', '', '', '', 0.0)||('fixation', 'noun', 'C0185023', ['topp'], 0.0)||('.', '', '', '', 0.0)||
