('cardioselective', '', '', '', 0.0)||('beta - blockers', '', '', '', 0.0)||('for', '', '', '', 0.0)||('chronic obstructive pulmonary disease', '', '', '', 0.0)||('.', '', '', '', 0.0)||
('background', 'noun', 'C1706907', ['cnce'], 0.0)||(':', '', '', '', 0.0)||('beta - blocker', '', '', '', 0.0)||('therapy', 'noun', 'C0039798', ['ftcn'], 0.0)||('has', '', '', '', 0.0)||('a', '', '', '', 0.0)||('proven', 'adj', 'C0456369', ['qlco'], 0.0)||('mortality', 'noun', 'C0026565', ['qnco'], 0.0)||('benefit', 'noun', 'C0814225', ['qnco'], 0.0)||('in', '', '', '', 0.0)||('patients', 'noun', 'C0030705', ['podg'], 0.0)||('with', '', '', '', 0.0)||('hypertension', 'noun', 'C0020538', ['dsyn'], 0.0)||(',', '', '', '', 0.0)||('heart failure', 'noun', 'C0018801', ['dsyn'], 0.0)||('and', '', '', '', 0.0)||('coronary artery disease', 'noun', 'C0010068', ['dsyn'], 0.0)||(',', '', '', '', 0.0)||('as well as', '', '', '', 0.0)||('during', '', '', '', 0.0)||('the', '', '', '', 0.0)||('perioperative', 'adj', 'C1518988', ['tmco'], 0.0)||('period', 'noun', 'C1948053', ['tmco'], 0.0)||('.', '', '', '', 0.0)||
('these', '', '', '', 0.0)||('drugs', 'noun', 'C0013227', ['phsu'], 0.0)||('have', '', '', '', 0.0)||('traditionally', '', '', '', 0.0)||('been', '', '', '', 0.0)||('considered', '', '', '', 0.0)||('contraindicated', 'verb', 'C1444657', ['fndg'], 0.0)||('in', '', '', '', 0.0)||('patients', 'noun', 'C0030705', ['podg'], 0.0)||('with', '', '', '', 0.0)||('chronic obstructive pulmonary disease', '', '', '', 0.0)||('.', '', '', '', 0.0)||
('objective', 'noun', 'C0018017', ['inpr'], 0.0)||(':', '', '', '', 0.0)||('to', '', '', '', 0.0)||('assess', 'verb', 'C1516048', ['acty'], 0.0)||('the', '', '', '', 0.0)||('effect', 'noun', 'C1280500', ['qlco'], 0.0)||('of', '', '', '', 0.0)||('cardioselective', '', '', '', 0.0)||('beta - blockers', '', '', '', 0.0)||('on', '', '', '', 0.0)||('respiratory function', 'noun', 'C0035203', ['phsf'], 0.0)||('of', '', '', '', 0.0)||('patients', 'noun', 'C0030705', ['podg'], 0.0)||('with', '', '', '', 0.0)||('chronic obstructive pulmonary disease', '', '', '', 0.0)||('.', '', '', '', 0.0)||
('methods', 'noun', 'C0025663', ['inpr'], 0.0)||(':', '', '', '', 0.0)||('a', '', '', '', 0.0)||('comprehensive', 'adj', 'C1880156', ['qlco'], 0.0)||('search', 'noun', 'C1552603', ['idcn'], 0.0)||('of', '', '', '', 0.0)||('the', '', '', '', 0.0)||('cochrane', '', '', '', 0.0)||('airways', 'noun', 'C0178987', ['medd'], 0.0)||('group', 'noun', 'C0441833', ['idcn'], 0.0)||('specialised', 'noun', 'C1704211', ['cnce'], 0.0)||('register', '', '', '', 0.0)||('(', '', '', '', 0.0)||('derived', 'verb', 'C1441547', ['qlco'], 0.0)||('from', '', '', '', 0.0)||('systematic', 'adj', 'C0220922', ['ftcn'], 0.0)||('searches', '', '', '', 0.0)||('of', '', '', '', 0.0)||('central', 'adj', 'C0205099', ['spco'], 0.0)||(',', '', '', '', 0.0)||('medline', 'noun', 'C0025141', ['inpr'], 0.0)||(',', '', '', '', 0.0)||('embase', '', '', '', 0.0)||('and', '', '', '', 0.0)||('cinahl', '', '', '', 0.0)||(')', '', '', '', 0.0)||('was', '', '', '', 0.0)||('carried', '', '', '', 0.0)||('out', '', '', '', 0.0)||('to', '', '', '', 0.0)||('identify', '', '', '', 0.0)||('randomised', '', '', '', 0.0)||('blinded', 'adj', 'C0150108', ['resa'], 0.0)||('controlled', 'adj', 'C2587213', ['ftcn'], 0.0)||('trials', '', '', '', 0.0)||('from', '', '', '', 0.0)||('1966', '', '', '', 0.0)||('to', '', '', '', 0.0)||('may', '', '', '', 0.0)||('2005', '', '', '', 0.0)||('.', '', '', '', 0.0)||
('we', '', '', '', 0.0)||('did', '', '', '', 0.0)||('not', 'adv', 'C1518422', ['ftcn'], 0.0)||('exclude', 'verb', 'C0332196', ['ftcn'], 0.0)||('trials', '', '', '', 0.0)||('on', '', '', '', 0.0)||('the', '', '', '', 0.0)||('basis', 'noun', 'C1527178', ['ftcn'], 0.0)||('of', '', '', '', 0.0)||('language', 'noun', 'C0023008', ['lang'], 0.0)||('.', '', '', '', 0.0)||
('methods', 'noun', 'C0025663', ['inpr'], 0.0)||(':', '', '', '', 0.0)||('randomised', '', '', '', 0.0)||(',', '', '', '', 0.0)||('blinded', 'verb', 'C0150108', ['resa'], 0.0)||(',', '', '', '', 0.0)||('controlled', 'adj', 'C2587213', ['ftcn'], 0.0)||('trials', '', '', '', 0.0)||('of', '', '', '', 0.0)||('single dose', '', '', '', 0.0)||('or', '', '', '', 0.0)||('longer', '', '', '', 0.0)||('duration', 'noun', 'C0449238', ['tmco'], 0.0)||('that', '', '', '', 0.0)||('studied', '', '', '', 0.0)||('the', '', '', '', 0.0)||('effects', '', '', '', 0.0)||('of', '', '', '', 0.0)||('cardioselective', '', '', '', 0.0)||('beta - blockers', '', '', '', 0.0)||('on', '', '', '', 0.0)||('the', '', '', '', 0.0)||('forced expiratory volume', 'noun', 'C0016529', ['ortf'], 0.0)||('in', '', '', '', 0.0)||('1', '', '', '', 0.0)||('second', 'noun', 'C0205436', ['qnco'], 0.0)||('or', '', '', '', 0.0)||('symptoms', 'noun', 'C0683368', ['ftcn'], 0.0)||('in', '', '', '', 0.0)||('patients', 'noun', 'C0030705', ['podg'], 0.0)||('with', '', '', '', 0.0)||('chronic obstructive pulmonary disease', '', '', '', 0.0)||('.', '', '', '', 0.0)||
('methods', 'noun', 'C0025663', ['inpr'], 0.0)||(':', '', '', '', 0.0)||('two', 'noun', 'C0205448', ['qnco'], 0.0)||('independent', 'adj', 'C0085862', ['idcn'], 0.0)||('reviewers', '', '', '', 0.0)||('extracted', 'verb', 'C0185115', ['topp'], 0.0)||('data', 'noun', 'C1511726', ['idcn'], 0.0)||('from', '', '', '', 0.0)||('the', '', '', '', 0.0)||('selected', '', '', '', 0.0)||('articles', '', '', '', 0.0)||(',', '', '', '', 0.0)||('reconciling', '', '', '', 0.0)||('differences', '', '', '', 0.0)||('by', '', '', '', 0.0)||('consensus', 'noun', 'C0376298', ['socb'], 0.0)||('.', '', '', '', 0.0)||
('two', 'adj', 'C0205448', ['qnco'], 0.0)||('interventions', '', '', '', 0.0)||('studied', '', '', '', 0.0)||('were', '', '', '', 0.0)||('the', '', '', '', 0.0)||('administration', 'noun', 'C0001554', ['ocac'], 0.0)||('of', '', '', '', 0.0)||('beta - blocker', '', '', '', 0.0)||(',', '', '', '', 0.0)||('given', '', '', '', 0.0)||('either', '', '', '', 0.0)||('as', '', '', '', 0.0)||('a', '', '', '', 0.0)||('single dose', '', '', '', 0.0)||('or', '', '', '', 0.0)||('for', '', '', '', 0.0)||('longer', '', '', '', 0.0)||('duration', 'noun', 'C0449238', ['tmco'], 0.0)||(',', '', '', '', 0.0)||('and', '', '', '', 0.0)||('the', '', '', '', 0.0)||('use', 'noun', 'C0042153', ['ftcn'], 0.0)||('of', '', '', '', 0.0)||('beta2', 'noun', 'C1417683', ['gngm'], 0.0)||('-', '', '', '', 0.0)||('agonist', 'noun', 'C0243192', ['phsu'], 0.0)||('given', '', '', '', 0.0)||('after', '', '', '', 0.0)||('the', '', '', '', 0.0)||('study drug', '', '', '', 0.0)||('.', '', '', '', 0.0)||
('results', 'noun', 'C1274040', ['ftcn'], 0.0)||(':', '', '', '', 0.0)||('eleven', '', 'C0205457', ['inpr', 'qnco'], 0.0)||('studies', '', '', '', 0.0)||('of', '', '', '', 0.0)||('single - dose', '', '', '', 0.0)||('treatment', 'noun', 'C0039798', ['ftcn'], 0.0)||('and', '', '', '', 0.0)||('9', '', '', '', 0.0)||('of', '', '', '', 0.0)||('treatment', 'noun', 'C0039798', ['ftcn'], 0.0)||('for', '', '', '', 0.0)||('longer', '', '', '', 0.0)||('durations', 'noun', 'C0449238', ['tmco'], 0.0)||(',', '', '', '', 0.0)||('ranging', '', '', '', 0.0)||('from', '', '', '', 0.0)||('2', '', '', '', 0.0)||('days', 'noun', 'C0439228', ['tmco'], 0.0)||('to', '', '', '', 0.0)||('12', '', '', '', 0.0)||('weeks', 'noun', 'C0439230', ['tmco'], 0.0)||(',', '', '', '', 0.0)||('met', '', '', '', 0.0)||('selection', 'noun', 'C0036576', ['genf'], 0.0)||('criteria', 'noun', 'C0243161', ['inpr'], 0.0)||('.', '', '', '', 0.0)||
('cardioselective', '', '', '', 0.0)||('beta - blockers', '', '', '', 0.0)||(',', '', '', '', 0.0)||('given', '', '', '', 0.0)||('as', '', '', '', 0.0)||('a', '', '', '', 0.0)||('single dose', '', '', '', 0.0)||('or', '', '', '', 0.0)||('for', '', '', '', 0.0)||('longer', '', '', '', 0.0)||('duration', 'noun', 'C0449238', ['tmco'], 0.0)||(',', '', '', '', 0.0)||('produced', '', '', '', 0.0)||('no', '', '', '', 0.0)||('change', 'noun', 'C0392747', ['ftcn'], 0.0)||('in', '', '', '', 0.0)||('forced expiratory volume', 'noun', 'C0016529', ['ortf'], 0.0)||('in', '', '', '', 0.0)||('1', '', '', '', 0.0)||('second', 'noun', 'C0205436', ['qnco'], 0.0)||('or', '', '', '', 0.0)||('respiratory', 'adj', 'C0521346', ['ftcn'], 0.0)||('symptoms', 'noun', 'C0683368', ['ftcn'], 0.0)||('compared', 'verb', 'C1707455', ['acty'], 0.0)||('to', '', '', '', 0.0)||('placebo', 'noun', 'C0032042', ['topp'], 0.0)||(',', '', '', '', 0.0)||('and', '', '', '', 0.0)||('did', '', '', '', 0.0)||('not', 'adv', 'C1518422', ['ftcn'], 0.0)||('affect', 'verb', 'C0001721', ['menp'], 0.0)||('the', '', '', '', 0.0)||('forced expiratory volume', 'noun', 'C0016529', ['ortf'], 0.0)||('in', '', '', '', 0.0)||('1', '', '', '', 0.0)||('second', 'adj', 'C0205436', ['qnco'], 0.0)||('treatment', 'noun', 'C0039798', ['ftcn'], 0.0)||('response', 'noun', 'C0871261', ['clna'], 0.0)||('to', '', '', '', 0.0)||('beta2', 'noun', 'C1417683', ['gngm'], 0.0)||('-', '', '', '', 0.0)||('agonists', 'noun', 'C0243192', ['phsu'], 0.0)||('.', '', '', '', 0.0)||
('a', '', '', '', 0.0)||('subgroup', 'noun', 'C1515021', ['clas'], 0.0)||('analysis', 'noun', 'C0002778', ['lbpr'], 0.0)||('revealed', 'verb', 'C0443289', ['qlco'], 0.0)||('no', '', '', '', 0.0)||('change', 'noun', 'C0392747', ['ftcn'], 0.0)||('in', '', '', '', 0.0)||('results', 'noun', 'C1274040', ['ftcn'], 0.0)||('for', '', '', '', 0.0)||('those', '', '', '', 0.0)||('participants', '', '', '', 0.0)||('with', '', '', '', 0.0)||('severe', 'adj', 'C0205082', ['qlco'], 0.0)||('chronic', 'adj', 'C0205191', ['tmco'], 0.0)||('airways', 'noun', 'C0178987', ['medd'], 0.0)||('obstruction', 'noun', 'C0028778', ['patf'], 0.0)||('or', '', '', '', 0.0)||('for', '', '', '', 0.0)||('those', '', '', '', 0.0)||('with', '', '', '', 0.0)||('a', '', '', '', 0.0)||('reversible', 'adj', 'C0205343', ['ftcn'], 0.0)||('obstructive', 'adj', 'C0549186', ['ftcn'], 0.0)||('component', 'noun', 'C0449432', ['mnob'], 0.0)||('.', '', '', '', 0.0)||
('conclusions', 'noun', 'C1707478', ['idcn'], 0.0)||(':', '', '', '', 0.0)||('cardioselective', '', '', '', 0.0)||('beta - blockers', '', '', '', 0.0)||(',', '', '', '', 0.0)||('given', '', '', '', 0.0)||('to', '', '', '', 0.0)||('patients', 'noun', 'C0030705', ['podg'], 0.0)||('with', '', '', '', 0.0)||('chronic obstructive pulmonary disease', '', '', '', 0.0)||('in', '', '', '', 0.0)||('the', '', '', '', 0.0)||('identified', 'adj', 'C0205396', ['qlco'], 0.0)||('studies', '', '', '', 0.0)||('did', '', '', '', 0.0)||('not', 'adv', 'C1518422', ['ftcn'], 0.0)||('produce', '', '', '', 0.0)||('adverse', '', '', '', 0.0)||('respiratory', 'adj', 'C0521346', ['ftcn'], 0.0)||('effects', '', '', '', 0.0)||('.', '', '', '', 0.0)||
('given', '', '', '', 0.0)||('their', '', '', '', 0.0)||('demonstrated', '', '', '', 0.0)||('benefit', 'noun', 'C0814225', ['qnco'], 0.0)||('in', '', '', '', 0.0)||('conditions', '', '', '', 0.0)||('such as', '', '', '', 0.0)||('heart failure', 'noun', 'C0018801', ['dsyn'], 0.0)||(',', '', '', '', 0.0)||('coronary artery disease', 'noun', 'C0010068', ['dsyn'], 0.0)||('and', '', '', '', 0.0)||('hypertension', 'noun', 'C0020538', ['dsyn'], 0.0)||(',', '', '', '', 0.0)||('cardioselective', '', '', '', 0.0)||('beta - blockers', '', '', '', 0.0)||('should', '', '', '', 0.0)||('not', 'adv', 'C1518422', ['ftcn'], 0.0)||('be', '', '', '', 0.0)||('routinely', '', '', '', 0.0)||('withheld', '', '', '', 0.0)||('from', '', '', '', 0.0)||('patients', 'noun', 'C0030705', ['podg'], 0.0)||('with', '', '', '', 0.0)||('chronic obstructive pulmonary disease', '', '', '', 0.0)||('.', '', '', '', 0.0)||
