('a', '', '', '', 0.0)||('meta - analysis', '', '', '', 0.0)||('covered', 'verb', 'C0439844', ['ftcn'], 0.0)||('13', '', '', '', 0.0)||('randomized controlled trials', '', '', '', 0.0)||('(', '', '', '', 0.0)||('n =', '', '', '', 0.0)||('105 , 951', '', '', '', 0.0)||(')', '', '', '', 0.0)||('comparing', '', '', '', 0.0)||('treatment', 'noun', 'C0039798', ['ftcn'], 0.0)||('with', '', '', '', 0.0)||('beta - blockers', '', '', '', 0.0)||('with', '', '', '', 0.0)||('other', '', '', '', 0.0)||('antihypertensive', 'adj', 'C0003364', ['phsu'], 0.0)||('drugs', 'noun', 'C0013227', ['phsu'], 0.0)||('.', '', '', '', 0.0)||
('seven', '', 'C0205453', ['qnco'], 0.0)||('studies', '', '', '', 0.0)||('(', '', '', '', 0.0)||('n =', '', '', '', 0.0)||('27 , 433', '', '', '', 0.0)||(')', '', '', '', 0.0)||('were', '', '', '', 0.0)||('included', '', '', '', 0.0)||('in', '', '', '', 0.0)||('a', '', '', '', 0.0)||('comparison', 'noun', 'C1707455', ['acty'], 0.0)||('of', '', '', '', 0.0)||('beta - blockers', '', '', '', 0.0)||('and', '', '', '', 0.0)||('placebo', 'noun', 'C0032042', ['topp'], 0.0)||('or', '', '', '', 0.0)||('no', '', '', '', 0.0)||('treatment', 'noun', 'C0039798', ['ftcn'], 0.0)||('.', '', '', '', 0.0)||
('the', '', '', '', 0.0)||('relative risk', 'noun', 'C0242492', ['qnco'], 0.0)||('of', '', '', '', 0.0)||('stroke', 'noun', 'C0038454', ['dsyn'], 0.0)||('was', '', '', '', 0.0)||('16 %', '', '', '', 0.0)||('higher', '', '', '', 0.0)||('for', '', '', '', 0.0)||('beta - blockers', '', '', '', 0.0)||('(', '', '', '', 0.0)||('95 %', '', '', '', 0.0)||('ci', 'noun', 'C1417638', ['gngm'], 0.0)||(',', '', '', '', 0.0)||('4 %', '', '', '', 0.0)||('-', '', '', '', 0.0)||('30 %', '', '', '', 0.0)||(')', '', '', '', 0.0)||('than', '', '', '', 0.0)||('for', '', '', '', 0.0)||('other', '', '', '', 0.0)||('drugs', 'noun', 'C0013227', ['phsu'], 0.0)||('.', '', '', '', 0.0)||
('no', '', '', '', 0.0)||('difference', 'noun', 'C1705242', ['qlco'], 0.0)||('was', '', '', '', 0.0)||('seen', 'verb', 'C0205397', ['qlco'], 0.0)||('for', '', '', '', 0.0)||('myocardial infarction', 'noun', 'C0027051', ['dsyn'], 0.0)||('.', '', '', '', 0.0)||
('when', '', '', '', 0.0)||('the', '', '', '', 0.0)||('effect', 'noun', 'C1280500', ['qlco'], 0.0)||('of', '', '', '', 0.0)||('beta - blockers', '', '', '', 0.0)||('was', '', '', '', 0.0)||('compared', 'verb', 'C1707455', ['acty'], 0.0)||('with', '', '', '', 0.0)||('that', '', '', '', 0.0)||('of', '', '', '', 0.0)||('placebo', 'noun', 'C0032042', ['topp'], 0.0)||('or', '', '', '', 0.0)||('no', '', '', '', 0.0)||('treatment', 'noun', 'C0039798', ['ftcn'], 0.0)||(',', '', '', '', 0.0)||('the', '', '', '', 0.0)||('relative risk', 'noun', 'C0242492', ['qnco'], 0.0)||('of', '', '', '', 0.0)||('stroke', 'noun', 'C0038454', ['dsyn'], 0.0)||('was', '', '', '', 0.0)||('reduced', 'verb', 'C0392756', ['qlco'], 0.0)||('by', '', '', '', 0.0)||('19 %', '', '', '', 0.0)||('for', '', '', '', 0.0)||('all', '', '', '', 0.0)||('beta - blockers', '', '', '', 0.0)||('(', '', '', '', 0.0)||('95 %', '', '', '', 0.0)||('ci', 'noun', 'C1417638', ['gngm'], 0.0)||(',', '', '', '', 0.0)||('7 %', '', '', '', 0.0)||('-', '', '', '', 0.0)||('29 %', '', '', '', 0.0)||(')', '', '', '', 0.0)||('.', '', '', '', 0.0)||
('there', '', '', '', 0.0)||('was', '', '', '', 0.0)||('no', '', '', '', 0.0)||('difference', 'noun', 'C1705242', ['qlco'], 0.0)||('for', '', '', '', 0.0)||('myocardial infarction', 'noun', 'C0027051', ['dsyn'], 0.0)||('or', '', '', '', 0.0)||('mortality', 'noun', 'C0026565', ['qnco'], 0.0)||('.', '', '', '', 0.0)||
