('increasing', 'adj', 'C0442808', ['ftcn'], 0.0)||('concerns', '', '', '', 0.0)||('over', '', '', '', 0.0)||('drug - resistant', '', '', '', 0.0)||('bacteria', 'noun', 'C0004611', ['bact'], 0.0)||('mandate', '', '', '', 0.0)||('that', '', '', '', 0.0)||('alternative', 'adj', 'C1523987', ['cnce'], 0.0)||('methods', 'noun', 'C0025663', ['inpr'], 0.0)||('of', '', '', '', 0.0)||('treatment', 'noun', 'C0039798', ['ftcn'], 0.0)||('and', '', '', '', 0.0)||('prevention', 'noun', 'C0199176', ['topp'], 0.0)||(',', '', '', '', 0.0)||('including', '', '', '', 0.0)||('surgery', 'noun', 'C0038894', ['bmod'], 0.0)||(',', '', '', '', 0.0)||('be', '', '', '', 0.0)||('considered', '', '', '', 0.0)||('to', '', '', '', 0.0)||('reduce', '', '', '', 0.0)||('antibiotic', 'adj', 'C0003232', ['antb'], 0.0)||('usage', 'noun', 'C0457083', ['ftcn'], 0.0)||('for', '', '', '', 0.0)||('acute otitis media', 'noun', 'C0271429', ['dsyn'], 0.0)||('.', '', '', '', 0.0)||
('meta - analysis', '', '', '', 0.0)||('of', '', '', '', 0.0)||('five', '', 'C0205451', ['qnco'], 0.0)||('randomized', 'adj', 'C0034656', ['resa'], 0.0)||('trials', '', '', '', 0.0)||('of', '', '', '', 0.0)||('tubes', 'noun', 'C0175730', ['medd'], 0.0)||('versus', '', '', '', 0.0)||('no', '', '', '', 0.0)||('surgery', 'noun', 'C0038894', ['bmod'], 0.0)||('showed', '', '', '', 0.0)||('a', '', '', '', 0.0)||('mean', 'noun', 'C0444504', ['qnco'], 0.0)||('absolute', 'adj', 'C0205344', ['qlco'], 0.0)||('decrease', 'noun', 'C0392756', ['qlco'], 0.0)||('in', '', '', '', 0.0)||('acute otitis media', 'noun', 'C0271429', ['dsyn'], 0.0)||('incidence', 'noun', 'C0021149', ['qnco'], 0.0)||('of', '', '', '', 0.0)||('1 . 0', '', '', '', 0.0)||('episode', '', '', '', 0.0)||('per', '', '', '', 0.0)||('child', 'noun', 'C0008059', ['aggp'], 0.0)||('-', '', '', '', 0.0)||('year', 'noun', 'C0439234', ['tmco'], 0.0)||('(', '', '', '', 0.0)||('95 %', '', '', '', 0.0)||('ci', 'noun', 'C1417638', ['gngm'], 0.0)||(',', '', '', '', 0.0)||('0 . 4', '', '', '', 0.0)||('-', '', '', '', 0.0)||('1 . 6', '', '', '', 0.0)||(')', '', '', '', 0.0)||(',', '', '', '', 0.0)||('with', '', '', '', 0.0)||('a', '', '', '', 0.0)||('relative', 'adj', 'C0080103', ['famg'], 0.0)||('decrease', 'noun', 'C0392756', ['qlco'], 0.0)||('of', '', '', '', 0.0)||('56 %', '', '', '', 0.0)||('.', '', '', '', 0.0)||
('similarly', '', '', '', 0.0)||(',', '', '', '', 0.0)||('the', '', '', '', 0.0)||('prevalence', 'noun', 'C0033105', ['qnco'], 0.0)||('of', '', '', '', 0.0)||('middle - ear effusion', '', '', '', 0.0)||('decreased', 'verb', 'C0205216', ['qnco'], 0.0)||('by', '', '', '', 0.0)||('115', '', '', '', 0.0)||('days', 'noun', 'C0439228', ['tmco'], 0.0)||('per', '', '', '', 0.0)||('child', 'noun', 'C0008059', ['aggp'], 0.0)||('-', '', '', '', 0.0)||('year', 'noun', 'C0439234', ['tmco'], 0.0)||('(', '', '', '', 0.0)||('95 %', '', '', '', 0.0)||('ci', 'noun', 'C1417638', ['gngm'], 0.0)||(',', '', '', '', 0.0)||('11', '', '', '', 0.0)||('-', '', '', '', 0.0)||('220', '', '', '', 0.0)||(')', '', '', '', 0.0)||('.', '', '', '', 0.0)||
('within', '', '', '', 0.0)||('several', '', '', '', 0.0)||('weeks', 'noun', 'C0439230', ['tmco'], 0.0)||('of', '', '', '', 0.0)||('tube', 'noun', 'C0175730', ['medd'], 0.0)||('placement', 'noun', 'C0441587', ['ftcn'], 0.0)||('79 %', '', '', '', 0.0)||('of', '', '', '', 0.0)||('children', 'noun', 'C0008059', ['aggp'], 0.0)||('had', '', '', '', 0.0)||('improved', 'adj', 'C0184511', ['qlco'], 0.0)||('quality', 'noun', 'C0332306', ['qlco'], 0.0)||('of', '', '', '', 0.0)||('life', 'noun', 'C0376558', ['idcn'], 0.0)||(',', '', '', '', 0.0)||('17 %', '', '', '', 0.0)||('had', '', '', '', 0.0)||('trivial', '', '', '', 0.0)||('change', 'noun', 'C0392747', ['ftcn'], 0.0)||(',', '', '', '', 0.0)||('and', '', '', '', 0.0)||('4 %', '', '', '', 0.0)||('were', '', '', '', 0.0)||('worse', 'adj', 'C1279889', ['fndg'], 0.0)||('.', '', '', '', 0.0)||
('systematic review', '', '', '', 0.0)||('of', '', '', '', 0.0)||('134', '', '', '', 0.0)||('articles', '', '', '', 0.0)||('revealed', 'verb', 'C0443289', ['qlco'], 0.0)||('transient', 'adj', 'C0040704', ['popg'], 0.0)||('post - operative', '', '', '', 0.0)||('otorrhea', 'noun', 'C0155540', ['fndg'], 0.0)||('in', '', '', '', 0.0)||('16 %', '', '', '', 0.0)||('of', '', '', '', 0.0)||('patients', 'noun', 'C0030705', ['podg'], 0.0)||('with', '', '', '', 0.0)||('tubes', 'noun', 'C0175730', ['medd'], 0.0)||(',', '', '', '', 0.0)||('and', '', '', '', 0.0)||('later', '', '', '', 0.0)||('in', '', '', '', 0.0)||('26 %', '', '', '', 0.0)||(';', '', '', '', 0.0)||
('recurrent', 'adj', 'C0034897', ['phpr'], 0.0)||('otorrhea', 'noun', 'C0155540', ['fndg'], 0.0)||('occurred', 'verb', 'C1709305', ['cnce'], 0.0)||('in', '', '', '', 0.0)||('7 . 4 %', '', '', '', 0.0)||('of', '', '', '', 0.0)||('patients', 'noun', 'C0030705', ['podg'], 0.0)||('and', '', '', '', 0.0)||('chronic', 'adj', 'C0205191', ['tmco'], 0.0)||('otorrhea', 'noun', 'C0155540', ['fndg'], 0.0)||('in', '', '', '', 0.0)||('3 . 8 %', '', '', '', 0.0)||('adenoidectomy', 'noun', 'C0001425', ['topp'], 0.0)||('reduced', 'verb', 'C0392756', ['qlco'], 0.0)||('acute otitis media', 'noun', 'C0271429', ['dsyn'], 0.0)||('incidence', 'noun', 'C0021149', ['qnco'], 0.0)||('by', '', '', '', 0.0)||('0 . 32', '', '', '', 0.0)||('episodes', 'noun', 'C0332189', ['tmco'], 0.0)||('per', '', '', '', 0.0)||('child', 'noun', 'C0008059', ['aggp'], 0.0)||('-', '', '', '', 0.0)||('year', 'noun', 'C0439234', ['tmco'], 0.0)||('(', '', '', '', 0.0)||('95 %', '', '', '', 0.0)||('ci', 'noun', 'C1417638', ['gngm'], 0.0)||(',', '', '', '', 0.0)||('0 . 03', '', '', '', 0.0)||('-', '', '', '', 0.0)||('0 . 61', '', '', '', 0.0)||(')', '', '', '', 0.0)||('for', '', '', '', 0.0)||('a', '', '', '', 0.0)||('3', '', '', '', 0.0)||('-', '', '', '', 0.0)||('year', 'noun', 'C0439234', ['tmco'], 0.0)||('period', 'noun', 'C1948053', ['tmco'], 0.0)||('in', '', '', '', 0.0)||('one', 'noun', 'C0205447', ['qnco'], 0.0)||('study', 'noun', 'C0008976', ['resa'], 0.0)||('(', '', '', '', 0.0)||('26 %', '', '', '', 0.0)||('relative', 'adj', 'C0080103', ['famg'], 0.0)||('decrease', 'noun', 'C0392756', ['qlco'], 0.0)||(')', '', '', '', 0.0)||(',', '', '', '', 0.0)||('but', '', '', '', 0.0)||('the', '', '', '', 0.0)||('effect', 'noun', 'C1280500', ['qlco'], 0.0)||('was', '', '', '', 0.0)||('only', '', '', '', 0.0)||('significant', 'adj', 'C0750502', ['idcn'], 0.0)||('for', '', '', '', 0.0)||('children', 'noun', 'C0008059', ['aggp'], 0.0)||('with', '', '', '', 0.0)||('prior', 'adj', 'C0332152', ['tmco'], 0.0)||('tubes', 'noun', 'C0175730', ['medd'], 0.0)||('.', '', '', '', 0.0)||
('surgical', 'adj', 'C0543467', ['topp'], 0.0)||('therapy', 'noun', 'C0039798', ['ftcn'], 0.0)||('of', '', '', '', 0.0)||('otitis media', 'noun', 'C0029882', ['dsyn'], 0.0)||('offers', '', '', '', 0.0)||('significant', 'adj', 'C0750502', ['idcn'], 0.0)||('benefits', 'noun', 'C0814225', ['qnco'], 0.0)||('and', '', '', '', 0.0)||('is', '', '', '', 0.0)||('an', '', '', '', 0.0)||('effective', 'adj', 'C1704419', ['qlco'], 0.0)||('prevention', 'noun', 'C0199176', ['topp'], 0.0)||('strategy', 'noun', 'C0679199', ['menp'], 0.0)||('in', '', '', '', 0.0)||('selected', '', '', '', 0.0)||('children', 'noun', 'C0008059', ['aggp'], 0.0)||('.', '', '', '', 0.0)||
