('one', 'noun', 'C0205447', ['qnco'], 0.0)||('randomized controlled trial', '', '', '', 0.0)||('of', '', '', '', 0.0)||('264', '', '', '', 0.0)||('children', 'noun', 'C0008059', ['aggp'], 0.0)||(',', '', '', '', 0.0)||('aged', 'verb', 'C0001779', ['orga'], 0.0)||('7', '', '', '', 0.0)||('to', '', '', '', 0.0)||('35', '', '', '', 0.0)||('months', 'noun', 'C0439231', ['tmco'], 0.0)||(',', '', '', '', 0.0)||('with', '', '', '', 0.0)||('a', '', '', '', 0.0)||('history', 'noun', 'C0019664', ['ocdi'], 0.0)||('of', '', '', '', 0.0)||('recurrent', 'adj', 'C0034897', ['phpr'], 0.0)||('acute otitis media', 'noun', 'C0271429', ['dsyn'], 0.0)||('but', '', '', '', 0.0)||('free', 'adj', 'C1880497', ['qlco'], 0.0)||('of', '', '', '', 0.0)||('middle - ear effusion', '', '', '', 0.0)||(',', '', '', '', 0.0)||('compared', 'adj', 'C1707455', ['acty'], 0.0)||('tubes', 'noun', 'C0175730', ['medd'], 0.0)||('with', '', '', '', 0.0)||('medical', 'adj', 'C0205476', ['ftcn'], 0.0)||('therapy', 'noun', 'C0039798', ['ftcn'], 0.0)||('and', '', '', '', 0.0)||('found', '', '', '', 0.0)||('no', '', '', '', 0.0)||('difference', 'noun', 'C1705242', ['qlco'], 0.0)||('in', '', '', '', 0.0)||('recurrence', 'noun', 'C0034897', ['phpr'], 0.0)||('over', '', '', '', 0.0)||('2', '', '', '', 0.0)||('years', 'noun', 'C0439234', ['tmco'], 0.0)||('.', '', '', '', 0.0)||
('the', '', '', '', 0.0)||('medical', 'adj', 'C0205476', ['ftcn'], 0.0)||('therapy', 'noun', 'C0039798', ['ftcn'], 0.0)||('arm', 'noun', 'C0446516', ['blor'], 0.0)||('received', 'verb', 'C1514756', ['qlco'], 0.0)||('prophylaxis', 'noun', 'C0033107', ['inpr'], 0.0)||('with', '', '', '', 0.0)||('either', '', '', '', 0.0)||('amoxicillin', 'noun', 'C0002645', ['antb', 'orch'], 0.0)||('or', '', '', '', 0.0)||('placebo', 'noun', 'C0032042', ['topp'], 0.0)||('.', '', '', '', 0.0)||
('the', '', '', '', 0.0)||('amoxicillin', 'noun', 'C0002645', ['antb', 'orch'], 0.0)||('arm', 'noun', 'C0446516', ['blor'], 0.0)||('had', '', '', '', 0.0)||('0 . 6', '', '', '', 0.0)||('fewer', '', '', '', 0.0)||('episodes', 'noun', 'C0332189', ['tmco'], 0.0)||('of', '', '', '', 0.0)||('acute otitis media', 'noun', 'C0271429', ['dsyn'], 0.0)||('per', '', '', '', 0.0)||('year', 'noun', 'C0439234', ['tmco'], 0.0)||('compared', 'verb', 'C1707455', ['acty'], 0.0)||('with', '', '', '', 0.0)||('the', '', '', '', 0.0)||('other', '', '', '', 0.0)||('2', '', '', '', 0.0)||(',', '', '', '', 0.0)||('a', '', '', '', 0.0)||('statistically significant', 'adj', 'C0237881', ['qnco'], 0.0)||('40 %', '', '', '', 0.0)||('decrease', 'noun', 'C0392756', ['qlco'], 0.0)||('(', '', '', '', 0.0)||('relative risk reduction', '', '', '', 0.0)||('=', '', '', '', 0.0)||('0 . 4', '', '', '', 0.0)||(')', '', '', '', 0.0)||('.', '', '', '', 0.0)||
('the', '', '', '', 0.0)||('average', 'adj', 'C1510992', ['qnco'], 0.0)||('time', 'noun', 'C0040223', ['tmco'], 0.0)||('with', '', '', '', 0.0)||('otitis media', 'noun', 'C0029882', ['dsyn'], 0.0)||('of', '', '', '', 0.0)||('any', '', '', '', 0.0)||('type', 'noun', 'C0332307', ['qlco'], 0.0)||('(', '', '', '', 0.0)||('acute otitis media', 'noun', 'C0271429', ['dsyn'], 0.0)||(',', '', '', '', 0.0)||('otitis media', 'noun', 'C0029882', ['dsyn'], 0.0)||('with', '', '', '', 0.0)||('effusion', 'noun', 'C0013687', ['patf'], 0.0)||(',', '', '', '', 0.0)||('or', '', '', '', 0.0)||('ottorhea', '', '', '', 0.0)||(')', '', '', '', 0.0)||('also', '', '', '', 0.0)||('decreased', 'verb', 'C0205216', ['qnco'], 0.0)||('-', '', '', '', 0.0)||('15 . 0 %', '', '', '', 0.0)||('in', '', '', '', 0.0)||('the', '', '', '', 0.0)||('placebo', 'noun', 'C0032042', ['topp'], 0.0)||('group', 'noun', 'C0441833', ['idcn'], 0.0)||(',', '', '', '', 0.0)||('10 . 0 %', '', '', '', 0.0)||('in', '', '', '', 0.0)||('the', '', '', '', 0.0)||('amoxicillin', 'noun', 'C0002645', ['antb', 'orch'], 0.0)||('group', 'noun', 'C0441833', ['idcn'], 0.0)||(',', '', '', '', 0.0)||('and', '', '', '', 0.0)||('6 . 6 %', '', '', '', 0.0)||('in', '', '', '', 0.0)||('the', '', '', '', 0.0)||('tympanostomy tube', '', '', '', 0.0)||('group', 'noun', 'C0441833', ['idcn'], 0.0)||('(', '', '', '', 0.0)||('amoxicillin', 'noun', 'C0002645', ['antb', 'orch'], 0.0)||('vs', '', '', '', 0.0)||('.', '', '', '', 0.0)||('placebo', 'noun', 'C0032042', ['topp'], 0.0)||(',', '', '', '', 0.0)||('p', '', '', '', 0.0)||('=', '', '', '', 0.0)||('.', '', '', '', 0.0)||('03', '', '', '', 0.0)||(';', '', '', '', 0.0)||('tubes', 'noun', 'C0175730', ['medd'], 0.0)||('vs', '', '', '', 0.0)||('.', '', '', '', 0.0)||('placebo', 'noun', 'C0032042', ['topp'], 0.0)||(',', '', '', '', 0.0)||('p', '', '', '', 0.0)||('<', '', '', '', 0.0)||('.', '', '', '', 0.0)||('001', '', '', '', 0.0)||(')', '', '', '', 0.0)||('.', '', '', '', 0.0)||
('higher', '', '', '', 0.0)||('dropout', 'noun', 'C0013135', ['popg'], 0.0)||('rates', '', '', '', 0.0)||('occurred', 'verb', 'C1709305', ['cnce'], 0.0)||('in', '', '', '', 0.0)||('the', '', '', '', 0.0)||('amoxicillin', 'noun', 'C0002645', ['antb', 'orch'], 0.0)||('and', '', '', '', 0.0)||('medical', 'adj', 'C0205476', ['ftcn'], 0.0)||('treatment', 'noun', 'C0039798', ['ftcn'], 0.0)||('groups', 'noun', 'C0441833', ['idcn'], 0.0)||('.', '', '', '', 0.0)||
