('there', '', '', '', 0.0)||('are', '', '', '', 0.0)||('no', '', '', '', 0.0)||('currently', 'adv', 'C0521116', ['tmco'], 0.0)||('accepted', 'adj', 'C1272684', ['qlco'], 0.0)||('evidence', 'noun', 'C0332120', ['ftcn'], 0.0)||('-', '', '', '', 0.0)||('based', 'adj', 'C1527178', ['ftcn'], 0.0)||('guidelines', 'noun', 'C0162791', ['inpr'], 0.0)||('for', '', '', '', 0.0)||('the', '', '', '', 0.0)||('diagnosis', 'noun', 'C0011900', ['fndg'], 0.0)||('and', '', '', '', 0.0)||('management', 'noun', 'C0001554', ['ocac'], 0.0)||('of', '', '', '', 0.0)||('the', '', '', '', 0.0)||('normal - pressure hydrocephalus', '', '', '', 0.0)||('patient', '', '', '', 0.0)||('.', '', '', '', 0.0)||
('as', '', '', '', 0.0)||('a', '', '', '', 0.0)||('result', 'noun', 'C1274040', ['ftcn'], 0.0)||(',', '', '', '', 0.0)||('an', '', '', '', 0.0)||('independent', 'adj', 'C0085862', ['idcn'], 0.0)||('study group', '', '', '', 0.0)||('was', '', '', '', 0.0)||('assembled', '', '', '', 0.0)||('to', '', '', '', 0.0)||('address', 'verb', 'C1442065', ['spco'], 0.0)||('this', '', '', '', 0.0)||('issue', 'noun', 'C0033213', ['fndg'], 0.0)||('and', '', '', '', 0.0)||('determine', '', '', '', 0.0)||('the', '', '', '', 0.0)||('feasibility', '', '', '', 0.0)||('of', '', '', '', 0.0)||('developing', 'adj', 'C1999145', ['acty'], 0.0)||('standardized', '', '', '', 0.0)||('guidelines', 'noun', 'C0162791', ['inpr'], 0.0)||(',', '', '', '', 0.0)||('which', '', '', '', 0.0)||('would', '', '', '', 0.0)||('be', '', '', '', 0.0)||('acceptable', 'adj', 'C1879533', ['qlco'], 0.0)||('in', '', '', '', 0.0)||('the', '', '', '', 0.0)||('united states', 'noun', 'C0041703', ['geoa'], 0.0)||('and', '', '', '', 0.0)||('abroad', '', '', '', 0.0)||('and', '', '', '', 0.0)||('would', '', '', '', 0.0)||('be', '', '', '', 0.0)||('based', 'verb', 'C1527178', ['ftcn'], 0.0)||('on', '', '', '', 0.0)||('the', '', '', '', 0.0)||('available', 'adj', 'C0470187', ['ftcn'], 0.0)||('scientific', 'adj', 'C0036397', ['ocdi'], 0.0)||('evidence', 'noun', 'C0332120', ['ftcn'], 0.0)||('.', '', '', '', 0.0)||
('the', '', '', '', 0.0)||('guidelines', 'noun', 'C0162791', ['inpr'], 0.0)||('were', '', '', '', 0.0)||('to', '', '', '', 0.0)||('encompass', '', '', '', 0.0)||('value', 'noun', 'C0042295', ['qlco'], 0.0)||('of', '', '', '', 0.0)||('clinical', 'adj', 'C0205210', ['qlco'], 0.0)||('presentation', 'noun', 'C0449450', ['idcn'], 0.0)||(',', '', '', '', 0.0)||('value', 'noun', 'C0042295', ['qlco'], 0.0)||('of', '', '', '', 0.0)||('supplementary', '', '', '', 0.0)||('diagnostic tests', 'noun', 'C0086143', ['diap'], 0.0)||(',', '', '', '', 0.0)||('surgical', 'adj', 'C0543467', ['topp'], 0.0)||('management', 'noun', 'C0001554', ['ocac'], 0.0)||(',', '', '', '', 0.0)||('and', '', '', '', 0.0)||('outcome', 'noun', 'C1274040', ['ftcn'], 0.0)||('assessment', 'noun', 'C1261322', ['hlca'], 0.0)||('.', '', '', '', 0.0)||
('initially', 'adv', 'C0205265', ['tmco'], 0.0)||(',', '', '', '', 0.0)||('a', '', '', '', 0.0)||('series', 'noun', 'C0205549', ['qnco'], 0.0)||('of', '', '', '', 0.0)||('10', '', '', '', 0.0)||('questions', '', '', '', 0.0)||('were', '', '', '', 0.0)||('formulated', '', '', '', 0.0)||('in', '', '', '', 0.0)||('the', '', '', '', 0.0)||('areas', '', '', '', 0.0)||('of', '', '', '', 0.0)||('pathophysiology', 'noun', 'C0031847', ['ftcn'], 0.0)||(',', '', '', '', 0.0)||('diagnosis', 'noun', 'C0011900', ['fndg'], 0.0)||(',', '', '', '', 0.0)||('and', '', '', '', 0.0)||('treatment', 'noun', 'C0039798', ['ftcn'], 0.0)||('to', '', '', '', 0.0)||('obtain', 'verb', 'C1301820', ['ftcn'], 0.0)||('a', '', '', '', 0.0)||('consensus', 'noun', 'C0376298', ['socb'], 0.0)||('by', '', '', '', 0.0)||('panels', '', '', '', 0.0)||('of', '', '', '', 0.0)||('experts', '', '', '', 0.0)||('(', '', '', '', 0.0)||('see', 'verb', 'C1947903', ['acty'], 0.0)||('acknowledgments', '', '', '', 0.0)||(')', '', '', '', 0.0)||('assembled', '', '', '', 0.0)||('in', '', '', '', 0.0)||('san antonio', '', '', '', 0.0)||(',', '', '', '', 0.0)||('tx', '', '', '', 0.0)||(',', '', '', '', 0.0)||('in', '', '', '', 0.0)||('september', '', '', '', 0.0)||('2000', '', '', '', 0.0)||('.', '', '', '', 0.0)||
('this', '', '', '', 0.0)||('workshop', 'noun', 'C0242262', ['edac'], 0.0)||('provided', '', '', '', 0.0)||('significant', 'adj', 'C0750502', ['idcn'], 0.0)||('insight', 'noun', 'C0233820', ['menp'], 0.0)||('into', '', '', '', 0.0)||('the', '', '', '', 0.0)||('difficulties', '', '', '', 0.0)||('in', '', '', '', 0.0)||('developing', 'adj', 'C1999145', ['acty'], 0.0)||('normal - pressure hydrocephalus', '', '', '', 0.0)||('guidelines', 'noun', 'C0162791', ['inpr'], 0.0)||(',', '', '', '', 0.0)||('and', '', '', '', 0.0)||('a', '', '', '', 0.0)||('consensus', 'noun', 'C0376298', ['socb'], 0.0)||('was', '', '', '', 0.0)||('reached', '', '', '', 0.0)||('as to', '', '', '', 0.0)||('those', '', '', '', 0.0)||('questions', '', '', '', 0.0)||('involving', 'verb', 'C1314939', ['ftcn'], 0.0)||('expert', '', '', '', 0.0)||('opinion', '', '', '', 0.0)||('.', '', '', '', 0.0)||
('subsequently', '', '', '', 0.0)||(',', '', '', '', 0.0)||('evidentiary', '', '', '', 0.0)||('tables', 'noun', 'C0039224', ['mnob'], 0.0)||('were', '', '', '', 0.0)||('developed', '', '', '', 0.0)||('on', '', '', '', 0.0)||('the', '', '', '', 0.0)||('basis', 'noun', 'C1527178', ['ftcn'], 0.0)||('of', '', '', '', 0.0)||('the', '', '', '', 0.0)||('available', 'adj', 'C0470187', ['ftcn'], 0.0)||('evidence', 'noun', 'C0332120', ['ftcn'], 0.0)||('.', '', '', '', 0.0)||
('only', '', '', '', 0.0)||('those', '', '', '', 0.0)||('studies', '', '', '', 0.0)||('with', '', '', '', 0.0)||('20', '', '', '', 0.0)||('or', '', '', '', 0.0)||('more', '', '', '', 0.0)||('idiopathic', 'adj', 'C0332240', ['ftcn'], 0.0)||('normal - pressure hydrocephalus', '', '', '', 0.0)||('patients', 'noun', 'C0030705', ['podg'], 0.0)||('were', '', '', '', 0.0)||('included', '', '', '', 0.0)||('.', '', '', '', 0.0)||
('sensitivity', 'noun', 'C0036667', ['qnco'], 0.0)||(',', '', '', '', 0.0)||('specificity', 'noun', 'C0037791', ['qnco'], 0.0)||(',', '', '', '', 0.0)||('and', '', '', '', 0.0)||('positive', 'noun', 'C1446409', ['qlco'], 0.0)||('and', '', '', '', 0.0)||('negative predictive values', '', '', '', 0.0)||('for', '', '', '', 0.0)||('idiopathic', 'adj', 'C0332240', ['ftcn'], 0.0)||('nph', 'noun', 'C0020258', ['dsyn'], 0.0)||('diagnostic', 'adj', 'C0011900', ['fndg'], 0.0)||('criteria', 'noun', 'C0243161', ['inpr'], 0.0)||('were', '', '', '', 0.0)||('assessed', 'verb', 'C1516048', ['acty'], 0.0)||(',', '', '', '', 0.0)||('and', '', '', '', 0.0)||('guidelines', 'noun', 'C0162791', ['inpr'], 0.0)||('were', '', '', '', 0.0)||('developed', '', '', '', 0.0)||('on', '', '', '', 0.0)||('the', '', '', '', 0.0)||('basis', 'noun', 'C1527178', ['ftcn'], 0.0)||('of', '', '', '', 0.0)||('the', '', '', '', 0.0)||('available', 'adj', 'C0470187', ['ftcn'], 0.0)||('evidence', 'noun', 'C0332120', ['ftcn'], 0.0)||('.', '', '', '', 0.0)||
('recommendations', 'noun', 'C0034866', ['idcn'], 0.0)||('for', '', '', '', 0.0)||('classification', 'noun', 'C0008902', ['clas'], 0.0)||('of', '', '', '', 0.0)||('idiopathic', 'adj', 'C0332240', ['ftcn'], 0.0)||('nph', 'noun', 'C0020258', ['dsyn'], 0.0)||('and', '', '', '', 0.0)||('additional', 'adj', 'C1524062', ['ftcn'], 0.0)||('studies', '', '', '', 0.0)||('were', '', '', '', 0.0)||('documented', 'verb', 'C1301725', ['hlca'], 0.0)||('.', '', '', '', 0.0)||
('the', '', '', '', 0.0)||('development', 'noun', 'C0020119', ['phsf'], 0.0)||('of', '', '', '', 0.0)||('the', '', '', '', 0.0)||('guidelines', 'noun', 'C0162791', ['inpr'], 0.0)||('was', '', '', '', 0.0)||('made', '', '', '', 0.0)||('difficult', 'adj', 'C0332218', ['qlco'], 0.0)||('because', '', '', '', 0.0)||('systematic', 'adj', 'C0220922', ['ftcn'], 0.0)||('studies', '', '', '', 0.0)||('of', '', '', '', 0.0)||('idiopathic', 'adj', 'C0332240', ['ftcn'], 0.0)||('nph', 'noun', 'C0020258', ['dsyn'], 0.0)||('and', '', '', '', 0.0)||('patient', '', '', '', 0.0)||('numbers', 'noun', 'C0237753', ['qnco'], 0.0)||('were', '', '', '', 0.0)||('few', '', '', '', 0.0)||('.', '', '', '', 0.0)||
('it', '', '', '', 0.0)||('was', '', '', '', 0.0)||('decided', '', '', '', 0.0)||('to', '', '', '', 0.0)||('maintain', 'verb', 'C0024501', ['acty'], 0.0)||('the', '', '', '', 0.0)||('classification', 'noun', 'C0008902', ['clas'], 0.0)||('of', '', '', '', 0.0)||('normal - pressure hydrocephalus', '', '', '', 0.0)||('into', '', '', '', 0.0)||('two', 'adj', 'C0205448', ['qnco'], 0.0)||('major', 'adj', 'C0205164', ['qlco'], 0.0)||('categories', 'noun', 'C0683312', ['inpr'], 0.0)||(',', '', '', '', 0.0)||('idiopathic', 'adj', 'C0332240', ['ftcn'], 0.0)||('nph', 'noun', 'C0020258', ['dsyn'], 0.0)||('and', '', '', '', 0.0)||('those', '', '', '', 0.0)||('of', '', '', '', 0.0)||('known', 'adj', 'C0205309', ['qlco'], 0.0)||('cause', 'noun', 'C1524003', ['cnce'], 0.0)||('(', '', '', '', 0.0)||('secondary', 'adj', 'C0175668', ['tmco'], 0.0)||('normal - pressure hydrocephalus', '', '', '', 0.0)||(')', '', '', '', 0.0)||('.', '', '', '', 0.0)||
('many', '', '', '', 0.0)||('studies', '', '', '', 0.0)||('"', '', '', '', 0.0)||('mixed', 'verb', 'C0205430', ['ftcn'], 0.0)||('"', '', '', '', 0.0)||('these', '', '', '', 0.0)||('classifications', 'noun', 'C0008902', ['clas'], 0.0)||(',', '', '', '', 0.0)||('and', '', '', '', 0.0)||('as', '', '', '', 0.0)||('a', '', '', '', 0.0)||('result', 'noun', 'C1274040', ['ftcn'], 0.0)||(',', '', '', '', 0.0)||('they', '', '', '', 0.0)||('could', '', '', '', 0.0)||('not', 'adv', 'C1518422', ['ftcn'], 0.0)||('be', '', '', '', 0.0)||('used', '', '', '', 0.0)||('in', '', '', '', 0.0)||('the', '', '', '', 0.0)||('evidentiary', '', '', '', 0.0)||('tables', 'noun', 'C0039224', ['mnob'], 0.0)||('.', '', '', '', 0.0)||
('despite', '', '', '', 0.0)||('these', '', '', '', 0.0)||('problems', 'noun', 'C1546466', ['idcn'], 0.0)||(',', '', '', '', 0.0)||('evidence', 'noun', 'C0332120', ['ftcn'], 0.0)||('-', '', '', '', 0.0)||('based', 'adj', 'C1527178', ['ftcn'], 0.0)||('guidelines', 'noun', 'C0162791', ['inpr'], 0.0)||('were', '', '', '', 0.0)||('developed', '', '', '', 0.0)||(',', '', '', '', 0.0)||('and', '', '', '', 0.0)||('it', '', '', '', 0.0)||('is', '', '', '', 0.0)||('hoped', '', '', '', 0.0)||('that', '', '', '', 0.0)||('they', '', '', '', 0.0)||('will', '', '', '', 0.0)||('be', '', '', '', 0.0)||('useful', '', '', '', 0.0)||('in', '', '', '', 0.0)||('guiding', 'noun', 'C2003846', ['ftcn'], 0.0)||('clinical', 'adj', 'C0205210', ['qlco'], 0.0)||('management', 'noun', 'C0001554', ['ocac'], 0.0)||('of', '', '', '', 0.0)||('the', '', '', '', 0.0)||('idiopathic', 'adj', 'C0332240', ['ftcn'], 0.0)||('nph', 'noun', 'C0020258', ['dsyn'], 0.0)||('patient', '', '', '', 0.0)||('.', '', '', '', 0.0)||
