('the', '', '', '', 0.0)||('life tables', 'noun', 'C0023683', ['inpr', 'qnco'], 0.0)||('in', '', '', '', 0.0)||('this', '', '', '', 0.0)||('report', 'noun', 'C0684224', ['inpr'], 0.0)||('are', '', '', '', 0.0)||('current', 'adj', 'C0521116', ['tmco'], 0.0)||('life tables', 'noun', 'C0023683', ['inpr', 'qnco'], 0.0)||('for', '', '', '', 0.0)||('the', '', '', '', 0.0)||('united states', 'noun', 'C0041703', ['geoa'], 0.0)||('based', 'verb', 'C1527178', ['ftcn'], 0.0)||('on', '', '', '', 0.0)||('age - specific death rates', '', '', '', 0.0)||('in', '', '', '', 0.0)||('1997', '', '', '', 0.0)||('.', '', '', '', 0.0)||
('beginning', 'noun', 'C0439659', ['tmco'], 0.0)||('with', '', '', '', 0.0)||('1997', '', '', '', 0.0)||('mortality', 'noun', 'C0026565', ['qnco'], 0.0)||('data', 'noun', 'C1511726', ['idcn'], 0.0)||(',', '', '', '', 0.0)||('complete', 'adj', 'C0205197', ['qlco'], 0.0)||('u', '', '', '', 0.0)||('.', '', '', '', 0.0)||('s', '', '', '', 0.0)||('.', '', '', '', 0.0)||
('life tables', 'noun', 'C0023683', ['inpr', 'qnco'], 0.0)||('were', '', '', '', 0.0)||('constructed', '', '', '', 0.0)||('using', 'verb', 'C1524063', ['ftcn'], 0.0)||('a', '', '', '', 0.0)||('new', 'adj', 'C0205314', ['tmco'], 0.0)||('methodology', 'noun', 'C0025664', ['inpr'], 0.0)||('that', '', '', '', 0.0)||('replaces', 'verb', 'C1550539', ['idcn'], 0.0)||('the', '', '', '', 0.0)||('abridged', '', '', '', 0.0)||('life table', 'noun', 'C0023683', ['inpr', 'qnco'], 0.0)||('methodology', 'noun', 'C0025664', ['inpr'], 0.0)||('used', '', '', '', 0.0)||('previously', '', '', '', 0.0)||('.', '', '', '', 0.0)||
('the', '', '', '', 0.0)||('methodology', 'noun', 'C0025664', ['inpr'], 0.0)||('is', '', '', '', 0.0)||('similar', 'adj', 'C2348205', ['qlco'], 0.0)||('to', '', '', '', 0.0)||('that', '', '', '', 0.0)||('used', '', '', '', 0.0)||('in', '', '', '', 0.0)||('the', '', '', '', 0.0)||('decennial', '', '', '', 0.0)||('life tables', 'noun', 'C0023683', ['inpr', 'qnco'], 0.0)||('.', '', '', '', 0.0)||
('also', '', '', '', 0.0)||(',', '', '', '', 0.0)||('life expectancy', 'noun', 'C0023671', ['grpa'], 0.0)||('and', '', '', '', 0.0)||('other', '', '', '', 0.0)||('life table', 'noun', 'C0023683', ['inpr', 'qnco'], 0.0)||('values', 'noun', 'C0042295', ['qlco'], 0.0)||('are', '', '', '', 0.0)||('shown', '', '', '', 0.0)||('for', '', '', '', 0.0)||('ages', '', '', '', 0.0)||('85', '', '', '', 0.0)||('to', '', '', '', 0.0)||('100', '', '', '', 0.0)||('years', 'noun', 'C0439234', ['tmco'], 0.0)||('for', '', '', '', 0.0)||('the', '', '', '', 0.0)||('first', 'adj', 'C0205435', ['qnco'], 0.0)||('time', 'noun', 'C0040223', ['tmco'], 0.0)||('as', '', '', '', 0.0)||('part', 'noun', 'C0449719', ['spco'], 0.0)||('of', '', '', '', 0.0)||('the', '', '', '', 0.0)||('annual', 'adj', 'C0332181', ['tmco'], 0.0)||('u', '', '', '', 0.0)||('.', '', '', '', 0.0)||('s', '', '', '', 0.0)||('.', '', '', '', 0.0)||
('life tables', 'noun', 'C0023683', ['inpr', 'qnco'], 0.0)||('.', '', '', '', 0.0)||
('data', 'noun', 'C1511726', ['idcn'], 0.0)||('used', '', '', '', 0.0)||('to', '', '', '', 0.0)||('prepare', 'verb', 'C1521827', ['ftcn'], 0.0)||('these', '', '', '', 0.0)||('life tables', 'noun', 'C0023683', ['inpr', 'qnco'], 0.0)||('are', '', '', '', 0.0)||('1997', '', '', '', 0.0)||('final', 'adj', 'C0205088', ['tmco'], 0.0)||('mortality', 'noun', 'C0026565', ['qnco'], 0.0)||('statistics', 'noun', 'C0038215', ['ocdi'], 0.0)||(';', '', '', '', 0.0)||
('july', '', '', '', 0.0)||('1', '', '', '', 0.0)||(',', '', '', '', 0.0)||('1997', '', '', '', 0.0)||(',', '', '', '', 0.0)||('population', 'noun', 'C0032659', ['qnco'], 0.0)||('estimates', '', '', '', 0.0)||(';', '', '', '', 0.0)||
('and', '', '', '', 0.0)||('data', 'noun', 'C1511726', ['idcn'], 0.0)||('from', '', '', '', 0.0)||('the', '', '', '', 0.0)||('medicare', 'noun', 'C0018717', ['rnlw'], 0.0)||('program', 'noun', 'C1709697', ['cnce'], 0.0)||('.', '', '', '', 0.0)||
('presented', 'verb', 'C0449450', ['idcn'], 0.0)||('are', '', '', '', 0.0)||('complete', 'adj', 'C0205197', ['qlco'], 0.0)||('life tables', 'noun', 'C0023683', ['inpr', 'qnco'], 0.0)||('by', '', '', '', 0.0)||('age', 'noun', 'C0001779', ['orga'], 0.0)||(',', '', '', '', 0.0)||('race', 'noun', 'C0034510', ['popg'], 0.0)||(',', '', '', '', 0.0)||('and', '', '', '', 0.0)||('sex', 'noun', 'C0036864', ['bhvr'], 0.0)||('.', '', '', '', 0.0)||
('in', '', '', '', 0.0)||('1997', '', '', '', 0.0)||('the', '', '', '', 0.0)||('overall', 'adj', 'C0282416', ['inpr'], 0.0)||('expectation', 'noun', 'C0679138', ['idcn'], 0.0)||('of', '', '', '', 0.0)||('life', 'noun', 'C0376558', ['idcn'], 0.0)||('at', '', '', '', 0.0)||('birth', 'noun', 'C0005615', ['orgf'], 0.0)||('was', '', '', '', 0.0)||('76 . 5', '', '', '', 0.0)||('years', 'noun', 'C0439234', ['tmco'], 0.0)||(',', '', '', '', 0.0)||('an', '', '', '', 0.0)||('increase', 'noun', 'C0442805', ['ftcn'], 0.0)||('of', '', '', '', 0.0)||('0 . 4', '', '', '', 0.0)||('years', 'noun', 'C0439234', ['tmco'], 0.0)||('compared', 'verb', 'C1707455', ['acty'], 0.0)||('with', '', '', '', 0.0)||('life expectancy', 'noun', 'C0023671', ['grpa'], 0.0)||('in', '', '', '', 0.0)||('1996', '', '', '', 0.0)||('.', '', '', '', 0.0)||
('life expectancy', 'noun', 'C0023671', ['grpa'], 0.0)||('increased', 'verb', 'C0205217', ['qnco'], 0.0)||('from', '', '', '', 0.0)||('1996', '', '', '', 0.0)||('to', '', '', '', 0.0)||('1997', '', '', '', 0.0)||('for', '', '', '', 0.0)||('each', '', '', '', 0.0)||('of', '', '', '', 0.0)||('the', '', '', '', 0.0)||('four', '', 'C0205450', ['qnco'], 0.0)||('race', 'noun', 'C0034510', ['popg'], 0.0)||('-', '', '', '', 0.0)||('sex', 'noun', 'C0036864', ['bhvr'], 0.0)||('groups', 'verb', 'C0441833', ['idcn'], 0.0)||('for', '', '', '', 0.0)||('which', '', '', '', 0.0)||('life expectancy', 'noun', 'C0023671', ['grpa'], 0.0)||('is', '', '', '', 0.0)||('reported', 'verb', 'C0684224', ['inpr'], 0.0)||('.', '', '', '', 0.0)||
('life expectancy', 'noun', 'C0023671', ['grpa'], 0.0)||('increased', 'verb', 'C0205217', ['qnco'], 0.0)||('for', '', '', '', 0.0)||('black', 'adj', 'C0005680', ['popg'], 0.0)||('males', 'noun', 'C0024554', ['orga'], 0.0)||('by', '', '', '', 0.0)||('1 . 1', '', '', '', 0.0)||('year', 'noun', 'C0439234', ['tmco'], 0.0)||('(', '', '', '', 0.0)||('from', '', '', '', 0.0)||('66 . 1', '', '', '', 0.0)||('to', '', '', '', 0.0)||('67 . 2', '', '', '', 0.0)||(')', '', '', '', 0.0)||(',', '', '', '', 0.0)||('for', '', '', '', 0.0)||('black', 'adj', 'C0005680', ['popg'], 0.0)||('females', 'noun', 'C0015780', ['orga'], 0.0)||('by', '', '', '', 0.0)||('0 . 5', '', '', '', 0.0)||('year', 'noun', 'C0439234', ['tmco'], 0.0)||('(', '', '', '', 0.0)||('from', '', '', '', 0.0)||('74 . 2', '', '', '', 0.0)||('to', '', '', '', 0.0)||('74 . 7', '', '', '', 0.0)||(')', '', '', '', 0.0)||(',', '', '', '', 0.0)||('for', '', '', '', 0.0)||('white', 'adj', 'C0007457', ['popg'], 0.0)||('males', 'noun', 'C0024554', ['orga'], 0.0)||('by', '', '', '', 0.0)||('0 . 4', '', '', '', 0.0)||('year', 'noun', 'C0439234', ['tmco'], 0.0)||('(', '', '', '', 0.0)||('from', '', '', '', 0.0)||('73 . 9', '', '', '', 0.0)||('to', '', '', '', 0.0)||('74 . 3', '', '', '', 0.0)||(')', '', '', '', 0.0)||(',', '', '', '', 0.0)||('and', '', '', '', 0.0)||('for', '', '', '', 0.0)||('white females', '', '', '', 0.0)||('by', '', '', '', 0.0)||('0 . 2', '', '', '', 0.0)||('year', 'noun', 'C0439234', ['tmco'], 0.0)||('(', '', '', '', 0.0)||('from', '', '', '', 0.0)||('79 . 7', '', '', '', 0.0)||('to', '', '', '', 0.0)||('79 . 9', '', '', '', 0.0)||(')', '', '', '', 0.0)||('.', '', '', '', 0.0)||
