('we', '', '', '', 0.0)||('examined', 'verb', 'C0332128', ['fndg'], 0.0)||('the', '', '', '', 0.0)||('baseline', 'noun', 'C0168634', ['bodm'], 0.0)||('characteristics', 'noun', 'C1521970', ['qlco'], 0.0)||('of', '', '', '', 0.0)||('patients', 'noun', 'C0030705', ['podg'], 0.0)||('in', '', '', '', 0.0)||('the', '', '', '', 0.0)||('ticlopidine', 'noun', 'C0040207', ['orch', 'phsu'], 0.0)||('aspirin', 'noun', 'C0004057', ['orch', 'phsu'], 0.0)||('stroke', 'noun', 'C0038454', ['dsyn'], 0.0)||('study', 'verb', 'C0008976', ['resa'], 0.0)||('to', '', '', '', 0.0)||('determine', '', '', '', 0.0)||('if', '', '', '', 0.0)||('the', '', '', '', 0.0)||('effects', '', '', '', 0.0)||('of', '', '', '', 0.0)||('the', '', '', '', 0.0)||('two', 'adj', 'C0205448', ['qnco'], 0.0)||('treatments', 'noun', 'C0087111', ['topp'], 0.0)||('in', '', '', '', 0.0)||('preventing', 'noun', 'C1292733', ['ftcn'], 0.0)||('stroke', 'noun', 'C0038454', ['dsyn'], 0.0)||('differed', '', '', '', 0.0)||('in', '', '', '', 0.0)||('various', 'adj', 'C0440102', ['irda'], 0.0)||('subgroups', '', '', '', 0.0)||('.', '', '', '', 0.0)||
('patients', 'noun', 'C0030705', ['podg'], 0.0)||('with', '', '', '', 0.0)||('the', '', '', '', 0.0)||('following', '', '', '', 0.0)||('characteristics', 'noun', 'C1521970', ['qlco'], 0.0)||('did', '', '', '', 0.0)||('less', '', '', '', 0.0)||('well', 'adv', 'C0205170', ['qlco'], 0.0)||('on', '', '', '', 0.0)||('aspirin', 'noun', 'C0004057', ['orch', 'phsu'], 0.0)||(':', '', '', '', 0.0)||('elevated', 'adj', 'C0205250', ['qlco'], 0.0)||('creatinine', 'noun', 'C0010294', ['bacs', 'orch'], 0.0)||(',', '', '', '', 0.0)||('hypertension', 'noun', 'C0020538', ['dsyn'], 0.0)||('or', '', '', '', 0.0)||('diabetes', 'noun', 'C0011847', ['dsyn'], 0.0)||('requiring', '', '', '', 0.0)||('treatment', 'noun', 'C0039798', ['ftcn'], 0.0)||(',', '', '', '', 0.0)||('or', '', '', '', 0.0)||('treatment', 'noun', 'C0039798', ['ftcn'], 0.0)||('with', '', '', '', 0.0)||('anticoagulant', 'noun', 'C0003280', ['phsu'], 0.0)||('or', '', '', '', 0.0)||('antiplatelet drugs', 'noun', 'C0085826', ['phsu'], 0.0)||('prior to', '', '', '', 0.0)||('their', '', '', '', 0.0)||('qualifying', 'adj', 'C1514624', ['qlco'], 0.0)||('tia', 'noun', 'C0007787', ['dsyn'], 0.0)||('or', '', '', '', 0.0)||('stroke', 'noun', 'C0038454', ['dsyn'], 0.0)||('.', '', '', '', 0.0)||
('women', 'noun', 'C0043210', ['popg'], 0.0)||('and', '', '', '', 0.0)||('patients', 'noun', 'C0030705', ['podg'], 0.0)||('with', '', '', '', 0.0)||('vertebrobasilar', 'adj', 'C0545733', ['bpoc'], 0.0)||('symptoms', 'noun', 'C0683368', ['ftcn'], 0.0)||('did', '', '', '', 0.0)||('particularly', '', '', '', 0.0)||('well', 'adv', 'C0205170', ['qlco'], 0.0)||('on', '', '', '', 0.0)||('ticlopidine', 'noun', 'C0040207', ['orch', 'phsu'], 0.0)||('.', '', '', '', 0.0)||
('we', '', '', '', 0.0)||('performed', 'verb', 'C0884358', ['ftcn'], 0.0)||('arteriography', 'noun', 'C0003844', ['diap'], 0.0)||('in', '', '', '', 0.0)||('1 , 188', '', '', '', 0.0)||('patients', 'noun', 'C0030705', ['podg'], 0.0)||('with', '', '', '', 0.0)||('carotid', 'adj', 'C0741968', ['bpoc'], 0.0)||('qualifying', 'adj', 'C1514624', ['qlco'], 0.0)||('events', 'noun', 'C0441471', ['evnt'], 0.0)||('.', '', '', '', 0.0)||
('the', '', '', '', 0.0)||('frequency', 'noun', 'C0376249', ['qnco'], 0.0)||('of', '', '', '', 0.0)||('stroke', 'noun', 'C0038454', ['dsyn'], 0.0)||('in', '', '', '', 0.0)||('patients', 'noun', 'C0030705', ['podg'], 0.0)||('with', '', '', '', 0.0)||('abnormal', 'adj', 'C0205161', ['ftcn'], 0.0)||('arteriograms', '', '', '', 0.0)||('ipsilateral', 'adj', 'C0441989', ['spco'], 0.0)||('to', '', '', '', 0.0)||('their', '', '', '', 0.0)||('symptoms', 'noun', 'C0683368', ['ftcn'], 0.0)||('was', '', '', '', 0.0)||('slightly', 'adv', 'C0750482', ['idcn'], 0.0)||('higher', '', '', '', 0.0)||('than', '', '', '', 0.0)||('in', '', '', '', 0.0)||('those', '', '', '', 0.0)||('with', '', '', '', 0.0)||('normal', 'adj', 'C0205307', ['qlco'], 0.0)||('carotid arteries', 'noun', 'C0007272', ['bpoc'], 0.0)||('.', '', '', '', 0.0)||
('ticlopidine', 'noun', 'C0040207', ['orch', 'phsu'], 0.0)||('was', '', '', '', 0.0)||('more', '', '', '', 0.0)||('effective', 'adj', 'C1704419', ['qlco'], 0.0)||('in', '', '', '', 0.0)||('patients', 'noun', 'C0030705', ['podg'], 0.0)||('without', '', '', '', 0.0)||('carotid', 'adj', 'C0741968', ['bpoc'], 0.0)||('stenosis', 'noun', 'C0009814', ['patf'], 0.0)||('.', '', '', '', 0.0)||
('ticlopidine', 'noun', 'C0040207', ['orch', 'phsu'], 0.0)||('is', '', '', '', 0.0)||('more', '', '', '', 0.0)||('effective', 'adj', 'C1704419', ['qlco'], 0.0)||('than', '', '', '', 0.0)||('aspirin', 'noun', 'C0004057', ['orch', 'phsu'], 0.0)||('in', '', '', '', 0.0)||('preventing', 'adj', 'C1292733', ['ftcn'], 0.0)||('strokes', 'noun', 'C0038454', ['dsyn'], 0.0)||('in', '', '', '', 0.0)||('patients', 'noun', 'C0030705', ['podg'], 0.0)||('having', '', '', '', 0.0)||('warning', 'adj', 'C0871599', ['gora'], 0.0)||('tias', 'noun', 'C0007787', ['dsyn'], 0.0)||('.', '', '', '', 0.0)||
('the', '', '', '', 0.0)||('patients', 'noun', 'C0030705', ['podg'], 0.0)||('who', '', '', '', 0.0)||('benefit', 'verb', 'C0814225', ['qnco'], 0.0)||('most', '', '', '', 0.0)||('from', '', '', '', 0.0)||('ticlopidine', 'noun', 'C0040207', ['orch', 'phsu'], 0.0)||('may', '', '', '', 0.0)||('be', '', '', '', 0.0)||('women', 'noun', 'C0043210', ['popg'], 0.0)||(',', '', '', '', 0.0)||('those', '', '', '', 0.0)||('who', '', '', '', 0.0)||('have', '', '', '', 0.0)||('vertebrobasilar', 'adj', 'C0545733', ['bpoc'], 0.0)||('symptoms', 'noun', 'C0683368', ['ftcn'], 0.0)||(',', '', '', '', 0.0)||('those', '', '', '', 0.0)||('with', '', '', '', 0.0)||('cerebral', '', '', '', 0.0)||('ischemic', '', '', '', 0.0)||('symptoms', 'noun', 'C0683368', ['ftcn'], 0.0)||('while', '', '', '', 0.0)||('on', '', '', '', 0.0)||('aspirin', 'noun', 'C0004057', ['orch', 'phsu'], 0.0)||('or', '', '', '', 0.0)||('anticoagulant therapy', 'noun', 'C0150457', ['topp'], 0.0)||(',', '', '', '', 0.0)||('and', '', '', '', 0.0)||('patients', 'noun', 'C0030705', ['podg'], 0.0)||('with', '', '', '', 0.0)||('diffuse', 'adj', 'C0205219', ['qlco'], 0.0)||('atherosclerotic', 'adj', 'C0333482', ['ftcn'], 0.0)||('disease', 'noun', 'C0012634', ['dsyn'], 0.0)||('rather than', '', '', '', 0.0)||('high - grade', '', '', '', 0.0)||('carotid', 'adj', 'C0741968', ['bpoc'], 0.0)||('stenosis', 'noun', 'C0009814', ['patf'], 0.0)||('.', '', '', '', 0.0)||
