('the', '', '', '', 0.0)||('persantine', 'noun', 'C0700020', ['orch', 'phsu'], 0.0)||('aspirin', 'noun', 'C0004057', ['orch', 'phsu'], 0.0)||('trial', 'noun', 'C0008976', ['resa'], 0.0)||('focused', 'verb', 'C0205234', ['spco'], 0.0)||('on', '', '', '', 0.0)||('the', '', '', '', 0.0)||('question', 'noun', 'C1522634', ['inpr'], 0.0)||('of', '', '', '', 0.0)||('whether', '', '', '', 0.0)||('the', '', '', '', 0.0)||('administration', 'noun', 'C0001554', ['ocac'], 0.0)||('of', '', '', '', 0.0)||('the', '', '', '', 0.0)||('combination', 'noun', 'C0205195', ['qlco'], 0.0)||('of', '', '', '', 0.0)||('aspirin', 'noun', 'C0004057', ['orch', 'phsu'], 0.0)||('and', '', '', '', 0.0)||('dipyridamole', 'noun', 'C0012582', ['orch', 'phsu'], 0.0)||('(', '', '', '', 0.0)||('persantine', 'noun', 'C0700020', ['orch', 'phsu'], 0.0)||(')', '', '', '', 0.0)||('would', '', '', '', 0.0)||('result', 'verb', 'C1274040', ['ftcn'], 0.0)||('in', '', '', '', 0.0)||('a', '', '', '', 0.0)||('lower', 'adj', 'C0441994', ['ftcn'], 0.0)||('incidence', 'noun', 'C0021149', ['qnco'], 0.0)||('of', '', '', '', 0.0)||('cerebral', '', '', '', 0.0)||('or', '', '', '', 0.0)||('retinal', 'adj', 'C0035298', ['bpoc'], 0.0)||('infarction', 'noun', 'C0021308', ['patf'], 0.0)||('or', '', '', '', 0.0)||('death', 'noun', 'C0011065', ['orgf'], 0.0)||('than', '', '', '', 0.0)||('the', '', '', '', 0.0)||('administration', 'noun', 'C0001554', ['ocac'], 0.0)||('of', '', '', '', 0.0)||('aspirin', 'noun', 'C0004057', ['orch', 'phsu'], 0.0)||('alone', 'adj', 'C0439044', ['fndg'], 0.0)||('for', '', '', '', 0.0)||('persons', 'noun', 'C0027361', ['popg'], 0.0)||('with', '', '', '', 0.0)||('a', '', '', '', 0.0)||('history', 'noun', 'C0019664', ['ocdi'], 0.0)||('of', '', '', '', 0.0)||('recent', 'adj', 'C0332185', ['tmco'], 0.0)||('carotid', 'adj', 'C0741968', ['bpoc'], 0.0)||('territory', '', '', '', 0.0)||('transient ischemic attacks', '', '', '', 0.0)||('.', '', '', '', 0.0)||
('fifteen', '', '', '', 0.0)||('centers', '', '', '', 0.0)||('in', '', '', '', 0.0)||('the', '', '', '', 0.0)||('united states', 'noun', 'C0041703', ['geoa'], 0.0)||('and', '', '', '', 0.0)||('canada', 'noun', 'C0006823', ['geoa'], 0.0)||('participated', '', '', '', 0.0)||('and', '', '', '', 0.0)||('890', '', '', '', 0.0)||('individuals', '', '', '', 0.0)||('were', '', '', '', 0.0)||('admitted', '', '', '', 0.0)||('and', '', '', '', 0.0)||('randomly', '', '', '', 0.0)||('allocated', '', '', '', 0.0)||('to', '', '', '', 0.0)||('either', '', '', '', 0.0)||('aspirin', 'noun', 'C0004057', ['orch', 'phsu'], 0.0)||('(', '', '', '', 0.0)||('325', '', '', '', 0.0)||('mg', '', '', '', 0.0)||(')', '', '', '', 0.0)||('plus', '', '', '', 0.0)||('placebo', 'noun', 'C0032042', ['topp'], 0.0)||('or', '', '', '', 0.0)||('aspirin', 'noun', 'C0004057', ['orch', 'phsu'], 0.0)||('(', '', '', '', 0.0)||('325', '', '', '', 0.0)||('mg', '', '', '', 0.0)||(')', '', '', '', 0.0)||('plus', '', '', '', 0.0)||('persantine', 'noun', 'C0700020', ['orch', 'phsu'], 0.0)||('(', '', '', '', 0.0)||('75', '', '', '', 0.0)||('mg', '', '', '', 0.0)||(')', '', '', '', 0.0)||('four', '', 'C0205450', ['qnco'], 0.0)||('times', '', '', '', 0.0)||('daily', 'adv', 'C0332173', ['tmco'], 0.0)||('.', '', '', '', 0.0)||
('ninety eight', '', '', '', 0.0)||('percent', 'noun', 'C0439165', ['qnco'], 0.0)||('of', '', '', '', 0.0)||('the', '', '', '', 0.0)||('subjects', '', '', '', 0.0)||('were', '', '', '', 0.0)||('followed', '', '', '', 0.0)||('for', '', '', '', 0.0)||('at', '', '', '', 0.0)||('least', '', '', '', 0.0)||('one', 'noun', 'C0205447', ['qnco'], 0.0)||('year', 'noun', 'C0439234', ['tmco'], 0.0)||(';', '', '', '', 0.0)||
('many', '', '', '', 0.0)||('were', '', '', '', 0.0)||('followed', '', '', '', 0.0)||('for', '', '', '', 0.0)||('four', '', 'C0205450', ['qnco'], 0.0)||('to', '', '', '', 0.0)||('five', '', 'C0205451', ['qnco'], 0.0)||('years', 'noun', 'C0439234', ['tmco'], 0.0)||('.', '', '', '', 0.0)||
('the', '', '', '', 0.0)||('results', 'noun', 'C1274040', ['ftcn'], 0.0)||('of', '', '', '', 0.0)||('life table analysis', 'noun', 'C0023679', ['ocac'], 0.0)||('indicate', '', '', '', 0.0)||('that', '', '', '', 0.0)||('the', '', '', '', 0.0)||('overall', 'adj', 'C0282416', ['inpr'], 0.0)||('endpoint', 'noun', 'C2349179', ['qlco'], 0.0)||('rates', '', '', '', 0.0)||('for', '', '', '', 0.0)||('the', '', '', '', 0.0)||('"', '', '', '', 0.0)||('aspirin', 'noun', 'C0004057', ['orch', 'phsu'], 0.0)||('only', '', '', '', 0.0)||('"', '', '', '', 0.0)||('and', '', '', '', 0.0)||('"', '', '', '', 0.0)||('aspirin', 'noun', 'C0004057', ['orch', 'phsu'], 0.0)||('plus', '', '', '', 0.0)||('persantine', 'noun', 'C0700020', ['orch', 'phsu'], 0.0)||('"', '', '', '', 0.0)||('groups', 'noun', 'C0441833', ['idcn'], 0.0)||('are', '', '', '', 0.0)||('identical', 'adj', 'C0205280', ['qlco'], 0.0)||('.', '', '', '', 0.0)||
('thus', '', '', '', 0.0)||(',', '', '', '', 0.0)||('for', '', '', '', 0.0)||('tia', 'noun', 'C0007787', ['dsyn'], 0.0)||('patients', 'noun', 'C0030705', ['podg'], 0.0)||('taking', '', '', '', 0.0)||('aspirin', 'noun', 'C0004057', ['orch', 'phsu'], 0.0)||(',', '', '', '', 0.0)||('the', '', '', '', 0.0)||('addition', 'noun', 'C1883712', ['ftcn'], 0.0)||('of', '', '', '', 0.0)||('persantine', 'noun', 'C0700020', ['orch', 'phsu'], 0.0)||('contributes', '', '', '', 0.0)||('nothing', '', '', '', 0.0)||('.', '', '', '', 0.0)||
('there', '', '', '', 0.0)||('was', '', '', '', 0.0)||('a', '', '', '', 0.0)||('clustering', 'noun', 'C0009085', ['resa'], 0.0)||('of', '', '', '', 0.0)||('stroke', 'noun', 'C0038454', ['dsyn'], 0.0)||('endpoints', '', '', '', 0.0)||('during', '', '', '', 0.0)||('the', '', '', '', 0.0)||('first', 'adj', 'C0205435', ['qnco'], 0.0)||('month', 'noun', 'C0439231', ['tmco'], 0.0)||('after', '', '', '', 0.0)||('randomization', 'noun', 'C0034656', ['resa'], 0.0)||('.', '', '', '', 0.0)||
('deaths', 'noun', 'C1306577', ['fndg'], 0.0)||('from', '', '', '', 0.0)||('all', '', '', '', 0.0)||('causes', 'noun', 'C0015127', ['ftcn'], 0.0)||('were', '', '', '', 0.0)||('essentially', '', '', '', 0.0)||('equally', '', '', '', 0.0)||('divided', 'verb', 'C0332849', ['ftcn'], 0.0)||('between', '', '', '', 0.0)||('the', '', '', '', 0.0)||('two', 'adj', 'C0205448', ['qnco'], 0.0)||('treatment', 'noun', 'C0039798', ['ftcn'], 0.0)||('groups', 'noun', 'C0441833', ['idcn'], 0.0)||('.', '', '', '', 0.0)||
