('to', '', '', '', 0.0)||('establish', '', '', '', 0.0)||('strategies', 'noun', 'C0679199', ['menp'], 0.0)||('for', '', '', '', 0.0)||('treatment', 'noun', 'C0039798', ['ftcn'], 0.0)||('of', '', '', '', 0.0)||('asymptomatic', 'adj', 'C0231221', ['fndg'], 0.0)||('microscopic hematuria', '', '', '', 0.0)||('we', '', '', '', 0.0)||('conducted', '', '', '', 0.0)||('a', '', '', '', 0.0)||('prospective study', 'noun', 'C0033522', ['resa'], 0.0)||('of', '', '', '', 0.0)||('1 , 034', '', '', '', 0.0)||('patients', 'noun', 'C0030705', ['podg'], 0.0)||('with', '', '', '', 0.0)||('this', '', '', '', 0.0)||('disease', 'noun', 'C0012634', ['dsyn'], 0.0)||('.', '', '', '', 0.0)||
('the', '', '', '', 0.0)||('patients', 'noun', 'C0030705', ['podg'], 0.0)||('were', '', '', '', 0.0)||('examined', 'verb', 'C0332128', ['fndg'], 0.0)||('by', '', '', '', 0.0)||('cystoscopy', 'noun', 'C0010702', ['diap'], 0.0)||(',', '', '', '', 0.0)||('urine', 'noun', 'C0042036', ['bdsu'], 0.0)||('cytology', 'noun', 'C0010818', ['lbpr'], 0.0)||(',', '', '', '', 0.0)||('abdominal', 'adj', 'C0000726', ['blor'], 0.0)||('ultrasound', 'noun', 'C0041618', ['diap'], 0.0)||('and', '', '', '', 0.0)||('excretory urography', 'noun', 'C0203108', ['diap'], 0.0)||('.', '', '', '', 0.0)||
('on', '', '', '', 0.0)||('initial', 'adj', 'C0205265', ['tmco'], 0.0)||('examination', '', '', '', 0.0)||('30', '', '', '', 0.0)||('highly', 'adv', 'C0205250', ['qlco'], 0.0)||('significant', 'adj', 'C0750502', ['idcn'], 0.0)||('lesions', 'noun', 'C0221198', ['fndg'], 0.0)||(',', '', '', '', 0.0)||('including', '', '', '', 0.0)||('24', '', '', '', 0.0)||('cases', 'noun', 'C0868928', ['ftcn'], 0.0)||('of', '', '', '', 0.0)||('urological', '', '', '', 0.0)||('malignancies', 'noun', 'C0006826', ['neop'], 0.0)||(',', '', '', '', 0.0)||('195', '', '', '', 0.0)||('moderately', 'adv', 'C1881878', ['qlco'], 0.0)||('significant', 'adj', 'C0750502', ['idcn'], 0.0)||('lesions', 'noun', 'C0221198', ['fndg'], 0.0)||('and', '', '', '', 0.0)||('246', '', '', '', 0.0)||('insignificant', '', '', '', 0.0)||('lesions', 'noun', 'C0221198', ['fndg'], 0.0)||('were', '', '', '', 0.0)||('detected', 'verb', 'C0442726', ['fndg'], 0.0)||('.', '', '', '', 0.0)||
('in', '', '', '', 0.0)||('the', '', '', '', 0.0)||('remaining', 'adj', 'C1527428', ['qlco'], 0.0)||('563', '', '', '', 0.0)||('patients', 'noun', 'C0030705', ['podg'], 0.0)||('no', '', '', '', 0.0)||('underlying', '', '', '', 0.0)||('lesion', 'noun', 'C0221198', ['fndg'], 0.0)||('could', '', '', '', 0.0)||('be', '', '', '', 0.0)||('found', '', '', '', 0.0)||('.', '', '', '', 0.0)||
('of', '', '', '', 0.0)||('the', '', '', '', 0.0)||('246', '', '', '', 0.0)||('patients', 'noun', 'C0030705', ['podg'], 0.0)||('with', '', '', '', 0.0)||('insignificant', '', '', '', 0.0)||('lesions', 'noun', 'C0221198', ['fndg'], 0.0)||('and', '', '', '', 0.0)||('563', '', '', '', 0.0)||('with', '', '', '', 0.0)||('unexplained', '', '', '', 0.0)||('asymptomatic', 'adj', 'C0231221', ['fndg'], 0.0)||('microscopic hematuria', '', '', '', 0.0)||('followup', 'noun', 'C1522577', ['hlca'], 0.0)||('was', '', '', '', 0.0)||('done', '', '', '', 0.0)||('in', '', '', '', 0.0)||('421', '', '', '', 0.0)||('at', '', '', '', 0.0)||('6', '', '', '', 0.0)||('-', '', '', '', 0.0)||('month', 'noun', 'C0439231', ['tmco'], 0.0)||('intervals', '', '', '', 0.0)||('for', '', '', '', 0.0)||('more', '', '', '', 0.0)||('than', '', '', '', 0.0)||('1', '', '', '', 0.0)||('year', 'noun', 'C0439234', ['tmco'], 0.0)||('.', '', '', '', 0.0)||
('a', '', '', '', 0.0)||('diagnosis', 'noun', 'C0011900', ['fndg'], 0.0)||('became', '', '', '', 0.0)||('clear', 'adj', 'C0522503', ['qlco'], 0.0)||('within', '', '', '', 0.0)||('3', '', '', '', 0.0)||('years', 'noun', 'C0439234', ['tmco'], 0.0)||('in', '', '', '', 0.0)||('22', '', '', '', 0.0)||('patients', 'noun', 'C0030705', ['podg'], 0.0)||(',', '', '', '', 0.0)||('including', '', '', '', 0.0)||('3', '', '', '', 0.0)||('cases', 'noun', 'C0868928', ['ftcn'], 0.0)||('of', '', '', '', 0.0)||('bladder carcinoma', 'noun', 'C0699885', ['neop'], 0.0)||('and', '', '', '', 0.0)||('1', '', '', '', 0.0)||('of', '', '', '', 0.0)||('prostatic carcinoma', 'noun', 'C0600139', ['neop'], 0.0)||('.', '', '', '', 0.0)||
