('a', '', '', '', 0.0)||('cohort', 'noun', 'C0599755', ['popg'], 0.0)||('of', '', '', '', 0.0)||('501', '', '', '', 0.0)||('workers', 'noun', 'C0024752', ['ftcn'], 0.0)||('in', '', '', '', 0.0)||('a', '', '', '', 0.0)||('steel mill', '', '', '', 0.0)||('in', '', '', '', 0.0)||('ontario', 'noun', 'C0029040', ['geoa'], 0.0)||(',', '', '', '', 0.0)||('canada', 'noun', 'C0006823', ['geoa'], 0.0)||('was', '', '', '', 0.0)||('followed', '', '', '', 0.0)||('up', '', '', '', 0.0)||('from', '', '', '', 0.0)||('1974', '', '', '', 0.0)||('to', '', '', '', 0.0)||('1986', '', '', '', 0.0)||('for', '', '', '', 0.0)||('13', '', '', '', 0.0)||('years', 'noun', 'C0439234', ['tmco'], 0.0)||('.', '', '', '', 0.0)||
('results', 'noun', 'C1274040', ['ftcn'], 0.0)||('indicate', '', '', '', 0.0)||('that', '', '', '', 0.0)||('the', '', '', '', 0.0)||('13', '', '', '', 0.0)||('-', '', '', '', 0.0)||('year', 'noun', 'C0439234', ['tmco'], 0.0)||('cumulative', 'adj', 'C1511559', ['qlco'], 0.0)||('incidence', 'noun', 'C0021149', ['qnco'], 0.0)||('of', '', '', '', 0.0)||('urological', '', '', '', 0.0)||('diseases', 'noun', 'C0012634', ['dsyn'], 0.0)||('among', '', '', '', 0.0)||('workers', 'noun', 'C0024752', ['ftcn'], 0.0)||('who', '', '', '', 0.0)||('had', '', '', '', 0.0)||('a', '', '', '', 0.0)||('positive', 'adj', 'C1446409', ['qlco'], 0.0)||('urinalysis', 'noun', 'C0042014', ['lbpr'], 0.0)||('result', 'noun', 'C1274040', ['ftcn'], 0.0)||('of', '', '', '', 0.0)||('microscopic haematuria', 'noun', 'C0239937', ['patf'], 0.0)||('at', '', '', '', 0.0)||('the', '', '', '', 0.0)||('beginning', 'noun', 'C0439659', ['tmco'], 0.0)||('of', '', '', '', 0.0)||('the', '', '', '', 0.0)||('follow - up', '', '', '', 0.0)||('period', 'noun', 'C1948053', ['tmco'], 0.0)||('(', '', '', '', 0.0)||('1974', '', '', '', 0.0)||(')', '', '', '', 0.0)||('was', '', '', '', 0.0)||('1 . 3', '', '', '', 0.0)||('times', '', '', '', 0.0)||('that', '', '', '', 0.0)||('of', '', '', '', 0.0)||('those', '', '', '', 0.0)||('who', '', '', '', 0.0)||('had', '', '', '', 0.0)||('a', '', '', '', 0.0)||('negative', 'adj', 'C0205160', ['qlco'], 0.0)||('urinalysis', 'noun', 'C0042014', ['lbpr'], 0.0)||('result', 'noun', 'C1274040', ['ftcn'], 0.0)||('(', '', '', '', 0.0)||('95 %', '', '', '', 0.0)||('confidence interval', 'noun', 'C0009667', ['qnco'], 0.0)||('0 . 6', '', '', '', 0.0)||('-', '', '', '', 0.0)||('2 . 8', '', '', '', 0.0)||(')', '', '', '', 0.0)||('.', '', '', '', 0.0)||
('this', '', '', '', 0.0)||('relative risk', 'noun', 'C0242492', ['qnco'], 0.0)||('remained', '', '', '', 0.0)||('the', '', '', '', 0.0)||('same', 'adj', 'C0445247', ['qlco'], 0.0)||('after', '', '', '', 0.0)||('adjusting', 'noun', 'C0456081', ['ftcn'], 0.0)||('for', '', '', '', 0.0)||('age', 'noun', 'C0001779', ['orga'], 0.0)||('and', '', '', '', 0.0)||('smoking', 'noun', 'C0037369', ['inbe'], 0.0)||('.', '', '', '', 0.0)||
('this', '', '', '', 0.0)||('indicates', '', '', '', 0.0)||('that', '', '', '', 0.0)||('there', '', '', '', 0.0)||('is', '', '', '', 0.0)||('a', '', '', '', 0.0)||('possibility', '', '', '', 0.0)||('that', '', '', '', 0.0)||('urinary', 'adj', 'C0042027', ['bpoc'], 0.0)||('screening', 'noun', 'C0220908', ['hlca'], 0.0)||('for', '', '', '', 0.0)||('microscopic haematuria', 'noun', 'C0239937', ['patf'], 0.0)||('could', '', '', '', 0.0)||('be', '', '', '', 0.0)||('a', '', '', '', 0.0)||('useful', '', '', '', 0.0)||('predictor', 'noun', 'C2698872', ['idcn'], 0.0)||('of', '', '', '', 0.0)||('urological', '', '', '', 0.0)||('disease', 'noun', 'C0012634', ['dsyn'], 0.0)||('occurrence', 'noun', 'C0243132', ['qnco'], 0.0)||('.', '', '', '', 0.0)||
('however', '', '', '', 0.0)||(',', '', '', '', 0.0)||('the', '', '', '', 0.0)||('benefits', 'noun', 'C0814225', ['qnco'], 0.0)||('of', '', '', '', 0.0)||('early', 'adj', 'C1279919', ['tmco'], 0.0)||('detection', 'noun', 'C1511790', ['topp'], 0.0)||('and', '', '', '', 0.0)||('management', 'noun', 'C0001554', ['ocac'], 0.0)||('were', '', '', '', 0.0)||('difficult', 'adj', 'C0332218', ['qlco'], 0.0)||('to', '', '', '', 0.0)||('demonstrate', '', '', '', 0.0)||('.', '', '', '', 0.0)||
('serious', 'adj', 'C0205404', ['qlco'], 0.0)||('urological', '', '', '', 0.0)||('diseases', 'noun', 'C0012634', ['dsyn'], 0.0)||(',', '', '', '', 0.0)||('particularly', '', '', '', 0.0)||('urinary', 'adj', 'C0042027', ['bpoc'], 0.0)||('cancers', 'noun', 'C0006826', ['neop'], 0.0)||(',', '', '', '', 0.0)||('were', '', '', '', 0.0)||('not', 'adv', 'C1518422', ['ftcn'], 0.0)||('detected', 'verb', 'C0442726', ['fndg'], 0.0)||('earlier', '', '', '', 0.0)||('as', '', '', '', 0.0)||('a', '', '', '', 0.0)||('result', 'noun', 'C1274040', ['ftcn'], 0.0)||('of', '', '', '', 0.0)||('the', '', '', '', 0.0)||('urinary', 'adj', 'C0042027', ['bpoc'], 0.0)||('screening test', '', '', '', 0.0)||('in', '', '', '', 0.0)||('this', '', '', '', 0.0)||('study', 'noun', 'C0008976', ['resa'], 0.0)||('.', '', '', '', 0.0)||
('several', '', '', '', 0.0)||('studies', '', '', '', 0.0)||('have', '', '', '', 0.0)||('been', '', '', '', 0.0)||('done', '', '', '', 0.0)||('to', '', '', '', 0.0)||('validate', '', '', '', 0.0)||('the', '', '', '', 0.0)||('test', 'noun', 'C0022885', ['lbpr'], 0.0)||('in', '', '', '', 0.0)||('the', '', '', '', 0.0)||('past', '', '', '', 0.0)||('.', '', '', '', 0.0)||
('more', '', '', '', 0.0)||('work', 'verb', 'C0043227', ['ocac'], 0.0)||('to', '', '', '', 0.0)||('validate', '', '', '', 0.0)||('the', '', '', '', 0.0)||('test', 'noun', 'C0022885', ['lbpr'], 0.0)||('and', '', '', '', 0.0)||('to', '', '', '', 0.0)||('determine', '', '', '', 0.0)||('the', '', '', '', 0.0)||('predictive accuracy', '', '', '', 0.0)||('is', '', '', '', 0.0)||('recommended', 'verb', 'C0034866', ['idcn'], 0.0)||('.', '', '', '', 0.0)||
