('on', '', '', '', 0.0)||('april', '', '', '', 0.0)||('24', '', '', '', 0.0)||(',', '', '', '', 0.0)||('2001', '', '', '', 0.0)||(',', '', '', '', 0.0)||('seven', '', 'C0205453', ['qnco'], 0.0)||('cases', 'noun', 'C0868928', ['ftcn'], 0.0)||('of', '', '', '', 0.0)||('pneumococcal pneumonia', '', '', '', 0.0)||('with', '', '', '', 0.0)||('bacteremia', '', '', '', 0.0)||('among', '', '', '', 0.0)||('residents', '', '', '', 0.0)||('of', '', '', '', 0.0)||('a', '', '', '', 0.0)||('nursing home', '', '', '', 0.0)||('were', '', '', '', 0.0)||('reported', 'verb', 'C0684224', ['inpr'], 0.0)||('to', '', '', '', 0.0)||('the', '', '', '', 0.0)||('hamilton', '', '', '', 0.0)||('township', 'noun', 'C1552925', ['qnco'], 0.0)||('department', 'noun', 'C1704729', ['orgt'], 0.0)||('of', '', '', '', 0.0)||('health', 'noun', 'C0018684', ['idcn'], 0.0)||(',', '', '', '', 0.0)||('new jersey', 'noun', 'C0027971', ['geoa'], 0.0)||(';', '', '', '', 0.0)||
('all', '', '', '', 0.0)||('seven', '', 'C0205453', ['qnco'], 0.0)||('diagnoses', 'noun', 'C0011900', ['fndg'], 0.0)||('were', '', '', '', 0.0)||('confirmed', 'verb', 'C0750484', ['idcn'], 0.0)||('with', '', '', '', 0.0)||('blood', 'noun', 'C0005767', ['tisu'], 0.0)||('cultures', 'verb', 'C0010453', ['idcn'], 0.0)||('positive', 'noun', 'C1446409', ['qlco'], 0.0)||('for', '', '', '', 0.0)||('streptococcus pneumoniae', 'noun', 'C0038410', ['bact'], 0.0)||('.', '', '', '', 0.0)||
('illness', 'noun', 'C0221423', ['fndg'], 0.0)||('onset', 'noun', 'C0332162', ['qlco'], 0.0)||('among', '', '', '', 0.0)||('the', '', '', '', 0.0)||('residents', '', '', '', 0.0)||('occurred', 'verb', 'C1709305', ['cnce'], 0.0)||('during', '', '', '', 0.0)||('april', '', '', '', 0.0)||('3', '', '', '', 0.0)||('-', '', '', '', 0.0)||('24', '', '', '', 0.0)||(';', '', '', '', 0.0)||
('four', '', 'C0205450', ['qnco'], 0.0)||('residents', '', '', '', 0.0)||('died', 'verb', 'C1306577', ['fndg'], 0.0)||('.', '', '', '', 0.0)||
('the', '', '', '', 0.0)||('new jersey', 'noun', 'C0027971', ['geoa'], 0.0)||('department', 'noun', 'C1704729', ['orgt'], 0.0)||('of', '', '', '', 0.0)||('health', 'noun', 'C0018684', ['idcn'], 0.0)||('and', '', '', '', 0.0)||('senior', 'adj', 'C1705825', ['idcn'], 0.0)||('services', 'noun', 'C0557854', ['acty'], 0.0)||('was', '', '', '', 0.0)||('notified', '', '', '', 0.0)||('on', '', '', '', 0.0)||('april', '', '', '', 0.0)||('24', '', '', '', 0.0)||('and', '', '', '', 0.0)||('initiated', '', '', '', 0.0)||('an', '', '', '', 0.0)||('investigation', 'noun', 'C1261322', ['hlca'], 0.0)||('to', '', '', '', 0.0)||('identify', '', '', '', 0.0)||('additional', 'adj', 'C1524062', ['ftcn'], 0.0)||('cases', 'noun', 'C0868928', ['ftcn'], 0.0)||('and', '', '', '', 0.0)||('implement', '', '', '', 0.0)||('control', 'noun', 'C0243148', ['qlco'], 0.0)||('efforts', '', '', '', 0.0)||('.', '', '', '', 0.0)||
('this', '', '', '', 0.0)||('report', 'noun', 'C0684224', ['inpr'], 0.0)||('summarizes', '', '', '', 0.0)||('results', 'noun', 'C1274040', ['ftcn'], 0.0)||('of', '', '', '', 0.0)||('the', '', '', '', 0.0)||('investigation', 'noun', 'C1261322', ['hlca'], 0.0)||(',', '', '', '', 0.0)||('which', '', '', '', 0.0)||('underscore', '', '', '', 0.0)||('the', '', '', '', 0.0)||('importance', '', '', '', 0.0)||('of', '', '', '', 0.0)||('providing', '', '', '', 0.0)||('pneumococcal polysaccharide vaccine', 'noun', 'C0305065', ['imft', 'phsu'], 0.0)||('to', '', '', '', 0.0)||('elderly', 'adj', 'C0001792', ['popg'], 0.0)||('residents', '', '', '', 0.0)||('of', '', '', '', 0.0)||('long - term care facilities', '', '', '', 0.0)||('(', '', '', '', 0.0)||('ltcfs', '', '', '', 0.0)||(')', '', '', '', 0.0)||('.', '', '', '', 0.0)||
