('the', '', '', '', 0.0)||('efficacy', 'noun', 'C1707887', ['resa'], 0.0)||('and', '', '', '', 0.0)||('side effects', 'noun', 'C0001688', ['ftcn'], 0.0)||('of', '', '', '', 0.0)||('two', 'noun', 'C0205448', ['qnco'], 0.0)||('approaches', 'noun', 'C0449445', ['spco'], 0.0)||('to', '', '', '', 0.0)||('the', '', '', '', 0.0)||('treatment', 'noun', 'C0039798', ['ftcn'], 0.0)||('of', '', '', '', 0.0)||('ragweed', 'adj', 'C0331432', ['plnt'], 0.0)||('pollen', 'noun', 'C0032385', ['plnt'], 0.0)||('-', '', '', '', 0.0)||('induced', 'adj', 'C0205263', ['ftcn'], 0.0)||('rhinoconjunctivitis', 'noun', 'C0861155', ['dsyn'], 0.0)||('were', '', '', '', 0.0)||('compared', 'verb', 'C1707455', ['acty'], 0.0)||('in', '', '', '', 0.0)||('a', '', '', '', 0.0)||('double - blind', '', '', '', 0.0)||(',', '', '', '', 0.0)||('parallel', 'noun', 'C2348042', ['qlco'], 0.0)||('-', '', '', '', 0.0)||('group', 'noun', 'C0441833', ['idcn'], 0.0)||('trial', 'noun', 'C0008976', ['resa'], 0.0)||('.', '', '', '', 0.0)||
('sixty', '', '', '', 0.0)||('ragweed', 'noun', 'C0331432', ['plnt'], 0.0)||('-', '', '', '', 0.0)||('sensitive', 'adj', 'C0332324', ['ftcn'], 0.0)||('adults', 'noun', 'C0001675', ['aggp'], 0.0)||('were', '', '', '', 0.0)||('randomized', 'verb', 'C0034656', ['resa'], 0.0)||('either', '', '', '', 0.0)||('to', '', '', '', 0.0)||('a', '', '', '', 0.0)||('course', 'noun', 'C0750729', ['tmco'], 0.0)||('of', '', '', '', 0.0)||('four', '', 'C0205450', ['qnco'], 0.0)||('pollinex', 'noun', 'C0071335', ['aapp', 'phsu'], 0.0)||('-', '', '', '', 0.0)||('r', '', '', '', 0.0)||('hyposensitization', 'noun', 'C0178702', ['topp'], 0.0)||('injections', 'noun', 'C1533685', ['topp'], 0.0)||('during', '', '', '', 0.0)||('the', '', '', '', 0.0)||('6', '', '', '', 0.0)||('weeks', 'noun', 'C0439230', ['tmco'], 0.0)||('before', '', '', '', 0.0)||('the', '', '', '', 0.0)||('ragweed', 'noun', 'C0331432', ['plnt'], 0.0)||('-', '', '', '', 0.0)||('pollen', 'noun', 'C0032385', ['plnt'], 0.0)||('season', 'noun', 'C0036497', ['tmco'], 0.0)||(',', '', '', '', 0.0)||('or', '', '', '', 0.0)||('to', '', '', '', 0.0)||('budesonide', 'verb', 'C0054201', ['phsu', 'strd'], 0.0)||('aqueous', 'adj', 'C0599956', ['qlco'], 0.0)||('nasal', 'adj', 'C0028429', ['bpoc'], 0.0)||('steroid', 'noun', 'C0038317', ['strd'], 0.0)||('spray', 'noun', 'C1154182', ['bodm'], 0.0)||(',', '', '', '', 0.0)||('400', '', '', '', 0.0)||('micrograms', '', '', '', 0.0)||('daily', 'adv', 'C0332173', ['tmco'], 0.0)||(',', '', '', '', 0.0)||('throughout', '', '', '', 0.0)||('the', '', '', '', 0.0)||('season', 'noun', 'C0036497', ['tmco'], 0.0)||('.', '', '', '', 0.0)||
('a', '', '', '', 0.0)||('double', 'adj', 'C0205173', ['ftcn'], 0.0)||('-', '', '', '', 0.0)||('dummy', '', '', '', 0.0)||('technique', 'noun', 'C0449851', ['ftcn'], 0.0)||('was', '', '', '', 0.0)||('used', '', '', '', 0.0)||('to', '', '', '', 0.0)||('achieve', '', '', '', 0.0)||('blinding', 'noun', 'C0150108', ['resa'], 0.0)||('.', '', '', '', 0.0)||
('during', '', '', '', 0.0)||('the', '', '', '', 0.0)||('ragweed', 'noun', 'C0331432', ['plnt'], 0.0)||('-', '', '', '', 0.0)||('pollen', 'noun', 'C0032385', ['plnt'], 0.0)||('season', 'noun', 'C0036497', ['tmco'], 0.0)||(',', '', '', '', 0.0)||('troublesome', '', '', '', 0.0)||('nasal', 'adj', 'C0028429', ['bpoc'], 0.0)||('symptoms', 'noun', 'C0683368', ['ftcn'], 0.0)||('were', '', '', '', 0.0)||('treated', 'verb', 'C1522326', ['ftcn'], 0.0)||('with', '', '', '', 0.0)||('terfenadine', 'noun', 'C0085173', ['orch', 'phsu'], 0.0)||(',', '', '', '', 0.0)||('60', '', '', '', 0.0)||('mg', '', '', '', 0.0)||(',', '', '', '', 0.0)||('when', '', '', '', 0.0)||('treatment', 'noun', 'C0039798', ['ftcn'], 0.0)||('was', '', '', '', 0.0)||('needed', 'verb', 'C0027552', ['qlco'], 0.0)||(',', '', '', '', 0.0)||('up to', '', '', '', 0.0)||('240', '', '', '', 0.0)||('mg', '', '', '', 0.0)||('daily', 'adv', 'C0332173', ['tmco'], 0.0)||(',', '', '', '', 0.0)||('and', '', '', '', 0.0)||('eye', 'noun', 'C0015392', ['bpoc'], 0.0)||('symptoms', 'noun', 'C0683368', ['ftcn'], 0.0)||('were', '', '', '', 0.0)||('treated', 'verb', 'C1522326', ['ftcn'], 0.0)||('with', '', '', '', 0.0)||('naphazoline', 'noun', 'C0027373', ['orch', 'phsu'], 0.0)||('eye drops', 'noun', 'C0015399', ['bodm'], 0.0)||(',', '', '', '', 0.0)||('when', '', '', '', 0.0)||('treatment', 'noun', 'C0039798', ['ftcn'], 0.0)||('was', '', '', '', 0.0)||('needed', 'verb', 'C0027552', ['qlco'], 0.0)||(',', '', '', '', 0.0)||('up to', '', '', '', 0.0)||('four', '', 'C0205450', ['qnco'], 0.0)||('times', '', '', '', 0.0)||('daily', 'adv', 'C0332173', ['tmco'], 0.0)||('.', '', '', '', 0.0)||
('every day', '', '', '', 0.0)||(',', '', '', '', 0.0)||('subjects', '', '', '', 0.0)||('recorded', '', '', '', 0.0)||('the', '', '', '', 0.0)||('severity', 'noun', 'C0439793', ['qlco'], 0.0)||('of', '', '', '', 0.0)||('nasal', 'adj', 'C0028429', ['bpoc'], 0.0)||('and', '', '', '', 0.0)||('eye', 'noun', 'C0015392', ['bpoc'], 0.0)||('symptoms', 'noun', 'C0683368', ['ftcn'], 0.0)||('and', '', '', '', 0.0)||('medication', '', '', '', 0.0)||('use', 'noun', 'C0042153', ['ftcn'], 0.0)||('in', '', '', '', 0.0)||('a', '', '', '', 0.0)||('diary', '', '', '', 0.0)||('.', '', '', '', 0.0)||
('fourteen', '', '', '', 0.0)||('of', '', '', '', 0.0)||('the', '', '', '', 0.0)||('subjects', '', '', '', 0.0)||('receiving', '', '', '', 0.0)||('pollinex', 'noun', 'C0071335', ['aapp', 'phsu'], 0.0)||('-', '', '', '', 0.0)||('r', '', '', '', 0.0)||('were', '', '', '', 0.0)||('unable', 'adj', 'C1299582', ['fndg'], 0.0)||('to', '', '', '', 0.0)||('complete', 'verb', 'C0205197', ['qlco'], 0.0)||('the', '', '', '', 0.0)||('course', 'noun', 'C0750729', ['tmco'], 0.0)||('of', '', '', '', 0.0)||('injections', 'noun', 'C1533685', ['topp'], 0.0)||('because of', '', '', '', 0.0)||('systemic', 'adj', 'C0205373', ['ftcn'], 0.0)||('or', '', '', '', 0.0)||('large', 'adj', 'C0549177', ['qnco'], 0.0)||('local', 'adj', 'C0205276', ['spco'], 0.0)||('reactions', '', '', '', 0.0)||('.', '', '', '', 0.0)||
('eight', '', 'C0205454', ['qnco'], 0.0)||('subjects', '', '', '', 0.0)||('withdrew', '', '', '', 0.0)||('during', '', '', '', 0.0)||('the', '', '', '', 0.0)||('pollen', 'noun', 'C0032385', ['plnt'], 0.0)||('season', 'noun', 'C0036497', ['tmco'], 0.0)||('because of', '', '', '', 0.0)||('severe', 'adj', 'C0205082', ['qlco'], 0.0)||('rhinitis', 'noun', 'C0035455', ['dsyn'], 0.0)||(';', '', '', '', 0.0)||
('all', '', '', '', 0.0)||('subjects', '', '', '', 0.0)||('had', '', '', '', 0.0)||('received', 'adj', 'C1514756', ['qlco'], 0.0)||('pollinex', 'noun', 'C0071335', ['aapp', 'phsu'], 0.0)||('-', '', '', '', 0.0)||('r', '', '', '', 0.0)||('.', '', '', '', 0.0)||
('subjects', '', '', '', 0.0)||('in', '', '', '', 0.0)||('the', '', '', '', 0.0)||('budesonide', 'noun', 'C0054201', ['phsu', 'strd'], 0.0)||('-', '', '', '', 0.0)||('treated group', '', '', '', 0.0)||('had', '', '', '', 0.0)||('minimal', 'adj', 'C0547040', ['qlco'], 0.0)||('nasal', 'adj', 'C0028429', ['bpoc'], 0.0)||('symptoms', 'noun', 'C0683368', ['ftcn'], 0.0)||('and', '', '', '', 0.0)||('used', '', '', '', 0.0)||('very', 'adv', 'C0442824', ['qlco'], 0.0)||('little', 'adj', 'C0700321', ['qnco'], 0.0)||('terfenadine', 'noun', 'C0085173', ['orch', 'phsu'], 0.0)||(',', '', '', '', 0.0)||('compared', 'verb', 'C1707455', ['acty'], 0.0)||('with', '', '', '', 0.0)||('subjects', '', '', '', 0.0)||('in', '', '', '', 0.0)||('the', '', '', '', 0.0)||('pollinex', 'noun', 'C0071335', ['aapp', 'phsu'], 0.0)||('-', '', '', '', 0.0)||('r', '', '', '', 0.0)||('-', '', '', '', 0.0)||('treated group', '', '', '', 0.0)||('(', '', '', '', 0.0)||('p', '', '', '', 0.0)||('less', '', '', '', 0.0)||('than', '', '', '', 0.0)||('0 . 0001', '', '', '', 0.0)||(')', '', '', '', 0.0)||('.', '', '', '', 0.0)||
('eye', 'noun', 'C0015392', ['bpoc'], 0.0)||('symptoms', 'noun', 'C0683368', ['ftcn'], 0.0)||('and', '', '', '', 0.0)||('eye drop', 'noun', 'C0015399', ['bodm'], 0.0)||('use', 'noun', 'C0042153', ['ftcn'], 0.0)||('were', '', '', '', 0.0)||('similar', 'adj', 'C2348205', ['qlco'], 0.0)||('in', '', '', '', 0.0)||('the', '', '', '', 0.0)||('two', 'adj', 'C0205448', ['qnco'], 0.0)||('treatment', 'noun', 'C0039798', ['ftcn'], 0.0)||('groups', 'noun', 'C0441833', ['idcn'], 0.0)||('.', '', '', '', 0.0)||
('no', '', '', '', 0.0)||('clinically', '', '', '', 0.0)||('important', '', '', '', 0.0)||('side effects', 'noun', 'C0001688', ['ftcn'], 0.0)||('were', '', '', '', 0.0)||('reported', 'verb', 'C0684224', ['inpr'], 0.0)||('by', '', '', '', 0.0)||('the', '', '', '', 0.0)||('subjects', '', '', '', 0.0)||('receiving', '', '', '', 0.0)||('budesonide', 'noun', 'C0054201', ['phsu', 'strd'], 0.0)||('.', '', '', '', 0.0)||
('the', '', '', '', 0.0)||('results', 'noun', 'C1274040', ['ftcn'], 0.0)||('of', '', '', '', 0.0)||('this', '', '', '', 0.0)||('study', 'noun', 'C0008976', ['resa'], 0.0)||('suggest', 'verb', 'C1705535', ['idcn'], 0.0)||('that', '', '', '', 0.0)||('aqueous', 'adj', 'C0599956', ['qlco'], 0.0)||('budesonide', 'noun', 'C0054201', ['phsu', 'strd'], 0.0)||('nasal spray', 'noun', 'C0461725', ['bodm'], 0.0)||('is', '', '', '', 0.0)||('markedly', 'adv', 'C0522501', ['qlco'], 0.0)||('more', '', '', '', 0.0)||('effective', 'adj', 'C1704419', ['qlco'], 0.0)||('than', '', '', '', 0.0)||('pollinex', 'noun', 'C0071335', ['aapp', 'phsu'], 0.0)||('-', '', '', '', 0.0)||('r', '', '', '', 0.0)||('in', '', '', '', 0.0)||('controlling', 'adj', 'C2239193', ['phpr'], 0.0)||('symptoms', 'noun', 'C0683368', ['ftcn'], 0.0)||('of', '', '', '', 0.0)||('seasonal', 'adj', 'C0439601', ['tmco'], 0.0)||('rhinitis', 'noun', 'C0035455', ['dsyn'], 0.0)||('while', '', '', '', 0.0)||('the', '', '', '', 0.0)||('side effects', 'noun', 'C0001688', ['ftcn'], 0.0)||('and', '', '', '', 0.0)||('inconvenience', '', '', '', 0.0)||('of', '', '', '', 0.0)||('immunotherapy', 'noun', 'C0021083', ['topp'], 0.0)||('are', '', '', '', 0.0)||('avoided', '', '', '', 0.0)||('.', '', '', '', 0.0)||
