('intranasal', 'adj', 'C0442118', ['spco'], 0.0)||('corticosteroids', 'noun', 'C0001617', ['horm', 'phsu', 'strd'], 0.0)||('versus', '', '', '', 0.0)||('oral', 'adj', 'C0442027', ['spco'], 0.0)||('h1', '', '', '', 0.0)||('receptor', 'noun', 'C0597357', ['aapp', 'rcpt'], 0.0)||('antagonists', 'noun', 'C0243076', ['chvf'], 0.0)||('in', '', '', '', 0.0)||('allergic rhinitis', 'noun', 'C2607914', ['dsyn'], 0.0)||(':', '', '', '', 0.0)||('systematic review', '', '', '', 0.0)||('of', '', '', '', 0.0)||('randomised controlled trials', '', '', '', 0.0)||('.', '', '', '', 0.0)||
('objective', 'noun', 'C0018017', ['inpr'], 0.0)||(':', '', '', '', 0.0)||('to', '', '', '', 0.0)||('determine', '', '', '', 0.0)||('whether', '', '', '', 0.0)||('intranasal', 'adj', 'C0442118', ['spco'], 0.0)||('corticosteroids', 'noun', 'C0001617', ['horm', 'phsu', 'strd'], 0.0)||('are', '', '', '', 0.0)||('superior', 'adj', 'C1282910', ['spco'], 0.0)||('to', '', '', '', 0.0)||('oral', 'adj', 'C0442027', ['spco'], 0.0)||('h1', '', '', '', 0.0)||('receptor', 'noun', 'C0597357', ['aapp', 'rcpt'], 0.0)||('antagonists', 'noun', 'C0243076', ['chvf'], 0.0)||('(', '', '', '', 0.0)||('antihistamines', 'noun', 'C0003360', ['orch', 'phsu'], 0.0)||(')', '', '', '', 0.0)||('in', '', '', '', 0.0)||('the', '', '', '', 0.0)||('treatment', 'noun', 'C0039798', ['ftcn'], 0.0)||('of', '', '', '', 0.0)||('allergic rhinitis', 'noun', 'C2607914', ['dsyn'], 0.0)||('.', '', '', '', 0.0)||
('methods', 'noun', 'C0025663', ['inpr'], 0.0)||(':', '', '', '', 0.0)||('meta - analysis', '', '', '', 0.0)||('of', '', '', '', 0.0)||('randomised controlled trials', '', '', '', 0.0)||('comparing', '', '', '', 0.0)||('intranasal', 'adj', 'C0442118', ['spco'], 0.0)||('corticosteroids', 'noun', 'C0001617', ['horm', 'phsu', 'strd'], 0.0)||('with', '', '', '', 0.0)||('oral', 'adj', 'C0442027', ['spco'], 0.0)||('antihistamines', 'noun', 'C0003360', ['orch', 'phsu'], 0.0)||('.', '', '', '', 0.0)||
('methods', 'noun', 'C0025663', ['inpr'], 0.0)||(':', '', '', '', 0.0)||('randomised controlled trials', '', '', '', 0.0)||('conducted', '', '', '', 0.0)||('worldwide', '', '', '', 0.0)||('and', '', '', '', 0.0)||('published', 'verb', 'C0034037', ['ocac'], 0.0)||('between', '', '', '', 0.0)||('1966', '', '', '', 0.0)||('and', '', '', '', 0.0)||('1997', '', '', '', 0.0)||('.', '', '', '', 0.0)||
('methods', 'noun', 'C0025663', ['inpr'], 0.0)||(':', '', '', '', 0.0)||('2267', '', '', '', 0.0)||('subjects', '', '', '', 0.0)||('with', '', '', '', 0.0)||('allergic rhinitis', 'noun', 'C2607914', ['dsyn'], 0.0)||('in', '', '', '', 0.0)||('16', '', '', '', 0.0)||('randomised controlled trials', '', '', '', 0.0)||('.', '', '', '', 0.0)||
('methods', 'noun', 'C0025663', ['inpr'], 0.0)||(':', '', '', '', 0.0)||('nasal', 'adj', 'C0028429', ['bpoc'], 0.0)||('blockage', 'noun', 'C1706968', ['fndg'], 0.0)||(',', '', '', '', 0.0)||('nasal', 'adj', 'C0028429', ['bpoc'], 0.0)||('discharge', 'noun', 'C0012621', ['bdsu'], 0.0)||(',', '', '', '', 0.0)||('sneezing', 'noun', 'C0037383', ['fndg'], 0.0)||(',', '', '', '', 0.0)||('nasal', 'adj', 'C0028429', ['bpoc'], 0.0)||('itch', 'noun', 'C0033774', ['sosy'], 0.0)||(',', '', '', '', 0.0)||('postnasal drip', 'noun', 'C0032781', ['sosy'], 0.0)||(',', '', '', '', 0.0)||('nasal', 'adj', 'C0028429', ['bpoc'], 0.0)||('discomfort', 'noun', 'C0231218', ['sosy'], 0.0)||(',', '', '', '', 0.0)||('total', 'adj', 'C0439810', ['qlco'], 0.0)||('nasal', 'adj', 'C0028429', ['bpoc'], 0.0)||('symptoms', 'noun', 'C0683368', ['ftcn'], 0.0)||(',', '', '', '', 0.0)||('nasal', 'adj', 'C0028429', ['bpoc'], 0.0)||('resistance', 'noun', 'C0237834', ['menp'], 0.0)||(',', '', '', '', 0.0)||('and', '', '', '', 0.0)||('eye', 'noun', 'C0015392', ['bpoc'], 0.0)||('symptoms', 'noun', 'C0683368', ['ftcn'], 0.0)||('and', '', '', '', 0.0)||('global', 'adj', 'C0205246', ['spco'], 0.0)||('ratings', '', '', '', 0.0)||('.', '', '', '', 0.0)||
('outcomes', 'noun', 'C0085415', ['qlco'], 0.0)||('measured', 'verb', 'C0444706', ['qlco'], 0.0)||('on', '', '', '', 0.0)||('different', 'adj', 'C1705242', ['qlco'], 0.0)||('scales', 'noun', 'C0175659', ['medd'], 0.0)||('were', '', '', '', 0.0)||('combined', 'verb', 'C0205195', ['qlco'], 0.0)||('to', '', '', '', 0.0)||('determine', '', '', '', 0.0)||('pooled', 'adj', 'C1709595', ['cnce'], 0.0)||('odds ratios', 'noun', 'C0028873', ['qnco'], 0.0)||('(', '', '', '', 0.0)||('categorical', '', '', '', 0.0)||('outcomes', 'noun', 'C0085415', ['qlco'], 0.0)||(')', '', '', '', 0.0)||('or', '', '', '', 0.0)||('standardised mean differences', '', '', '', 0.0)||('(', '', '', '', 0.0)||('continuous', 'adj', 'C0549178', ['idcn'], 0.0)||('outcomes', 'noun', 'C0085415', ['qlco'], 0.0)||(')', '', '', '', 0.0)||('.', '', '', '', 0.0)||
('assessment', 'noun', 'C1261322', ['hlca'], 0.0)||('of', '', '', '', 0.0)||('heterogeneity', 'noun', 'C0019409', ['qlco'], 0.0)||('between', '', '', '', 0.0)||('studies', '', '', '', 0.0)||(',', '', '', '', 0.0)||('and', '', '', '', 0.0)||('subgroup', 'noun', 'C1515021', ['clas'], 0.0)||('analyses', '', '', '', 0.0)||('of', '', '', '', 0.0)||('eye', 'noun', 'C0015392', ['bpoc'], 0.0)||('symptoms', 'noun', 'C0683368', ['ftcn'], 0.0)||(',', '', '', '', 0.0)||('were', '', '', '', 0.0)||('undertaken', '', '', '', 0.0)||('.', '', '', '', 0.0)||
('results', 'noun', 'C1274040', ['ftcn'], 0.0)||(':', '', '', '', 0.0)||('intranasal', 'adj', 'C0442118', ['spco'], 0.0)||('corticosteroids', 'noun', 'C0001617', ['horm', 'phsu', 'strd'], 0.0)||('produced', '', '', '', 0.0)||('significantly', '', '', '', 0.0)||('greater', 'adj', 'C1704243', ['qnco'], 0.0)||('relief', 'noun', 'C0564405', ['fndg'], 0.0)||('than', '', '', '', 0.0)||('oral', 'adj', 'C0442027', ['spco'], 0.0)||('antihistamines', 'noun', 'C0003360', ['orch', 'phsu'], 0.0)||('of', '', '', '', 0.0)||('nasal', 'adj', 'C0028429', ['bpoc'], 0.0)||('blockage', 'noun', 'C1706968', ['fndg'], 0.0)||('(', '', '', '', 0.0)||('standardised mean difference', '', '', '', 0.0)||('0 . 63', '', '', '', 0.0)||(',', '', '', '', 0.0)||('95 %', '', '', '', 0.0)||('confidence interval', 'noun', 'C0009667', ['qnco'], 0.0)||('-', '', '', '', 0.0)||('0 . 73', '', '', '', 0.0)||('to', '', '', '', 0.0)||('-', '', '', '', 0.0)||('0 . 53', '', '', '', 0.0)||(')', '', '', '', 0.0)||(',', '', '', '', 0.0)||('nasal', 'adj', 'C0028429', ['bpoc'], 0.0)||('discharge', 'noun', 'C0012621', ['bdsu'], 0.0)||('(', '', '', '', 0.0)||('-', '', '', '', 0.0)||('0 . 5', '', '', '', 0.0)||(',', '', '', '', 0.0)||('-', '', '', '', 0.0)||('0 . 6', '', '', '', 0.0)||('to', '', '', '', 0.0)||('-', '', '', '', 0.0)||('0 . 4', '', '', '', 0.0)||(')', '', '', '', 0.0)||(',', '', '', '', 0.0)||('sneezing', 'noun', 'C0037383', ['fndg'], 0.0)||('(', '', '', '', 0.0)||('-', '', '', '', 0.0)||('0 . 49', '', '', '', 0.0)||(',', '', '', '', 0.0)||('-', '', '', '', 0.0)||('0 . 59', '', '', '', 0.0)||('to', '', '', '', 0.0)||('-', '', '', '', 0.0)||('0 . 39', '', '', '', 0.0)||(')', '', '', '', 0.0)||(',', '', '', '', 0.0)||('nasal', 'adj', 'C0028429', ['bpoc'], 0.0)||('itch', 'noun', 'C0033774', ['sosy'], 0.0)||('(', '', '', '', 0.0)||('-', '', '', '', 0.0)||('0 . 38', '', '', '', 0.0)||(',', '', '', '', 0.0)||('-', '', '', '', 0.0)||('0 . 49', '', '', '', 0.0)||('to', '', '', '', 0.0)||('-', '', '', '', 0.0)||('0 . 21', '', '', '', 0.0)||(')', '', '', '', 0.0)||(',', '', '', '', 0.0)||('postnasal drip', 'noun', 'C0032781', ['sosy'], 0.0)||('(', '', '', '', 0.0)||('-', '', '', '', 0.0)||('0 . 24', '', '', '', 0.0)||(',', '', '', '', 0.0)||('-', '', '', '', 0.0)||('0 . 42', '', '', '', 0.0)||('to', '', '', '', 0.0)||('-', '', '', '', 0.0)||('0 . 06', '', '', '', 0.0)||(')', '', '', '', 0.0)||(',', '', '', '', 0.0)||('and', '', '', '', 0.0)||('total', 'adj', 'C0439810', ['qlco'], 0.0)||('nasal', 'adj', 'C0028429', ['bpoc'], 0.0)||('symptoms', 'noun', 'C0683368', ['ftcn'], 0.0)||('(', '', '', '', 0.0)||('-', '', '', '', 0.0)||('0 . 42', '', '', '', 0.0)||(',', '', '', '', 0.0)||('-', '', '', '', 0.0)||('0 . 53', '', '', '', 0.0)||('to', '', '', '', 0.0)||('-', '', '', '', 0.0)||('0 . 32', '', '', '', 0.0)||(')', '', '', '', 0.0)||(',', '', '', '', 0.0)||('and', '', '', '', 0.0)||('global', 'adj', 'C0205246', ['spco'], 0.0)||('ratings', '', '', '', 0.0)||('gave', '', '', '', 0.0)||('an', '', '', '', 0.0)||('odds ratio', 'noun', 'C0028873', ['qnco'], 0.0)||('for', '', '', '', 0.0)||('deterioration', 'noun', 'C0868945', ['phpr'], 0.0)||('of', '', '', '', 0.0)||('symptoms', 'noun', 'C0683368', ['ftcn'], 0.0)||('of', '', '', '', 0.0)||('0 . 26', '', '', '', 0.0)||('(', '', '', '', 0.0)||('0 . 08', '', '', '', 0.0)||('to', '', '', '', 0.0)||('0 . 8', '', '', '', 0.0)||(')', '', '', '', 0.0)||('.', '', '', '', 0.0)||
('there', '', '', '', 0.0)||('were', '', '', '', 0.0)||('no', '', '', '', 0.0)||('significant', 'adj', 'C0750502', ['idcn'], 0.0)||('differences', '', '', '', 0.0)||('between', '', '', '', 0.0)||('treatments', 'noun', 'C0087111', ['topp'], 0.0)||('for', '', '', '', 0.0)||('nasal', 'adj', 'C0028429', ['bpoc'], 0.0)||('discomfort', 'noun', 'C0231218', ['sosy'], 0.0)||(',', '', '', '', 0.0)||('nasal', 'adj', 'C0028429', ['bpoc'], 0.0)||('resistance', 'noun', 'C0237834', ['menp'], 0.0)||(',', '', '', '', 0.0)||('or', '', '', '', 0.0)||('eye', 'noun', 'C0015392', ['bpoc'], 0.0)||('symptoms', 'noun', 'C0683368', ['ftcn'], 0.0)||('.', '', '', '', 0.0)||
('the', '', '', '', 0.0)||('effects', '', '', '', 0.0)||('on', '', '', '', 0.0)||('sneezing', 'noun', 'C0037383', ['fndg'], 0.0)||(',', '', '', '', 0.0)||('total', 'adj', 'C0439810', ['qlco'], 0.0)||('nasal', 'adj', 'C0028429', ['bpoc'], 0.0)||('symptoms', 'noun', 'C0683368', ['ftcn'], 0.0)||(',', '', '', '', 0.0)||('and', '', '', '', 0.0)||('eye', 'noun', 'C0015392', ['bpoc'], 0.0)||('symptoms', 'noun', 'C0683368', ['ftcn'], 0.0)||('were', '', '', '', 0.0)||('significantly', '', '', '', 0.0)||('heterogeneous', 'adj', 'C0019409', ['qlco'], 0.0)||('between', '', '', '', 0.0)||('studies', '', '', '', 0.0)||('.', '', '', '', 0.0)||
('other', '', '', '', 0.0)||('combined', 'adj', 'C0205195', ['qlco'], 0.0)||('outcomes', 'noun', 'C0085415', ['qlco'], 0.0)||('were', '', '', '', 0.0)||('homogeneous', 'adj', 'C1881065', ['qlco'], 0.0)||('between', '', '', '', 0.0)||('studies', '', '', '', 0.0)||('.', '', '', '', 0.0)||
('subgroup', 'noun', 'C1515021', ['clas'], 0.0)||('analysis', 'noun', 'C0002778', ['lbpr'], 0.0)||('of', '', '', '', 0.0)||('the', '', '', '', 0.0)||('outcome', 'noun', 'C1274040', ['ftcn'], 0.0)||('of', '', '', '', 0.0)||('eye', 'noun', 'C0015392', ['bpoc'], 0.0)||('symptoms', 'noun', 'C0683368', ['ftcn'], 0.0)||('suggested', '', '', '', 0.0)||('that', '', '', '', 0.0)||('the', '', '', '', 0.0)||('duration', 'noun', 'C0449238', ['tmco'], 0.0)||('of', '', '', '', 0.0)||('assessment', 'noun', 'C1261322', ['hlca'], 0.0)||('(', '', '', '', 0.0)||('averaged', '', '', '', 0.0)||('mean score', '', '', '', 0.0)||('over', '', '', '', 0.0)||('the', '', '', '', 0.0)||('study', 'noun', 'C0008976', ['resa'], 0.0)||('period', 'noun', 'C1948053', ['tmco'], 0.0)||('versus', '', '', '', 0.0)||('mean score', '', '', '', 0.0)||('at', '', '', '', 0.0)||('end', 'noun', 'C0444930', ['spco'], 0.0)||('of', '', '', '', 0.0)||('study', 'noun', 'C0008976', ['resa'], 0.0)||('period', 'noun', 'C1948053', ['tmco'], 0.0)||(')', '', '', '', 0.0)||('might', '', '', '', 0.0)||('have', '', '', '', 0.0)||('accounted', '', '', '', 0.0)||('for', '', '', '', 0.0)||('the', '', '', '', 0.0)||('heterogeneity', 'noun', 'C0019409', ['qlco'], 0.0)||('.', '', '', '', 0.0)||
('conclusions', 'noun', 'C1707478', ['idcn'], 0.0)||(':', '', '', '', 0.0)||('the', '', '', '', 0.0)||('results', 'noun', 'C1274040', ['ftcn'], 0.0)||('of', '', '', '', 0.0)||('this', '', '', '', 0.0)||('systematic review', '', '', '', 0.0)||(',', '', '', '', 0.0)||('together with', '', '', '', 0.0)||('data', 'noun', 'C1511726', ['idcn'], 0.0)||('on', '', '', '', 0.0)||('safety', 'noun', 'C0036043', ['hcpp'], 0.0)||('and', '', '', '', 0.0)||('cost effectiveness', 'noun', 'C0010181', ['qnco'], 0.0)||(',', '', '', '', 0.0)||('support', 'verb', 'C0183683', ['medd'], 0.0)||('the', '', '', '', 0.0)||('use', 'noun', 'C0042153', ['ftcn'], 0.0)||('of', '', '', '', 0.0)||('intranasal', 'adj', 'C0442118', ['spco'], 0.0)||('corticosteroids', 'noun', 'C0001617', ['horm', 'phsu', 'strd'], 0.0)||('over', '', '', '', 0.0)||('oral', 'adj', 'C0442027', ['spco'], 0.0)||('antihistamines', 'noun', 'C0003360', ['orch', 'phsu'], 0.0)||('as', '', '', '', 0.0)||('first', 'adj', 'C0205435', ['qnco'], 0.0)||('line', 'noun', 'C0205132', ['spco'], 0.0)||('treatment', 'noun', 'C0039798', ['ftcn'], 0.0)||('for', '', '', '', 0.0)||('allergic rhinitis', 'noun', 'C2607914', ['dsyn'], 0.0)||('.', '', '', '', 0.0)||
