('ezetimibe', 'noun', 'C1142985', ['orch', 'phsu'], 0.0)||(',', '', '', '', 0.0)||('a', '', '', '', 0.0)||('cholesterol', 'noun', 'C0008377', ['bacs', 'strd'], 0.0)||('-', '', '', '', 0.0)||('absorption', 'noun', 'C0000854', ['npop'], 0.0)||('inhibitor', 'noun', 'C1999216', ['qlco'], 0.0)||(',', '', '', '', 0.0)||('reduces', '', '', '', 0.0)||('levels', 'noun', 'C0441889', ['qlco'], 0.0)||('of', '', '', '', 0.0)||('low - density lipoprotein', '', '', '', 0.0)||('(', '', '', '', 0.0)||('ldl', 'noun', 'C0428474', ['lbpr'], 0.0)||(')', '', '', '', 0.0)||('cholesterol', 'noun', 'C0008377', ['bacs', 'strd'], 0.0)||('when', '', '', '', 0.0)||('added', 'verb', 'C1524062', ['ftcn'], 0.0)||('to', '', '', '', 0.0)||('statin', 'noun', 'C0360714', ['orch', 'phsu'], 0.0)||('treatment', 'noun', 'C0039798', ['ftcn'], 0.0)||('.', '', '', '', 0.0)||
('however', '', '', '', 0.0)||(',', '', '', '', 0.0)||('the', '', '', '', 0.0)||('effect', 'noun', 'C1280500', ['qlco'], 0.0)||('of', '', '', '', 0.0)||('ezetimibe', 'noun', 'C1142985', ['orch', 'phsu'], 0.0)||('on', '', '', '', 0.0)||('the', '', '', '', 0.0)||('progression', 'noun', 'C0242656', ['patf'], 0.0)||('of', '', '', '', 0.0)||('atherosclerosis', 'noun', 'C0004153', ['dsyn'], 0.0)||('remains', '', '', '', 0.0)||('unknown', 'verb', 'C0439673', ['idcn'], 0.0)||('.', '', '', '', 0.0)||
('we', '', '', '', 0.0)||('conducted', '', '', '', 0.0)||('a', '', '', '', 0.0)||('double - blind', '', '', '', 0.0)||(',', '', '', '', 0.0)||('randomized', 'verb', 'C0034656', ['resa'], 0.0)||(',', '', '', '', 0.0)||('24', '', '', '', 0.0)||('-', '', '', '', 0.0)||('month', 'noun', 'C0439231', ['tmco'], 0.0)||('trial', 'noun', 'C0008976', ['resa'], 0.0)||('comparing', '', '', '', 0.0)||('the', '', '', '', 0.0)||('effects', '', '', '', 0.0)||('of', '', '', '', 0.0)||('daily', 'adj', 'C0332173', ['tmco'], 0.0)||('therapy', 'noun', 'C0039798', ['ftcn'], 0.0)||('with', '', '', '', 0.0)||('80', '', '', '', 0.0)||('mg', '', '', '', 0.0)||('of', '', '', '', 0.0)||('simvastatin', 'noun', 'C0074554', ['orch', 'phsu'], 0.0)||('either', '', '', '', 0.0)||('with', '', '', '', 0.0)||('placebo', 'noun', 'C0032042', ['topp'], 0.0)||('or', '', '', '', 0.0)||('with', '', '', '', 0.0)||('10', '', '', '', 0.0)||('mg', '', '', '', 0.0)||('of', '', '', '', 0.0)||('ezetimibe', 'noun', 'C1142985', ['orch', 'phsu'], 0.0)||('in', '', '', '', 0.0)||('720', '', '', '', 0.0)||('patients', 'noun', 'C0030705', ['podg'], 0.0)||('with', '', '', '', 0.0)||('familial hypercholesterolemia', 'noun', 'C1366529', ['gngm'], 0.0)||('.', '', '', '', 0.0)||
('patients', 'noun', 'C0030705', ['podg'], 0.0)||('underwent', '', '', '', 0.0)||('b', '', '', '', 0.0)||('-', '', '', '', 0.0)||('mode', 'noun', 'C1513371', ['ftcn'], 0.0)||('ultrasonography', 'noun', 'C0041618', ['diap'], 0.0)||('to', '', '', '', 0.0)||('assess', 'verb', 'C1516048', ['acty'], 0.0)||('the', '', '', '', 0.0)||('intima - media thickness', '', '', '', 0.0)||('of', '', '', '', 0.0)||('the', '', '', '', 0.0)||('walls', 'noun', 'C0677535', ['mnob'], 0.0)||('of', '', '', '', 0.0)||('the', '', '', '', 0.0)||('carotid', 'adj', 'C0741968', ['bpoc'], 0.0)||('and', '', '', '', 0.0)||('femoral arteries', 'noun', 'C0015801', ['bpoc'], 0.0)||('.', '', '', '', 0.0)||
('the', '', '', '', 0.0)||('primary', 'adj', 'C0205225', ['qlco'], 0.0)||('outcome', 'noun', 'C1274040', ['ftcn'], 0.0)||('measure', 'noun', 'C0079809', ['qnco'], 0.0)||('was', '', '', '', 0.0)||('the', '', '', '', 0.0)||('change', 'noun', 'C0392747', ['ftcn'], 0.0)||('in', '', '', '', 0.0)||('the', '', '', '', 0.0)||('mean', 'noun', 'C0444504', ['qnco'], 0.0)||('carotid - artery intima - media thickness', '', '', '', 0.0)||(',', '', '', '', 0.0)||('which', '', '', '', 0.0)||('was', '', '', '', 0.0)||('defined', 'verb', 'C1704788', ['cnce'], 0.0)||('as', '', '', '', 0.0)||('the', '', '', '', 0.0)||('average', 'noun', 'C1510992', ['qnco'], 0.0)||('of', '', '', '', 0.0)||('the', '', '', '', 0.0)||('means', 'noun', 'C1704970', ['cnce'], 0.0)||('of', '', '', '', 0.0)||('the', '', '', '', 0.0)||('far', '', '', '', 0.0)||('-', '', '', '', 0.0)||('wall', 'noun', 'C0677535', ['mnob'], 0.0)||('intima - media thickness', '', '', '', 0.0)||('of', '', '', '', 0.0)||('the', '', '', '', 0.0)||('right', 'noun', 'C0205090', ['spco'], 0.0)||('and', '', '', '', 0.0)||('left common carotid arteries', '', '', '', 0.0)||(',', '', '', '', 0.0)||('carotid', 'adj', 'C0741968', ['bpoc'], 0.0)||('bulbs', 'noun', 'C1449865', ['plnt'], 0.0)||(',', '', '', '', 0.0)||('and', '', '', '', 0.0)||('internal carotid arteries', '', '', '', 0.0)||('.', '', '', '', 0.0)||
('the', '', '', '', 0.0)||('primary', 'adj', 'C0205225', ['qlco'], 0.0)||('outcome', 'noun', 'C1274040', ['ftcn'], 0.0)||(',', '', '', '', 0.0)||('the', '', '', '', 0.0)||('mean', 'noun', 'C0444504', ['qnco'], 0.0)||('(', '', '', '', 0.0)||('+', '', '', '', 0.0)||('/', '', '', '', 0.0)||('-', '', '', '', 0.0)||('se', '', '', '', 0.0)||(')', '', '', '', 0.0)||('change', 'verb', 'C0392747', ['ftcn'], 0.0)||('in', '', '', '', 0.0)||('the', '', '', '', 0.0)||('carotid - artery intima - media thickness', '', '', '', 0.0)||(',', '', '', '', 0.0)||('was', '', '', '', 0.0)||('0 . 0058', '', '', '', 0.0)||('+', '', '', '', 0.0)||('/', '', '', '', 0.0)||('-', '', '', '', 0.0)||('0 . 0037', '', '', '', 0.0)||('mm', '', '', '', 0.0)||('in', '', '', '', 0.0)||('the', '', '', '', 0.0)||('simvastatin', 'noun', 'C0074554', ['orch', 'phsu'], 0.0)||('-', '', '', '', 0.0)||('only', '', '', '', 0.0)||('group', 'noun', 'C0441833', ['idcn'], 0.0)||('and', '', '', '', 0.0)||('0 . 0111', '', '', '', 0.0)||('+', '', '', '', 0.0)||('/', '', '', '', 0.0)||('-', '', '', '', 0.0)||('0 . 0038', '', '', '', 0.0)||('mm', '', '', '', 0.0)||('in', '', '', '', 0.0)||('the', '', '', '', 0.0)||('simvastatin', 'noun', 'C0074554', ['orch', 'phsu'], 0.0)||('-', '', '', '', 0.0)||('plus', '', '', '', 0.0)||('-', '', '', '', 0.0)||('ezetimibe', 'noun', 'C1142985', ['orch', 'phsu'], 0.0)||('(', '', '', '', 0.0)||('combined - therapy', '', '', '', 0.0)||(')', '', '', '', 0.0)||('group', 'noun', 'C0441833', ['idcn'], 0.0)||('(', '', '', '', 0.0)||('p', '', '', '', 0.0)||('=', '', '', '', 0.0)||('0 . 29', '', '', '', 0.0)||(')', '', '', '', 0.0)||('.', '', '', '', 0.0)||
('secondary', 'adj', 'C0175668', ['tmco'], 0.0)||('outcomes', 'noun', 'C0085415', ['qlco'], 0.0)||('(', '', '', '', 0.0)||('consisting', '', '', '', 0.0)||('of', '', '', '', 0.0)||('other', '', '', '', 0.0)||('variables', '', '', '', 0.0)||('regarding', '', '', '', 0.0)||('the', '', '', '', 0.0)||('intima - media thickness', '', '', '', 0.0)||('of', '', '', '', 0.0)||('the', '', '', '', 0.0)||('carotid', 'adj', 'C0741968', ['bpoc'], 0.0)||('and', '', '', '', 0.0)||('femoral arteries', 'noun', 'C0015801', ['bpoc'], 0.0)||(')', '', '', '', 0.0)||('did', '', '', '', 0.0)||('not', 'adv', 'C1518422', ['ftcn'], 0.0)||('differ', '', '', '', 0.0)||('significantly', '', '', '', 0.0)||('between', '', '', '', 0.0)||('the', '', '', '', 0.0)||('two', 'adj', 'C0205448', ['qnco'], 0.0)||('groups', 'noun', 'C0441833', ['idcn'], 0.0)||('.', '', '', '', 0.0)||
('at', '', '', '', 0.0)||('the', '', '', '', 0.0)||('end', 'noun', 'C0444930', ['spco'], 0.0)||('of', '', '', '', 0.0)||('the', '', '', '', 0.0)||('study', 'noun', 'C0008976', ['resa'], 0.0)||(',', '', '', '', 0.0)||('the', '', '', '', 0.0)||('mean', 'noun', 'C0444504', ['qnco'], 0.0)||('(', '', '', '', 0.0)||('+', '', '', '', 0.0)||('/', '', '', '', 0.0)||('-', '', '', '', 0.0)||('sd', '', '', '', 0.0)||(')', '', '', '', 0.0)||('ldl', 'noun', 'C0428474', ['lbpr'], 0.0)||('cholesterol level', 'noun', 'C0201950', ['lbpr'], 0.0)||('was', '', '', '', 0.0)||('192 . 7', '', '', '', 0.0)||('+', '', '', '', 0.0)||('/', '', '', '', 0.0)||('-', '', '', '', 0.0)||('60 . 3', '', '', '', 0.0)||('mg', '', '', '', 0.0)||('per', '', '', '', 0.0)||('deciliter', 'noun', 'C0439241', ['qnco'], 0.0)||('(', '', '', '', 0.0)||('4 . 98', '', '', '', 0.0)||('+', '', '', '', 0.0)||('/', '', '', '', 0.0)||('-', '', '', '', 0.0)||('1 . 56', '', '', '', 0.0)||('mmol', '', '', '', 0.0)||('per', '', '', '', 0.0)||('liter', 'noun', 'C0475211', ['qnco'], 0.0)||(')', '', '', '', 0.0)||('in', '', '', '', 0.0)||('the', '', '', '', 0.0)||('simvastatin', 'noun', 'C0074554', ['orch', 'phsu'], 0.0)||('group', 'noun', 'C0441833', ['idcn'], 0.0)||('and', '', '', '', 0.0)||('141 . 3', '', '', '', 0.0)||('+', '', '', '', 0.0)||('/', '', '', '', 0.0)||('-', '', '', '', 0.0)||('52 . 6', '', '', '', 0.0)||('mg', '', '', '', 0.0)||('per', '', '', '', 0.0)||('deciliter', 'noun', 'C0439241', ['qnco'], 0.0)||('(', '', '', '', 0.0)||('3 . 65', '', '', '', 0.0)||('+', '', '', '', 0.0)||('/', '', '', '', 0.0)||('-', '', '', '', 0.0)||('1 . 36', '', '', '', 0.0)||('mmol', '', '', '', 0.0)||('per', '', '', '', 0.0)||('liter', 'noun', 'C0475211', ['qnco'], 0.0)||(')', '', '', '', 0.0)||('in', '', '', '', 0.0)||('the', '', '', '', 0.0)||('combined - therapy', '', '', '', 0.0)||('group ( a', '', '', '', 0.0)||('between', '', '', '', 0.0)||('-', '', '', '', 0.0)||('group', 'noun', 'C0441833', ['idcn'], 0.0)||('difference', 'noun', 'C1705242', ['qlco'], 0.0)||('of', '', '', '', 0.0)||('16 . 5 %', '', '', '', 0.0)||(',', '', '', '', 0.0)||('p', '', '', '', 0.0)||('<', '', '', '', 0.0)||('0 . 01', '', '', '', 0.0)||(')', '', '', '', 0.0)||('.', '', '', '', 0.0)||
('the', '', '', '', 0.0)||('differences', '', '', '', 0.0)||('between', '', '', '', 0.0)||('the', '', '', '', 0.0)||('two', 'adj', 'C0205448', ['qnco'], 0.0)||('groups', 'noun', 'C0441833', ['idcn'], 0.0)||('in', '', '', '', 0.0)||('reductions', '', '', '', 0.0)||('in', '', '', '', 0.0)||('levels', 'noun', 'C0441889', ['qlco'], 0.0)||('of', '', '', '', 0.0)||('triglycerides', 'noun', 'C0041004', ['bacs', 'lipd'], 0.0)||('and', '', '', '', 0.0)||('c - reactive protein', '', '', '', 0.0)||('were', '', '', '', 0.0)||('6 . 6 %', '', '', '', 0.0)||('and', '', '', '', 0.0)||('25 . 7 %', '', '', '', 0.0)||(',', '', '', '', 0.0)||('respectively', '', '', '', 0.0)||(',', '', '', '', 0.0)||('with', '', '', '', 0.0)||('greater', 'adj', 'C1704243', ['qnco'], 0.0)||('reductions', '', '', '', 0.0)||('in', '', '', '', 0.0)||('the', '', '', '', 0.0)||('combined - therapy', '', '', '', 0.0)||('group', 'noun', 'C0441833', ['idcn'], 0.0)||('(', '', '', '', 0.0)||('p', '', '', '', 0.0)||('<', '', '', '', 0.0)||('0 . 01', '', '', '', 0.0)||('for', '', '', '', 0.0)||('both', '', '', '', 0.0)||('comparisons', '', '', '', 0.0)||(')', '', '', '', 0.0)||('.', '', '', '', 0.0)||
('side - effect', '', '', '', 0.0)||('and', '', '', '', 0.0)||('safety', 'noun', 'C0036043', ['hcpp'], 0.0)||('profiles', '', '', '', 0.0)||('were', '', '', '', 0.0)||('similar', 'adj', 'C2348205', ['qlco'], 0.0)||('in', '', '', '', 0.0)||('the', '', '', '', 0.0)||('two', 'adj', 'C0205448', ['qnco'], 0.0)||('groups', 'noun', 'C0441833', ['idcn'], 0.0)||('.', '', '', '', 0.0)||
('in', '', '', '', 0.0)||('patients', 'noun', 'C0030705', ['podg'], 0.0)||('with', '', '', '', 0.0)||('familial hypercholesterolemia', 'noun', 'C1366529', ['gngm'], 0.0)||(',', '', '', '', 0.0)||('combined therapy', 'noun', 'C0033972', ['topp'], 0.0)||('with', '', '', '', 0.0)||('ezetimibe', 'noun', 'C1142985', ['orch', 'phsu'], 0.0)||('and', '', '', '', 0.0)||('simvastatin', 'noun', 'C0074554', ['orch', 'phsu'], 0.0)||('did', '', '', '', 0.0)||('not', 'adv', 'C1518422', ['ftcn'], 0.0)||('result', 'verb', 'C1274040', ['ftcn'], 0.0)||('in', '', '', '', 0.0)||('a', '', '', '', 0.0)||('significant', 'adj', 'C0750502', ['idcn'], 0.0)||('difference', 'noun', 'C1705242', ['qlco'], 0.0)||('in', '', '', '', 0.0)||('changes', '', '', '', 0.0)||('in', '', '', '', 0.0)||('intima - media thickness', '', '', '', 0.0)||(',', '', '', '', 0.0)||('as', '', '', '', 0.0)||('compared', 'verb', 'C1707455', ['acty'], 0.0)||('with', '', '', '', 0.0)||('simvastatin', 'noun', 'C0074554', ['orch', 'phsu'], 0.0)||('alone', 'adj', 'C0439044', ['fndg'], 0.0)||(',', '', '', '', 0.0)||('despite', '', '', '', 0.0)||('decreases', '', '', '', 0.0)||('in', '', '', '', 0.0)||('levels', 'noun', 'C0441889', ['qlco'], 0.0)||('of', '', '', '', 0.0)||('ldl', 'noun', 'C0428474', ['lbpr'], 0.0)||('cholesterol', 'noun', 'C0008377', ['bacs', 'strd'], 0.0)||('and', '', '', '', 0.0)||('c - reactive protein', '', '', '', 0.0)||('.', '', '', '', 0.0)||
('(', '', '', '', 0.0)||('clinicaltrials', '', '', '', 0.0)||('.', '', '', '', 0.0)||('gov', 'noun', 'C1419208', ['gngm'], 0.0)||('number', 'noun', 'C0449788', ['qnco'], 0.0)||(',', '', '', '', 0.0)||('nct00552097', '', '', '', 0.0)||('[', '', '', '', 0.0)||('clinicaltrials', '', '', '', 0.0)||('.', '', '', '', 0.0)||('gov', 'noun', 'C1419208', ['gngm'], 0.0)||(']', '', '', '', 0.0)||('.', '', '', '', 0.0)||(')', '', '', '', 0.0)||('.', '', '', '', 0.0)||
