('to', '', '', '', 0.0)||('compare', 'verb', 'C1707455', ['acty'], 0.0)||('two', 'adj', 'C0205448', ['qnco'], 0.0)||('treatments', 'noun', 'C0087111', ['topp'], 0.0)||('in', '', '', '', 0.0)||('common', 'adj', 'C0205214', ['qnco'], 0.0)||('usage', 'noun', 'C0457083', ['ftcn'], 0.0)||('for', '', '', '', 0.0)||('children', 'noun', 'C0008059', ['aggp'], 0.0)||('with', '', '', '', 0.0)||('atopic eczema', '', '', '', 0.0)||(':', '', '', '', 0.0)||('"', '', '', '', 0.0)||('wet', 'noun', 'C0205381', ['qlco'], 0.0)||('wrap', '', '', '', 0.0)||('"', '', '', '', 0.0)||('bandages', 'noun', 'C0004726', ['medd'], 0.0)||('versus', '', '', '', 0.0)||('conventional', 'adj', 'C0439858', ['qlco'], 0.0)||('topically', '', '', '', 0.0)||('applied', 'adj', 'C0185125', ['hlca'], 0.0)||('ointments', 'noun', 'C0028912', ['bodm'], 0.0)||('.', '', '', '', 0.0)||
('a', '', '', '', 0.0)||('total', 'noun', 'C0439810', ['qlco'], 0.0)||('of', '', '', '', 0.0)||('50', '', '', '', 0.0)||('children', 'noun', 'C0008059', ['aggp'], 0.0)||('(', '', '', '', 0.0)||('age', 'noun', 'C0001779', ['orga'], 0.0)||('4', '', '', '', 0.0)||('-', '', '', '', 0.0)||('27', '', '', '', 0.0)||('months', 'noun', 'C0439231', ['tmco'], 0.0)||(')', '', '', '', 0.0)||('with', '', '', '', 0.0)||('moderate', 'adj', 'C0205081', ['qlco'], 0.0)||('to', '', '', '', 0.0)||('severe', 'adj', 'C0205082', ['qlco'], 0.0)||('eczema', 'noun', 'C0013595', ['dsyn'], 0.0)||('were', '', '', '', 0.0)||('randomised', '', '', '', 0.0)||('to', '', '', '', 0.0)||('one', 'noun', 'C0205447', ['qnco'], 0.0)||('or', '', '', '', 0.0)||('other', '', '', '', 0.0)||('treatment', 'noun', 'C0039798', ['ftcn'], 0.0)||('.', '', '', '', 0.0)||
('two', 'noun', 'C0205448', ['qnco'], 0.0)||('research', 'noun', 'C0035168', ['resa'], 0.0)||('nurses', 'noun', 'C0028661', ['prog'], 0.0)||('supervised', '', '', '', 0.0)||('the', '', '', '', 0.0)||('study', 'noun', 'C0008976', ['resa'], 0.0)||('.', '', '', '', 0.0)||
('the', '', '', '', 0.0)||('first', '', '', '', 0.0)||('gave', '', '', '', 0.0)||('advice', 'noun', 'C0150600', ['hlca'], 0.0)||('and', '', '', '', 0.0)||('support', 'noun', 'C0183683', ['medd'], 0.0)||(',', '', '', '', 0.0)||('and', '', '', '', 0.0)||('the', '', '', '', 0.0)||('second', 'noun', 'C0205436', ['qnco'], 0.0)||(',', '', '', '', 0.0)||('blinded', 'verb', 'C0150108', ['resa'], 0.0)||('to', '', '', '', 0.0)||('the', '', '', '', 0.0)||('treatment', 'noun', 'C0039798', ['ftcn'], 0.0)||('modality', 'noun', 'C0695347', ['idcn'], 0.0)||('being', '', '', '', 0.0)||('used', '', '', '', 0.0)||(',', '', '', '', 0.0)||('scored', '', '', '', 0.0)||('the', '', '', '', 0.0)||('change', 'noun', 'C0392747', ['ftcn'], 0.0)||('in', '', '', '', 0.0)||('eczema', 'noun', 'C0013595', ['dsyn'], 0.0)||('severity', 'noun', 'C0439793', ['qlco'], 0.0)||('over', '', '', '', 0.0)||('a', '', '', '', 0.0)||('period', 'noun', 'C1948053', ['tmco'], 0.0)||('of', '', '', '', 0.0)||('four', '', 'C0205450', ['qnco'], 0.0)||('weeks', 'noun', 'C0439230', ['tmco'], 0.0)||('using', 'verb', 'C1524063', ['ftcn'], 0.0)||('the', '', '', '', 0.0)||('scorad', '', '', '', 0.0)||('eczema', 'noun', 'C0013595', ['dsyn'], 0.0)||('severity', 'noun', 'C0439793', ['qlco'], 0.0)||('scale', 'noun', 'C0175659', ['medd'], 0.0)||('.', '', '', '', 0.0)||
('both', '', '', '', 0.0)||('treatments', 'noun', 'C0087111', ['topp'], 0.0)||('gave', '', '', '', 0.0)||('a', '', '', '', 0.0)||('benefit', 'noun', 'C0814225', ['qnco'], 0.0)||('in', '', '', '', 0.0)||('overall', 'adj', 'C0282416', ['inpr'], 0.0)||('scorad', '', '', '', 0.0)||('scores', 'noun', 'C0449820', ['qnco'], 0.0)||('(', '', '', '', 0.0)||('mean', 'noun', 'C0444504', ['qnco'], 0.0)||('change', 'noun', 'C0392747', ['ftcn'], 0.0)||('for', '', '', '', 0.0)||('wet', 'noun', 'C0205381', ['qlco'], 0.0)||('wrap', '', '', '', 0.0)||('group', 'noun', 'C0441833', ['idcn'], 0.0)||('was', '', '', '', 0.0)||('53', '', '', '', 0.0)||('to', '', '', '', 0.0)||('24', '', '', '', 0.0)||(';', '', '', '', 0.0)||('for', '', '', '', 0.0)||('the', '', '', '', 0.0)||('conventional', 'adj', 'C0439858', ['qlco'], 0.0)||('group', 'noun', 'C0441833', ['idcn'], 0.0)||(',', '', '', '', 0.0)||('41', '', '', '', 0.0)||('to', '', '', '', 0.0)||('17', '', '', '', 0.0)||(')', '', '', '', 0.0)||('.', '', '', '', 0.0)||
('there', '', '', '', 0.0)||('was', '', '', '', 0.0)||('no', '', '', '', 0.0)||('significant', 'adj', 'C0750502', ['idcn'], 0.0)||('difference', 'noun', 'C1705242', ['qlco'], 0.0)||('between', '', '', '', 0.0)||('the', '', '', '', 0.0)||('two', 'adj', 'C0205448', ['qnco'], 0.0)||('groups', 'noun', 'C0441833', ['idcn'], 0.0)||('in', '', '', '', 0.0)||('terms', '', '', '', 0.0)||('of', '', '', '', 0.0)||('overall', 'adj', 'C0282416', ['inpr'], 0.0)||('improvement', '', '', '', 0.0)||('at', '', '', '', 0.0)||('four', '', 'C0205450', ['qnco'], 0.0)||('weeks', 'noun', 'C0439230', ['tmco'], 0.0)||('or', '', '', '', 0.0)||('in', '', '', '', 0.0)||('the', '', '', '', 0.0)||('timescale', '', '', '', 0.0)||('of', '', '', '', 0.0)||('improvements', '', '', '', 0.0)||('.', '', '', '', 0.0)||
('the', '', '', '', 0.0)||('amount', 'noun', 'C1265611', ['qnco'], 0.0)||('of', '', '', '', 0.0)||('topical', 'adj', 'C0205530', ['spco'], 0.0)||('of', '', '', '', 0.0)||('topical', 'adj', 'C0205530', ['spco'], 0.0)||('steroid', 'noun', 'C0038317', ['strd'], 0.0)||('used', '', '', '', 0.0)||('was', '', '', '', 0.0)||('similar', 'adj', 'C2348205', ['qlco'], 0.0)||('in', '', '', '', 0.0)||('both', '', '', '', 0.0)||('groups', 'noun', 'C0441833', ['idcn'], 0.0)||('.', '', '', '', 0.0)||
('the', '', '', '', 0.0)||('wet', 'noun', 'C0205381', ['qlco'], 0.0)||('wrap', '', '', '', 0.0)||('group', 'noun', 'C0441833', ['idcn'], 0.0)||('suffered', '', '', '', 0.0)||('significantly', '', '', '', 0.0)||('more', '', '', '', 0.0)||('skin infections', '', '', '', 0.0)||('requiring', '', '', '', 0.0)||('antibiotics', 'noun', 'C0003232', ['antb'], 0.0)||('.', '', '', '', 0.0)||
('carers', '', '', '', 0.0)||('reported', 'verb', 'C0684224', ['inpr'], 0.0)||('that', '', '', '', 0.0)||('wet', 'noun', 'C0205381', ['qlco'], 0.0)||('wraps', '', '', '', 0.0)||('were', '', '', '', 0.0)||('less', '', '', '', 0.0)||('easy', 'adj', 'C0332219', ['qlco'], 0.0)||('to', '', '', '', 0.0)||('apply', 'verb', 'C0185125', ['hlca'], 0.0)||('than', '', '', '', 0.0)||('conventional treatment', '', '', '', 0.0)||('.', '', '', '', 0.0)||
