('one', 'noun', 'C0205447', ['qnco'], 0.0)||('study', 'noun', 'C0008976', ['resa'], 0.0)||('identified', 'verb', 'C0205396', ['qlco'], 0.0)||('3', '', '', '', 0.0)||('risk factors', 'noun', 'C0035648', ['qnco'], 0.0)||('for', '', '', '', 0.0)||('recurrence', 'noun', 'C0034897', ['phpr'], 0.0)||('of', '', '', '', 0.0)||('dysplasia', 'noun', 'C0334044', ['neop'], 0.0)||('after', '', '', '', 0.0)||('a', '', '', '', 0.0)||('loop', 'noun', 'C0445022', ['spco'], 0.0)||('electrocautery', 'noun', 'C0013804', ['topp'], 0.0)||('excision', 'noun', 'C0728940', ['topp'], 0.0)||('procedure', 'noun', 'C0184661', ['diap', 'topp'], 0.0)||('leep', 'noun', 'C0184930', ['topp'], 0.0)||(':', '', '', '', 0.0)||('residual', 'adj', 'C1609982', ['qlco'], 0.0)||('disease', 'noun', 'C0012634', ['dsyn'], 0.0)||('at', '', '', '', 0.0)||('either', '', '', '', 0.0)||('the', '', '', '', 0.0)||('endocervical', 'adj', 'C0227837', ['bpoc'], 0.0)||('or', '', '', '', 0.0)||('ectocervical', '', '', '', 0.0)||('margins', '', '', '', 0.0)||(',', '', '', '', 0.0)||('and', '', '', '', 0.0)||('involvement', 'noun', 'C1314939', ['ftcn'], 0.0)||('of', '', '', '', 0.0)||('endocervical', 'adj', 'C0227837', ['bpoc'], 0.0)||('glands', 'noun', 'C1285092', ['bpoc'], 0.0)||('.', '', '', '', 0.0)||
('the', '', '', '', 0.0)||('presence', 'noun', 'C0392148', ['topp'], 0.0)||('of', '', '', '', 0.0)||('these', '', '', '', 0.0)||('risk factors', 'noun', 'C0035648', ['qnco'], 0.0)||('predicted', 'verb', 'C0681842', ['idcn'], 0.0)||('a', '', '', '', 0.0)||('recurrence rate', '', '', '', 0.0)||('of', '', '', '', 0.0)||('almost', '', '', '', 0.0)||('70 %', '', '', '', 0.0)||('.', '', '', '', 0.0)||
('because', '', '', '', 0.0)||('8 %', '', '', '', 0.0)||('of', '', '', '', 0.0)||('the', '', '', '', 0.0)||('recurrences', 'noun', 'C0034897', ['phpr'], 0.0)||('were', '', '', '', 0.0)||('missed', 'verb', 'C1705492', ['qlco'], 0.0)||('on', '', '', '', 0.0)||('cytology', 'noun', 'C0010818', ['lbpr'], 0.0)||(',', '', '', '', 0.0)||('the', '', '', '', 0.0)||('authors', 'noun', 'C0341628', ['prog'], 0.0)||('recommended', 'verb', 'C0034866', ['idcn'], 0.0)||('colposcopy', 'adv', 'C0009417', ['diap'], 0.0)||('6', '', '', '', 0.0)||('months', 'noun', 'C0439231', ['tmco'], 0.0)||('after', '', '', '', 0.0)||('leep', 'noun', 'C0184930', ['topp'], 0.0)||('for', '', '', '', 0.0)||('patients', 'noun', 'C0030705', ['podg'], 0.0)||('with', '', '', '', 0.0)||('these', '', '', '', 0.0)||('risk factors', 'noun', 'C0035648', ['qnco'], 0.0)||('.', '', '', '', 0.0)||
