('the', '', '', '', 0.0)||('benefits', 'noun', 'C0814225', ['qnco'], 0.0)||('of', '', '', '', 0.0)||('selective serotonin reuptake inhibitors', 'noun', 'C0162758', ['phsu'], 0.0)||(',', '', '', '', 0.0)||('disulfiram', 'noun', 'C0012772', ['orch', 'phsu'], 0.0)||(',', '', '', '', 0.0)||('and', '', '', '', 0.0)||('lithium', 'noun', 'C0023870', ['elii', 'phsu'], 0.0)||('have', '', '', '', 0.0)||('not', 'adv', 'C1518422', ['ftcn'], 0.0)||('been', '', '', '', 0.0)||('clear', 'adj', 'C0522503', ['qlco'], 0.0)||('for', '', '', '', 0.0)||('people', 'noun', 'C0027361', ['popg'], 0.0)||('with', '', '', '', 0.0)||('alcohol', 'noun', 'C0001962', ['orch', 'phsu'], 0.0)||('dependence', 'noun', 'C0011546', ['menp'], 0.0)||('.', '', '', '', 0.0)||
('while', '', '', '', 0.0)||('the', '', '', '', 0.0)||('results', 'noun', 'C1274040', ['ftcn'], 0.0)||('of', '', '', '', 0.0)||('many', '', '', '', 0.0)||('studies', '', '', '', 0.0)||('have', '', '', '', 0.0)||('suggested', '', '', '', 0.0)||('that', '', '', '', 0.0)||('opioid', 'noun', 'C0242402', ['hops', 'phsu'], 0.0)||('agonists', 'noun', 'C0243192', ['phsu'], 0.0)||('increase', 'verb', 'C0442805', ['ftcn'], 0.0)||('alcohol consumption', 'noun', 'C0001948', ['inbe'], 0.0)||(',', '', '', '', 0.0)||('others', 'noun', 'C1955473', ['fndg'], 0.0)||('have', '', '', '', 0.0)||('shown', '', '', '', 0.0)||('that', '', '', '', 0.0)||('mu', 'noun', 'C0347978', ['inpr'], 0.0)||('-', '', '', '', 0.0)||('opioid', 'noun', 'C0242402', ['hops', 'phsu'], 0.0)||('antagonists', 'noun', 'C0243076', ['chvf'], 0.0)||('and', '', '', '', 0.0)||('partial', 'adj', 'C0728938', ['qnco'], 0.0)||('agonists', 'noun', 'C0243192', ['phsu'], 0.0)||('reduce', '', '', '', 0.0)||('alcohol consumption', 'noun', 'C0001948', ['inbe'], 0.0)||('.', '', '', '', 0.0)||
('the', '', '', '', 0.0)||('results', 'noun', 'C1274040', ['ftcn'], 0.0)||('from', '', '', '', 0.0)||('animal studies', '', '', '', 0.0)||('suggest', 'verb', 'C1705535', ['idcn'], 0.0)||('that', '', '', '', 0.0)||('these', '', '', '', 0.0)||('agents', '', '', '', 0.0)||('may', '', '', '', 0.0)||('prevent', 'verb', 'C0309872', ['phsu'], 0.0)||('the', '', '', '', 0.0)||('reinforcing', 'adj', 'C1998814', ['hlca'], 0.0)||('effects', '', '', '', 0.0)||('of', '', '', '', 0.0)||('alcohol consumption', 'noun', 'C0001948', ['inbe'], 0.0)||('.', '', '', '', 0.0)||
('based', 'verb', 'C1527178', ['ftcn'], 0.0)||('on', '', '', '', 0.0)||('the', '', '', '', 0.0)||('results', 'noun', 'C1274040', ['ftcn'], 0.0)||('of', '', '', '', 0.0)||('those', '', '', '', 0.0)||('animal studies', '', '', '', 0.0)||(',', '', '', '', 0.0)||('some', '', '', '', 0.0)||('opioid', 'noun', 'C0242402', ['hops', 'phsu'], 0.0)||('antagonists', 'noun', 'C0243076', ['chvf'], 0.0)||(',', '', '', '', 0.0)||('such as', '', '', '', 0.0)||(',', '', '', '', 0.0)||('naltrexone', 'noun', 'C0027360', ['orch', 'phsu'], 0.0)||(',', '', '', '', 0.0)||('nalmefene', 'noun', 'C0068377', ['orch', 'phsu'], 0.0)||(',', '', '', '', 0.0)||('have', '', '', '', 0.0)||('been', '', '', '', 0.0)||('studied', '', '', '', 0.0)||('for', '', '', '', 0.0)||('their', '', '', '', 0.0)||('benefits', 'noun', 'C0814225', ['qnco'], 0.0)||('in', '', '', '', 0.0)||('treating', 'adj', 'C1522326', ['ftcn'], 0.0)||('alcohol', 'noun', 'C0001962', ['orch', 'phsu'], 0.0)||('dependence', 'noun', 'C0011546', ['menp'], 0.0)||('.', '', '', '', 0.0)||
('to', '', '', '', 0.0)||('determine', '', '', '', 0.0)||('the', '', '', '', 0.0)||('effectiveness', 'noun', 'C1280519', ['qlco'], 0.0)||('of', '', '', '', 0.0)||('opioid', 'noun', 'C0242402', ['hops', 'phsu'], 0.0)||('antagonists', 'noun', 'C0243076', ['chvf'], 0.0)||('in', '', '', '', 0.0)||('attenuating', '', '', '', 0.0)||('or', '', '', '', 0.0)||('preventing', 'noun', 'C1292733', ['ftcn'], 0.0)||('the', '', '', '', 0.0)||('recommencement', '', '', '', 0.0)||('of', '', '', '', 0.0)||('alcohol consumption', 'noun', 'C0001948', ['inbe'], 0.0)||('in', '', '', '', 0.0)||('patients', 'noun', 'C0030705', ['podg'], 0.0)||('with', '', '', '', 0.0)||('alcohol', 'noun', 'C0001962', ['orch', 'phsu'], 0.0)||('dependence', 'noun', 'C0011546', ['menp'], 0.0)||('in', '', '', '', 0.0)||('comparison', 'noun', 'C1707455', ['acty'], 0.0)||('to', '', '', '', 0.0)||('placebo', 'noun', 'C0032042', ['topp'], 0.0)||(',', '', '', '', 0.0)||('other', '', '', '', 0.0)||('medications', 'noun', 'C0013227', ['phsu'], 0.0)||('and', '', '', '', 0.0)||('psychosocial', 'adj', 'C0542298', ['ftcn'], 0.0)||('treatments', 'noun', 'C0087111', ['topp'], 0.0)||('.', '', '', '', 0.0)||
('in', '', '', '', 0.0)||('addition', 'noun', 'C1883712', ['ftcn'], 0.0)||(',', '', '', '', 0.0)||('discontinuation', 'noun', 'C0457454', ['hlca'], 0.0)||('rate', 'noun', 'C0871208', ['acty'], 0.0)||(',', '', '', '', 0.0)||('death', 'noun', 'C0011065', ['orgf'], 0.0)||(',', '', '', '', 0.0)||('patient', '', '', '', 0.0)||('satisfaction', 'noun', 'C0242428', ['menp'], 0.0)||(',', '', '', '', 0.0)||('functioning', '', '', '', 0.0)||(',', '', '', '', 0.0)||('health', 'noun', 'C0018684', ['idcn'], 0.0)||('-', '', '', '', 0.0)||('related', 'adj', 'C0439849', ['qlco'], 0.0)||('quality', 'noun', 'C0332306', ['qlco'], 0.0)||('of', '', '', '', 0.0)||('life', 'noun', 'C0376558', ['idcn'], 0.0)||('and', '', '', '', 0.0)||('economic', 'adj', 'C0013556', ['ocdi'], 0.0)||('outcomes', 'noun', 'C0085415', ['qlco'], 0.0)||('were', '', '', '', 0.0)||('also', '', '', '', 0.0)||('evaluated', 'verb', 'C0220825', ['ftcn'], 0.0)||('.', '', '', '', 0.0)||
('electronic', 'adj', 'C0013850', ['mnob'], 0.0)||('searches', '', '', '', 0.0)||('of', '', '', '', 0.0)||('medline', 'noun', 'C0025141', ['inpr'], 0.0)||(',', '', '', '', 0.0)||('embase', '', '', '', 0.0)||(',', '', '', '', 0.0)||('cinahl', '', '', '', 0.0)||('and', '', '', '', 0.0)||('cochrane', '', '', '', 0.0)||('controlled', 'adj', 'C2587213', ['ftcn'], 0.0)||('trials', '', '', '', 0.0)||('register', '', '', '', 0.0)||('were', '', '', '', 0.0)||('undertaken', '', '', '', 0.0)||('.', '', '', '', 0.0)||
('du', 'noun', 'C0013295', ['dsyn'], 0.0)||('pont', '', '', '', 0.0)||('pharmaceutical', 'adj', 'C0013058', ['bodm'], 0.0)||('and', '', '', '', 0.0)||('ivax', '', '', '', 0.0)||('corporation', 'noun', 'C0683758', ['orgt'], 0.0)||('were', '', '', '', 0.0)||('contacted', '', '', '', 0.0)||('for', '', '', '', 0.0)||('information', 'noun', 'C1533716', ['idcn'], 0.0)||('regarding', '', '', '', 0.0)||('unpublished', '', '', '', 0.0)||('trials', '', '', '', 0.0)||('.', '', '', '', 0.0)||
('the', '', '', '', 0.0)||('reference', 'noun', 'C1514811', ['idcn'], 0.0)||('lists', '', '', '', 0.0)||('of', '', '', '', 0.0)||('the', '', '', '', 0.0)||('obtained', 'adj', 'C1301820', ['ftcn'], 0.0)||('papers', 'noun', 'C0030351', ['mnob'], 0.0)||('were', '', '', '', 0.0)||('also', '', '', '', 0.0)||('examined', 'verb', 'C0332128', ['fndg'], 0.0)||('.', '', '', '', 0.0)||
('all', '', '', '', 0.0)||('relevant', 'adj', 'C2347946', ['qlco'], 0.0)||('randomised controlled trials', '', '', '', 0.0)||('and', '', '', '', 0.0)||('clinical control trials', '', '', '', 0.0)||('were', '', '', '', 0.0)||('included', '', '', '', 0.0)||('.', '', '', '', 0.0)||
('participants', '', '', '', 0.0)||('were', '', '', '', 0.0)||('people', 'noun', 'C0027361', ['popg'], 0.0)||('with', '', '', '', 0.0)||('alcohol', 'noun', 'C0001962', ['orch', 'phsu'], 0.0)||('dependence', 'noun', 'C0011546', ['menp'], 0.0)||(',', '', '', '', 0.0)||('diagnosed', 'verb', 'C0011900', ['fndg'], 0.0)||('by', '', '', '', 0.0)||('any', '', '', '', 0.0)||('set', 'verb', 'C0036849', ['menp'], 0.0)||('of', '', '', '', 0.0)||('criteria', 'noun', 'C0243161', ['inpr'], 0.0)||(',', '', '', '', 0.0)||('except', '', '', '', 0.0)||('alcohol', 'noun', 'C0001962', ['orch', 'phsu'], 0.0)||('dependence', 'noun', 'C0011546', ['menp'], 0.0)||('who', '', '', '', 0.0)||('were', '', '', '', 0.0)||('currently', 'adv', 'C0521116', ['tmco'], 0.0)||('abstinent', 'noun', 'C0457801', ['inbe'], 0.0)||('.', '', '', '', 0.0)||
('naltrexone', 'noun', 'C0027360', ['orch', 'phsu'], 0.0)||(',', '', '', '', 0.0)||('nalmefene', 'noun', 'C0068377', ['orch', 'phsu'], 0.0)||('and', '', '', '', 0.0)||('other', '', '', '', 0.0)||('opioid', 'noun', 'C0242402', ['hops', 'phsu'], 0.0)||('antagonists', 'noun', 'C0243076', ['chvf'], 0.0)||('with', '', '', '', 0.0)||('/', '', '', '', 0.0)||('without', '', '', '', 0.0)||('other', '', '', '', 0.0)||('biological', 'adj', 'C0005532', ['bmod'], 0.0)||('or', '', '', '', 0.0)||('psychosocial', 'adj', 'C0542298', ['ftcn'], 0.0)||('treatments', 'noun', 'C0087111', ['topp'], 0.0)||('were', '', '', '', 0.0)||('examined', 'verb', 'C0332128', ['fndg'], 0.0)||('.', '', '', '', 0.0)||
('a', '', '', '', 0.0)||('variety', 'noun', 'C1883525', ['cnce'], 0.0)||('of', '', '', '', 0.0)||('clinical', 'adj', 'C0205210', ['qlco'], 0.0)||('outcomes', 'noun', 'C0085415', ['qlco'], 0.0)||(',', '', '', '', 0.0)||('for', '', '', '', 0.0)||('example', 'noun', 'C1707959', ['cnce'], 0.0)||('alcohol consumption', 'noun', 'C0001948', ['inbe'], 0.0)||(',', '', '', '', 0.0)||('duration', 'noun', 'C0449238', ['tmco'], 0.0)||('of', '', '', '', 0.0)||('abstinence', '', '', '', 0.0)||(',', '', '', '', 0.0)||('were', '', '', '', 0.0)||('considered', '', '', '', 0.0)||('.', '', '', '', 0.0)||
('two', 'adj', 'C0205448', ['qnco'], 0.0)||('reviewers', '', '', '', 0.0)||('evaluated', 'verb', 'C0220825', ['ftcn'], 0.0)||('and', '', '', '', 0.0)||('extracted', 'verb', 'C0185115', ['topp'], 0.0)||('the', '', '', '', 0.0)||('data', 'noun', 'C1511726', ['idcn'], 0.0)||('independently', '', '', '', 0.0)||('.', '', '', '', 0.0)||
('the', '', '', '', 0.0)||('dichotomous', '', '', '', 0.0)||('data', 'noun', 'C1511726', ['idcn'], 0.0)||('were', '', '', '', 0.0)||('extracted', 'verb', 'C0185115', ['topp'], 0.0)||('on', '', '', '', 0.0)||('an', '', '', '', 0.0)||('intention', 'noun', 'C0162425', ['menp'], 0.0)||('-', '', '', '', 0.0)||('to', '', '', '', 0.0)||('-', '', '', '', 0.0)||('treat', 'verb', 'C1292734', ['ftcn'], 0.0)||('basis', 'noun', 'C1527178', ['ftcn'], 0.0)||('in', '', '', '', 0.0)||('which', '', '', '', 0.0)||('the', '', '', '', 0.0)||('dropouts', 'noun', 'C0013135', ['popg'], 0.0)||('were', '', '', '', 0.0)||('assigned', 'verb', 'C1516050', ['ftcn'], 0.0)||('as', '', '', '', 0.0)||('participants', '', '', '', 0.0)||('with', '', '', '', 0.0)||('the', '', '', '', 0.0)||('worst', 'noun', 'C1522166', ['qlco'], 0.0)||('outcomes', 'noun', 'C0085415', ['qlco'], 0.0)||('.', '', '', '', 0.0)||
('the', '', '', '', 0.0)||('peto odds ratio', '', '', '', 0.0)||('with', '', '', '', 0.0)||('the', '', '', '', 0.0)||('95 %', '', '', '', 0.0)||('confidence interval', 'noun', 'C0009667', ['qnco'], 0.0)||('was', '', '', '', 0.0)||('used', '', '', '', 0.0)||('to', '', '', '', 0.0)||('assess', 'verb', 'C1516048', ['acty'], 0.0)||('the', '', '', '', 0.0)||('dichotomous', '', '', '', 0.0)||('data', 'noun', 'C1511726', ['idcn'], 0.0)||('.', '', '', '', 0.0)||
('weighted', '', '', '', 0.0)||('mean difference', '', '', '', 0.0)||('with', '', '', '', 0.0)||('95 %', '', '', '', 0.0)||('confidence interval', 'noun', 'C0009667', ['qnco'], 0.0)||('was', '', '', '', 0.0)||('used', '', '', '', 0.0)||('to', '', '', '', 0.0)||('assess', 'verb', 'C1516048', ['acty'], 0.0)||('the', '', '', '', 0.0)||('continuous', 'adj', 'C0549178', ['idcn'], 0.0)||('data', 'noun', 'C1511726', ['idcn'], 0.0)||('.', '', '', '', 0.0)||
('the', '', '', '', 0.0)||('short - term', '', '', '', 0.0)||('(', '', '', '', 0.0)||('<', '', '', '', 0.0)||('3', '', '', '', 0.0)||('months', 'noun', 'C0439231', ['tmco'], 0.0)||(')', '', '', '', 0.0)||('benefits', 'verb', 'C0814225', ['qnco'], 0.0)||('of', '', '', '', 0.0)||('naltrexone', 'noun', 'C0027360', ['orch', 'phsu'], 0.0)||('were', '', '', '', 0.0)||('shown', '', '', '', 0.0)||('in', '', '', '', 0.0)||('three', '', 'C0205449', ['qnco'], 0.0)||('respects', '', '', '', 0.0)||(',', '', '', '', 0.0)||('which', '', '', '', 0.0)||('were', '', '', '', 0.0)||('number', 'noun', 'C0449788', ['qnco'], 0.0)||('of', '', '', '', 0.0)||('patients', 'noun', 'C0030705', ['podg'], 0.0)||('who', '', '', '', 0.0)||('return', 'verb', 'C0332156', ['qlco'], 0.0)||('to', '', '', '', 0.0)||('drinking', 'noun', 'C0001948', ['inbe'], 0.0)||(',', '', '', '', 0.0)||('percentage', 'noun', 'C0439165', ['qnco'], 0.0)||('or', '', '', '', 0.0)||('number', 'noun', 'C0449788', ['qnco'], 0.0)||('of', '', '', '', 0.0)||('drinking', 'adj', 'C0001948', ['inbe'], 0.0)||('days', 'noun', 'C0439228', ['tmco'], 0.0)||('and', '', '', '', 0.0)||('the', '', '', '', 0.0)||('number', 'noun', 'C0449788', ['qnco'], 0.0)||('of', '', '', '', 0.0)||('standard', 'adj', 'C1442989', ['ftcn'], 0.0)||('drinks', 'noun', 'C0452428', ['food'], 0.0)||('of', '', '', '', 0.0)||('alcohol', 'noun', 'C0001962', ['orch', 'phsu'], 0.0)||('.', '', '', '', 0.0)||
('however', '', '', '', 0.0)||(',', '', '', '', 0.0)||('6', '', '', '', 0.0)||('months', 'noun', 'C0439231', ['tmco'], 0.0)||('after', '', '', '', 0.0)||('the', '', '', '', 0.0)||('completion', 'noun', 'C0205197', ['qlco'], 0.0)||('of', '', '', '', 0.0)||('12', '', '', '', 0.0)||('-', '', '', '', 0.0)||('week', 'noun', 'C0439230', ['tmco'], 0.0)||('naltrexone', 'noun', 'C0027360', ['orch', 'phsu'], 0.0)||('treatment', 'noun', 'C0039798', ['ftcn'], 0.0)||(',', '', '', '', 0.0)||('the', '', '', '', 0.0)||('benefit', 'noun', 'C0814225', ['qnco'], 0.0)||('of', '', '', '', 0.0)||('decreasing', 'noun', 'C0442797', ['qlco'], 0.0)||('the', '', '', '', 0.0)||('number', 'noun', 'C0449788', ['qnco'], 0.0)||('of', '', '', '', 0.0)||('patients', 'noun', 'C0030705', ['podg'], 0.0)||('who', '', '', '', 0.0)||('return', 'verb', 'C0332156', ['qlco'], 0.0)||('to', '', '', '', 0.0)||('drinking', 'noun', 'C0001948', ['inbe'], 0.0)||('were', '', '', '', 0.0)||('lost', 'verb', 'C0745777', ['ftcn'], 0.0)||('.', '', '', '', 0.0)||
('the', '', '', '', 0.0)||('short - term', '', '', '', 0.0)||('evidence', 'noun', 'C0332120', ['ftcn'], 0.0)||('from', '', '', '', 0.0)||('a', '', '', '', 0.0)||('small', 'adj', 'C0700321', ['qnco'], 0.0)||('sample', 'noun', 'C0370003', ['sbst'], 0.0)||('-', '', '', '', 0.0)||('size', 'noun', 'C0456389', ['spco'], 0.0)||('study', 'noun', 'C0008976', ['resa'], 0.0)||('suggested', '', '', '', 0.0)||('that', '', '', '', 0.0)||('disulfiram', 'noun', 'C0012772', ['orch', 'phsu'], 0.0)||('was', '', '', '', 0.0)||('more', '', '', '', 0.0)||('effective', 'adj', 'C1704419', ['qlco'], 0.0)||('than', '', '', '', 0.0)||('naltrexone', 'noun', 'C0027360', ['orch', 'phsu'], 0.0)||('in', '', '', '', 0.0)||('the', '', '', '', 0.0)||('respects', '', '', '', 0.0)||('of', '', '', '', 0.0)||('number', 'noun', 'C0449788', ['qnco'], 0.0)||('of', '', '', '', 0.0)||('abstinent', 'adj', 'C0457801', ['inbe'], 0.0)||('days', 'noun', 'C0439228', ['tmco'], 0.0)||(',', '', '', '', 0.0)||('percentage', 'noun', 'C0439165', ['qnco'], 0.0)||('or', '', '', '', 0.0)||('number', 'noun', 'C0449788', ['qnco'], 0.0)||('of', '', '', '', 0.0)||('drinking', 'adj', 'C0001948', ['inbe'], 0.0)||('days', 'noun', 'C0439228', ['tmco'], 0.0)||('and', '', '', '', 0.0)||('number', 'noun', 'C0449788', ['qnco'], 0.0)||('of', '', '', '', 0.0)||('standard', 'adj', 'C1442989', ['ftcn'], 0.0)||('drinks', 'noun', 'C0452428', ['food'], 0.0)||('of', '', '', '', 0.0)||('alcohol', 'noun', 'C0001962', ['orch', 'phsu'], 0.0)||('.', '', '', '', 0.0)||
('the', '', '', '', 0.0)||('evidence', 'noun', 'C0332120', ['ftcn'], 0.0)||('from', '', '', '', 0.0)||('another', '', '', '', 0.0)||('small', 'adj', 'C0700321', ['qnco'], 0.0)||('sample', 'noun', 'C0370003', ['sbst'], 0.0)||('-', '', '', '', 0.0)||('size', 'noun', 'C0456389', ['spco'], 0.0)||('study', 'verb', 'C0008976', ['resa'], 0.0)||('also', '', '', '', 0.0)||('suggested', '', '', '', 0.0)||('that', '', '', '', 0.0)||('naltrexone', 'noun', 'C0027360', ['orch', 'phsu'], 0.0)||('plus', '', '', '', 0.0)||('an', '', '', '', 0.0)||('aversive', '', '', '', 0.0)||('agent', 'noun', 'C0450442', ['chvf'], 0.0)||('was', '', '', '', 0.0)||('superior', 'adj', 'C1282910', ['spco'], 0.0)||('to', '', '', '', 0.0)||('an', '', '', '', 0.0)||('aversive', '', '', '', 0.0)||('agent', 'noun', 'C0450442', ['chvf'], 0.0)||('alone', 'adj', 'C0439044', ['fndg'], 0.0)||('in', '', '', '', 0.0)||('the', '', '', '', 0.0)||('respect', 'noun', 'C0679133', ['socb'], 0.0)||('of', '', '', '', 0.0)||('number', 'noun', 'C0449788', ['qnco'], 0.0)||('of', '', '', '', 0.0)||('patients', 'noun', 'C0030705', ['podg'], 0.0)||('who', '', '', '', 0.0)||('return', 'verb', 'C0332156', ['qlco'], 0.0)||('to', '', '', '', 0.0)||('drinking', 'noun', 'C0001948', ['inbe'], 0.0)||('in', '', '', '', 0.0)||('short', 'adj', 'C1806781', ['qnco'], 0.0)||('-', '', '', '', 0.0)||(',', '', '', '', 0.0)||('medium', 'noun', 'C0009458', ['inpr'], 0.0)||('-', '', '', '', 0.0)||(',', '', '', '', 0.0)||('and', '', '', '', 0.0)||('long - term', '', '', '', 0.0)||('treatment', 'noun', 'C0039798', ['ftcn'], 0.0)||('.', '', '', '', 0.0)||
('from', '', '', '', 0.0)||('two', 'adj', 'C0205448', ['qnco'], 0.0)||('short - term', '', '', '', 0.0)||('and', '', '', '', 0.0)||('small', 'adj', 'C0700321', ['qnco'], 0.0)||('sample', 'noun', 'C0370003', ['sbst'], 0.0)||('-', '', '', '', 0.0)||('size', 'noun', 'C0456389', ['spco'], 0.0)||('studies', '', '', '', 0.0)||(',', '', '', '', 0.0)||('the', '', '', '', 0.0)||('benefit', 'noun', 'C0814225', ['qnco'], 0.0)||('of', '', '', '', 0.0)||('nalmefene', 'noun', 'C0068377', ['orch', 'phsu'], 0.0)||('was', '', '', '', 0.0)||('shown', '', '', '', 0.0)||('only', '', '', '', 0.0)||('in', '', '', '', 0.0)||('the', '', '', '', 0.0)||('respect', 'noun', 'C0679133', ['socb'], 0.0)||('of', '', '', '', 0.0)||('number', 'noun', 'C0449788', ['qnco'], 0.0)||('of', '', '', '', 0.0)||('patients', 'noun', 'C0030705', ['podg'], 0.0)||('who', '', '', '', 0.0)||('return', 'verb', 'C0332156', ['qlco'], 0.0)||('to', '', '', '', 0.0)||('drinking', 'noun', 'C0001948', ['inbe'], 0.0)||('.', '', '', '', 0.0)||
('due to', '', '', '', 0.0)||('the', '', '', '', 0.0)||('limited', 'adj', 'C0439801', ['ftcn'], 0.0)||('evidence', 'noun', 'C0332120', ['ftcn'], 0.0)||(',', '', '', '', 0.0)||('the', '', '', '', 0.0)||('following', '', '', '', 0.0)||('conclusions', 'noun', 'C1707478', ['idcn'], 0.0)||('should', '', '', '', 0.0)||('be', '', '', '', 0.0)||('viewed', '', '', '', 0.0)||('as', '', '', '', 0.0)||('tentative', '', '', '', 0.0)||('.', '', '', '', 0.0)||
('naltrexone', 'noun', 'C0027360', ['orch', 'phsu'], 0.0)||('has', '', '', '', 0.0)||('some', '', '', '', 0.0)||('benefits', 'noun', 'C0814225', ['qnco'], 0.0)||('for', '', '', '', 0.0)||('patients', 'noun', 'C0030705', ['podg'], 0.0)||('with', '', '', '', 0.0)||('alcohol', 'noun', 'C0001962', ['orch', 'phsu'], 0.0)||('dependence', 'noun', 'C0011546', ['menp'], 0.0)||(',', '', '', '', 0.0)||('but', '', '', '', 0.0)||('patients', 'noun', 'C0030705', ['podg'], 0.0)||("'", '', '', '', 0.0)||('adherence', 'noun', 'C1510802', ['ftcn'], 0.0)||('to', '', '', '', 0.0)||('treatment', 'noun', 'C0039798', ['ftcn'], 0.0)||('should', '', '', '', 0.0)||('be', '', '', '', 0.0)||('of', '', '', '', 0.0)||('concern', 'noun', 'C2699424', ['idcn'], 0.0)||('.', '', '', '', 0.0)||
('psychosocial', 'adj', 'C0542298', ['ftcn'], 0.0)||('treatments', 'noun', 'C0087111', ['topp'], 0.0)||('should', '', '', '', 0.0)||('be', '', '', '', 0.0)||('concurrently', '', '', '', 0.0)||('given', '', '', '', 0.0)||('with', '', '', '', 0.0)||('naltrexone', 'noun', 'C0027360', ['orch', 'phsu'], 0.0)||('.', '', '', '', 0.0)||
('the', '', '', '', 0.0)||('optimal', 'adj', 'C2698651', ['qlco'], 0.0)||('duration', 'noun', 'C0449238', ['tmco'], 0.0)||('of', '', '', '', 0.0)||('naltrexone', 'noun', 'C0027360', ['orch', 'phsu'], 0.0)||('treatment', 'noun', 'C0039798', ['ftcn'], 0.0)||('is', '', '', '', 0.0)||('not', 'adv', 'C1518422', ['ftcn'], 0.0)||('yet', '', '', '', 0.0)||('known', 'verb', 'C0205309', ['qlco'], 0.0)||('.', '', '', '', 0.0)||
('although', '', '', '', 0.0)||('naltrexone', 'noun', 'C0027360', ['orch', 'phsu'], 0.0)||('is', '', '', '', 0.0)||('available', 'adj', 'C0470187', ['ftcn'], 0.0)||('for', '', '', '', 0.0)||('treating', 'adj', 'C1522326', ['ftcn'], 0.0)||('alcohol', 'noun', 'C0001962', ['orch', 'phsu'], 0.0)||('dependence', 'noun', 'C0011546', ['menp'], 0.0)||('in', '', '', '', 0.0)||('many', '', '', '', 0.0)||('countries', 'noun', 'C0454664', ['geoa'], 0.0)||(',', '', '', '', 0.0)||('in', '', '', '', 0.0)||('the', '', '', '', 0.0)||('respect', 'noun', 'C0679133', ['socb'], 0.0)||('of', '', '', '', 0.0)||('cost - effectiveness', '', '', '', 0.0)||(',', '', '', '', 0.0)||('disulfiram', 'noun', 'C0012772', ['orch', 'phsu'], 0.0)||('should', '', '', '', 0.0)||('still', '', '', '', 0.0)||('remain', '', '', '', 0.0)||('as', '', '', '', 0.0)||('an', '', '', '', 0.0)||('alternative', 'noun', 'C1523987', ['cnce'], 0.0)||('.', '', '', '', 0.0)||
('due to', '', '', '', 0.0)||('the', '', '', '', 0.0)||('dearth', '', '', '', 0.0)||('of', '', '', '', 0.0)||('evidence', 'noun', 'C0332120', ['ftcn'], 0.0)||(',', '', '', '', 0.0)||('at', '', '', '', 0.0)||('present', 'noun', 'C0150312', ['qnco'], 0.0)||(',', '', '', '', 0.0)||('the', '', '', '', 0.0)||('combination', 'noun', 'C0205195', ['qlco'], 0.0)||('of', '', '', '', 0.0)||('naltrexone', 'noun', 'C0027360', ['orch', 'phsu'], 0.0)||('and', '', '', '', 0.0)||('disulfiram', 'noun', 'C0012772', ['orch', 'phsu'], 0.0)||('or', '', '', '', 0.0)||('nalmefene', 'adj', 'C0068377', ['orch', 'phsu'], 0.0)||('alone', 'adj', 'C0439044', ['fndg'], 0.0)||('should', '', '', '', 0.0)||('not', 'adv', 'C1518422', ['ftcn'], 0.0)||('be', '', '', '', 0.0)||('used', '', '', '', 0.0)||('in', '', '', '', 0.0)||('everyday', 'adj', 'C0332173', ['tmco'], 0.0)||('clinical', 'adj', 'C0205210', ['qlco'], 0.0)||('practice', 'noun', 'C0237607', ['menp'], 0.0)||('.', '', '', '', 0.0)||
('randomised', '', '', '', 0.0)||(',', '', '', '', 0.0)||('double - blind', '', '', '', 0.0)||(',', '', '', '', 0.0)||('placebo - controlled', '', '', '', 0.0)||('trials', '', '', '', 0.0)||('of', '', '', '', 0.0)||('naltrexone', 'noun', 'C0027360', ['orch', 'phsu'], 0.0)||('treatment', 'noun', 'C0039798', ['ftcn'], 0.0)||('in', '', '', '', 0.0)||('patients', 'noun', 'C0030705', ['podg'], 0.0)||('with', '', '', '', 0.0)||('alcohol', 'noun', 'C0001962', ['orch', 'phsu'], 0.0)||('dependence', 'noun', 'C0011546', ['menp'], 0.0)||
