('naltrexone', 'noun', 'C0027360', ['orch', 'phsu'], 0.0)||('(', '', '', '', 0.0)||('revia', 'noun', 'C0591842', ['orch', 'phsu'], 0.0)||(')', '', '', '', 0.0)||('and', '', '', '', 0.0)||('nalmefene', 'noun', 'C0068377', ['orch', 'phsu'], 0.0)||('(', '', '', '', 0.0)||('revex', 'noun', 'C0723050', ['orch', 'phsu'], 0.0)||(')', '', '', '', 0.0)||('are', '', '', '', 0.0)||('the', '', '', '', 0.0)||('most', '', '', '', 0.0)||('effective', 'adj', 'C1704419', ['qlco'], 0.0)||('agents', '', '', '', 0.0)||('for', '', '', '', 0.0)||('treating', 'adj', 'C1522326', ['ftcn'], 0.0)||('alcoholism', 'noun', 'C0001973', ['mobd'], 0.0)||('.', '', '', '', 0.0)||
('acamprosate', 'noun', 'C0284941', ['orch', 'phsu'], 0.0)||('is', '', '', '', 0.0)||('effective', 'adj', 'C1704419', ['qlco'], 0.0)||('but', '', '', '', 0.0)||('not', 'adv', 'C1518422', ['ftcn'], 0.0)||('available', 'adj', 'C0470187', ['ftcn'], 0.0)||('in', '', '', '', 0.0)||('the', '', '', '', 0.0)||('united states', 'noun', 'C0041703', ['geoa'], 0.0)||('.', '', '', '', 0.0)||
('serotonergic', '', '', '', 0.0)||('agents', '', '', '', 0.0)||(',', '', '', '', 0.0)||('selective serotonin reuptake inhibitors', 'noun', 'C0162758', ['phsu'], 0.0)||(',', '', '', '', 0.0)||('and', '', '', '', 0.0)||('lithium', 'noun', 'C0023870', ['elii', 'phsu'], 0.0)||('work', 'verb', 'C0043227', ['ocac'], 0.0)||('best', 'adj', 'C1522427', ['qlco'], 0.0)||('in', '', '', '', 0.0)||('patients', 'noun', 'C0030705', ['podg'], 0.0)||('with', '', '', '', 0.0)||('alcoholism', 'noun', 'C0001973', ['mobd'], 0.0)||('and', '', '', '', 0.0)||('comorbid', '', '', '', 0.0)||('depression', 'noun', 'C0011570', ['mobd'], 0.0)||(',', '', '', '', 0.0)||('anxiety', 'noun', 'C0003467', ['menp'], 0.0)||(',', '', '', '', 0.0)||('or', '', '', '', 0.0)||('bipolar disorder', 'noun', 'C0005586', ['mobd'], 0.0)||('.', '', '', '', 0.0)||
('disulfiram', 'noun', 'C0012772', ['orch', 'phsu'], 0.0)||('(', '', '', '', 0.0)||('antabuse', 'noun', 'C0591096', ['orch', 'phsu'], 0.0)||(')', '', '', '', 0.0)||('decreases', '', '', '', 0.0)||('drink', 'verb', 'C0452428', ['food'], 0.0)||('frequency', 'noun', 'C0376249', ['qnco'], 0.0)||(',', '', '', '', 0.0)||('but', '', '', '', 0.0)||('is', '', '', '', 0.0)||('no', '', '', '', 0.0)||('better', 'adj', 'C0332272', ['qlco'], 0.0)||('than', '', '', '', 0.0)||('placebo', 'noun', 'C0032042', ['topp'], 0.0)||('for', '', '', '', 0.0)||('other', '', '', '', 0.0)||('outcomes', 'noun', 'C0085415', ['qlco'], 0.0)||('.', '', '', '', 0.0)||
('greater', 'adj', 'C1704243', ['qnco'], 0.0)||('effectiveness', 'noun', 'C1280519', ['qlco'], 0.0)||('is', '', '', '', 0.0)||('achieved', '', '', '', 0.0)||('when', '', '', '', 0.0)||('pharmacologic', 'adj', 'C0031330', ['bmod'], 0.0)||('agents', '', '', '', 0.0)||('are', '', '', '', 0.0)||('combined', 'verb', 'C0205195', ['qlco'], 0.0)||('with', '', '', '', 0.0)||('either', '', '', '', 0.0)||('counseling', 'noun', 'C0010210', ['hlca'], 0.0)||('or', '', '', '', 0.0)||('alcoholics anonymous', 'noun', 'C0001972', ['shro'], 0.0)||('programs', 'noun', 'C0376691', ['inpr'], 0.0)||('.', '', '', '', 0.0)||
