('the', '', '', '', 0.0)||('utility', '', '', '', 0.0)||('of', '', '', '', 0.0)||('tests', 'noun', 'C0022885', ['lbpr'], 0.0)||('for', '', '', '', 0.0)||('fecal', '', '', '', 0.0)||('neutrophils', 'noun', 'C0027950', ['cell'], 0.0)||('in', '', '', '', 0.0)||('the', '', '', '', 0.0)||('setting', 'noun', 'C0542559', ['ftcn'], 0.0)||('of', '', '', '', 0.0)||('chronic', 'adj', 'C0205191', ['tmco'], 0.0)||('diarrhea', 'noun', 'C1963091', ['fndg'], 0.0)||('has', '', '', '', 0.0)||('not', 'adv', 'C1518422', ['ftcn'], 0.0)||('been', '', '', '', 0.0)||('established', 'verb', 'C0443211', ['qlco'], 0.0)||('.', '', '', '', 0.0)||
('the', '', '', '', 0.0)||('purpose', 'noun', 'C1285529', ['ftcn'], 0.0)||('of', '', '', '', 0.0)||('this', '', '', '', 0.0)||('study', 'noun', 'C0008976', ['resa'], 0.0)||('was', '', '', '', 0.0)||('to', '', '', '', 0.0)||('determine', '', '', '', 0.0)||('the', '', '', '', 0.0)||('causes', 'noun', 'C0015127', ['ftcn'], 0.0)||('of', '', '', '', 0.0)||('chronic', 'adj', 'C0205191', ['tmco'], 0.0)||('diarrhea', 'noun', 'C1963091', ['fndg'], 0.0)||('associated', 'verb', 'C0332281', ['qlco'], 0.0)||('with', '', '', '', 0.0)||('fecal', '', '', '', 0.0)||('neutrophils', 'noun', 'C0027950', ['cell'], 0.0)||('.', '', '', '', 0.0)||
('one', 'noun', 'C0205447', ['qnco'], 0.0)||('fecal', '', '', '', 0.0)||('specimen', 'noun', 'C0370003', ['sbst'], 0.0)||('from', '', '', '', 0.0)||('each', '', '', '', 0.0)||('of', '', '', '', 0.0)||('10', '', '', '', 0.0)||('normal subjects', '', '', '', 0.0)||(',', '', '', '', 0.0)||('26', '', '', '', 0.0)||('patients', 'noun', 'C0030705', ['podg'], 0.0)||('with', '', '', '', 0.0)||('known', 'adj', 'C0205309', ['qlco'], 0.0)||('microscopic', 'adj', 'C0205288', ['qlco'], 0.0)||('colitis', 'noun', 'C0009319', ['dsyn'], 0.0)||(',', '', '', '', 0.0)||('13', '', '', '', 0.0)||('with', '', '', '', 0.0)||('celiac sprue', '', '', '', 0.0)||(',', '', '', '', 0.0)||('eight', '', 'C0205454', ['qnco'], 0.0)||('with', '', '', '', 0.0)||("crohn ' s disease", '', '', '', 0.0)||(',', '', '', '', 0.0)||('four', '', 'C0205450', ['qnco'], 0.0)||('with', '', '', '', 0.0)||('ulcerative colitis', 'noun', 'C0009324', ['dsyn'], 0.0)||(',', '', '', '', 0.0)||('and', '', '', '', 0.0)||('103', '', '', '', 0.0)||('with', '', '', '', 0.0)||('chronic', 'adj', 'C0205191', ['tmco'], 0.0)||('diarrhea', 'noun', 'C1963091', ['fndg'], 0.0)||('of', '', '', '', 0.0)||('unknown', 'adj', 'C0439673', ['idcn'], 0.0)||('origin', 'noun', 'C0439659', ['tmco'], 0.0)||(',', '', '', '', 0.0)||('as well as', '', '', '', 0.0)||('10', '', '', '', 0.0)||('fecal', '', '', '', 0.0)||('specimens', '', '', '', 0.0)||('from', '', '', '', 0.0)||('a', '', '', '', 0.0)||('patient', '', '', '', 0.0)||('with', '', '', '', 0.0)||('chronic', 'adj', 'C0205191', ['tmco'], 0.0)||('nongranulomatous', '', '', '', 0.0)||('enterocolitis', 'noun', 'C0014356', ['dsyn'], 0.0)||('were', '', '', '', 0.0)||('analyzed', 'verb', 'C0936012', ['resa'], 0.0)||('blindly', '', '', '', 0.0)||('for', '', '', '', 0.0)||('the', '', '', '', 0.0)||('presence', 'noun', 'C0392148', ['topp'], 0.0)||('of', '', '', '', 0.0)||('a', '', '', '', 0.0)||('neutrophil', '', '', '', 0.0)||('granule', 'noun', 'C0010837', ['celc'], 0.0)||('protein', 'noun', 'C0033684', ['aapp', 'bacs'], 0.0)||('called', '', '', '', 0.0)||('lactoferrin', 'noun', 'C0022942', ['aapp', 'bacs'], 0.0)||('using', 'verb', 'C1524063', ['ftcn'], 0.0)||('a', '', '', '', 0.0)||('commercial', 'adj', 'C0680536', ['inpr'], 0.0)||('latex agglutination', 'noun', 'C0023117', ['lbpr'], 0.0)||('kit', 'noun', 'C0812225', ['medd'], 0.0)||('.', '', '', '', 0.0)||
('diagnostic', 'adj', 'C0011900', ['fndg'], 0.0)||('evaluation', 'noun', 'C0220825', ['ftcn'], 0.0)||('of', '', '', '', 0.0)||('the', '', '', '', 0.0)||('103', '', '', '', 0.0)||('patients', 'noun', 'C0030705', ['podg'], 0.0)||('with', '', '', '', 0.0)||('chronic', 'adj', 'C0205191', ['tmco'], 0.0)||('diarrhea', 'noun', 'C1963091', ['fndg'], 0.0)||('was', '', '', '', 0.0)||('carried', '', '', '', 0.0)||('out', '', '', '', 0.0)||('to', '', '', '', 0.0)||('determine', '', '', '', 0.0)||('the', '', '', '', 0.0)||('diagnostic', 'adj', 'C0011900', ['fndg'], 0.0)||('accuracy', 'noun', 'C0443131', ['qlco'], 0.0)||('of', '', '', '', 0.0)||('this', '', '', '', 0.0)||('test', 'noun', 'C0022885', ['lbpr'], 0.0)||('for', '', '', '', 0.0)||('chronic', 'adj', 'C0205191', ['tmco'], 0.0)||('inflammatory bowel disease', 'noun', 'C0021390', ['dsyn'], 0.0)||('.', '', '', '', 0.0)||
('none', 'noun', 'C0549184', ['qnco'], 0.0)||('of', '', '', '', 0.0)||('the', '', '', '', 0.0)||('normal control subjects', '', '', '', 0.0)||(',', '', '', '', 0.0)||('three', '', 'C0205449', ['qnco'], 0.0)||('of', '', '', '', 0.0)||('39', '', '', '', 0.0)||('patients', 'noun', 'C0030705', ['podg'], 0.0)||('with', '', '', '', 0.0)||('microscopic', 'adj', 'C0205288', ['qlco'], 0.0)||('colitis', 'noun', 'C0009319', ['dsyn'], 0.0)||('or', '', '', '', 0.0)||('celiac sprue', '', '', '', 0.0)||(',', '', '', '', 0.0)||('all', '', '', '', 0.0)||('10', '', '', '', 0.0)||('specimens', '', '', '', 0.0)||('from', '', '', '', 0.0)||('the', '', '', '', 0.0)||('patient', '', '', '', 0.0)||('with', '', '', '', 0.0)||('enterocolitis', 'noun', 'C0014356', ['dsyn'], 0.0)||(',', '', '', '', 0.0)||('and', '', '', '', 0.0)||('all', '', '', '', 0.0)||('12', '', '', '', 0.0)||('control patients', '', '', '', 0.0)||('with', '', '', '', 0.0)||('ulcerative colitis', 'noun', 'C0009324', ['dsyn'], 0.0)||('or', '', '', '', 0.0)||("crohn ' s disease", '', '', '', 0.0)||('had', '', '', '', 0.0)||('a', '', '', '', 0.0)||('positive', 'adj', 'C1446409', ['qlco'], 0.0)||('fecal', '', '', '', 0.0)||('lactoferrin', 'noun', 'C0022942', ['aapp', 'bacs'], 0.0)||('test', 'noun', 'C0022885', ['lbpr'], 0.0)||('.', '', '', '', 0.0)||
('eleven', '', 'C0205457', ['inpr', 'qnco'], 0.0)||('of', '', '', '', 0.0)||('103', '', '', '', 0.0)||('patients', 'noun', 'C0030705', ['podg'], 0.0)||('with', '', '', '', 0.0)||('chronic', 'adj', 'C0205191', ['tmco'], 0.0)||('diarrhea', 'noun', 'C1963091', ['fndg'], 0.0)||('presenting', 'noun', 'C0449450', ['idcn'], 0.0)||('without', '', '', '', 0.0)||('a', '', '', '', 0.0)||('diagnosis', 'noun', 'C0011900', ['fndg'], 0.0)||('had', '', '', '', 0.0)||('a', '', '', '', 0.0)||('positive', 'adj', 'C1446409', ['qlco'], 0.0)||('test', 'noun', 'C0022885', ['lbpr'], 0.0)||(',', '', '', '', 0.0)||('and', '', '', '', 0.0)||('all', '', '', '', 0.0)||('were', '', '', '', 0.0)||('diagnosed', 'verb', 'C0011900', ['fndg'], 0.0)||('with', '', '', '', 0.0)||('an', '', '', '', 0.0)||('inflammatory', 'adj', 'C0333348', ['ftcn'], 0.0)||('condition', 'noun', 'C0348080', ['qlco'], 0.0)||('of', '', '', '', 0.0)||('the', '', '', '', 0.0)||('colon', 'noun', 'C0009368', ['bpoc'], 0.0)||('(', '', '', '', 0.0)||('five', '', 'C0205451', ['qnco'], 0.0)||('-', '', '', '', 0.0)||(',', '', '', '', 0.0)||('ulcerative colitis', 'noun', 'C0009324', ['dsyn'], 0.0)||(';', '', '', '', 0.0)||('four', '', 'C0205450', ['qnco'], 0.0)||('-', '', '', '', 0.0)||(',', '', '', '', 0.0)||("crohn ' s disease", '', '', '', 0.0)||(';', '', '', '', 0.0)||('one', 'noun', 'C0205447', ['qnco'], 0.0)||('-', '', '', '', 0.0)||(',', '', '', '', 0.0)||('ischemic colitis', '', '', '', 0.0)||(';', '', '', '', 0.0)||('and', '', '', '', 0.0)||('one', 'noun', 'C0205447', ['qnco'], 0.0)||('-', '', '', '', 0.0)||(',', '', '', '', 0.0)||('microscopic', 'adj', 'C0205288', ['qlco'], 0.0)||('colitis', 'noun', 'C0009319', ['dsyn'], 0.0)||(')', '', '', '', 0.0)||('.', '', '', '', 0.0)||
('only', '', '', '', 0.0)||('one', 'noun', 'C0205447', ['qnco'], 0.0)||('patient', '', '', '', 0.0)||('with', '', '', '', 0.0)||('inflammatory bowel disease', 'noun', 'C0021390', ['dsyn'], 0.0)||('had', '', '', '', 0.0)||('a', '', '', '', 0.0)||('negative', 'adj', 'C0205160', ['qlco'], 0.0)||('lactoferrin', 'noun', 'C0022942', ['aapp', 'bacs'], 0.0)||('test', 'noun', 'C0022885', ['lbpr'], 0.0)||('.', '', '', '', 0.0)||
('the', '', '', '', 0.0)||('sensitivity', 'noun', 'C0036667', ['qnco'], 0.0)||(',', '', '', '', 0.0)||('specificity', 'noun', 'C0037791', ['qnco'], 0.0)||(',', '', '', '', 0.0)||('and', '', '', '', 0.0)||('positive', 'noun', 'C1446409', ['qlco'], 0.0)||('and', '', '', '', 0.0)||('negative predictive values', '', '', '', 0.0)||('of', '', '', '', 0.0)||('the', '', '', '', 0.0)||('fecal', '', '', '', 0.0)||('lactoferrin', 'noun', 'C0022942', ['aapp', 'bacs'], 0.0)||('test', 'noun', 'C0022885', ['lbpr'], 0.0)||('for', '', '', '', 0.0)||('ulcerative', 'adj', 'C0041582', ['patf'], 0.0)||('or', '', '', '', 0.0)||('crohn', '', '', '', 0.0)||("' s", '', '', '', 0.0)||('colitis', 'noun', 'C0009319', ['dsyn'], 0.0)||('were', '', '', '', 0.0)||('90 %', '', '', '', 0.0)||(',', '', '', '', 0.0)||('98 %', '', '', '', 0.0)||(',', '', '', '', 0.0)||('82 %', '', '', '', 0.0)||(',', '', '', '', 0.0)||('and', '', '', '', 0.0)||('99 %', '', '', '', 0.0)||(',', '', '', '', 0.0)||('respectively', '', '', '', 0.0)||('.', '', '', '', 0.0)||
('the', '', '', '', 0.0)||('major cause', '', '', '', 0.0)||('of', '', '', '', 0.0)||('fecal', '', '', '', 0.0)||('neutrophils', 'noun', 'C0027950', ['cell'], 0.0)||('in', '', '', '', 0.0)||('patients', 'noun', 'C0030705', ['podg'], 0.0)||('with', '', '', '', 0.0)||('chronic', 'adj', 'C0205191', ['tmco'], 0.0)||('diarrhea', 'noun', 'C1963091', ['fndg'], 0.0)||('is', '', '', '', 0.0)||('chronic', 'adj', 'C0205191', ['tmco'], 0.0)||('inflammatory bowel disease', 'noun', 'C0021390', ['dsyn'], 0.0)||('of', '', '', '', 0.0)||('the', '', '', '', 0.0)||('colon', 'noun', 'C0009368', ['bpoc'], 0.0)||('.', '', '', '', 0.0)||
('the', '', '', '', 0.0)||('latex agglutination test', '', '', '', 0.0)||('for', '', '', '', 0.0)||('fecal', '', '', '', 0.0)||('lactoferrin', 'noun', 'C0022942', ['aapp', 'bacs'], 0.0)||('offers', '', '', '', 0.0)||('a', '', '', '', 0.0)||('highly', 'adv', 'C0205250', ['qlco'], 0.0)||('sensitive', 'adj', 'C0332324', ['ftcn'], 0.0)||(',', '', '', '', 0.0)||('specific', 'adj', 'C0205369', ['qlco'], 0.0)||(',', '', '', '', 0.0)||('and', '', '', '', 0.0)||('simple', 'adj', 'C0205352', ['qlco'], 0.0)||('means', 'noun', 'C1704970', ['cnce'], 0.0)||('for', '', '', '', 0.0)||('detection', 'noun', 'C1511790', ['topp'], 0.0)||('of', '', '', '', 0.0)||('fecal', '', '', '', 0.0)||('neutrophils', 'noun', 'C0027950', ['cell'], 0.0)||('in', '', '', '', 0.0)||('these', '', '', '', 0.0)||('patients', 'noun', 'C0030705', ['podg'], 0.0)||('.', '', '', '', 0.0)||
