('patients', 'noun', 'C0030705', ['podg'], 0.0)||('with', '', '', '', 0.0)||('a', '', '', '', 0.0)||('bmi', 'noun', 'C1305855', ['clna'], 0.0)||('>', '', '', '', 0.0)||('40', '', '', '', 0.0)||('have', '', '', '', 0.0)||('substantially', '', '', '', 0.0)||('more', '', '', '', 0.0)||('serious', 'adj', 'C0205404', ['qlco'], 0.0)||('health', 'noun', 'C0018684', ['idcn'], 0.0)||('consequences', '', '', '', 0.0)||('and', '', '', '', 0.0)||('a', '', '', '', 0.0)||('reduced', 'adj', 'C0392756', ['qlco'], 0.0)||('life expectancy', 'noun', 'C0023671', ['grpa'], 0.0)||('.', '', '', '', 0.0)||
('obesity', 'noun', 'C0028754', ['dsyn'], 0.0)||('significantly', '', '', '', 0.0)||('impairs', '', '', '', 0.0)||('quality', 'noun', 'C0332306', ['qlco'], 0.0)||('of', '', '', '', 0.0)||('life', 'noun', 'C0376558', ['idcn'], 0.0)||(',', '', '', '', 0.0)||('and', '', '', '', 0.0)||('the', '', '', '', 0.0)||('risk', 'noun', 'C0035647', ['qlco'], 0.0)||('of', '', '', '', 0.0)||('morbidity', 'noun', 'C0026538', ['qnco'], 0.0)||('and', '', '', '', 0.0)||('mortality', 'noun', 'C0026565', ['qnco'], 0.0)||('increases', '', '', '', 0.0)||('with', '', '', '', 0.0)||('the', '', '', '', 0.0)||('degree', 'noun', 'C0441889', ['qlco'], 0.0)||('of', '', '', '', 0.0)||('obesity', 'noun', 'C0028754', ['dsyn'], 0.0)||('.', '', '', '', 0.0)||
('those', '', '', '', 0.0)||('who', '', '', '', 0.0)||('are', '', '', '', 0.0)||('extremely', '', '', '', 0.0)||('obese', 'adj', 'C0028754', ['dsyn'], 0.0)||('often', 'adv', 'C0332183', ['tmco'], 0.0)||('do', '', '', '', 0.0)||('not', 'adv', 'C1518422', ['ftcn'], 0.0)||('have', '', '', '', 0.0)||('sustained', 'adj', 'C0443318', ['ftcn'], 0.0)||('benefit', 'noun', 'C0814225', ['qnco'], 0.0)||('from', '', '', '', 0.0)||('more', '', '', '', 0.0)||('conservative treatment', '', '', '', 0.0)||('.', '', '', '', 0.0)||
('the', '', '', '', 0.0)||('benefits', 'noun', 'C0814225', ['qnco'], 0.0)||('of', '', '', '', 0.0)||('nonsurgical', '', '', '', 0.0)||('treatment', 'noun', 'C0039798', ['ftcn'], 0.0)||('are', '', '', '', 0.0)||('significantly', '', '', '', 0.0)||('limited', 'verb', 'C0439801', ['ftcn'], 0.0)||('by', '', '', '', 0.0)||('the', '', '', '', 0.0)||('failure', 'noun', 'C0231174', ['ftcn'], 0.0)||('to', '', '', '', 0.0)||('maintain', 'verb', 'C0024501', ['acty'], 0.0)||('reduced', 'adj', 'C0392756', ['qlco'], 0.0)||('body weight', 'noun', 'C0005910', ['orga'], 0.0)||('.', '', '', '', 0.0)||
('the', '', '', '', 0.0)||('nih', 'noun', 'C0027468', ['hcro'], 0.0)||('statement', 'noun', 'C1710187', ['idcn'], 0.0)||('"', '', '', '', 0.0)||('gastrointestinal', 'adj', 'C0521362', ['spco'], 0.0)||('surgery', 'noun', 'C0038894', ['bmod'], 0.0)||('for', '', '', '', 0.0)||('severe', 'adj', 'C0205082', ['qlco'], 0.0)||('obesity', 'noun', 'C0028754', ['dsyn'], 0.0)||('"', '', '', '', 0.0)||('concluded', '', '', '', 0.0)||('that', '', '', '', 0.0)||('the', '', '', '', 0.0)||('benefits', 'noun', 'C0814225', ['qnco'], 0.0)||('outweigh', '', '', '', 0.0)||('the', '', '', '', 0.0)||('risks', 'noun', 'C0035647', ['qlco'], 0.0)||('and', '', '', '', 0.0)||('that', '', '', '', 0.0)||('surgical treatment', 'noun', 'C0543467', ['topp'], 0.0)||('is', '', '', '', 0.0)||('reasonable', '', '', '', 0.0)||('in', '', '', '', 0.0)||('those', '', '', '', 0.0)||('who', '', '', '', 0.0)||('strongly', '', '', '', 0.0)||('desire', 'verb', 'C0871633', ['menp'], 0.0)||('substantial', '', '', '', 0.0)||('weight loss', '', '', '', 0.0)||('and', '', '', '', 0.0)||('have', '', '', '', 0.0)||('life - threatening', '', '', '', 0.0)||('comorbid', '', '', '', 0.0)||('conditions', '', '', '', 0.0)||('.', '', '', '', 0.0)||
