('previous', 'adj', 'C0205156', ['tmco'], 0.0)||('studies', '', '', '', 0.0)||('have', '', '', '', 0.0)||('shown', '', '', '', 0.0)||('that', '', '', '', 0.0)||('the', '', '', '', 0.0)||('application', 'noun', 'C0185125', ['hlca'], 0.0)||('of', '', '', '', 0.0)||('the', '', '', '', 0.0)||('ottawa knee rule', '', '', '', 0.0)||('reduces', '', '', '', 0.0)||('the', '', '', '', 0.0)||('need', 'noun', 'C0027552', ['qlco'], 0.0)||('for', '', '', '', 0.0)||('radiographs', '', '', '', 0.0)||('in', '', '', '', 0.0)||('adults', 'noun', 'C0001675', ['aggp'], 0.0)||('with', '', '', '', 0.0)||('acute', 'adj', 'C0205178', ['tmco'], 0.0)||('knee', 'noun', 'C0022742', ['bpoc'], 0.0)||('injuries', 'noun', 'C0175677', ['inpo'], 0.0)||('.', '', '', '', 0.0)||
('our', '', '', '', 0.0)||('objectives', 'noun', 'C0018017', ['inpr'], 0.0)||('were', '', '', '', 0.0)||('to', '', '', '', 0.0)||('describe', '', '', '', 0.0)||('the', '', '', '', 0.0)||('epidemiology', 'noun', 'C0014507', ['bmod'], 0.0)||('and', '', '', '', 0.0)||('incidence', 'noun', 'C0021149', ['qnco'], 0.0)||('of', '', '', '', 0.0)||('knee', 'noun', 'C0022742', ['bpoc'], 0.0)||('injuries', 'noun', 'C0175677', ['inpo'], 0.0)||('in', '', '', '', 0.0)||('children', 'noun', 'C0008059', ['aggp'], 0.0)||('with', '', '', '', 0.0)||('acute', 'adj', 'C0205178', ['tmco'], 0.0)||('knee', 'noun', 'C0022742', ['bpoc'], 0.0)||('trauma', 'noun', 'C0043251', ['inpo'], 0.0)||('and', '', '', '', 0.0)||('to', '', '', '', 0.0)||('validate', '', '', '', 0.0)||('the', '', '', '', 0.0)||('ottawa knee rule', '', '', '', 0.0)||('in', '', '', '', 0.0)||('a', '', '', '', 0.0)||('pediatric', 'adj', 'C1521725', ['qlco'], 0.0)||('population', 'noun', 'C0032659', ['qnco'], 0.0)||('.', '', '', '', 0.0)||
('a', '', '', '', 0.0)||('prospective', 'adj', 'C0023981', ['resa'], 0.0)||(',', '', '', '', 0.0)||('consecutive', 'adj', 'C1707491', ['qlco'], 0.0)||('study', 'noun', 'C0008976', ['resa'], 0.0)||('.', '', '', '', 0.0)||
('two', 'adj', 'C0205448', ['qnco'], 0.0)||('urban', 'adj', 'C0442529', ['geoa'], 0.0)||('pediatric', 'adj', 'C1521725', ['qlco'], 0.0)||('emergency departments', '', '', '', 0.0)||('.', '', '', '', 0.0)||
('all', '', '', '', 0.0)||('children', 'noun', 'C0008059', ['aggp'], 0.0)||('18', '', '', '', 0.0)||('years', 'noun', 'C0439234', ['tmco'], 0.0)||('of', '', '', '', 0.0)||('age', 'noun', 'C0001779', ['orga'], 0.0)||('and', '', '', '', 0.0)||('under', '', '', '', 0.0)||('who', '', '', '', 0.0)||('presented', 'verb', 'C0449450', ['idcn'], 0.0)||('with', '', '', '', 0.0)||('acute', 'adj', 'C0205178', ['tmco'], 0.0)||('traumatic', 'adj', 'C0332663', ['ftcn'], 0.0)||('knee', 'noun', 'C0022742', ['bpoc'], 0.0)||('injury', 'noun', 'C0175677', ['inpo'], 0.0)||('of', '', '', '', 0.0)||('less', '', '', '', 0.0)||('than', '', '', '', 0.0)||('1', '', '', '', 0.0)||('week', 'noun', 'C0439230', ['tmco'], 0.0)||("' s", '', '', '', 0.0)||('duration', 'noun', 'C0449238', ['tmco'], 0.0)||(',', '', '', '', 0.0)||('excluding', '', '', '', 0.0)||('patients', 'noun', 'C0030705', ['podg'], 0.0)||('with', '', '', '', 0.0)||('a', '', '', '', 0.0)||('normal', 'adj', 'C0205307', ['qlco'], 0.0)||('knee', 'noun', 'C0022742', ['bpoc'], 0.0)||('examination', '', '', '', 0.0)||(',', '', '', '', 0.0)||('superficial', 'adj', 'C0205124', ['spco'], 0.0)||('skin', 'noun', 'C0444099', ['bdsu'], 0.0)||('injuries', 'noun', 'C0175677', ['inpo'], 0.0)||(',', '', '', '', 0.0)||('prior', 'adj', 'C0332152', ['tmco'], 0.0)||('history', 'noun', 'C0019664', ['ocdi'], 0.0)||('of', '', '', '', 0.0)||('knee', 'noun', 'C0022742', ['bpoc'], 0.0)||('injury', 'noun', 'C0175677', ['inpo'], 0.0)||(',', '', '', '', 0.0)||('underlying', '', '', '', 0.0)||('bone disease', 'noun', 'C0005940', ['dsyn'], 0.0)||(',', '', '', '', 0.0)||('serious', 'adj', 'C0205404', ['qlco'], 0.0)||('injuries', 'noun', 'C0175677', ['inpo'], 0.0)||('involving', 'verb', 'C1314939', ['ftcn'], 0.0)||('two', 'noun', 'C0205448', ['qnco'], 0.0)||('or', '', '', '', 0.0)||('more', '', '', '', 0.0)||('organ', 'noun', 'C0178784', ['bpoc'], 0.0)||('systems', 'noun', 'C0449913', ['ftcn'], 0.0)||(',', '', '', '', 0.0)||('or', '', '', '', 0.0)||('altered', 'adj', 'C0205349', ['ftcn'], 0.0)||('mental', 'adj', 'C0229992', ['menp'], 0.0)||('status', 'noun', 'C0449438', ['qlco'], 0.0)||('were', '', '', '', 0.0)||('enrolled', '', '', '', 0.0)||('.', '', '', '', 0.0)||
('physicians', 'noun', 'C0031831', ['prog'], 0.0)||('assessed', 'verb', 'C1516048', ['acty'], 0.0)||('each', '', '', '', 0.0)||('patient', '', '', '', 0.0)||('for', '', '', '', 0.0)||('22', '', '', '', 0.0)||('standardized', '', '', '', 0.0)||('clinical', 'adj', 'C0205210', ['qlco'], 0.0)||('findings', 'noun', 'C2607943', ['ftcn'], 0.0)||('prior to', '', '', '', 0.0)||('radiography', 'noun', 'C0034571', ['ftcn'], 0.0)||('.', '', '', '', 0.0)||
('the', '', '', '', 0.0)||('ottawa knee rule', '', '', '', 0.0)||('was', '', '', '', 0.0)||('applied', 'verb', 'C0185125', ['hlca'], 0.0)||('to', '', '', '', 0.0)||('each', '', '', '', 0.0)||('patient', '', '', '', 0.0)||('by', '', '', '', 0.0)||('the', '', '', '', 0.0)||('investigating', '', '', '', 0.0)||('physician', 'noun', 'C0031831', ['prog'], 0.0)||('.', '', '', '', 0.0)||
('all', '', '', '', 0.0)||('234', '', '', '', 0.0)||('patients', 'noun', 'C0030705', ['podg'], 0.0)||('eligible', 'adj', 'C1548635', ['idcn'], 0.0)||('for', '', '', '', 0.0)||('the', '', '', '', 0.0)||('study', 'noun', 'C0008976', ['resa'], 0.0)||('had', '', '', '', 0.0)||('radiographs', '', '', '', 0.0)||('of', '', '', '', 0.0)||('the', '', '', '', 0.0)||('affected', 'adj', 'C0392760', ['ftcn'], 0.0)||('knee', 'noun', 'C0022742', ['bpoc'], 0.0)||('.', '', '', '', 0.0)||
('the', '', '', '', 0.0)||('median', 'adj', 'C0549183', ['spco'], 0.0)||('age', 'noun', 'C0001779', ['orga'], 0.0)||('was', '', '', '', 0.0)||('13', '', '', '', 0.0)||('years', 'noun', 'C0439234', ['tmco'], 0.0)||('with', '', '', '', 0.0)||('a', '', '', '', 0.0)||('range', 'noun', 'C1514721', ['qnco'], 0.0)||('of', '', '', '', 0.0)||('2', '', '', '', 0.0)||('to', '', '', '', 0.0)||('18', '', '', '', 0.0)||('years', 'noun', 'C0439234', ['tmco'], 0.0)||('.', '', '', '', 0.0)||
('using', 'verb', 'C1524063', ['ftcn'], 0.0)||('the', '', '', '', 0.0)||('ottawa knee rule', '', '', '', 0.0)||('criteria', 'noun', 'C0243161', ['inpr'], 0.0)||('for', '', '', '', 0.0)||('obtaining', 'adj', 'C1301820', ['ftcn'], 0.0)||('knee', 'noun', 'C0022742', ['bpoc'], 0.0)||('radiographs', '', '', '', 0.0)||(',', '', '', '', 0.0)||('12', '', '', '', 0.0)||('of', '', '', '', 0.0)||('13', '', '', '', 0.0)||('patients', 'noun', 'C0030705', ['podg'], 0.0)||('with', '', '', '', 0.0)||('fractures', 'noun', 'C0016658', ['inpo'], 0.0)||('were', '', '', '', 0.0)||('identified', 'verb', 'C0205396', ['qlco'], 0.0)||('(', '', '', '', 0.0)||('sensitivity', 'noun', 'C0036667', ['qnco'], 0.0)||('92 %', '', '', '', 0.0)||(';', '', '', '', 0.0)||('95 %', '', '', '', 0.0)||('ci', 'noun', 'C1417638', ['gngm'], 0.0)||('=', '', '', '', 0.0)||('64', '', '', '', 0.0)||('-', '', '', '', 0.0)||('99', '', '', '', 0.0)||(')', '', '', '', 0.0)||('.', '', '', '', 0.0)||
('the', '', '', '', 0.0)||('missed', 'adj', 'C1705492', ['qlco'], 0.0)||('case', 'noun', 'C0868928', ['ftcn'], 0.0)||('was', '', '', '', 0.0)||('an', '', '', '', 0.0)||('8', '', '', '', 0.0)||('-', '', '', '', 0.0)||('year', 'noun', 'C0439234', ['tmco'], 0.0)||('-', '', '', '', 0.0)||('old', 'noun', 'C0580836', ['tmco'], 0.0)||('male', 'noun', 'C0024554', ['orga'], 0.0)||('who', '', '', '', 0.0)||('had', '', '', '', 0.0)||('sustained', 'verb', 'C0443318', ['ftcn'], 0.0)||('a', '', '', '', 0.0)||('nondisplaced', '', '', '', 0.0)||('fracture', 'noun', 'C0016658', ['inpo'], 0.0)||('of', '', '', '', 0.0)||('the', '', '', '', 0.0)||('proximal tibia', 'noun', 'C0588198', ['bpoc'], 0.0)||('after', '', '', '', 0.0)||('a', '', '', '', 0.0)||('fall', 'noun', 'C0085639', ['fndg'], 0.0)||('.', '', '', '', 0.0)||
('if', '', '', '', 0.0)||('the', '', '', '', 0.0)||('ottawa knee rule', '', '', '', 0.0)||('were', '', '', '', 0.0)||('applied', 'verb', 'C0185125', ['hlca'], 0.0)||('to', '', '', '', 0.0)||('the', '', '', '', 0.0)||('pediatric', 'adj', 'C1521725', ['qlco'], 0.0)||('population', 'noun', 'C0032659', ['qnco'], 0.0)||(',', '', '', '', 0.0)||('it', '', '', '', 0.0)||('would', '', '', '', 0.0)||('have', '', '', '', 0.0)||('reduced', 'verb', 'C0392756', ['qlco'], 0.0)||('the', '', '', '', 0.0)||('need', 'noun', 'C0027552', ['qlco'], 0.0)||('for', '', '', '', 0.0)||('radiography', 'noun', 'C0034571', ['ftcn'], 0.0)||('in', '', '', '', 0.0)||('46 %', '', '', '', 0.0)||('of', '', '', '', 0.0)||('children', 'noun', 'C0008059', ['aggp'], 0.0)||('.', '', '', '', 0.0)||
('in', '', '', '', 0.0)||('the', '', '', '', 0.0)||('pediatric', 'adj', 'C1521725', ['qlco'], 0.0)||('population', 'noun', 'C0032659', ['qnco'], 0.0)||('studied', '', '', '', 0.0)||(',', '', '', '', 0.0)||('the', '', '', '', 0.0)||('ottawa knee rule', '', '', '', 0.0)||('did', '', '', '', 0.0)||('not', 'adv', 'C1518422', ['ftcn'], 0.0)||('identify', '', '', '', 0.0)||('all', '', '', '', 0.0)||('patients', 'noun', 'C0030705', ['podg'], 0.0)||('with', '', '', '', 0.0)||('knee', 'noun', 'C0022742', ['bpoc'], 0.0)||('fractures', 'noun', 'C0016658', ['inpo'], 0.0)||('.', '', '', '', 0.0)||
('future', 'adj', 'C0016884', ['tmco'], 0.0)||('studies', '', '', '', 0.0)||('may', '', '', '', 0.0)||('consider', 'verb', 'C0750591', ['idcn'], 0.0)||('modifying', '', '', '', 0.0)||('the', '', '', '', 0.0)||('ottawa knee rule', '', '', '', 0.0)||('to', '', '', '', 0.0)||('accommodate', '', '', '', 0.0)||('the', '', '', '', 0.0)||('differences', '', '', '', 0.0)||('between', '', '', '', 0.0)||('pediatric', 'adj', 'C1521725', ['qlco'], 0.0)||('and', '', '', '', 0.0)||('adult', 'noun', 'C0001675', ['aggp'], 0.0)||('patients', 'noun', 'C0030705', ['podg'], 0.0)||('to', '', '', '', 0.0)||('improve', 'verb', 'C0332161', ['qlco'], 0.0)||('the', '', '', '', 0.0)||('sensitivity', 'noun', 'C0036667', ['qnco'], 0.0)||('of', '', '', '', 0.0)||('the', '', '', '', 0.0)||('rule', 'noun', 'C0805874', ['idcn'], 0.0)||('while', '', '', '', 0.0)||('maintaining', 'verb', 'C1314677', ['ftcn'], 0.0)||('its', '', '', '', 0.0)||('specificity', 'noun', 'C0037791', ['qnco'], 0.0)||(',', '', '', '', 0.0)||('before', '', '', '', 0.0)||('it', '', '', '', 0.0)||('can', '', '', '', 0.0)||('be', '', '', '', 0.0)||('applied', 'verb', 'C0185125', ['hlca'], 0.0)||('routinely', '', '', '', 0.0)||('in', '', '', '', 0.0)||('clinical', 'adj', 'C0205210', ['qlco'], 0.0)||('practice', 'noun', 'C0237607', ['menp'], 0.0)||('.', '', '', '', 0.0)||
