('the', '', '', '', 0.0)||('ottawa knee rule', '', '', '', 0.0)||('is', '', '', '', 0.0)||('a', '', '', '', 0.0)||('clinical', 'adj', 'C0205210', ['qlco'], 0.0)||('decision', 'noun', 'C0679006', ['menp'], 0.0)||('aid', 'verb', 'C0449435', ['mnob'], 0.0)||('that', '', '', '', 0.0)||('helps', '', '', '', 0.0)||('rule', 'verb', 'C0805874', ['idcn'], 0.0)||('out', '', '', '', 0.0)||('fractures', 'verb', 'C0016658', ['inpo'], 0.0)||('and', '', '', '', 0.0)||('avoid', '', '', '', 0.0)||('unnecessary', '', '', '', 0.0)||('radiography', 'noun', 'C0034571', ['ftcn'], 0.0)||('.', '', '', '', 0.0)||
('to', '', '', '', 0.0)||('summarize', '', '', '', 0.0)||('evidence', 'noun', 'C0332120', ['ftcn'], 0.0)||('about', '', '', '', 0.0)||('the', '', '', '', 0.0)||('accuracy', 'noun', 'C0443131', ['qlco'], 0.0)||('of', '', '', '', 0.0)||('the', '', '', '', 0.0)||('ottawa knee rule', '', '', '', 0.0)||('.', '', '', '', 0.0)||
('relevant', 'adj', 'C2347946', ['qlco'], 0.0)||('english', 'noun', 'C1556083', ['popg'], 0.0)||('-', '', '', '', 0.0)||('and', '', '', '', 0.0)||('non - english', '', '', '', 0.0)||('-', '', '', '', 0.0)||('language', 'noun', 'C0023008', ['lang'], 0.0)||('articles', '', '', '', 0.0)||('were', '', '', '', 0.0)||('identified', 'verb', 'C0205396', ['qlco'], 0.0)||('from', '', '', '', 0.0)||('premedline', '', '', '', 0.0)||('and', '', '', '', 0.0)||('medline', 'noun', 'C0025141', ['inpr'], 0.0)||('(', '', '', '', 0.0)||('1966', '', '', '', 0.0)||('-', '', '', '', 0.0)||('2003', '', '', '', 0.0)||(')', '', '', '', 0.0)||(',', '', '', '', 0.0)||('embase', '', '', '', 0.0)||('(', '', '', '', 0.0)||('1980', '', '', '', 0.0)||('-', '', '', '', 0.0)||('2003', '', '', '', 0.0)||(')', '', '', '', 0.0)||(',', '', '', '', 0.0)||('cinahl', '', '', '', 0.0)||('(', '', '', '', 0.0)||('1982', '', '', '', 0.0)||('-', '', '', '', 0.0)||('2003', '', '', '', 0.0)||(')', '', '', '', 0.0)||(',', '', '', '', 0.0)||('biosis', '', '', '', 0.0)||('(', '', '', '', 0.0)||('1990', '', '', '', 0.0)||('-', '', '', '', 0.0)||('2003', '', '', '', 0.0)||(')', '', '', '', 0.0)||(',', '', '', '', 0.0)||('the', '', '', '', 0.0)||('cochrane', '', '', '', 0.0)||('library', 'noun', 'C0023621', ['mnob', 'orgt'], 0.0)||('(', '', '', '', 0.0)||('2002', '', '', '', 0.0)||(',', '', '', '', 0.0)||('issue', 'noun', 'C0033213', ['fndg'], 0.0)||('3', '', '', '', 0.0)||(')', '', '', '', 0.0)||(',', '', '', '', 0.0)||('the', '', '', '', 0.0)||('science citation index', '', '', '', 0.0)||('database', 'noun', 'C0242356', ['inpr'], 0.0)||(',', '', '', '', 0.0)||('reference', 'noun', 'C1514811', ['idcn'], 0.0)||('lists', '', '', '', 0.0)||('of', '', '', '', 0.0)||('included', '', '', '', 0.0)||('studies', '', '', '', 0.0)||(',', '', '', '', 0.0)||('and', '', '', '', 0.0)||('experts', '', '', '', 0.0)||('.', '', '', '', 0.0)||
('articles', '', '', '', 0.0)||('were', '', '', '', 0.0)||('included', '', '', '', 0.0)||('if', '', '', '', 0.0)||('they', '', '', '', 0.0)||('reported', 'verb', 'C0684224', ['inpr'], 0.0)||('enough', '', '', '', 0.0)||('information', 'noun', 'C1533716', ['idcn'], 0.0)||('to', '', '', '', 0.0)||('determine', '', '', '', 0.0)||('the', '', '', '', 0.0)||('sensitivity and specificity', 'noun', 'C0036668', ['qnco'], 0.0)||('of', '', '', '', 0.0)||('the', '', '', '', 0.0)||('ottawa knee rule', '', '', '', 0.0)||('for', '', '', '', 0.0)||('detecting', '', '', '', 0.0)||('fractures', 'noun', 'C0016658', ['inpo'], 0.0)||('confirmed', 'verb', 'C0750484', ['idcn'], 0.0)||('either', '', '', '', 0.0)||('radiologically', '', '', '', 0.0)||('or', '', '', '', 0.0)||('in', '', '', '', 0.0)||('combination', 'noun', 'C0205195', ['qlco'], 0.0)||('with', '', '', '', 0.0)||('follow - up', '', '', '', 0.0)||('.', '', '', '', 0.0)||
('two', 'noun', 'C0205448', ['qnco'], 0.0)||('reviewers', '', '', '', 0.0)||('independently', '', '', '', 0.0)||('extracted', 'adj', 'C0185115', ['topp'], 0.0)||('data', 'noun', 'C1511726', ['idcn'], 0.0)||('on', '', '', '', 0.0)||('study samples', '', '', '', 0.0)||(',', '', '', '', 0.0)||('the', '', '', '', 0.0)||('ways', '', '', '', 0.0)||('that', '', '', '', 0.0)||('the', '', '', '', 0.0)||('ottawa knee rule', '', '', '', 0.0)||('was', '', '', '', 0.0)||('used', '', '', '', 0.0)||(',', '', '', '', 0.0)||('and', '', '', '', 0.0)||('methodologic', '', '', '', 0.0)||('characteristics', 'noun', 'C1521970', ['qlco'], 0.0)||('of', '', '', '', 0.0)||('studies', '', '', '', 0.0)||('.', '', '', '', 0.0)||
('of', '', '', '', 0.0)||('11', '', '', '', 0.0)||('identified', 'adj', 'C0205396', ['qlco'], 0.0)||('studies', '', '', '', 0.0)||(',', '', '', '', 0.0)||('6', '', '', '', 0.0)||('involving', 'verb', 'C1314939', ['ftcn'], 0.0)||('4249', '', '', '', 0.0)||('adult', 'noun', 'C0001675', ['aggp'], 0.0)||('patients', 'noun', 'C0030705', ['podg'], 0.0)||('were', '', '', '', 0.0)||('considered', '', '', '', 0.0)||('appropriate', 'adj', 'C1548787', ['qlco'], 0.0)||('for', '', '', '', 0.0)||('pooled', 'adj', 'C1709595', ['cnce'], 0.0)||('analysis', 'noun', 'C0002778', ['lbpr'], 0.0)||('.', '', '', '', 0.0)||
('the', '', '', '', 0.0)||('pooled', 'adj', 'C1709595', ['cnce'], 0.0)||('negative', 'adj', 'C0205160', ['qlco'], 0.0)||('likelihood', 'noun', 'C0033204', ['qnco'], 0.0)||('ratio', 'noun', 'C0456603', ['qnco'], 0.0)||('was', '', '', '', 0.0)||('0 . 05', '', '', '', 0.0)||('(', '', '', '', 0.0)||('95 %', '', '', '', 0.0)||('ci', 'noun', 'C1417638', ['gngm'], 0.0)||(',', '', '', '', 0.0)||('0 . 02', '', '', '', 0.0)||('to', '', '', '', 0.0)||('0 . 23', '', '', '', 0.0)||(')', '', '', '', 0.0)||(',', '', '', '', 0.0)||('the', '', '', '', 0.0)||('pooled', 'adj', 'C1709595', ['cnce'], 0.0)||('sensitivity', 'noun', 'C0036667', ['qnco'], 0.0)||('was', '', '', '', 0.0)||('98 . 5 %', '', '', '', 0.0)||('(', '', '', '', 0.0)||('ci', 'noun', 'C1417638', ['gngm'], 0.0)||(',', '', '', '', 0.0)||('93 . 2 %', '', '', '', 0.0)||('to', '', '', '', 0.0)||('100 %', '', '', '', 0.0)||(')', '', '', '', 0.0)||(',', '', '', '', 0.0)||('and', '', '', '', 0.0)||('the', '', '', '', 0.0)||('pooled', 'adj', 'C1709595', ['cnce'], 0.0)||('specificity', 'noun', 'C0037791', ['qnco'], 0.0)||('was', '', '', '', 0.0)||('48 . 6 %', '', '', '', 0.0)||('(', '', '', '', 0.0)||('ci', 'noun', 'C1417638', ['gngm'], 0.0)||(',', '', '', '', 0.0)||('43 . 4 %', '', '', '', 0.0)||('to', '', '', '', 0.0)||('51 . 0 %', '', '', '', 0.0)||(')', '', '', '', 0.0)||('.', '', '', '', 0.0)||
('a', '', '', '', 0.0)||('negative', 'adj', 'C0205160', ['qlco'], 0.0)||('result', 'noun', 'C1274040', ['ftcn'], 0.0)||('on', '', '', '', 0.0)||('an', '', '', '', 0.0)||('ottawa knee rule', '', '', '', 0.0)||('test', 'verb', 'C0022885', ['lbpr'], 0.0)||('accurately', '', '', '', 0.0)||('excluded', 'adj', 'C1554077', ['idcn'], 0.0)||('knee', 'noun', 'C0022742', ['bpoc'], 0.0)||('fractures', 'verb', 'C0016658', ['inpo'], 0.0)||('after', '', '', '', 0.0)||('acute', 'adj', 'C0205178', ['tmco'], 0.0)||('knee', 'noun', 'C0022742', ['bpoc'], 0.0)||('injury', 'noun', 'C0175677', ['inpo'], 0.0)||('.', '', '', '', 0.0)||
('however', '', '', '', 0.0)||(',', '', '', '', 0.0)||('because', '', '', '', 0.0)||('the', '', '', '', 0.0)||('rule', 'noun', 'C0805874', ['idcn'], 0.0)||('is', '', '', '', 0.0)||('calibrated', '', '', '', 0.0)||('toward', '', '', '', 0.0)||('100 %', '', '', '', 0.0)||('sensitivity', 'noun', 'C0036667', ['qnco'], 0.0)||('and', '', '', '', 0.0)||('actual', 'adj', 'C0237400', ['qlco'], 0.0)||('fracture', 'noun', 'C0016658', ['inpo'], 0.0)||('prevalences', 'noun', 'C0033105', ['qnco'], 0.0)||('are', '', '', '', 0.0)||('usually', '', '', '', 0.0)||('low', 'adj', 'C0205251', ['qlco'], 0.0)||(',', '', '', '', 0.0)||('large - scale', '', '', '', 0.0)||(',', '', '', '', 0.0)||('multicentered', '', '', '', 0.0)||('studies', '', '', '', 0.0)||('are', '', '', '', 0.0)||('still', '', '', '', 0.0)||('needed', 'verb', 'C0027552', ['qlco'], 0.0)||('to', '', '', '', 0.0)||('establish', '', '', '', 0.0)||('the', '', '', '', 0.0)||('cost - effectiveness', '', '', '', 0.0)||('of', '', '', '', 0.0)||('routinely', '', '', '', 0.0)||('implementing', 'verb', 'C1998532', ['ftcn'], 0.0)||('the', '', '', '', 0.0)||('rule', 'noun', 'C0805874', ['idcn'], 0.0)||('.', '', '', '', 0.0)||
