('in', '', '', '', 0.0)||('a', '', '', '', 0.0)||('prospective study', 'noun', 'C0033522', ['resa'], 0.0)||('testing', 'verb', 'C0039593', ['ftcn'], 0.0)||('the', '', '', '', 0.0)||('ability', 'noun', 'C0085732', ['orga'], 0.0)||('of', '', '', '', 0.0)||('physical examination', 'noun', 'C0031809', ['hlca'], 0.0)||('to', '', '', '', 0.0)||('identify', '', '', '', 0.0)||('severe', 'adj', 'C0205082', ['qlco'], 0.0)||('mitral regurgitation', 'noun', 'C0026266', ['dsyn'], 0.0)||(',', '', '', '', 0.0)||('170', '', '', '', 0.0)||('consecutive', 'adj', 'C1707491', ['qlco'], 0.0)||('patients', 'noun', 'C0030705', ['podg'], 0.0)||('with', '', '', '', 0.0)||('mitral regurgitation', 'noun', 'C0026266', ['dsyn'], 0.0)||('assessed', 'verb', 'C1516048', ['acty'], 0.0)||('by', '', '', '', 0.0)||('echocardiography', 'noun', 'C0013516', ['diap'], 0.0)||('underwent', '', '', '', 0.0)||('a', '', '', '', 0.0)||('clinical', 'adj', 'C0205210', ['qlco'], 0.0)||('examination', '', '', '', 0.0)||('by', '', '', '', 0.0)||('internists', 'noun', 'C0278602', ['prog'], 0.0)||('or', '', '', '', 0.0)||('cardiologists', 'noun', 'C0175906', ['prog'], 0.0)||('blinded', 'verb', 'C0150108', ['resa'], 0.0)||('to', '', '', '', 0.0)||('the', '', '', '', 0.0)||('echocardiogram', 'noun', 'C0013516', ['diap'], 0.0)||('findings', 'noun', 'C2607943', ['ftcn'], 0.0)||('.', '', '', '', 0.0)||
('the', '', '', '', 0.0)||('negative predictive value', '', '', '', 0.0)||('for', '', '', '', 0.0)||('absence', 'noun', 'C1689985', ['anab'], 0.0)||('of', '', '', '', 0.0)||('severe', 'adj', 'C0205082', ['qlco'], 0.0)||('mitral regurgitation', 'noun', 'C0026266', ['dsyn'], 0.0)||('with', '', '', '', 0.0)||('a', '', '', '', 0.0)||('murmur', 'noun', 'C0018808', ['fndg'], 0.0)||('less', '', '', '', 0.0)||('than', '', '', '', 0.0)||('grade', 'noun', 'C0441800', ['clas'], 0.0)||('iii', 'noun', 'C0439070', ['inpr'], 0.0)||('ranged', '', '', '', 0.0)||('from', '', '', '', 0.0)||('88 %', '', '', '', 0.0)||('to', '', '', '', 0.0)||('100 %', '', '', '', 0.0)||('.', '', '', '', 0.0)||
('murmurs', 'verb', 'C0018808', ['fndg'], 0.0)||('greater', 'adj', 'C1704243', ['qnco'], 0.0)||('than', '', '', '', 0.0)||('grade', 'noun', 'C0441800', ['clas'], 0.0)||('iii', 'noun', 'C0439070', ['inpr'], 0.0)||('had', '', '', '', 0.0)||('a', '', '', '', 0.0)||('predictive value', 'noun', 'C1514307', ['qlco'], 0.0)||('of', '', '', '', 0.0)||('91 %', '', '', '', 0.0)||('for', '', '', '', 0.0)||('severe', 'adj', 'C0205082', ['qlco'], 0.0)||('mitral regurgitation', 'noun', 'C0026266', ['dsyn'], 0.0)||('.', '', '', '', 0.0)||
('grade', 'noun', 'C0441800', ['clas'], 0.0)||('iii', 'noun', 'C0439070', ['inpr'], 0.0)||('murmurs', 'noun', 'C0018808', ['fndg'], 0.0)||('were', '', '', '', 0.0)||('not', 'adv', 'C1518422', ['ftcn'], 0.0)||('predictive', 'adj', 'C0681890', ['qlco'], 0.0)||('of', '', '', '', 0.0)||('severity', 'noun', 'C0439793', ['qlco'], 0.0)||('.', '', '', '', 0.0)||
