('to', '', '', '', 0.0)||('examine', '', '', '', 0.0)||('parents', 'noun', 'C0030551', ['famg'], 0.0)||("'", '', '', '', 0.0)||('reported', 'adj', 'C0684224', ['inpr'], 0.0)||('knowledge', 'noun', 'C0376554', ['inpr'], 0.0)||('and', '', '', '', 0.0)||('use', 'noun', 'C0042153', ['ftcn'], 0.0)||('of', '', '', '', 0.0)||('harm', '', '', '', 0.0)||('reduction', 'noun', 'C0301630', ['npop'], 0.0)||('strategies', 'noun', 'C0679199', ['menp'], 0.0)||('to', '', '', '', 0.0)||('protect', '', '', '', 0.0)||('their', '', '', '', 0.0)||('infants', 'noun', 'C0021270', ['aggp'], 0.0)||('from', '', '', '', 0.0)||('exposure', 'noun', 'C0332157', ['clna'], 0.0)||('to', '', '', '', 0.0)||('tobacco', 'noun', 'C0040329', ['hops', 'orch', 'phsu'], 0.0)||('smoke', 'noun', 'C0037366', ['eehu', 'hops'], 0.0)||('in', '', '', '', 0.0)||('the', '', '', '', 0.0)||('home', 'noun', 'C0442519', ['cnce'], 0.0)||(',', '', '', '', 0.0)||('and', '', '', '', 0.0)||('the', '', '', '', 0.0)||('relation', 'noun', 'C0080103', ['famg'], 0.0)||('between', '', '', '', 0.0)||('reported', 'adj', 'C0684224', ['inpr'], 0.0)||('use', 'noun', 'C0042153', ['ftcn'], 0.0)||('of', '', '', '', 0.0)||('strategies', 'noun', 'C0679199', ['menp'], 0.0)||('and', '', '', '', 0.0)||('urinary', 'adj', 'C0042027', ['bpoc'], 0.0)||('cotinine', 'noun', 'C0010194', ['orch', 'phsu'], 0.0)||('to', '', '', '', 0.0)||('creatinine', 'noun', 'C0010294', ['bacs', 'orch'], 0.0)||('ratios', 'noun', 'C0456603', ['qnco'], 0.0)||('in', '', '', '', 0.0)||('the', '', '', '', 0.0)||('infants', 'noun', 'C0021270', ['aggp'], 0.0)||('.', '', '', '', 0.0)||
('cross sectional', '', '', '', 0.0)||('survey', 'noun', 'C0038951', ['inpr'], 0.0)||('.', '', '', '', 0.0)||
('coventry', '', '', '', 0.0)||('and', '', '', '', 0.0)||('birmingham', '', '', '', 0.0)||('.', '', '', '', 0.0)||
('parents', 'noun', 'C0030551', ['famg'], 0.0)||("'", '', '', '', 0.0)||('reported', 'adj', 'C0684224', ['inpr'], 0.0)||('knowledge', 'noun', 'C0376554', ['inpr'], 0.0)||('and', '', '', '', 0.0)||('use', 'noun', 'C0042153', ['ftcn'], 0.0)||('of', '', '', '', 0.0)||('harm', '', '', '', 0.0)||('reduction', 'noun', 'C0301630', ['npop'], 0.0)||('strategies', 'noun', 'C0679199', ['menp'], 0.0)||('and', '', '', '', 0.0)||('urinary', 'adj', 'C0042027', ['bpoc'], 0.0)||('cotinine', 'noun', 'C0010194', ['orch', 'phsu'], 0.0)||('to', '', '', '', 0.0)||('creatinine', 'noun', 'C0010294', ['bacs', 'orch'], 0.0)||('ratios', 'noun', 'C0456603', ['qnco'], 0.0)||('in', '', '', '', 0.0)||('their', '', '', '', 0.0)||('infants', 'noun', 'C0021270', ['aggp'], 0.0)||('.', '', '', '', 0.0)||
('314', '', '', '', 0.0)||('smoking', 'adj', 'C0037369', ['inbe'], 0.0)||('households', 'noun', 'C0020052', ['famg'], 0.0)||('with', '', '', '', 0.0)||('infants', 'noun', 'C0021270', ['aggp'], 0.0)||('.', '', '', '', 0.0)||
('86 %', '', '', '', 0.0)||('of', '', '', '', 0.0)||('parents', 'noun', 'C0030551', ['famg'], 0.0)||('(', '', '', '', 0.0)||('264 / 307', '', '', '', 0.0)||(')', '', '', '', 0.0)||('believed', '', '', '', 0.0)||('that', '', '', '', 0.0)||('environmental tobacco smoke', 'noun', 'C0813971', ['hops'], 0.0)||('is', '', '', '', 0.0)||('harmful', '', '', '', 0.0)||(',', '', '', '', 0.0)||('90 %', '', '', '', 0.0)||('(', '', '', '', 0.0)||('281 / 314', '', '', '', 0.0)||(')', '', '', '', 0.0)||('believed', '', '', '', 0.0)||('that', '', '', '', 0.0)||('infants', 'noun', 'C0021270', ['aggp'], 0.0)||('can', '', '', '', 0.0)||('be', '', '', '', 0.0)||('protected', '', '', '', 0.0)||('from', '', '', '', 0.0)||('it', '', '', '', 0.0)||('in', '', '', '', 0.0)||('the', '', '', '', 0.0)||('home', 'noun', 'C0442519', ['cnce'], 0.0)||(',', '', '', '', 0.0)||('and', '', '', '', 0.0)||('10 %', '', '', '', 0.0)||('(', '', '', '', 0.0)||('32 / 314', '', '', '', 0.0)||(')', '', '', '', 0.0)||('were', '', '', '', 0.0)||('either', '', '', '', 0.0)||('unaware', 'noun', 'C0150114', ['resa'], 0.0)||('of', '', '', '', 0.0)||('measures', 'noun', 'C0079809', ['qnco'], 0.0)||('or', '', '', '', 0.0)||('reported', 'verb', 'C0684224', ['inpr'], 0.0)||('using', 'verb', 'C1524063', ['ftcn'], 0.0)||('none', 'noun', 'C0549184', ['qnco'], 0.0)||('.', '', '', '', 0.0)||
('65 %', '', '', '', 0.0)||('of', '', '', '', 0.0)||('parents', 'noun', 'C0030551', ['famg'], 0.0)||('(', '', '', '', 0.0)||('205 / 314', '', '', '', 0.0)||(')', '', '', '', 0.0)||('reported', 'verb', 'C0684224', ['inpr'], 0.0)||('using', 'verb', 'C1524063', ['ftcn'], 0.0)||('two', 'noun', 'C0205448', ['qnco'], 0.0)||('or', '', '', '', 0.0)||('more', '', '', '', 0.0)||('measures', 'verb', 'C0079809', ['qnco'], 0.0)||(',', '', '', '', 0.0)||('but', '', '', '', 0.0)||('only', '', '', '', 0.0)||('18 %', '', '', '', 0.0)||('(', '', '', '', 0.0)||('58 / 314', '', '', '', 0.0)||(')', '', '', '', 0.0)||('reported', 'verb', 'C0684224', ['inpr'], 0.0)||('not', 'adv', 'C1518422', ['ftcn'], 0.0)||('allowing', 'noun', 'C0683607', ['socb'], 0.0)||('smoking', 'noun', 'C0037369', ['inbe'], 0.0)||('in', '', '', '', 0.0)||('the', '', '', '', 0.0)||('home', 'noun', 'C0442519', ['cnce'], 0.0)||('.', '', '', '', 0.0)||
('no', '', '', '', 0.0)||('difference', 'noun', 'C1705242', ['qlco'], 0.0)||('was', '', '', '', 0.0)||('found', '', '', '', 0.0)||('in', '', '', '', 0.0)||('mean', 'noun', 'C0444504', ['qnco'], 0.0)||('log', 'noun', 'C1708728', ['inpr'], 0.0)||('e', '', '', '', 0.0)||('transformed', 'verb', 'C1510411', ['patf'], 0.0)||('urinary', 'adj', 'C0042027', ['bpoc'], 0.0)||('cotinine', 'noun', 'C0010194', ['orch', 'phsu'], 0.0)||('to', '', '', '', 0.0)||('creatinine', 'noun', 'C0010294', ['bacs', 'orch'], 0.0)||('ratio', 'noun', 'C0456603', ['qnco'], 0.0)||('in', '', '', '', 0.0)||('infants', 'noun', 'C0021270', ['aggp'], 0.0)||('from', '', '', '', 0.0)||('households', 'noun', 'C0020052', ['famg'], 0.0)||('that', '', '', '', 0.0)||('used', '', '', '', 0.0)||('no', '', '', '', 0.0)||('measures', 'noun', 'C0079809', ['qnco'], 0.0)||('compared', 'verb', 'C1707455', ['acty'], 0.0)||('with', '', '', '', 0.0)||('households', 'noun', 'C0020052', ['famg'], 0.0)||('that', '', '', '', 0.0)||('used', '', '', '', 0.0)||('less', '', '', '', 0.0)||('strict', '', '', '', 0.0)||('measures', 'noun', 'C0079809', ['qnco'], 0.0)||('.', '', '', '', 0.0)||
('mean', 'noun', 'C0444504', ['qnco'], 0.0)||('log', 'noun', 'C1708728', ['inpr'], 0.0)||('cotinine', 'noun', 'C0010194', ['orch', 'phsu'], 0.0)||('to', '', '', '', 0.0)||('creatinine', 'noun', 'C0010294', ['bacs', 'orch'], 0.0)||('ratios', 'noun', 'C0456603', ['qnco'], 0.0)||('were', '', '', '', 0.0)||('significantly', '', '', '', 0.0)||('different', 'adj', 'C1705242', ['qlco'], 0.0)||('in', '', '', '', 0.0)||('households', 'noun', 'C0020052', ['famg'], 0.0)||('banning', 'verb', 'C0683610', ['socb'], 0.0)||('smoking', 'noun', 'C0037369', ['inbe'], 0.0)||('in', '', '', '', 0.0)||('the', '', '', '', 0.0)||('home', 'noun', 'C0442519', ['cnce'], 0.0)||('compared', 'verb', 'C1707455', ['acty'], 0.0)||('with', '', '', '', 0.0)||('those', '', '', '', 0.0)||('using', 'verb', 'C1524063', ['ftcn'], 0.0)||('less', '', '', '', 0.0)||('strict', '', '', '', 0.0)||('or', '', '', '', 0.0)||('no', '', '', '', 0.0)||('measures', 'noun', 'C0079809', ['qnco'], 0.0)||('.', '', '', '', 0.0)||
('banning', 'noun', 'C0683610', ['socb'], 0.0)||('smoking', 'noun', 'C0037369', ['inbe'], 0.0)||('in', '', '', '', 0.0)||('the', '', '', '', 0.0)||('home', 'noun', 'C0442519', ['cnce'], 0.0)||('was', '', '', '', 0.0)||('independently', '', '', '', 0.0)||('associated', 'verb', 'C0332281', ['qlco'], 0.0)||('with', '', '', '', 0.0)||('a', '', '', '', 0.0)||('significant', 'adj', 'C0750502', ['idcn'], 0.0)||('reduction', 'noun', 'C0301630', ['npop'], 0.0)||('in', '', '', '', 0.0)||('urinary', 'adj', 'C0042027', ['bpoc'], 0.0)||('cotinine', 'noun', 'C0010194', ['orch', 'phsu'], 0.0)||('to', '', '', '', 0.0)||('creatinine', 'noun', 'C0010294', ['bacs', 'orch'], 0.0)||('ratio', 'noun', 'C0456603', ['qnco'], 0.0)||('by', '', '', '', 0.0)||('a', '', '', '', 0.0)||('factor', 'noun', 'C1521761', ['ftcn'], 0.0)||('of', '', '', '', 0.0)||('2 . 6', '', '', '', 0.0)||('(', '', '', '', 0.0)||('1 . 6', '', '', '', 0.0)||('to', '', '', '', 0.0)||('4 . 2', '', '', '', 0.0)||(')', '', '', '', 0.0)||('after', '', '', '', 0.0)||('adjustment', 'noun', 'C0376209', ['inbe'], 0.0)||('for', '', '', '', 0.0)||('average', 'adj', 'C1510992', ['qnco'], 0.0)||('household', 'noun', 'C0020052', ['famg'], 0.0)||('cigarette', 'noun', 'C0677453', ['mnob'], 0.0)||('consumption', 'noun', 'C0009830', ['acty'], 0.0)||(',', '', '', '', 0.0)||('tenure', '', '', '', 0.0)||(',', '', '', '', 0.0)||('and', '', '', '', 0.0)||('overcrowding', '', '', '', 0.0)||('.', '', '', '', 0.0)||
('less', '', '', '', 0.0)||('than', '', '', '', 0.0)||('a', '', '', '', 0.0)||('fifth', 'adj', 'C0205439', ['qnco'], 0.0)||('of', '', '', '', 0.0)||('parents', 'noun', 'C0030551', ['famg'], 0.0)||('in', '', '', '', 0.0)||('smoking', 'adj', 'C0037369', ['inbe'], 0.0)||('households', 'noun', 'C0020052', ['famg'], 0.0)||('ban', '', '', '', 0.0)||('smoking', 'noun', 'C0037369', ['inbe'], 0.0)||('in', '', '', '', 0.0)||('the', '', '', '', 0.0)||('home', 'noun', 'C0442519', ['cnce'], 0.0)||('.', '', '', '', 0.0)||
('banning', 'noun', 'C0683610', ['socb'], 0.0)||('smoking', 'noun', 'C0037369', ['inbe'], 0.0)||('was', '', '', '', 0.0)||('associated', 'verb', 'C0332281', ['qlco'], 0.0)||('with', '', '', '', 0.0)||('a', '', '', '', 0.0)||('small', 'adj', 'C0700321', ['qnco'], 0.0)||('but', '', '', '', 0.0)||('significant', 'adj', 'C0750502', ['idcn'], 0.0)||('reduction', 'noun', 'C0301630', ['npop'], 0.0)||('in', '', '', '', 0.0)||('urinary', 'adj', 'C0042027', ['bpoc'], 0.0)||('cotinine', 'noun', 'C0010194', ['orch', 'phsu'], 0.0)||('to', '', '', '', 0.0)||('creatinine', 'noun', 'C0010294', ['bacs', 'orch'], 0.0)||('ratio', 'noun', 'C0456603', ['qnco'], 0.0)||('in', '', '', '', 0.0)||('infants', 'noun', 'C0021270', ['aggp'], 0.0)||(',', '', '', '', 0.0)||('whereas', '', '', '', 0.0)||('less', '', '', '', 0.0)||('strict', '', '', '', 0.0)||('measures', 'noun', 'C0079809', ['qnco'], 0.0)||('compared', 'verb', 'C1707455', ['acty'], 0.0)||('with', '', '', '', 0.0)||('no', '', '', '', 0.0)||('measures', 'noun', 'C0079809', ['qnco'], 0.0)||('had', '', '', '', 0.0)||('no', '', '', '', 0.0)||('effect', 'noun', 'C1280500', ['qlco'], 0.0)||('on', '', '', '', 0.0)||('the', '', '', '', 0.0)||('infants', 'noun', 'C0021270', ['aggp'], 0.0)||("'", '', '', '', 0.0)||('exposure', 'noun', 'C0332157', ['clna'], 0.0)||('to', '', '', '', 0.0)||('environmental tobacco smoke', 'noun', 'C0813971', ['hops'], 0.0)||('.', '', '', '', 0.0)||
