('percutaneous vertebroplasty', 'noun', 'C2349722', ['topp'], 0.0)||('is', '', '', '', 0.0)||('a', '', '', '', 0.0)||('therapeutic', 'adj', 'C0039796', ['topp'], 0.0)||(',', '', '', '', 0.0)||('interventional', 'adj', 'C1948041', ['topp'], 0.0)||('radiologic', 'adj', 'C0034599', ['bmod'], 0.0)||('procedure', 'noun', 'C0184661', ['diap', 'topp'], 0.0)||('that', '', '', '', 0.0)||('involves', '', '', '', 0.0)||('injection', 'noun', 'C1272883', ['bodm'], 0.0)||('of', '', '', '', 0.0)||('bone cement', 'noun', 'C0005934', ['bodm'], 0.0)||('into', '', '', '', 0.0)||('a', '', '', '', 0.0)||('cervical', 'adj', 'C0205064', ['spco'], 0.0)||(',', '', '', '', 0.0)||('thoracic', '', '', '', 0.0)||(',', '', '', '', 0.0)||('or', '', '', '', 0.0)||('lumbar', 'adj', 'C0024090', ['blor'], 0.0)||('vertebral', 'adj', 'C0549207', ['bpoc'], 0.0)||('body', 'noun', 'C0460148', ['anst'], 0.0)||('lesion', 'noun', 'C0221198', ['fndg'], 0.0)||('for', '', '', '', 0.0)||('the', '', '', '', 0.0)||('relief', 'noun', 'C0564405', ['fndg'], 0.0)||('of', '', '', '', 0.0)||('pain', 'noun', 'C0030193', ['sosy'], 0.0)||('and', '', '', '', 0.0)||('the', '', '', '', 0.0)||('strengthening', '', '', '', 0.0)||('of', '', '', '', 0.0)||('bone', 'noun', 'C0262950', ['bpoc'], 0.0)||('.', '', '', '', 0.0)||
('this', '', '', '', 0.0)||('procedure', 'noun', 'C0184661', ['diap', 'topp'], 0.0)||('only', '', '', '', 0.0)||('recently', 'adv', 'C0332185', ['tmco'], 0.0)||('has', '', '', '', 0.0)||('been', '', '', '', 0.0)||('introduced', '', '', '', 0.0)||(',', '', '', '', 0.0)||('and', '', '', '', 0.0)||('is', '', '', '', 0.0)||('being', '', '', '', 0.0)||('used', '', '', '', 0.0)||('for', '', '', '', 0.0)||('patients', 'noun', 'C0030705', ['podg'], 0.0)||('with', '', '', '', 0.0)||('lytic lesions', 'noun', 'C0221204', ['fndg'], 0.0)||('due to', '', '', '', 0.0)||('bone', 'noun', 'C0262950', ['bpoc'], 0.0)||('metastases', 'noun', 'C0027627', ['neop'], 0.0)||(',', '', '', '', 0.0)||('aggressive', 'adj', 'C0001807', ['mobd'], 0.0)||('hemangiomas', 'noun', 'C0018916', ['neop'], 0.0)||(',', '', '', '', 0.0)||('or', '', '', '', 0.0)||('multiple myeloma', 'noun', 'C0026764', ['neop'], 0.0)||(',', '', '', '', 0.0)||('and', '', '', '', 0.0)||('for', '', '', '', 0.0)||('patients', 'noun', 'C0030705', ['podg'], 0.0)||('who', '', '', '', 0.0)||('have', '', '', '', 0.0)||('medically', '', '', '', 0.0)||('intractable', 'adj', 'C0205269', ['ftcn'], 0.0)||('debilitating', '', '', '', 0.0)||('pain', 'noun', 'C0030193', ['sosy'], 0.0)||('resulting', '', '', '', 0.0)||('from', '', '', '', 0.0)||('osteoporotic', '', '', '', 0.0)||('vertebral', 'adj', 'C0549207', ['bpoc'], 0.0)||('collapse', 'noun', 'C0332521', ['phpr'], 0.0)||('.', '', '', '', 0.0)||
('results', 'noun', 'C1274040', ['ftcn'], 0.0)||('from', '', '', '', 0.0)||('two', 'noun', 'C0205448', ['qnco'], 0.0)||('uncontrolled', 'verb', 'C0205318', ['qlco'], 0.0)||('prospective studies', 'noun', 'C0033522', ['resa'], 0.0)||('and', '', '', '', 0.0)||('several', '', '', '', 0.0)||('case', 'noun', 'C0868928', ['ftcn'], 0.0)||('series', 'noun', 'C0205549', ['qnco'], 0.0)||('reports', 'noun', 'C0684224', ['inpr'], 0.0)||(',', '', '', '', 0.0)||('including', '', '', '', 0.0)||('one', 'noun', 'C0205447', ['qnco'], 0.0)||('with', '', '', '', 0.0)||('187', '', '', '', 0.0)||('patients', 'noun', 'C0030705', ['podg'], 0.0)||(',', '', '', '', 0.0)||('indicate', '', '', '', 0.0)||('that', '', '', '', 0.0)||('percutaneous vertebroplasty', 'noun', 'C2349722', ['topp'], 0.0)||('can', '', '', '', 0.0)||('produce', '', '', '', 0.0)||('significant', 'adj', 'C0750502', ['idcn'], 0.0)||('pain relief', 'noun', 'C0451615', ['topp'], 0.0)||('and', '', '', '', 0.0)||('increase', 'noun', 'C0442805', ['ftcn'], 0.0)||('mobility', 'noun', 'C0425245', ['fndg'], 0.0)||('in', '', '', '', 0.0)||('70', '', '', '', 0.0)||('percent', 'noun', 'C0439165', ['qnco'], 0.0)||('to', '', '', '', 0.0)||('80', '', '', '', 0.0)||('percent', 'noun', 'C0439165', ['qnco'], 0.0)||('of', '', '', '', 0.0)||('patients', 'noun', 'C0030705', ['podg'], 0.0)||('with', '', '', '', 0.0)||('osteolytic', 'adj', 'C1518633', ['qlco'], 0.0)||('lesions', 'noun', 'C0221198', ['fndg'], 0.0)||('in', '', '', '', 0.0)||('the', '', '', '', 0.0)||('vertebrae', 'noun', 'C0549207', ['bpoc'], 0.0)||('from', '', '', '', 0.0)||('hemangiomas', 'noun', 'C0018916', ['neop'], 0.0)||(',', '', '', '', 0.0)||('metastases', 'noun', 'C0027627', ['neop'], 0.0)||(',', '', '', '', 0.0)||('or', '', '', '', 0.0)||('myeloma', 'noun', 'C0026764', ['neop'], 0.0)||(',', '', '', '', 0.0)||('or', '', '', '', 0.0)||('with', '', '', '', 0.0)||('osteoporotic', '', '', '', 0.0)||('compression fractures', '', '', '', 0.0)||('.', '', '', '', 0.0)||
('in', '', '', '', 0.0)||('these', '', '', '', 0.0)||('reports', 'noun', 'C0684224', ['inpr'], 0.0)||(',', '', '', '', 0.0)||('pain relief', 'noun', 'C0451615', ['topp'], 0.0)||('was', '', '', '', 0.0)||('apparent', 'adj', 'C0750489', ['idcn'], 0.0)||('within', '', '', '', 0.0)||('one', 'noun', 'C0205447', ['qnco'], 0.0)||('to', '', '', '', 0.0)||('two', 'adj', 'C0205448', ['qnco'], 0.0)||('days', 'noun', 'C0439228', ['tmco'], 0.0)||('after', '', '', '', 0.0)||('injection', 'noun', 'C1272883', ['bodm'], 0.0)||(',', '', '', '', 0.0)||('and', '', '', '', 0.0)||('persisted', '', '', '', 0.0)||('for', '', '', '', 0.0)||('at', '', '', '', 0.0)||('least', '', '', '', 0.0)||('several', '', '', '', 0.0)||('months', 'noun', 'C0439231', ['tmco'], 0.0)||('up to', '', '', '', 0.0)||('several', '', '', '', 0.0)||('years', 'noun', 'C0439234', ['tmco'], 0.0)||('.', '', '', '', 0.0)||
('while', '', '', '', 0.0)||('experimental', 'adj', 'C1517004', ['ftcn'], 0.0)||('studies', '', '', '', 0.0)||('and', '', '', '', 0.0)||('preliminary', 'adj', 'C0439611', ['tmco'], 0.0)||('clinical results', '', '', '', 0.0)||('suggest', 'verb', 'C1705535', ['idcn'], 0.0)||('that', '', '', '', 0.0)||('percutaneous vertebroplasty', 'noun', 'C2349722', ['topp'], 0.0)||('can', '', '', '', 0.0)||('also', '', '', '', 0.0)||('strengthen', '', '', '', 0.0)||('the', '', '', '', 0.0)||('vertebral', 'adj', 'C0549207', ['bpoc'], 0.0)||('bodies', 'noun', 'C1995017', ['celc'], 0.0)||('and', '', '', '', 0.0)||('increase', 'noun', 'C0442805', ['ftcn'], 0.0)||('mobility', 'noun', 'C0425245', ['fndg'], 0.0)||(',', '', '', '', 0.0)||('it', '', '', '', 0.0)||('remains', '', '', '', 0.0)||('to', '', '', '', 0.0)||('be', '', '', '', 0.0)||('proven', 'verb', 'C0456369', ['qlco'], 0.0)||('whether', '', '', '', 0.0)||('this', '', '', '', 0.0)||('procedure', 'noun', 'C0184661', ['diap', 'topp'], 0.0)||('can', '', '', '', 0.0)||('prevent', 'verb', 'C0309872', ['phsu'], 0.0)||('additional', 'adj', 'C1524062', ['ftcn'], 0.0)||('fractures', 'noun', 'C0016658', ['inpo'], 0.0)||('in', '', '', '', 0.0)||('the', '', '', '', 0.0)||('injected', '', '', '', 0.0)||('vertebrae', 'noun', 'C0549207', ['bpoc'], 0.0)||('.', '', '', '', 0.0)||
('in', '', '', '', 0.0)||('addition', 'noun', 'C1883712', ['ftcn'], 0.0)||(',', '', '', '', 0.0)||('the', '', '', '', 0.0)||('duration', 'noun', 'C0449238', ['tmco'], 0.0)||('of', '', '', '', 0.0)||('effect', 'noun', 'C1280500', ['qlco'], 0.0)||('is', '', '', '', 0.0)||('not', 'adv', 'C1518422', ['ftcn'], 0.0)||('known', 'verb', 'C0205309', ['qlco'], 0.0)||(';', '', '', '', 0.0)||
('there', '', '', '', 0.0)||('were', '', '', '', 0.0)||('no', '', '', '', 0.0)||('long - term', '', '', '', 0.0)||('follow - up', '', '', '', 0.0)||('data', 'noun', 'C1511726', ['idcn'], 0.0)||('on', '', '', '', 0.0)||('most', '', '', '', 0.0)||('of', '', '', '', 0.0)||('these', '', '', '', 0.0)||('patients', 'noun', 'C0030705', ['podg'], 0.0)||(',', '', '', '', 0.0)||('and', '', '', '', 0.0)||('these', '', '', '', 0.0)||('data', 'noun', 'C1511726', ['idcn'], 0.0)||('may', '', '', '', 0.0)||('be', '', '', '', 0.0)||('difficult', 'adj', 'C0332218', ['qlco'], 0.0)||('to', '', '', '', 0.0)||('obtain', 'verb', 'C1301820', ['ftcn'], 0.0)||('and', '', '', '', 0.0)||('interpret', '', '', '', 0.0)||('in', '', '', '', 0.0)||('patients', 'noun', 'C0030705', ['podg'], 0.0)||('with', '', '', '', 0.0)||('an', '', '', '', 0.0)||('underlying', '', '', '', 0.0)||('malignant', 'adj', 'C0205282', ['qlco'], 0.0)||('process', 'noun', 'C1184743', ['bpoc'], 0.0)||(',', '', '', '', 0.0)||('because', '', '', '', 0.0)||('disease', 'noun', 'C0012634', ['dsyn'], 0.0)||('progression', 'noun', 'C0242656', ['patf'], 0.0)||('may', '', '', '', 0.0)||('confound', '', '', '', 0.0)||('evaluation', 'noun', 'C0220825', ['ftcn'], 0.0)||('of', '', '', '', 0.0)||('the', '', '', '', 0.0)||('treatment effect', 'noun', 'C1518681', ['fndg'], 0.0)||('.', '', '', '', 0.0)||
('complications', 'noun', 'C0009566', ['patf'], 0.0)||('were', '', '', '', 0.0)||('relatively', '', '', '', 0.0)||('rare', 'adj', 'C0521114', ['tmco'], 0.0)||(',', '', '', '', 0.0)||('although', '', '', '', 0.0)||('some', '', '', '', 0.0)||('studies', '', '', '', 0.0)||('reported', 'verb', 'C0684224', ['inpr'], 0.0)||('a', '', '', '', 0.0)||('high', 'adj', 'C0205250', ['qlco'], 0.0)||('incidence', 'noun', 'C0021149', ['qnco'], 0.0)||('of', '', '', '', 0.0)||('clinically', '', '', '', 0.0)||('insignificant', '', '', '', 0.0)||('leakage', 'noun', 'C0015376', ['patf'], 0.0)||('of', '', '', '', 0.0)||('bone cement', 'noun', 'C0005934', ['bodm'], 0.0)||('into', '', '', '', 0.0)||('the', '', '', '', 0.0)||('paravertebral', 'adj', 'C0442150', ['spco'], 0.0)||('tissues', 'noun', 'C0040300', ['tisu'], 0.0)||('.', '', '', '', 0.0)||
('in', '', '', '', 0.0)||('a', '', '', '', 0.0)||('few', '', '', '', 0.0)||('cases', 'noun', 'C0868928', ['ftcn'], 0.0)||(',', '', '', '', 0.0)||('the', '', '', '', 0.0)||('leakage', 'noun', 'C0015376', ['patf'], 0.0)||('of', '', '', '', 0.0)||('polymer', 'noun', 'C0032521', ['bodm', 'chvs'], 0.0)||('caused', '', '', '', 0.0)||('compression', 'noun', 'C0332459', ['ftcn'], 0.0)||('of', '', '', '', 0.0)||('spinal nerve roots', 'noun', 'C0037940', ['bpoc'], 0.0)||('or', '', '', '', 0.0)||('neuralgia', 'noun', 'C0027796', ['sosy'], 0.0)||('.', '', '', '', 0.0)||
('several', '', '', '', 0.0)||('instances', '', '', '', 0.0)||('of', '', '', '', 0.0)||('pulmonary embolism', 'noun', 'C0034065', ['dsyn'], 0.0)||('were', '', '', '', 0.0)||('also', '', '', '', 0.0)||('reported', 'verb', 'C0684224', ['inpr'], 0.0)||('.', '', '', '', 0.0)||
('although', '', '', '', 0.0)||('patient', '', '', '', 0.0)||('selection', 'noun', 'C0036576', ['genf'], 0.0)||('criteria', 'noun', 'C0243161', ['inpr'], 0.0)||('have', '', '', '', 0.0)||('not', 'adv', 'C1518422', ['ftcn'], 0.0)||('been', '', '', '', 0.0)||('definitely', '', '', '', 0.0)||('established', 'verb', 'C0443211', ['qlco'], 0.0)||(',', '', '', '', 0.0)||('percutaneous vertebroplasty', 'noun', 'C2349722', ['topp'], 0.0)||('is', '', '', '', 0.0)||('considered', '', '', '', 0.0)||('appropriate', 'adj', 'C1548787', ['qlco'], 0.0)||('treatment', 'noun', 'C0039798', ['ftcn'], 0.0)||('for', '', '', '', 0.0)||('patients', 'noun', 'C0030705', ['podg'], 0.0)||('with', '', '', '', 0.0)||('vertebral', 'adj', 'C0549207', ['bpoc'], 0.0)||('lesions', 'noun', 'C0221198', ['fndg'], 0.0)||('resulting', '', '', '', 0.0)||('from', '', '', '', 0.0)||('osteolytic', 'adj', 'C1518633', ['qlco'], 0.0)||('metastasis', 'noun', 'C0027627', ['neop'], 0.0)||('and', '', '', '', 0.0)||('myeloma', 'noun', 'C0026764', ['neop'], 0.0)||(',', '', '', '', 0.0)||('hemangioma', '', '', '', 0.0)||(',', '', '', '', 0.0)||('and', '', '', '', 0.0)||('painful', 'adj', 'C0030193', ['sosy'], 0.0)||('osteoporotic', '', '', '', 0.0)||('compression fractures', '', '', '', 0.0)||('if', '', '', '', 0.0)||('the', '', '', '', 0.0)||('following', '', '', '', 0.0)||('criteria', 'noun', 'C0243161', ['inpr'], 0.0)||('have', '', '', '', 0.0)||('been', '', '', '', 0.0)||('met', '', '', '', 0.0)||(':', '', '', '', 0.0)||('o', '', '', '', 0.0)||('severe', 'adj', 'C0205082', ['qlco'], 0.0)||('debilitating', '', '', '', 0.0)||('pain', 'noun', 'C0030193', ['sosy'], 0.0)||('or', '', '', '', 0.0)||('loss', 'noun', 'C1517945', ['qnco'], 0.0)||('of', '', '', '', 0.0)||('mobility', 'noun', 'C0425245', ['fndg'], 0.0)||('that', '', '', '', 0.0)||('cannot', '', '', '', 0.0)||('be', '', '', '', 0.0)||('relieved', 'verb', 'C1301771', ['qlco'], 0.0)||('by', '', '', '', 0.0)||('correct', 'adj', 'C1548444', ['inpr'], 0.0)||('medical', 'adj', 'C0205476', ['ftcn'], 0.0)||('therapy', 'noun', 'C0039798', ['ftcn'], 0.0)||('.', '', '', '', 0.0)||
('o', '', '', '', 0.0)||('other', '', '', '', 0.0)||('causes', 'noun', 'C0015127', ['ftcn'], 0.0)||('of', '', '', '', 0.0)||('pain', 'noun', 'C0030193', ['sosy'], 0.0)||(',', '', '', '', 0.0)||('such as', '', '', '', 0.0)||('herniated', '', '', '', 0.0)||('intervertebral disk', 'noun', 'C0021815', ['bpoc'], 0.0)||('have', '', '', '', 0.0)||('been', '', '', '', 0.0)||('ruled', '', '', '', 0.0)||('out', '', '', '', 0.0)||('by', '', '', '', 0.0)||('computed tomography', 'noun', 'C0040405', ['diap'], 0.0)||('or', '', '', '', 0.0)||('magnetic resonance imaging', 'noun', 'C0024485', ['diap'], 0.0)||('.', '', '', '', 0.0)||
('o', '', '', '', 0.0)||('the', '', '', '', 0.0)||('affected', 'adj', 'C0392760', ['ftcn'], 0.0)||('vertebra', 'noun', 'C0549207', ['bpoc'], 0.0)||('has', '', '', '', 0.0)||('not', 'adv', 'C1518422', ['ftcn'], 0.0)||('been', '', '', '', 0.0)||('extensively', '', '', '', 0.0)||('destroyed', '', '', '', 0.0)||('and', '', '', '', 0.0)||('is', '', '', '', 0.0)||('at', '', '', '', 0.0)||('least', '', '', '', 0.0)||('one', 'verb', 'C0205447', ['qnco'], 0.0)||('third', 'noun', 'C0205437', ['qnco'], 0.0)||('of', '', '', '', 0.0)||('its', '', '', '', 0.0)||('original', 'adj', 'C0205313', ['idcn'], 0.0)||('height', 'noun', 'C0489786', ['orga'], 0.0)||('.', '', '', '', 0.0)||
('o', '', '', '', 0.0)||('radiation therapy', 'noun', 'C0034619', ['inpr'], 0.0)||('or', '', '', '', 0.0)||('concurrent', 'adj', 'C0205420', ['tmco'], 0.0)||('surgical', 'adj', 'C0543467', ['topp'], 0.0)||('interventions', '', '', '', 0.0)||(',', '', '', '', 0.0)||('such as', '', '', '', 0.0)||('laminectomy', 'noun', 'C0022983', ['topp'], 0.0)||(',', '', '', '', 0.0)||('may', '', '', '', 0.0)||('also', '', '', '', 0.0)||('be', '', '', '', 0.0)||('required', 'verb', 'C1514873', ['ftcn'], 0.0)||('in', '', '', '', 0.0)||('patients', 'noun', 'C0030705', ['podg'], 0.0)||('with', '', '', '', 0.0)||('compression', 'noun', 'C0332459', ['ftcn'], 0.0)||('of', '', '', '', 0.0)||('the', '', '', '', 0.0)||('spinal cord', 'noun', 'C0037925', ['bpoc'], 0.0)||('due to', '', '', '', 0.0)||('ingrowth', '', '', '', 0.0)||('of', '', '', '', 0.0)||('a', '', '', '', 0.0)||('tumor', 'noun', 'C0027651', ['neop'], 0.0)||('.', '', '', '', 0.0)||
('percutaneous vertebroplasty', 'noun', 'C2349722', ['topp'], 0.0)||('has', '', '', '', 0.0)||('only', '', '', '', 0.0)||('recently', 'adv', 'C0332185', ['tmco'], 0.0)||('been', '', '', '', 0.0)||('introduced', '', '', '', 0.0)||('as', '', '', '', 0.0)||('a', '', '', '', 0.0)||('treatment', 'noun', 'C0039798', ['ftcn'], 0.0)||('for', '', '', '', 0.0)||('osteolytic', 'adj', 'C1518633', ['qlco'], 0.0)||('lesions', 'noun', 'C0221198', ['fndg'], 0.0)||('and', '', '', '', 0.0)||('osteoporotic', '', '', '', 0.0)||('compression fractures', '', '', '', 0.0)||('of', '', '', '', 0.0)||('the', '', '', '', 0.0)||('vertebrae', 'noun', 'C0549207', ['bpoc'], 0.0)||(',', '', '', '', 0.0)||('but', '', '', '', 0.0)||('early', 'adj', 'C1279919', ['tmco'], 0.0)||('results', 'noun', 'C1274040', ['ftcn'], 0.0)||('are', '', '', '', 0.0)||('promising', '', '', '', 0.0)||('.', '', '', '', 0.0)||
('up to', '', '', '', 0.0)||('80', '', '', '', 0.0)||('percent', 'noun', 'C0439165', ['qnco'], 0.0)||('of', '', '', '', 0.0)||('patients', 'noun', 'C0030705', ['podg'], 0.0)||('with', '', '', '', 0.0)||('pain', 'noun', 'C0030193', ['sosy'], 0.0)||('unresponsive', 'adj', 'C0205269', ['ftcn'], 0.0)||('to', '', '', '', 0.0)||('correct', 'adj', 'C1548444', ['inpr'], 0.0)||('medical', 'adj', 'C0205476', ['ftcn'], 0.0)||('treatment', 'noun', 'C0039798', ['ftcn'], 0.0)||('experience', 'verb', 'C0596545', ['menp'], 0.0)||('a', '', '', '', 0.0)||('significant', 'adj', 'C0750502', ['idcn'], 0.0)||('degree', 'noun', 'C0441889', ['qlco'], 0.0)||('of', '', '', '', 0.0)||('pain relief', 'noun', 'C0451615', ['topp'], 0.0)||(',', '', '', '', 0.0)||('and', '', '', '', 0.0)||('few', '', '', '', 0.0)||('serious', 'adj', 'C0205404', ['qlco'], 0.0)||('complications', 'noun', 'C0009566', ['patf'], 0.0)||('have', '', '', '', 0.0)||('been', '', '', '', 0.0)||('reported', 'verb', 'C0684224', ['inpr'], 0.0)||('.', '', '', '', 0.0)||
('however', '', '', '', 0.0)||(',', '', '', '', 0.0)||('relatively', '', '', '', 0.0)||('few', '', '', '', 0.0)||('patients', 'noun', 'C0030705', ['podg'], 0.0)||('have', '', '', '', 0.0)||('undergone', '', '', '', 0.0)||('this', '', '', '', 0.0)||('procedure', 'noun', 'C0184661', ['diap', 'topp'], 0.0)||(',', '', '', '', 0.0)||('and', '', '', '', 0.0)||('there', '', '', '', 0.0)||('are', '', '', '', 0.0)||('no', '', '', '', 0.0)||('data', 'noun', 'C1511726', ['idcn'], 0.0)||('from', '', '', '', 0.0)||('controlled clinical trials', '', '', '', 0.0)||('or', '', '', '', 0.0)||('from', '', '', '', 0.0)||('studies', '', '', '', 0.0)||('with', '', '', '', 0.0)||('long - term', '', '', '', 0.0)||('follow - up', '', '', '', 0.0)||('.', '', '', '', 0.0)||
('at', '', '', '', 0.0)||('the', '', '', '', 0.0)||('present', 'adj', 'C0150312', ['qnco'], 0.0)||('time', 'noun', 'C0040223', ['tmco'], 0.0)||('this', '', '', '', 0.0)||('procedure', 'noun', 'C0184661', ['diap', 'topp'], 0.0)||('is', '', '', '', 0.0)||('still', '', '', '', 0.0)||('in', '', '', '', 0.0)||('the', '', '', '', 0.0)||('investigational', 'adj', 'C1517586', ['qlco'], 0.0)||('stages', 'noun', 'C1306673', ['qlco'], 0.0)||(',', '', '', '', 0.0)||('but', '', '', '', 0.0)||('may', '', '', '', 0.0)||('be', '', '', '', 0.0)||('appropriate', 'adj', 'C1548787', ['qlco'], 0.0)||('for', '', '', '', 0.0)||('patients', 'noun', 'C0030705', ['podg'], 0.0)||('with', '', '', '', 0.0)||('no', '', '', '', 0.0)||('other', '', '', '', 0.0)||('reasonable', '', '', '', 0.0)||('options', 'noun', 'C0683525', ['topp'], 0.0)||('for', '', '', '', 0.0)||('medical', 'adj', 'C0205476', ['ftcn'], 0.0)||('treatment', 'noun', 'C0039798', ['ftcn'], 0.0)||('.', '', '', '', 0.0)||
