('two', 'adv', 'C0205448', ['qnco'], 0.0)||('structured', '', '', '', 0.0)||(',', '', '', '', 0.0)||('but', '', '', '', 0.0)||('not', 'adv', 'C1518422', ['ftcn'], 0.0)||('systematic', 'adj', 'C0220922', ['ftcn'], 0.0)||(',', '', '', '', 0.0)||('reviews', '', '', '', 0.0)||('of', '', '', '', 0.0)||('percutaneous vertebroplasty', 'noun', 'C2349722', ['topp'], 0.0)||('in', '', '', '', 0.0)||('vertebral', 'adj', 'C0549207', ['bpoc'], 0.0)||('fractures', 'noun', 'C0016658', ['inpo'], 0.0)||('included', '', '', '', 0.0)||('15', '', '', '', 0.0)||('small', 'adj', 'C0700321', ['qnco'], 0.0)||('observational', 'adj', 'C1964257', ['diap'], 0.0)||('studies', '', '', '', 0.0)||(',', '', '', '', 0.0)||('of', '', '', '', 0.0)||('which', '', '', '', 0.0)||('only', '', '', '', 0.0)||('1', '', '', '', 0.0)||('was', '', '', '', 0.0)||('included', '', '', '', 0.0)||('in', '', '', '', 0.0)||('the', '', '', '', 0.0)||('cms', 'noun', 'C0475210', ['qnco'], 0.0)||('report', 'noun', 'C0684224', ['inpr'], 0.0)||('.', '', '', '', 0.0)||
('these', '', '', '', 0.0)||('reviews', '', '', '', 0.0)||('examined', 'verb', 'C0332128', ['fndg'], 0.0)||('outcomes', 'noun', 'C0085415', ['qlco'], 0.0)||('of', '', '', '', 0.0)||('vertebroplasty', 'noun', 'C1303192', ['topp'], 0.0)||('performed', 'verb', 'C0884358', ['ftcn'], 0.0)||('from', '', '', '', 0.0)||('less', '', '', '', 0.0)||('than', '', '', '', 0.0)||('1', '', '', '', 0.0)||('month', 'noun', 'C0439231', ['tmco'], 0.0)||('to', '', '', '', 0.0)||('a', '', '', '', 0.0)||('mean', 'noun', 'C0444504', ['qnco'], 0.0)||('of', '', '', '', 0.0)||('7', '', '', '', 0.0)||('months', 'noun', 'C0439231', ['tmco'], 0.0)||('after', '', '', '', 0.0)||('fracture', 'noun', 'C0016658', ['inpo'], 0.0)||(',', '', '', '', 0.0)||('using', 'verb', 'C1524063', ['ftcn'], 0.0)||('similar', 'adj', 'C2348205', ['qlco'], 0.0)||('inclusion', 'noun', 'C1512693', ['qlco'], 0.0)||('criteria', 'noun', 'C0243161', ['inpr'], 0.0)||('to', '', '', '', 0.0)||('those', '', '', '', 0.0)||('used', '', '', '', 0.0)||('in', '', '', '', 0.0)||('the', '', '', '', 0.0)||('cms', 'noun', 'C0475210', ['qnco'], 0.0)||('report', 'noun', 'C0684224', ['inpr'], 0.0)||('.', '', '', '', 0.0)||
('the', '', '', '', 0.0)||('studies', '', '', '', 0.0)||("'", '', '', '', 0.0)||('common', 'adj', 'C0205214', ['qnco'], 0.0)||('patient', '', '', '', 0.0)||('exclusion', 'noun', 'C0680251', ['ftcn'], 0.0)||('criteria', 'noun', 'C0243161', ['inpr'], 0.0)||('were', '', '', '', 0.0)||('uncorrectable', '', '', '', 0.0)||('coagulation', 'noun', 'C0005778', ['ortf'], 0.0)||('disorder', 'noun', 'C0012634', ['dsyn'], 0.0)||(',', '', '', '', 0.0)||('infection', 'noun', 'C0021311', ['dsyn'], 0.0)||('in', '', '', '', 0.0)||('the', '', '', '', 0.0)||('area', 'noun', 'C0017446', ['geoa'], 0.0)||(',', '', '', '', 0.0)||('spinal cord compression', 'noun', 'C0037926', ['dsyn'], 0.0)||(',', '', '', '', 0.0)||('destruction', 'noun', 'C1261381', ['topp'], 0.0)||('of', '', '', '', 0.0)||('the', '', '', '', 0.0)||('posterior', 'adj', 'C0205095', ['spco'], 0.0)||('vertebral', 'adj', 'C0549207', ['bpoc'], 0.0)||('wall', 'noun', 'C0677535', ['mnob'], 0.0)||(',', '', '', '', 0.0)||('and', '', '', '', 0.0)||('severe', 'adj', 'C0205082', ['qlco'], 0.0)||('degrees', '', '', '', 0.0)||('of', '', '', '', 0.0)||('vertebral', 'adj', 'C0549207', ['bpoc'], 0.0)||('body', 'noun', 'C0460148', ['anst'], 0.0)||('collapse', 'noun', 'C0332521', ['phpr'], 0.0)||('(', '', '', '', 0.0)||('defined', 'verb', 'C1704788', ['cnce'], 0.0)||('as', '', '', '', 0.0)||('>', '', '', '', 0.0)||('67 %', '', '', '', 0.0)||('collapse', 'noun', 'C0332521', ['phpr'], 0.0)||(')', '', '', '', 0.0)||('.', '', '', '', 0.0)||
('the', '', '', '', 0.0)||('2', '', '', '', 0.0)||('reviews', '', '', '', 0.0)||('found', '', '', '', 0.0)||('between', '', '', '', 0.0)||('67 %', '', '', '', 0.0)||('and', '', '', '', 0.0)||('100 %', '', '', '', 0.0)||('of', '', '', '', 0.0)||('patients', 'noun', 'C0030705', ['podg'], 0.0)||('reported', 'verb', 'C0684224', ['inpr'], 0.0)||('pain reduction', '', '', '', 0.0)||('after', '', '', '', 0.0)||('vertebroplasty', 'noun', 'C1303192', ['topp'], 0.0)||('in', '', '', '', 0.0)||('follow - up', '', '', '', 0.0)||('periods', '', '', '', 0.0)||('ranging', '', '', '', 0.0)||('from', '', '', '', 0.0)||('24', '', '', '', 0.0)||('hours', 'noun', 'C0439227', ['tmco'], 0.0)||('to', '', '', '', 0.0)||('up to', '', '', '', 0.0)||('10', '', '', '', 0.0)||('years', 'noun', 'C0439234', ['tmco'], 0.0)||('.', '', '', '', 0.0)||
