('it', '', '', '', 0.0)||('is', '', '', '', 0.0)||('unclear', '', '', '', 0.0)||('whether', '', '', '', 0.0)||('patients', 'noun', 'C0030705', ['podg'], 0.0)||('with', '', '', '', 0.0)||('type 2 diabetes', 'noun', 'C0011860', ['dsyn'], 0.0)||('who', '', '', '', 0.0)||('have', '', '', '', 0.0)||('poor', 'adj', 'C0032854', ['grpa'], 0.0)||('glycaemic control', '', '', '', 0.0)||('despite', '', '', '', 0.0)||('maximal', 'adj', 'C0205289', ['qlco'], 0.0)||('oral', 'adj', 'C0442027', ['spco'], 0.0)||('hypoglycaemic', 'adj', 'C0020616', ['phsu'], 0.0)||('agents', '', '', '', 0.0)||('should', '', '', '', 0.0)||('be', '', '', '', 0.0)||('commenced', '', '', '', 0.0)||('on', '', '', '', 0.0)||('insulin', 'noun', 'C0021641', ['aapp', 'horm', 'phsu'], 0.0)||('as', '', '', '', 0.0)||('monotherapy', '', '', '', 0.0)||(',', '', '', '', 0.0)||('or', '', '', '', 0.0)||('insulin', 'noun', 'C0021641', ['aapp', 'horm', 'phsu'], 0.0)||('combined', 'verb', 'C0205195', ['qlco'], 0.0)||('with', '', '', '', 0.0)||('oral', 'adj', 'C0442027', ['spco'], 0.0)||('hypoglycaemic', 'adj', 'C0020616', ['phsu'], 0.0)||('agents', '', '', '', 0.0)||('(', '', '', '', 0.0)||('insulin', 'noun', 'C0021641', ['aapp', 'horm', 'phsu'], 0.0)||('-', '', '', '', 0.0)||('oha', 'noun', 'C0133758', ['topp'], 0.0)||('combination', 'noun', 'C0205195', ['qlco'], 0.0)||('therapy', 'noun', 'C0039798', ['ftcn'], 0.0)||(')', '', '', '', 0.0)||('.', '', '', '', 0.0)||
('to', '', '', '', 0.0)||('assess', 'verb', 'C1516048', ['acty'], 0.0)||('the', '', '', '', 0.0)||('effects', '', '', '', 0.0)||('of', '', '', '', 0.0)||('insulin', 'noun', 'C0021641', ['aapp', 'horm', 'phsu'], 0.0)||('monotherapy', '', '', '', 0.0)||('versus', '', '', '', 0.0)||('insulin', 'noun', 'C0021641', ['aapp', 'horm', 'phsu'], 0.0)||('-', '', '', '', 0.0)||('oha', 'noun', 'C0133758', ['topp'], 0.0)||('combinations', 'noun', 'C0453882', ['mnob'], 0.0)||('therapy', 'noun', 'C0039798', ['ftcn'], 0.0)||('.', '', '', '', 0.0)||
('eligible', 'adj', 'C1548635', ['idcn'], 0.0)||('studies', '', '', '', 0.0)||('were', '', '', '', 0.0)||('identified', 'verb', 'C0205396', ['qlco'], 0.0)||('by', '', '', '', 0.0)||('searching', '', '', '', 0.0)||('medline', 'noun', 'C0025141', ['inpr'], 0.0)||(',', '', '', '', 0.0)||('embase', '', '', '', 0.0)||(',', '', '', '', 0.0)||('and', '', '', '', 0.0)||('the', '', '', '', 0.0)||('cochrane', '', '', '', 0.0)||('library', 'noun', 'C0023621', ['mnob', 'orgt'], 0.0)||('.', '', '', '', 0.0)||
('date', 'noun', 'C0011008', ['tmco'], 0.0)||('of', '', '', '', 0.0)||('last', '', '', '', 0.0)||('search', 'noun', 'C1552603', ['idcn'], 0.0)||(':', '', '', '', 0.0)||('may', '', '', '', 0.0)||('2004', '', '', '', 0.0)||('.', '', '', '', 0.0)||
('randomised controlled trials', '', '', '', 0.0)||('with', '', '', '', 0.0)||('2', '', '', '', 0.0)||('months', 'noun', 'C0439231', ['tmco'], 0.0)||('minimum', 'noun', 'C1524031', ['qlco'], 0.0)||('follow - up', '', '', '', 0.0)||('duration', 'noun', 'C0449238', ['tmco'], 0.0)||('comparing', '', '', '', 0.0)||('insulin', 'noun', 'C0021641', ['aapp', 'horm', 'phsu'], 0.0)||('monotherapy', '', '', '', 0.0)||('(', '', '', '', 0.0)||('all', '', '', '', 0.0)||('schemes', '', '', '', 0.0)||(')', '', '', '', 0.0)||('with', '', '', '', 0.0)||('insulin', 'noun', 'C0021641', ['aapp', 'horm', 'phsu'], 0.0)||('-', '', '', '', 0.0)||('oha', 'noun', 'C0133758', ['topp'], 0.0)||('combination', 'noun', 'C0205195', ['qlco'], 0.0)||('therapy', 'noun', 'C0039798', ['ftcn'], 0.0)||('.', '', '', '', 0.0)||
('data', 'noun', 'C1511726', ['idcn'], 0.0)||('extraction', 'noun', 'C0185115', ['topp'], 0.0)||('and', '', '', '', 0.0)||('assessment', 'noun', 'C1261322', ['hlca'], 0.0)||('of', '', '', '', 0.0)||('study', 'noun', 'C0008976', ['resa'], 0.0)||('quality', 'noun', 'C0332306', ['qlco'], 0.0)||('were', '', '', '', 0.0)||('undertaken', '', '', '', 0.0)||('by', '', '', '', 0.0)||('three', '', 'C0205449', ['qnco'], 0.0)||('reviewers', '', '', '', 0.0)||('in', '', '', '', 0.0)||('pairs', '', '', '', 0.0)||('.', '', '', '', 0.0)||
('twenty', '', '', '', 0.0)||('randomised controlled trials', '', '', '', 0.0)||('(', '', '', '', 0.0)||('mean', 'noun', 'C0444504', ['qnco'], 0.0)||('trial', 'noun', 'C0008976', ['resa'], 0.0)||('duration', 'noun', 'C0449238', ['tmco'], 0.0)||('10', '', '', '', 0.0)||('months', 'noun', 'C0439231', ['tmco'], 0.0)||(')', '', '', '', 0.0)||('including', '', '', '', 0.0)||('1 , 811', '', '', '', 0.0)||('participants', '', '', '', 0.0)||(',', '', '', '', 0.0)||('with', '', '', '', 0.0)||('mean', 'noun', 'C0444504', ['qnco'], 0.0)||('age', 'noun', 'C0001779', ['orga'], 0.0)||('59 . 8', '', '', '', 0.0)||('years', 'noun', 'C0439234', ['tmco'], 0.0)||('and', '', '', '', 0.0)||('mean', 'noun', 'C0444504', ['qnco'], 0.0)||('known', 'adj', 'C0205309', ['qlco'], 0.0)||('duration', 'noun', 'C0449238', ['tmco'], 0.0)||('of', '', '', '', 0.0)||('diabetes', 'noun', 'C0011847', ['dsyn'], 0.0)||('9 . 6', '', '', '', 0.0)||('years', 'noun', 'C0439234', ['tmco'], 0.0)||('.', '', '', '', 0.0)||
('overall', 'adv', 'C0282416', ['inpr'], 0.0)||(',', '', '', '', 0.0)||('study', 'verb', 'C0008976', ['resa'], 0.0)||('methodological', '', '', '', 0.0)||('quality', 'noun', 'C0332306', ['qlco'], 0.0)||('was', '', '', '', 0.0)||('low', 'adj', 'C0205251', ['qlco'], 0.0)||('.', '', '', '', 0.0)||
('twenty - eight', '', '', '', 0.0)||('comparisons', '', '', '', 0.0)||('in', '', '', '', 0.0)||('20', '', '', '', 0.0)||('randomised controlled trials', '', '', '', 0.0)||('were', '', '', '', 0.0)||('ordered', 'verb', 'C1705176', ['qlco'], 0.0)||('according to', '', '', '', 0.0)||('clinical', 'adj', 'C0205210', ['qlco'], 0.0)||('considerations', '', '', '', 0.0)||('.', '', '', '', 0.0)||
('no', '', '', '', 0.0)||('studies', '', '', '', 0.0)||('assessed', 'verb', 'C1516048', ['acty'], 0.0)||('diabetes', 'noun', 'C0011847', ['dsyn'], 0.0)||('-', '', '', '', 0.0)||('related', 'adj', 'C0439849', ['qlco'], 0.0)||('morbidity', 'noun', 'C0026538', ['qnco'], 0.0)||(',', '', '', '', 0.0)||('mortality', 'noun', 'C0026565', ['qnco'], 0.0)||('or', '', '', '', 0.0)||('total', 'adj', 'C0439810', ['qlco'], 0.0)||('mortality', 'noun', 'C0026565', ['qnco'], 0.0)||('.', '', '', '', 0.0)||
('from', '', '', '', 0.0)||('13', '', '', '', 0.0)||('studies', '', '', '', 0.0)||('(', '', '', '', 0.0)||('21', '', '', '', 0.0)||('comparisons', '', '', '', 0.0)||(')', '', '', '', 0.0)||(',', '', '', '', 0.0)||('sufficient', 'adj', 'C0205410', ['qlco'], 0.0)||('data', 'noun', 'C1511726', ['idcn'], 0.0)||('were', '', '', '', 0.0)||('extracted', 'verb', 'C0185115', ['topp'], 0.0)||('to', '', '', '', 0.0)||('calculate', 'verb', 'C1441506', ['acty'], 0.0)||('pooled', 'adj', 'C1709595', ['cnce'], 0.0)||('effects', '', '', '', 0.0)||('on', '', '', '', 0.0)||('glycaemic control', '', '', '', 0.0)||('.', '', '', '', 0.0)||
('insulin', 'noun', 'C0021641', ['aapp', 'horm', 'phsu'], 0.0)||('-', '', '', '', 0.0)||('oha', 'noun', 'C0133758', ['topp'], 0.0)||('combination', 'noun', 'C0205195', ['qlco'], 0.0)||('therapy', 'noun', 'C0039798', ['ftcn'], 0.0)||('had', '', '', '', 0.0)||('statistically significant', 'adj', 'C0237881', ['qnco'], 0.0)||('benefits', 'noun', 'C0814225', ['qnco'], 0.0)||('on', '', '', '', 0.0)||('glycaemic control', '', '', '', 0.0)||('over', '', '', '', 0.0)||('insulin', 'noun', 'C0021641', ['aapp', 'horm', 'phsu'], 0.0)||('monotherapy', '', '', '', 0.0)||('only', '', '', '', 0.0)||('when', '', '', '', 0.0)||('the', '', '', '', 0.0)||('latter', '', '', '', 0.0)||('was', '', '', '', 0.0)||('applied', 'verb', 'C0185125', ['hlca'], 0.0)||('as', '', '', '', 0.0)||('a', '', '', '', 0.0)||('once', '', '', '', 0.0)||('-', '', '', '', 0.0)||('daily', 'adj', 'C0332173', ['tmco'], 0.0)||('injection', 'noun', 'C1272883', ['bodm'], 0.0)||('of', '', '', '', 0.0)||('nph insulin', 'noun', 'C0021658', ['aapp', 'horm', 'phsu'], 0.0)||('.', '', '', '', 0.0)||
('conversely', '', '', '', 0.0)||(',', '', '', '', 0.0)||('twice - daily', '', '', '', 0.0)||('insulin', 'noun', 'C0021641', ['aapp', 'horm', 'phsu'], 0.0)||('monotherapy', '', '', '', 0.0)||('(', '', '', '', 0.0)||('nph', 'noun', 'C0020258', ['dsyn'], 0.0)||('or', '', '', '', 0.0)||('mixed', 'adj', 'C0205430', ['ftcn'], 0.0)||('insulin', 'noun', 'C0021641', ['aapp', 'horm', 'phsu'], 0.0)||(')', '', '', '', 0.0)||('provided', '', '', '', 0.0)||('superior', 'adj', 'C1282910', ['spco'], 0.0)||('glycaemic control', '', '', '', 0.0)||('to', '', '', '', 0.0)||('insulin', 'noun', 'C0021641', ['aapp', 'horm', 'phsu'], 0.0)||('-', '', '', '', 0.0)||('oha', 'noun', 'C0133758', ['topp'], 0.0)||('combination', 'noun', 'C0205195', ['qlco'], 0.0)||('therapy', 'noun', 'C0039798', ['ftcn'], 0.0)||('regimens', '', '', '', 0.0)||('where', '', '', '', 0.0)||('insulin', 'noun', 'C0021641', ['aapp', 'horm', 'phsu'], 0.0)||('was', '', '', '', 0.0)||('administered', 'verb', 'C1521801', ['ftcn'], 0.0)||('as', '', '', '', 0.0)||('a', '', '', '', 0.0)||('single', 'adj', 'C0037179', ['popg'], 0.0)||('morning', 'noun', 'C0332170', ['tmco'], 0.0)||('injection', 'noun', 'C1272883', ['bodm'], 0.0)||('.', '', '', '', 0.0)||
('in', '', '', '', 0.0)||('more', '', '', '', 0.0)||('conventional', 'adj', 'C0439858', ['qlco'], 0.0)||('comparisons', '', '', '', 0.0)||(',', '', '', '', 0.0)||('regimens', '', '', '', 0.0)||('utilising', '', '', '', 0.0)||('oral', 'adj', 'C0442027', ['spco'], 0.0)||('hypoglycaemic', 'adj', 'C0020616', ['phsu'], 0.0)||('agents', '', '', '', 0.0)||('with', '', '', '', 0.0)||('bedtime', 'noun', 'C0521112', ['tmco'], 0.0)||('nph insulin', 'noun', 'C0021658', ['aapp', 'horm', 'phsu'], 0.0)||('provided', '', '', '', 0.0)||('comparable', '', '', '', 0.0)||('glycaemic control', '', '', '', 0.0)||('to', '', '', '', 0.0)||('insulin', 'noun', 'C0021641', ['aapp', 'horm', 'phsu'], 0.0)||('monotherapy', '', '', '', 0.0)||('(', '', '', '', 0.0)||('administered', 'verb', 'C1521801', ['ftcn'], 0.0)||('as', '', '', '', 0.0)||('twice daily', 'adv', 'C0585361', ['tmco'], 0.0)||(',', '', '', '', 0.0)||('or', '', '', '', 0.0)||('multiple', 'adj', 'C0439064', ['qnco'], 0.0)||('daily', 'adj', 'C0332173', ['tmco'], 0.0)||('injections', 'noun', 'C1533685', ['topp'], 0.0)||(')', '', '', '', 0.0)||('.', '', '', '', 0.0)||
('overall', 'adv', 'C0282416', ['inpr'], 0.0)||(',', '', '', '', 0.0)||('insulin', 'noun', 'C0021641', ['aapp', 'horm', 'phsu'], 0.0)||('-', '', '', '', 0.0)||('oha', 'noun', 'C0133758', ['topp'], 0.0)||('combination', 'noun', 'C0205195', ['qlco'], 0.0)||('therapy', 'noun', 'C0039798', ['ftcn'], 0.0)||('was', '', '', '', 0.0)||('associated', 'verb', 'C0332281', ['qlco'], 0.0)||('with', '', '', '', 0.0)||('a', '', '', '', 0.0)||('43 %', '', '', '', 0.0)||('relative', 'adj', 'C0080103', ['famg'], 0.0)||('reduction', 'noun', 'C0301630', ['npop'], 0.0)||('in', '', '', '', 0.0)||('total', 'adj', 'C0439810', ['qlco'], 0.0)||('daily', 'adj', 'C0332173', ['tmco'], 0.0)||('insulin', 'noun', 'C0021641', ['aapp', 'horm', 'phsu'], 0.0)||('requirement', 'noun', 'C1514873', ['ftcn'], 0.0)||('compared', 'verb', 'C1707455', ['acty'], 0.0)||('to', '', '', '', 0.0)||('insulin', 'noun', 'C0021641', ['aapp', 'horm', 'phsu'], 0.0)||('monotherapy', '', '', '', 0.0)||('.', '', '', '', 0.0)||
('of', '', '', '', 0.0)||('the', '', '', '', 0.0)||('14', '', '', '', 0.0)||('studies', '', '', '', 0.0)||('(', '', '', '', 0.0)||('22', '', '', '', 0.0)||('comparisons', '', '', '', 0.0)||(')', '', '', '', 0.0)||('reporting', 'adj', 'C0700287', ['hlca'], 0.0)||('hypoglycaemia', 'noun', 'C0020598', ['patf'], 0.0)||(',', '', '', '', 0.0)||('13', '', '', '', 0.0)||('demonstrated', '', '', '', 0.0)||('no', '', '', '', 0.0)||('significant', 'adj', 'C0750502', ['idcn'], 0.0)||('difference', 'noun', 'C1705242', ['qlco'], 0.0)||('in', '', '', '', 0.0)||('the', '', '', '', 0.0)||('frequency', 'noun', 'C0376249', ['qnco'], 0.0)||('of', '', '', '', 0.0)||('symptomatic', 'adj', 'C0231220', ['ftcn'], 0.0)||('or', '', '', '', 0.0)||('biochemical', 'adj', 'C0205474', ['ftcn'], 0.0)||('hypoglycaemia', 'noun', 'C0020598', ['patf'], 0.0)||('between', '', '', '', 0.0)||('insulin', 'noun', 'C0021641', ['aapp', 'horm', 'phsu'], 0.0)||('and', '', '', '', 0.0)||('combination', 'noun', 'C0205195', ['qlco'], 0.0)||('therapy', 'noun', 'C0039798', ['ftcn'], 0.0)||('regimens', '', '', '', 0.0)||('.', '', '', '', 0.0)||
('no', '', '', '', 0.0)||('significant', 'adj', 'C0750502', ['idcn'], 0.0)||('differences', '', '', '', 0.0)||('in', '', '', '', 0.0)||('quality', 'noun', 'C0332306', ['qlco'], 0.0)||('of', '', '', '', 0.0)||('life', 'noun', 'C0376558', ['idcn'], 0.0)||('related', 'adj', 'C0439849', ['qlco'], 0.0)||('issues', '', '', '', 0.0)||('were', '', '', '', 0.0)||('detected', 'verb', 'C0442726', ['fndg'], 0.0)||('.', '', '', '', 0.0)||
('combination', 'noun', 'C0205195', ['qlco'], 0.0)||('therapy', 'noun', 'C0039798', ['ftcn'], 0.0)||('with', '', '', '', 0.0)||('bedtime', 'noun', 'C0521112', ['tmco'], 0.0)||('nph insulin', 'noun', 'C0021658', ['aapp', 'horm', 'phsu'], 0.0)||('resulted', '', '', '', 0.0)||('in', '', '', '', 0.0)||('statistically', 'adv', 'C0038215', ['ocdi'], 0.0)||('significantly', '', '', '', 0.0)||('less', '', '', '', 0.0)||('weight gain', 'noun', 'C0043094', ['fndg'], 0.0)||('compared', 'verb', 'C1707455', ['acty'], 0.0)||('to', '', '', '', 0.0)||('insulin', 'noun', 'C0021641', ['aapp', 'horm', 'phsu'], 0.0)||('monotherapy', '', '', '', 0.0)||(',', '', '', '', 0.0)||('provided', '', '', '', 0.0)||('metformin', 'noun', 'C0025598', ['orch', 'phsu'], 0.0)||('was', '', '', '', 0.0)||('used', '', '', '', 0.0)||('+', '', '', '', 0.0)||('/', '', '', '', 0.0)||('-', '', '', '', 0.0)||('sulphonylurea', '', '', '', 0.0)||('.', '', '', '', 0.0)||
('in', '', '', '', 0.0)||('all', '', '', '', 0.0)||('other', '', '', '', 0.0)||('comparisons', '', '', '', 0.0)||('no', '', '', '', 0.0)||('significant', 'adj', 'C0750502', ['idcn'], 0.0)||('differences', '', '', '', 0.0)||('with', '', '', '', 0.0)||('respect', 'noun', 'C0679133', ['socb'], 0.0)||('to', '', '', '', 0.0)||('weight gain', 'noun', 'C0043094', ['fndg'], 0.0)||('were', '', '', '', 0.0)||('detected', 'verb', 'C0442726', ['fndg'], 0.0)||('.', '', '', '', 0.0)||
('bedtime', 'noun', 'C0521112', ['tmco'], 0.0)||('nph insulin', 'noun', 'C0021658', ['aapp', 'horm', 'phsu'], 0.0)||('combined', 'verb', 'C0205195', ['qlco'], 0.0)||('with', '', '', '', 0.0)||('oral', 'adj', 'C0442027', ['spco'], 0.0)||('hypoglycaemic', 'adj', 'C0020616', ['phsu'], 0.0)||('agents', '', '', '', 0.0)||('provides', '', '', '', 0.0)||('comparable', '', '', '', 0.0)||('glycaemic control', '', '', '', 0.0)||('to', '', '', '', 0.0)||('insulin', 'noun', 'C0021641', ['aapp', 'horm', 'phsu'], 0.0)||('monotherapy', '', '', '', 0.0)||('and', '', '', '', 0.0)||('is', '', '', '', 0.0)||('associated', 'verb', 'C0332281', ['qlco'], 0.0)||('with', '', '', '', 0.0)||('less', '', '', '', 0.0)||('weight gain', 'noun', 'C0043094', ['fndg'], 0.0)||('if', '', '', '', 0.0)||('metformin', 'noun', 'C0025598', ['orch', 'phsu'], 0.0)||('is', '', '', '', 0.0)||('used', '', '', '', 0.0)||('.', '', '', '', 0.0)||
