('one', 'noun', 'C0205447', ['qnco'], 0.0)||('meta - analysis', '', '', '', 0.0)||('found', '', '', '', 0.0)||('a', '', '', '', 0.0)||('dose - dependent', '', '', '', 0.0)||('relationship', 'noun', 'C0439849', ['qlco'], 0.0)||('between', '', '', '', 0.0)||('smoking', 'noun', 'C0037369', ['inbe'], 0.0)||('and', '', '', '', 0.0)||('ldl - c', '', '', '', 0.0)||(',', '', '', '', 0.0)||('with', '', '', '', 0.0)||('overall', 'adj', 'C0282416', ['inpr'], 0.0)||('ldl - c', '', '', '', 0.0)||('1 . 7 %', '', '', '', 0.0)||('higher', '', '', '', 0.0)||('for', '', '', '', 0.0)||('smokers', '', '', '', 0.0)||('compared', 'verb', 'C1707455', ['acty'], 0.0)||('with', '', '', '', 0.0)||('nonsmokers', '', '', '', 0.0)||('.', '', '', '', 0.0)||
('two', 'adj', 'C0205448', ['qnco'], 0.0)||('rcts', '', '', '', 0.0)||('investigated', '', '', '', 0.0)||('the', '', '', '', 0.0)||('effect', 'noun', 'C1280500', ['qlco'], 0.0)||('of', '', '', '', 0.0)||('smoking', 'adj', 'C0037369', ['inbe'], 0.0)||('cessation', 'noun', 'C1880019', ['acty'], 0.0)||('on', '', '', '', 0.0)||('ldl - c', '', '', '', 0.0)||('with', '', '', '', 0.0)||('mixed', 'adj', 'C0205430', ['ftcn'], 0.0)||('results', 'noun', 'C1274040', ['ftcn'], 0.0)||('.', '', '', '', 0.0)||
('one', 'noun', 'C0205447', ['qnco'], 0.0)||('(', '', '', '', 0.0)||('n =', '', '', '', 0.0)||('935', '', '', '', 0.0)||(')', '', '', '', 0.0)||('showed', '', '', '', 0.0)||('a', '', '', '', 0.0)||('decrease', 'noun', 'C0392756', ['qlco'], 0.0)||('in', '', '', '', 0.0)||('nonfasting', 'adj', 'C2585491', ['fndg'], 0.0)||('ldl - c', '', '', '', 0.0)||('while', '', '', '', 0.0)||('a', '', '', '', 0.0)||('second', 'noun', 'C0205436', ['qnco'], 0.0)||('(', '', '', '', 0.0)||('n =', '', '', '', 0.0)||('140', '', '', '', 0.0)||(')', '', '', '', 0.0)||('showed', '', '', '', 0.0)||('no', '', '', '', 0.0)||('difference', 'noun', 'C1705242', ['qlco'], 0.0)||('in', '', '', '', 0.0)||('ldl - c', '', '', '', 0.0)||('.', '', '', '', 0.0)||
