('to', '', '', '', 0.0)||('examine', '', '', '', 0.0)||('long - term', '', '', '', 0.0)||('cure', 'noun', 'C1511495', ['gora'], 0.0)||('and', '', '', '', 0.0)||('relapse rates', '', '', '', 0.0)||('after', '', '', '', 0.0)||('treatment', 'noun', 'C0039798', ['ftcn'], 0.0)||('with', '', '', '', 0.0)||('continuous', 'adj', 'C0549178', ['idcn'], 0.0)||('terbinafine', 'noun', 'C0076110', ['orch', 'phsu'], 0.0)||('and', '', '', '', 0.0)||('intermittent', 'adj', 'C0205267', ['tmco'], 0.0)||('itraconazole', 'noun', 'C0064113', ['orch', 'phsu'], 0.0)||('in', '', '', '', 0.0)||('onychomycosis', 'noun', 'C0040261', ['dsyn'], 0.0)||('.', '', '', '', 0.0)||
('long - term', '', '', '', 0.0)||('prospective', 'adj', 'C0023981', ['resa'], 0.0)||('follow - up study', '', '', '', 0.0)||('.', '', '', '', 0.0)||
('three', '', 'C0205449', ['qnco'], 0.0)||('centers', '', '', '', 0.0)||('in', '', '', '', 0.0)||('iceland', 'noun', 'C0020750', ['geoa'], 0.0)||('.', '', '', '', 0.0)||
('the', '', '', '', 0.0)||('study population', 'noun', 'C2348561', ['popg'], 0.0)||('comprised', '', '', '', 0.0)||('151', '', '', '', 0.0)||('patients', 'noun', 'C0030705', ['podg'], 0.0)||('aged', 'verb', 'C0001779', ['orga'], 0.0)||('18', '', '', '', 0.0)||('to', '', '', '', 0.0)||('75', '', '', '', 0.0)||('years', 'noun', 'C0439234', ['tmco'], 0.0)||('with', '', '', '', 0.0)||('a', '', '', '', 0.0)||('clinical', 'adj', 'C0205210', ['qlco'], 0.0)||('and', '', '', '', 0.0)||('mycological', 'adj', 'C0205467', ['qlco'], 0.0)||('diagnosis', 'noun', 'C0011900', ['fndg'], 0.0)||('of', '', '', '', 0.0)||('dermatophyte', 'adj', 'C0011635', ['fngs'], 0.0)||('toenail', 'noun', 'C0222007', ['bpoc'], 0.0)||('onychomycosis', 'noun', 'C0040261', ['dsyn'], 0.0)||('.', '', '', '', 0.0)||
('in', '', '', '', 0.0)||('a', '', '', '', 0.0)||('double - blind', '', '', '', 0.0)||(',', '', '', '', 0.0)||('double', 'verb', 'C0205173', ['ftcn'], 0.0)||('-', '', '', '', 0.0)||('dummy', '', '', '', 0.0)||('study', 'noun', 'C0008976', ['resa'], 0.0)||(',', '', '', '', 0.0)||('patients', 'noun', 'C0030705', ['podg'], 0.0)||('were', '', '', '', 0.0)||('randomized', 'verb', 'C0034656', ['resa'], 0.0)||('to', '', '', '', 0.0)||('receive', 'verb', 'C1514756', ['qlco'], 0.0)||('either', '', '', '', 0.0)||('terbinafine', 'noun', 'C0076110', ['orch', 'phsu'], 0.0)||('(', '', '', '', 0.0)||('250', '', '', '', 0.0)||('mg', '', '', '', 0.0)||('/', '', '', '', 0.0)||('d )', '', '', '', 0.0)||('for', '', '', '', 0.0)||('12', '', '', '', 0.0)||('or', '', '', '', 0.0)||('16', '', '', '', 0.0)||('weeks', 'noun', 'C0439230', ['tmco'], 0.0)||('or', '', '', '', 0.0)||('itraconazole', 'noun', 'C0064113', ['orch', 'phsu'], 0.0)||('(', '', '', '', 0.0)||('400', '', '', '', 0.0)||('mg', '', '', '', 0.0)||('/', '', '', '', 0.0)||('d )', '', '', '', 0.0)||('for', '', '', '', 0.0)||('1', '', '', '', 0.0)||('week', 'noun', 'C0439230', ['tmco'], 0.0)||('in', '', '', '', 0.0)||('every', '', '', '', 0.0)||('4', '', '', '', 0.0)||('for', '', '', '', 0.0)||('12', '', '', '', 0.0)||('or', '', '', '', 0.0)||('16', '', '', '', 0.0)||('weeks', 'noun', 'C0439230', ['tmco'], 0.0)||('(', '', '', '', 0.0)||('first', 'noun', 'C0205435', ['qnco'], 0.0)||('intervention', 'noun', 'C1273869', ['hlca'], 0.0)||(')', '', '', '', 0.0)||('.', '', '', '', 0.0)||
('patients', 'noun', 'C0030705', ['podg'], 0.0)||('who', '', '', '', 0.0)||('did', '', '', '', 0.0)||('not', 'adv', 'C1518422', ['ftcn'], 0.0)||('achieve', '', '', '', 0.0)||('clinical', 'adj', 'C0205210', ['qlco'], 0.0)||('cure', 'noun', 'C1511495', ['gora'], 0.0)||('at', '', '', '', 0.0)||('month', 'noun', 'C0439231', ['tmco'], 0.0)||('18', '', '', '', 0.0)||('or', '', '', '', 0.0)||('experienced', '', '', '', 0.0)||('relapse', 'noun', 'C0035020', ['phpr'], 0.0)||('or', '', '', '', 0.0)||('reinfection', 'noun', 'C0205339', ['ftcn'], 0.0)||('were', '', '', '', 0.0)||('offered', 'verb', 'C1444648', ['fndg'], 0.0)||('an', '', '', '', 0.0)||('additional', 'adj', 'C1524062', ['ftcn'], 0.0)||('course', 'noun', 'C0750729', ['tmco'], 0.0)||('of', '', '', '', 0.0)||('terbinafine', 'noun', 'C0076110', ['orch', 'phsu'], 0.0)||('(', '', '', '', 0.0)||('second', 'noun', 'C0205436', ['qnco'], 0.0)||('intervention', 'noun', 'C1273869', ['hlca'], 0.0)||(')', '', '', '', 0.0)||('.', '', '', '', 0.0)||
('the', '', '', '', 0.0)||('primary', 'adj', 'C0205225', ['qlco'], 0.0)||('efficacy', 'noun', 'C1707887', ['resa'], 0.0)||('criterion', 'noun', 'C0243161', ['inpr'], 0.0)||('was', '', '', '', 0.0)||('mycological', 'adj', 'C0205467', ['qlco'], 0.0)||('cure', 'noun', 'C1511495', ['gora'], 0.0)||(',', '', '', '', 0.0)||('defined', 'verb', 'C1704788', ['cnce'], 0.0)||('as', '', '', '', 0.0)||('negative', 'adj', 'C0205160', ['qlco'], 0.0)||('results', 'noun', 'C1274040', ['ftcn'], 0.0)||('on', '', '', '', 0.0)||('microscopy', 'noun', 'C0026018', ['lbpr'], 0.0)||('and', '', '', '', 0.0)||('culture', 'noun', 'C0010453', ['idcn'], 0.0)||('at', '', '', '', 0.0)||('the', '', '', '', 0.0)||('end', 'noun', 'C0444930', ['spco'], 0.0)||('of', '', '', '', 0.0)||('follow - up', '', '', '', 0.0)||('and', '', '', '', 0.0)||('no', '', '', '', 0.0)||('requirement', 'noun', 'C1514873', ['ftcn'], 0.0)||('of', '', '', '', 0.0)||('second', 'adj', 'C0205436', ['qnco'], 0.0)||('intervention', 'noun', 'C1273869', ['hlca'], 0.0)||('treatment', 'noun', 'C0039798', ['ftcn'], 0.0)||('.', '', '', '', 0.0)||
('secondary', 'adj', 'C0175668', ['tmco'], 0.0)||('efficacy', 'noun', 'C1707887', ['resa'], 0.0)||('criteria', 'noun', 'C0243161', ['inpr'], 0.0)||('included', '', '', '', 0.0)||('clinical', 'adj', 'C0205210', ['qlco'], 0.0)||('cure', 'noun', 'C1511495', ['gora'], 0.0)||('without', '', '', '', 0.0)||('second', 'adj', 'C0205436', ['qnco'], 0.0)||('intervention', 'noun', 'C1273869', ['hlca'], 0.0)||('treatment', 'noun', 'C0039798', ['ftcn'], 0.0)||('and', '', '', '', 0.0)||('mycological', 'adj', 'C0205467', ['qlco'], 0.0)||('and', '', '', '', 0.0)||('clinical', 'adj', 'C0205210', ['qlco'], 0.0)||('relapse rates', '', '', '', 0.0)||('.', '', '', '', 0.0)||
('median', 'adj', 'C0549183', ['spco'], 0.0)||('duration', 'noun', 'C0449238', ['tmco'], 0.0)||('of', '', '', '', 0.0)||('follow - up', '', '', '', 0.0)||('was', '', '', '', 0.0)||('54', '', '', '', 0.0)||('months', 'noun', 'C0439231', ['tmco'], 0.0)||('.', '', '', '', 0.0)||
('at', '', '', '', 0.0)||('the', '', '', '', 0.0)||('end', 'noun', 'C0444930', ['spco'], 0.0)||('of', '', '', '', 0.0)||('the', '', '', '', 0.0)||('study', 'noun', 'C0008976', ['resa'], 0.0)||(',', '', '', '', 0.0)||('mycological', 'adj', 'C0205467', ['qlco'], 0.0)||('cure', 'noun', 'C1511495', ['gora'], 0.0)||('without', '', '', '', 0.0)||('second', 'adj', 'C0205436', ['qnco'], 0.0)||('intervention', 'noun', 'C1273869', ['hlca'], 0.0)||('treatment', 'noun', 'C0039798', ['ftcn'], 0.0)||('was', '', '', '', 0.0)||('found', '', '', '', 0.0)||('in', '', '', '', 0.0)||('34', '', '', '', 0.0)||('(', '', '', '', 0.0)||('46 %', '', '', '', 0.0)||(')', '', '', '', 0.0)||('of', '', '', '', 0.0)||('the', '', '', '', 0.0)||('74', '', '', '', 0.0)||('terbinafine', 'noun', 'C0076110', ['orch', 'phsu'], 0.0)||('-', '', '', '', 0.0)||('treated', 'adj', 'C1522326', ['ftcn'], 0.0)||('subjects', '', '', '', 0.0)||('and', '', '', '', 0.0)||('10', '', '', '', 0.0)||('(', '', '', '', 0.0)||('13 %', '', '', '', 0.0)||(')', '', '', '', 0.0)||('of', '', '', '', 0.0)||('the', '', '', '', 0.0)||('77', '', '', '', 0.0)||('itraconazole', 'noun', 'C0064113', ['orch', 'phsu'], 0.0)||('-', '', '', '', 0.0)||('treated', 'adj', 'C1522326', ['ftcn'], 0.0)||('subjects', '', '', '', 0.0)||('(', '', '', '', 0.0)||('p', '', '', '', 0.0)||('<', '', '', '', 0.0)||('.', '', '', '', 0.0)||('001', '', '', '', 0.0)||(')', '', '', '', 0.0)||('.', '', '', '', 0.0)||
('mycological', 'adj', 'C0205467', ['qlco'], 0.0)||('and', '', '', '', 0.0)||('clinical', 'adj', 'C0205210', ['qlco'], 0.0)||('relapse rates', '', '', '', 0.0)||('were', '', '', '', 0.0)||('significantly', '', '', '', 0.0)||('higher', '', '', '', 0.0)||('in', '', '', '', 0.0)||('itraconazole', 'noun', 'C0064113', ['orch', 'phsu'], 0.0)||('vs', '', '', '', 0.0)||('terbinafine', 'noun', 'C0076110', ['orch', 'phsu'], 0.0)||('-', '', '', '', 0.0)||('treated', 'adj', 'C1522326', ['ftcn'], 0.0)||('patients', 'noun', 'C0030705', ['podg'], 0.0)||('(', '', '', '', 0.0)||('53 %', '', '', '', 0.0)||('vs', '', '', '', 0.0)||('23 %', '', '', '', 0.0)||('and', '', '', '', 0.0)||('48 %', '', '', '', 0.0)||('vs', '', '', '', 0.0)||('21 %', '', '', '', 0.0)||(',', '', '', '', 0.0)||('respectively', '', '', '', 0.0)||(')', '', '', '', 0.0)||('.', '', '', '', 0.0)||
('of', '', '', '', 0.0)||('the', '', '', '', 0.0)||('72', '', '', '', 0.0)||('patients', 'noun', 'C0030705', ['podg'], 0.0)||('who', '', '', '', 0.0)||('received', 'verb', 'C1514756', ['qlco'], 0.0)||('subsequent', 'adj', 'C0332282', ['tmco'], 0.0)||('terbinafine', 'noun', 'C0076110', ['orch', 'phsu'], 0.0)||('treatment', 'noun', 'C0039798', ['ftcn'], 0.0)||(',', '', '', '', 0.0)||('63', '', '', '', 0.0)||('(', '', '', '', 0.0)||('88 %', '', '', '', 0.0)||(')', '', '', '', 0.0)||('achieved', '', '', '', 0.0)||('mycological', 'adj', 'C0205467', ['qlco'], 0.0)||('cure', 'noun', 'C1511495', ['gora'], 0.0)||('and', '', '', '', 0.0)||('55', '', '', '', 0.0)||('(', '', '', '', 0.0)||('76 %', '', '', '', 0.0)||(')', '', '', '', 0.0)||('achieved', '', '', '', 0.0)||('clinical', 'adj', 'C0205210', ['qlco'], 0.0)||('cure', 'noun', 'C1511495', ['gora'], 0.0)||('.', '', '', '', 0.0)||
('in', '', '', '', 0.0)||('the', '', '', '', 0.0)||('treatment', 'noun', 'C0039798', ['ftcn'], 0.0)||('of', '', '', '', 0.0)||('onychomycosis', 'noun', 'C0040261', ['dsyn'], 0.0)||(',', '', '', '', 0.0)||('continuous', 'adj', 'C0549178', ['idcn'], 0.0)||('terbinafine', 'noun', 'C0076110', ['orch', 'phsu'], 0.0)||('provided', '', '', '', 0.0)||('superior', 'adj', 'C1282910', ['spco'], 0.0)||('long - term', '', '', '', 0.0)||('mycological', 'adj', 'C0205467', ['qlco'], 0.0)||('and', '', '', '', 0.0)||('clinical', 'adj', 'C0205210', ['qlco'], 0.0)||('efficacy', 'noun', 'C1707887', ['resa'], 0.0)||('and', '', '', '', 0.0)||('lower', 'adj', 'C0441994', ['ftcn'], 0.0)||('rates', '', '', '', 0.0)||('of', '', '', '', 0.0)||('mycological', 'adj', 'C0205467', ['qlco'], 0.0)||('and', '', '', '', 0.0)||('clinical', 'adj', 'C0205210', ['qlco'], 0.0)||('relapse', 'noun', 'C0035020', ['phpr'], 0.0)||('compared', 'verb', 'C1707455', ['acty'], 0.0)||('with', '', '', '', 0.0)||('intermittent', 'adj', 'C0205267', ['tmco'], 0.0)||('itraconazole', 'noun', 'C0064113', ['orch', 'phsu'], 0.0)||('.', '', '', '', 0.0)||
