('the', '', '', '', 0.0)||('incidence', 'noun', 'C0021149', ['qnco'], 0.0)||('of', '', '', '', 0.0)||('sudden infant death syndrome', 'noun', 'C0038644', ['dsyn'], 0.0)||('has', '', '', '', 0.0)||('been', '', '', '', 0.0)||('falling', 'verb', 'C0085639', ['fndg'], 0.0)||('in', '', '', '', 0.0)||('germany', 'noun', 'C0017480', ['geoa'], 0.0)||('over', '', '', '', 0.0)||('the', '', '', '', 0.0)||('last', '', '', '', 0.0)||('decade', '', '', '', 0.0)||('.', '', '', '', 0.0)||
('however', '', '', '', 0.0)||(',', '', '', '', 0.0)||('little', 'adj', 'C0700321', ['qnco'], 0.0)||('is', '', '', '', 0.0)||('known', 'verb', 'C0205309', ['qlco'], 0.0)||('about', '', '', '', 0.0)||('the', '', '', '', 0.0)||('prevalence', 'noun', 'C0033105', ['qnco'], 0.0)||('and', '', '', '', 0.0)||('the', '', '', '', 0.0)||('importance', '', '', '', 0.0)||('of', '', '', '', 0.0)||('well - known', '', '', '', 0.0)||('risk factors', 'noun', 'C0035648', ['qnco'], 0.0)||('in', '', '', '', 0.0)||('germany', 'noun', 'C0017480', ['geoa'], 0.0)||('since', '', '', '', 0.0)||('a', '', '', '', 0.0)||('local', 'adj', 'C0205276', ['spco'], 0.0)||('prevention', 'noun', 'C0199176', ['topp'], 0.0)||('campaign', '', '', '', 0.0)||('in', '', '', '', 0.0)||('1992', '', '', '', 0.0)||('.', '', '', '', 0.0)||
('a', '', '', '', 0.0)||('3', '', '', '', 0.0)||('-', '', '', '', 0.0)||('y', '', '', '', 0.0)||(',', '', '', '', 0.0)||('population - based', '', '', '', 0.0)||(',', '', '', '', 0.0)||('case - control study', '', '', '', 0.0)||('was', '', '', '', 0.0)||('conducted', '', '', '', 0.0)||('in', '', '', '', 0.0)||('half', '', '', '', 0.0)||('of', '', '', '', 0.0)||('germany', 'noun', 'C0017480', ['geoa'], 0.0)||(',', '', '', '', 0.0)||('consisting', '', '', '', 0.0)||('of', '', '', '', 0.0)||('333', '', '', '', 0.0)||('cases', 'noun', 'C0868928', ['ftcn'], 0.0)||('.', '', '', '', 0.0)||
('all', '', '', '', 0.0)||('sudden', 'adj', 'C1276802', ['qlco'], 0.0)||('and', '', '', '', 0.0)||('unexpected', '', '', '', 0.0)||('deaths', 'noun', 'C1306577', ['fndg'], 0.0)||('in', '', '', '', 0.0)||('infancy', 'noun', 'C0231330', ['tmco'], 0.0)||(',', '', '', '', 0.0)||('if', '', '', '', 0.0)||('they', '', '', '', 0.0)||('fitted', '', '', '', 0.0)||('the', '', '', '', 0.0)||('inclusion', 'noun', 'C1512693', ['qlco'], 0.0)||('criteria', 'noun', 'C0243161', ['inpr'], 0.0)||(',', '', '', '', 0.0)||('were', '', '', '', 0.0)||('included', '', '', '', 0.0)||('in', '', '', '', 0.0)||('the', '', '', '', 0.0)||('study', 'noun', 'C0008976', ['resa'], 0.0)||('.', '', '', '', 0.0)||
('parental', 'adj', 'C0030551', ['famg'], 0.0)||('interview', 'noun', 'C0021822', ['acty'], 0.0)||('was', '', '', '', 0.0)||('carried', '', '', '', 0.0)||('out', '', '', '', 0.0)||('soon', '', '', '', 0.0)||('after', '', '', '', 0.0)||('the', '', '', '', 0.0)||('death', 'noun', 'C0011065', ['orgf'], 0.0)||(',', '', '', '', 0.0)||('and', '', '', '', 0.0)||('three', '', 'C0205449', ['qnco'], 0.0)||('living', 'adj', 'C0376558', ['idcn'], 0.0)||('control', 'noun', 'C0243148', ['qlco'], 0.0)||('infants', 'noun', 'C0021270', ['aggp'], 0.0)||(',', '', '', '', 0.0)||('matched', 'verb', 'C1708943', ['qlco'], 0.0)||('for', '', '', '', 0.0)||('age', 'noun', 'C0001779', ['orga'], 0.0)||(',', '', '', '', 0.0)||('gender', 'noun', 'C0079399', ['orga'], 0.0)||(',', '', '', '', 0.0)||('region', 'noun', 'C0017446', ['geoa'], 0.0)||('and', '', '', '', 0.0)||('sleep', 'noun', 'C0037313', ['orgf'], 0.0)||('time', 'noun', 'C0040223', ['tmco'], 0.0)||(',', '', '', '', 0.0)||('were', '', '', '', 0.0)||('recruited', '', '', '', 0.0)||('.', '', '', '', 0.0)||
('the', '', '', '', 0.0)||('prevalence', 'noun', 'C0033105', ['qnco'], 0.0)||('of', '', '', '', 0.0)||('placing', '', '', '', 0.0)||('infants', 'noun', 'C0021270', ['aggp'], 0.0)||('prone', 'adj', 'C0033422', ['spco'], 0.0)||('to', '', '', '', 0.0)||('sleep', 'verb', 'C0037313', ['orgf'], 0.0)||('was', '', '', '', 0.0)||('only', '', '', '', 0.0)||('4 %', '', '', '', 0.0)||('in', '', '', '', 0.0)||('the', '', '', '', 0.0)||('control group', 'noun', 'C0009932', ['grup'], 0.0)||(',', '', '', '', 0.0)||('but', '', '', '', 0.0)||('this', '', '', '', 0.0)||('was', '', '', '', 0.0)||('associated', 'verb', 'C0332281', ['qlco'], 0.0)||('with', '', '', '', 0.0)||('a', '', '', '', 0.0)||('markedly', 'adv', 'C0522501', ['qlco'], 0.0)||('increased risk', '', '', '', 0.0)||('of', '', '', '', 0.0)||('sudden infant death syndrome', 'noun', 'C0038644', ['dsyn'], 0.0)||('(', '', '', '', 0.0)||('adjusted', 'adj', 'C0456081', ['ftcn'], 0.0)||('odds', '', '', '', 0.0)||('ration', '', '', '', 0.0)||(',', '', '', '', 0.0)||('aor', 'noun', 'C2247186', ['moft'], 0.0)||('=', '', '', '', 0.0)||('6 . 08', '', '', '', 0.0)||(')', '', '', '', 0.0)||('.', '', '', '', 0.0)||
('other', '', '', '', 0.0)||('modifiable', '', '', '', 0.0)||('risk factors', 'noun', 'C0035648', ['qnco'], 0.0)||('for', '', '', '', 0.0)||('sudden infant death syndrome', 'noun', 'C0038644', ['dsyn'], 0.0)||('were', '', '', '', 0.0)||(':', '', '', '', 0.0)||('maternal', 'adj', 'C1858460', ['clna'], 0.0)||('smoking', 'noun', 'C0037369', ['inbe'], 0.0)||('during', '', '', '', 0.0)||('pregnancy', 'noun', 'C0032961', ['orgf'], 0.0)||(',', '', '', '', 0.0)||('breastfeeding', 'verb', 'C0006147', ['orgf'], 0.0)||('for', '', '', '', 0.0)||('less', '', '', '', 0.0)||('than', '', '', '', 0.0)||('2', '', '', '', 0.0)||('wk', 'noun', 'C0439230', ['tmco'], 0.0)||('(', '', '', '', 0.0)||('aor', 'noun', 'C2247186', ['moft'], 0.0)||('=', '', '', '', 0.0)||('1 . 71', '', '', '', 0.0)||(')', '', '', '', 0.0)||('and', '', '', '', 0.0)||('co - sleeping', '', '', '', 0.0)||('(', '', '', '', 0.0)||('aor', 'noun', 'C2247186', ['moft'], 0.0)||('=', '', '', '', 0.0)||('2 . 71', '', '', '', 0.0)||(')', '', '', '', 0.0)||(',', '', '', '', 0.0)||('while', '', '', '', 0.0)||('using', 'verb', 'C1524063', ['ftcn'], 0.0)||('a', '', '', '', 0.0)||('pacifier', 'noun', 'C0030172', ['mnob'], 0.0)||('during', '', '', '', 0.0)||('the', '', '', '', 0.0)||('last', '', '', '', 0.0)||('sleep', 'noun', 'C0037313', ['orgf'], 0.0)||('reduced', 'verb', 'C0392756', ['qlco'], 0.0)||('the', '', '', '', 0.0)||('risk', 'noun', 'C0035647', ['qlco'], 0.0)||('(', '', '', '', 0.0)||('aor', 'noun', 'C2247186', ['moft'], 0.0)||('=', '', '', '', 0.0)||('0 . 39', '', '', '', 0.0)||(')', '', '', '', 0.0)||('.', '', '', '', 0.0)||
('previously', '', '', '', 0.0)||('recognized', '', '', '', 0.0)||('risk factors', 'noun', 'C0035648', ['qnco'], 0.0)||('for', '', '', '', 0.0)||('sudden infant death syndrome', 'noun', 'C0038644', ['dsyn'], 0.0)||('also', '', '', '', 0.0)||('occur', 'verb', 'C1709305', ['cnce'], 0.0)||('in', '', '', '', 0.0)||('germany', 'noun', 'C0017480', ['geoa'], 0.0)||('.', '', '', '', 0.0)||
('despite', '', '', '', 0.0)||('knowledge', 'noun', 'C0376554', ['inpr'], 0.0)||('about', '', '', '', 0.0)||('the', '', '', '', 0.0)||('major', 'adj', 'C0205164', ['qlco'], 0.0)||('modifiable', '', '', '', 0.0)||('risk factors', 'noun', 'C0035648', ['qnco'], 0.0)||('for', '', '', '', 0.0)||('sudden infant death syndrome', 'noun', 'C0038644', ['dsyn'], 0.0)||(',', '', '', '', 0.0)||('these', '', '', '', 0.0)||('factors', '', '', '', 0.0)||('are', '', '', '', 0.0)||('still', '', '', '', 0.0)||('present', 'verb', 'C0150312', ['qnco'], 0.0)||('in', '', '', '', 0.0)||('germany', 'noun', 'C0017480', ['geoa'], 0.0)||('.', '', '', '', 0.0)||
('to', '', '', '', 0.0)||('reduce', '', '', '', 0.0)||('the', '', '', '', 0.0)||('incidence', 'noun', 'C0021149', ['qnco'], 0.0)||('of', '', '', '', 0.0)||('sudden infant death syndrome', 'noun', 'C0038644', ['dsyn'], 0.0)||('in', '', '', '', 0.0)||('germany', 'noun', 'C0017480', ['geoa'], 0.0)||(',', '', '', '', 0.0)||('a', '', '', '', 0.0)||('continued', 'adj', 'C0549178', ['idcn'], 0.0)||('effort', 'noun', 'C0015264', ['orgf'], 0.0)||('is', '', '', '', 0.0)||('needed', 'verb', 'C0027552', ['qlco'], 0.0)||('to', '', '', '', 0.0)||('inform', 'verb', 'C0537670', ['aapp', 'imft', 'phsu'], 0.0)||('all', '', '', '', 0.0)||('parents', 'noun', 'C0030551', ['famg'], 0.0)||('about', '', '', '', 0.0)||('preventable', 'adj', 'C1547273', ['inpr'], 0.0)||('risk factors', 'noun', 'C0035648', ['qnco'], 0.0)||('for', '', '', '', 0.0)||('sudden infant death syndrome', 'noun', 'C0038644', ['dsyn'], 0.0)||('.', '', '', '', 0.0)||
