('successful', 'adj', 'C1272703', ['qlco'], 0.0)||('treatment', 'noun', 'C0039798', ['ftcn'], 0.0)||('of', '', '', '', 0.0)||('avulsion fractures', '', '', '', 0.0)||('of', '', '', '', 0.0)||('the', '', '', '', 0.0)||('base', 'noun', 'C0178499', ['chvf'], 0.0)||('of', '', '', '', 0.0)||('the', '', '', '', 0.0)||('fifth', 'adj', 'C0205439', ['qnco'], 0.0)||('metatarsal', 'adj', 'C0025584', ['bpoc'], 0.0)||('has', '', '', '', 0.0)||('been', '', '', '', 0.0)||('achieved', '', '', '', 0.0)||('using', 'verb', 'C1524063', ['ftcn'], 0.0)||('both', '', '', '', 0.0)||('short leg', 'noun', 'C0426901', ['fndg'], 0.0)||('casts', 'verb', 'C0179686', ['medd'], 0.0)||('and', '', '', '', 0.0)||('soft', 'adj', 'C0205358', ['qlco'], 0.0)||('(', '', '', '', 0.0)||('jones', 'noun', 'C0443013', ['inpr'], 0.0)||(')', '', '', '', 0.0)||('dressings', 'noun', 'C0013119', ['medd'], 0.0)||('.', '', '', '', 0.0)||
('sixty', '', '', '', 0.0)||('patients', 'noun', 'C0030705', ['podg'], 0.0)||('who', '', '', '', 0.0)||('presented', 'verb', 'C0449450', ['idcn'], 0.0)||('to', '', '', '', 0.0)||('our', '', '', '', 0.0)||('institution', 'noun', 'C0018704', ['hcro', 'mnob'], 0.0)||('were', '', '', '', 0.0)||('prospectively', '', '', '', 0.0)||('randomized', 'verb', 'C0034656', ['resa'], 0.0)||('to', '', '', '', 0.0)||('be', '', '', '', 0.0)||('treated', 'verb', 'C1522326', ['ftcn'], 0.0)||('with', '', '', '', 0.0)||('either', '', '', '', 0.0)||('a', '', '', '', 0.0)||('short leg', 'noun', 'C0426901', ['fndg'], 0.0)||('cast', 'verb', 'C0179686', ['medd'], 0.0)||('or', '', '', '', 0.0)||('a', '', '', '', 0.0)||('soft', 'adj', 'C0205358', ['qlco'], 0.0)||('(', '', '', '', 0.0)||('jones', 'noun', 'C0443013', ['inpr'], 0.0)||(')', '', '', '', 0.0)||('dressing', 'verb', 'C0013119', ['medd'], 0.0)||('for', '', '', '', 0.0)||('the', '', '', '', 0.0)||('purpose', 'noun', 'C1285529', ['ftcn'], 0.0)||('of', '', '', '', 0.0)||('assessing', 'noun', 'C1516048', ['acty'], 0.0)||('the', '', '', '', 0.0)||('efficacy', 'noun', 'C1707887', ['resa'], 0.0)||('of', '', '', '', 0.0)||('each', '', '', '', 0.0)||('treatment', 'noun', 'C0039798', ['ftcn'], 0.0)||('modality', 'noun', 'C0695347', ['idcn'], 0.0)||('.', '', '', '', 0.0)||
('our', '', '', '', 0.0)||('results', 'noun', 'C1274040', ['ftcn'], 0.0)||('demonstrated', '', '', '', 0.0)||('that', '', '', '', 0.0)||('radiographic evidence', '', '', '', 0.0)||('of', '', '', '', 0.0)||('fracture', 'noun', 'C0016658', ['inpo'], 0.0)||('healing', 'noun', 'C0043240', ['orgf'], 0.0)||('was', '', '', '', 0.0)||('present', 'adj', 'C0150312', ['qnco'], 0.0)||('in', '', '', '', 0.0)||('all', '', '', '', 0.0)||('patients', 'noun', 'C0030705', ['podg'], 0.0)||('by', '', '', '', 0.0)||('65', '', '', '', 0.0)||('days', 'noun', 'C0439228', ['tmco'], 0.0)||('with', '', '', '', 0.0)||('44', '', '', '', 0.0)||('days', 'noun', 'C0439228', ['tmco'], 0.0)||('representing', '', '', '', 0.0)||('the', '', '', '', 0.0)||('average', 'adj', 'C1510992', ['qnco'], 0.0)||('elapsed time', '', '', '', 0.0)||('for', '', '', '', 0.0)||('such', '', '', '', 0.0)||('change', 'noun', 'C0392747', ['ftcn'], 0.0)||('.', '', '', '', 0.0)||
('all', '', '', '', 0.0)||('patients', 'noun', 'C0030705', ['podg'], 0.0)||('returned', '', '', '', 0.0)||('to', '', '', '', 0.0)||('full', 'adj', 'C0443225', ['qlco'], 0.0)||('weightbearing', 'noun', 'C1318107', ['orga'], 0.0)||('and', '', '', '', 0.0)||('full', 'adj', 'C0443225', ['qlco'], 0.0)||('physical', 'adj', 'C0031809', ['hlca'], 0.0)||('activity', 'noun', 'C0441655', ['acty'], 0.0)||('within', '', '', '', 0.0)||('96', '', '', '', 0.0)||('days', 'noun', 'C0439228', ['tmco'], 0.0)||('.', '', '', '', 0.0)||
('significantly', '', '', '', 0.0)||(',', '', '', '', 0.0)||('the', '', '', '', 0.0)||('average', 'adj', 'C1510992', ['qnco'], 0.0)||('length', 'noun', 'C1444754', ['qnco'], 0.0)||('of', '', '', '', 0.0)||('recuperation', '', '', '', 0.0)||('for', '', '', '', 0.0)||('patients', 'noun', 'C0030705', ['podg'], 0.0)||('treated', 'verb', 'C1522326', ['ftcn'], 0.0)||('with', '', '', '', 0.0)||('a', '', '', '', 0.0)||('soft', 'adj', 'C0205358', ['qlco'], 0.0)||('(', '', '', '', 0.0)||('jones', 'noun', 'C0443013', ['inpr'], 0.0)||(')', '', '', '', 0.0)||('dressing', 'verb', 'C0013119', ['medd'], 0.0)||('was', '', '', '', 0.0)||('33', '', '', '', 0.0)||('days', 'noun', 'C0439228', ['tmco'], 0.0)||('as', '', '', '', 0.0)||('compared', 'verb', 'C1707455', ['acty'], 0.0)||('to', '', '', '', 0.0)||('46', '', '', '', 0.0)||('days', 'noun', 'C0439228', ['tmco'], 0.0)||('for', '', '', '', 0.0)||('those', '', '', '', 0.0)||('treated', 'verb', 'C1522326', ['ftcn'], 0.0)||('with', '', '', '', 0.0)||('a', '', '', '', 0.0)||('short leg', 'noun', 'C0426901', ['fndg'], 0.0)||('cast', 'verb', 'C0179686', ['medd'], 0.0)||('.', '', '', '', 0.0)||
('also', '', '', '', 0.0)||(',', '', '', '', 0.0)||('the', '', '', '', 0.0)||('average', 'adj', 'C1510992', ['qnco'], 0.0)||('modified', 'adj', 'C0205349', ['ftcn'], 0.0)||('foot', 'noun', 'C0016504', ['bpoc'], 0.0)||('score', 'noun', 'C0449820', ['qnco'], 0.0)||('for', '', '', '', 0.0)||('patients', 'noun', 'C0030705', ['podg'], 0.0)||('treated', 'verb', 'C1522326', ['ftcn'], 0.0)||('in', '', '', '', 0.0)||('a', '', '', '', 0.0)||('soft', 'adj', 'C0205358', ['qlco'], 0.0)||('dressing', 'noun', 'C0013119', ['medd'], 0.0)||('was', '', '', '', 0.0)||('92', '', '', '', 0.0)||('(', '', '', '', 0.0)||('excellent', 'adj', 'C1548784', ['qlco'], 0.0)||(')', '', '', '', 0.0)||('compared', 'verb', 'C1707455', ['acty'], 0.0)||('to', '', '', '', 0.0)||('86', '', '', '', 0.0)||('(', '', '', '', 0.0)||('good', 'adj', 'C0205170', ['qlco'], 0.0)||(')', '', '', '', 0.0)||('for', '', '', '', 0.0)||('patients', 'noun', 'C0030705', ['podg'], 0.0)||('treated', 'verb', 'C1522326', ['ftcn'], 0.0)||('in', '', '', '', 0.0)||('a', '', '', '', 0.0)||('short leg', 'noun', 'C0426901', ['fndg'], 0.0)||('cast', 'verb', 'C0179686', ['medd'], 0.0)||('.', '', '', '', 0.0)||
('we', '', '', '', 0.0)||('conclude', 'verb', 'C0917903', ['bodm', 'orch'], 0.0)||('that', '', '', '', 0.0)||('a', '', '', '', 0.0)||('soft', 'adj', 'C0205358', ['qlco'], 0.0)||('dressing', 'noun', 'C0013119', ['medd'], 0.0)||('allows', '', '', '', 0.0)||('patients', 'noun', 'C0030705', ['podg'], 0.0)||('to', '', '', '', 0.0)||('return', 'verb', 'C0332156', ['qlco'], 0.0)||('to', '', '', '', 0.0)||('pre - injury', '', '', '', 0.0)||('levels', 'noun', 'C0441889', ['qlco'], 0.0)||('of', '', '', '', 0.0)||('activity', 'noun', 'C0441655', ['acty'], 0.0)||('faster', '', '', '', 0.0)||('than', '', '', '', 0.0)||('when', '', '', '', 0.0)||('treated', 'verb', 'C1522326', ['ftcn'], 0.0)||('in', '', '', '', 0.0)||('a', '', '', '', 0.0)||('short leg', 'noun', 'C0426901', ['fndg'], 0.0)||('cast', 'verb', 'C0179686', ['medd'], 0.0)||('and', '', '', '', 0.0)||('without', '', '', '', 0.0)||('compromising', '', '', '', 0.0)||('clinical', 'adj', 'C0205210', ['qlco'], 0.0)||('or', '', '', '', 0.0)||('radiographic', 'adj', 'C0444708', ['npop'], 0.0)||('union', '', '', '', 0.0)||('of', '', '', '', 0.0)||('avulsion fractures', '', '', '', 0.0)||('of', '', '', '', 0.0)||('the', '', '', '', 0.0)||('base', 'noun', 'C0178499', ['chvf'], 0.0)||('of', '', '', '', 0.0)||('the', '', '', '', 0.0)||('fifth', 'adj', 'C0205439', ['qnco'], 0.0)||('metatarsal', 'adj', 'C0025584', ['bpoc'], 0.0)||('.', '', '', '', 0.0)||
