('previous', 'adj', 'C0205156', ['tmco'], 0.0)||('studies', '', '', '', 0.0)||('suggest', 'verb', 'C1705535', ['idcn'], 0.0)||('that', '', '', '', 0.0)||('elective', 'adj', 'C0439608', ['tmco'], 0.0)||('colectomy', 'noun', 'C0009274', ['topp'], 0.0)||('is', '', '', '', 0.0)||('often', 'adv', 'C0332183', ['tmco'], 0.0)||('required', 'verb', 'C1514873', ['ftcn'], 0.0)||('after', '', '', '', 0.0)||('an', '', '', '', 0.0)||('episode', '', '', '', 0.0)||('of', '', '', '', 0.0)||('acute', 'adj', 'C0205178', ['tmco'], 0.0)||('diverticulitis', 'noun', 'C0012813', ['dsyn'], 0.0)||('.', '', '', '', 0.0)||
('acute', 'adj', 'C0205178', ['tmco'], 0.0)||('diverticulitis', 'noun', 'C0012813', ['dsyn'], 0.0)||('initially', 'adv', 'C0205265', ['tmco'], 0.0)||('treated', 'verb', 'C1522326', ['ftcn'], 0.0)||('nonoperatively', '', '', '', 0.0)||('does', '', '', '', 0.0)||('not', 'adv', 'C1518422', ['ftcn'], 0.0)||('require', '', '', '', 0.0)||('elective', 'adj', 'C0439608', ['tmco'], 0.0)||('colectomy', 'noun', 'C0009274', ['topp'], 0.0)||('.', '', '', '', 0.0)||
('retrospective cohort study', '', '', '', 0.0)||('.', '', '', '', 0.0)||
('twelve', '', 'C0205458', ['qnco'], 0.0)||('kaiser', '', '', '', 0.0)||('permanente', '', '', '', 0.0)||('hospitals', 'noun', 'C0019994', ['hcro', 'mnob'], 0.0)||('in', '', '', '', 0.0)||('southern', 'adj', 'C1710133', ['spco'], 0.0)||('california', 'noun', 'C0006754', ['geoa'], 0.0)||('.', '', '', '', 0.0)||
('three thousand one hundred', '', '', '', 0.0)||('sixty', '', '', '', 0.0)||('-', '', '', '', 0.0)||('five', '', 'C0205451', ['qnco'], 0.0)||('patients', 'noun', 'C0030705', ['podg'], 0.0)||('with', '', '', '', 0.0)||('acute', 'adj', 'C0205178', ['tmco'], 0.0)||('diverticulitis', 'noun', 'C0012813', ['dsyn'], 0.0)||('.', '', '', '', 0.0)||
('colectomy', 'noun', 'C0009274', ['topp'], 0.0)||('or', '', '', '', 0.0)||('nonoperative', '', '', '', 0.0)||('treatment', 'noun', 'C0039798', ['ftcn'], 0.0)||('with', '', '', '', 0.0)||('or', '', '', '', 0.0)||('without', '', '', '', 0.0)||('percutaneous', 'adj', 'C0522523', ['spco'], 0.0)||('abscess', 'noun', 'C0000833', ['patf'], 0.0)||('drainage', 'noun', 'C0012621', ['bdsu'], 0.0)||('.', '', '', '', 0.0)||
('recurrent', 'adj', 'C0034897', ['phpr'], 0.0)||('diverticulitis', 'noun', 'C0012813', ['dsyn'], 0.0)||('.', '', '', '', 0.0)||
('emergency', 'noun', 'C0013956', ['phpr'], 0.0)||('colectomy', 'noun', 'C0009274', ['topp'], 0.0)||('was', '', '', '', 0.0)||('performed', 'verb', 'C0884358', ['ftcn'], 0.0)||('in', '', '', '', 0.0)||('614', '', '', '', 0.0)||('patients', 'noun', 'C0030705', ['podg'], 0.0)||('(', '', '', '', 0.0)||('19 . 4 %', '', '', '', 0.0)||(')', '', '', '', 0.0)||('.', '', '', '', 0.0)||
('nonoperative', '', '', '', 0.0)||('treatment', 'noun', 'C0039798', ['ftcn'], 0.0)||('was', '', '', '', 0.0)||('initially', 'adv', 'C0205265', ['tmco'], 0.0)||('used', '', '', '', 0.0)||('in', '', '', '', 0.0)||('2551', '', '', '', 0.0)||('patients', 'noun', 'C0030705', ['podg'], 0.0)||('(', '', '', '', 0.0)||('80 . 6 %', '', '', '', 0.0)||(')', '', '', '', 0.0)||('.', '', '', '', 0.0)||
('of', '', '', '', 0.0)||('these', '', '', '', 0.0)||(',', '', '', '', 0.0)||('185', '', '', '', 0.0)||('patients', 'noun', 'C0030705', ['podg'], 0.0)||('(', '', '', '', 0.0)||('7 . 3 %', '', '', '', 0.0)||(')', '', '', '', 0.0)||('had', '', '', '', 0.0)||('an', '', '', '', 0.0)||('elective', 'adj', 'C0439608', ['tmco'], 0.0)||('colectomy', 'noun', 'C0009274', ['topp'], 0.0)||('and', '', '', '', 0.0)||('the', '', '', '', 0.0)||('remaining', 'adj', 'C1527428', ['qlco'], 0.0)||('2366', '', '', '', 0.0)||('patients', 'noun', 'C0030705', ['podg'], 0.0)||('(', '', '', '', 0.0)||('92 . 7 %', '', '', '', 0.0)||(')', '', '', '', 0.0)||('did', '', '', '', 0.0)||('not', 'adv', 'C1518422', ['ftcn'], 0.0)||('.', '', '', '', 0.0)||
('factors', '', '', '', 0.0)||('associated', 'verb', 'C0332281', ['qlco'], 0.0)||('with', '', '', '', 0.0)||('undergoing', '', '', '', 0.0)||('elective', 'adj', 'C0439608', ['tmco'], 0.0)||('colectomy', 'noun', 'C0009274', ['topp'], 0.0)||('compared', 'verb', 'C1707455', ['acty'], 0.0)||('with', '', '', '', 0.0)||('nonoperative', '', '', '', 0.0)||('treatment', 'noun', 'C0039798', ['ftcn'], 0.0)||('were', '', '', '', 0.0)||('younger', '', '', '', 0.0)||('age', 'noun', 'C0001779', ['orga'], 0.0)||('of', '', '', '', 0.0)||('the', '', '', '', 0.0)||('patient', '', '', '', 0.0)||(',', '', '', '', 0.0)||('fewer', '', '', '', 0.0)||('comorbidities', 'noun', 'C0009488', ['idcn'], 0.0)||(',', '', '', '', 0.0)||('and', '', '', '', 0.0)||('percutaneous', 'adj', 'C0522523', ['spco'], 0.0)||('abscess', 'noun', 'C0000833', ['patf'], 0.0)||('drainage', 'noun', 'C0012621', ['bdsu'], 0.0)||('.', '', '', '', 0.0)||
('mean', 'noun', 'C0444504', ['qnco'], 0.0)||('follow - up', '', '', '', 0.0)||('was', '', '', '', 0.0)||('8 . 9', '', '', '', 0.0)||('years', 'noun', 'C0439234', ['tmco'], 0.0)||(',', '', '', '', 0.0)||('with', '', '', '', 0.0)||('a', '', '', '', 0.0)||('maximum', 'noun', 'C0806909', ['qnco'], 0.0)||('of', '', '', '', 0.0)||('12', '', '', '', 0.0)||('years', 'noun', 'C0439234', ['tmco'], 0.0)||('.', '', '', '', 0.0)||
('after', '', '', '', 0.0)||('nonoperative', '', '', '', 0.0)||('treatment', 'noun', 'C0039798', ['ftcn'], 0.0)||(',', '', '', '', 0.0)||('314', '', '', '', 0.0)||('patients', 'noun', 'C0030705', ['podg'], 0.0)||('(', '', '', '', 0.0)||('13 . 3 %', '', '', '', 0.0)||(')', '', '', '', 0.0)||('recurred', '', '', '', 0.0)||('-', '', '', '', 0.0)||('222', '', '', '', 0.0)||('patients', 'noun', 'C0030705', ['podg'], 0.0)||('had', '', '', '', 0.0)||('a', '', '', '', 0.0)||('single', 'adj', 'C0037179', ['popg'], 0.0)||('recurrence', 'noun', 'C0034897', ['phpr'], 0.0)||('and', '', '', '', 0.0)||('92', '', '', '', 0.0)||('patients', 'noun', 'C0030705', ['podg'], 0.0)||('had', '', '', '', 0.0)||('a', '', '', '', 0.0)||('rerecurrence', '', '', '', 0.0)||('.', '', '', '', 0.0)||
('after', '', '', '', 0.0)||('adjusting', 'noun', 'C0456081', ['ftcn'], 0.0)||('for', '', '', '', 0.0)||('other', '', '', '', 0.0)||('variables', '', '', '', 0.0)||(',', '', '', '', 0.0)||('older', '', '', '', 0.0)||('age', 'noun', 'C0001779', ['orga'], 0.0)||('(', '', '', '', 0.0)||('hazard ratio', '', '', '', 0.0)||(',', '', '', '', 0.0)||('>', '', '', '', 0.0)||('/', '', '', '', 0.0)||('=', '', '', '', 0.0)||('50', '', '', '', 0.0)||('years', 'noun', 'C0439234', ['tmco'], 0.0)||('vs <', '', '', '', 0.0)||('50', '', '', '', 0.0)||('years', 'noun', 'C0439234', ['tmco'], 0.0)||('=', '', '', '', 0.0)||('0 . 68', '', '', '', 0.0)||(';', '', '', '', 0.0)||('95 %', '', '', '', 0.0)||('confidence interval', 'noun', 'C0009667', ['qnco'], 0.0)||(',', '', '', '', 0.0)||('0 . 53', '', '', '', 0.0)||('-', '', '', '', 0.0)||('0 . 87', '', '', '', 0.0)||(')', '', '', '', 0.0)||('was', '', '', '', 0.0)||('associated', 'verb', 'C0332281', ['qlco'], 0.0)||('with', '', '', '', 0.0)||('a', '', '', '', 0.0)||('lower', 'adj', 'C0441994', ['ftcn'], 0.0)||('recurrence', 'noun', 'C0034897', ['phpr'], 0.0)||(',', '', '', '', 0.0)||('whereas', '', '', '', 0.0)||('higher', '', '', '', 0.0)||('comorbidity', 'noun', 'C0009488', ['idcn'], 0.0)||('was', '', '', '', 0.0)||('associated', 'verb', 'C0332281', ['qlco'], 0.0)||('with', '', '', '', 0.0)||('higher', '', '', '', 0.0)||('recurrence', 'noun', 'C0034897', ['phpr'], 0.0)||('.', '', '', '', 0.0)||
('gender', 'noun', 'C0079399', ['orga'], 0.0)||('and', '', '', '', 0.0)||('percutaneous', 'adj', 'C0522523', ['spco'], 0.0)||('abscess', 'noun', 'C0000833', ['patf'], 0.0)||('drainage', 'noun', 'C0012621', ['bdsu'], 0.0)||('had', '', '', '', 0.0)||('no', '', '', '', 0.0)||('influence', '', '', '', 0.0)||('on', '', '', '', 0.0)||('recurrence', 'noun', 'C0034897', ['phpr'], 0.0)||('.', '', '', '', 0.0)||
('all', '', '', '', 0.0)||('92', '', '', '', 0.0)||('rerecurrences', '', '', '', 0.0)||('were', '', '', '', 0.0)||('treated', 'verb', 'C1522326', ['ftcn'], 0.0)||('nonoperatively', '', '', '', 0.0)||('.', '', '', '', 0.0)||
('the', '', '', '', 0.0)||('risk', 'noun', 'C0035647', ['qlco'], 0.0)||('of', '', '', '', 0.0)||('a', '', '', '', 0.0)||('rerecurrence', '', '', '', 0.0)||('(', '', '', '', 0.0)||('29 . 3 %', '', '', '', 0.0)||(')', '', '', '', 0.0)||('was', '', '', '', 0.0)||('significantly', '', '', '', 0.0)||('higher', '', '', '', 0.0)||('than', '', '', '', 0.0)||('a', '', '', '', 0.0)||('first', 'adj', 'C0205435', ['qnco'], 0.0)||('recurrence', 'noun', 'C0034897', ['phpr'], 0.0)||('(', '', '', '', 0.0)||('p', '', '', '', 0.0)||('<', '', '', '', 0.0)||('.', '', '', '', 0.0)||('001', '', '', '', 0.0)||(')', '', '', '', 0.0)||('.', '', '', '', 0.0)||
('age', 'noun', 'C0001779', ['orga'], 0.0)||(',', '', '', '', 0.0)||('gender', 'noun', 'C0079399', ['orga'], 0.0)||(',', '', '', '', 0.0)||('charlson comorbidity index', '', '', '', 0.0)||(',', '', '', '', 0.0)||('and', '', '', '', 0.0)||('percutaneous', 'adj', 'C0522523', ['spco'], 0.0)||('abscess', 'noun', 'C0000833', ['patf'], 0.0)||('drainage', 'noun', 'C0012621', ['bdsu'], 0.0)||('did', '', '', '', 0.0)||('not', 'adv', 'C1518422', ['ftcn'], 0.0)||('predict', '', '', '', 0.0)||('rerecurrence', '', '', '', 0.0)||('.', '', '', '', 0.0)||
('very', 'adv', 'C0442824', ['qlco'], 0.0)||('few', '', '', '', 0.0)||('patients', 'noun', 'C0030705', ['podg'], 0.0)||('with', '', '', '', 0.0)||('acute', 'adj', 'C0205178', ['tmco'], 0.0)||('diverticulitis', 'noun', 'C0012813', ['dsyn'], 0.0)||('treated', 'verb', 'C1522326', ['ftcn'], 0.0)||('nonoperatively', '', '', '', 0.0)||('have', '', '', '', 0.0)||('recurrence', 'noun', 'C0034897', ['phpr'], 0.0)||('.', '', '', '', 0.0)||
('younger', '', '', '', 0.0)||('age', 'noun', 'C0001779', ['orga'], 0.0)||('was', '', '', '', 0.0)||('associated', 'verb', 'C0332281', ['qlco'], 0.0)||('with', '', '', '', 0.0)||('recurrence', 'noun', 'C0034897', ['phpr'], 0.0)||('.', '', '', '', 0.0)||
('a', '', '', '', 0.0)||('first', 'adj', 'C0205435', ['qnco'], 0.0)||('recurrence', 'noun', 'C0034897', ['phpr'], 0.0)||('was', '', '', '', 0.0)||('the', '', '', '', 0.0)||('only', '', '', '', 0.0)||('factor', 'noun', 'C1521761', ['ftcn'], 0.0)||('that', '', '', '', 0.0)||('predicted', 'adj', 'C0681842', ['idcn'], 0.0)||('rerecurrences', '', '', '', 0.0)||('.', '', '', '', 0.0)||
('the', '', '', '', 0.0)||('low', 'adj', 'C0205251', ['qlco'], 0.0)||('recurrence rate', '', '', '', 0.0)||('argues', '', '', '', 0.0)||('against', '', '', '', 0.0)||('routine', 'adj', 'C0205547', ['qlco'], 0.0)||('elective', 'adj', 'C0439608', ['tmco'], 0.0)||('colectomy', 'noun', 'C0009274', ['topp'], 0.0)||('after', '', '', '', 0.0)||('successful', 'adj', 'C1272703', ['qlco'], 0.0)||('nonoperative', '', '', '', 0.0)||('management', 'noun', 'C0001554', ['ocac'], 0.0)||('of', '', '', '', 0.0)||('acute', 'adj', 'C0205178', ['tmco'], 0.0)||('diverticulitis', 'noun', 'C0012813', ['dsyn'], 0.0)||('.', '', '', '', 0.0)||
