('management', 'noun', 'C0001554', ['ocac'], 0.0)||('of', '', '', '', 0.0)||('acne vulgaris', 'noun', 'C0001144', ['dsyn'], 0.0)||('by', '', '', '', 0.0)||('nondermatologists', '', '', '', 0.0)||('is', '', '', '', 0.0)||('increasing', 'verb', 'C0442808', ['ftcn'], 0.0)||('.', '', '', '', 0.0)||
('current', 'adj', 'C0521116', ['tmco'], 0.0)||('understanding', 'noun', 'C0162340', ['menp'], 0.0)||('of', '', '', '', 0.0)||('the', '', '', '', 0.0)||('different', 'adj', 'C1705242', ['qlco'], 0.0)||('presentations', '', '', '', 0.0)||('of', '', '', '', 0.0)||('acne', 'noun', 'C0001144', ['dsyn'], 0.0)||('allows', '', '', '', 0.0)||('for', '', '', '', 0.0)||('individualized', 'adj', 'C1881197', ['qlco'], 0.0)||('treatments', 'noun', 'C0087111', ['topp'], 0.0)||('and', '', '', '', 0.0)||('improved', 'adj', 'C0184511', ['qlco'], 0.0)||('outcomes', 'noun', 'C0085415', ['qlco'], 0.0)||('.', '', '', '', 0.0)||
('to', '', '', '', 0.0)||('review', 'verb', 'C0282443', ['inpr'], 0.0)||('the', '', '', '', 0.0)||('best', 'adj', 'C1522427', ['qlco'], 0.0)||('evidence', 'noun', 'C0332120', ['ftcn'], 0.0)||('available', 'adj', 'C0470187', ['ftcn'], 0.0)||('for', '', '', '', 0.0)||('individualized', 'adj', 'C1881197', ['qlco'], 0.0)||('treatment', 'noun', 'C0039798', ['ftcn'], 0.0)||('of', '', '', '', 0.0)||('acne', 'noun', 'C0001144', ['dsyn'], 0.0)||('.', '', '', '', 0.0)||
('search', 'noun', 'C1552603', ['idcn'], 0.0)||('of', '', '', '', 0.0)||('medline', 'noun', 'C0025141', ['inpr'], 0.0)||(',', '', '', '', 0.0)||('embase', '', '', '', 0.0)||(',', '', '', '', 0.0)||('and', '', '', '', 0.0)||('the', '', '', '', 0.0)||('cochrane', '', '', '', 0.0)||('database', 'noun', 'C0242356', ['inpr'], 0.0)||('to', '', '', '', 0.0)||('search', 'verb', 'C1552603', ['idcn'], 0.0)||('for', '', '', '', 0.0)||('all', '', '', '', 0.0)||('english', 'noun', 'C1556083', ['popg'], 0.0)||('-', '', '', '', 0.0)||('language', 'noun', 'C0023008', ['lang'], 0.0)||('articles', '', '', '', 0.0)||('on', '', '', '', 0.0)||('acne', 'noun', 'C0001144', ['dsyn'], 0.0)||('treatment', 'noun', 'C0039798', ['ftcn'], 0.0)||('from', '', '', '', 0.0)||('1966', '', '', '', 0.0)||('to', '', '', '', 0.0)||('2004', '', '', '', 0.0)||('.', '', '', '', 0.0)||
('well - designed', '', '', '', 0.0)||('randomized controlled trials', '', '', '', 0.0)||(',', '', '', '', 0.0)||('meta - analyses', '', '', '', 0.0)||(',', '', '', '', 0.0)||('and', '', '', '', 0.0)||('other', '', '', '', 0.0)||('systematic reviews', '', '', '', 0.0)||('are', '', '', '', 0.0)||('the', '', '', '', 0.0)||('focus', 'noun', 'C0205234', ['spco'], 0.0)||('of', '', '', '', 0.0)||('this', '', '', '', 0.0)||('article', 'noun', 'C1706852', ['inpr'], 0.0)||('.', '', '', '', 0.0)||
('acne', 'noun', 'C0001144', ['dsyn'], 0.0)||('literature', 'noun', 'C0023866', ['inpr'], 0.0)||('is', '', '', '', 0.0)||('characterized', 'verb', 'C1880022', ['acty'], 0.0)||('by', '', '', '', 0.0)||('a', '', '', '', 0.0)||('lack', 'noun', 'C0332268', ['qlco'], 0.0)||('of', '', '', '', 0.0)||('standardization', 'noun', 'C0038136', ['resa'], 0.0)||('with', '', '', '', 0.0)||('respect', 'noun', 'C0679133', ['socb'], 0.0)||('to', '', '', '', 0.0)||('outcome', 'noun', 'C1274040', ['ftcn'], 0.0)||('measures', 'noun', 'C0079809', ['qnco'], 0.0)||('and', '', '', '', 0.0)||('methods', 'noun', 'C0025663', ['inpr'], 0.0)||('used', '', '', '', 0.0)||('to', '', '', '', 0.0)||('grade', 'verb', 'C0441800', ['clas'], 0.0)||('disease', 'noun', 'C0012634', ['dsyn'], 0.0)||('severity', 'noun', 'C0439793', ['qlco'], 0.0)||('.', '', '', '', 0.0)||
('main', 'adj', 'C0205225', ['qlco'], 0.0)||('outcome', 'noun', 'C1274040', ['ftcn'], 0.0)||('measures', 'verb', 'C0079809', ['qnco'], 0.0)||('of', '', '', '', 0.0)||('29', '', '', '', 0.0)||('randomized', 'verb', 'C0034656', ['resa'], 0.0)||('double - blind', '', '', '', 0.0)||('trials', '', '', '', 0.0)||('that', '', '', '', 0.0)||('were', '', '', '', 0.0)||('evaluated', 'verb', 'C0220825', ['ftcn'], 0.0)||('included', '', '', '', 0.0)||('reductions', '', '', '', 0.0)||('in', '', '', '', 0.0)||('inflammatory', 'adj', 'C0333348', ['ftcn'], 0.0)||(',', '', '', '', 0.0)||('noninflammatory', 'noun', 'C0442743', ['fndg'], 0.0)||(',', '', '', '', 0.0)||('and', '', '', '', 0.0)||('total', 'adj', 'C0439810', ['qlco'], 0.0)||('acne', 'noun', 'C0001144', ['dsyn'], 0.0)||('lesion', 'noun', 'C0221198', ['fndg'], 0.0)||('counts', 'noun', 'C0439157', ['qnco'], 0.0)||('.', '', '', '', 0.0)||
('topical', 'adj', 'C0205530', ['spco'], 0.0)||('retinoids', 'noun', 'C0035339', ['bacs', 'orch', 'phsu'], 0.0)||('reduce', '', '', '', 0.0)||('the', '', '', '', 0.0)||('number', 'noun', 'C0449788', ['qnco'], 0.0)||('of', '', '', '', 0.0)||('comedones', 'noun', 'C0221228', ['dsyn'], 0.0)||('and', '', '', '', 0.0)||('inflammatory', 'adj', 'C0333348', ['ftcn'], 0.0)||('lesions', 'noun', 'C0221198', ['fndg'], 0.0)||('in', '', '', '', 0.0)||('the', '', '', '', 0.0)||('range', 'noun', 'C1514721', ['qnco'], 0.0)||('of', '', '', '', 0.0)||('40 %', '', '', '', 0.0)||('to', '', '', '', 0.0)||('70 %', '', '', '', 0.0)||('.', '', '', '', 0.0)||
('these', '', '', '', 0.0)||('agents', '', '', '', 0.0)||('are', '', '', '', 0.0)||('the', '', '', '', 0.0)||('mainstay', '', '', '', 0.0)||('of', '', '', '', 0.0)||('therapy', 'noun', 'C0039798', ['ftcn'], 0.0)||('in', '', '', '', 0.0)||('patients', 'noun', 'C0030705', ['podg'], 0.0)||('with', '', '', '', 0.0)||('comedones', 'noun', 'C0221228', ['dsyn'], 0.0)||('only', '', '', '', 0.0)||('.', '', '', '', 0.0)||
('other', '', '', '', 0.0)||('agents', '', '', '', 0.0)||(',', '', '', '', 0.0)||('including', '', '', '', 0.0)||('topical', 'adj', 'C0205530', ['spco'], 0.0)||('antimicrobials', 'noun', 'C1136254', ['phsu'], 0.0)||(',', '', '', '', 0.0)||('oral antibiotics', '', '', '', 0.0)||(',', '', '', '', 0.0)||('hormonal therapy', '', '', '', 0.0)||('(', '', '', '', 0.0)||('in', '', '', '', 0.0)||('women', 'noun', 'C0043210', ['popg'], 0.0)||(')', '', '', '', 0.0)||(',', '', '', '', 0.0)||('and', '', '', '', 0.0)||('isotretinoin', 'adv', 'C0022265', ['orch', 'phsu'], 0.0)||('all', '', '', '', 0.0)||('yield', '', '', '', 0.0)||('high', 'adj', 'C0205250', ['qlco'], 0.0)||('response rates', '', '', '', 0.0)||('.', '', '', '', 0.0)||
('patients', 'noun', 'C0030705', ['podg'], 0.0)||('with', '', '', '', 0.0)||('mild to moderate', 'adj', 'C1299392', ['qlco'], 0.0)||('severity', 'noun', 'C0439793', ['qlco'], 0.0)||('inflammatory', 'adj', 'C0333348', ['ftcn'], 0.0)||('acne', 'noun', 'C0001144', ['dsyn'], 0.0)||('with', '', '', '', 0.0)||('papules', '', '', '', 0.0)||('and', '', '', '', 0.0)||('pustules', 'noun', 'C0241157', ['fndg'], 0.0)||('should', '', '', '', 0.0)||('be', '', '', '', 0.0)||('treated', 'verb', 'C1522326', ['ftcn'], 0.0)||('with', '', '', '', 0.0)||('topical', 'adj', 'C0205530', ['spco'], 0.0)||('antibiotics', 'noun', 'C0003232', ['antb'], 0.0)||('combined', 'verb', 'C0205195', ['qlco'], 0.0)||('with', '', '', '', 0.0)||('retinoids', 'noun', 'C0035339', ['bacs', 'orch', 'phsu'], 0.0)||('.', '', '', '', 0.0)||
('oral antibiotics', '', '', '', 0.0)||('are', '', '', '', 0.0)||('first - line therapy', '', '', '', 0.0)||('in', '', '', '', 0.0)||('patients', 'noun', 'C0030705', ['podg'], 0.0)||('with', '', '', '', 0.0)||('moderate', 'adj', 'C0205081', ['qlco'], 0.0)||('to', '', '', '', 0.0)||('severe', 'adj', 'C0205082', ['qlco'], 0.0)||('inflammatory', 'adj', 'C0333348', ['ftcn'], 0.0)||('acne', 'noun', 'C0001144', ['dsyn'], 0.0)||('while', '', '', '', 0.0)||('oral', 'adj', 'C0442027', ['spco'], 0.0)||('isotretinoin', 'noun', 'C0022265', ['orch', 'phsu'], 0.0)||('is', '', '', '', 0.0)||('indicated', 'verb', 'C1444656', ['fndg'], 0.0)||('for', '', '', '', 0.0)||('severe', 'adj', 'C0205082', ['qlco'], 0.0)||('nodular', 'adj', 'C0205297', ['qlco'], 0.0)||('acne', 'noun', 'C0001144', ['dsyn'], 0.0)||(',', '', '', '', 0.0)||('treatment', 'noun', 'C0039798', ['ftcn'], 0.0)||('failures', '', '', '', 0.0)||(',', '', '', '', 0.0)||('scarring', 'verb', 'C0008767', ['patf'], 0.0)||(',', '', '', '', 0.0)||('frequent', 'adj', 'C0332183', ['tmco'], 0.0)||('relapses', 'noun', 'C0035020', ['phpr'], 0.0)||(',', '', '', '', 0.0)||('or', '', '', '', 0.0)||('in', '', '', '', 0.0)||('cases', 'noun', 'C0868928', ['ftcn'], 0.0)||('of', '', '', '', 0.0)||('severe', 'adj', 'C0205082', ['qlco'], 0.0)||('psychological', 'adj', 'C0205486', ['ftcn'], 0.0)||('distress', 'noun', 'C0231303', ['menp'], 0.0)||('.', '', '', '', 0.0)||
('long - term', '', '', '', 0.0)||('topical', 'adj', 'C0205530', ['spco'], 0.0)||('or', '', '', '', 0.0)||('oral antibiotic', '', '', '', 0.0)||('therapy', 'noun', 'C0039798', ['ftcn'], 0.0)||('should', '', '', '', 0.0)||('be', '', '', '', 0.0)||('avoided', '', '', '', 0.0)||('when', '', '', '', 0.0)||('feasible', '', '', '', 0.0)||('to', '', '', '', 0.0)||('minimize', '', '', '', 0.0)||('occurrence', 'noun', 'C0243132', ['qnco'], 0.0)||('of', '', '', '', 0.0)||('bacterial resistance', 'noun', 'C0151521', ['patf'], 0.0)||('.', '', '', '', 0.0)||
('isotretinoin', 'noun', 'C0022265', ['orch', 'phsu'], 0.0)||('is', '', '', '', 0.0)||('a', '', '', '', 0.0)||('powerful', '', '', '', 0.0)||('teratogen', 'noun', 'C0039536', ['hops'], 0.0)||('mandating', '', '', '', 0.0)||('strict', '', '', '', 0.0)||('precautions', 'noun', 'C1882442', ['cnce'], 0.0)||('for', '', '', '', 0.0)||('use', 'noun', 'C0042153', ['ftcn'], 0.0)||('among', '', '', '', 0.0)||('women', 'noun', 'C0043210', ['popg'], 0.0)||('of', '', '', '', 0.0)||('childbearing', '', '', '', 0.0)||('age', 'noun', 'C0001779', ['orga'], 0.0)||('.', '', '', '', 0.0)||
('acne', 'noun', 'C0001144', ['dsyn'], 0.0)||('responses', 'noun', 'C0871261', ['clna'], 0.0)||('to', '', '', '', 0.0)||('treatment', 'noun', 'C0039798', ['ftcn'], 0.0)||('vary', '', '', '', 0.0)||('considerably', '', '', '', 0.0)||('.', '', '', '', 0.0)||
('frequently', 'adv', 'C0332183', ['tmco'], 0.0)||('more', '', '', '', 0.0)||('than', '', '', '', 0.0)||('1', '', '', '', 0.0)||('treatment', 'noun', 'C0039798', ['ftcn'], 0.0)||('modality', 'noun', 'C0695347', ['idcn'], 0.0)||('is', '', '', '', 0.0)||('used', '', '', '', 0.0)||('concomitantly', '', '', '', 0.0)||('.', '', '', '', 0.0)||
('best', 'adj', 'C1522427', ['qlco'], 0.0)||('results', 'noun', 'C1274040', ['ftcn'], 0.0)||('are', '', '', '', 0.0)||('seen', 'verb', 'C0205397', ['qlco'], 0.0)||('when', '', '', '', 0.0)||('treatments', 'noun', 'C0087111', ['topp'], 0.0)||('are', '', '', '', 0.0)||('individualized', 'verb', 'C1881197', ['qlco'], 0.0)||('on', '', '', '', 0.0)||('the', '', '', '', 0.0)||('basis', 'noun', 'C1527178', ['ftcn'], 0.0)||('of', '', '', '', 0.0)||('clinical', 'adj', 'C0205210', ['qlco'], 0.0)||('presentation', 'noun', 'C0449450', ['idcn'], 0.0)||('.', '', '', '', 0.0)||
