('one', 'noun', 'C0205447', ['qnco'], 0.0)||('hundred', '', '', '', 0.0)||('two', 'adj', 'C0205448', ['qnco'], 0.0)||('patients', 'noun', 'C0030705', ['podg'], 0.0)||('with', '', '', '', 0.0)||('mild to moderate', 'adj', 'C1299392', ['qlco'], 0.0)||('facial', 'adj', 'C0015450', ['blor'], 0.0)||('acne vulgaris', 'noun', 'C0001144', ['dsyn'], 0.0)||('completed', 'verb', 'C0205197', ['qlco'], 0.0)||('a', '', '', '', 0.0)||('12', '', '', '', 0.0)||('-', '', '', '', 0.0)||('week', 'noun', 'C0439230', ['tmco'], 0.0)||(',', '', '', '', 0.0)||('investigator', 'noun', 'C0035173', ['prog'], 0.0)||('-', '', '', '', 0.0)||('masked', 'adj', 'C0150112', ['ftcn'], 0.0)||(',', '', '', '', 0.0)||('randomized', 'verb', 'C0034656', ['resa'], 0.0)||(',', '', '', '', 0.0)||('parallel', 'noun', 'C2348042', ['qlco'], 0.0)||('-', '', '', '', 0.0)||('group', 'noun', 'C0441833', ['idcn'], 0.0)||('comparison', 'noun', 'C1707455', ['acty'], 0.0)||('of', '', '', '', 0.0)||('a', '', '', '', 0.0)||('gel', 'noun', 'C0017243', ['bodm'], 0.0)||('formation', 'noun', 'C0220781', ['biof'], 0.0)||('of', '', '', '', 0.0)||('erythromycin', 'noun', 'C0014806', ['antb', 'orch'], 0.0)||('(', '', '', '', 0.0)||('2 %', '', '', '', 0.0)||(')', '', '', '', 0.0)||('with', '', '', '', 0.0)||('clindamycin phosphate', '', '', '', 0.0)||('1 %', '', '', '', 0.0)||('solution', 'noun', 'C0037633', ['sbst'], 0.0)||('.', '', '', '', 0.0)||
('patients', 'noun', 'C0030705', ['podg'], 0.0)||('were', '', '', '', 0.0)||('evaluated', 'verb', 'C0220825', ['ftcn'], 0.0)||('at', '', '', '', 0.0)||('a', '', '', '', 0.0)||('baseline', 'noun', 'C0168634', ['bodm'], 0.0)||('visit', 'noun', 'C0545082', ['bhvr'], 0.0)||('and', '', '', '', 0.0)||('after', '', '', '', 0.0)||('4', '', '', '', 0.0)||(',', '', '', '', 0.0)||('8', '', '', '', 0.0)||(',', '', '', '', 0.0)||('and', '', '', '', 0.0)||('12', '', '', '', 0.0)||('weeks', 'noun', 'C0439230', ['tmco'], 0.0)||('of', '', '', '', 0.0)||('twice - daily', '', '', '', 0.0)||('treatment', 'noun', 'C0039798', ['ftcn'], 0.0)||('.', '', '', '', 0.0)||
('both', '', '', '', 0.0)||('medications', 'noun', 'C0013227', ['phsu'], 0.0)||('significantly', '', '', '', 0.0)||('reduced', 'verb', 'C0392756', ['qlco'], 0.0)||('the', '', '', '', 0.0)||('numbers', 'noun', 'C0237753', ['qnco'], 0.0)||('of', '', '', '', 0.0)||('papules', '', '', '', 0.0)||('and', '', '', '', 0.0)||('open', 'adj', 'C0175566', ['spco'], 0.0)||('and', '', '', '', 0.0)||('closed', 'adj', 'C0587267', ['ftcn'], 0.0)||('comedones', 'noun', 'C0221228', ['dsyn'], 0.0)||('.', '', '', '', 0.0)||
('no', '', '', '', 0.0)||('significant', 'adj', 'C0750502', ['idcn'], 0.0)||('differences', '', '', '', 0.0)||('in lesion', '', '', '', 0.0)||('count', 'noun', 'C0750480', ['acty'], 0.0)||('reductions', '', '', '', 0.0)||('were', '', '', '', 0.0)||('detected', 'verb', 'C0442726', ['fndg'], 0.0)||('between', '', '', '', 0.0)||('the', '', '', '', 0.0)||('treatment', 'noun', 'C0039798', ['ftcn'], 0.0)||('groups', 'verb', 'C0441833', ['idcn'], 0.0)||('after', '', '', '', 0.0)||('8', '', '', '', 0.0)||('and', '', '', '', 0.0)||('12', '', '', '', 0.0)||('weeks', 'noun', 'C0439230', ['tmco'], 0.0)||('of', '', '', '', 0.0)||('treatment', 'noun', 'C0039798', ['ftcn'], 0.0)||('.', '', '', '', 0.0)||
('by', '', '', '', 0.0)||('the', '', '', '', 0.0)||('end', 'noun', 'C0444930', ['spco'], 0.0)||('of', '', '', '', 0.0)||('12', '', '', '', 0.0)||('weeks', 'noun', 'C0439230', ['tmco'], 0.0)||(',', '', '', '', 0.0)||('48 %', '', '', '', 0.0)||('of', '', '', '', 0.0)||('the', '', '', '', 0.0)||('patients', 'noun', 'C0030705', ['podg'], 0.0)||('in', '', '', '', 0.0)||('the', '', '', '', 0.0)||('erythromycin', 'noun', 'C0014806', ['antb', 'orch'], 0.0)||('group', 'noun', 'C0441833', ['idcn'], 0.0)||('and', '', '', '', 0.0)||('47 %', '', '', '', 0.0)||('in', '', '', '', 0.0)||('the', '', '', '', 0.0)||('clindamycin', 'noun', 'C0008947', ['antb', 'carb'], 0.0)||('group', 'noun', 'C0441833', ['idcn'], 0.0)||('had', '', '', '', 0.0)||('good', 'adj', 'C0205170', ['qlco'], 0.0)||('or', '', '', '', 0.0)||('excellent', 'adj', 'C1548784', ['qlco'], 0.0)||('responses', 'noun', 'C0871261', ['clna'], 0.0)||('to', '', '', '', 0.0)||('treatment', 'noun', 'C0039798', ['ftcn'], 0.0)||('.', '', '', '', 0.0)||
('no', '', '', '', 0.0)||('patient', '', '', '', 0.0)||('was', '', '', '', 0.0)||('terminated', 'verb', 'C1553404', ['idcn'], 0.0)||('from', '', '', '', 0.0)||('the', '', '', '', 0.0)||('study', 'noun', 'C0008976', ['resa'], 0.0)||('for', '', '', '', 0.0)||('side effects', 'noun', 'C0001688', ['ftcn'], 0.0)||('.', '', '', '', 0.0)||
('most', '', '', '', 0.0)||('patients', 'noun', 'C0030705', ['podg'], 0.0)||(',', '', '', '', 0.0)||('65 %', '', '', '', 0.0)||('in', '', '', '', 0.0)||('the', '', '', '', 0.0)||('erythromycin', 'noun', 'C0014806', ['antb', 'orch'], 0.0)||('2 %', '', '', '', 0.0)||('gel', 'noun', 'C0017243', ['bodm'], 0.0)||('group', 'noun', 'C0441833', ['idcn'], 0.0)||('and', '', '', '', 0.0)||('67 %', '', '', '', 0.0)||('in', '', '', '', 0.0)||('the', '', '', '', 0.0)||('clindamycin phosphate', '', '', '', 0.0)||('1 %', '', '', '', 0.0)||('solution', 'noun', 'C0037633', ['sbst'], 0.0)||('group', 'noun', 'C0441833', ['idcn'], 0.0)||(',', '', '', '', 0.0)||('had', '', '', '', 0.0)||('a', '', '', '', 0.0)||('favorable', '', '', '', 0.0)||('impression', 'noun', 'C0596764', ['inbe'], 0.0)||('of', '', '', '', 0.0)||('the', '', '', '', 0.0)||('overall', 'adj', 'C0282416', ['inpr'], 0.0)||('cosmetic', 'adj', 'C0010164', ['mnob'], 0.0)||('characteristics', 'noun', 'C1521970', ['qlco'], 0.0)||('of', '', '', '', 0.0)||('their', '', '', '', 0.0)||('study', 'noun', 'C0008976', ['resa'], 0.0)||('medication', '', '', '', 0.0)||('.', '', '', '', 0.0)||
