('published', 'adj', 'C0034037', ['ocac'], 0.0)||('data', 'noun', 'C1511726', ['idcn'], 0.0)||('have', '', '', '', 0.0)||('been', '', '', '', 0.0)||('used', '', '', '', 0.0)||('to', '', '', '', 0.0)||('define', '', '', '', 0.0)||('the', '', '', '', 0.0)||('characteristics', 'noun', 'C1521970', ['qlco'], 0.0)||('of', '', '', '', 0.0)||('the', '', '', '', 0.0)||('fall', 'noun', 'C0085639', ['fndg'], 0.0)||('in', '', '', '', 0.0)||('serum potassium', 'noun', 'C0302353', ['lbpr'], 0.0)||('concentration', 'noun', 'C0086045', ['menp'], 0.0)||('after', '', '', '', 0.0)||('taking', '', '', '', 0.0)||('diuretics', 'noun', 'C0012798', ['phsu'], 0.0)||('and', '', '', '', 0.0)||('the', '', '', '', 0.0)||('efficacy', 'noun', 'C1707887', ['resa'], 0.0)||('of', '', '', '', 0.0)||('the', '', '', '', 0.0)||('various', 'adj', 'C0440102', ['irda'], 0.0)||('treatments', 'noun', 'C0087111', ['topp'], 0.0)||('given', '', '', '', 0.0)||('to', '', '', '', 0.0)||('prevent', 'verb', 'C0309872', ['phsu'], 0.0)||('or', '', '', '', 0.0)||('correct', 'adj', 'C1548444', ['inpr'], 0.0)||('it', '', '', '', 0.0)||('.', '', '', '', 0.0)||
('the', '', '', '', 0.0)||('average', 'adj', 'C1510992', ['qnco'], 0.0)||('fall', 'noun', 'C0085639', ['fndg'], 0.0)||('is', '', '', '', 0.0)||('less', '', '', '', 0.0)||('after', '', '', '', 0.0)||('the', '', '', '', 0.0)||('usual', '', '', '', 0.0)||('doses', 'noun', 'C0178602', ['qnco'], 0.0)||('of', '', '', '', 0.0)||('frusemide', 'noun', 'C0016860', ['orch', 'phsu'], 0.0)||('(', '', '', '', 0.0)||('about', '', '', '', 0.0)||('0 . 3', '', '', '', 0.0)||('mmol', '', '', '', 0.0)||('/', '', '', '', 0.0)||('l )', '', '', '', 0.0)||('than', '', '', '', 0.0)||('after', '', '', '', 0.0)||('the', '', '', '', 0.0)||('usual', '', '', '', 0.0)||('doses', 'noun', 'C0178602', ['qnco'], 0.0)||('of', '', '', '', 0.0)||('thiazides', 'noun', 'C0012802', ['orch', 'phsu'], 0.0)||('(', '', '', '', 0.0)||('about', '', '', '', 0.0)||('0 . 6', '', '', '', 0.0)||('mmol', '', '', '', 0.0)||('/', '', '', '', 0.0)||('l )', '', '', '', 0.0)||('and', '', '', '', 0.0)||('is', '', '', '', 0.0)||('little', 'adj', 'C0700321', ['qnco'], 0.0)||('influenced', '', '', '', 0.0)||('by', '', '', '', 0.0)||('the', '', '', '', 0.0)||('dose', 'noun', 'C0178602', ['qnco'], 0.0)||('or', '', '', '', 0.0)||('duration', 'noun', 'C0449238', ['tmco'], 0.0)||('of', '', '', '', 0.0)||('treatment', 'noun', 'C0039798', ['ftcn'], 0.0)||('.', '', '', '', 0.0)||
('the', '', '', '', 0.0)||('fall', 'noun', 'C0085639', ['fndg'], 0.0)||('with', '', '', '', 0.0)||('a', '', '', '', 0.0)||('given', '', '', '', 0.0)||('drug', 'noun', 'C0013227', ['phsu'], 0.0)||('is', '', '', '', 0.0)||('the', '', '', '', 0.0)||('same', 'adj', 'C0445247', ['qlco'], 0.0)||('in', '', '', '', 0.0)||('heart failure', 'noun', 'C0018801', ['dsyn'], 0.0)||('and', '', '', '', 0.0)||('hypertension', 'noun', 'C0020538', ['dsyn'], 0.0)||(',', '', '', '', 0.0)||('but', '', '', '', 0.0)||('the', '', '', '', 0.0)||('initial', 'adj', 'C0205265', ['tmco'], 0.0)||('serum potassium', 'noun', 'C0302353', ['lbpr'], 0.0)||('concentration', 'noun', 'C0086045', ['menp'], 0.0)||('is', '', '', '', 0.0)||('higher', '', '', '', 0.0)||('in', '', '', '', 0.0)||('heart failure', 'noun', 'C0018801', ['dsyn'], 0.0)||(',', '', '', '', 0.0)||('so', '', '', '', 0.0)||('that', '', '', '', 0.0)||('the', '', '', '', 0.0)||('final', 'adj', 'C0205088', ['tmco'], 0.0)||('value', 'noun', 'C0042295', ['qlco'], 0.0)||('is', '', '', '', 0.0)||('lower', 'adj', 'C0441994', ['ftcn'], 0.0)||('in', '', '', '', 0.0)||('hypertension', 'noun', 'C0020538', ['dsyn'], 0.0)||('.', '', '', '', 0.0)||
('in', '', '', '', 0.0)||('standard doses', '', '', '', 0.0)||('potassium', 'noun', 'C0032821', ['elii'], 0.0)||('supplements', '', '', '', 0.0)||('are', '', '', '', 0.0)||('less', '', '', '', 0.0)||('effective', 'adj', 'C1704419', ['qlco'], 0.0)||('than', '', '', '', 0.0)||('potassium', 'noun', 'C0032821', ['elii'], 0.0)||('-', '', '', '', 0.0)||('retaining', '', '', '', 0.0)||('diuretics', 'noun', 'C0012798', ['phsu'], 0.0)||('in', '', '', '', 0.0)||('correcting', '', '', '', 0.0)||('the', '', '', '', 0.0)||('hypokalaemia', 'noun', 'C0020621', ['fndg'], 0.0)||('.', '', '', '', 0.0)||
('the', '', '', '', 0.0)||('relation', 'noun', 'C0080103', ['famg'], 0.0)||('between', '', '', '', 0.0)||('the', '', '', '', 0.0)||('average', 'adj', 'C1510992', ['qnco'], 0.0)||('serum potassium', 'noun', 'C0302353', ['lbpr'], 0.0)||('value', 'noun', 'C0042295', ['qlco'], 0.0)||('and', '', '', '', 0.0)||('the', '', '', '', 0.0)||('frequency', 'noun', 'C0376249', ['qnco'], 0.0)||('of', '', '', '', 0.0)||('low', 'adj', 'C0205251', ['qlco'], 0.0)||('values', 'noun', 'C0042295', ['qlco'], 0.0)||('(', '', '', '', 0.0)||('hypokalaemia', 'noun', 'C0020621', ['fndg'], 0.0)||(')', '', '', '', 0.0)||('is', '', '', '', 0.0)||('such', '', '', '', 0.0)||('that', '', '', '', 0.0)||('very', 'adv', 'C0442824', ['qlco'], 0.0)||('low', 'adj', 'C0205251', ['qlco'], 0.0)||('values', 'noun', 'C0042295', ['qlco'], 0.0)||('after', '', '', '', 0.0)||('taking', '', '', '', 0.0)||('diuretics', 'noun', 'C0012798', ['phsu'], 0.0)||('are', '', '', '', 0.0)||('unusual', 'adj', 'C2700116', ['qlco'], 0.0)||('in', '', '', '', 0.0)||('patients', 'noun', 'C0030705', ['podg'], 0.0)||('with', '', '', '', 0.0)||('hypertension', 'noun', 'C0020538', ['dsyn'], 0.0)||('or', '', '', '', 0.0)||('heart failure', 'noun', 'C0018801', ['dsyn'], 0.0)||('.', '', '', '', 0.0)||
('hypokalaemia', 'noun', 'C0020621', ['fndg'], 0.0)||('would', '', '', '', 0.0)||('almost', '', '', '', 0.0)||('disappear', '', '', '', 0.0)||('as', '', '', '', 0.0)||('an', '', '', '', 0.0)||('important', '', '', '', 0.0)||('complication', 'noun', 'C0009566', ['patf'], 0.0)||('of', '', '', '', 0.0)||('diuretic', 'adj', 'C0012798', ['phsu'], 0.0)||('treatment', 'noun', 'C0039798', ['ftcn'], 0.0)||('if', '', '', '', 0.0)||('it', '', '', '', 0.0)||('was', '', '', '', 0.0)||('defined', 'verb', 'C1704788', ['cnce'], 0.0)||('as', '', '', '', 0.0)||('a', '', '', '', 0.0)||('value', 'noun', 'C0042295', ['qlco'], 0.0)||('less', '', '', '', 0.0)||('than', '', '', '', 0.0)||('3 . 0', '', '', '', 0.0)||('mmol', '', '', '', 0.0)||('/', '', '', '', 0.0)||('l', '', '', '', 0.0)||('rather than', '', '', '', 0.0)||('as', '', '', '', 0.0)||('a', '', '', '', 0.0)||('value', 'noun', 'C0042295', ['qlco'], 0.0)||('less', '', '', '', 0.0)||('than', '', '', '', 0.0)||('3 . 5', '', '', '', 0.0)||('mmol', '', '', '', 0.0)||('/', '', '', '', 0.0)||('l', '', '', '', 0.0)||('.', '', '', '', 0.0)||
