('amblyopia', 'noun', 'C0002418', ['dsyn'], 0.0)||('is', '', '', '', 0.0)||('a', '', '', '', 0.0)||('reversible', 'adj', 'C0205343', ['ftcn'], 0.0)||('deficit', 'noun', 'C0011155', ['ftcn'], 0.0)||('of', '', '', '', 0.0)||('vision', 'noun', 'C0042789', ['orgf'], 0.0)||('that', '', '', '', 0.0)||('has', '', '', '', 0.0)||('to', '', '', '', 0.0)||('be', '', '', '', 0.0)||('treated', 'verb', 'C1522326', ['ftcn'], 0.0)||('within', '', '', '', 0.0)||('the', '', '', '', 0.0)||('sensitive', 'adj', 'C0332324', ['ftcn'], 0.0)||('period', 'noun', 'C1948053', ['tmco'], 0.0)||('for', '', '', '', 0.0)||('visual', 'adj', 'C0234621', ['ftcn'], 0.0)||('development', 'noun', 'C0020119', ['phsf'], 0.0)||('.', '', '', '', 0.0)||
('screening', 'adj', 'C0220908', ['hlca'], 0.0)||('programmes', '', '', '', 0.0)||('have', '', '', '', 0.0)||('been', '', '', '', 0.0)||('set up', '', '', '', 0.0)||('to', '', '', '', 0.0)||('detect', '', '', '', 0.0)||('this', '', '', '', 0.0)||('largely', '', '', '', 0.0)||('asymptomatic', 'adj', 'C0231221', ['fndg'], 0.0)||('condition', 'noun', 'C0348080', ['qlco'], 0.0)||('and', '', '', '', 0.0)||('refer', '', '', '', 0.0)||('children', 'noun', 'C0008059', ['aggp'], 0.0)||('for', '', '', '', 0.0)||('treatment', 'noun', 'C0039798', ['ftcn'], 0.0)||('while', '', '', '', 0.0)||('an', '', '', '', 0.0)||('improvement', '', '', '', 0.0)||('in', '', '', '', 0.0)||('vision', 'noun', 'C0042789', ['orgf'], 0.0)||('is', '', '', '', 0.0)||('still', '', '', '', 0.0)||('possible', 'adj', 'C0332149', ['qlco'], 0.0)||('.', '', '', '', 0.0)||
('the', '', '', '', 0.0)||('value', 'noun', 'C0042295', ['qlco'], 0.0)||('of', '', '', '', 0.0)||('such', '', '', '', 0.0)||('programmes', '', '', '', 0.0)||('and', '', '', '', 0.0)||('the', '', '', '', 0.0)||('optimum', 'noun', 'C2698651', ['qlco'], 0.0)||('protocol', 'noun', 'C0442711', ['inpr'], 0.0)||('for', '', '', '', 0.0)||('administering', 'noun', 'C1621583', ['ftcn'], 0.0)||('them', '', '', '', 0.0)||('remain', '', '', '', 0.0)||('controversial', '', '', '', 0.0)||('.', '', '', '', 0.0)||
('the', '', '', '', 0.0)||('objective', 'noun', 'C0018017', ['inpr'], 0.0)||('of', '', '', '', 0.0)||('this', '', '', '', 0.0)||('review', 'noun', 'C0282443', ['inpr'], 0.0)||('was', '', '', '', 0.0)||('to', '', '', '', 0.0)||('evaluate', 'verb', 'C0220825', ['ftcn'], 0.0)||('the', '', '', '', 0.0)||('effectiveness', 'noun', 'C1280519', ['qlco'], 0.0)||('of', '', '', '', 0.0)||('vision', 'noun', 'C0042789', ['orgf'], 0.0)||('screening', 'noun', 'C0220908', ['hlca'], 0.0)||('in', '', '', '', 0.0)||('reducing', 'noun', 'C0392756', ['qlco'], 0.0)||('the', '', '', '', 0.0)||('prevalence', 'noun', 'C0033105', ['qnco'], 0.0)||('of', '', '', '', 0.0)||('amblyopia', 'noun', 'C0002418', ['dsyn'], 0.0)||('.', '', '', '', 0.0)||
('we', '', '', '', 0.0)||('searched', 'verb', 'C1706202', ['acty'], 0.0)||('the', '', '', '', 0.0)||('cochrane', '', '', '', 0.0)||('central', 'adj', 'C0205099', ['spco'], 0.0)||('register', '', '', '', 0.0)||('of', '', '', '', 0.0)||('controlled', 'adj', 'C2587213', ['ftcn'], 0.0)||('trials', '', '', '', 0.0)||(',', '', '', '', 0.0)||('which', '', '', '', 0.0)||('contains', 'verb', 'C1549781', ['idcn'], 0.0)||('the', '', '', '', 0.0)||('cochrane', '', '', '', 0.0)||('eyes', 'noun', 'C0015392', ['bpoc'], 0.0)||('and', '', '', '', 0.0)||('vision', 'noun', 'C0042789', ['orgf'], 0.0)||('group', 'noun', 'C0441833', ['idcn'], 0.0)||('trials', '', '', '', 0.0)||('register', '', '', '', 0.0)||(',', '', '', '', 0.0)||('on', '', '', '', 0.0)||('the', '', '', '', 0.0)||('cochrane', '', '', '', 0.0)||('library', 'noun', 'C0023621', ['mnob', 'orgt'], 0.0)||('issue', 'noun', 'C0033213', ['fndg'], 0.0)||('2', '', '', '', 0.0)||(',', '', '', '', 0.0)||('2005', '', '', '', 0.0)||(',', '', '', '', 0.0)||('medline', 'noun', 'C0025141', ['inpr'], 0.0)||('(', '', '', '', 0.0)||('1966', '', '', '', 0.0)||('to', '', '', '', 0.0)||('may', '', '', '', 0.0)||('2005', '', '', '', 0.0)||('week', 'noun', 'C0439230', ['tmco'], 0.0)||('1', '', '', '', 0.0)||(')', '', '', '', 0.0)||('and', '', '', '', 0.0)||('embase', '', '', '', 0.0)||('(', '', '', '', 0.0)||('1980', '', '', '', 0.0)||('to', '', '', '', 0.0)||('2005', '', '', '', 0.0)||('week', 'noun', 'C0439230', ['tmco'], 0.0)||('19', '', '', '', 0.0)||(')', '', '', '', 0.0)||('.', '', '', '', 0.0)||
('no', '', '', '', 0.0)||('language', 'noun', 'C0023008', ['lang'], 0.0)||('restrictions', '', '', '', 0.0)||('were', '', '', '', 0.0)||('placed', '', '', '', 0.0)||('on', '', '', '', 0.0)||('these', '', '', '', 0.0)||('searches', '', '', '', 0.0)||('.', '', '', '', 0.0)||
('no', '', '', '', 0.0)||('handsearching', '', '', '', 0.0)||('was', '', '', '', 0.0)||('done', '', '', '', 0.0)||('.', '', '', '', 0.0)||
('we', '', '', '', 0.0)||('planned', 'verb', 'C1301732', ['ftcn'], 0.0)||('to', '', '', '', 0.0)||('analyse', '', '', '', 0.0)||('data', 'noun', 'C1511726', ['idcn'], 0.0)||('from', '', '', '', 0.0)||('randomised controlled trials', '', '', '', 0.0)||('and', '', '', '', 0.0)||('cluster', 'noun', 'C1555715', ['idcn'], 0.0)||('-', '', '', '', 0.0)||('randomised', '', '', '', 0.0)||('trials', '', '', '', 0.0)||('comparing', '', '', '', 0.0)||('the', '', '', '', 0.0)||('prevalence', 'noun', 'C0033105', ['qnco'], 0.0)||('of', '', '', '', 0.0)||('amblyopia', 'noun', 'C0002418', ['dsyn'], 0.0)||('in', '', '', '', 0.0)||('screened', '', '', '', 0.0)||('versus', '', '', '', 0.0)||('unscreened', '', '', '', 0.0)||('populations', 'noun', 'C0032659', ['qnco'], 0.0)||('.', '', '', '', 0.0)||
('two', 'adj', 'C0205448', ['qnco'], 0.0)||('authors', 'noun', 'C0341628', ['prog'], 0.0)||('independently', '', '', '', 0.0)||('assessed', 'adj', 'C1516048', ['acty'], 0.0)||('study', 'noun', 'C0008976', ['resa'], 0.0)||('abstracts', 'noun', 'C0600678', ['inpr'], 0.0)||('identified', 'verb', 'C0205396', ['qlco'], 0.0)||('by', '', '', '', 0.0)||('the', '', '', '', 0.0)||('electronic', 'adj', 'C0013850', ['mnob'], 0.0)||('searches', '', '', '', 0.0)||('.', '', '', '', 0.0)||
('full', 'adj', 'C0443225', ['qlco'], 0.0)||('text', 'noun', 'C1527021', ['inpr'], 0.0)||('copies', 'verb', 'C1948062', ['mnob'], 0.0)||('of', '', '', '', 0.0)||('appropriate', 'adj', 'C1548787', ['qlco'], 0.0)||('studies', '', '', '', 0.0)||('were', '', '', '', 0.0)||('obtained', 'verb', 'C1301820', ['ftcn'], 0.0)||('and', '', '', '', 0.0)||(',', '', '', '', 0.0)||('where', '', '', '', 0.0)||('necessary', '', '', '', 0.0)||(',', '', '', '', 0.0)||('authors', 'noun', 'C0341628', ['prog'], 0.0)||('were', '', '', '', 0.0)||('contacted', '', '', '', 0.0)||('.', '', '', '', 0.0)||
('no', '', '', '', 0.0)||('data', 'noun', 'C1511726', ['idcn'], 0.0)||('were', '', '', '', 0.0)||('available', 'adj', 'C0470187', ['ftcn'], 0.0)||('for', '', '', '', 0.0)||('analysis', 'noun', 'C0002778', ['lbpr'], 0.0)||('and', '', '', '', 0.0)||('no', '', '', '', 0.0)||('meta - analysis', '', '', '', 0.0)||('was', '', '', '', 0.0)||('performed', 'verb', 'C0884358', ['ftcn'], 0.0)||('.', '', '', '', 0.0)||
('despite', '', '', '', 0.0)||('the', '', '', '', 0.0)||('large', 'adj', 'C0549177', ['qnco'], 0.0)||('amount', 'noun', 'C1265611', ['qnco'], 0.0)||('of', '', '', '', 0.0)||('literature', 'noun', 'C0023866', ['inpr'], 0.0)||('available', 'adj', 'C0470187', ['ftcn'], 0.0)||('regarding', '', '', '', 0.0)||('vision', 'noun', 'C0042789', ['orgf'], 0.0)||('screening', 'verb', 'C0220908', ['hlca'], 0.0)||('no', '', '', '', 0.0)||('trials', '', '', '', 0.0)||('designed', '', '', '', 0.0)||('to', '', '', '', 0.0)||('compare', 'verb', 'C1707455', ['acty'], 0.0)||('the', '', '', '', 0.0)||('prevalence', 'noun', 'C0033105', ['qnco'], 0.0)||('of', '', '', '', 0.0)||('amblyopia', 'noun', 'C0002418', ['dsyn'], 0.0)||('in', '', '', '', 0.0)||('screened', '', '', '', 0.0)||('versus', '', '', '', 0.0)||('unscreened', '', '', '', 0.0)||('populations', 'noun', 'C0032659', ['qnco'], 0.0)||('were', '', '', '', 0.0)||('found', '', '', '', 0.0)||('.', '', '', '', 0.0)||
('data', 'noun', 'C1511726', ['idcn'], 0.0)||('currently', 'adv', 'C0521116', ['tmco'], 0.0)||('under', '', '', '', 0.0)||('preparation', 'noun', 'C0455052', ['hlca'], 0.0)||('may', '', '', '', 0.0)||('be', '', '', '', 0.0)||('available', 'adj', 'C0470187', ['ftcn'], 0.0)||('for', '', '', '', 0.0)||('updates', '', '', '', 0.0)||('to', '', '', '', 0.0)||('the', '', '', '', 0.0)||('review', 'noun', 'C0282443', ['inpr'], 0.0)||('.', '', '', '', 0.0)||
('the', '', '', '', 0.0)||('lack', 'noun', 'C0332268', ['qlco'], 0.0)||('of', '', '', '', 0.0)||('data', 'noun', 'C1511726', ['idcn'], 0.0)||('from', '', '', '', 0.0)||('randomised controlled trials', '', '', '', 0.0)||('makes', '', '', '', 0.0)||('it', '', '', '', 0.0)||('difficult', 'adj', 'C0332218', ['qlco'], 0.0)||('to', '', '', '', 0.0)||('analyse', '', '', '', 0.0)||('the', '', '', '', 0.0)||('impact', '', '', '', 0.0)||('of', '', '', '', 0.0)||('existing', '', '', '', 0.0)||('screening', 'adj', 'C0220908', ['hlca'], 0.0)||('programmes', '', '', '', 0.0)||('on', '', '', '', 0.0)||('the', '', '', '', 0.0)||('prevalence', 'noun', 'C0033105', ['qnco'], 0.0)||('of', '', '', '', 0.0)||('amblyopia', 'noun', 'C0002418', ['dsyn'], 0.0)||('.', '', '', '', 0.0)||
('the', '', '', '', 0.0)||('absence', 'noun', 'C1689985', ['anab'], 0.0)||('of', '', '', '', 0.0)||('such', '', '', '', 0.0)||('evidence', 'noun', 'C0332120', ['ftcn'], 0.0)||('cannot', '', '', '', 0.0)||('be', '', '', '', 0.0)||('taken', 'verb', 'C1883727', ['cnce'], 0.0)||('to', '', '', '', 0.0)||('mean', 'verb', 'C0444504', ['qnco'], 0.0)||('that', '', '', '', 0.0)||('vision', 'noun', 'C0042789', ['orgf'], 0.0)||('screening', 'noun', 'C0220908', ['hlca'], 0.0)||('is', '', '', '', 0.0)||('not', 'adv', 'C1518422', ['ftcn'], 0.0)||('beneficial', '', '', '', 0.0)||(';', '', '', '', 0.0)||
('simply', '', '', '', 0.0)||('that', '', '', '', 0.0)||('this', '', '', '', 0.0)||('intervention', 'noun', 'C1273869', ['hlca'], 0.0)||('has', '', '', '', 0.0)||('not', 'adv', 'C1518422', ['ftcn'], 0.0)||('yet', '', '', '', 0.0)||('been', '', '', '', 0.0)||('tested', '', '', '', 0.0)||('in', '', '', '', 0.0)||('robust', '', '', '', 0.0)||('trials', '', '', '', 0.0)||('.', '', '', '', 0.0)||
('to', '', '', '', 0.0)||('facilitate', '', '', '', 0.0)||('such', '', '', '', 0.0)||('trials', '', '', '', 0.0)||('normative', '', '', '', 0.0)||('data', 'noun', 'C1511726', ['idcn'], 0.0)||('on', '', '', '', 0.0)||('age', 'noun', 'C0001779', ['orga'], 0.0)||('-', '', '', '', 0.0)||('appropriate', 'adj', 'C1548787', ['qlco'], 0.0)||('vision tests', 'noun', 'C0042793', ['diap'], 0.0)||('need', 'verb', 'C0027552', ['qlco'], 0.0)||('to', '', '', '', 0.0)||('be', '', '', '', 0.0)||('available', 'adj', 'C0470187', ['ftcn'], 0.0)||('and', '', '', '', 0.0)||('a', '', '', '', 0.0)||('consensus', 'noun', 'C0376298', ['socb'], 0.0)||('reached', '', '', '', 0.0)||('regarding', '', '', '', 0.0)||('the', '', '', '', 0.0)||('definition', 'noun', 'C1550452', ['idcn'], 0.0)||('of', '', '', '', 0.0)||('amblyopia', 'noun', 'C0002418', ['dsyn'], 0.0)||('.', '', '', '', 0.0)||
('in', '', '', '', 0.0)||('addition', 'noun', 'C1883712', ['ftcn'], 0.0)||(',', '', '', '', 0.0)||('the', '', '', '', 0.0)||('consequences', '', '', '', 0.0)||('of', '', '', '', 0.0)||('living', 'noun', 'C0376558', ['idcn'], 0.0)||('with', '', '', '', 0.0)||('untreated', '', '', '', 0.0)||('amblyopia', 'noun', 'C0002418', ['dsyn'], 0.0)||('have', '', '', '', 0.0)||('yet', '', '', '', 0.0)||('to', '', '', '', 0.0)||('be', '', '', '', 0.0)||('quantified', '', '', '', 0.0)||('and', '', '', '', 0.0)||('a', '', '', '', 0.0)||('cost - benefit analysis', '', '', '', 0.0)||('carried', '', '', '', 0.0)||('out', '', '', '', 0.0)||('.', '', '', '', 0.0)||
