('to', '', '', '', 0.0)||('evaluate', 'verb', 'C0220825', ['ftcn'], 0.0)||('the', '', '', '', 0.0)||('efficacy', 'noun', 'C1707887', ['resa'], 0.0)||('of', '', '', '', 0.0)||('oral', 'adj', 'C0442027', ['spco'], 0.0)||('treatment', 'noun', 'C0039798', ['ftcn'], 0.0)||('with', '', '', '', 0.0)||('nebivolol', 'noun', 'C0068475', ['orch', 'phsu'], 0.0)||('and', '', '', '', 0.0)||('metoprolol', 'noun', 'C0025859', ['orch', 'phsu'], 0.0)||('in', '', '', '', 0.0)||('the', '', '', '', 0.0)||('prophylaxis', 'noun', 'C0033107', ['inpr'], 0.0)||('of', '', '', '', 0.0)||('migraine', 'noun', 'C0149931', ['dsyn'], 0.0)||('attacks', '', '', '', 0.0)||('.', '', '', '', 0.0)||
('beta - blockers', '', '', '', 0.0)||('such as', '', '', '', 0.0)||('propranolol', 'noun', 'C0033497', ['orch', 'phsu'], 0.0)||('and', '', '', '', 0.0)||('metoprolol', 'noun', 'C0025859', ['orch', 'phsu'], 0.0)||('are', '', '', '', 0.0)||('known', 'verb', 'C0205309', ['qlco'], 0.0)||('to', '', '', '', 0.0)||('be', '', '', '', 0.0)||('effective', 'adj', 'C1704419', ['qlco'], 0.0)||('in', '', '', '', 0.0)||('preventing', 'adj', 'C1292733', ['ftcn'], 0.0)||('migraine', 'noun', 'C0149931', ['dsyn'], 0.0)||('attacks', '', '', '', 0.0)||('.', '', '', '', 0.0)||
('following', '', '', '', 0.0)||('earlier', '', '', '', 0.0)||('observations', '', '', '', 0.0)||('of', '', '', '', 0.0)||('successful', 'adj', 'C1272703', ['qlco'], 0.0)||('use', 'noun', 'C0042153', ['ftcn'], 0.0)||('of', '', '', '', 0.0)||('nebivolol', 'noun', 'C0068475', ['orch', 'phsu'], 0.0)||('in', '', '', '', 0.0)||('a', '', '', '', 0.0)||('few', '', '', '', 0.0)||('hypertensive', 'adj', 'C0857121', ['fndg'], 0.0)||('patients', 'noun', 'C0030705', ['podg'], 0.0)||('with', '', '', '', 0.0)||('concomitant', 'adj', 'C0521115', ['tmco'], 0.0)||('migraine', 'noun', 'C0149931', ['dsyn'], 0.0)||(',', '', '', '', 0.0)||('we', '', '', '', 0.0)||('conducted', '', '', '', 0.0)||('a', '', '', '', 0.0)||('prospective study', 'noun', 'C0033522', ['resa'], 0.0)||('to', '', '', '', 0.0)||('ascertain', '', '', '', 0.0)||('whether', '', '', '', 0.0)||('nebivolol', 'noun', 'C0068475', ['orch', 'phsu'], 0.0)||('would', '', '', '', 0.0)||('be', '', '', '', 0.0)||('effective', 'adj', 'C1704419', ['qlco'], 0.0)||('and', '', '', '', 0.0)||('better', 'adj', 'C0332272', ['qlco'], 0.0)||('tolerated', '', '', '', 0.0)||(',', '', '', '', 0.0)||('in', '', '', '', 0.0)||('a', '', '', '', 0.0)||('methodologically', '', '', '', 0.0)||('strict', '', '', '', 0.0)||(',', '', '', '', 0.0)||('randomized', 'verb', 'C0034656', ['resa'], 0.0)||('and', '', '', '', 0.0)||('double - blind', '', '', '', 0.0)||('setting', 'noun', 'C0542559', ['ftcn'], 0.0)||('.', '', '', '', 0.0)||
('randomized', 'verb', 'C0034656', ['resa'], 0.0)||(',', '', '', '', 0.0)||('double - blind study', '', '', '', 0.0)||('in', '', '', '', 0.0)||('30', '', '', '', 0.0)||('patients', 'noun', 'C0030705', ['podg'], 0.0)||('with', '', '', '', 0.0)||('confirmed', 'adj', 'C0750484', ['idcn'], 0.0)||('migraine', 'noun', 'C0149931', ['dsyn'], 0.0)||('diagnosis', 'noun', 'C0011900', ['fndg'], 0.0)||(',', '', '', '', 0.0)||('a', '', '', '', 0.0)||('minimum', 'noun', 'C1524031', ['qlco'], 0.0)||('1', '', '', '', 0.0)||('-', '', '', '', 0.0)||('year', 'noun', 'C0439234', ['tmco'], 0.0)||('history', 'noun', 'C0019664', ['ocdi'], 0.0)||(',', '', '', '', 0.0)||('onset', 'noun', 'C0332162', ['qlco'], 0.0)||('prior to', '', '', '', 0.0)||('50', '', '', '', 0.0)||('years', 'noun', 'C0439234', ['tmco'], 0.0)||('of', '', '', '', 0.0)||('age', 'noun', 'C0001779', ['orga'], 0.0)||(',', '', '', '', 0.0)||('written', '', '', '', 0.0)||('records', 'noun', 'C0034869', ['inpr'], 0.0)||('of', '', '', '', 0.0)||('attacks', '', '', '', 0.0)||('for', '', '', '', 0.0)||('the', '', '', '', 0.0)||('previous', 'adj', 'C0205156', ['tmco'], 0.0)||('3', '', '', '', 0.0)||('months', 'noun', 'C0439231', ['tmco'], 0.0)||(',', '', '', '', 0.0)||('and', '', '', '', 0.0)||('minimum', 'noun', 'C1524031', ['qlco'], 0.0)||('2', '', '', '', 0.0)||('attacks', '', '', '', 0.0)||('per', '', '', '', 0.0)||('month', 'noun', 'C0439231', ['tmco'], 0.0)||('.', '', '', '', 0.0)||
('primary', 'adj', 'C0205225', ['qlco'], 0.0)||('endpoint', 'noun', 'C2349179', ['qlco'], 0.0)||('was', '', '', '', 0.0)||('frequency', 'noun', 'C0376249', ['qnco'], 0.0)||('of', '', '', '', 0.0)||('attacks', '', '', '', 0.0)||('(', '', '', '', 0.0)||('prevention', 'noun', 'C0199176', ['topp'], 0.0)||('of', '', '', '', 0.0)||('migraine', 'noun', 'C0149931', ['dsyn'], 0.0)||('attacks', '', '', '', 0.0)||(')', '', '', '', 0.0)||('in', '', '', '', 0.0)||('the', '', '', '', 0.0)||('final', 'adj', 'C0205088', ['tmco'], 0.0)||('4', '', '', '', 0.0)||('weeks', 'noun', 'C0439230', ['tmco'], 0.0)||('of', '', '', '', 0.0)||('a', '', '', '', 0.0)||('14', '', '', '', 0.0)||('-', '', '', '', 0.0)||('week', 'noun', 'C0439230', ['tmco'], 0.0)||('treatment', 'noun', 'C0039798', ['ftcn'], 0.0)||('on', '', '', '', 0.0)||('full', 'adj', 'C0443225', ['qlco'], 0.0)||('dose', 'noun', 'C0178602', ['qnco'], 0.0)||('of', '', '', '', 0.0)||('metoprolol', 'noun', 'C0025859', ['orch', 'phsu'], 0.0)||('and', '', '', '', 0.0)||('nebivolol', 'noun', 'C0068475', ['orch', 'phsu'], 0.0)||('.', '', '', '', 0.0)||
('secondary', 'adj', 'C0175668', ['tmco'], 0.0)||('endpoints', '', '', '', 0.0)||('were', '', '', '', 0.0)||('time', 'noun', 'C0040223', ['tmco'], 0.0)||('to', '', '', '', 0.0)||('therapeutic', 'adj', 'C0039796', ['topp'], 0.0)||('effect', 'noun', 'C1280500', ['qlco'], 0.0)||(',', '', '', '', 0.0)||('duration', 'noun', 'C0449238', ['tmco'], 0.0)||('of', '', '', '', 0.0)||('attacks', '', '', '', 0.0)||(',', '', '', '', 0.0)||('intensity', 'noun', 'C0522510', ['qlco'], 0.0)||('of', '', '', '', 0.0)||('headache', 'noun', 'C0018681', ['sosy'], 0.0)||(',', '', '', '', 0.0)||('consumption', 'noun', 'C0009830', ['acty'], 0.0)||('of', '', '', '', 0.0)||('analgesics', 'noun', 'C0002771', ['phsu'], 0.0)||(',', '', '', '', 0.0)||('evaluation', 'noun', 'C0220825', ['ftcn'], 0.0)||('of', '', '', '', 0.0)||('accompanying', '', '', '', 0.0)||('symptoms', 'noun', 'C0683368', ['ftcn'], 0.0)||(',', '', '', '', 0.0)||('migraine disability assessment', '', '', '', 0.0)||(',', '', '', '', 0.0)||('clinical', 'adj', 'C0205210', ['qlco'], 0.0)||('global', 'adj', 'C0205246', ['spco'], 0.0)||('impression', 'noun', 'C0596764', ['inbe'], 0.0)||(',', '', '', '', 0.0)||('quality', 'noun', 'C0332306', ['qlco'], 0.0)||('of', '', '', '', 0.0)||('life', 'noun', 'C0376558', ['idcn'], 0.0)||(',', '', '', '', 0.0)||('and', '', '', '', 0.0)||('responder', '', '', '', 0.0)||('rates', '', '', '', 0.0)||('.', '', '', '', 0.0)||
('the', '', '', '', 0.0)||('statistical', 'adj', 'C0038215', ['ocdi'], 0.0)||('analysis', 'noun', 'C0002778', ['lbpr'], 0.0)||('was', '', '', '', 0.0)||('prospectively', '', '', '', 0.0)||('planned', 'verb', 'C1301732', ['ftcn'], 0.0)||('and', '', '', '', 0.0)||('conducted', '', '', '', 0.0)||('for', '', '', '', 0.0)||('all', '', '', '', 0.0)||('randomized', 'adj', 'C0034656', ['resa'], 0.0)||('patients', 'noun', 'C0030705', ['podg'], 0.0)||('.', '', '', '', 0.0)||
('both', '', '', '', 0.0)||('metoprolol', 'noun', 'C0025859', ['orch', 'phsu'], 0.0)||('and', '', '', '', 0.0)||('nebivolol', 'noun', 'C0068475', ['orch', 'phsu'], 0.0)||('where', '', '', '', 0.0)||('similarly', '', '', '', 0.0)||('effective', 'adj', 'C1704419', ['qlco'], 0.0)||('regarding', '', '', '', 0.0)||('the', '', '', '', 0.0)||('main', 'adj', 'C0205225', ['qlco'], 0.0)||('endpoint', 'noun', 'C2349179', ['qlco'], 0.0)||('(', '', '', '', 0.0)||('prevention', 'noun', 'C0199176', ['topp'], 0.0)||('of', '', '', '', 0.0)||('migraine', 'noun', 'C0149931', ['dsyn'], 0.0)||('attacks', '', '', '', 0.0)||(')', '', '', '', 0.0)||('as well as', '', '', '', 0.0)||('the', '', '', '', 0.0)||('secondary', 'adj', 'C0175668', ['tmco'], 0.0)||('ones', '', '', '', 0.0)||(',', '', '', '', 0.0)||('and', '', '', '', 0.0)||('both', '', '', '', 0.0)||('had', '', '', '', 0.0)||('a', '', '', '', 0.0)||('fast', 'adj', 'C0015663', ['fndg'], 0.0)||('onset', 'noun', 'C0332162', ['qlco'], 0.0)||('of', '', '', '', 0.0)||('action', 'noun', 'C0441472', ['ftcn'], 0.0)||(',', '', '', '', 0.0)||('typically', '', '', '', 0.0)||('within', '', '', '', 0.0)||('4', '', '', '', 0.0)||('weeks', 'noun', 'C0439230', ['tmco'], 0.0)||('from', '', '', '', 0.0)||('starting', '', '', '', 0.0)||('therapy', 'noun', 'C0039798', ['ftcn'], 0.0)||(',', '', '', '', 0.0)||('with', '', '', '', 0.0)||('responder', '', '', '', 0.0)||('rates', '', '', '', 0.0)||('increasing', 'verb', 'C0442808', ['ftcn'], 0.0)||('relatively', '', '', '', 0.0)||('little', 'adj', 'C0700321', ['qnco'], 0.0)||('over', '', '', '', 0.0)||('time', 'noun', 'C0040223', ['tmco'], 0.0)||('after', '', '', '', 0.0)||('the', '', '', '', 0.0)||('first', 'noun', 'C0205435', ['qnco'], 0.0)||('4', '', '', '', 0.0)||('weeks', 'noun', 'C0439230', ['tmco'], 0.0)||('.', '', '', '', 0.0)||
('use', 'noun', 'C0042153', ['ftcn'], 0.0)||('of', '', '', '', 0.0)||('acute', 'adj', 'C0205178', ['tmco'], 0.0)||('pain medication', 'noun', 'C0002771', ['phsu'], 0.0)||('decreased', 'verb', 'C0205216', ['qnco'], 0.0)||('on', '', '', '', 0.0)||('both', '', '', '', 0.0)||('drugs', 'noun', 'C0013227', ['phsu'], 0.0)||(',', '', '', '', 0.0)||('as well as', '', '', '', 0.0)||('accompanying', '', '', '', 0.0)||('symptoms', 'noun', 'C0683368', ['ftcn'], 0.0)||('.', '', '', '', 0.0)||
('both', '', '', '', 0.0)||('patients', 'noun', 'C0030705', ['podg'], 0.0)||("'", '', '', '', 0.0)||('and', '', '', '', 0.0)||('physicians', 'noun', 'C0031831', ['prog'], 0.0)||("'", '', '', '', 0.0)||('evaluations', 'noun', 'C0220825', ['ftcn'], 0.0)||('of', '', '', '', 0.0)||('disability', 'noun', 'C0231170', ['fndg'], 0.0)||('and', '', '', '', 0.0)||('disease', 'noun', 'C0012634', ['dsyn'], 0.0)||('status', 'noun', 'C0449438', ['qlco'], 0.0)||('were', '', '', '', 0.0)||('similarly', '', '', '', 0.0)||('favorable', '', '', '', 0.0)||('to', '', '', '', 0.0)||('the', '', '', '', 0.0)||('2', '', '', '', 0.0)||('treatments', 'noun', 'C0087111', ['topp'], 0.0)||('.', '', '', '', 0.0)||
('regarding', '', '', '', 0.0)||('safety', 'noun', 'C0036043', ['hcpp'], 0.0)||(',', '', '', '', 0.0)||('nebivolol', 'noun', 'C0068475', ['orch', 'phsu'], 0.0)||('was', '', '', '', 0.0)||('considerably', '', '', '', 0.0)||('better', 'adj', 'C0332272', ['qlco'], 0.0)||('tolerated', '', '', '', 0.0)||('than', '', '', '', 0.0)||('metoprolol', 'noun', 'C0025859', ['orch', 'phsu'], 0.0)||('in', '', '', '', 0.0)||('terms', '', '', '', 0.0)||('of', '', '', '', 0.0)||('all', '', '', '', 0.0)||('reported', 'adj', 'C0684224', ['inpr'], 0.0)||('events', 'noun', 'C0441471', ['evnt'], 0.0)||(',', '', '', '', 0.0)||('treatment - related', '', '', '', 0.0)||('events', 'noun', 'C0441471', ['evnt'], 0.0)||(',', '', '', '', 0.0)||('and', '', '', '', 0.0)||('event', 'noun', 'C0441471', ['evnt'], 0.0)||('severity', 'noun', 'C0439793', ['qlco'], 0.0)||('.', '', '', '', 0.0)||
('our', '', '', '', 0.0)||('results', 'noun', 'C1274040', ['ftcn'], 0.0)||('suggest', 'verb', 'C1705535', ['idcn'], 0.0)||('that', '', '', '', 0.0)||('nebivolol', 'noun', 'C0068475', ['orch', 'phsu'], 0.0)||('is', '', '', '', 0.0)||('as', '', '', '', 0.0)||('effective', 'adj', 'C1704419', ['qlco'], 0.0)||('as', '', '', '', 0.0)||('metoprolol', 'noun', 'C0025859', ['orch', 'phsu'], 0.0)||('in', '', '', '', 0.0)||('the', '', '', '', 0.0)||('prophylaxis', 'noun', 'C0033107', ['inpr'], 0.0)||('of', '', '', '', 0.0)||('migraine', 'noun', 'C0149931', ['dsyn'], 0.0)||('attacks', '', '', '', 0.0)||(',', '', '', '', 0.0)||('with', '', '', '', 0.0)||('the', '', '', '', 0.0)||('advantages', '', '', '', 0.0)||('of', '', '', '', 0.0)||('being', '', '', '', 0.0)||('better', 'adj', 'C0332272', ['qlco'], 0.0)||('tolerated', '', '', '', 0.0)||('and', '', '', '', 0.0)||('not', 'adv', 'C1518422', ['ftcn'], 0.0)||('requiring', '', '', '', 0.0)||('up', '', '', '', 0.0)||('-', '', '', '', 0.0)||('titration', 'noun', 'C0162621', ['lbpr'], 0.0)||('to', '', '', '', 0.0)||('achieve', '', '', '', 0.0)||('therapeutic levels', '', '', '', 0.0)||('.', '', '', '', 0.0)||
('further', 'adj', 'C1517331', ['spco'], 0.0)||('and', '', '', '', 0.0)||('larger', 'adj', 'C0549177', ['qnco'], 0.0)||('trials', '', '', '', 0.0)||('should', '', '', '', 0.0)||('be', '', '', '', 0.0)||('conducted', '', '', '', 0.0)||('on', '', '', '', 0.0)||('nebivolol', 'noun', 'C0068475', ['orch', 'phsu'], 0.0)||('in', '', '', '', 0.0)||('the', '', '', '', 0.0)||('prevention', 'noun', 'C0199176', ['topp'], 0.0)||('of', '', '', '', 0.0)||('migraine', 'noun', 'C0149931', ['dsyn'], 0.0)||('attacks', '', '', '', 0.0)||('as', '', '', '', 0.0)||('it', '', '', '', 0.0)||('may', '', '', '', 0.0)||('provide', 'verb', 'C0359589', ['food'], 0.0)||('an', '', '', '', 0.0)||('improvement', '', '', '', 0.0)||('in', '', '', '', 0.0)||('current', 'adj', 'C0521116', ['tmco'], 0.0)||('migraine', 'noun', 'C0149931', ['dsyn'], 0.0)||('prophylaxis', 'noun', 'C0033107', ['inpr'], 0.0)||('with', '', '', '', 0.0)||('beta - blockers', '', '', '', 0.0)||('.', '', '', '', 0.0)||
