('migraine', 'noun', 'C0149931', ['dsyn'], 0.0)||('is', '', '', '', 0.0)||('a', '', '', '', 0.0)||('debilitating', '', '', '', 0.0)||('condition', 'noun', 'C0348080', ['qlco'], 0.0)||('characterized', 'verb', 'C1880022', ['acty'], 0.0)||('by', '', '', '', 0.0)||('a', '', '', '', 0.0)||('cycle', 'noun', 'C1511572', ['tmco'], 0.0)||('of', '', '', '', 0.0)||('painful', 'adj', 'C0030193', ['sosy'], 0.0)||('headaches', 'noun', 'C0018681', ['sosy'], 0.0)||('and', '', '', '', 0.0)||('headache', 'noun', 'C0018681', ['sosy'], 0.0)||('-', '', '', '', 0.0)||('related', 'adj', 'C0439849', ['qlco'], 0.0)||('symptoms', 'noun', 'C0683368', ['ftcn'], 0.0)||('interspersed', '', '', '', 0.0)||('with', '', '', '', 0.0)||('periods', '', '', '', 0.0)||('of', '', '', '', 0.0)||('worry', 'noun', 'C0233481', ['fndg'], 0.0)||(',', '', '', '', 0.0)||('distress', 'noun', 'C0231303', ['menp'], 0.0)||(',', '', '', '', 0.0)||('and', '', '', '', 0.0)||('apprehension', 'noun', 'C0233485', ['fndg'], 0.0)||('.', '', '', '', 0.0)||
('the', '', '', '', 0.0)||('negative', 'adj', 'C0205160', ['qlco'], 0.0)||('impact', '', '', '', 0.0)||('of', '', '', '', 0.0)||('migraine', 'noun', 'C0149931', ['dsyn'], 0.0)||('on', '', '', '', 0.0)||('patient', '', '', '', 0.0)||('functioning', '', '', '', 0.0)||(',', '', '', '', 0.0)||('workplace', 'noun', 'C0162579', ['spco'], 0.0)||('productivity', 'noun', 'C0033269', ['qnco'], 0.0)||(',', '', '', '', 0.0)||('and', '', '', '', 0.0)||('other', '', '', '', 0.0)||('daily', 'adj', 'C0332173', ['tmco'], 0.0)||('activities', 'noun', 'C0441655', ['acty'], 0.0)||('has', '', '', '', 0.0)||('been', '', '', '', 0.0)||('demonstrated', '', '', '', 0.0)||('through', '', '', '', 0.0)||('the', '', '', '', 0.0)||('use', 'noun', 'C0042153', ['ftcn'], 0.0)||('of', '', '', '', 0.0)||('a', '', '', '', 0.0)||('variety', 'noun', 'C1883525', ['cnce'], 0.0)||('of', '', '', '', 0.0)||('clinician', 'noun', 'C1550470', ['idcn'], 0.0)||('-', '', '', '', 0.0)||('and', '', '', '', 0.0)||('patient', '', '', '', 0.0)||('-', '', '', '', 0.0)||('reported', 'adj', 'C0684224', ['inpr'], 0.0)||('assessment', 'noun', 'C1261322', ['hlca'], 0.0)||('tools', '', '', '', 0.0)||(',', '', '', '', 0.0)||('including', '', '', '', 0.0)||('the', '', '', '', 0.0)||('migraine', 'noun', 'C0149931', ['dsyn'], 0.0)||('-', '', '', '', 0.0)||('specific', 'adj', 'C0205369', ['qlco'], 0.0)||('questionnaire', 'noun', 'C0034394', ['inpr'], 0.0)||('and', '', '', '', 0.0)||('the', '', '', '', 0.0)||('migraine disability assessment questionnaire', '', '', '', 0.0)||('.', '', '', '', 0.0)||
('in', '', '', '', 0.0)||('addition', 'noun', 'C1883712', ['ftcn'], 0.0)||('to', '', '', '', 0.0)||('considering', '', '', '', 0.0)||('the', '', '', '', 0.0)||('frequency', 'noun', 'C0376249', ['qnco'], 0.0)||('and', '', '', '', 0.0)||('severity', 'noun', 'C0439793', ['qlco'], 0.0)||('of', '', '', '', 0.0)||('migraine', 'noun', 'C0149931', ['dsyn'], 0.0)||(',', '', '', '', 0.0)||('clinicians', 'noun', 'C0871685', ['prog'], 0.0)||('need', 'verb', 'C0027552', ['qlco'], 0.0)||('to', '', '', '', 0.0)||('encourage', '', '', '', 0.0)||('more', '', '', '', 0.0)||('open', 'verb', 'C0175566', ['spco'], 0.0)||('dialogue', '', '', '', 0.0)||('with', '', '', '', 0.0)||('their', '', '', '', 0.0)||('patients', 'noun', 'C0030705', ['podg'], 0.0)||('about', '', '', '', 0.0)||('the', '', '', '', 0.0)||('impact', '', '', '', 0.0)||('of', '', '', '', 0.0)||('this', '', '', '', 0.0)||('disorder', 'noun', 'C0012634', ['dsyn'], 0.0)||('on', '', '', '', 0.0)||('daily', 'adj', 'C0332173', ['tmco'], 0.0)||('activities', 'noun', 'C0441655', ['acty'], 0.0)||('and', '', '', '', 0.0)||('productivity', 'noun', 'C0033269', ['qnco'], 0.0)||('.', '', '', '', 0.0)||
('only', '', '', '', 0.0)||('then', 'adv', 'C1883708', ['tmco'], 0.0)||('can', '', '', '', 0.0)||('the', '', '', '', 0.0)||('most', '', '', '', 0.0)||('appropriate', 'adj', 'C1548787', ['qlco'], 0.0)||('course', 'noun', 'C0750729', ['tmco'], 0.0)||('of', '', '', '', 0.0)||('treatment', 'noun', 'C0039798', ['ftcn'], 0.0)||('be', '', '', '', 0.0)||('determined', '', '', '', 0.0)||('.', '', '', '', 0.0)||
('appropriately', '', '', '', 0.0)||('prescribed', 'verb', 'C0278329', ['hlca'], 0.0)||('acute', 'adj', 'C0205178', ['tmco'], 0.0)||('and', '', '', '', 0.0)||('preventive', 'adj', 'C1456501', ['qlco'], 0.0)||('therapies', 'noun', 'C0087111', ['topp'], 0.0)||('should', '', '', '', 0.0)||('break', 'verb', 'C1881704', ['phpr'], 0.0)||('the', '', '', '', 0.0)||('cycle', 'noun', 'C1511572', ['tmco'], 0.0)||('of', '', '', '', 0.0)||('migraine', 'noun', 'C0149931', ['dsyn'], 0.0)||('and', '', '', '', 0.0)||('improve', 'verb', 'C0332161', ['qlco'], 0.0)||('the', '', '', '', 0.0)||('daily', 'adj', 'C0332173', ['tmco'], 0.0)||('activities', 'noun', 'C0441655', ['acty'], 0.0)||('of', '', '', '', 0.0)||('patients', 'noun', 'C0030705', ['podg'], 0.0)||('with', '', '', '', 0.0)||('this', '', '', '', 0.0)||('chronic', 'adj', 'C0205191', ['tmco'], 0.0)||('condition', 'noun', 'C0348080', ['qlco'], 0.0)||('.', '', '', '', 0.0)||
('divalproex sodium', 'noun', 'C0886883', ['orch', 'phsu'], 0.0)||('and', '', '', '', 0.0)||('topiramate', 'noun', 'C0076829', ['orch', 'phsu'], 0.0)||('are', '', '', '', 0.0)||('neuromodulators', 'noun', 'C0949370', ['nsba'], 0.0)||('that', '', '', '', 0.0)||('are', '', '', '', 0.0)||('approved', 'verb', 'C0205540', ['qlco'], 0.0)||('by', '', '', '', 0.0)||('the', '', '', '', 0.0)||('us', '', '', '', 0.0)||('food and drug administration', 'noun', 'C0041714', ['hcro'], 0.0)||('for', '', '', '', 0.0)||('the', '', '', '', 0.0)||('prophylaxis', 'noun', 'C0033107', ['inpr'], 0.0)||('(', '', '', '', 0.0)||('prevention', 'noun', 'C0199176', ['topp'], 0.0)||(')', '', '', '', 0.0)||('of', '', '', '', 0.0)||('migraine headache', '', '', '', 0.0)||('in', '', '', '', 0.0)||('adults', 'noun', 'C0001675', ['aggp'], 0.0)||('.', '', '', '', 0.0)||
('non - food', '', '', '', 0.0)||('and', '', '', '', 0.0)||('drug administration', 'noun', 'C0150270', ['hlca'], 0.0)||('-', '', '', '', 0.0)||('approved', 'adj', 'C0205540', ['qlco'], 0.0)||('neuromodulators', 'noun', 'C0949370', ['nsba'], 0.0)||('sometimes', 'noun', 'C1998882', ['tmco'], 0.0)||('used', '', '', '', 0.0)||('in', '', '', '', 0.0)||('the', '', '', '', 0.0)||('management', 'noun', 'C0001554', ['ocac'], 0.0)||('of', '', '', '', 0.0)||('migraine headache', '', '', '', 0.0)||('include', 'verb', 'C1552866', ['idcn'], 0.0)||('gabapentin', 'noun', 'C0060926', ['orch', 'phsu'], 0.0)||(',', '', '', '', 0.0)||('lamotrigine', 'noun', 'C0064636', ['orch', 'phsu'], 0.0)||(',', '', '', '', 0.0)||('levetiracetam', 'noun', 'C0377265', ['orch', 'phsu'], 0.0)||(',', '', '', '', 0.0)||('and', '', '', '', 0.0)||('zonisamide', 'noun', 'C0078844', ['orch', 'phsu'], 0.0)||('.', '', '', '', 0.0)||
('all', '', '', '', 0.0)||('medications', 'noun', 'C0013227', ['phsu'], 0.0)||('need', 'verb', 'C0027552', ['qlco'], 0.0)||('to', '', '', '', 0.0)||('be', '', '', '', 0.0)||('titrated', '', '', '', 0.0)||(',', '', '', '', 0.0)||('and', '', '', '', 0.0)||('treatment - related', '', '', '', 0.0)||('adverse', '', '', '', 0.0)||('events', 'noun', 'C0441471', ['evnt'], 0.0)||('need', 'verb', 'C0027552', ['qlco'], 0.0)||('to', '', '', '', 0.0)||('be', '', '', '', 0.0)||('managed', 'verb', 'C1273870', ['ocac'], 0.0)||('appropriately', '', '', '', 0.0)||('.', '', '', '', 0.0)||
('preventive', 'adj', 'C1456501', ['qlco'], 0.0)||('medications', 'noun', 'C0013227', ['phsu'], 0.0)||('should', '', '', '', 0.0)||('be', '', '', '', 0.0)||('taken', 'verb', 'C1883727', ['cnce'], 0.0)||('for', '', '', '', 0.0)||('at', '', '', '', 0.0)||('least', '', '', '', 0.0)||('2', '', '', '', 0.0)||('-', '', '', '', 0.0)||('3', '', '', '', 0.0)||('months', 'noun', 'C0439231', ['tmco'], 0.0)||('to', '', '', '', 0.0)||('ascertain', '', '', '', 0.0)||('their', '', '', '', 0.0)||('therapeutic', 'adj', 'C0039796', ['topp'], 0.0)||('effect', 'noun', 'C1280500', ['qlco'], 0.0)||('.', '', '', '', 0.0)||
