('we', '', '', '', 0.0)||('used', '', '', '', 0.0)||('meta - analytic', '', '', '', 0.0)||('statistical', 'adj', 'C0038215', ['ocdi'], 0.0)||('techniques', 'noun', 'C0025664', ['inpr'], 0.0)||('to', '', '', '', 0.0)||('synthesize', '', '', '', 0.0)||('findings', 'noun', 'C2607943', ['ftcn'], 0.0)||('from', '', '', '', 0.0)||('studies', '', '', '', 0.0)||('that', '', '', '', 0.0)||('evaluated', 'adj', 'C0220825', ['ftcn'], 0.0)||('propranolol', 'noun', 'C0033497', ['orch', 'phsu'], 0.0)||('hci', '', '', '', 0.0)||('for', '', '', '', 0.0)||('the', '', '', '', 0.0)||('prevention', 'noun', 'C0199176', ['topp'], 0.0)||('of', '', '', '', 0.0)||('recurrent', 'adj', 'C0034897', ['phpr'], 0.0)||('migraine', 'noun', 'C0149931', ['dsyn'], 0.0)||('(', '', '', '', 0.0)||('2 , 403', '', '', '', 0.0)||('treated', 'adj', 'C1522326', ['ftcn'], 0.0)||('patients', 'noun', 'C0030705', ['podg'], 0.0)||(')', '', '', '', 0.0)||('.', '', '', '', 0.0)||
('the', '', '', '', 0.0)||('modal', '', '', '', 0.0)||('migraine', 'noun', 'C0149931', ['dsyn'], 0.0)||('sufferer', '', '', '', 0.0)||('treated', 'verb', 'C1522326', ['ftcn'], 0.0)||('in', '', '', '', 0.0)||('these', '', '', '', 0.0)||('studies', '', '', '', 0.0)||('was', '', '', '', 0.0)||('a', '', '', '', 0.0)||('female', 'noun', 'C0015780', ['orga'], 0.0)||(',', '', '', '', 0.0)||('about', '', '', '', 0.0)||('37', '', '', '', 0.0)||('years', 'noun', 'C0439234', ['tmco'], 0.0)||('of', '', '', '', 0.0)||('age', 'noun', 'C0001779', ['orga'], 0.0)||(',', '', '', '', 0.0)||('who', '', '', '', 0.0)||('suffered', '', '', '', 0.0)||('from', '', '', '', 0.0)||('common', 'adj', 'C0205214', ['qnco'], 0.0)||('(', '', '', '', 0.0)||('rather than', '', '', '', 0.0)||('classical', 'adj', 'C0439858', ['qlco'], 0.0)||(')', '', '', '', 0.0)||('migraines', 'noun', 'C0149931', ['dsyn'], 0.0)||('and', '', '', '', 0.0)||('reported', 'verb', 'C0684224', ['inpr'], 0.0)||('a', '', '', '', 0.0)||('17', '', '', '', 0.0)||('-', '', '', '', 0.0)||('year', 'noun', 'C0439234', ['tmco'], 0.0)||('history', 'noun', 'C0019664', ['ocdi'], 0.0)||('of', '', '', '', 0.0)||('problem', 'noun', 'C0033213', ['fndg'], 0.0)||('migraines', 'noun', 'C0149931', ['dsyn'], 0.0)||('.', '', '', '', 0.0)||
('the', '', '', '', 0.0)||('modal', '', '', '', 0.0)||('treatment', 'noun', 'C0039798', ['ftcn'], 0.0)||('was', '', '', '', 0.0)||('160', '', '', '', 0.0)||('mg', '', '', '', 0.0)||('.', '', '', '', 0.0)||
('propranolol', 'noun', 'C0033497', ['orch', 'phsu'], 0.0)||('per', '', '', '', 0.0)||('day', 'noun', 'C0439228', ['tmco'], 0.0)||('.', '', '', '', 0.0)||
('meta - analysis', '', '', '', 0.0)||('revealed', 'verb', 'C0443289', ['qlco'], 0.0)||('that', '', '', '', 0.0)||(',', '', '', '', 0.0)||('on', '', '', '', 0.0)||('average', 'noun', 'C1510992', ['qnco'], 0.0)||(',', '', '', '', 0.0)||('propranolol', 'noun', 'C0033497', ['orch', 'phsu'], 0.0)||('yielded', '', '', '', 0.0)||('a', '', '', '', 0.0)||('44 %', '', '', '', 0.0)||('reduction', 'noun', 'C0301630', ['npop'], 0.0)||('in', '', '', '', 0.0)||('migraine', 'noun', 'C0149931', ['dsyn'], 0.0)||('activity', 'noun', 'C0441655', ['acty'], 0.0)||('when', '', '', '', 0.0)||('daily', 'adj', 'C0332173', ['tmco'], 0.0)||('headache', 'noun', 'C0018681', ['sosy'], 0.0)||('recordings', '', '', '', 0.0)||('were', '', '', '', 0.0)||('used', '', '', '', 0.0)||('to', '', '', '', 0.0)||('assess', 'verb', 'C1516048', ['acty'], 0.0)||('treatment', 'noun', 'C0039798', ['ftcn'], 0.0)||('outcome', 'noun', 'C1274040', ['ftcn'], 0.0)||(',', '', '', '', 0.0)||('and', '', '', '', 0.0)||('a', '', '', '', 0.0)||('65 %', '', '', '', 0.0)||('reduction', 'noun', 'C0301630', ['npop'], 0.0)||('in', '', '', '', 0.0)||('migraine', 'noun', 'C0149931', ['dsyn'], 0.0)||('activity', 'noun', 'C0441655', ['acty'], 0.0)||('when', '', '', '', 0.0)||('less', '', '', '', 0.0)||('conservative', '', '', '', 0.0)||('measures', 'noun', 'C0079809', ['qnco'], 0.0)||('(', '', '', '', 0.0)||('e . g .', '', '', '', 0.0)||(',', '', '', '', 0.0)||('clinical', 'adj', 'C0205210', ['qlco'], 0.0)||('ratings', '', '', '', 0.0)||('of', '', '', '', 0.0)||('improvement', '', '', '', 0.0)||(',', '', '', '', 0.0)||('global', 'adj', 'C0205246', ['spco'], 0.0)||('patient', '', '', '', 0.0)||('reports', 'noun', 'C0684224', ['inpr'], 0.0)||(')', '', '', '', 0.0)||('were', '', '', '', 0.0)||('used', '', '', '', 0.0)||('.', '', '', '', 0.0)||
('meta - analysis', '', '', '', 0.0)||('thus', '', '', '', 0.0)||('revealed', 'verb', 'C0443289', ['qlco'], 0.0)||('substantial', '', '', '', 0.0)||('support', 'noun', 'C0183683', ['medd'], 0.0)||('for', '', '', '', 0.0)||('short - term', '', '', '', 0.0)||('effectiveness', 'noun', 'C1280519', ['qlco'], 0.0)||('of', '', '', '', 0.0)||('propranolol', 'noun', 'C0033497', ['orch', 'phsu'], 0.0)||('.', '', '', '', 0.0)||
('however', '', '', '', 0.0)||(',', '', '', '', 0.0)||('little', '', '', '', 0.0)||('information', 'noun', 'C1533716', ['idcn'], 0.0)||('was', '', '', '', 0.0)||('available', 'adj', 'C0470187', ['ftcn'], 0.0)||('concerning', '', '', '', 0.0)||('the', '', '', '', 0.0)||('long - term', '', '', '', 0.0)||('effectiveness', 'noun', 'C1280519', ['qlco'], 0.0)||('of', '', '', '', 0.0)||('propranolol', 'noun', 'C0033497', ['orch', 'phsu'], 0.0)||('.', '', '', '', 0.0)||
