('beta - blockers', '', '', '', 0.0)||('with', '', '', '', 0.0)||('intrinsic sympathomimetic activity', '', '', '', 0.0)||('(', '', '', '', 0.0)||('acebutolol', 'noun', 'C0000946', ['orch', 'phsu'], 0.0)||(',', '', '', '', 0.0)||('alprenolol', 'noun', 'C0002334', ['orch', 'phsu'], 0.0)||(',', '', '', '', 0.0)||('oxprenolol', 'noun', 'C0030040', ['orch', 'phsu'], 0.0)||(',', '', '', '', 0.0)||('pindolol', 'noun', 'C0031937', ['orch', 'phsu'], 0.0)||(')', '', '', '', 0.0)||('appear', '', '', '', 0.0)||('to', '', '', '', 0.0)||('be', '', '', '', 0.0)||('ineffective', '', '', '', 0.0)||('for', '', '', '', 0.0)||('migraine', 'noun', 'C0149931', ['dsyn'], 0.0)||('prevention', 'noun', 'C0199176', ['topp'], 0.0)||('.', '', '', '', 0.0)||
('divalproex sodium', 'noun', 'C0886883', ['orch', 'phsu'], 0.0)||('and', '', '', '', 0.0)||('sodium valproate', 'noun', 'C0037567', ['lipd', 'phsu'], 0.0)||('show', 'verb', 'C1547282', ['inpr'], 0.0)||('strong', 'adj', 'C0442821', ['qlco'], 0.0)||(',', '', '', '', 0.0)||('consistent', 'adj', 'C0332290', ['idcn'], 0.0)||('evidence', 'noun', 'C0332120', ['ftcn'], 0.0)||('of', '', '', '', 0.0)||('efficacy', 'noun', 'C1707887', ['resa'], 0.0)||(';', '', '', '', 0.0)||
('they', '', '', '', 0.0)||('may', '', '', '', 0.0)||('be', '', '', '', 0.0)||('particularly', '', '', '', 0.0)||('useful', '', '', '', 0.0)||('for', '', '', '', 0.0)||('patients', 'noun', 'C0030705', ['podg'], 0.0)||('with', '', '', '', 0.0)||('prolonged', 'adj', 'C0439590', ['tmco'], 0.0)||('or', '', '', '', 0.0)||('atypical', 'adj', 'C0205182', ['qlco'], 0.0)||('migraine', 'noun', 'C0149931', ['dsyn'], 0.0)||('aura', 'noun', 'C0236018', ['fndg'], 0.0)||('.', '', '', '', 0.0)||
