('the', '', '', '', 0.0)||('term', 'noun', 'C1515273', ['tmco'], 0.0)||("'", '', '', '', 0.0)||('failure to thrive', 'noun', 'C0015544', ['dsyn'], 0.0)||("'", '', '', '', 0.0)||('(', '', '', '', 0.0)||('ftt', '', '', '', 0.0)||(')', '', '', '', 0.0)||('is', '', '', '', 0.0)||('widely', '', '', '', 0.0)||('used', '', '', '', 0.0)||('to', '', '', '', 0.0)||('describe', '', '', '', 0.0)||('inadequate', 'adj', 'C0205412', ['qlco'], 0.0)||('growth', 'noun', 'C0018270', ['orgf'], 0.0)||('in', '', '', '', 0.0)||('early', 'adj', 'C1279919', ['tmco'], 0.0)||('childhood', 'noun', 'C0231335', ['tmco'], 0.0)||('.', '', '', '', 0.0)||
('however', '', '', '', 0.0)||(',', '', '', '', 0.0)||('no', '', '', '', 0.0)||('consensus', 'noun', 'C0376298', ['socb'], 0.0)||('exists', '', '', '', 0.0)||('concerning', '', '', '', 0.0)||('the', '', '', '', 0.0)||('specific', 'adj', 'C0205369', ['qlco'], 0.0)||('anthropometrical', '', '', '', 0.0)||('criteria', 'noun', 'C0243161', ['inpr'], 0.0)||('to', '', '', '', 0.0)||('define', '', '', '', 0.0)||('this', '', '', '', 0.0)||('description', 'noun', 'C0678257', ['idcn'], 0.0)||('.', '', '', '', 0.0)||
('the', '', '', '', 0.0)||('aim', 'noun', 'C1947946', ['idcn'], 0.0)||('of', '', '', '', 0.0)||('this', '', '', '', 0.0)||('study', 'noun', 'C0008976', ['resa'], 0.0)||('was', '', '', '', 0.0)||('to', '', '', '', 0.0)||('make', 'verb', 'C1881534', ['ftcn'], 0.0)||('an', '', '', '', 0.0)||('updated', '', '', '', 0.0)||('assessment', 'noun', 'C1261322', ['hlca'], 0.0)||('concerning', '', '', '', 0.0)||('the', '', '', '', 0.0)||('use', 'noun', 'C0042153', ['ftcn'], 0.0)||('of', '', '', '', 0.0)||('ftt', '', '', '', 0.0)||('definitions', '', '', '', 0.0)||('and', '', '', '', 0.0)||('describe', '', '', '', 0.0)||('possible', 'adj', 'C0332149', ['qlco'], 0.0)||('trends', 'noun', 'C0040833', ['tmco'], 0.0)||('regarding', '', '', '', 0.0)||('the', '', '', '', 0.0)||('use', 'noun', 'C0042153', ['ftcn'], 0.0)||('of', '', '', '', 0.0)||('specific', 'adj', 'C0205369', ['qlco'], 0.0)||('criteria', 'noun', 'C0243161', ['inpr'], 0.0)||('.', '', '', '', 0.0)||
('a', '', '', '', 0.0)||('cross - sectional', '', '', '', 0.0)||('review', 'noun', 'C0282443', ['inpr'], 0.0)||('was', '', '', '', 0.0)||('done', '', '', '', 0.0)||('covering', 'adj', 'C1999244', ['ftcn'], 0.0)||('english', 'noun', 'C1556083', ['popg'], 0.0)||('-', '', '', '', 0.0)||('language', 'noun', 'C0023008', ['lang'], 0.0)||('articles', '', '', '', 0.0)||('published', 'verb', 'C0034037', ['ocac'], 0.0)||('from', '', '', '', 0.0)||('january', '', '', '', 0.0)||('2003', '', '', '', 0.0)||('until', '', '', '', 0.0)||('june', '', '', '', 0.0)||('2004', '', '', '', 0.0)||(',', '', '', '', 0.0)||('and', '', '', '', 0.0)||('recent', 'adj', 'C0332185', ['tmco'], 0.0)||('textbooks', 'noun', 'C0039712', ['inpr', 'mnob'], 0.0)||('of', '', '', '', 0.0)||('general', 'adj', 'C0205246', ['spco'], 0.0)||('pediatrics', '', '', '', 0.0)||('.', '', '', '', 0.0)||
('most', '', '', '', 0.0)||('of', '', '', '', 0.0)||('the', '', '', '', 0.0)||('reviewed', 'adj', 'C1709940', ['qlco'], 0.0)||('literature', 'noun', 'C0023866', ['inpr'], 0.0)||('broadly', '', '', '', 0.0)||('defined', 'adj', 'C1704788', ['cnce'], 0.0)||('ftt', '', '', '', 0.0)||('as', '', '', '', 0.0)||('inadequate', 'adj', 'C0205412', ['qlco'], 0.0)||('growth', 'noun', 'C0018270', ['orgf'], 0.0)||('and', '', '', '', 0.0)||('total', 'adj', 'C0439810', ['qlco'], 0.0)||('agreement', 'noun', 'C0680240', ['socb'], 0.0)||('existed', '', '', '', 0.0)||('to', '', '', '', 0.0)||('define', '', '', '', 0.0)||('ftt', '', '', '', 0.0)||('based', 'verb', 'C1527178', ['ftcn'], 0.0)||('solely', '', '', '', 0.0)||('on', '', '', '', 0.0)||('anthropometrical', '', '', '', 0.0)||('parameters', 'noun', 'C0449381', ['fndg'], 0.0)||('.', '', '', '', 0.0)||
('large', 'adj', 'C0549177', ['qnco'], 0.0)||('differences', '', '', '', 0.0)||(',', '', '', '', 0.0)||('however', '', '', '', 0.0)||(',', '', '', '', 0.0)||('were', '', '', '', 0.0)||('seen', 'verb', 'C0205397', ['qlco'], 0.0)||('regarding', '', '', '', 0.0)||('which', '', '', '', 0.0)||('growth', 'noun', 'C0018270', ['orgf'], 0.0)||('parameters', 'noun', 'C0449381', ['fndg'], 0.0)||('to', '', '', '', 0.0)||('use', 'verb', 'C0042153', ['ftcn'], 0.0)||('and', '', '', '', 0.0)||('whether', '', '', '', 0.0)||('to', '', '', '', 0.0)||('use', 'verb', 'C0042153', ['ftcn'], 0.0)||('attained', '', '', '', 0.0)||('values', 'noun', 'C0042295', ['qlco'], 0.0)||('or', '', '', '', 0.0)||('velocities', 'noun', 'C0439830', ['qnco'], 0.0)||('.', '', '', '', 0.0)||
('weight', 'noun', 'C0005910', ['orga'], 0.0)||('was', '', '', '', 0.0)||('the', '', '', '', 0.0)||('most', '', '', '', 0.0)||('predominant', '', '', '', 0.0)||('choice', 'noun', 'C0008300', ['inbe'], 0.0)||(',', '', '', '', 0.0)||('but', '', '', '', 0.0)||('many', '', '', '', 0.0)||('included', '', '', '', 0.0)||('more', '', '', '', 0.0)||('than', '', '', '', 0.0)||('one', 'noun', 'C0205447', ['qnco'], 0.0)||('anthropometrical', '', '', '', 0.0)||('parameter', 'noun', 'C0549193', ['spco'], 0.0)||('.', '', '', '', 0.0)||
('failure to thrive', 'noun', 'C0015544', ['dsyn'], 0.0)||('in', '', '', '', 0.0)||('children', 'noun', 'C0008059', ['aggp'], 0.0)||('is', '', '', '', 0.0)||('currently', 'adv', 'C0521116', ['tmco'], 0.0)||('described', 'verb', 'C1552738', ['idcn'], 0.0)||('solely', '', '', '', 0.0)||('based', 'verb', 'C1527178', ['ftcn'], 0.0)||('on', '', '', '', 0.0)||('anthropometrical', '', '', '', 0.0)||('indicators', 'noun', 'C0021212', ['irda'], 0.0)||(',', '', '', '', 0.0)||('with', '', '', '', 0.0)||('weight gain', 'noun', 'C0043094', ['fndg'], 0.0)||('as', '', '', '', 0.0)||('the', '', '', '', 0.0)||('predominant', '', '', '', 0.0)||('choice', 'noun', 'C0008300', ['inbe'], 0.0)||('of', '', '', '', 0.0)||('indicator', 'noun', 'C1235732', ['bird'], 0.0)||('and', '', '', '', 0.0)||('cut off', '', '', '', 0.0)||('around', '', '', '', 0.0)||('the', '', '', '', 0.0)||('5th', '', 'C0205439', ['qnco'], 0.0)||('percentile', 'noun', 'C1264641', ['qnco'], 0.0)||('.', '', '', '', 0.0)||
('discussion', 'noun', 'C0557061', ['topp'], 0.0)||('is', '', '', '', 0.0)||('needed', 'verb', 'C0027552', ['qlco'], 0.0)||('as to', '', '', '', 0.0)||('whether', '', '', '', 0.0)||('the', '', '', '', 0.0)||('term', 'noun', 'C1515273', ['tmco'], 0.0)||("'", '', '', '', 0.0)||('failure to thrive', 'noun', 'C0015544', ['dsyn'], 0.0)||("'", '', '', '', 0.0)||('is', '', '', '', 0.0)||('still', '', '', '', 0.0)||('a', '', '', '', 0.0)||('useful', '', '', '', 0.0)||('common', 'adj', 'C0205214', ['qnco'], 0.0)||('term', 'noun', 'C1515273', ['tmco'], 0.0)||('for', '', '', '', 0.0)||('pediatric', 'adj', 'C1521725', ['qlco'], 0.0)||('undernutrition', 'noun', 'C0162429', ['dsyn'], 0.0)||('of', '', '', '', 0.0)||('different', 'adj', 'C1705242', ['qlco'], 0.0)||('types', 'noun', 'C0332307', ['qlco'], 0.0)||('.', '', '', '', 0.0)||
