('a', '', '', '', 0.0)||('us', '', '', '', 0.0)||('national', '', '', '', 0.0)||('cohort study', 'noun', 'C0009247', ['qnco'], 0.0)||('of', '', '', '', 0.0)||('3192', '', '', '', 0.0)||('children', 'noun', 'C0008059', ['aggp'], 0.0)||('adjusted', 'verb', 'C0456081', ['ftcn'], 0.0)||('for', '', '', '', 0.0)||('gestational age', 'noun', 'C0017504', ['orga'], 0.0)||(',', '', '', '', 0.0)||('found', '', '', '', 0.0)||('that', '', '', '', 0.0)||('large', 'adj', 'C0549177', ['qnco'], 0.0)||('-', '', '', '', 0.0)||('for', '', '', '', 0.0)||('-', '', '', '', 0.0)||('gestational - age', '', '', '', 0.0)||('infants', 'noun', 'C0021270', ['aggp'], 0.0)||('with', '', '', '', 0.0)||('birth weights', 'noun', 'C0005612', ['orga'], 0.0)||('above', '', '', '', 0.0)||('the', '', '', '', 0.0)||('90th', '', '', '', 0.0)||('percentile', 'noun', 'C1264641', ['qnco'], 0.0)||('remained', '', '', '', 0.0)||('longer', '', '', '', 0.0)||('and', '', '', '', 0.0)||('heavier', '', '', '', 0.0)||('through', '', '', '', 0.0)||('83', '', '', '', 0.0)||('months', 'noun', 'C0439231', ['tmco'], 0.0)||('of', '', '', '', 0.0)||('life', 'noun', 'C0376558', ['idcn'], 0.0)||('.', '', '', '', 0.0)||
('the', '', '', '', 0.0)||('triceps', 'noun', 'C0559502', ['bpoc'], 0.0)||('and', '', '', '', 0.0)||('subscapular', '', '', '', 0.0)||('skinfold', '', '', '', 0.0)||('measurements', '', '', '', 0.0)||('at', '', '', '', 0.0)||('3', '', '', '', 0.0)||('years', 'noun', 'C0439234', ['tmco'], 0.0)||('of', '', '', '', 0.0)||('age', 'noun', 'C0001779', ['orga'], 0.0)||('for', '', '', '', 0.0)||('children', 'noun', 'C0008059', ['aggp'], 0.0)||('born', '', '', '', 0.0)||('large', 'adj', 'C0549177', ['qnco'], 0.0)||('-', '', '', '', 0.0)||('for', '', '', '', 0.0)||('-', '', '', '', 0.0)||('gestational - age', '', '', '', 0.0)||('were', '', '', '', 0.0)||('virtually', '', '', '', 0.0)||('identical', 'adj', 'C0205280', ['qlco'], 0.0)||('to', '', '', '', 0.0)||('those', '', '', '', 0.0)||('of', '', '', '', 0.0)||('children', 'noun', 'C0008059', ['aggp'], 0.0)||('born', '', '', '', 0.0)||('appropriate', 'adj', 'C1548787', ['qlco'], 0.0)||('for', '', '', '', 0.0)||('gestational age', 'noun', 'C0017504', ['orga'], 0.0)||(',', '', '', '', 0.0)||('but', '', '', '', 0.0)||('by', '', '', '', 0.0)||('6', '', '', '', 0.0)||('years', 'noun', 'C0439234', ['tmco'], 0.0)||('of', '', '', '', 0.0)||('age', 'noun', 'C0001779', ['orga'], 0.0)||(',', '', '', '', 0.0)||('skinfold', '', '', '', 0.0)||('measurements', '', '', '', 0.0)||('had', '', '', '', 0.0)||('diverged', '', '', '', 0.0)||('considerably', '', '', '', 0.0)||(',', '', '', '', 0.0)||('to', '', '', '', 0.0)||('more', '', '', '', 0.0)||('than', '', '', '', 0.0)||('0 . 60', '', '', '', 0.0)||('standard deviations', '', '', '', 0.0)||('.', '', '', '', 0.0)||
('the', '', '', '', 0.0)||('researchers', 'noun', 'C0035173', ['prog'], 0.0)||('concluded', '', '', '', 0.0)||('that', '', '', '', 0.0)||('intrauterine', 'adj', 'C0694756', ['bsoj'], 0.0)||('growth', 'noun', 'C0018270', ['orgf'], 0.0)||('is', '', '', '', 0.0)||('associated', 'verb', 'C0332281', ['qlco'], 0.0)||('with', '', '', '', 0.0)||('obesity', 'noun', 'C0028754', ['dsyn'], 0.0)||('in', '', '', '', 0.0)||('early', 'adj', 'C1279919', ['tmco'], 0.0)||('childhood', 'noun', 'C0231335', ['tmco'], 0.0)||('.', '', '', '', 0.0)||
