('a', '', '', '', 0.0)||('retrospective', 'adj', 'C1514923', ['qlco'], 0.0)||('analysis', 'noun', 'C0002778', ['lbpr'], 0.0)||('of', '', '', '', 0.0)||('a', '', '', '', 0.0)||('cohort study', 'noun', 'C0009247', ['qnco'], 0.0)||('analyzed', 'verb', 'C0936012', ['resa'], 0.0)||('the', '', '', '', 0.0)||('tolerability', '', '', '', 0.0)||('of', '', '', '', 0.0)||('carvedilol', 'noun', 'C0054836', ['orch', 'phsu'], 0.0)||(',', '', '', '', 0.0)||('a', '', '', '', 0.0)||('nonselective', '', '', '', 0.0)||('beta', 'noun', 'C0330390', ['plnt'], 0.0)||('-', '', '', '', 0.0)||('and', '', '', '', 0.0)||('alpha - adrenergic', '', '', '', 0.0)||('blocker', '', '', '', 0.0)||(',', '', '', '', 0.0)||('in', '', '', '', 0.0)||('patients', 'noun', 'C0030705', ['podg'], 0.0)||('with', '', '', '', 0.0)||('copd', 'noun', 'C0024117', ['dsyn'], 0.0)||('who', '', '', '', 0.0)||('had', '', '', '', 0.0)||('been', '', '', '', 0.0)||('taking', '', '', '', 0.0)||('the', '', '', '', 0.0)||('medication', '', '', '', 0.0)||('for', '', '', '', 0.0)||('at', '', '', '', 0.0)||('least', '', '', '', 0.0)||('3', '', '', '', 0.0)||('months', 'noun', 'C0439231', ['tmco'], 0.0)||('.', '', '', '', 0.0)||
('eighty', '', '', '', 0.0)||('-', '', '', '', 0.0)||('five', '', 'C0205451', ['qnco'], 0.0)||('percent', 'noun', 'C0439165', ['qnco'], 0.0)||('of', '', '', '', 0.0)||('the', '', '', '', 0.0)||('89', '', '', '', 0.0)||('patients', 'noun', 'C0030705', ['podg'], 0.0)||('with', '', '', '', 0.0)||('copd', 'noun', 'C0024117', ['dsyn'], 0.0)||('tolerated', '', '', '', 0.0)||('carvedilol', 'noun', 'C0054836', ['orch', 'phsu'], 0.0)||('.', '', '', '', 0.0)||
('the', '', '', '', 0.0)||('authors', 'noun', 'C0341628', ['prog'], 0.0)||('of', '', '', '', 0.0)||('the', '', '', '', 0.0)||('study', 'noun', 'C0008976', ['resa'], 0.0)||('(', '', '', '', 0.0)||('which', '', '', '', 0.0)||('was', '', '', '', 0.0)||('funded', '', '', '', 0.0)||('by', '', '', '', 0.0)||('the', '', '', '', 0.0)||('manufacturer', 'noun', 'C0947322', ['inpr'], 0.0)||('of', '', '', '', 0.0)||('carvedilol', 'noun', 'C0054836', ['orch', 'phsu'], 0.0)||(')', '', '', '', 0.0)||('did', '', '', '', 0.0)||('not', 'adv', 'C1518422', ['ftcn'], 0.0)||('state', 'verb', 'C1301808', ['geoa'], 0.0)||('why', '', '', '', 0.0)||('the', '', '', '', 0.0)||('other', '', '', '', 0.0)||('15 %', '', '', '', 0.0)||('of', '', '', '', 0.0)||('patients', 'noun', 'C0030705', ['podg'], 0.0)||('did', '', '', '', 0.0)||('not', 'adv', 'C1518422', ['ftcn'], 0.0)||('tolerate', '', '', '', 0.0)||('carvedilol', 'noun', 'C0054836', ['orch', 'phsu'], 0.0)||(',', '', '', '', 0.0)||('nor', '', '', '', 0.0)||('did', '', '', '', 0.0)||('they', '', '', '', 0.0)||('mention', '', '', '', 0.0)||('whether', '', '', '', 0.0)||('the', '', '', '', 0.0)||('patients', 'noun', 'C0030705', ['podg'], 0.0)||('with', '', '', '', 0.0)||('copd', 'noun', 'C0024117', ['dsyn'], 0.0)||('had', '', '', '', 0.0)||('reversible', 'adj', 'C0205343', ['ftcn'], 0.0)||('airflow', 'noun', 'C0231999', ['phsf'], 0.0)||('obstruction', 'noun', 'C0028778', ['patf'], 0.0)||('.', '', '', '', 0.0)||
