('tamoxifen', 'noun', 'C0039286', ['orch', 'phsu'], 0.0)||('prevents', 'verb', 'C1292733', ['ftcn'], 0.0)||('breast cancer', 'noun', 'C0006142', ['neop'], 0.0)||('in', '', '', '', 0.0)||('women', 'noun', 'C0043210', ['popg'], 0.0)||('older', '', '', '', 0.0)||('than', '', '', '', 0.0)||('60', '', '', '', 0.0)||('years', 'noun', 'C0439234', ['tmco'], 0.0)||('and', '', '', '', 0.0)||('in', '', '', '', 0.0)||('younger', '', '', '', 0.0)||('women', 'noun', 'C0043210', ['popg'], 0.0)||('with', '', '', '', 0.0)||('equally', '', '', '', 0.0)||('high risk', '', '', '', 0.0)||('because of', '', '', '', 0.0)||('breast', 'noun', 'C0006141', ['bpoc'], 0.0)||('disease', 'noun', 'C0012634', ['dsyn'], 0.0)||('and', '', '', '', 0.0)||('reproductive', 'adj', 'C0035150', ['orgf'], 0.0)||('and', '', '', '', 0.0)||('family history', 'noun', 'C0241889', ['fndg'], 0.0)||(',', '', '', '', 0.0)||('but', '', '', '', 0.0)||('there', '', '', '', 0.0)||('is', '', '', '', 0.0)||('no', '', '', '', 0.0)||('current', 'adj', 'C0521116', ['tmco'], 0.0)||('evidence', 'noun', 'C0332120', ['ftcn'], 0.0)||('for', '', '', '', 0.0)||('or', '', '', '', 0.0)||('against', '', '', '', 0.0)||('long - term', '', '', '', 0.0)||('survival', 'noun', 'C0038952', ['acty'], 0.0)||('or', '', '', '', 0.0)||('overall', 'adj', 'C0282416', ['inpr'], 0.0)||('health', 'noun', 'C0018684', ['idcn'], 0.0)||('benefits', 'noun', 'C0814225', ['qnco'], 0.0)||('.', '', '', '', 0.0)||
('a', '', '', '', 0.0)||('49 %', '', '', '', 0.0)||('reduction', 'noun', 'C0301630', ['npop'], 0.0)||('in', '', '', '', 0.0)||('5', '', '', '', 0.0)||('-', '', '', '', 0.0)||('year', 'noun', 'C0439234', ['tmco'], 0.0)||('incidence', 'noun', 'C0021149', ['qnco'], 0.0)||('of', '', '', '', 0.0)||('invasive', 'adj', 'C0205281', ['qlco'], 0.0)||('and', '', '', '', 0.0)||('noninvasive', '', '', '', 0.0)||('breast cancer', 'noun', 'C0006142', ['neop'], 0.0)||('but', '', '', '', 0.0)||('increased risk', '', '', '', 0.0)||('for', '', '', '', 0.0)||('endometrial cancer', 'noun', 'C0476089', ['neop'], 0.0)||(',', '', '', '', 0.0)||('pulmonary', 'adj', 'C0024109', ['bpoc'], 0.0)||('emboli', 'noun', 'C1704212', ['fndg'], 0.0)||(',', '', '', '', 0.0)||('deep vein thrombosis', 'noun', 'C0042487', ['patf'], 0.0)||(',', '', '', '', 0.0)||('and', '', '', '', 0.0)||('cataracts', 'noun', 'C0086543', ['anab', 'dsyn'], 0.0)||('.', '', '', '', 0.0)||
('the', '', '', '', 0.0)||('long - term benefits', '', '', '', 0.0)||('and', '', '', '', 0.0)||('overall', 'adj', 'C0282416', ['inpr'], 0.0)||('health effects', '', '', '', 0.0)||('of', '', '', '', 0.0)||('tamoxifen', 'noun', 'C0039286', ['orch', 'phsu'], 0.0)||('for', '', '', '', 0.0)||('primary', 'adj', 'C0205225', ['qlco'], 0.0)||('prevention', 'noun', 'C0199176', ['topp'], 0.0)||('of', '', '', '', 0.0)||('breast cancer', 'noun', 'C0006142', ['neop'], 0.0)||('remain', '', '', '', 0.0)||('unclear', '', '', '', 0.0)||(';', '', '', '', 0.0)||
('the', '', '', '', 0.0)||('ongoing', 'adj', 'C0549178', ['idcn'], 0.0)||('international', 'adj', 'C1512888', ['idcn'], 0.0)||('breast cancer', 'noun', 'C0006142', ['neop'], 0.0)||('intervention study', 'noun', 'C0021810', ['resa'], 0.0)||('trial', 'noun', 'C0008976', ['resa'], 0.0)||('is', '', '', '', 0.0)||('designed', '', '', '', 0.0)||('to', '', '', '', 0.0)||('address', 'verb', 'C1442065', ['spco'], 0.0)||('this', '', '', '', 0.0)||('question', 'noun', 'C1522634', ['inpr'], 0.0)||('.', '', '', '', 0.0)||
