('urinary tract infections', '', '', '', 0.0)||('are', '', '', '', 0.0)||('considered', '', '', '', 0.0)||('to', '', '', '', 0.0)||('be', '', '', '', 0.0)||('the', '', '', '', 0.0)||('most', '', '', '', 0.0)||('common', 'adj', 'C0205214', ['qnco'], 0.0)||('bacterial infection', 'noun', 'C0004623', ['dsyn'], 0.0)||('.', '', '', '', 0.0)||
('according to', '', '', '', 0.0)||('the', '', '', '', 0.0)||('1997', '', '', '', 0.0)||('national ambulatory medical care survey', 'noun', 'C0376686', ['inpr'], 0.0)||('and', '', '', '', 0.0)||('national', '', '', '', 0.0)||('hospital', 'noun', 'C0019994', ['hcro', 'mnob'], 0.0)||('ambulatory', 'adj', 'C0439841', ['ftcn'], 0.0)||('medical', 'adj', 'C0205476', ['ftcn'], 0.0)||('care', 'noun', 'C0580931', ['fndg'], 0.0)||('survey', 'noun', 'C0038951', ['inpr'], 0.0)||(',', '', '', '', 0.0)||('uti', 'noun', 'C0042029', ['dsyn'], 0.0)||('accounted', '', '', '', 0.0)||('for', '', '', '', 0.0)||('nearly', '', '', '', 0.0)||('7', '', '', '', 0.0)||('million', 'noun', 'C1881839', ['qnco'], 0.0)||('office visits', 'noun', 'C0028900', ['hlca'], 0.0)||('and', '', '', '', 0.0)||('1', '', '', '', 0.0)||('million', 'noun', 'C1881839', ['qnco'], 0.0)||('emergency department', 'noun', 'C0562508', ['hcro', 'mnob'], 0.0)||('visits', 'noun', 'C0545082', ['bhvr'], 0.0)||(',', '', '', '', 0.0)||('resulting', '', '', '', 0.0)||('in', '', '', '', 0.0)||('100 , 000', '', '', '', 0.0)||('hospitalizations', 'noun', 'C0019993', ['hlca'], 0.0)||('.', '', '', '', 0.0)||
('nevertheless', '', '', '', 0.0)||(',', '', '', '', 0.0)||('it', '', '', '', 0.0)||('is', '', '', '', 0.0)||('difficult', 'adj', 'C0332218', ['qlco'], 0.0)||('to', '', '', '', 0.0)||('accurately', '', '', '', 0.0)||('assess', 'verb', 'C1516048', ['acty'], 0.0)||('the', '', '', '', 0.0)||('incidence', 'noun', 'C0021149', ['qnco'], 0.0)||('of', '', '', '', 0.0)||('urinary tract infections', '', '', '', 0.0)||(',', '', '', '', 0.0)||('because', '', '', '', 0.0)||('they', '', '', '', 0.0)||('are', '', '', '', 0.0)||('not', 'adv', 'C1518422', ['ftcn'], 0.0)||('reportable', '', '', '', 0.0)||('diseases', 'noun', 'C0012634', ['dsyn'], 0.0)||('in', '', '', '', 0.0)||('the', '', '', '', 0.0)||('united states', 'noun', 'C0041703', ['geoa'], 0.0)||('.', '', '', '', 0.0)||
('this', '', '', '', 0.0)||('situation', 'noun', 'C1998875', ['tmco'], 0.0)||('is', '', '', '', 0.0)||('further', 'adv', 'C1517331', ['spco'], 0.0)||('complicated', 'verb', 'C0231242', ['ftcn'], 0.0)||('by', '', '', '', 0.0)||('the', '', '', '', 0.0)||('fact', '', '', '', 0.0)||('that', '', '', '', 0.0)||('accurate', 'adj', 'C0443131', ['qlco'], 0.0)||('diagnosis', 'noun', 'C0011900', ['fndg'], 0.0)||('depends', '', '', '', 0.0)||('on', '', '', '', 0.0)||('both', '', '', '', 0.0)||('the', '', '', '', 0.0)||('presence', 'noun', 'C0392148', ['topp'], 0.0)||('of', '', '', '', 0.0)||('symptoms', 'noun', 'C0683368', ['ftcn'], 0.0)||('and', '', '', '', 0.0)||('a', '', '', '', 0.0)||('positive', 'adj', 'C1446409', ['qlco'], 0.0)||('urine culture', 'noun', 'C0430404', ['lbpr'], 0.0)||(',', '', '', '', 0.0)||('although', '', '', '', 0.0)||('in', '', '', '', 0.0)||('most', '', '', '', 0.0)||('outpatient', 'adj', 'C0029921', ['podg'], 0.0)||('settings', '', '', '', 0.0)||('this', '', '', '', 0.0)||('diagnosis', 'noun', 'C0011900', ['fndg'], 0.0)||('is', '', '', '', 0.0)||('made', '', '', '', 0.0)||('without', '', '', '', 0.0)||('the', '', '', '', 0.0)||('benefit', 'noun', 'C0814225', ['qnco'], 0.0)||('of', '', '', '', 0.0)||('culture', 'noun', 'C0010453', ['idcn'], 0.0)||('.', '', '', '', 0.0)||
('women', 'noun', 'C0043210', ['popg'], 0.0)||('are', '', '', '', 0.0)||('significantly', '', '', '', 0.0)||('more', '', '', '', 0.0)||('likely', 'adv', 'C0332148', ['qlco'], 0.0)||('to', '', '', '', 0.0)||('experience', 'verb', 'C0596545', ['menp'], 0.0)||('uti', 'noun', 'C0042029', ['dsyn'], 0.0)||('than', '', '', '', 0.0)||('men', 'noun', 'C0025266', ['popg'], 0.0)||('.', '', '', '', 0.0)||
('nearly', '', '', '', 0.0)||('1', '', '', '', 0.0)||('in', '', '', '', 0.0)||('3', '', '', '', 0.0)||('women', 'noun', 'C0043210', ['popg'], 0.0)||('will', '', '', '', 0.0)||('have', '', '', '', 0.0)||('had', '', '', '', 0.0)||('at', '', '', '', 0.0)||('least', '', '', '', 0.0)||('1', '', '', '', 0.0)||('episode', '', '', '', 0.0)||('of', '', '', '', 0.0)||('uti', 'noun', 'C0042029', ['dsyn'], 0.0)||('requiring', '', '', '', 0.0)||('antimicrobial', '', '', '', 0.0)||('therapy', 'noun', 'C0039798', ['ftcn'], 0.0)||('by', '', '', '', 0.0)||('the', '', '', '', 0.0)||('age', 'noun', 'C0001779', ['orga'], 0.0)||('of', '', '', '', 0.0)||('24', '', '', '', 0.0)||('years', 'noun', 'C0439234', ['tmco'], 0.0)||('.', '', '', '', 0.0)||
('almost', '', '', '', 0.0)||('half', '', '', '', 0.0)||('of', '', '', '', 0.0)||('all', '', '', '', 0.0)||('women', 'noun', 'C0043210', ['popg'], 0.0)||('will', '', '', '', 0.0)||('experience', 'verb', 'C0596545', ['menp'], 0.0)||('1', '', '', '', 0.0)||('uti', 'noun', 'C0042029', ['dsyn'], 0.0)||('during', '', '', '', 0.0)||('their', '', '', '', 0.0)||('lifetime', '', '', '', 0.0)||('.', '', '', '', 0.0)||
('specific', 'adj', 'C0205369', ['qlco'], 0.0)||('subpopulations', '', '', '', 0.0)||('at', '', '', '', 0.0)||('increased risk', '', '', '', 0.0)||('of', '', '', '', 0.0)||('uti', 'noun', 'C0042029', ['dsyn'], 0.0)||('include', 'verb', 'C1552866', ['idcn'], 0.0)||('infants', 'noun', 'C0021270', ['aggp'], 0.0)||(',', '', '', '', 0.0)||('pregnant', 'adj', 'C0549206', ['fndg'], 0.0)||('women', 'noun', 'C0043210', ['popg'], 0.0)||(',', '', '', '', 0.0)||('the', '', '', '', 0.0)||('elderly', 'noun', 'C0001792', ['popg'], 0.0)||(',', '', '', '', 0.0)||('patients', 'noun', 'C0030705', ['podg'], 0.0)||('with', '', '', '', 0.0)||('spinal cord injuries', 'noun', 'C0037929', ['inpo'], 0.0)||('and / or', '', '', '', 0.0)||('catheters', 'noun', 'C0085590', ['medd'], 0.0)||(',', '', '', '', 0.0)||('patients', 'noun', 'C0030705', ['podg'], 0.0)||('with', '', '', '', 0.0)||('diabetes', 'noun', 'C0011847', ['dsyn'], 0.0)||('or', '', '', '', 0.0)||('multiple sclerosis', 'noun', 'C0026769', ['dsyn'], 0.0)||(',', '', '', '', 0.0)||('patients', 'noun', 'C0030705', ['podg'], 0.0)||('with', '', '', '', 0.0)||('acquired', 'adj', 'C0439661', ['tmco'], 0.0)||('immunodeficiency disease', 'noun', 'C0021051', ['dsyn'], 0.0)||('syndrome', 'noun', 'C0039082', ['dsyn'], 0.0)||('/', '', '', '', 0.0)||('human immunodeficiency virus', 'noun', 'C0019682', ['virs'], 0.0)||(',', '', '', '', 0.0)||('and', '', '', '', 0.0)||('patients', 'noun', 'C0030705', ['podg'], 0.0)||('with', '', '', '', 0.0)||('underlying', '', '', '', 0.0)||('urologic', 'adj', 'C0042077', ['bmod'], 0.0)||('abnormalities', 'noun', 'C0000768', ['cgab'], 0.0)||('.', '', '', '', 0.0)||
('catheter', 'noun', 'C0085590', ['medd'], 0.0)||('-', '', '', '', 0.0)||('associated', 'adj', 'C0332281', ['qlco'], 0.0)||('uti', 'noun', 'C0042029', ['dsyn'], 0.0)||('is', '', '', '', 0.0)||('the', '', '', '', 0.0)||('most', '', '', '', 0.0)||('common', 'adj', 'C0205214', ['qnco'], 0.0)||('nosocomial infection', '', '', '', 0.0)||(',', '', '', '', 0.0)||('accounting', 'verb', 'C0000938', ['ocac'], 0.0)||('for', '', '', '', 0.0)||('>', '', '', '', 0.0)||('1', '', '', '', 0.0)||('million', 'noun', 'C1881839', ['qnco'], 0.0)||('cases', 'noun', 'C0868928', ['ftcn'], 0.0)||('in', '', '', '', 0.0)||('hospitals', 'noun', 'C0019994', ['hcro', 'mnob'], 0.0)||('and', '', '', '', 0.0)||('nursing homes', 'noun', 'C0028688', ['hcro', 'mnob'], 0.0)||('.', '', '', '', 0.0)||
('the', '', '', '', 0.0)||('risk', 'noun', 'C0035647', ['qlco'], 0.0)||('of', '', '', '', 0.0)||('uti', 'noun', 'C0042029', ['dsyn'], 0.0)||('increases', '', '', '', 0.0)||('with', '', '', '', 0.0)||('increasing', 'adj', 'C0442808', ['ftcn'], 0.0)||('duration', 'noun', 'C0449238', ['tmco'], 0.0)||('of', '', '', '', 0.0)||('catheterization', '', '', '', 0.0)||('.', '', '', '', 0.0)||
('in', '', '', '', 0.0)||('noninstitutionalized', '', '', '', 0.0)||('elderly', 'adj', 'C0001792', ['popg'], 0.0)||('populations', 'noun', 'C0032659', ['qnco'], 0.0)||(',', '', '', '', 0.0)||('urinary tract infections', '', '', '', 0.0)||('are', '', '', '', 0.0)||('the', '', '', '', 0.0)||('second', 'adj', 'C0205436', ['qnco'], 0.0)||('most', '', '', '', 0.0)||('common', 'adj', 'C0205214', ['qnco'], 0.0)||('form', 'noun', 'C0013058', ['bodm'], 0.0)||('of', '', '', '', 0.0)||('infection', 'noun', 'C0021311', ['dsyn'], 0.0)||(',', '', '', '', 0.0)||('accounting', 'verb', 'C0000938', ['ocac'], 0.0)||('for', '', '', '', 0.0)||('nearly', '', '', '', 0.0)||('25 %', '', '', '', 0.0)||('of', '', '', '', 0.0)||('all', '', '', '', 0.0)||('infections', 'noun', 'C0021311', ['dsyn'], 0.0)||('.', '', '', '', 0.0)||
('there', '', '', '', 0.0)||('are', '', '', '', 0.0)||('important', '', '', '', 0.0)||('medical', 'adj', 'C0205476', ['ftcn'], 0.0)||('and', '', '', '', 0.0)||('financial', 'adj', 'C0376243', ['qnco'], 0.0)||('implications', '', '', '', 0.0)||('associated', 'verb', 'C0332281', ['qlco'], 0.0)||('with', '', '', '', 0.0)||('urinary tract infections', '', '', '', 0.0)||('.', '', '', '', 0.0)||
('in', '', '', '', 0.0)||('the', '', '', '', 0.0)||('nonobstructed', '', '', '', 0.0)||(',', '', '', '', 0.0)||('nonpregnant', '', '', '', 0.0)||('female', 'noun', 'C0015780', ['orga'], 0.0)||('adult', 'noun', 'C0001675', ['aggp'], 0.0)||(',', '', '', '', 0.0)||('acute', 'adj', 'C0205178', ['tmco'], 0.0)||('uncomplicated', 'adj', 'C0443334', ['qlco'], 0.0)||('uti', 'noun', 'C0042029', ['dsyn'], 0.0)||('is', '', '', '', 0.0)||('believed', '', '', '', 0.0)||('to', '', '', '', 0.0)||('be', '', '', '', 0.0)||('a', '', '', '', 0.0)||('benign', 'adj', 'C0205183', ['qlco'], 0.0)||('illness', 'noun', 'C0221423', ['fndg'], 0.0)||('with', '', '', '', 0.0)||('no', '', '', '', 0.0)||('long - term', '', '', '', 0.0)||('medical', 'adj', 'C0205476', ['ftcn'], 0.0)||('consequences', '', '', '', 0.0)||('.', '', '', '', 0.0)||
('however', '', '', '', 0.0)||(',', '', '', '', 0.0)||('uti', 'noun', 'C0042029', ['dsyn'], 0.0)||('elevates', '', '', '', 0.0)||('the', '', '', '', 0.0)||('risk', 'noun', 'C0035647', ['qlco'], 0.0)||('of', '', '', '', 0.0)||('pyelonephritis', 'noun', 'C0034186', ['dsyn'], 0.0)||(',', '', '', '', 0.0)||('premature delivery', 'noun', 'C0151526', ['patf'], 0.0)||(',', '', '', '', 0.0)||('and', '', '', '', 0.0)||('fetal', 'adj', 'C0015965', ['emst'], 0.0)||('mortality', 'noun', 'C0026565', ['qnco'], 0.0)||('among', '', '', '', 0.0)||('pregnant', 'adj', 'C0549206', ['fndg'], 0.0)||('women', 'noun', 'C0043210', ['popg'], 0.0)||(',', '', '', '', 0.0)||('and', '', '', '', 0.0)||('is', '', '', '', 0.0)||('associated', 'verb', 'C0332281', ['qlco'], 0.0)||('with', '', '', '', 0.0)||('impaired renal function', 'noun', 'C0341697', ['dsyn'], 0.0)||('and', '', '', '', 0.0)||('end - stage renal disease', '', '', '', 0.0)||('among', '', '', '', 0.0)||('pediatric', 'adj', 'C1521725', ['qlco'], 0.0)||('patients', 'noun', 'C0030705', ['podg'], 0.0)||('.', '', '', '', 0.0)||
('financially', '', '', '', 0.0)||(',', '', '', '', 0.0)||('the', '', '', '', 0.0)||('estimated', 'adj', 'C0750572', ['qnco'], 0.0)||('annual', 'adj', 'C0332181', ['tmco'], 0.0)||('cost', 'noun', 'C0010186', ['qnco'], 0.0)||('of', '', '', '', 0.0)||('community', 'noun', 'C0009462', ['geoa'], 0.0)||('-', '', '', '', 0.0)||('acquired', 'adj', 'C0439661', ['tmco'], 0.0)||('uti', 'noun', 'C0042029', ['dsyn'], 0.0)||('is', '', '', '', 0.0)||('significant', 'adj', 'C0750502', ['idcn'], 0.0)||(',', '', '', '', 0.0)||('at', '', '', '', 0.0)||('approximately', 'adv', 'C0332232', ['qlco'], 0.0)||('$ 1 . 6', '', '', '', 0.0)||('billion', '', '', '', 0.0)||('.', '', '', '', 0.0)||
