('a', '', '', '', 0.0)||('meta - analysis', '', '', '', 0.0)||('of', '', '', '', 0.0)||('4', '', '', '', 0.0)||('studies', '', '', '', 0.0)||('by', '', '', '', 0.0)||('jackson', '', '', '', 0.0)||('compared', 'verb', 'C1707455', ['acty'], 0.0)||('the', '', '', '', 0.0)||('utility', '', '', '', 0.0)||('of', '', '', '', 0.0)||('the', '', '', '', 0.0)||('mcmurray', '', '', '', 0.0)||('test', 'noun', 'C0022885', ['lbpr'], 0.0)||('and', '', '', '', 0.0)||('joint', 'adj', 'C0022417', ['bsoj'], 0.0)||('line', 'noun', 'C0205132', ['spco'], 0.0)||('tenderness', 'noun', 'C0234233', ['sosy'], 0.0)||('.', '', '', '', 0.0)||
('for', '', '', '', 0.0)||('detecting', '', '', '', 0.0)||('meniscal', '', '', '', 0.0)||('tears', 'noun', 'C0039409', ['bdsu'], 0.0)||(',', '', '', '', 0.0)||('the', '', '', '', 0.0)||('mcmurray', '', '', '', 0.0)||('test', 'noun', 'C0022885', ['lbpr'], 0.0)||('had', '', '', '', 0.0)||('a', '', '', '', 0.0)||('clinically', '', '', '', 0.0)||('and', '', '', '', 0.0)||('statistically significant', 'adj', 'C0237881', ['qnco'], 0.0)||('positive', 'adj', 'C1446409', ['qlco'], 0.0)||('likelihood', 'noun', 'C0033204', ['qnco'], 0.0)||('ratio', 'noun', 'C0456603', ['qnco'], 0.0)||('of', '', '', '', 0.0)||('17 . 33', '', '', '', 0.0)||(',', '', '', '', 0.0)||('corresponding', '', '', '', 0.0)||('to', '', '', '', 0.0)||('a', '', '', '', 0.0)||('posttest', '', '', '', 0.0)||('probability', 'noun', 'C0033204', ['qnco'], 0.0)||('of', '', '', '', 0.0)||('nearly', '', '', '', 0.0)||('61 %', '', '', '', 0.0)||('.', '', '', '', 0.0)||
('negative', 'adj', 'C0205160', ['qlco'], 0.0)||('likelihood', 'noun', 'C0033204', ['qnco'], 0.0)||('ratios', 'noun', 'C0456603', ['qnco'], 0.0)||('for', '', '', '', 0.0)||('the', '', '', '', 0.0)||('mcmurray', '', '', '', 0.0)||('test', 'noun', 'C0022885', ['lbpr'], 0.0)||('and', '', '', '', 0.0)||('joint', 'adj', 'C0022417', ['bsoj'], 0.0)||('line', 'noun', 'C0205132', ['spco'], 0.0)||('tenderness', 'noun', 'C0234233', ['sosy'], 0.0)||('(', '', '', '', 0.0)||('0 . 5', '', '', '', 0.0)||('and', '', '', '', 0.0)||('0 . 8', '', '', '', 0.0)||(')', '', '', '', 0.0)||('were', '', '', '', 0.0)||('not', 'adv', 'C1518422', ['ftcn'], 0.0)||('clinically', '', '', '', 0.0)||('significant', 'adj', 'C0750502', ['idcn'], 0.0)||(',', '', '', '', 0.0)||('indicating', '', '', '', 0.0)||('that', '', '', '', 0.0)||('absence', 'noun', 'C1689985', ['anab'], 0.0)||('of', '', '', '', 0.0)||('the', '', '', '', 0.0)||('mcmurray', '', '', '', 0.0)||('sign', 'noun', 'C0311392', ['fndg'], 0.0)||('or', '', '', '', 0.0)||('joint', 'adj', 'C0022417', ['bsoj'], 0.0)||('line', 'noun', 'C0205132', ['spco'], 0.0)||('tenderness', 'noun', 'C0234233', ['sosy'], 0.0)||('alone', 'adj', 'C0439044', ['fndg'], 0.0)||('is', '', '', '', 0.0)||('of', '', '', '', 0.0)||('little', '', '', '', 0.0)||('benefit', 'noun', 'C0814225', ['qnco'], 0.0)||('in', '', '', '', 0.0)||('ruling', '', '', '', 0.0)||('out', '', '', '', 0.0)||('meniscal', '', '', '', 0.0)||('injury', 'noun', 'C0175677', ['inpo'], 0.0)||('.', '', '', '', 0.0)||
