('to', '', '', '', 0.0)||('evaluate', 'verb', 'C0220825', ['ftcn'], 0.0)||('existing', '', '', '', 0.0)||('data', 'noun', 'C1511726', ['idcn'], 0.0)||('from', '', '', '', 0.0)||('published', 'adj', 'C0034037', ['ocac'], 0.0)||('studies', '', '', '', 0.0)||('investigating', '', '', '', 0.0)||('outcomes', 'noun', 'C0085415', ['qlco'], 0.0)||('(', '', '', '', 0.0)||('growth', 'noun', 'C0018270', ['orgf'], 0.0)||(',', '', '', '', 0.0)||('nutritional status', 'noun', 'C0392209', ['orga'], 0.0)||('and', '', '', '', 0.0)||('morbidity', 'noun', 'C0026538', ['qnco'], 0.0)||(')', '', '', '', 0.0)||('in relation to', '', '', '', 0.0)||('the', '', '', '', 0.0)||('age', 'noun', 'C0001779', ['orga'], 0.0)||('of', '', '', '', 0.0)||('introduction', 'noun', 'C1293116', ['hlca'], 0.0)||('of', '', '', '', 0.0)||('complementary', '', '', '', 0.0)||('foods', 'noun', 'C0016452', ['food'], 0.0)||('to', '', '', '', 0.0)||('the', '', '', '', 0.0)||('healthy', '', '', '', 0.0)||('full - term infant', '', '', '', 0.0)||('.', '', '', '', 0.0)||
('to', '', '', '', 0.0)||('assess', 'verb', 'C1516048', ['acty'], 0.0)||('the', '', '', '', 0.0)||('methodological', '', '', '', 0.0)||('quality', 'noun', 'C0332306', ['qlco'], 0.0)||('of', '', '', '', 0.0)||('current', 'adj', 'C0521116', ['tmco'], 0.0)||('scientific', 'adj', 'C0036397', ['ocdi'], 0.0)||('evidence', 'noun', 'C0332120', ['ftcn'], 0.0)||('on', '', '', '', 0.0)||('which', '', '', '', 0.0)||('infant', 'noun', 'C0021270', ['aggp'], 0.0)||('feeding', 'adj', 'C0204695', ['hlca'], 0.0)||('recommendations', 'noun', 'C0034866', ['idcn'], 0.0)||('are', '', '', '', 0.0)||('based', 'verb', 'C1527178', ['ftcn'], 0.0)||('.', '', '', '', 0.0)||
('a', '', '', '', 0.0)||('database', 'noun', 'C0242356', ['inpr'], 0.0)||('was', '', '', '', 0.0)||('created', 'verb', 'C1706214', ['acty'], 0.0)||('following', '', '', '', 0.0)||('a', '', '', '', 0.0)||('search', 'noun', 'C1552603', ['idcn'], 0.0)||('of', '', '', '', 0.0)||('electronic', 'adj', 'C0013850', ['mnob'], 0.0)||('databases', 'noun', 'C0242356', ['inpr'], 0.0)||('medline', 'noun', 'C0025141', ['inpr'], 0.0)||('and', '', '', '', 0.0)||('bids', 'noun', 'C0048106', ['orch', 'phsu'], 0.0)||(',', '', '', '', 0.0)||('a', '', '', '', 0.0)||('handsearch', '', '', '', 0.0)||('of', '', '', '', 0.0)||('relevant', 'adj', 'C2347946', ['qlco'], 0.0)||('journals', '', '', '', 0.0)||('and', '', '', '', 0.0)||('consultation', 'noun', 'C0009818', ['hlca'], 0.0)||('with', '', '', '', 0.0)||('international', 'adj', 'C1512888', ['idcn'], 0.0)||('experts', '', '', '', 0.0)||('in', '', '', '', 0.0)||('infant', 'noun', 'C0021270', ['aggp'], 0.0)||('feeding', 'adj', 'C0204695', ['hlca'], 0.0)||('practices', '', '', '', 0.0)||('.', '', '', '', 0.0)||
('the', '', '', '', 0.0)||('search', 'noun', 'C1552603', ['idcn'], 0.0)||('was', '', '', '', 0.0)||('conducted', '', '', '', 0.0)||('during', '', '', '', 0.0)||('a', '', '', '', 0.0)||('6', '', '', '', 0.0)||('-', '', '', '', 0.0)||('month', 'noun', 'C0439231', ['tmco'], 0.0)||('period', 'noun', 'C1948053', ['tmco'], 0.0)||('and', '', '', '', 0.0)||('encompassed', '', '', '', 0.0)||('the', '', '', '', 0.0)||('years', 'noun', 'C0439234', ['tmco'], 0.0)||('1982', '', '', '', 0.0)||('-', '', '', '', 0.0)||('1998', '', '', '', 0.0)||('.', '', '', '', 0.0)||
('randomised', '', '', '', 0.0)||('/', '', '', '', 0.0)||('non - randomised', '', '', '', 0.0)||('controlled', 'adj', 'C2587213', ['ftcn'], 0.0)||('trials', '', '', '', 0.0)||('and', '', '', '', 0.0)||('cohort studies', 'noun', 'C0009247', ['qnco'], 0.0)||('investigating', '', '', '', 0.0)||('the', '', '', '', 0.0)||('relationship', 'noun', 'C0439849', ['qlco'], 0.0)||('to', '', '', '', 0.0)||('the', '', '', '', 0.0)||('health', 'noun', 'C0018684', ['idcn'], 0.0)||('of', '', '', '', 0.0)||('full - term infants', '', '', '', 0.0)||('of', '', '', '', 0.0)||('the', '', '', '', 0.0)||('introduction', 'noun', 'C1293116', ['hlca'], 0.0)||('of', '', '', '', 0.0)||('complementary', '', '', '', 0.0)||('foods', 'noun', 'C0016452', ['food'], 0.0)||('to', '', '', '', 0.0)||('childhood', 'noun', 'C0231335', ['tmco'], 0.0)||('health', 'noun', 'C0018684', ['idcn'], 0.0)||('.', '', '', '', 0.0)||
('assessment', 'noun', 'C1261322', ['hlca'], 0.0)||('of', '', '', '', 0.0)||('studies', '', '', '', 0.0)||('for', '', '', '', 0.0)||('inclusion', 'noun', 'C1512693', ['qlco'], 0.0)||('and', '', '', '', 0.0)||('their', '', '', '', 0.0)||('compliance', 'noun', 'C0009563', ['qnco'], 0.0)||('with', '', '', '', 0.0)||('methodological', '', '', '', 0.0)||('criteria', 'noun', 'C0243161', ['inpr'], 0.0)||('was', '', '', '', 0.0)||('undertaken', '', '', '', 0.0)||('independently', '', '', '', 0.0)||('by', '', '', '', 0.0)||('two', 'adj', 'C0205448', ['qnco'], 0.0)||('reviewers', '', '', '', 0.0)||('and', '', '', '', 0.0)||('discrepancies', '', '', '', 0.0)||('were', '', '', '', 0.0)||('resolved', 'verb', 'C1514893', ['idcn'], 0.0)||('by', '', '', '', 0.0)||('discussion', 'noun', 'C0557061', ['topp'], 0.0)||('.', '', '', '', 0.0)||
('from', '', '', '', 0.0)||('over', 'adv', 'C0205136', ['spco'], 0.0)||('400', '', '', '', 0.0)||('published', 'adj', 'C0034037', ['ocac'], 0.0)||('papers', 'noun', 'C0030351', ['mnob'], 0.0)||('identified', 'verb', 'C0205396', ['qlco'], 0.0)||(',', '', '', '', 0.0)||('33', '', '', '', 0.0)||('met', '', '', '', 0.0)||('specific', 'adj', 'C0205369', ['qlco'], 0.0)||('inclusion', 'noun', 'C1512693', ['qlco'], 0.0)||('criteria', 'noun', 'C0243161', ['inpr'], 0.0)||('.', '', '', '', 0.0)||
('significant', 'adj', 'C0750502', ['idcn'], 0.0)||('differences', '', '', '', 0.0)||('in', '', '', '', 0.0)||('baseline', 'noun', 'C0168634', ['bodm'], 0.0)||('characteristics', 'noun', 'C1521970', ['qlco'], 0.0)||('of', '', '', '', 0.0)||('subjects', '', '', '', 0.0)||('in', '', '', '', 0.0)||('included', '', '', '', 0.0)||('studies', '', '', '', 0.0)||('meant', '', '', '', 0.0)||('that', '', '', '', 0.0)||('data', 'noun', 'C1511726', ['idcn'], 0.0)||('were', '', '', '', 0.0)||('not', 'adv', 'C1518422', ['ftcn'], 0.0)||('amenable', '', '', '', 0.0)||('to', '', '', '', 0.0)||('meta - analysis', '', '', '', 0.0)||('.', '', '', '', 0.0)||
('the', '', '', '', 0.0)||('consensus', 'noun', 'C0376298', ['socb'], 0.0)||('of', '', '', '', 0.0)||('the', '', '', '', 0.0)||('authors', 'noun', 'C0341628', ['prog'], 0.0)||('was', '', '', '', 0.0)||('that', '', '', '', 0.0)||(',', '', '', '', 0.0)||('of', '', '', '', 0.0)||('the', '', '', '', 0.0)||('33', '', '', '', 0.0)||('included', '', '', '', 0.0)||('publications', 'noun', 'C0034036', ['inpr', 'mnob'], 0.0)||(',', '', '', '', 0.0)||('13', '', '', '', 0.0)||('contained', 'adj', 'C2700400', ['acty'], 0.0)||('data', 'noun', 'C1511726', ['idcn'], 0.0)||('supporting', '', '', '', 0.0)||('the', '', '', '', 0.0)||('current', 'noun', 'C0521116', ['tmco'], 0.0)||('who', '', '', '', 0.0)||('recommendations', 'noun', 'C0034866', ['idcn'], 0.0)||('which', '', '', '', 0.0)||('attempt', 'verb', 'C1516084', ['evnt'], 0.0)||('to', '', '', '', 0.0)||('accommodate', '', '', '', 0.0)||('all', '', '', '', 0.0)||('infants', 'noun', 'C0021270', ['aggp'], 0.0)||(',', '', '', '', 0.0)||('including', '', '', '', 0.0)||('those', '', '', '', 0.0)||('whose', '', '', '', 0.0)||('nutritional requirements', 'noun', 'C0028719', ['orga'], 0.0)||('are', '', '', '', 0.0)||('not', 'adv', 'C1518422', ['ftcn'], 0.0)||('met', '', '', '', 0.0)||('by', '', '', '', 0.0)||('exclusive', 'adj', 'C1548966', ['idcn'], 0.0)||('breast - feeding', '', '', '', 0.0)||('for', '', '', '', 0.0)||('6', '', '', '', 0.0)||('months', 'noun', 'C0439231', ['tmco'], 0.0)||('.', '', '', '', 0.0)||
('an', '', '', '', 0.0)||('equal', 'adj', 'C0205163', ['qlco'], 0.0)||('number', 'noun', 'C0449788', ['qnco'], 0.0)||('contained', 'adj', 'C2700400', ['acty'], 0.0)||('data', 'noun', 'C1511726', ['idcn'], 0.0)||('that', '', '', '', 0.0)||('would', '', '', '', 0.0)||('support', 'verb', 'C0183683', ['medd'], 0.0)||('a', '', '', '', 0.0)||('recommendation', 'noun', 'C0034866', ['idcn'], 0.0)||('for', '', '', '', 0.0)||('delaying', '', '', '', 0.0)||('the', '', '', '', 0.0)||('introduction', 'noun', 'C1293116', ['hlca'], 0.0)||('of', '', '', '', 0.0)||('complementary', '', '', '', 0.0)||('foods', 'noun', 'C0016452', ['food'], 0.0)||('until', '', '', '', 0.0)||('6', '', '', '', 0.0)||('months', 'noun', 'C0439231', ['tmco'], 0.0)||('of', '', '', '', 0.0)||('age', 'noun', 'C0001779', ['orga'], 0.0)||('within', '', '', '', 0.0)||('the', '', '', '', 0.0)||('study population', 'noun', 'C2348561', ['popg'], 0.0)||('.', '', '', '', 0.0)||
('the', '', '', '', 0.0)||('remaining', 'adj', 'C1527428', ['qlco'], 0.0)||('seven', '', 'C0205453', ['qnco'], 0.0)||('were', '', '', '', 0.0)||('unable', 'adj', 'C1299582', ['fndg'], 0.0)||('to', '', '', '', 0.0)||('provide', 'verb', 'C0359589', ['food'], 0.0)||('evidence', 'noun', 'C0332120', ['ftcn'], 0.0)||('to', '', '', '', 0.0)||('support', 'verb', 'C0183683', ['medd'], 0.0)||('a', '', '', '', 0.0)||('change', 'noun', 'C0392747', ['ftcn'], 0.0)||('from', '', '', '', 0.0)||('the', '', '', '', 0.0)||('current', 'noun', 'C0521116', ['tmco'], 0.0)||('who', '', '', '', 0.0)||('infant', 'noun', 'C0021270', ['aggp'], 0.0)||('feeding', 'adj', 'C0204695', ['hlca'], 0.0)||('recommendations', 'noun', 'C0034866', ['idcn'], 0.0)||('which', '', '', '', 0.0)||('state', 'verb', 'C1301808', ['geoa'], 0.0)||('that', '', '', '', 0.0)||("'", '', '', '', 0.0)||('infants', 'noun', 'C0021270', ['aggp'], 0.0)||('should', '', '', '', 0.0)||('be', '', '', '', 0.0)||('fed', 'verb', 'C0342895', ['dsyn'], 0.0)||('exclusively', '', '', '', 0.0)||('on', '', '', '', 0.0)||('breast milk', 'noun', 'C0026140', ['bdsu'], 0.0)||('from', '', '', '', 0.0)||('birth', 'noun', 'C0005615', ['orgf'], 0.0)||('to', '', '', '', 0.0)||('4', '', '', '', 0.0)||('-', '', '', '', 0.0)||('6', '', '', '', 0.0)||('months', 'noun', 'C0439231', ['tmco'], 0.0)||('of', '', '', '', 0.0)||('age', 'noun', 'C0001779', ['orga'], 0.0)||("'", '', '', '', 0.0)||('.', '', '', '', 0.0)||
('none', 'noun', 'C0549184', ['qnco'], 0.0)||('of', '', '', '', 0.0)||('the', '', '', '', 0.0)||('studies', '', '', '', 0.0)||('met', '', '', '', 0.0)||('all', '', '', '', 0.0)||('the', '', '', '', 0.0)||('methodological', '', '', '', 0.0)||('criteria', 'noun', 'C0243161', ['inpr'], 0.0)||('.', '', '', '', 0.0)||
('this', '', '', '', 0.0)||('review', 'noun', 'C0282443', ['inpr'], 0.0)||('has', '', '', '', 0.0)||('shown', '', '', '', 0.0)||('that', '', '', '', 0.0)||('there', '', '', '', 0.0)||('is', '', '', '', 0.0)||('a', '', '', '', 0.0)||('lack', 'noun', 'C0332268', ['qlco'], 0.0)||('of', '', '', '', 0.0)||('clear', 'adj', 'C0522503', ['qlco'], 0.0)||('evidence', 'noun', 'C0332120', ['ftcn'], 0.0)||('to', '', '', '', 0.0)||('either', '', '', '', 0.0)||('support', 'noun', 'C0183683', ['medd'], 0.0)||('or', '', '', '', 0.0)||('refute', '', '', '', 0.0)||('a', '', '', '', 0.0)||('change', 'noun', 'C0392747', ['ftcn'], 0.0)||('to', '', '', '', 0.0)||('the', '', '', '', 0.0)||('current', 'adj', 'C0521116', ['tmco'], 0.0)||('recommendations', 'noun', 'C0034866', ['idcn'], 0.0)||('for', '', '', '', 0.0)||('the', '', '', '', 0.0)||('age', 'noun', 'C0001779', ['orga'], 0.0)||('of', '', '', '', 0.0)||('introduction', 'noun', 'C1293116', ['hlca'], 0.0)||('of', '', '', '', 0.0)||('complementary', '', '', '', 0.0)||('foods', 'noun', 'C0016452', ['food'], 0.0)||('to', '', '', '', 0.0)||('the', '', '', '', 0.0)||('breast milk', 'noun', 'C0026140', ['bdsu'], 0.0)||('or', '', '', '', 0.0)||('formula', 'noun', 'C0489829', ['inpr'], 0.0)||('fed', 'verb', 'C0342895', ['dsyn'], 0.0)||('infant', 'noun', 'C0021270', ['aggp'], 0.0)||('.', '', '', '', 0.0)||
('whilst', '', '', '', 0.0)||('exclusive', 'adj', 'C1548966', ['idcn'], 0.0)||('breast feeding', 'noun', 'C0006147', ['orgf'], 0.0)||('for', '', '', '', 0.0)||('the', '', '', '', 0.0)||('first', 'noun', 'C0205435', ['qnco'], 0.0)||('6', '', '', '', 0.0)||('months', 'noun', 'C0439231', ['tmco'], 0.0)||('of', '', '', '', 0.0)||('life', 'noun', 'C0376558', ['idcn'], 0.0)||('can', '', '', '', 0.0)||('support', 'verb', 'C0183683', ['medd'], 0.0)||('growth', 'noun', 'C0018270', ['orgf'], 0.0)||('and', '', '', '', 0.0)||('development', 'noun', 'C0020119', ['phsf'], 0.0)||('in', '', '', '', 0.0)||('some', '', '', '', 0.0)||('infants', 'noun', 'C0021270', ['aggp'], 0.0)||(',', '', '', '', 0.0)||('sub - groups', '', '', '', 0.0)||('have', '', '', '', 0.0)||('been', '', '', '', 0.0)||('identified', 'verb', 'C0205396', ['qlco'], 0.0)||('within', '', '', '', 0.0)||('certain', '', '', '', 0.0)||('populations', 'noun', 'C0032659', ['qnco'], 0.0)||('who', '', '', '', 0.0)||('may', '', '', '', 0.0)||('require', '', '', '', 0.0)||('complementary', '', '', '', 0.0)||('feeding', 'noun', 'C0204695', ['hlca'], 0.0)||('prior to', '', '', '', 0.0)||('this', '', '', '', 0.0)||('age', 'noun', 'C0001779', ['orga'], 0.0)||('.', '', '', '', 0.0)||
