('in', '', '', '', 0.0)||('infants', 'noun', 'C0021270', ['aggp'], 0.0)||('with', '', '', '', 0.0)||('a', '', '', '', 0.0)||('family history', 'noun', 'C0241889', ['fndg'], 0.0)||('of', '', '', '', 0.0)||('atopy', 'noun', 'C0392707', ['patf'], 0.0)||(',', '', '', '', 0.0)||('food', 'noun', 'C0016452', ['food'], 0.0)||('allergen', 'noun', 'C0002092', ['imft'], 0.0)||('avoidance', 'noun', 'C0870186', ['menp'], 0.0)||('has', '', '', '', 0.0)||('been', '', '', '', 0.0)||('advocated', '', '', '', 0.0)||('as', '', '', '', 0.0)||('means', 'noun', 'C1704970', ['cnce'], 0.0)||('of', '', '', '', 0.0)||('preventing', 'noun', 'C1292733', ['ftcn'], 0.0)||('the', '', '', '', 0.0)||('development', 'noun', 'C0020119', ['phsf'], 0.0)||('of', '', '', '', 0.0)||('atopic disease', '', '', '', 0.0)||('when', '', '', '', 0.0)||('breast - feeding', '', '', '', 0.0)||('is', '', '', '', 0.0)||('not', 'adv', 'C1518422', ['ftcn'], 0.0)||('possible', 'adj', 'C0332149', ['qlco'], 0.0)||('or', '', '', '', 0.0)||('supplemental', 'adj', 'C2348609', ['ftcn'], 0.0)||('feeding', 'noun', 'C0204695', ['hlca'], 0.0)||('is', '', '', '', 0.0)||('needed', 'verb', 'C0027552', ['qlco'], 0.0)||('.', '', '', '', 0.0)||
('most', '', '', '', 0.0)||('infant', 'noun', 'C0021270', ['aggp'], 0.0)||('formulas', '', '', '', 0.0)||('are', '', '', '', 0.0)||('based', 'verb', 'C1527178', ['ftcn'], 0.0)||('on', '', '', '', 0.0)||('cow', 'noun', 'C0007452', ['mamm'], 0.0)||("' s", '', '', '', 0.0)||('milk', 'noun', 'C0026131', ['bdsu'], 0.0)||('protein', 'noun', 'C0033684', ['aapp', 'bacs'], 0.0)||('.', '', '', '', 0.0)||
('alternative', 'adj', 'C1523987', ['cnce'], 0.0)||('choices', '', '', '', 0.0)||('include', 'verb', 'C1552866', ['idcn'], 0.0)||('soya', 'noun', 'C0037733', ['food'], 0.0)||('based', 'verb', 'C1527178', ['ftcn'], 0.0)||('and', '', '', '', 0.0)||('hydrolysed', '', '', '', 0.0)||('cows', 'noun', 'C0007452', ['mamm'], 0.0)||('milk', 'noun', 'C0026131', ['bdsu'], 0.0)||('formulas', '', '', '', 0.0)||('.', '', '', '', 0.0)||
('to', '', '', '', 0.0)||('estimate', 'verb', 'C0750572', ['qnco'], 0.0)||('the', '', '', '', 0.0)||('effect', 'noun', 'C1280500', ['qlco'], 0.0)||('of', '', '', '', 0.0)||('dietary', 'adj', 'C0012155', ['food'], 0.0)||('avoidance', 'noun', 'C0870186', ['menp'], 0.0)||('of', '', '', '', 0.0)||('cow', 'noun', 'C0007452', ['mamm'], 0.0)||("' s", '', '', '', 0.0)||('milk', 'noun', 'C0026131', ['bdsu'], 0.0)||('protein', 'noun', 'C0033684', ['aapp', 'bacs'], 0.0)||('on', '', '', '', 0.0)||('the', '', '', '', 0.0)||('development', 'noun', 'C0020119', ['phsf'], 0.0)||('of', '', '', '', 0.0)||('asthma', 'noun', 'C0004096', ['dsyn'], 0.0)||('or', '', '', '', 0.0)||('wheeze', 'noun', 'C0043144', ['sosy'], 0.0)||('in', '', '', '', 0.0)||('children', 'noun', 'C0008059', ['aggp'], 0.0)||('.', '', '', '', 0.0)||
('the', '', '', '', 0.0)||('cochrane', '', '', '', 0.0)||('database', 'noun', 'C0242356', ['inpr'], 0.0)||('was', '', '', '', 0.0)||('searched', 'verb', 'C1706202', ['acty'], 0.0)||('for', '', '', '', 0.0)||('eligible', 'adj', 'C1548635', ['idcn'], 0.0)||('trials', '', '', '', 0.0)||('until', '', '', '', 0.0)||('february', '', '', '', 0.0)||('2002', '', '', '', 0.0)||('.', '', '', '', 0.0)||
('the', '', '', '', 0.0)||('full', 'adj', 'C0443225', ['qlco'], 0.0)||('text', 'noun', 'C1527021', ['inpr'], 0.0)||('papers', 'noun', 'C0030351', ['mnob'], 0.0)||('of', '', '', '', 0.0)||('all', '', '', '', 0.0)||('abstracts', 'noun', 'C0600678', ['inpr'], 0.0)||('identified', 'verb', 'C0205396', ['qlco'], 0.0)||('as', '', '', '', 0.0)||('rcts', '', '', '', 0.0)||('were', '', '', '', 0.0)||('obtained', 'verb', 'C1301820', ['ftcn'], 0.0)||('and', '', '', '', 0.0)||('reviewed', 'verb', 'C1709940', ['qlco'], 0.0)||('independently', '', '', '', 0.0)||('by', '', '', '', 0.0)||('two', 'adj', 'C0205448', ['qnco'], 0.0)||('reviewers', '', '', '', 0.0)||('.', '', '', '', 0.0)||
('randomised controlled trials', '', '', '', 0.0)||('involving', 'verb', 'C1314939', ['ftcn'], 0.0)||('children', 'noun', 'C0008059', ['aggp'], 0.0)||('with', '', '', '', 0.0)||('a', '', '', '', 0.0)||('family history', 'noun', 'C0241889', ['fndg'], 0.0)||('of', '', '', '', 0.0)||('atopy', 'noun', 'C0392707', ['patf'], 0.0)||('in', '', '', '', 0.0)||('at', '', '', '', 0.0)||('least', '', '', '', 0.0)||('one', 'noun', 'C0205447', ['qnco'], 0.0)||('first degree relative', 'noun', 'C1517194', ['famg'], 0.0)||('were', '', '', '', 0.0)||('considered', '', '', '', 0.0)||('if', '', '', '', 0.0)||('feeding', 'noun', 'C0204695', ['hlca'], 0.0)||('with', '', '', '', 0.0)||('cow', 'noun', 'C0007452', ['mamm'], 0.0)||("' s", '', '', '', 0.0)||('milk', 'noun', 'C0026131', ['bdsu'], 0.0)||('based', 'verb', 'C1527178', ['ftcn'], 0.0)||('standard', 'adj', 'C1442989', ['ftcn'], 0.0)||('formula', 'noun', 'C0489829', ['inpr'], 0.0)||('was', '', '', '', 0.0)||('compared', 'verb', 'C1707455', ['acty'], 0.0)||('to', '', '', '', 0.0)||('dietary', 'adj', 'C0012155', ['food'], 0.0)||('avoidance', 'noun', 'C0870186', ['menp'], 0.0)||('of', '', '', '', 0.0)||('cow', 'noun', 'C0007452', ['mamm'], 0.0)||("' s", '', '', '', 0.0)||('milk', 'noun', 'C0026131', ['bdsu'], 0.0)||('protein', 'noun', 'C0033684', ['aapp', 'bacs'], 0.0)||('using', 'verb', 'C1524063', ['ftcn'], 0.0)||('soya', 'noun', 'C0037733', ['food'], 0.0)||('or', '', '', '', 0.0)||('other', '', '', '', 0.0)||('hypoallergenic', '', '', '', 0.0)||('formula', 'noun', 'C0489829', ['inpr'], 0.0)||('during', '', '', '', 0.0)||('the', '', '', '', 0.0)||('initial', 'adj', 'C0205265', ['tmco'], 0.0)||('four', '', 'C0205450', ['qnco'], 0.0)||('months', 'noun', 'C0439231', ['tmco'], 0.0)||('of', '', '', '', 0.0)||('life', 'noun', 'C0376558', ['idcn'], 0.0)||('or', '', '', '', 0.0)||('longer', '', '', '', 0.0)||('.', '', '', '', 0.0)||
('two', 'noun', 'C0205448', ['qnco'], 0.0)||('reviewers', '', '', '', 0.0)||('extracted', 'verb', 'C0185115', ['topp'], 0.0)||('data', 'noun', 'C1511726', ['idcn'], 0.0)||('independently', '', '', '', 0.0)||('.', '', '', '', 0.0)||
('a priori', '', '', '', 0.0)||('defined', 'adj', 'C1704788', ['cnce'], 0.0)||('subgroups', '', '', '', 0.0)||('were', '', '', '', 0.0)||('the', '', '', '', 0.0)||('types', 'noun', 'C0332307', ['qlco'], 0.0)||('of', '', '', '', 0.0)||('hypoallergenic', '', '', '', 0.0)||('artificial', 'adj', 'C2004457', ['qlco'], 0.0)||('feed', 'noun', 'C0204695', ['hlca'], 0.0)||('and', '', '', '', 0.0)||('dietary restrictions', '', '', '', 0.0)||('on', '', '', '', 0.0)||('mother', 'noun', 'C0026591', ['famg'], 0.0)||('and / or', '', '', '', 0.0)||('child', 'noun', 'C0008059', ['aggp'], 0.0)||("' s", '', '', '', 0.0)||('diet', 'noun', 'C0012155', ['food'], 0.0)||('.', '', '', '', 0.0)||
('six', '', 'C0205452', ['qnco'], 0.0)||('trials', '', '', '', 0.0)||('used', '', '', '', 0.0)||('hydrolysed', '', '', '', 0.0)||('formula', 'noun', 'C0489829', ['inpr'], 0.0)||('for', '', '', '', 0.0)||('at', '', '', '', 0.0)||('least', '', '', '', 0.0)||('4', '', '', '', 0.0)||('months', 'noun', 'C0439231', ['tmco'], 0.0)||('in', '', '', '', 0.0)||('addition', 'noun', 'C1883712', ['ftcn'], 0.0)||('to', '', '', '', 0.0)||('dietary restrictions', '', '', '', 0.0)||('and', '', '', '', 0.0)||('in', '', '', '', 0.0)||('some', '', '', '', 0.0)||('cases', 'noun', 'C0868928', ['ftcn'], 0.0)||('dust', 'noun', 'C0013330', ['sbst'], 0.0)||('-', '', '', '', 0.0)||('mite', 'noun', 'C0026231', ['euka'], 0.0)||('reduction', 'noun', 'C0301630', ['npop'], 0.0)||('measures', 'noun', 'C0079809', ['qnco'], 0.0)||('.', '', '', '', 0.0)||
('the', '', '', '', 0.0)||('risk', 'noun', 'C0035647', ['qlco'], 0.0)||('of', '', '', '', 0.0)||('infants', 'noun', 'C0021270', ['aggp'], 0.0)||('experiencing', '', '', '', 0.0)||('asthma', 'noun', 'C0004096', ['dsyn'], 0.0)||('or', '', '', '', 0.0)||('wheeze', 'noun', 'C0043144', ['sosy'], 0.0)||('during', '', '', '', 0.0)||('the', '', '', '', 0.0)||('first', 'adj', 'C0205435', ['qnco'], 0.0)||('year', 'noun', 'C0439234', ['tmco'], 0.0)||('of', '', '', '', 0.0)||('life', 'noun', 'C0376558', ['idcn'], 0.0)||('was', '', '', '', 0.0)||('reduced', 'verb', 'C0392756', ['qlco'], 0.0)||('compared', 'verb', 'C1707455', ['acty'], 0.0)||('to', '', '', '', 0.0)||('standard', 'adj', 'C1442989', ['ftcn'], 0.0)||('cow', 'noun', 'C0007452', ['mamm'], 0.0)||("' s", '', '', '', 0.0)||('milk', 'noun', 'C0026131', ['bdsu'], 0.0)||('based', 'verb', 'C1527178', ['ftcn'], 0.0)||('formula', 'noun', 'C0489829', ['inpr'], 0.0)||('(', '', '', '', 0.0)||('relative risk', 'noun', 'C0242492', ['qnco'], 0.0)||('=', '', '', '', 0.0)||('0 . 40', '', '', '', 0.0)||(',', '', '', '', 0.0)||('95 %', '', '', '', 0.0)||('confidence intervals', 'noun', 'C0009667', ['qnco'], 0.0)||('0 . 19', '', '', '', 0.0)||(',', '', '', '', 0.0)||('0 . 85', '', '', '', 0.0)||(')', '', '', '', 0.0)||('.', '', '', '', 0.0)||
('feeding', 'adj', 'C0204695', ['hlca'], 0.0)||('soya', 'noun', 'C0037733', ['food'], 0.0)||('-', '', '', '', 0.0)||('based', 'adj', 'C1527178', ['ftcn'], 0.0)||('formula', 'noun', 'C0489829', ['inpr'], 0.0)||('as', '', '', '', 0.0)||('opposed', '', '', '', 0.0)||('to', '', '', '', 0.0)||('standard', 'adj', 'C1442989', ['ftcn'], 0.0)||('cow', 'noun', 'C0007452', ['mamm'], 0.0)||("' s", '', '', '', 0.0)||('milk', 'noun', 'C0026131', ['bdsu'], 0.0)||('formula', 'noun', 'C0489829', ['inpr'], 0.0)||('did', '', '', '', 0.0)||('not', 'adv', 'C1518422', ['ftcn'], 0.0)||('reduce', '', '', '', 0.0)||('the', '', '', '', 0.0)||('risk', 'noun', 'C0035647', ['qlco'], 0.0)||('of', '', '', '', 0.0)||('having', '', '', '', 0.0)||('asthma', 'noun', 'C0004096', ['dsyn'], 0.0)||('or', '', '', '', 0.0)||('wheeze', 'noun', 'C0043144', ['sosy'], 0.0)||('at', '', '', '', 0.0)||('any', '', '', '', 0.0)||('age', 'noun', 'C0001779', ['orga'], 0.0)||('.', '', '', '', 0.0)||
('breast - milk', '', '', '', 0.0)||('should', '', '', '', 0.0)||('remain', '', '', '', 0.0)||('the', '', '', '', 0.0)||('feed', 'noun', 'C0204695', ['hlca'], 0.0)||('of', '', '', '', 0.0)||('choice', 'noun', 'C0008300', ['inbe'], 0.0)||('for', '', '', '', 0.0)||('all', '', '', '', 0.0)||('babies', '', '', '', 0.0)||('.', '', '', '', 0.0)||
('in', '', '', '', 0.0)||('infants', 'noun', 'C0021270', ['aggp'], 0.0)||('with', '', '', '', 0.0)||('at', '', '', '', 0.0)||('least', '', '', '', 0.0)||('one', 'noun', 'C0205447', ['qnco'], 0.0)||('first degree relative', 'noun', 'C1517194', ['famg'], 0.0)||('with', '', '', '', 0.0)||('atopy', 'noun', 'C0392707', ['patf'], 0.0)||(',', '', '', '', 0.0)||('hydrolysed', '', '', '', 0.0)||('formula', 'noun', 'C0489829', ['inpr'], 0.0)||('for', '', '', '', 0.0)||('a', '', '', '', 0.0)||('minimum', 'noun', 'C1524031', ['qlco'], 0.0)||('of', '', '', '', 0.0)||('4', '', '', '', 0.0)||('months', 'noun', 'C0439231', ['tmco'], 0.0)||('combined', 'verb', 'C0205195', ['qlco'], 0.0)||('with', '', '', '', 0.0)||('dietary restrictions', '', '', '', 0.0)||('and', '', '', '', 0.0)||('environment', 'noun', 'C0014406', ['spco'], 0.0)||('measures', 'noun', 'C0079809', ['qnco'], 0.0)||('may', '', '', '', 0.0)||('reduce', '', '', '', 0.0)||('the', '', '', '', 0.0)||('risk', 'noun', 'C0035647', ['qlco'], 0.0)||('of', '', '', '', 0.0)||('developing', 'adj', 'C1999145', ['acty'], 0.0)||('asthma', 'noun', 'C0004096', ['dsyn'], 0.0)||('or', '', '', '', 0.0)||('wheeze', 'noun', 'C0043144', ['sosy'], 0.0)||('in', '', '', '', 0.0)||('the', '', '', '', 0.0)||('first', 'adj', 'C0205435', ['qnco'], 0.0)||('year', 'noun', 'C0439234', ['tmco'], 0.0)||('of', '', '', '', 0.0)||('life', 'noun', 'C0376558', ['idcn'], 0.0)||('.', '', '', '', 0.0)||
('there', '', '', '', 0.0)||('is', '', '', '', 0.0)||('insufficient', 'adj', 'C0205412', ['qlco'], 0.0)||('evidence', 'noun', 'C0332120', ['ftcn'], 0.0)||('to', '', '', '', 0.0)||('suggest', 'verb', 'C1705535', ['idcn'], 0.0)||('that', '', '', '', 0.0)||('soya', 'noun', 'C0037733', ['food'], 0.0)||('-', '', '', '', 0.0)||('based', 'adj', 'C1527178', ['ftcn'], 0.0)||('milk', 'noun', 'C0026131', ['bdsu'], 0.0)||('formula', 'noun', 'C0489829', ['inpr'], 0.0)||('has', '', '', '', 0.0)||('any', '', '', '', 0.0)||('benefit', 'noun', 'C0814225', ['qnco'], 0.0)||('.', '', '', '', 0.0)||
