('one', 'noun', 'C0205447', ['qnco'], 0.0)||('prospective study', 'noun', 'C0033522', ['resa'], 0.0)||('found', '', '', '', 0.0)||('the', '', '', '', 0.0)||('severity', 'noun', 'C0439793', ['qlco'], 0.0)||('of', '', '', '', 0.0)||('stenosis', 'noun', 'C0009814', ['patf'], 0.0)||('at', '', '', '', 0.0)||('baseline', 'noun', 'C0168634', ['bodm'], 0.0)||('to', '', '', '', 0.0)||('be', '', '', '', 0.0)||('the', '', '', '', 0.0)||('strongest', '', '', '', 0.0)||('prognostic', 'adj', 'C0220901', ['inpr'], 0.0)||('predictor', 'noun', 'C2698872', ['idcn'], 0.0)||('.', '', '', '', 0.0)||
('patients', 'noun', 'C0030705', ['podg'], 0.0)||('with', '', '', '', 0.0)||('a', '', '', '', 0.0)||('jet', 'noun', 'C0336862', ['mnob'], 0.0)||('velocity', 'noun', 'C0439830', ['qnco'], 0.0)||('of', '', '', '', 0.0)||('<', '', '', '', 0.0)||('3 . 0', '', '', '', 0.0)||('m / s', '', '', '', 0.0)||('were', '', '', '', 0.0)||('unlikely', 'adv', 'C1710571', ['qlco'], 0.0)||('to', '', '', '', 0.0)||('develop', '', '', '', 0.0)||('symptoms', 'noun', 'C0683368', ['ftcn'], 0.0)||('within', '', '', '', 0.0)||('5', '', '', '', 0.0)||('years', 'noun', 'C0439234', ['tmco'], 0.0)||(';', '', '', '', 0.0)||
('those', '', '', '', 0.0)||('with', '', '', '', 0.0)||('a', '', '', '', 0.0)||('jet', 'noun', 'C0336862', ['mnob'], 0.0)||('velocity', 'noun', 'C0439830', ['qnco'], 0.0)||('of', '', '', '', 0.0)||('4 . 0', '', '', '', 0.0)||('m / s', '', '', '', 0.0)||('had', '', '', '', 0.0)||('a', '', '', '', 0.0)||('>', '', '', '', 0.0)||('50 %', '', '', '', 0.0)||('likelihood', 'noun', 'C0033204', ['qnco'], 0.0)||('of', '', '', '', 0.0)||('developing', 'adj', 'C1999145', ['acty'], 0.0)||('symptoms', 'noun', 'C0683368', ['ftcn'], 0.0)||('or', '', '', '', 0.0)||('dying', 'noun', 'C0184532', ['orgf'], 0.0)||('within', '', '', '', 0.0)||('2', '', '', '', 0.0)||('years', 'noun', 'C0439234', ['tmco'], 0.0)||('.', '', '', '', 0.0)||
