('the', '', '', '', 0.0)||('optimal', 'adj', 'C2698651', ['qlco'], 0.0)||('management', 'noun', 'C0001554', ['ocac'], 0.0)||('of', '', '', '', 0.0)||('fibromyalgia syndrome', 'noun', 'C0016053', ['dsyn'], 0.0)||('is', '', '', '', 0.0)||('unclear', '', '', '', 0.0)||('and', '', '', '', 0.0)||('comprehensive', 'adj', 'C1880156', ['qlco'], 0.0)||('evidence', 'noun', 'C0332120', ['ftcn'], 0.0)||('-', '', '', '', 0.0)||('based', 'adj', 'C1527178', ['ftcn'], 0.0)||('guidelines', 'noun', 'C0162791', ['inpr'], 0.0)||('have', '', '', '', 0.0)||('not', 'adv', 'C1518422', ['ftcn'], 0.0)||('been', '', '', '', 0.0)||('reported', 'verb', 'C0684224', ['inpr'], 0.0)||('.', '', '', '', 0.0)||
('to', '', '', '', 0.0)||('provide', 'verb', 'C0359589', ['food'], 0.0)||('up - to - date', '', '', '', 0.0)||('evidence', 'noun', 'C0332120', ['ftcn'], 0.0)||('-', '', '', '', 0.0)||('based', 'adj', 'C1527178', ['ftcn'], 0.0)||('guidelines', 'noun', 'C0162791', ['inpr'], 0.0)||('for', '', '', '', 0.0)||('the', '', '', '', 0.0)||('optimal', 'adj', 'C2698651', ['qlco'], 0.0)||('treatment', 'noun', 'C0039798', ['ftcn'], 0.0)||('of', '', '', '', 0.0)||('fibromyalgia syndrome', 'noun', 'C0016053', ['dsyn'], 0.0)||('.', '', '', '', 0.0)||
('data sources', 'noun', 'C0011001', ['qnco'], 0.0)||(',', '', '', '', 0.0)||('selection', 'noun', 'C0036576', ['genf'], 0.0)||(',', '', '', '', 0.0)||('and', '', '', '', 0.0)||('extraction', 'noun', 'C0185115', ['topp'], 0.0)||(':', '', '', '', 0.0)||('a', '', '', '', 0.0)||('search', 'noun', 'C1552603', ['idcn'], 0.0)||('of', '', '', '', 0.0)||('all', '', '', '', 0.0)||('human', 'noun', 'C0086418', ['humn'], 0.0)||('trials', '', '', '', 0.0)||('(', '', '', '', 0.0)||('randomized controlled trials', '', '', '', 0.0)||('and', '', '', '', 0.0)||('meta - analyses', '', '', '', 0.0)||('of', '', '', '', 0.0)||('randomized controlled trials', '', '', '', 0.0)||(')', '', '', '', 0.0)||('of', '', '', '', 0.0)||('fibromyalgia syndrome', 'noun', 'C0016053', ['dsyn'], 0.0)||('was', '', '', '', 0.0)||('made', '', '', '', 0.0)||('using', 'verb', 'C1524063', ['ftcn'], 0.0)||('cochrane', '', '', '', 0.0)||('collaboration', 'noun', 'C0282116', ['acty'], 0.0)||('reviews', '', '', '', 0.0)||('(', '', '', '', 0.0)||('1993', '', '', '', 0.0)||('-', '', '', '', 0.0)||('2004', '', '', '', 0.0)||(')', '', '', '', 0.0)||(',', '', '', '', 0.0)||('medline', 'noun', 'C0025141', ['inpr'], 0.0)||('(', '', '', '', 0.0)||('1966', '', '', '', 0.0)||('-', '', '', '', 0.0)||('2004', '', '', '', 0.0)||(')', '', '', '', 0.0)||(',', '', '', '', 0.0)||('cinahl', '', '', '', 0.0)||('(', '', '', '', 0.0)||('1982', '', '', '', 0.0)||('-', '', '', '', 0.0)||('2004', '', '', '', 0.0)||(')', '', '', '', 0.0)||(',', '', '', '', 0.0)||('embase', '', '', '', 0.0)||('(', '', '', '', 0.0)||('1988', '', '', '', 0.0)||('-', '', '', '', 0.0)||('2004', '', '', '', 0.0)||(')', '', '', '', 0.0)||(',', '', '', '', 0.0)||('pubmed', 'noun', 'C1138432', ['inpr'], 0.0)||('(', '', '', '', 0.0)||('1966', '', '', '', 0.0)||('-', '', '', '', 0.0)||('2004', '', '', '', 0.0)||(')', '', '', '', 0.0)||(',', '', '', '', 0.0)||('healthstar', '', '', '', 0.0)||('(', '', '', '', 0.0)||('1975', '', '', '', 0.0)||('-', '', '', '', 0.0)||('2000', '', '', '', 0.0)||(')', '', '', '', 0.0)||(',', '', '', '', 0.0)||('current', 'adj', 'C0521116', ['tmco'], 0.0)||('contents', 'noun', 'C0456205', ['cnce'], 0.0)||('(', '', '', '', 0.0)||('2000', '', '', '', 0.0)||('-', '', '', '', 0.0)||('2004', '', '', '', 0.0)||(')', '', '', '', 0.0)||(',', '', '', '', 0.0)||('web', 'noun', 'C0282111', ['mnob'], 0.0)||('of', '', '', '', 0.0)||('science', 'noun', 'C0036397', ['ocdi'], 0.0)||('(', '', '', '', 0.0)||('1980', '', '', '', 0.0)||('-', '', '', '', 0.0)||('2004', '', '', '', 0.0)||(')', '', '', '', 0.0)||(',', '', '', '', 0.0)||('psychinfo', '', '', '', 0.0)||('(', '', '', '', 0.0)||('1887', '', '', '', 0.0)||('-', '', '', '', 0.0)||('2004', '', '', '', 0.0)||(')', '', '', '', 0.0)||(',', '', '', '', 0.0)||('and', '', '', '', 0.0)||('science citation indexes', '', '', '', 0.0)||('(', '', '', '', 0.0)||('1996', '', '', '', 0.0)||('-', '', '', '', 0.0)||('2004', '', '', '', 0.0)||(')', '', '', '', 0.0)||('.', '', '', '', 0.0)||
('the', '', '', '', 0.0)||('literature review', 'noun', 'C0282441', ['inpr'], 0.0)||('was', '', '', '', 0.0)||('performed', 'verb', 'C0884358', ['ftcn'], 0.0)||('by', '', '', '', 0.0)||('an', '', '', '', 0.0)||('interdisciplinary', '', '', '', 0.0)||('panel', 'noun', 'C0441833', ['idcn'], 0.0)||(',', '', '', '', 0.0)||('composed', '', '', '', 0.0)||('of', '', '', '', 0.0)||('13', '', '', '', 0.0)||('experts', '', '', '', 0.0)||('in', '', '', '', 0.0)||('various', 'adj', 'C0440102', ['irda'], 0.0)||('pain management', 'noun', 'C0002766', ['topp'], 0.0)||('disciplines', '', '', '', 0.0)||(',', '', '', '', 0.0)||('selected', '', '', '', 0.0)||('by', '', '', '', 0.0)||('the', '', '', '', 0.0)||('american', 'adj', 'C0596070', ['popg'], 0.0)||('pain', 'noun', 'C0030193', ['sosy'], 0.0)||('society', 'noun', 'C0037455', ['orgt'], 0.0)||(',', '', '', '', 0.0)||('and', '', '', '', 0.0)||('supplemented', '', '', '', 0.0)||('by', '', '', '', 0.0)||('selected', '', '', '', 0.0)||('literature reviews', '', '', '', 0.0)||('by', '', '', '', 0.0)||('american', 'adj', 'C0596070', ['popg'], 0.0)||('pain', 'noun', 'C0030193', ['sosy'], 0.0)||('society', 'noun', 'C0037455', ['orgt'], 0.0)||('staff members', '', '', '', 0.0)||('and', '', '', '', 0.0)||('the', '', '', '', 0.0)||('utah', 'noun', 'C0042124', ['geoa'], 0.0)||('drug information service', 'noun', 'C0013186', ['hlca'], 0.0)||('.', '', '', '', 0.0)||
('a', '', '', '', 0.0)||('total', 'noun', 'C0439810', ['qlco'], 0.0)||('of', '', '', '', 0.0)||('505', '', '', '', 0.0)||('articles', '', '', '', 0.0)||('were', '', '', '', 0.0)||('reviewed', 'verb', 'C1709940', ['qlco'], 0.0)||('.', '', '', '', 0.0)||
('there', '', '', '', 0.0)||('are', '', '', '', 0.0)||('major', 'adj', 'C0205164', ['qlco'], 0.0)||('limitations', '', '', '', 0.0)||('to', '', '', '', 0.0)||('the', '', '', '', 0.0)||('fibromyalgia syndrome', 'noun', 'C0016053', ['dsyn'], 0.0)||('literature', 'noun', 'C0023866', ['inpr'], 0.0)||(',', '', '', '', 0.0)||('with', '', '', '', 0.0)||('many', '', '', '', 0.0)||('treatment', 'noun', 'C0039798', ['ftcn'], 0.0)||('trials', '', '', '', 0.0)||('compromised', '', '', '', 0.0)||('by', '', '', '', 0.0)||('short', 'adj', 'C1806781', ['qnco'], 0.0)||('duration', 'noun', 'C0449238', ['tmco'], 0.0)||('and', '', '', '', 0.0)||('lack', 'noun', 'C0332268', ['qlco'], 0.0)||('of', '', '', '', 0.0)||('masking', 'noun', 'C0150112', ['ftcn'], 0.0)||('.', '', '', '', 0.0)||
('there', '', '', '', 0.0)||('are', '', '', '', 0.0)||('no', '', '', '', 0.0)||('medical', 'adj', 'C0205476', ['ftcn'], 0.0)||('therapies', 'noun', 'C0087111', ['topp'], 0.0)||('that', '', '', '', 0.0)||('have', '', '', '', 0.0)||('been', '', '', '', 0.0)||('specifically', '', '', '', 0.0)||('approved', 'verb', 'C0205540', ['qlco'], 0.0)||('by', '', '', '', 0.0)||('the', '', '', '', 0.0)||('us', '', '', '', 0.0)||('food and drug administration', 'noun', 'C0041714', ['hcro'], 0.0)||('for', '', '', '', 0.0)||('management', 'noun', 'C0001554', ['ocac'], 0.0)||('of', '', '', '', 0.0)||('fibromyalgia syndrome', 'noun', 'C0016053', ['dsyn'], 0.0)||('.', '', '', '', 0.0)||
('nonetheless', '', '', '', 0.0)||(',', '', '', '', 0.0)||('current', 'adj', 'C0521116', ['tmco'], 0.0)||('evidence', 'noun', 'C0332120', ['ftcn'], 0.0)||('suggests', '', '', '', 0.0)||('efficacy', 'noun', 'C1707887', ['resa'], 0.0)||('of', '', '', '', 0.0)||('low - dose', '', '', '', 0.0)||('tricyclic antidepressants', '', '', '', 0.0)||(',', '', '', '', 0.0)||('cardiovascular', 'adj', 'C0007226', ['bdsy'], 0.0)||('exercise', 'noun', 'C0015259', ['dora'], 0.0)||(',', '', '', '', 0.0)||('cognitive behavioral therapy', 'noun', 'C0009244', ['topp'], 0.0)||(',', '', '', '', 0.0)||('and', '', '', '', 0.0)||('patient', '', '', '', 0.0)||('education', 'noun', 'C0013621', ['edac'], 0.0)||('.', '', '', '', 0.0)||
('a', '', '', '', 0.0)||('number', 'noun', 'C0449788', ['qnco'], 0.0)||('of', '', '', '', 0.0)||('other', '', '', '', 0.0)||('commonly', '', '', '', 0.0)||('used', '', '', '', 0.0)||('fibromyalgia syndrome', 'noun', 'C0016053', ['dsyn'], 0.0)||('therapies', 'noun', 'C0087111', ['topp'], 0.0)||(',', '', '', '', 0.0)||('such as', '', '', '', 0.0)||('trigger point', 'noun', 'C0458343', ['blor'], 0.0)||('injections', 'noun', 'C1533685', ['topp'], 0.0)||(',', '', '', '', 0.0)||('have', '', '', '', 0.0)||('not', 'adv', 'C1518422', ['ftcn'], 0.0)||('been', '', '', '', 0.0)||('adequately', '', '', '', 0.0)||('evaluated', 'verb', 'C0220825', ['ftcn'], 0.0)||('.', '', '', '', 0.0)||
('despite', '', '', '', 0.0)||('the', '', '', '', 0.0)||('chronicity', 'noun', 'C0547045', ['ftcn'], 0.0)||('and', '', '', '', 0.0)||('complexity', 'noun', 'C2364179', ['qlco'], 0.0)||('of', '', '', '', 0.0)||('fibromyalgia syndrome', 'noun', 'C0016053', ['dsyn'], 0.0)||(',', '', '', '', 0.0)||('there', '', '', '', 0.0)||('are', '', '', '', 0.0)||('pharmacological', 'adj', 'C0031330', ['bmod'], 0.0)||('and', '', '', '', 0.0)||('nonpharmacological', '', '', '', 0.0)||('interventions', '', '', '', 0.0)||('available', 'adj', 'C0470187', ['ftcn'], 0.0)||('that', '', '', '', 0.0)||('have', '', '', '', 0.0)||('clinical', 'adj', 'C0205210', ['qlco'], 0.0)||('benefit', 'noun', 'C0814225', ['qnco'], 0.0)||('.', '', '', '', 0.0)||
('based', 'verb', 'C1527178', ['ftcn'], 0.0)||('on', '', '', '', 0.0)||('current', 'adj', 'C0521116', ['tmco'], 0.0)||('evidence', 'noun', 'C0332120', ['ftcn'], 0.0)||(',', '', '', '', 0.0)||('a', '', '', '', 0.0)||('stepwise', '', '', '', 0.0)||('program', 'noun', 'C1709697', ['cnce'], 0.0)||('emphasizing', '', '', '', 0.0)||('education', 'noun', 'C0013621', ['edac'], 0.0)||(',', '', '', '', 0.0)||('certain', '', '', '', 0.0)||('medications', 'noun', 'C0013227', ['phsu'], 0.0)||(',', '', '', '', 0.0)||('exercise', 'noun', 'C0015259', ['dora'], 0.0)||(',', '', '', '', 0.0)||('cognitive therapy', 'noun', 'C0009244', ['topp'], 0.0)||(',', '', '', '', 0.0)||('or', '', '', '', 0.0)||('all', '', '', '', 0.0)||('4', '', '', '', 0.0)||('should', '', '', '', 0.0)||('be', '', '', '', 0.0)||('recommended', 'verb', 'C0034866', ['idcn'], 0.0)||('.', '', '', '', 0.0)||
