('since', '', '', '', 0.0)||('the', '', '', '', 0.0)||('american heart association', 'noun', 'C0002458', ['hcro'], 0.0)||('last', '', '', '', 0.0)||('presented', 'verb', 'C0449450', ['idcn'], 0.0)||('nutrition', 'noun', 'C0028707', ['bmod'], 0.0)||('guidelines', 'noun', 'C0162791', ['inpr'], 0.0)||('for', '', '', '', 0.0)||('children', 'noun', 'C0008059', ['aggp'], 0.0)||(',', '', '', '', 0.0)||('significant', 'adj', 'C0750502', ['idcn'], 0.0)||('changes', '', '', '', 0.0)||('have', '', '', '', 0.0)||('occurred', 'verb', 'C1709305', ['cnce'], 0.0)||('in', '', '', '', 0.0)||('the', '', '', '', 0.0)||('prevalence', 'noun', 'C0033105', ['qnco'], 0.0)||('of', '', '', '', 0.0)||('cardiovascular risk', '', '', '', 0.0)||('factors', '', '', '', 0.0)||('and', '', '', '', 0.0)||('nutrition', 'noun', 'C0028707', ['bmod'], 0.0)||('behaviors', 'noun', 'C0004927', ['inbe'], 0.0)||('in', '', '', '', 0.0)||('children', 'noun', 'C0008059', ['aggp'], 0.0)||('.', '', '', '', 0.0)||
('overweight', 'noun', 'C0497406', ['sosy'], 0.0)||('has', '', '', '', 0.0)||('increased', 'verb', 'C0205217', ['qnco'], 0.0)||(',', '', '', '', 0.0)||('whereas', '', '', '', 0.0)||('saturated fat', 'noun', 'C0597423', ['lipd'], 0.0)||('and', '', '', '', 0.0)||('cholesterol', 'noun', 'C0008377', ['bacs', 'strd'], 0.0)||('intake', 'noun', 'C1512806', ['ftcn'], 0.0)||('have', '', '', '', 0.0)||('decreased', 'verb', 'C0205216', ['qnco'], 0.0)||(',', '', '', '', 0.0)||('at', '', '', '', 0.0)||('least', '', '', '', 0.0)||('as', '', '', '', 0.0)||('percentage', 'noun', 'C0439165', ['qnco'], 0.0)||('of', '', '', '', 0.0)||('total', 'adj', 'C0439810', ['qlco'], 0.0)||('caloric intake', 'noun', 'C0006777', ['qnco'], 0.0)||('.', '', '', '', 0.0)||
('better', 'adv', 'C0332272', ['qlco'], 0.0)||('understanding', 'verb', 'C0162340', ['menp'], 0.0)||('of', '', '', '', 0.0)||('children', 'noun', 'C0008059', ['aggp'], 0.0)||("' s", '', '', '', 0.0)||('cardiovascular risk status', '', '', '', 0.0)||('and', '', '', '', 0.0)||('current', 'adj', 'C0521116', ['tmco'], 0.0)||('diet', 'noun', 'C0012155', ['food'], 0.0)||('is', '', '', '', 0.0)||('available', 'adj', 'C0470187', ['ftcn'], 0.0)||('from', '', '', '', 0.0)||('national', '', '', '', 0.0)||('survey', 'noun', 'C0038951', ['inpr'], 0.0)||('data', 'noun', 'C1511726', ['idcn'], 0.0)||('.', '', '', '', 0.0)||
('new', 'adj', 'C0205314', ['tmco'], 0.0)||('research', 'noun', 'C0035168', ['resa'], 0.0)||('on', '', '', '', 0.0)||('the', '', '', '', 0.0)||('efficacy', 'noun', 'C1707887', ['resa'], 0.0)||('of', '', '', '', 0.0)||('diet', 'noun', 'C0012155', ['food'], 0.0)||('intervention', 'noun', 'C1273869', ['hlca'], 0.0)||('in', '', '', '', 0.0)||('children', 'noun', 'C0008059', ['aggp'], 0.0)||('has', '', '', '', 0.0)||('been', '', '', '', 0.0)||('published', 'verb', 'C0034037', ['ocac'], 0.0)||('.', '', '', '', 0.0)||
('also', '', '', '', 0.0)||(',', '', '', '', 0.0)||('increasing', 'verb', 'C0442808', ['ftcn'], 0.0)||('attention', 'noun', 'C0004268', ['menp'], 0.0)||('has', '', '', '', 0.0)||('been', '', '', '', 0.0)||('paid', '', '', '', 0.0)||('to', '', '', '', 0.0)||('the', '', '', '', 0.0)||('importance', '', '', '', 0.0)||('of', '', '', '', 0.0)||('nutrition', 'noun', 'C0028707', ['bmod'], 0.0)||('early', 'adv', 'C1279919', ['tmco'], 0.0)||('in life', '', '', '', 0.0)||(',', '', '', '', 0.0)||('including', '', '', '', 0.0)||('the', '', '', '', 0.0)||('fetal', 'adj', 'C0015965', ['emst'], 0.0)||('milieu', '', '', '', 0.0)||('.', '', '', '', 0.0)||
('this', '', '', '', 0.0)||('scientific', 'adj', 'C0036397', ['ocdi'], 0.0)||('statement', 'noun', 'C1710187', ['idcn'], 0.0)||('summarizes', '', '', '', 0.0)||('current', 'adj', 'C0521116', ['tmco'], 0.0)||('available', 'adj', 'C0470187', ['ftcn'], 0.0)||('information', 'noun', 'C1533716', ['idcn'], 0.0)||('on', '', '', '', 0.0)||('cardiovascular', 'adj', 'C0007226', ['bdsy'], 0.0)||('nutrition', 'noun', 'C0028707', ['bmod'], 0.0)||('in', '', '', '', 0.0)||('children', 'noun', 'C0008059', ['aggp'], 0.0)||('and', '', '', '', 0.0)||('makes', '', '', '', 0.0)||('recommendations', 'noun', 'C0034866', ['idcn'], 0.0)||('for', '', '', '', 0.0)||('both', '', '', '', 0.0)||('primordial', '', '', '', 0.0)||('and', '', '', '', 0.0)||('primary', 'adj', 'C0205225', ['qlco'], 0.0)||('prevention', 'noun', 'C0199176', ['topp'], 0.0)||('of', '', '', '', 0.0)||('cardiovascular disease', 'noun', 'C0007222', ['dsyn'], 0.0)||('beginning', 'noun', 'C0439659', ['tmco'], 0.0)||('at', '', '', '', 0.0)||('a', '', '', '', 0.0)||('young', 'adj', 'C0332239', ['tmco'], 0.0)||('age', 'noun', 'C0001779', ['orga'], 0.0)||('.', '', '', '', 0.0)||
