('we', '', '', '', 0.0)||('assessed', 'verb', 'C1516048', ['acty'], 0.0)||('whether', '', '', '', 0.0)||('sugar', 'noun', 'C0007004', ['carb'], 0.0)||('-', '', '', '', 0.0)||('sweetened', '', '', '', 0.0)||('beverage', 'noun', 'C0005329', ['food'], 0.0)||('(', '', '', '', 0.0)||('ssb', 'noun', 'C1420423', ['gngm'], 0.0)||(')', '', '', '', 0.0)||('consumption', 'noun', 'C0009830', ['acty'], 0.0)||('increases', '', '', '', 0.0)||('fatness', 'noun', 'C0235433', ['fndg'], 0.0)||('in', '', '', '', 0.0)||('british', 'adj', 'C0596227', ['popg'], 0.0)||('children', 'noun', 'C0008059', ['aggp'], 0.0)||('.', '', '', '', 0.0)||
('data', 'noun', 'C1511726', ['idcn'], 0.0)||('from', '', '', '', 0.0)||('a', '', '', '', 0.0)||('subsample', '', '', '', 0.0)||('of', '', '', '', 0.0)||('the', '', '', '', 0.0)||('avon', 'noun', 'C0454839', ['geoa'], 0.0)||('longitudinal study', 'noun', 'C0023981', ['resa'], 0.0)||('of', '', '', '', 0.0)||('parents', 'noun', 'C0030551', ['famg'], 0.0)||('and', '', '', '', 0.0)||('children', 'noun', 'C0008059', ['aggp'], 0.0)||('were', '', '', '', 0.0)||('analyzed', 'verb', 'C0936012', ['resa'], 0.0)||('.', '', '', '', 0.0)||
('diet', 'noun', 'C0012155', ['food'], 0.0)||('was', '', '', '', 0.0)||('assessed', 'verb', 'C1516048', ['acty'], 0.0)||('at', '', '', '', 0.0)||('ages', '', '', '', 0.0)||('5', '', '', '', 0.0)||('y', '', '', '', 0.0)||('(', '', '', '', 0.0)||('n =', '', '', '', 0.0)||('521', '', '', '', 0.0)||(')', '', '', '', 0.0)||('and', '', '', '', 0.0)||('7', '', '', '', 0.0)||('y', '', '', '', 0.0)||('(', '', '', '', 0.0)||('n =', '', '', '', 0.0)||('682', '', '', '', 0.0)||(')', '', '', '', 0.0)||('using', 'verb', 'C1524063', ['ftcn'], 0.0)||('3 - d', '', '', '', 0.0)||('diet', 'noun', 'C0012155', ['food'], 0.0)||('diaries', 'noun', 'C0376660', ['inpr'], 0.0)||('.', '', '', '', 0.0)||
('beverages', 'noun', 'C0005329', ['food'], 0.0)||('were', '', '', '', 0.0)||('categorized', '', '', '', 0.0)||('into', '', '', '', 0.0)||('ssb', 'noun', 'C1420423', ['gngm'], 0.0)||(',', '', '', '', 0.0)||('low', 'adj', 'C0205251', ['qlco'], 0.0)||('energy', 'noun', 'C0424589', ['fndg'], 0.0)||(',', '', '', '', 0.0)||('fruit juice', 'noun', 'C0452453', ['food'], 0.0)||(',', '', '', '', 0.0)||('milk', 'noun', 'C0026131', ['bdsu'], 0.0)||(',', '', '', '', 0.0)||('and', '', '', '', 0.0)||('water', 'noun', 'C0043047', ['inch', 'phsu'], 0.0)||('.', '', '', '', 0.0)||
('fat', 'noun', 'C0424612', ['orga'], 0.0)||('mass', 'noun', 'C0577559', ['fndg'], 0.0)||('was', '', '', '', 0.0)||('measured', 'verb', 'C0444706', ['qlco'], 0.0)||('at', '', '', '', 0.0)||('age', 'noun', 'C0001779', ['orga'], 0.0)||('9', '', '', '', 0.0)||('y', '', '', '', 0.0)||('using', 'verb', 'C1524063', ['ftcn'], 0.0)||('dual - energy x - ray absorptiometry', '', '', '', 0.0)||('.', '', '', '', 0.0)||
('the', '', '', '', 0.0)||('association', 'noun', 'C0004083', ['menp'], 0.0)||('between', '', '', '', 0.0)||('consumption', 'noun', 'C0009830', ['acty'], 0.0)||('of', '', '', '', 0.0)||('ssb', 'noun', 'C1420423', ['gngm'], 0.0)||('at', '', '', '', 0.0)||('each', '', '', '', 0.0)||('age', 'noun', 'C0001779', ['orga'], 0.0)||('and', '', '', '', 0.0)||('fatness', 'noun', 'C0235433', ['fndg'], 0.0)||('was', '', '', '', 0.0)||('examined', 'verb', 'C0332128', ['fndg'], 0.0)||('using', 'verb', 'C1524063', ['ftcn'], 0.0)||('linear regression', 'noun', 'C0023733', ['qnco'], 0.0)||('adjusted', 'verb', 'C0456081', ['ftcn'], 0.0)||('for', '', '', '', 0.0)||('potentially', '', '', '', 0.0)||('confounding', '', '', '', 0.0)||('variables', '', '', '', 0.0)||('.', '', '', '', 0.0)||
('ssb', 'noun', 'C1420423', ['gngm'], 0.0)||('accounted', '', '', '', 0.0)||('for', '', '', '', 0.0)||('15 %', '', '', '', 0.0)||('of', '', '', '', 0.0)||('all', '', '', '', 0.0)||('drinks', 'verb', 'C0452428', ['food'], 0.0)||('consumed', '', '', '', 0.0)||('and', '', '', '', 0.0)||('3 %', '', '', '', 0.0)||('of', '', '', '', 0.0)||('total energy', '', '', '', 0.0)||('intake', 'noun', 'C1512806', ['ftcn'], 0.0)||('at', '', '', '', 0.0)||('both', '', '', '', 0.0)||('ages', '', '', '', 0.0)||('.', '', '', '', 0.0)||
('there', '', '', '', 0.0)||('was', '', '', '', 0.0)||('no', '', '', '', 0.0)||('evidence', 'noun', 'C0332120', ['ftcn'], 0.0)||('of', '', '', '', 0.0)||('an', '', '', '', 0.0)||('association', 'noun', 'C0004083', ['menp'], 0.0)||('between', '', '', '', 0.0)||('ssb', 'noun', 'C1420423', ['gngm'], 0.0)||('consumption', 'noun', 'C0009830', ['acty'], 0.0)||('at', '', '', '', 0.0)||('5', '', '', '', 0.0)||('or', '', '', '', 0.0)||('7', '', '', '', 0.0)||('y', '', '', '', 0.0)||('of', '', '', '', 0.0)||('age', 'noun', 'C0001779', ['orga'], 0.0)||('and', '', '', '', 0.0)||('fatness', 'noun', 'C0235433', ['fndg'], 0.0)||('at', '', '', '', 0.0)||('age', 'noun', 'C0001779', ['orga'], 0.0)||('9', '', '', '', 0.0)||('y', '', '', '', 0.0)||('.', '', '', '', 0.0)||
('there', '', '', '', 0.0)||('was', '', '', '', 0.0)||('a', '', '', '', 0.0)||('small', 'adj', 'C0700321', ['qnco'], 0.0)||('positive', 'adj', 'C1446409', ['qlco'], 0.0)||('correlation', 'noun', 'C1707520', ['qlco'], 0.0)||('between', '', '', '', 0.0)||('low', 'adj', 'C0205251', ['qlco'], 0.0)||('-', '', '', '', 0.0)||('energy', 'noun', 'C0424589', ['fndg'], 0.0)||('drinks', 'noun', 'C0452428', ['food'], 0.0)||('at', '', '', '', 0.0)||('age', 'noun', 'C0001779', ['orga'], 0.0)||('5', '', '', '', 0.0)||('and', '', '', '', 0.0)||('7', '', '', '', 0.0)||('y', '', '', '', 0.0)||('and', '', '', '', 0.0)||('fatness', 'noun', 'C0235433', ['fndg'], 0.0)||('at', '', '', '', 0.0)||('9', '', '', '', 0.0)||('y', '', '', '', 0.0)||('(', '', '', '', 0.0)||('age', 'noun', 'C0001779', ['orga'], 0.0)||('5', '', '', '', 0.0)||('y', '', '', '', 0.0)||(',', '', '', '', 0.0)||('rho', 'noun', 'C1412517', ['gngm'], 0.0)||('=', '', '', '', 0.0)||('0 . 21', '', '', '', 0.0)||(',', '', '', '', 0.0)||('p', '', '', '', 0.0)||('<', '', '', '', 0.0)||('0 . 001', '', '', '', 0.0)||(';', '', '', '', 0.0)||('age', 'noun', 'C0001779', ['orga'], 0.0)||('7', '', '', '', 0.0)||('y', '', '', '', 0.0)||(',', '', '', '', 0.0)||('rho', 'noun', 'C1412517', ['gngm'], 0.0)||('=', '', '', '', 0.0)||('0 . 16', '', '', '', 0.0)||(',', '', '', '', 0.0)||('p', '', '', '', 0.0)||('<', '', '', '', 0.0)||('0 . 001', '', '', '', 0.0)||(')', '', '', '', 0.0)||(',', '', '', '', 0.0)||('which', '', '', '', 0.0)||('was', '', '', '', 0.0)||('explained', '', '', '', 0.0)||('by', '', '', '', 0.0)||('existing', '', '', '', 0.0)||('overweight', 'adj', 'C0497406', ['sosy'], 0.0)||('status', 'noun', 'C0449438', ['qlco'], 0.0)||('at', '', '', '', 0.0)||('ages', '', '', '', 0.0)||('5', '', '', '', 0.0)||('and', '', '', '', 0.0)||('7', '', '', '', 0.0)||('y', '', '', '', 0.0)||('.', '', '', '', 0.0)||
('in', '', '', '', 0.0)||('this', '', '', '', 0.0)||('cohort', 'noun', 'C0599755', ['popg'], 0.0)||('of', '', '', '', 0.0)||('british', 'adj', 'C0596227', ['popg'], 0.0)||('children', 'noun', 'C0008059', ['aggp'], 0.0)||('there', '', '', '', 0.0)||('was', '', '', '', 0.0)||('no', '', '', '', 0.0)||('evidence', 'noun', 'C0332120', ['ftcn'], 0.0)||('of', '', '', '', 0.0)||('an', '', '', '', 0.0)||('association', 'noun', 'C0004083', ['menp'], 0.0)||('between', '', '', '', 0.0)||('ssb', 'noun', 'C1420423', ['gngm'], 0.0)||('consumption', 'noun', 'C0009830', ['acty'], 0.0)||('at', '', '', '', 0.0)||('age', 'noun', 'C0001779', ['orga'], 0.0)||('5', '', '', '', 0.0)||('or', '', '', '', 0.0)||('7', '', '', '', 0.0)||('y', '', '', '', 0.0)||('and', '', '', '', 0.0)||('fatness', 'noun', 'C0235433', ['fndg'], 0.0)||('at', '', '', '', 0.0)||('age', 'noun', 'C0001779', ['orga'], 0.0)||('9', '', '', '', 0.0)||('y', '', '', '', 0.0)||('.', '', '', '', 0.0)||
('the', '', '', '', 0.0)||('positive', 'adj', 'C1446409', ['qlco'], 0.0)||('relation', 'noun', 'C0080103', ['famg'], 0.0)||('between', '', '', '', 0.0)||('consumption', 'noun', 'C0009830', ['acty'], 0.0)||('of', '', '', '', 0.0)||('low', 'adj', 'C0205251', ['qlco'], 0.0)||('-', '', '', '', 0.0)||('energy', 'noun', 'C0424589', ['fndg'], 0.0)||('beverages', 'noun', 'C0005329', ['food'], 0.0)||('and', '', '', '', 0.0)||('fatness', 'noun', 'C0235433', ['fndg'], 0.0)||('at', '', '', '', 0.0)||('9', '', '', '', 0.0)||('y', '', '', '', 0.0)||(',', '', '', '', 0.0)||('which', '', '', '', 0.0)||('was', '', '', '', 0.0)||('explained', '', '', '', 0.0)||('by', '', '', '', 0.0)||('overweight', 'adj', 'C0497406', ['sosy'], 0.0)||('status', 'noun', 'C0449438', ['qlco'], 0.0)||('at', '', '', '', 0.0)||('5', '', '', '', 0.0)||('and', '', '', '', 0.0)||('7', '', '', '', 0.0)||('y', '', '', '', 0.0)||(',', '', '', '', 0.0)||('suggests', '', '', '', 0.0)||('that', '', '', '', 0.0)||('heavier', '', '', '', 0.0)||('children', 'noun', 'C0008059', ['aggp'], 0.0)||('may', '', '', '', 0.0)||('consume', '', '', '', 0.0)||('low', 'adj', 'C0205251', ['qlco'], 0.0)||('-', '', '', '', 0.0)||('energy', 'noun', 'C0424589', ['fndg'], 0.0)||('beverages', 'noun', 'C0005329', ['food'], 0.0)||('as', '', '', '', 0.0)||('part', 'noun', 'C0449719', ['spco'], 0.0)||('of', '', '', '', 0.0)||('an', '', '', '', 0.0)||('ineffective', '', '', '', 0.0)||('weight', 'noun', 'C0005910', ['orga'], 0.0)||('-', '', '', '', 0.0)||('control', 'noun', 'C0243148', ['qlco'], 0.0)||('program', 'noun', 'C1709697', ['cnce'], 0.0)||('.', '', '', '', 0.0)||
