('achievement', 'noun', 'C0001072', ['bhvr'], 0.0)||('of', '', '', '', 0.0)||('recommended', 'adj', 'C0034866', ['idcn'], 0.0)||('levels', 'noun', 'C0441889', ['qlco'], 0.0)||('of', '', '', '', 0.0)||('blood pressure', 'noun', 'C0005823', ['orgf'], 0.0)||('as', '', '', '', 0.0)||('prescribed', 'verb', 'C0278329', ['hlca'], 0.0)||('by', '', '', '', 0.0)||('guidelines', 'noun', 'C0162791', ['inpr'], 0.0)||('(', '', '', '', 0.0)||('i . e .', '', '', '', 0.0)||(',', '', '', '', 0.0)||('systolic blood pressure', 'noun', 'C0488055', ['clna'], 0.0)||('of', '', '', '', 0.0)||('<', '', '', '', 0.0)||('130', '', '', '', 0.0)||('mmhg', 'noun', 'C0439475', ['qnco'], 0.0)||('in', '', '', '', 0.0)||('people', 'noun', 'C0027361', ['popg'], 0.0)||('with', '', '', '', 0.0)||('nephropathy', 'noun', 'C0022658', ['dsyn'], 0.0)||('secondary', 'adj', 'C0175668', ['tmco'], 0.0)||('to', '', '', '', 0.0)||('type 2 diabetes', 'noun', 'C0011860', ['dsyn'], 0.0)||(')', '', '', '', 0.0)||('generally', '', '', '', 0.0)||('requires', '', '', '', 0.0)||('three', '', 'C0205449', ['qnco'], 0.0)||('or', '', '', '', 0.0)||('more', '', '', '', 0.0)||('different', 'adj', 'C1705242', ['qlco'], 0.0)||('antihypertensive', 'adj', 'C0003364', ['phsu'], 0.0)||('agents', '', '', '', 0.0)||('that', '', '', '', 0.0)||('have', '', '', '', 0.0)||('complementary', '', '', '', 0.0)||('modes', '', '', '', 0.0)||('of', '', '', '', 0.0)||('action', 'noun', 'C0441472', ['ftcn'], 0.0)||('.', '', '', '', 0.0)||
('this', '', '', '', 0.0)||('systolic', 'adj', 'C0039155', ['tmco'], 0.0)||('goal', 'noun', 'C0018017', ['inpr'], 0.0)||('blood pressure', 'noun', 'C0005823', ['orgf'], 0.0)||(',', '', '', '', 0.0)||('recommended', 'verb', 'C0034866', ['idcn'], 0.0)||('by', '', '', '', 0.0)||('generally', '', '', '', 0.0)||('all', '', '', '', 0.0)||('international', 'adj', 'C1512888', ['idcn'], 0.0)||('guideline', 'noun', 'C0162791', ['inpr'], 0.0)||('committees', '', '', '', 0.0)||(',', '', '', '', 0.0)||('was', '', '', '', 0.0)||('derived', 'verb', 'C1441547', ['qlco'], 0.0)||('from', '', '', '', 0.0)||('largely', '', '', '', 0.0)||('observational', 'adj', 'C1964257', ['diap'], 0.0)||('studies', '', '', '', 0.0)||('demonstrating', 'verb', 'C1999141', ['hlca'], 0.0)||('a', '', '', '', 0.0)||('greater', 'adj', 'C1704243', ['qnco'], 0.0)||('reduction', 'noun', 'C0301630', ['npop'], 0.0)||('of', '', '', '', 0.0)||('cardiovascular risk', '', '', '', 0.0)||('and', '', '', '', 0.0)||('preservation', 'noun', 'C0033085', ['lbpr'], 0.0)||('of', '', '', '', 0.0)||('kidney function', 'noun', 'C0232804', ['ortf'], 0.0)||('at', '', '', '', 0.0)||('these', '', '', '', 0.0)||('levels', 'noun', 'C0441889', ['qlco'], 0.0)||('.', '', '', '', 0.0)||
('commonly', '', '', '', 0.0)||('used', '', '', '', 0.0)||('antihypertensive', 'adj', 'C0003364', ['phsu'], 0.0)||('combinations', 'noun', 'C0453882', ['mnob'], 0.0)||('include', 'verb', 'C1552866', ['idcn'], 0.0)||('angiotensin - converting enzyme inhibitors', '', '', '', 0.0)||('or', '', '', '', 0.0)||('angiotensin receptor blockers', 'noun', 'C0521942', ['phsu'], 0.0)||(',', '', '', '', 0.0)||('which', '', '', '', 0.0)||('have', '', '', '', 0.0)||('compelling', '', '', '', 0.0)||('indications', 'noun', 'C0392360', ['idcn'], 0.0)||('for', '', '', '', 0.0)||('use', 'noun', 'C0042153', ['ftcn'], 0.0)||('in', '', '', '', 0.0)||('people', 'noun', 'C0027361', ['popg'], 0.0)||('with', '', '', '', 0.0)||('kidney disease', 'noun', 'C0022658', ['dsyn'], 0.0)||('and / or', '', '', '', 0.0)||('diabetes', 'noun', 'C0011847', ['dsyn'], 0.0)||(',', '', '', '', 0.0)||('combined', 'verb', 'C0205195', ['qlco'], 0.0)||('with', '', '', '', 0.0)||('a', '', '', '', 0.0)||('diuretic', 'adj', 'C0012798', ['phsu'], 0.0)||(',', '', '', '', 0.0)||('generally', '', '', '', 0.0)||('a', '', '', '', 0.0)||('thiazide', 'noun', 'C0541746', ['orch', 'phsu'], 0.0)||('-', '', '', '', 0.0)||('type', 'noun', 'C0332307', ['qlco'], 0.0)||('agent', 'noun', 'C0450442', ['chvf'], 0.0)||('.', '', '', '', 0.0)||
('if', '', '', '', 0.0)||('additional', 'adj', 'C1524062', ['ftcn'], 0.0)||('therapy', 'noun', 'C0039798', ['ftcn'], 0.0)||('is', '', '', '', 0.0)||('required', 'verb', 'C1514873', ['ftcn'], 0.0)||(',', '', '', '', 0.0)||('either', '', '', '', 0.0)||('a beta', '', '', '', 0.0)||('-', '', '', '', 0.0)||('blocker', '', '', '', 0.0)||('or', '', '', '', 0.0)||('a', '', '', '', 0.0)||('calcium antagonist', 'noun', 'C0006684', ['phsu'], 0.0)||('may', '', '', '', 0.0)||('be', '', '', '', 0.0)||('added', 'verb', 'C1524062', ['ftcn'], 0.0)||('to', '', '', '', 0.0)||('this', '', '', '', 0.0)||('antihypertensive', 'adj', 'C0003364', ['phsu'], 0.0)||('"', '', '', '', 0.0)||('cocktail', 'noun', 'C0678420', ['food'], 0.0)||('.', '', '', '', 0.0)||('"', '', '', '', 0.0)||
('beta - blockers', '', '', '', 0.0)||('are', '', '', '', 0.0)||('particularly', '', '', '', 0.0)||('effective', 'adj', 'C1704419', ['qlco'], 0.0)||('in', '', '', '', 0.0)||('people', 'noun', 'C0027361', ['popg'], 0.0)||('with', '', '', '', 0.0)||('a', '', '', '', 0.0)||('high', 'adj', 'C0205250', ['qlco'], 0.0)||('sympathetic', '', '', '', 0.0)||('drive', 'noun', 'C0013126', ['menp'], 0.0)||('(', '', '', '', 0.0)||('i . e .', '', '', '', 0.0)||(',', '', '', '', 0.0)||('high', 'adj', 'C0205250', ['qlco'], 0.0)||('pulse rates', '', '', '', 0.0)||(')', '', '', '', 0.0)||('to', '', '', '', 0.0)||('lower', 'verb', 'C0441994', ['ftcn'], 0.0)||('blood pressure', 'noun', 'C0005823', ['orgf'], 0.0)||('and', '', '', '', 0.0)||('reduce', '', '', '', 0.0)||('cardiovascular risk', '', '', '', 0.0)||('.', '', '', '', 0.0)||
('moreover', '', '', '', 0.0)||(',', '', '', '', 0.0)||('in', '', '', '', 0.0)||('recent', 'adj', 'C0332185', ['tmco'], 0.0)||('studies', '', '', '', 0.0)||(',', '', '', '', 0.0)||('their', '', '', '', 0.0)||('benefits', 'noun', 'C0814225', ['qnco'], 0.0)||('on', '', '', '', 0.0)||('kidney function', 'noun', 'C0232804', ['ortf'], 0.0)||(',', '', '', '', 0.0)||('both', '', '', '', 0.0)||('by', '', '', '', 0.0)||('reducing', 'adj', 'C0392756', ['qlco'], 0.0)||('macroalbuminuria', 'noun', 'C1654921', ['fndg'], 0.0)||('and', '', '', '', 0.0)||('slowing', '', '', '', 0.0)||('the', '', '', '', 0.0)||('decline', '', '', '', 0.0)||('of', '', '', '', 0.0)||('kidney function', 'noun', 'C0232804', ['ortf'], 0.0)||(',', '', '', '', 0.0)||('make', 'verb', 'C1881534', ['ftcn'], 0.0)||('them', '', '', '', 0.0)||('good', 'adj', 'C0205170', ['qlco'], 0.0)||('agents', '', '', '', 0.0)||('to', '', '', '', 0.0)||('add', 'verb', 'C1883712', ['ftcn'], 0.0)||('in', '', '', '', 0.0)||('the', '', '', '', 0.0)||('appropriate', 'adj', 'C1548787', ['qlco'], 0.0)||('clinical', 'adj', 'C0205210', ['qlco'], 0.0)||('setting', 'noun', 'C0542559', ['ftcn'], 0.0)||('.', '', '', '', 0.0)||
('with', '', '', '', 0.0)||('all', '', '', '', 0.0)||('these', '', '', '', 0.0)||('potential', 'adj', 'C0035647', ['qlco'], 0.0)||('benefits', 'noun', 'C0814225', ['qnco'], 0.0)||('of', '', '', '', 0.0)||('achieving', '', '', '', 0.0)||('blood pressure', 'noun', 'C0005823', ['orgf'], 0.0)||('goals', 'noun', 'C0018017', ['inpr'], 0.0)||(',', '', '', '', 0.0)||('it', '', '', '', 0.0)||('is', '', '', '', 0.0)||('unfortunate', '', '', '', 0.0)||('that', '', '', '', 0.0)||('only', '', '', '', 0.0)||('11 %', '', '', '', 0.0)||('of', '', '', '', 0.0)||('people', 'noun', 'C0027361', ['popg'], 0.0)||('being', '', '', '', 0.0)||('treated', 'verb', 'C1522326', ['ftcn'], 0.0)||('for', '', '', '', 0.0)||('hypertension', 'noun', 'C0020538', ['dsyn'], 0.0)||('with', '', '', '', 0.0)||('diabetic', 'adj', 'C0241863', ['fndg'], 0.0)||('kidney disease', 'noun', 'C0022658', ['dsyn'], 0.0)||('achieve', '', '', '', 0.0)||('the', '', '', '', 0.0)||('blood pressure', 'noun', 'C0005823', ['orgf'], 0.0)||('goal', 'noun', 'C0018017', ['inpr'], 0.0)||('of', '', '', '', 0.0)||('<', '', '', '', 0.0)||('130', '', '', '', 0.0)||('mmhg', 'noun', 'C0439475', ['qnco'], 0.0)||(',', '', '', '', 0.0)||('likely', 'adv', 'C0332148', ['qlco'], 0.0)||('contributing', 'noun', 'C1880177', ['acty'], 0.0)||('to', '', '', '', 0.0)||('the', '', '', '', 0.0)||('climbing', 'adj', 'C2362653', ['fndg'], 0.0)||('incidence', 'noun', 'C0021149', ['qnco'], 0.0)||('of', '', '', '', 0.0)||('people', 'noun', 'C0027361', ['popg'], 0.0)||('starting', '', '', '', 0.0)||('dialysis', 'noun', 'C0011945', ['npop'], 0.0)||('.', '', '', '', 0.0)||
('physicians', 'noun', 'C0031831', ['prog'], 0.0)||('need', 'verb', 'C0027552', ['qlco'], 0.0)||('to', '', '', '', 0.0)||('work', 'verb', 'C0043227', ['ocac'], 0.0)||('harder', '', '', '', 0.0)||('and', '', '', '', 0.0)||('educate', '', '', '', 0.0)||('patients', 'noun', 'C0030705', ['podg'], 0.0)||('on', '', '', '', 0.0)||('the', '', '', '', 0.0)||('importance', '', '', '', 0.0)||('of', '', '', '', 0.0)||('achieving', '', '', '', 0.0)||('these', '', '', '', 0.0)||('lower', 'adj', 'C0441994', ['ftcn'], 0.0)||('blood pressure', 'noun', 'C0005823', ['orgf'], 0.0)||('guidelines', 'noun', 'C0162791', ['inpr'], 0.0)||('.', '', '', '', 0.0)||
