('numerous', 'adj', 'C0439064', ['qnco'], 0.0)||('studies', '', '', '', 0.0)||('suggest', 'verb', 'C1705535', ['idcn'], 0.0)||('that', '', '', '', 0.0)||('the', '', '', '', 0.0)||('dihydropyridine', 'adj', 'C0012315', ['orch', 'phsu'], 0.0)||('calcium antagonists', '', '', '', 0.0)||('and', '', '', '', 0.0)||('nondihydropyridine', '', '', '', 0.0)||('calcium antagonists', '', '', '', 0.0)||('have', '', '', '', 0.0)||('differential', 'adj', 'C0443199', ['qlco'], 0.0)||('antiproteinuric', '', '', '', 0.0)||('effects', '', '', '', 0.0)||('.', '', '', '', 0.0)||
('proteinuria', 'noun', 'C0033687', ['dsyn'], 0.0)||('reduction', 'noun', 'C0301630', ['npop'], 0.0)||('is', '', '', '', 0.0)||('a', '', '', '', 0.0)||('correlate', '', '', '', 0.0)||('of', '', '', '', 0.0)||('the', '', '', '', 0.0)||('progression', 'noun', 'C0242656', ['patf'], 0.0)||('of', '', '', '', 0.0)||('renal disease', 'noun', 'C0022658', ['dsyn'], 0.0)||('.', '', '', '', 0.0)||
('in', '', '', '', 0.0)||('an', '', '', '', 0.0)||('earlier', '', '', '', 0.0)||('systematic review', '', '', '', 0.0)||(',', '', '', '', 0.0)||('calcium antagonists', '', '', '', 0.0)||('were', '', '', '', 0.0)||('shown', '', '', '', 0.0)||('as', '', '', '', 0.0)||('effective', 'adj', 'C1704419', ['qlco'], 0.0)||('antihypertensive', 'adj', 'C0003364', ['phsu'], 0.0)||('drugs', 'noun', 'C0013227', ['phsu'], 0.0)||(',', '', '', '', 0.0)||('but', '', '', '', 0.0)||('there', '', '', '', 0.0)||('was', '', '', '', 0.0)||('uncertainty', 'noun', 'C0087130', ['idcn'], 0.0)||('about', '', '', '', 0.0)||('their', '', '', '', 0.0)||('renal', 'adj', 'C0022646', ['bpoc'], 0.0)||('benefits', 'noun', 'C0814225', ['qnco'], 0.0)||('in', '', '', '', 0.0)||('patients', 'noun', 'C0030705', ['podg'], 0.0)||('with', '', '', '', 0.0)||('proteinuria', 'noun', 'C0033687', ['dsyn'], 0.0)||('and', '', '', '', 0.0)||('renal insufficiency', 'noun', 'C1565489', ['dsyn'], 0.0)||('.', '', '', '', 0.0)||
('a', '', '', '', 0.0)||('systematic review', '', '', '', 0.0)||('was', '', '', '', 0.0)||('conducted', '', '', '', 0.0)||('to', '', '', '', 0.0)||('assess', 'verb', 'C1516048', ['acty'], 0.0)||('the', '', '', '', 0.0)||('differential', 'adj', 'C0443199', ['qlco'], 0.0)||('effects', '', '', '', 0.0)||('of', '', '', '', 0.0)||('dihydropyridine', 'noun', 'C0012315', ['orch', 'phsu'], 0.0)||('calcium antagonists', '', '', '', 0.0)||('and', '', '', '', 0.0)||('nondihydropyridine', '', '', '', 0.0)||('calcium antagonists', '', '', '', 0.0)||('on', '', '', '', 0.0)||('proteinuria', 'noun', 'C0033687', ['dsyn'], 0.0)||('in', '', '', '', 0.0)||('hypertensive', 'adj', 'C0857121', ['fndg'], 0.0)||('adults', 'noun', 'C0001675', ['aggp'], 0.0)||('with', '', '', '', 0.0)||('proteinuria', 'noun', 'C0033687', ['dsyn'], 0.0)||(',', '', '', '', 0.0)||('with', '', '', '', 0.0)||('or', '', '', '', 0.0)||('without', '', '', '', 0.0)||('diabetes', 'noun', 'C0011847', ['dsyn'], 0.0)||(',', '', '', '', 0.0)||('and', '', '', '', 0.0)||('to', '', '', '', 0.0)||('determine', '', '', '', 0.0)||('whether', '', '', '', 0.0)||('these', '', '', '', 0.0)||('differential', 'adj', 'C0443199', ['qlco'], 0.0)||('effects', '', '', '', 0.0)||('translate', '', '', '', 0.0)||('into', '', '', '', 0.0)||('altered', 'adj', 'C0205349', ['ftcn'], 0.0)||('progression', 'noun', 'C0242656', ['patf'], 0.0)||('of', '', '', '', 0.0)||('nephropathy', 'noun', 'C0022658', ['dsyn'], 0.0)||('.', '', '', '', 0.0)||
('studies', '', '', '', 0.0)||('included', '', '', '', 0.0)||('in', '', '', '', 0.0)||('the', '', '', '', 0.0)||('review', 'noun', 'C0282443', ['inpr'], 0.0)||('had', '', '', '', 0.0)||('to', '', '', '', 0.0)||('be', '', '', '', 0.0)||('randomized clinical trials', '', '', '', 0.0)||('with', '', '', '', 0.0)||('at', '', '', '', 0.0)||('least', '', '', '', 0.0)||('6', '', '', '', 0.0)||('months', 'noun', 'C0439231', ['tmco'], 0.0)||('of', '', '', '', 0.0)||('treatment', 'noun', 'C0039798', ['ftcn'], 0.0)||(',', '', '', '', 0.0)||('include', 'verb', 'C1552866', ['idcn'], 0.0)||('a', '', '', '', 0.0)||('dca', '', '', '', 0.0)||('or', '', '', '', 0.0)||('ndca', '', '', '', 0.0)||('treatment', 'noun', 'C0039798', ['ftcn'], 0.0)||('arm', 'noun', 'C0446516', ['blor'], 0.0)||(',', '', '', '', 0.0)||('have', '', '', '', 0.0)||('one', 'verb', 'C0205447', ['qnco'], 0.0)||('or', '', '', '', 0.0)||('more', '', '', '', 0.0)||('renal', 'adj', 'C0022646', ['bpoc'], 0.0)||('end points', '', '', '', 0.0)||(',', '', '', '', 0.0)||('and', '', '', '', 0.0)||('have', '', '', '', 0.0)||('been', '', '', '', 0.0)||('initiated', '', '', '', 0.0)||('after', '', '', '', 0.0)||('1986', '', '', '', 0.0)||('.', '', '', '', 0.0)||
('summary', 'noun', 'C1552616', ['inpr'], 0.0)||('data', 'noun', 'C1511726', ['idcn'], 0.0)||('were', '', '', '', 0.0)||('extracted', 'verb', 'C0185115', ['topp'], 0.0)||('from', '', '', '', 0.0)||('28', '', '', '', 0.0)||('studies', '', '', '', 0.0)||('entered', 'verb', 'C1521975', ['qlco'], 0.0)||('into', '', '', '', 0.0)||('two', 'adj', 'C0205448', ['qnco'], 0.0)||('identical', 'adj', 'C0205280', ['qlco'], 0.0)||('but', '', '', '', 0.0)||('separate', 'adj', 'C0443299', ['spco'], 0.0)||('databases', 'noun', 'C0242356', ['inpr'], 0.0)||(',', '', '', '', 0.0)||('which', '', '', '', 0.0)||('were', '', '', '', 0.0)||('compared', 'verb', 'C1707455', ['acty'], 0.0)||('and', '', '', '', 0.0)||('evaluated', 'verb', 'C0220825', ['ftcn'], 0.0)||('by', '', '', '', 0.0)||('independent', 'adj', 'C0085862', ['idcn'], 0.0)||('reviewers', '', '', '', 0.0)||('.', '', '', '', 0.0)||
('the', '', '', '', 0.0)||('effects', '', '', '', 0.0)||('of', '', '', '', 0.0)||('each', '', '', '', 0.0)||('drug', 'noun', 'C0013227', ['phsu'], 0.0)||('class', 'noun', 'C0456387', ['inpr'], 0.0)||('on', '', '', '', 0.0)||('blood pressure', 'noun', 'C0005823', ['orgf'], 0.0)||('(', '', '', '', 0.0)||('n =', '', '', '', 0.0)||('1338', '', '', '', 0.0)||(')', '', '', '', 0.0)||('and', '', '', '', 0.0)||('proteinuria', 'noun', 'C0033687', ['dsyn'], 0.0)||('(', '', '', '', 0.0)||('n =', '', '', '', 0.0)||('510', '', '', '', 0.0)||(')', '', '', '', 0.0)||('were', '', '', '', 0.0)||('assessed', 'verb', 'C1516048', ['acty'], 0.0)||('.', '', '', '', 0.0)||
('after', '', '', '', 0.0)||('adjusting', 'noun', 'C0456081', ['ftcn'], 0.0)||('for', '', '', '', 0.0)||('sample', 'noun', 'C0370003', ['sbst'], 0.0)||('size', 'noun', 'C0456389', ['spco'], 0.0)||(',', '', '', '', 0.0)||('study', 'noun', 'C0008976', ['resa'], 0.0)||('length', 'noun', 'C1444754', ['qnco'], 0.0)||(',', '', '', '', 0.0)||('and', '', '', '', 0.0)||('baseline', 'noun', 'C0168634', ['bodm'], 0.0)||('value', 'noun', 'C0042295', ['qlco'], 0.0)||(',', '', '', '', 0.0)||('there', '', '', '', 0.0)||('were', '', '', '', 0.0)||('no', '', '', '', 0.0)||('statistically significant', 'adj', 'C0237881', ['qnco'], 0.0)||('differences', '', '', '', 0.0)||('in', '', '', '', 0.0)||('the', '', '', '', 0.0)||('ability', 'noun', 'C0085732', ['orga'], 0.0)||('of', '', '', '', 0.0)||('either', '', '', '', 0.0)||('class', 'noun', 'C0456387', ['inpr'], 0.0)||('of', '', '', '', 0.0)||('calcium antagonist', 'noun', 'C0006684', ['phsu'], 0.0)||('to', '', '', '', 0.0)||('decrease', 'verb', 'C0392756', ['qlco'], 0.0)||('blood pressure', 'noun', 'C0005823', ['orgf'], 0.0)||('.', '', '', '', 0.0)||
('the', '', '', '', 0.0)||('mean', 'noun', 'C0444504', ['qnco'], 0.0)||('change', 'noun', 'C0392747', ['ftcn'], 0.0)||('in', '', '', '', 0.0)||('proteinuria', 'noun', 'C0033687', ['dsyn'], 0.0)||('was', '', '', '', 0.0)||('+', '', '', '', 0.0)||('2 %', '', '', '', 0.0)||('for', '', '', '', 0.0)||('dihydropyridine', 'noun', 'C0012315', ['orch', 'phsu'], 0.0)||('calcium antagonists', '', '', '', 0.0)||('and', '', '', '', 0.0)||('-', '', '', '', 0.0)||('30 %', '', '', '', 0.0)||('for', '', '', '', 0.0)||('nondihydropyridine', '', '', '', 0.0)||('calcium antagonists', '', '', '', 0.0)||('(', '', '', '', 0.0)||('95 %', '', '', '', 0.0)||('ci', 'noun', 'C1417638', ['gngm'], 0.0)||(',', '', '', '', 0.0)||('10 %', '', '', '', 0.0)||('to', '', '', '', 0.0)||('54 %', '', '', '', 0.0)||(',', '', '', '', 0.0)||('p', '', '', '', 0.0)||('=', '', '', '', 0.0)||('0 . 01', '', '', '', 0.0)||(')', '', '', '', 0.0)||('.', '', '', '', 0.0)||
('consistently', '', '', '', 0.0)||('greater', 'adj', 'C1704243', ['qnco'], 0.0)||('reductions', '', '', '', 0.0)||('in', '', '', '', 0.0)||('proteinuria', 'noun', 'C0033687', ['dsyn'], 0.0)||('were', '', '', '', 0.0)||('associated', 'verb', 'C0332281', ['qlco'], 0.0)||('with', '', '', '', 0.0)||('the', '', '', '', 0.0)||('use', 'noun', 'C0042153', ['ftcn'], 0.0)||('of', '', '', '', 0.0)||('nondihydropyridine', '', '', '', 0.0)||('calcium antagonists', '', '', '', 0.0)||('compared', 'verb', 'C1707455', ['acty'], 0.0)||('with', '', '', '', 0.0)||('dihydropyridine', 'noun', 'C0012315', ['orch', 'phsu'], 0.0)||('calcium antagonists', '', '', '', 0.0)||(',', '', '', '', 0.0)||('despite', '', '', '', 0.0)||('no', '', '', '', 0.0)||('significant', 'adj', 'C0750502', ['idcn'], 0.0)||('differences', '', '', '', 0.0)||('in', '', '', '', 0.0)||('blood pressure reduction', '', '', '', 0.0)||('or', '', '', '', 0.0)||('presence', 'noun', 'C0392148', ['topp'], 0.0)||('of', '', '', '', 0.0)||('diabetes', 'noun', 'C0011847', ['dsyn'], 0.0)||('.', '', '', '', 0.0)||
('this', '', '', '', 0.0)||('analysis', 'noun', 'C0002778', ['lbpr'], 0.0)||('supports', 'verb', 'C0183683', ['medd'], 0.0)||('(', '', '', '', 0.0)||('1', '', '', '', 0.0)||(')', '', '', '', 0.0)||('similar', 'adj', 'C2348205', ['qlco'], 0.0)||('efficacy', 'noun', 'C1707887', ['resa'], 0.0)||('between', '', '', '', 0.0)||('subclasses', '', '', '', 0.0)||('of', '', '', '', 0.0)||('calcium antagonists', '', '', '', 0.0)||('to', '', '', '', 0.0)||('lower', 'verb', 'C0441994', ['ftcn'], 0.0)||('blood pressure', 'noun', 'C0005823', ['orgf'], 0.0)||(',', '', '', '', 0.0)||('and', '', '', '', 0.0)||('(', '', '', '', 0.0)||('2', '', '', '', 0.0)||(')', '', '', '', 0.0)||('greater', 'adj', 'C1704243', ['qnco'], 0.0)||('reductions', '', '', '', 0.0)||('in', '', '', '', 0.0)||('proteinuria', 'noun', 'C0033687', ['dsyn'], 0.0)||('by', '', '', '', 0.0)||('nondihydropyridine', '', '', '', 0.0)||('calcium antagonists', '', '', '', 0.0)||('compared', 'verb', 'C1707455', ['acty'], 0.0)||('to', '', '', '', 0.0)||('dihydropyridine', 'verb', 'C0012315', ['orch', 'phsu'], 0.0)||('calcium antagonists', '', '', '', 0.0)||('in', '', '', '', 0.0)||('the', '', '', '', 0.0)||('presence', 'noun', 'C0392148', ['topp'], 0.0)||('or', '', '', '', 0.0)||('absence', 'noun', 'C1689985', ['anab'], 0.0)||('of', '', '', '', 0.0)||('diabetes', 'noun', 'C0011847', ['dsyn'], 0.0)||('.', '', '', '', 0.0)||
('based', 'verb', 'C1527178', ['ftcn'], 0.0)||('on', '', '', '', 0.0)||('these', '', '', '', 0.0)||('findings', 'noun', 'C2607943', ['ftcn'], 0.0)||(',', '', '', '', 0.0)||('nondihydropyridine', '', '', '', 0.0)||('calcium antagonists', '', '', '', 0.0)||(',', '', '', '', 0.0)||('alone', 'adj', 'C0439044', ['fndg'], 0.0)||('or', '', '', '', 0.0)||('in', '', '', '', 0.0)||('combination', 'noun', 'C0205195', ['qlco'], 0.0)||('with', '', '', '', 0.0)||('an', '', '', '', 0.0)||('angiotensin - converting enzyme inhibitor', '', '', '', 0.0)||('or', '', '', '', 0.0)||('an', '', '', '', 0.0)||('angiotensin receptor blocker', '', '', '', 0.0)||(',', '', '', '', 0.0)||('are', '', '', '', 0.0)||('suggested', '', '', '', 0.0)||('as', '', '', '', 0.0)||('preferred', 'adj', 'C0558295', ['idcn'], 0.0)||('agents', '', '', '', 0.0)||('to', '', '', '', 0.0)||('lower', 'verb', 'C0441994', ['ftcn'], 0.0)||('blood pressure', 'noun', 'C0005823', ['orgf'], 0.0)||('in', '', '', '', 0.0)||('hypertensive', 'adj', 'C0857121', ['fndg'], 0.0)||('patients', 'noun', 'C0030705', ['podg'], 0.0)||('with', '', '', '', 0.0)||('nephropathy', 'noun', 'C0022658', ['dsyn'], 0.0)||('associated', 'verb', 'C0332281', ['qlco'], 0.0)||('with', '', '', '', 0.0)||('proteinuria', 'noun', 'C0033687', ['dsyn'], 0.0)||('.', '', '', '', 0.0)||
