('nonorganic', '', '', '', 0.0)||('physical signs', 'noun', 'C0311392', ['fndg'], 0.0)||('in', '', '', '', 0.0)||('low - back pain', '', '', '', 0.0)||('are', '', '', '', 0.0)||('described', 'verb', 'C1552738', ['idcn'], 0.0)||('and', '', '', '', 0.0)||('standardized', '', '', '', 0.0)||('in', '', '', '', 0.0)||('350', '', '', '', 0.0)||('north american', 'adj', 'C0425358', ['fndg'], 0.0)||('and', '', '', '', 0.0)||('british', 'adj', 'C0596227', ['popg'], 0.0)||('patients', 'noun', 'C0030705', ['podg'], 0.0)||('.', '', '', '', 0.0)||
('these', '', '', '', 0.0)||('nonorganic', '', '', '', 0.0)||('signs', 'noun', 'C0220912', ['ftcn'], 0.0)||('are', '', '', '', 0.0)||('distinguishable', '', '', '', 0.0)||('from', '', '', '', 0.0)||('the', '', '', '', 0.0)||('standard', 'adj', 'C1442989', ['ftcn'], 0.0)||('clinical', 'adj', 'C0205210', ['qlco'], 0.0)||('signs', 'noun', 'C0220912', ['ftcn'], 0.0)||('of', '', '', '', 0.0)||('physical', 'adj', 'C0031809', ['hlca'], 0.0)||('pathology', 'noun', 'C0030664', ['bmod'], 0.0)||('and', '', '', '', 0.0)||('correlate', '', '', '', 0.0)||('with', '', '', '', 0.0)||('other', '', '', '', 0.0)||('psychological', 'adj', 'C0205486', ['ftcn'], 0.0)||('data', 'noun', 'C1511726', ['idcn'], 0.0)||('.', '', '', '', 0.0)||
('by', '', '', '', 0.0)||('helping', '', '', '', 0.0)||('to', '', '', '', 0.0)||('separate', 'verb', 'C0443299', ['spco'], 0.0)||('the', '', '', '', 0.0)||('physical', 'adj', 'C0031809', ['hlca'], 0.0)||('from', '', '', '', 0.0)||('the', '', '', '', 0.0)||('nonorganic', '', '', '', 0.0)||('they', '', '', '', 0.0)||('clarify', '', '', '', 0.0)||('the', '', '', '', 0.0)||('assessment', 'noun', 'C1261322', ['hlca'], 0.0)||('of', '', '', '', 0.0)||('purely', '', '', '', 0.0)||('physical', 'adj', 'C0031809', ['hlca'], 0.0)||('pathologic', 'adj', 'C1521733', ['ftcn'], 0.0)||('conditions', '', '', '', 0.0)||('.', '', '', '', 0.0)||
('it', '', '', '', 0.0)||('is', '', '', '', 0.0)||('suggested', '', '', '', 0.0)||('also', '', '', '', 0.0)||('that', '', '', '', 0.0)||('the', '', '', '', 0.0)||('nonorganic', '', '', '', 0.0)||('signs', 'noun', 'C0220912', ['ftcn'], 0.0)||('can', '', '', '', 0.0)||('be', '', '', '', 0.0)||('used', '', '', '', 0.0)||('as', '', '', '', 0.0)||('a', '', '', '', 0.0)||('simple', 'adj', 'C0205352', ['qlco'], 0.0)||('clinical', 'adj', 'C0205210', ['qlco'], 0.0)||('screen', 'noun', 'C0430054', ['lbpr'], 0.0)||('to', '', '', '', 0.0)||('help', 'verb', 'C1552861', ['idcn'], 0.0)||('identify', '', '', '', 0.0)||('patients', 'noun', 'C0030705', ['podg'], 0.0)||('who', '', '', '', 0.0)||('require', '', '', '', 0.0)||('more', '', '', '', 0.0)||('detailed', 'verb', 'C1522508', ['qlco'], 0.0)||('psychological', 'adj', 'C0205486', ['ftcn'], 0.0)||('assessment', 'noun', 'C1261322', ['hlca'], 0.0)||('.', '', '', '', 0.0)||
