('in', '', '', '', 0.0)||('a', '', '', '', 0.0)||('diagnostic', 'adj', 'C0011900', ['fndg'], 0.0)||('case - control study', '', '', '', 0.0)||(',', '', '', '', 0.0)||('the', '', '', '', 0.0)||('single', 'adj', 'C0037179', ['popg'], 0.0)||('author', 'noun', 'C0341628', ['prog'], 0.0)||('tested', '', '', '', 0.0)||('33', '', '', '', 0.0)||('patients', 'noun', 'C0030705', ['podg'], 0.0)||('from', '', '', '', 0.0)||('his', '', '', '', 0.0)||('practice', 'noun', 'C0237607', ['menp'], 0.0)||(',', '', '', '', 0.0)||('17', '', '', '', 0.0)||('with', '', '', '', 0.0)||('organic', 'adj', 'C0747055', ['qlco'], 0.0)||('paresis', 'noun', 'C0030552', ['sosy'], 0.0)||(',', '', '', '', 0.0)||('and', '', '', '', 0.0)||('16', '', '', '', 0.0)||('with', '', '', '', 0.0)||('nonorganic', '', '', '', 0.0)||('paresis', 'noun', 'C0030552', ['sosy'], 0.0)||('.', '', '', '', 0.0)||
('the', '', '', '', 0.0)||('author', 'noun', 'C0341628', ['prog'], 0.0)||('differentiated', 'verb', 'C0007589', ['celf'], 0.0)||('organic', 'adj', 'C0747055', ['qlco'], 0.0)||('from', '', '', '', 0.0)||('nonorganic', '', '', '', 0.0)||('paresis', 'noun', 'C0030552', ['sosy'], 0.0)||('by', '', '', '', 0.0)||('history', 'noun', 'C0019664', ['ocdi'], 0.0)||(',', '', '', '', 0.0)||('physical', 'adj', 'C0031809', ['hlca'], 0.0)||('exam', 'noun', 'C0582103', ['hlca'], 0.0)||(',', '', '', '', 0.0)||('and', '', '', '', 0.0)||('various', 'adj', 'C0440102', ['irda'], 0.0)||('imaging studies', 'noun', 'C1881134', ['diap'], 0.0)||('with', '', '', '', 0.0)||('no', '', '', '', 0.0)||('independent', 'adj', 'C0085862', ['idcn'], 0.0)||('assessment', 'noun', 'C1261322', ['hlca'], 0.0)||('.', '', '', '', 0.0)||
('he', '', '', '', 0.0)||('reported', 'verb', 'C0684224', ['inpr'], 0.0)||('his', '', '', '', 0.0)||('test', 'noun', 'C0022885', ['lbpr'], 0.0)||('as', '', '', '', 0.0)||('100 %', '', '', '', 0.0)||('accurate', 'adj', 'C0443131', ['qlco'], 0.0)||('.', '', '', '', 0.0)||
('we', '', '', '', 0.0)||('did', '', '', '', 0.0)||('not', 'adv', 'C1518422', ['ftcn'], 0.0)||('find', 'verb', 'C0243095', ['fndg'], 0.0)||('any', '', '', '', 0.0)||('published', 'adj', 'C0034037', ['ocac'], 0.0)||('studies', '', '', '', 0.0)||('of', '', '', '', 0.0)||('the', '', '', '', 0.0)||('arm', 'noun', 'C0446516', ['blor'], 0.0)||('drop test', '', '', '', 0.0)||(',', '', '', '', 0.0)||('where', '', '', '', 0.0)||('feigned', '', '', '', 0.0)||('paralysis', 'noun', 'C0522224', ['fndg'], 0.0)||('of', '', '', '', 0.0)||('an', '', '', '', 0.0)||('upper extremity', 'noun', 'C1140618', ['bpoc'], 0.0)||('is', '', '', '', 0.0)||('tested', '', '', '', 0.0)||('by', '', '', '', 0.0)||('holding', '', '', '', 0.0)||('the', '', '', '', 0.0)||('arm', 'noun', 'C0446516', ['blor'], 0.0)||('over', '', '', '', 0.0)||('the', '', '', '', 0.0)||('face', 'noun', 'C0015450', ['blor'], 0.0)||('of', '', '', '', 0.0)||('the', '', '', '', 0.0)||('supine', 'adj', 'C0038846', ['spco'], 0.0)||('patient', '', '', '', 0.0)||('and', '', '', '', 0.0)||('letting', '', '', '', 0.0)||('go', 'verb', 'C1822658', ['gngm'], 0.0)||('.', '', '', '', 0.0)||
