('a', '', '', '', 0.0)||('systematic review', '', '', '', 0.0)||('critiqued', '', '', '', 0.0)||('60', '', '', '', 0.0)||('studies', '', '', '', 0.0)||('of', '', '', '', 0.0)||('waddell', '', '', '', 0.0)||("' s", '', '', '', 0.0)||('signs', 'noun', 'C0220912', ['ftcn'], 0.0)||('published', 'verb', 'C0034037', ['ocac'], 0.0)||('between', '', '', '', 0.0)||('1980', '', '', '', 0.0)||('and', '', '', '', 0.0)||('2000', '', '', '', 0.0)||('.', '', '', '', 0.0)||
('the', '', '', '', 0.0)||('authors', 'noun', 'C0341628', ['prog'], 0.0)||('performed', 'verb', 'C0884358', ['ftcn'], 0.0)||('a', '', '', '', 0.0)||('thorough', '', '', '', 0.0)||('database', 'noun', 'C0242356', ['inpr'], 0.0)||('search', 'noun', 'C1552603', ['idcn'], 0.0)||(',', '', '', '', 0.0)||('including', '', '', '', 0.0)||('hand searches', '', '', '', 0.0)||('of', '', '', '', 0.0)||('key', '', '', '', 0.0)||('pain', 'noun', 'C0030193', ['sosy'], 0.0)||('journals', '', '', '', 0.0)||(',', '', '', '', 0.0)||('meeting', 'verb', 'C0556656', ['hlca'], 0.0)||('abstracts', 'noun', 'C0600678', ['inpr'], 0.0)||(',', '', '', '', 0.0)||('and', '', '', '', 0.0)||('textbooks', 'noun', 'C0039712', ['inpr', 'mnob'], 0.0)||('.', '', '', '', 0.0)||
('the', '', '', '', 0.0)||('majority', 'noun', 'C0680220', ['socb'], 0.0)||('of', '', '', '', 0.0)||('the', '', '', '', 0.0)||('reviewed', 'adj', 'C1709940', ['qlco'], 0.0)||('studies', '', '', '', 0.0)||('were', '', '', '', 0.0)||('small', 'adj', 'C0700321', ['qnco'], 0.0)||('and', '', '', '', 0.0)||('of', '', '', '', 0.0)||('lower', 'adj', 'C0441994', ['ftcn'], 0.0)||('quality', 'noun', 'C0332306', ['qlco'], 0.0)||('.', '', '', '', 0.0)||
('the', '', '', '', 0.0)||('review', 'noun', 'C0282443', ['inpr'], 0.0)||('found', '', '', '', 0.0)||('little', '', '', '', 0.0)||('evidence', 'noun', 'C0332120', ['ftcn'], 0.0)||('on', '', '', '', 0.0)||('test', 'noun', 'C0022885', ['lbpr'], 0.0)||('-', '', '', '', 0.0)||('retest', 'noun', 'C1698057', ['idcn'], 0.0)||('or', '', '', '', 0.0)||('interrater reliability', '', '', '', 0.0)||('.', '', '', '', 0.0)||
('there', '', '', '', 0.0)||('was', '', '', '', 0.0)||('consistent', 'adj', 'C0332290', ['idcn'], 0.0)||('evidence', 'noun', 'C0332120', ['ftcn'], 0.0)||('that', '', '', '', 0.0)||('waddell', '', '', '', 0.0)||("' s", '', '', '', 0.0)||('signs', 'noun', 'C0220912', ['ftcn'], 0.0)||('are', '', '', '', 0.0)||('associated', 'verb', 'C0332281', ['qlco'], 0.0)||('with', '', '', '', 0.0)||('poorer', '', '', '', 0.0)||('treatment', 'noun', 'C0039798', ['ftcn'], 0.0)||('outcomes', 'noun', 'C0085415', ['qlco'], 0.0)||('and', '', '', '', 0.0)||('generally', '', '', '', 0.0)||('consistent', 'adj', 'C0332290', ['idcn'], 0.0)||('evidence', 'noun', 'C0332120', ['ftcn'], 0.0)||('that', '', '', '', 0.0)||('they', '', '', '', 0.0)||('are', '', '', '', 0.0)||('not', 'adv', 'C1518422', ['ftcn'], 0.0)||('associated', 'verb', 'C0332281', ['qlco'], 0.0)||('with', '', '', '', 0.0)||('secondary gain', '', '', '', 0.0)||('and', '', '', '', 0.0)||('cannot', '', '', '', 0.0)||('discriminate', 'verb', 'C0205235', ['qlco'], 0.0)||('organic', 'adj', 'C0747055', ['qlco'], 0.0)||('from', '', '', '', 0.0)||('nonorganic', '', '', '', 0.0)||('problems', 'noun', 'C1546466', ['idcn'], 0.0)||('.', '', '', '', 0.0)||
