('history taking', 'noun', 'C0199182', ['hlca'], 0.0)||('and', '', '', '', 0.0)||('physical examination', 'noun', 'C0031809', ['hlca'], 0.0)||('maneuvers', '', '', '', 0.0)||(',', '', '', '', 0.0)||('including', '', '', '', 0.0)||('tinel', '', '', '', 0.0)||('and', '', '', '', 0.0)||('phalen', '', '', '', 0.0)||('signs', 'noun', 'C0220912', ['ftcn'], 0.0)||(',', '', '', '', 0.0)||('are', '', '', '', 0.0)||('widely', '', '', '', 0.0)||('used', '', '', '', 0.0)||('for', '', '', '', 0.0)||('the', '', '', '', 0.0)||('diagnosis', 'noun', 'C0011900', ['fndg'], 0.0)||('of', '', '', '', 0.0)||('carpal tunnel syndrome', 'noun', 'C0007286', ['dsyn'], 0.0)||('.', '', '', '', 0.0)||
('to', '', '', '', 0.0)||('systematically', '', '', '', 0.0)||('review', 'verb', 'C0282443', ['inpr'], 0.0)||('the', '', '', '', 0.0)||('precision', 'noun', 'C1547902', ['tmco'], 0.0)||('and', '', '', '', 0.0)||('accuracy', 'noun', 'C0443131', ['qlco'], 0.0)||('of', '', '', '', 0.0)||('history taking', 'noun', 'C0199182', ['hlca'], 0.0)||('and', '', '', '', 0.0)||('physical examination', 'noun', 'C0031809', ['hlca'], 0.0)||('in', '', '', '', 0.0)||('diagnosing', '', '', '', 0.0)||('carpal tunnel syndrome', 'noun', 'C0007286', ['dsyn'], 0.0)||('in', '', '', '', 0.0)||('adults', 'noun', 'C0001675', ['aggp'], 0.0)||('.', '', '', '', 0.0)||
('english', 'noun', 'C1556083', ['popg'], 0.0)||('-', '', '', '', 0.0)||('language', 'noun', 'C0023008', ['lang'], 0.0)||('literature', 'noun', 'C0023866', ['inpr'], 0.0)||('was', '', '', '', 0.0)||('searched', 'verb', 'C1706202', ['acty'], 0.0)||('using', 'verb', 'C1524063', ['ftcn'], 0.0)||('medline', 'noun', 'C0025141', ['inpr'], 0.0)||('(', '', '', '', 0.0)||('january', '', '', '', 0.0)||('1966', '', '', '', 0.0)||('-', '', '', '', 0.0)||('february', '', '', '', 0.0)||('2000', '', '', '', 0.0)||(')', '', '', '', 0.0)||('as well as', '', '', '', 0.0)||('bibliographies', '', '', '', 0.0)||('of', '', '', '', 0.0)||('relevant', 'adj', 'C2347946', ['qlco'], 0.0)||('articles', '', '', '', 0.0)||('.', '', '', '', 0.0)||
('studies', '', '', '', 0.0)||('of', '', '', '', 0.0)||('patients', 'noun', 'C0030705', ['podg'], 0.0)||('presenting', 'verb', 'C0449450', ['idcn'], 0.0)||('to', '', '', '', 0.0)||('clinicians', 'noun', 'C0871685', ['prog'], 0.0)||('with', '', '', '', 0.0)||('symptoms', 'noun', 'C0683368', ['ftcn'], 0.0)||('suggestive', '', '', '', 0.0)||('of', '', '', '', 0.0)||('carpal tunnel syndrome', 'noun', 'C0007286', ['dsyn'], 0.0)||('in', '', '', '', 0.0)||('which', '', '', '', 0.0)||('findings', 'noun', 'C2607943', ['ftcn'], 0.0)||('from', '', '', '', 0.0)||('clearly', '', '', '', 0.0)||('described', 'verb', 'C1552738', ['idcn'], 0.0)||('physical examination', 'noun', 'C0031809', ['hlca'], 0.0)||('maneuvers', '', '', '', 0.0)||('were', '', '', '', 0.0)||('independently', '', '', '', 0.0)||('compared', 'verb', 'C1707455', ['acty'], 0.0)||('with', '', '', '', 0.0)||('electrodiagnostic', '', '', '', 0.0)||('testing', 'noun', 'C0039593', ['ftcn'], 0.0)||('.', '', '', '', 0.0)||
('twelve', '', 'C0205458', ['qnco'], 0.0)||('of', '', '', '', 0.0)||('42', '', '', '', 0.0)||('initially', 'adv', 'C0205265', ['tmco'], 0.0)||('identified', 'adj', 'C0205396', ['qlco'], 0.0)||('articles', '', '', '', 0.0)||('met', '', '', '', 0.0)||('these', '', '', '', 0.0)||('criteria', 'noun', 'C0243161', ['inpr'], 0.0)||('and', '', '', '', 0.0)||('were', '', '', '', 0.0)||('included', '', '', '', 0.0)||('in', '', '', '', 0.0)||('the', '', '', '', 0.0)||('review', 'noun', 'C0282443', ['inpr'], 0.0)||('.', '', '', '', 0.0)||
('two', 'adj', 'C0205448', ['qnco'], 0.0)||('authors', 'noun', 'C0341628', ['prog'], 0.0)||('independently', '', '', '', 0.0)||('reviewed', 'verb', 'C1709940', ['qlco'], 0.0)||('and', '', '', '', 0.0)||('abstracted', '', '', '', 0.0)||('data', 'noun', 'C1511726', ['idcn'], 0.0)||('from', '', '', '', 0.0)||('all', '', '', '', 0.0)||('of', '', '', '', 0.0)||('the', '', '', '', 0.0)||('articles', '', '', '', 0.0)||('and', '', '', '', 0.0)||('reached', '', '', '', 0.0)||('consensus', 'noun', 'C0376298', ['socb'], 0.0)||('about', '', '', '', 0.0)||('any', '', '', '', 0.0)||('discrepancies', '', '', '', 0.0)||('.', '', '', '', 0.0)||
('in', '', '', '', 0.0)||('patients', 'noun', 'C0030705', ['podg'], 0.0)||('presenting', 'verb', 'C0449450', ['idcn'], 0.0)||('with', '', '', '', 0.0)||('hand', 'noun', 'C0018563', ['bpoc'], 0.0)||('dysesthesias', 'noun', 'C0392699', ['sosy'], 0.0)||(',', '', '', '', 0.0)||('the', '', '', '', 0.0)||('findings', 'noun', 'C2607943', ['ftcn'], 0.0)||('that', '', '', '', 0.0)||('best', 'adj', 'C1522427', ['qlco'], 0.0)||('distinguish', '', '', '', 0.0)||('between', '', '', '', 0.0)||('patients', 'noun', 'C0030705', ['podg'], 0.0)||('with', '', '', '', 0.0)||('electrodiagnostic', '', '', '', 0.0)||('evidence', 'noun', 'C0332120', ['ftcn'], 0.0)||('of', '', '', '', 0.0)||('carpal tunnel syndrome', 'noun', 'C0007286', ['dsyn'], 0.0)||('and', '', '', '', 0.0)||('patients', 'noun', 'C0030705', ['podg'], 0.0)||('without', '', '', '', 0.0)||('it', '', '', '', 0.0)||('are', '', '', '', 0.0)||('hypalgesia', 'verb', 'C0085625', ['sosy'], 0.0)||('in', '', '', '', 0.0)||('the', '', '', '', 0.0)||('median nerve', 'noun', 'C0025058', ['bpoc'], 0.0)||('territory', '', '', '', 0.0)||('(', '', '', '', 0.0)||('likelihood', 'noun', 'C0033204', ['qnco'], 0.0)||('ratio', 'noun', 'C0456603', ['qnco'], 0.0)||(',', '', '', '', 0.0)||('3', '', '', '', 0.0)||('.', '', '', '', 0.0)||('1', '', '', '', 0.0)||(';', '', '', '', 0.0)||('95 %', '', '', '', 0.0)||('confidence interval', 'noun', 'C0009667', ['qnco'], 0.0)||(',', '', '', '', 0.0)||('2 . 0', '', '', '', 0.0)||('-', '', '', '', 0.0)||('5 . 1', '', '', '', 0.0)||(')', '', '', '', 0.0)||(',', '', '', '', 0.0)||('classic', 'adj', 'C0439658', ['qlco'], 0.0)||('or', '', '', '', 0.0)||('probable', 'adj', 'C0332148', ['qlco'], 0.0)||('katz', '', '', '', 0.0)||('hand', 'noun', 'C0018563', ['bpoc'], 0.0)||('diagram', 'noun', 'C0681494', ['inpr'], 0.0)||('results', 'noun', 'C1274040', ['ftcn'], 0.0)||('(', '', '', '', 0.0)||('likelihood', 'noun', 'C0033204', ['qnco'], 0.0)||('ratio', 'noun', 'C0456603', ['qnco'], 0.0)||(',', '', '', '', 0.0)||('2 . 4', '', '', '', 0.0)||(';', '', '', '', 0.0)||('95 %', '', '', '', 0.0)||('confidence interval', 'noun', 'C0009667', ['qnco'], 0.0)||(',', '', '', '', 0.0)||('1 . 6', '', '', '', 0.0)||('-', '', '', '', 0.0)||('3 . 5', '', '', '', 0.0)||(')', '', '', '', 0.0)||(',', '', '', '', 0.0)||('and', '', '', '', 0.0)||('weak', 'adj', 'C0004093', ['sosy'], 0.0)||('thumb', 'noun', 'C0040067', ['bpoc'], 0.0)||('abduction', 'noun', 'C0231456', ['ftcn'], 0.0)||('strength', 'noun', 'C0808080', ['idcn'], 0.0)||('(', '', '', '', 0.0)||('likelihood', 'noun', 'C0033204', ['qnco'], 0.0)||('ratio', 'noun', 'C0456603', ['qnco'], 0.0)||(',', '', '', '', 0.0)||('1 . 8', '', '', '', 0.0)||(';', '', '', '', 0.0)||('95 %', '', '', '', 0.0)||('confidence interval', 'noun', 'C0009667', ['qnco'], 0.0)||(',', '', '', '', 0.0)||('1 . 4', '', '', '', 0.0)||('-', '', '', '', 0.0)||('2 . 3', '', '', '', 0.0)||(')', '', '', '', 0.0)||('.', '', '', '', 0.0)||
('findings', 'noun', 'C2607943', ['ftcn'], 0.0)||('that', '', '', '', 0.0)||('argue', '', '', '', 0.0)||('against', '', '', '', 0.0)||('the', '', '', '', 0.0)||('diagnosis', 'noun', 'C0011900', ['fndg'], 0.0)||('of', '', '', '', 0.0)||('carpal tunnel syndrome', 'noun', 'C0007286', ['dsyn'], 0.0)||('are', '', '', '', 0.0)||('unlikely', 'adv', 'C1710571', ['qlco'], 0.0)||('katz', '', '', '', 0.0)||('hand', 'noun', 'C0018563', ['bpoc'], 0.0)||('diagram', 'noun', 'C0681494', ['inpr'], 0.0)||('results', 'noun', 'C1274040', ['ftcn'], 0.0)||('(', '', '', '', 0.0)||('likelihood', 'noun', 'C0033204', ['qnco'], 0.0)||('ratio', 'noun', 'C0456603', ['qnco'], 0.0)||(',', '', '', '', 0.0)||('0 . 2', '', '', '', 0.0)||(';', '', '', '', 0.0)||('95 %', '', '', '', 0.0)||('confidence interval', 'noun', 'C0009667', ['qnco'], 0.0)||(',', '', '', '', 0.0)||('0 . 0', '', '', '', 0.0)||('-', '', '', '', 0.0)||('0 . 7', '', '', '', 0.0)||(')', '', '', '', 0.0)||('and', '', '', '', 0.0)||('normal', 'adj', 'C0205307', ['qlco'], 0.0)||('thumb', 'noun', 'C0040067', ['bpoc'], 0.0)||('abduction', 'noun', 'C0231456', ['ftcn'], 0.0)||('strength', 'noun', 'C0808080', ['idcn'], 0.0)||('(', '', '', '', 0.0)||('likelihood', 'noun', 'C0033204', ['qnco'], 0.0)||('ratio', 'noun', 'C0456603', ['qnco'], 0.0)||(',', '', '', '', 0.0)||('0 . 5', '', '', '', 0.0)||(';', '', '', '', 0.0)||('95 %', '', '', '', 0.0)||('confidence interval', 'noun', 'C0009667', ['qnco'], 0.0)||(',', '', '', '', 0.0)||('0 . 4', '', '', '', 0.0)||('-', '', '', '', 0.0)||('0 . 7', '', '', '', 0.0)||(')', '', '', '', 0.0)||('.', '', '', '', 0.0)||
('several', '', '', '', 0.0)||('traditional', 'adj', 'C0443324', ['ftcn'], 0.0)||('findings', 'noun', 'C2607943', ['ftcn'], 0.0)||('of', '', '', '', 0.0)||('carpal tunnel syndrome', 'noun', 'C0007286', ['dsyn'], 0.0)||('have', '', '', '', 0.0)||('little', 'adj', 'C0700321', ['qnco'], 0.0)||('or', '', '', '', 0.0)||('no', '', '', '', 0.0)||('diagnostic', 'adj', 'C0011900', ['fndg'], 0.0)||('value', 'noun', 'C0042295', ['qlco'], 0.0)||(',', '', '', '', 0.0)||('including', '', '', '', 0.0)||('nocturnal', 'adj', 'C0240526', ['tmco'], 0.0)||('paresthesias', 'noun', 'C0030554', ['sosy'], 0.0)||(';', '', '', '', 0.0)||
('phalen', '', '', '', 0.0)||('and', '', '', '', 0.0)||('tinel signs', '', '', '', 0.0)||(';', '', '', '', 0.0)||
('thenar', 'noun', 'C0230374', ['blor'], 0.0)||('atrophy', 'noun', 'C0333641', ['patf'], 0.0)||(';', '', '', '', 0.0)||
('and', '', '', '', 0.0)||('2', '', '', '', 0.0)||('-', '', '', '', 0.0)||('point', 'noun', 'C1552961', ['qnco'], 0.0)||(',', '', '', '', 0.0)||('vibratory', '', '', '', 0.0)||(',', '', '', '', 0.0)||('and', '', '', '', 0.0)||('monofilament', '', '', '', 0.0)||('sensory', 'adj', 'C0445254', ['qlco'], 0.0)||('testing', 'noun', 'C0039593', ['ftcn'], 0.0)||('.', '', '', '', 0.0)||
('other', '', '', '', 0.0)||('less', '', '', '', 0.0)||('commonly', '', '', '', 0.0)||('used', '', '', '', 0.0)||('maneuvers', '', '', '', 0.0)||(',', '', '', '', 0.0)||('including', '', '', '', 0.0)||('the', '', '', '', 0.0)||('square', 'adj', 'C0205120', ['spco'], 0.0)||('wrist', 'noun', 'C0043262', ['blor'], 0.0)||('sign', 'noun', 'C0311392', ['fndg'], 0.0)||(',', '', '', '', 0.0)||('flick', '', '', '', 0.0)||('sign', 'noun', 'C0311392', ['fndg'], 0.0)||(',', '', '', '', 0.0)||('and', '', '', '', 0.0)||('closed', 'adj', 'C0587267', ['ftcn'], 0.0)||('fist', 'noun', 'C0336667', ['phob'], 0.0)||('sign', 'noun', 'C0311392', ['fndg'], 0.0)||(',', '', '', '', 0.0)||('require', '', '', '', 0.0)||('validation', 'noun', 'C1519941', ['resa'], 0.0)||('by', '', '', '', 0.0)||('other', '', '', '', 0.0)||('studies', '', '', '', 0.0)||('before', '', '', '', 0.0)||('they', '', '', '', 0.0)||('can', '', '', '', 0.0)||('be', '', '', '', 0.0)||('recommended', 'verb', 'C0034866', ['idcn'], 0.0)||('.', '', '', '', 0.0)||
('hand', 'noun', 'C0018563', ['bpoc'], 0.0)||('symptom', '', '', '', 0.0)||('diagrams', '', '', '', 0.0)||(',', '', '', '', 0.0)||('hypalgesia', 'noun', 'C0085625', ['sosy'], 0.0)||(',', '', '', '', 0.0)||('and', '', '', '', 0.0)||('thumb', 'noun', 'C0040067', ['bpoc'], 0.0)||('abduction', 'noun', 'C0231456', ['ftcn'], 0.0)||('strength testing', '', '', '', 0.0)||('are', '', '', '', 0.0)||('helpful', '', '', '', 0.0)||('in', '', '', '', 0.0)||('establishing', 'noun', 'C2364278', ['socb'], 0.0)||('the', '', '', '', 0.0)||('[', '', '', '', 0.0)||('corrected', 'adj', 'C0205202', ['qlco'], 0.0)||(']', '', '', '', 0.0)||('electrodiagnosis', 'noun', 'C0013816', ['diap'], 0.0)||('of', '', '', '', 0.0)||('carpal tunnel syndrome', 'noun', 'C0007286', ['dsyn'], 0.0)||('.', '', '', '', 0.0)||
('the', '', '', '', 0.0)||('utility', '', '', '', 0.0)||('of', '', '', '', 0.0)||('these', '', '', '', 0.0)||('results', 'noun', 'C1274040', ['ftcn'], 0.0)||('is', '', '', '', 0.0)||('limited', 'verb', 'C0439801', ['ftcn'], 0.0)||(',', '', '', '', 0.0)||('however', '', '', '', 0.0)||(',', '', '', '', 0.0)||('by', '', '', '', 0.0)||('problems', 'noun', 'C1546466', ['idcn'], 0.0)||('inherent', '', '', '', 0.0)||('in', '', '', '', 0.0)||('using', 'verb', 'C1524063', ['ftcn'], 0.0)||('nerve conduction studies', 'noun', 'C0200125', ['diap'], 0.0)||('as', '', '', '', 0.0)||('a', '', '', '', 0.0)||('criterion standard', 'noun', 'C0150109', ['qlco'], 0.0)||('.', '', '', '', 0.0)||
('jama', 'noun', 'C1422839', ['gngm'], 0.0)||('.', '', '', '', 0.0)||
('2000', '', '', '', 0.0)||('.', '', '', '', 0.0)||
