('community - acquired pneumonia', '', '', '', 0.0)||('is', '', '', '', 0.0)||('a', '', '', '', 0.0)||('leading', 'adj', 'C0332152', ['tmco'], 0.0)||('infectious', '', '', '', 0.0)||('cause', 'noun', 'C1524003', ['cnce'], 0.0)||('of', '', '', '', 0.0)||('death', 'noun', 'C0011065', ['orgf'], 0.0)||('throughout', '', '', '', 0.0)||('the', '', '', '', 0.0)||('world', 'noun', 'C2700280', ['popg'], 0.0)||(',', '', '', '', 0.0)||('including', '', '', '', 0.0)||('hong kong', 'noun', 'C0019907', ['geoa'], 0.0)||('.', '', '', '', 0.0)||
('to', '', '', '', 0.0)||('compare', 'verb', 'C1707455', ['acty'], 0.0)||('the', '', '', '', 0.0)||('ability', 'noun', 'C0085732', ['orga'], 0.0)||('of', '', '', '', 0.0)||('three', '', 'C0205449', ['qnco'], 0.0)||('validated', '', '', '', 0.0)||('prediction', 'noun', 'C0681842', ['idcn'], 0.0)||('rules', 'verb', 'C0870077', ['inpr'], 0.0)||('for', '', '', '', 0.0)||('community - acquired pneumonia', '', '', '', 0.0)||('to', '', '', '', 0.0)||('predict', '', '', '', 0.0)||('mortality', 'noun', 'C0026565', ['qnco'], 0.0)||('in', '', '', '', 0.0)||('hong kong', 'noun', 'C0019907', ['geoa'], 0.0)||(':', '', '', '', 0.0)||('the', '', '', '', 0.0)||('20', '', '', '', 0.0)||('variable', 'adj', 'C0439828', ['qlco'], 0.0)||('pneumonia', 'noun', 'C0032285', ['dsyn'], 0.0)||('severity index', '', '', '', 0.0)||(',', '', '', '', 0.0)||('the', '', '', '', 0.0)||('6', '', '', '', 0.0)||('-', '', '', '', 0.0)||('point', 'noun', 'C1552961', ['qnco'], 0.0)||('curb65', '', '', '', 0.0)||('scale', 'noun', 'C0175659', ['medd'], 0.0)||('adopted', 'verb', 'C0425382', ['fndg'], 0.0)||('by', '', '', '', 0.0)||('the', '', '', '', 0.0)||('british', 'adj', 'C0596227', ['popg'], 0.0)||('thoracic', '', '', '', 0.0)||('society', 'noun', 'C0037455', ['orgt'], 0.0)||('and', '', '', '', 0.0)||('the', '', '', '', 0.0)||('simpler', '', '', '', 0.0)||('crb65', '', '', '', 0.0)||('.', '', '', '', 0.0)||
('a', '', '', '', 0.0)||('prospective', 'adj', 'C0023981', ['resa'], 0.0)||('observational', 'adj', 'C1964257', ['diap'], 0.0)||('study', 'noun', 'C0008976', ['resa'], 0.0)||('of', '', '', '', 0.0)||('1016', '', '', '', 0.0)||('consecutive', 'adj', 'C1707491', ['qlco'], 0.0)||('inpatients', 'noun', 'C0021562', ['podg'], 0.0)||('with', '', '', '', 0.0)||('community - acquired pneumonia', '', '', '', 0.0)||('(', '', '', '', 0.0)||('583', '', '', '', 0.0)||('men', 'noun', 'C0025266', ['popg'], 0.0)||(',', '', '', '', 0.0)||('mean', 'noun', 'C0444504', ['qnco'], 0.0)||('(', '', '', '', 0.0)||('sd', '', '', '', 0.0)||(')', '', '', '', 0.0)||('age', 'noun', 'C0001779', ['orga'], 0.0)||('72', '', '', '', 0.0)||('(', '', '', '', 0.0)||('17', '', '', '', 0.0)||(')', '', '', '', 0.0)||('years', 'noun', 'C0439234', ['tmco'], 0.0)||(')', '', '', '', 0.0)||('was', '', '', '', 0.0)||('performed', 'verb', 'C0884358', ['ftcn'], 0.0)||('in', '', '', '', 0.0)||('a', '', '', '', 0.0)||('university hospital', 'noun', 'C0020028', ['hcro', 'mnob'], 0.0)||('in', '', '', '', 0.0)||('the', '', '', '', 0.0)||('new', 'adj', 'C0205314', ['tmco'], 0.0)||('territories', '', '', '', 0.0)||('of', '', '', '', 0.0)||('hong kong', 'noun', 'C0019907', ['geoa'], 0.0)||('in', '', '', '', 0.0)||('2004', '', '', '', 0.0)||('.', '', '', '', 0.0)||
('the', '', '', '', 0.0)||('patients', 'noun', 'C0030705', ['podg'], 0.0)||('were', '', '', '', 0.0)||('classified', 'verb', 'C0008902', ['clas'], 0.0)||('into', '', '', '', 0.0)||('three', '', 'C0205449', ['qnco'], 0.0)||('risk groups', '', '', '', 0.0)||('(', '', '', '', 0.0)||('low', 'adj', 'C0205251', ['qlco'], 0.0)||(',', '', '', '', 0.0)||('intermediate', 'adj', 'C0205103', ['spco'], 0.0)||('and', '', '', '', 0.0)||('high', 'adj', 'C0205250', ['qlco'], 0.0)||(')', '', '', '', 0.0)||('according to', '', '', '', 0.0)||('each', '', '', '', 0.0)||('rule', 'noun', 'C0805874', ['idcn'], 0.0)||('.', '', '', '', 0.0)||
('the', '', '', '', 0.0)||('ability', 'noun', 'C0085732', ['orga'], 0.0)||('of', '', '', '', 0.0)||('the', '', '', '', 0.0)||('three', '', 'C0205449', ['qnco'], 0.0)||('rules', 'verb', 'C0870077', ['inpr'], 0.0)||('to', '', '', '', 0.0)||('predict', '', '', '', 0.0)||('30', '', '', '', 0.0)||('day', 'noun', 'C0439228', ['tmco'], 0.0)||('mortality', 'noun', 'C0026565', ['qnco'], 0.0)||('was', '', '', '', 0.0)||('compared', 'verb', 'C1707455', ['acty'], 0.0)||('.', '', '', '', 0.0)||
('the', '', '', '', 0.0)||('overall', 'adj', 'C0282416', ['inpr'], 0.0)||('mortality', 'noun', 'C0026565', ['qnco'], 0.0)||('and', '', '', '', 0.0)||('intensive care unit', 'noun', 'C0021708', ['hcro', 'mnob'], 0.0)||('admission rates', '', '', '', 0.0)||('were', '', '', '', 0.0)||('8 . 6 %', '', '', '', 0.0)||('and', '', '', '', 0.0)||('4 . 0 %', '', '', '', 0.0)||(',', '', '', '', 0.0)||('respectively', '', '', '', 0.0)||('.', '', '', '', 0.0)||
('pneumonia', 'noun', 'C0032285', ['dsyn'], 0.0)||('severity index', '', '', '', 0.0)||(',', '', '', '', 0.0)||('curb65', '', '', '', 0.0)||('and', '', '', '', 0.0)||('crb65', '', '', '', 0.0)||('performed', 'verb', 'C0884358', ['ftcn'], 0.0)||('similarly', '', '', '', 0.0)||(',', '', '', '', 0.0)||('and', '', '', '', 0.0)||('the', '', '', '', 0.0)||('areas', '', '', '', 0.0)||('under', '', '', '', 0.0)||('the', '', '', '', 0.0)||('receiver operating characteristic', 'noun', 'C0034772', ['qnco'], 0.0)||('curve', 'noun', 'C0205134', ['spco'], 0.0)||('were', '', '', '', 0.0)||('0 . 736', '', '', '', 0.0)||('(', '', '', '', 0.0)||('95 %', '', '', '', 0.0)||('ci', 'noun', 'C1417638', ['gngm'], 0.0)||('0 . 687', '', '', '', 0.0)||('to', '', '', '', 0.0)||('0 . 736', '', '', '', 0.0)||(')', '', '', '', 0.0)||(',', '', '', '', 0.0)||('0 . 733', '', '', '', 0.0)||('(', '', '', '', 0.0)||('95 %', '', '', '', 0.0)||('ci', 'noun', 'C1417638', ['gngm'], 0.0)||('0 . 679', '', '', '', 0.0)||('to', '', '', '', 0.0)||('0 . 787', '', '', '', 0.0)||(')', '', '', '', 0.0)||('and', '', '', '', 0.0)||('0 . 694', '', '', '', 0.0)||('(', '', '', '', 0.0)||('95 %', '', '', '', 0.0)||('ci', 'noun', 'C1417638', ['gngm'], 0.0)||('0 . 634', '', '', '', 0.0)||('to', '', '', '', 0.0)||('0 . 753', '', '', '', 0.0)||(')', '', '', '', 0.0)||(',', '', '', '', 0.0)||('respectively', '', '', '', 0.0)||('.', '', '', '', 0.0)||
('all', '', '', '', 0.0)||('three', '', 'C0205449', ['qnco'], 0.0)||('rules', 'noun', 'C0870077', ['inpr'], 0.0)||('had', '', '', '', 0.0)||('high', 'adj', 'C0205250', ['qlco'], 0.0)||('negative predictive values', '', '', '', 0.0)||('but', '', '', '', 0.0)||('relatively', '', '', '', 0.0)||('low', 'adj', 'C0205251', ['qlco'], 0.0)||('positive predictive values', '', '', '', 0.0)||('at', '', '', '', 0.0)||('all', '', '', '', 0.0)||('cut - off', '', '', '', 0.0)||('points', '', '', '', 0.0)||('.', '', '', '', 0.0)||
('larger', 'adj', 'C0549177', ['qnco'], 0.0)||('proportions', '', '', '', 0.0)||('of', '', '', '', 0.0)||('patients', 'noun', 'C0030705', ['podg'], 0.0)||('were', '', '', '', 0.0)||('identified', 'verb', 'C0205396', ['qlco'], 0.0)||('as', '', '', '', 0.0)||('low risk', '', '', '', 0.0)||('by', '', '', '', 0.0)||('pneumonia', 'noun', 'C0032285', ['dsyn'], 0.0)||('severity index', '', '', '', 0.0)||('(', '', '', '', 0.0)||('47 . 2 %', '', '', '', 0.0)||(')', '', '', '', 0.0)||('and', '', '', '', 0.0)||('curb65', '', '', '', 0.0)||('(', '', '', '', 0.0)||('43 . 3 %', '', '', '', 0.0)||(')', '', '', '', 0.0)||('than', '', '', '', 0.0)||('by', '', '', '', 0.0)||('crb65', '', '', '', 0.0)||('(', '', '', '', 0.0)||('12 . 6 %', '', '', '', 0.0)||(')', '', '', '', 0.0)||('.', '', '', '', 0.0)||
('all', '', '', '', 0.0)||('three', '', 'C0205449', ['qnco'], 0.0)||('predictive', 'adj', 'C0681890', ['qlco'], 0.0)||('rules', 'noun', 'C0870077', ['inpr'], 0.0)||('have', '', '', '', 0.0)||('a', '', '', '', 0.0)||('similar', 'adj', 'C2348205', ['qlco'], 0.0)||('performance', 'noun', 'C0597198', ['inbe'], 0.0)||('in', '', '', '', 0.0)||('predicting', '', '', '', 0.0)||('the', '', '', '', 0.0)||('severity', 'noun', 'C0439793', ['qlco'], 0.0)||('of', '', '', '', 0.0)||('community - acquired pneumonia', '', '', '', 0.0)||(',', '', '', '', 0.0)||('but', '', '', '', 0.0)||('curb65', '', '', '', 0.0)||('is', '', '', '', 0.0)||('more', '', '', '', 0.0)||('suitable', '', '', '', 0.0)||('than', '', '', '', 0.0)||('the', '', '', '', 0.0)||('other', '', '', '', 0.0)||('two', 'noun', 'C0205448', ['qnco'], 0.0)||('for', '', '', '', 0.0)||('use', 'noun', 'C0042153', ['ftcn'], 0.0)||('in', '', '', '', 0.0)||('the', '', '', '', 0.0)||('emergency department', 'noun', 'C0562508', ['hcro', 'mnob'], 0.0)||('because of', '', '', '', 0.0)||('its', '', '', '', 0.0)||('simplicity', '', '', '', 0.0)||('of', '', '', '', 0.0)||('application', 'noun', 'C0185125', ['hlca'], 0.0)||('and', '', '', '', 0.0)||('ability', 'noun', 'C0085732', ['orga'], 0.0)||('to', '', '', '', 0.0)||('identify', '', '', '', 0.0)||('low - risk', '', '', '', 0.0)||('patients', 'noun', 'C0030705', ['podg'], 0.0)||('.', '', '', '', 0.0)||
