('to', '', '', '', 0.0)||('derive', '', '', '', 0.0)||('and', '', '', '', 0.0)||('validate', '', '', '', 0.0)||('a', '', '', '', 0.0)||('clinical', 'adj', 'C0205210', ['qlco'], 0.0)||('rule', 'noun', 'C0805874', ['idcn'], 0.0)||('for', '', '', '', 0.0)||('predicting', '', '', '', 0.0)||('pneumonic', '', '', '', 0.0)||('infiltrates', 'noun', 'C0332448', ['patf'], 0.0)||('in', '', '', '', 0.0)||('adult', 'noun', 'C0001675', ['aggp'], 0.0)||('patients', 'noun', 'C0030705', ['podg'], 0.0)||('with', '', '', '', 0.0)||('acute', 'adj', 'C0205178', ['tmco'], 0.0)||('respiratory illness', '', '', '', 0.0)||('.', '', '', '', 0.0)||
('prevalence studies', 'noun', 'C0033106', ['qnco'], 0.0)||('in', '', '', '', 0.0)||('three', '', 'C0205449', ['qnco'], 0.0)||('settings', '', '', '', 0.0)||('.', '', '', '', 0.0)||
('emergency departments', '', '', '', 0.0)||('of', '', '', '', 0.0)||('the', '', '', '', 0.0)||('university', 'noun', 'C0041740', ['mnob', 'orgt'], 0.0)||('of', '', '', '', 0.0)||('illinois', 'noun', 'C0020898', ['geoa'], 0.0)||('hospital', 'noun', 'C0019994', ['hcro', 'mnob'], 0.0)||('at', '', '', '', 0.0)||('chicago', 'noun', 'C0008044', ['geoa'], 0.0)||(',', '', '', '', 0.0)||('the', '', '', '', 0.0)||('university', 'noun', 'C0041740', ['mnob', 'orgt'], 0.0)||('of', '', '', '', 0.0)||('nebraska', 'noun', 'C0027523', ['geoa'], 0.0)||('medical', 'adj', 'C0205476', ['ftcn'], 0.0)||('center', 'noun', 'C0205099', ['spco'], 0.0)||('at', '', '', '', 0.0)||('omaha', 'noun', 'C1551450', ['popg'], 0.0)||(',', '', '', '', 0.0)||('and', '', '', '', 0.0)||('the', '', '', '', 0.0)||('medical', 'adj', 'C0205476', ['ftcn'], 0.0)||('college', 'noun', 'C0557806', ['mnob'], 0.0)||('of', '', '', '', 0.0)||('virginia', 'noun', 'C0042753', ['geoa'], 0.0)||('at', '', '', '', 0.0)||('richmond', '', '', '', 0.0)||('.', '', '', '', 0.0)||
('symptoms', 'noun', 'C0683368', ['ftcn'], 0.0)||(',', '', '', '', 0.0)||('signs', 'noun', 'C0220912', ['ftcn'], 0.0)||(',', '', '', '', 0.0)||('comorbidity', 'noun', 'C0009488', ['idcn'], 0.0)||('data', 'noun', 'C1511726', ['idcn'], 0.0)||(',', '', '', '', 0.0)||('and', '', '', '', 0.0)||('chest roentgenogram', '', '', '', 0.0)||('results', 'noun', 'C1274040', ['ftcn'], 0.0)||('were', '', '', '', 0.0)||('recorded', '', '', '', 0.0)||('for', '', '', '', 0.0)||('1134', '', '', '', 0.0)||('patients', 'noun', 'C0030705', ['podg'], 0.0)||('from', '', '', '', 0.0)||('illinois', 'noun', 'C0020898', ['geoa'], 0.0)||('(', '', '', '', 0.0)||('the', '', '', '', 0.0)||('derivation', 'noun', 'C1441547', ['qlco'], 0.0)||('set', 'noun', 'C0036849', ['menp'], 0.0)||(')', '', '', '', 0.0)||(',', '', '', '', 0.0)||('150', '', '', '', 0.0)||('patients', 'noun', 'C0030705', ['podg'], 0.0)||('from', '', '', '', 0.0)||('nebraska', 'noun', 'C0027523', ['geoa'], 0.0)||(',', '', '', '', 0.0)||('and', '', '', '', 0.0)||('152', '', '', '', 0.0)||('patients', 'noun', 'C0030705', ['podg'], 0.0)||('from', '', '', '', 0.0)||('virginia', 'noun', 'C0042753', ['geoa'], 0.0)||('(', '', '', '', 0.0)||('the', '', '', '', 0.0)||('validation', 'noun', 'C1519941', ['resa'], 0.0)||('sets', '', '', '', 0.0)||(')', '', '', '', 0.0)||('.', '', '', '', 0.0)||
('all', '', '', '', 0.0)||('patients', 'noun', 'C0030705', ['podg'], 0.0)||('presented', 'verb', 'C0449450', ['idcn'], 0.0)||('to', '', '', '', 0.0)||('the', '', '', '', 0.0)||('emergency department', 'noun', 'C0562508', ['hcro', 'mnob'], 0.0)||('and', '', '', '', 0.0)||('had', '', '', '', 0.0)||('a', '', '', '', 0.0)||('chest roentgenogram', '', '', '', 0.0)||('to', '', '', '', 0.0)||('evaluate', 'verb', 'C0220825', ['ftcn'], 0.0)||('fever', 'noun', 'C0015967', ['fndg'], 0.0)||('or', '', '', '', 0.0)||('respiratory', 'adj', 'C0521346', ['ftcn'], 0.0)||('complaints', '', '', '', 0.0)||('.', '', '', '', 0.0)||
('within', '', '', '', 0.0)||('the', '', '', '', 0.0)||('training', 'adj', 'C0040607', ['edac'], 0.0)||('set', 'noun', 'C0036849', ['menp'], 0.0)||(',', '', '', '', 0.0)||('temperature', 'noun', 'C0005903', ['orga'], 0.0)||('greater', 'adj', 'C1704243', ['qnco'], 0.0)||('than', '', '', '', 0.0)||('37 . 8', '', '', '', 0.0)||('degrees', '', '', '', 0.0)||('c', '', '', '', 0.0)||(',', '', '', '', 0.0)||('pulse', 'noun', 'C0034107', ['diap'], 0.0)||('greater', 'adj', 'C1704243', ['qnco'], 0.0)||('than', '', '', '', 0.0)||('100', '', '', '', 0.0)||('beats', '', '', '', 0.0)||('/', '', '', '', 0.0)||('min', '', '', '', 0.0)||(',', '', '', '', 0.0)||('rales', 'noun', 'C0034642', ['sosy'], 0.0)||(',', '', '', '', 0.0)||('decreased', 'adj', 'C0205216', ['qnco'], 0.0)||('breath sounds', 'noun', 'C0035234', ['clna'], 0.0)||(',', '', '', '', 0.0)||('and', '', '', '', 0.0)||('the', '', '', '', 0.0)||('absence', 'noun', 'C1689985', ['anab'], 0.0)||('of', '', '', '', 0.0)||('asthma', 'noun', 'C0004096', ['dsyn'], 0.0)||('were', '', '', '', 0.0)||('identified', 'verb', 'C0205396', ['qlco'], 0.0)||('as', '', '', '', 0.0)||('significant', 'adj', 'C0750502', ['idcn'], 0.0)||('predictors', '', '', '', 0.0)||('of', '', '', '', 0.0)||('radiographically', '', '', '', 0.0)||('proved', '', '', '', 0.0)||('pneumonia', 'noun', 'C0032285', ['dsyn'], 0.0)||('in', '', '', '', 0.0)||('a', '', '', '', 0.0)||('stepwise logistic regression model', '', '', '', 0.0)||('(', '', '', '', 0.0)||('p', '', '', '', 0.0)||('=', '', '', '', 0.0)||('0 . 001', '', '', '', 0.0)||(')', '', '', '', 0.0)||('.', '', '', '', 0.0)||
('the', '', '', '', 0.0)||('logistic', '', '', '', 0.0)||('rule', 'noun', 'C0805874', ['idcn'], 0.0)||('discriminated', '', '', '', 0.0)||('patients', 'noun', 'C0030705', ['podg'], 0.0)||('with', '', '', '', 0.0)||('and', '', '', '', 0.0)||('without', '', '', '', 0.0)||('pneumonia', 'noun', 'C0032285', ['dsyn'], 0.0)||('in', '', '', '', 0.0)||('the', '', '', '', 0.0)||('training', 'adj', 'C0040607', ['edac'], 0.0)||('set', 'noun', 'C0036849', ['menp'], 0.0)||('with', '', '', '', 0.0)||('a', '', '', '', 0.0)||('receiver operating characteristic', 'noun', 'C0034772', ['qnco'], 0.0)||('area', 'noun', 'C0017446', ['geoa'], 0.0)||('of', '', '', '', 0.0)||('0 . 82', '', '', '', 0.0)||('.', '', '', '', 0.0)||
('in', '', '', '', 0.0)||('the', '', '', '', 0.0)||('validation', 'noun', 'C1519941', ['resa'], 0.0)||('sets', '', '', '', 0.0)||(',', '', '', '', 0.0)||('the', '', '', '', 0.0)||('rule', 'noun', 'C0805874', ['idcn'], 0.0)||('discriminated', '', '', '', 0.0)||('pneumonia', 'noun', 'C0032285', ['dsyn'], 0.0)||('and', '', '', '', 0.0)||('nonpneumonia', '', '', '', 0.0)||('with', '', '', '', 0.0)||('receiver operating characteristic', 'noun', 'C0034772', ['qnco'], 0.0)||('areas', '', '', '', 0.0)||('of', '', '', '', 0.0)||('0 . 82', '', '', '', 0.0)||('and', '', '', '', 0.0)||('0 . 76', '', '', '', 0.0)||('after', '', '', '', 0.0)||('adjusting', 'noun', 'C0456081', ['ftcn'], 0.0)||('for', '', '', '', 0.0)||('differences', '', '', '', 0.0)||('in', '', '', '', 0.0)||('disease', 'noun', 'C0012634', ['dsyn'], 0.0)||('prevalence', 'noun', 'C0033105', ['qnco'], 0.0)||('(', '', '', '', 0.0)||('p', '', '', '', 0.0)||('greater', 'adj', 'C1704243', ['qnco'], 0.0)||('than', '', '', '', 0.0)||('0 . 2', '', '', '', 0.0)||('compared', 'verb', 'C1707455', ['acty'], 0.0)||('with', '', '', '', 0.0)||('the', '', '', '', 0.0)||('training', 'adj', 'C0040607', ['edac'], 0.0)||('set', 'noun', 'C0036849', ['menp'], 0.0)||(')', '', '', '', 0.0)||('.', '', '', '', 0.0)||
('the', '', '', '', 0.0)||('predicted', 'adj', 'C0681842', ['idcn'], 0.0)||('probability', 'noun', 'C0033204', ['qnco'], 0.0)||('of', '', '', '', 0.0)||('having', '', '', '', 0.0)||('pneumonia', 'noun', 'C0032285', ['dsyn'], 0.0)||('for', '', '', '', 0.0)||('patients', 'noun', 'C0030705', ['podg'], 0.0)||('with', '', '', '', 0.0)||('different', 'adj', 'C1705242', ['qlco'], 0.0)||('clinical', 'adj', 'C0205210', ['qlco'], 0.0)||('findings', 'noun', 'C2607943', ['ftcn'], 0.0)||('corresponded', '', '', '', 0.0)||('closely', '', '', '', 0.0)||('with', '', '', '', 0.0)||('the', '', '', '', 0.0)||('incidence', 'noun', 'C0021149', ['qnco'], 0.0)||('of', '', '', '', 0.0)||('pneumonia', 'noun', 'C0032285', ['dsyn'], 0.0)||('among', '', '', '', 0.0)||('patients', 'noun', 'C0030705', ['podg'], 0.0)||('with', '', '', '', 0.0)||('such', '', '', '', 0.0)||('findings', 'noun', 'C2607943', ['ftcn'], 0.0)||('in', '', '', '', 0.0)||('the', '', '', '', 0.0)||('three', '', 'C0205449', ['qnco'], 0.0)||('settings', '', '', '', 0.0)||('.', '', '', '', 0.0)||
('among', '', '', '', 0.0)||('adults', 'noun', 'C0001675', ['aggp'], 0.0)||('presenting', 'verb', 'C0449450', ['idcn'], 0.0)||('with', '', '', '', 0.0)||('acute', 'adj', 'C0205178', ['tmco'], 0.0)||('respiratory illness', '', '', '', 0.0)||(',', '', '', '', 0.0)||('a', '', '', '', 0.0)||('prediction', 'noun', 'C0681842', ['idcn'], 0.0)||('rule', 'noun', 'C0805874', ['idcn'], 0.0)||('based', 'verb', 'C1527178', ['ftcn'], 0.0)||('on', '', '', '', 0.0)||('clinical', 'adj', 'C0205210', ['qlco'], 0.0)||('findings', 'noun', 'C2607943', ['ftcn'], 0.0)||('accurately', '', '', '', 0.0)||('discriminated', '', '', '', 0.0)||('patients', 'noun', 'C0030705', ['podg'], 0.0)||('with', '', '', '', 0.0)||('and', '', '', '', 0.0)||('without', '', '', '', 0.0)||('radiographic', 'adj', 'C0444708', ['npop'], 0.0)||('pneumonia', 'noun', 'C0032285', ['dsyn'], 0.0)||(',', '', '', '', 0.0)||('and', '', '', '', 0.0)||('was', '', '', '', 0.0)||('used', '', '', '', 0.0)||('in', '', '', '', 0.0)||('two', 'adj', 'C0205448', ['qnco'], 0.0)||('other', '', '', '', 0.0)||('samples', '', '', '', 0.0)||('of', '', '', '', 0.0)||('patients', 'noun', 'C0030705', ['podg'], 0.0)||('without', '', '', '', 0.0)||('significant', 'adj', 'C0750502', ['idcn'], 0.0)||('decrement', '', '', '', 0.0)||('in', '', '', '', 0.0)||('discriminatory', '', '', '', 0.0)||('ability', 'noun', 'C0085732', ['orga'], 0.0)||('.', '', '', '', 0.0)||
('this', '', '', '', 0.0)||('rule', 'noun', 'C0805874', ['idcn'], 0.0)||('can', '', '', '', 0.0)||('be', '', '', '', 0.0)||('used', '', '', '', 0.0)||('by', '', '', '', 0.0)||('physicians', 'noun', 'C0031831', ['prog'], 0.0)||('to', '', '', '', 0.0)||('develop', '', '', '', 0.0)||('more', '', '', '', 0.0)||('effective', 'adj', 'C1704419', ['qlco'], 0.0)||('strategies', 'noun', 'C0679199', ['menp'], 0.0)||('for', '', '', '', 0.0)||('detecting', '', '', '', 0.0)||('pneumonia', 'noun', 'C0032285', ['dsyn'], 0.0)||('and', '', '', '', 0.0)||('for', '', '', '', 0.0)||('helping', '', '', '', 0.0)||('to', '', '', '', 0.0)||('determine', '', '', '', 0.0)||('the', '', '', '', 0.0)||('need', 'noun', 'C0027552', ['qlco'], 0.0)||('for', '', '', '', 0.0)||('radiologic', 'adj', 'C0034599', ['bmod'], 0.0)||('study', 'noun', 'C0008976', ['resa'], 0.0)||('among', '', '', '', 0.0)||('patients', 'noun', 'C0030705', ['podg'], 0.0)||('with', '', '', '', 0.0)||('acute respiratory disease', 'noun', 'C0264219', ['dsyn'], 0.0)||('.', '', '', '', 0.0)||
