('epidemiologic studies', 'noun', 'C0002783', ['resa'], 0.0)||('link', 'verb', 'C1517892', ['inpr'], 0.0)||('mediterranean', 'noun', 'C0240321', ['popg'], 0.0)||('-', '', '', '', 0.0)||('type', 'noun', 'C0332307', ['qlco'], 0.0)||('diets', 'noun', 'C0012155', ['food'], 0.0)||('to', '', '', '', 0.0)||('a', '', '', '', 0.0)||('low', 'adj', 'C0205251', ['qlco'], 0.0)||('incidence', 'noun', 'C0021149', ['qnco'], 0.0)||('of', '', '', '', 0.0)||('cardiovascular disease', 'noun', 'C0007222', ['dsyn'], 0.0)||(';', '', '', '', 0.0)||
('however', '', '', '', 0.0)||(',', '', '', '', 0.0)||('few', '', '', '', 0.0)||('dietary', 'adj', 'C0012155', ['food'], 0.0)||('intervention studies', 'noun', 'C0021810', ['resa'], 0.0)||('have', '', '', '', 0.0)||('been', '', '', '', 0.0)||('undertaken', '', '', '', 0.0)||(',', '', '', '', 0.0)||('especially', '', '', '', 0.0)||('in', '', '', '', 0.0)||('primary', 'adj', 'C0205225', ['qlco'], 0.0)||('prevention', 'noun', 'C0199176', ['topp'], 0.0)||('.', '', '', '', 0.0)||
('in', '', '', '', 0.0)||('the', '', '', '', 0.0)||('mediterranean', 'noun', 'C0240321', ['popg'], 0.0)||('diet', 'noun', 'C0012155', ['food'], 0.0)||(',', '', '', '', 0.0)||('cardiovascular risks', '', '', '', 0.0)||('and', '', '', '', 0.0)||('gene', 'noun', 'C0017337', ['gngm'], 0.0)||('polymorphisms', '', '', '', 0.0)||('(', '', '', '', 0.0)||('medi', '', '', '', 0.0)||('-', '', '', '', 0.0)||('rivage', '', '', '', 0.0)||(')', '', '', '', 0.0)||('study', 'noun', 'C0008976', ['resa'], 0.0)||(',', '', '', '', 0.0)||('the', '', '', '', 0.0)||('effects', '', '', '', 0.0)||('of', '', '', '', 0.0)||('a', '', '', '', 0.0)||('mediterranean', 'noun', 'C0240321', ['popg'], 0.0)||('-', '', '', '', 0.0)||('type', 'noun', 'C0332307', ['qlco'], 0.0)||('diet', 'noun', 'C0012155', ['food'], 0.0)||('(', '', '', '', 0.0)||('med', '', '', '', 0.0)||('group', 'noun', 'C0441833', ['idcn'], 0.0)||(')', '', '', '', 0.0)||('or', '', '', '', 0.0)||('a', '', '', '', 0.0)||('low - fat diet', '', '', '', 0.0)||('(', '', '', '', 0.0)||('low - fat', '', '', '', 0.0)||('group', 'noun', 'C0441833', ['idcn'], 0.0)||(')', '', '', '', 0.0)||('on', '', '', '', 0.0)||('risk factors', 'noun', 'C0035648', ['qnco'], 0.0)||('were', '', '', '', 0.0)||('evaluated', 'verb', 'C0220825', ['ftcn'], 0.0)||('in', '', '', '', 0.0)||('212', '', '', '', 0.0)||('volunteers', 'noun', 'C0042960', ['prog'], 0.0)||('(', '', '', '', 0.0)||('men', 'noun', 'C0025266', ['popg'], 0.0)||('and', '', '', '', 0.0)||('women', 'noun', 'C0043210', ['popg'], 0.0)||(')', '', '', '', 0.0)||('with', '', '', '', 0.0)||('moderate', 'adj', 'C0205081', ['qlco'], 0.0)||('risk factors', 'noun', 'C0035648', ['qnco'], 0.0)||('for', '', '', '', 0.0)||('cardiovascular disease', 'noun', 'C0007222', ['dsyn'], 0.0)||('.', '', '', '', 0.0)||
('after', '', '', '', 0.0)||('the', '', '', '', 0.0)||('3', '', '', '', 0.0)||('-', '', '', '', 0.0)||('mo', '', '', '', 0.0)||('dietary', 'adj', 'C0012155', ['food'], 0.0)||('intervention', 'noun', 'C1273869', ['hlca'], 0.0)||(',', '', '', '', 0.0)||('changes', '', '', '', 0.0)||('in', '', '', '', 0.0)||('many', '', '', '', 0.0)||('risk factors', 'noun', 'C0035648', ['qnco'], 0.0)||('were', '', '', '', 0.0)||('evaluated', 'verb', 'C0220825', ['ftcn'], 0.0)||('.', '', '', '', 0.0)||
('dietary', 'adj', 'C0012155', ['food'], 0.0)||('questionnaires', 'noun', 'C0034394', ['inpr'], 0.0)||('and', '', '', '', 0.0)||('plasma', 'noun', 'C0032105', ['bdsu'], 0.0)||('nutritional', 'adj', 'C1521739', ['qlco'], 0.0)||('markers', 'noun', 'C2745888', ['medd'], 0.0)||('were', '', '', '', 0.0)||('used', '', '', '', 0.0)||('to', '', '', '', 0.0)||('test', 'verb', 'C0022885', ['lbpr'], 0.0)||('compliance', 'noun', 'C0009563', ['qnco'], 0.0)||('.', '', '', '', 0.0)||
('although', '', '', '', 0.0)||('the', '', '', '', 0.0)||('dietary', 'adj', 'C0012155', ['food'], 0.0)||('goals', 'noun', 'C0018017', ['inpr'], 0.0)||('were', '', '', '', 0.0)||('only', '', '', '', 0.0)||('partially', '', '', '', 0.0)||('reached', '', '', '', 0.0)||(',', '', '', '', 0.0)||('changes', '', '', '', 0.0)||('in', '', '', '', 0.0)||('dietary habits', 'noun', 'C0086152', ['inbe'], 0.0)||('were', '', '', '', 0.0)||('observed', 'verb', 'C1441672', ['ftcn'], 0.0)||('in', '', '', '', 0.0)||('both', '', '', '', 0.0)||('groups', 'noun', 'C0441833', ['idcn'], 0.0)||('(', '', '', '', 0.0)||('n =', '', '', '', 0.0)||('169', '', '', '', 0.0)||(')', '', '', '', 0.0)||(':', '', '', '', 0.0)||('protein', 'noun', 'C0033684', ['aapp', 'bacs'], 0.0)||(',', '', '', '', 0.0)||('carbohydrate', 'noun', 'C0007004', ['carb'], 0.0)||(',', '', '', '', 0.0)||('and', '', '', '', 0.0)||('fiber', 'noun', 'C0012173', ['food'], 0.0)||('intakes', '', '', '', 0.0)||('increased', 'verb', 'C0205217', ['qnco'], 0.0)||('and', '', '', '', 0.0)||('fat', 'noun', 'C0424612', ['orga'], 0.0)||('quality', 'noun', 'C0332306', ['qlco'], 0.0)||('(', '', '', '', 0.0)||('decreased', 'adj', 'C0205216', ['qnco'], 0.0)||('saturated fat', 'noun', 'C0597423', ['lipd'], 0.0)||('and', '', '', '', 0.0)||('increased', 'verb', 'C0205217', ['qnco'], 0.0)||('monounsaturated', '', '', '', 0.0)||('or', '', '', '', 0.0)||('polyunsaturated fat', 'noun', 'C2362518', ['lipd'], 0.0)||(')', '', '', '', 0.0)||('improved', 'verb', 'C0184511', ['qlco'], 0.0)||('.', '', '', '', 0.0)||
('bmi', 'noun', 'C1305855', ['clna'], 0.0)||(',', '', '', '', 0.0)||('total', 'noun', 'C0439810', ['qlco'], 0.0)||('and', '', '', '', 0.0)||('triacylglycerol', 'noun', 'C0041004', ['bacs', 'lipd'], 0.0)||('-', '', '', '', 0.0)||('rich', 'adj', 'C0699759', ['qlco'], 0.0)||('lipoprotein', 'noun', 'C0023820', ['aapp', 'bacs'], 0.0)||('cholesterol', 'noun', 'C0008377', ['bacs', 'strd'], 0.0)||(',', '', '', '', 0.0)||('triacylglycerols', 'noun', 'C0041004', ['bacs', 'lipd'], 0.0)||(',', '', '', '', 0.0)||('total', 'noun', 'C0439810', ['qlco'], 0.0)||('and', '', '', '', 0.0)||('triacylglycerol', 'noun', 'C0041004', ['bacs', 'lipd'], 0.0)||('-', '', '', '', 0.0)||('rich', 'adj', 'C0699759', ['qlco'], 0.0)||('lipoprotein', 'noun', 'C0023820', ['aapp', 'bacs'], 0.0)||('triacylglycerols', '', '', '', 0.0)||(',', '', '', '', 0.0)||('apolipoproteins a', 'noun', 'C0003592', ['aapp', 'bacs'], 0.0)||('-', '', '', '', 0.0)||('i', '', '', '', 0.0)||('and', '', '', '', 0.0)||('b', '', '', '', 0.0)||(',', '', '', '', 0.0)||('insulinemia', '', '', '', 0.0)||(',', '', '', '', 0.0)||('glycemia', '', '', '', 0.0)||(',', '', '', '', 0.0)||('and', '', '', '', 0.0)||('the', '', '', '', 0.0)||('homeostasis model assessment', 'noun', 'C1829779', ['lbpr'], 0.0)||('score', 'noun', 'C0449820', ['qnco'], 0.0)||('were', '', '', '', 0.0)||('significantly', '', '', '', 0.0)||('lower', 'adj', 'C0441994', ['ftcn'], 0.0)||('after', '', '', '', 0.0)||('3', '', '', '', 0.0)||('mo', '', '', '', 0.0)||('.', '', '', '', 0.0)||
('the', '', '', '', 0.0)||('reductions', '', '', '', 0.0)||('in', '', '', '', 0.0)||('total cholesterol', 'noun', 'C0543421', ['strd'], 0.0)||(',', '', '', '', 0.0)||('triacylglycerols', 'noun', 'C0041004', ['bacs', 'lipd'], 0.0)||(',', '', '', '', 0.0)||('and', '', '', '', 0.0)||('insulinemia', '', '', '', 0.0)||('remained', '', '', '', 0.0)||('significant', 'adj', 'C0750502', ['idcn'], 0.0)||('after', '', '', '', 0.0)||('adjustment', 'noun', 'C0376209', ['inbe'], 0.0)||('for', '', '', '', 0.0)||('bmi', 'noun', 'C1305855', ['clna'], 0.0)||('.', '', '', '', 0.0)||
('there', '', '', '', 0.0)||('was', '', '', '', 0.0)||('a', '', '', '', 0.0)||('trend', 'noun', 'C1521798', ['tmco'], 0.0)||('for', '', '', '', 0.0)||('a', '', '', '', 0.0)||('diet', 'noun', 'C0012155', ['food'], 0.0)||('-', '', '', '', 0.0)||('by', '', '', '', 0.0)||('-', '', '', '', 0.0)||('time', 'noun', 'C0040223', ['tmco'], 0.0)||('interaction', 'noun', 'C1704675', ['ftcn'], 0.0)||('for', '', '', '', 0.0)||('ldl', 'noun', 'C0428474', ['lbpr'], 0.0)||('cholesterol', 'noun', 'C0008377', ['bacs', 'strd'], 0.0)||('(', '', '', '', 0.0)||('p', '', '', '', 0.0)||('=', '', '', '', 0.0)||('0 . 09', '', '', '', 0.0)||(')', '', '', '', 0.0)||('.', '', '', '', 0.0)||
('our', '', '', '', 0.0)||('data', 'noun', 'C1511726', ['idcn'], 0.0)||('predicted', 'verb', 'C0681842', ['idcn'], 0.0)||('a', '', '', '', 0.0)||('9 %', '', '', '', 0.0)||('reduction', 'noun', 'C0301630', ['npop'], 0.0)||('in', '', '', '', 0.0)||('cardiovascular disease risk', '', '', '', 0.0)||('with', '', '', '', 0.0)||('the', '', '', '', 0.0)||('low - fat diet', '', '', '', 0.0)||('and', '', '', '', 0.0)||('a', '', '', '', 0.0)||('15 %', '', '', '', 0.0)||('reduction', 'noun', 'C0301630', ['npop'], 0.0)||('with', '', '', '', 0.0)||('this', '', '', '', 0.0)||('particular', '', '', '', 0.0)||('mediterranean', 'noun', 'C0240321', ['popg'], 0.0)||('diet', 'noun', 'C0012155', ['food'], 0.0)||('.', '', '', '', 0.0)||
('after', '', '', '', 0.0)||('a', '', '', '', 0.0)||('3', '', '', '', 0.0)||('-', '', '', '', 0.0)||('mo', '', '', '', 0.0)||('intervention', 'noun', 'C1273869', ['hlca'], 0.0)||(',', '', '', '', 0.0)||('both', '', '', '', 0.0)||('diets', 'noun', 'C0012155', ['food'], 0.0)||('significantly', '', '', '', 0.0)||('reduced', 'verb', 'C0392756', ['qlco'], 0.0)||('cardiovascular disease risk factors', '', '', '', 0.0)||('to', '', '', '', 0.0)||('an', '', '', '', 0.0)||('overall', 'adj', 'C0282416', ['inpr'], 0.0)||('comparable', '', '', '', 0.0)||('extent', 'noun', 'C0439792', ['spco'], 0.0)||('.', '', '', '', 0.0)||
