('to', '', '', '', 0.0)||('identify', '', '', '', 0.0)||('factors', '', '', '', 0.0)||('in', '', '', '', 0.0)||('childhood', 'noun', 'C0231335', ['tmco'], 0.0)||('which', '', '', '', 0.0)||('might', '', '', '', 0.0)||('influence', '', '', '', 0.0)||('the', '', '', '', 0.0)||('development', 'noun', 'C0020119', ['phsf'], 0.0)||('of', '', '', '', 0.0)||('obesity', 'noun', 'C0028754', ['dsyn'], 0.0)||('in', '', '', '', 0.0)||('adulthood', 'noun', 'C0700597', ['tmco'], 0.0)||('.', '', '', '', 0.0)||
('the', '', '', '', 0.0)||('prevalence', 'noun', 'C0033105', ['qnco'], 0.0)||('of', '', '', '', 0.0)||('obesity', 'noun', 'C0028754', ['dsyn'], 0.0)||('is', '', '', '', 0.0)||('increasing', 'verb', 'C0442808', ['ftcn'], 0.0)||('in', '', '', '', 0.0)||('the', '', '', '', 0.0)||('uk', '', '', '', 0.0)||('and', '', '', '', 0.0)||('other', '', '', '', 0.0)||('developed', '', '', '', 0.0)||('countries', 'noun', 'C0454664', ['geoa'], 0.0)||(',', '', '', '', 0.0)||('in', '', '', '', 0.0)||('adults', 'noun', 'C0001675', ['aggp'], 0.0)||('and', '', '', '', 0.0)||('children', 'noun', 'C0008059', ['aggp'], 0.0)||('.', '', '', '', 0.0)||
('the', '', '', '', 0.0)||('adverse', '', '', '', 0.0)||('health', 'noun', 'C0018684', ['idcn'], 0.0)||('consequences', '', '', '', 0.0)||('of', '', '', '', 0.0)||('adult', 'noun', 'C0001675', ['aggp'], 0.0)||('obesity', 'noun', 'C0028754', ['dsyn'], 0.0)||('are', '', '', '', 0.0)||('well documented', '', '', '', 0.0)||(',', '', '', '', 0.0)||('but', '', '', '', 0.0)||('are', '', '', '', 0.0)||('less', '', '', '', 0.0)||('certain', '', '', '', 0.0)||('for', '', '', '', 0.0)||('childhood', 'noun', 'C0231335', ['tmco'], 0.0)||('obesity', 'noun', 'C0028754', ['dsyn'], 0.0)||('.', '', '', '', 0.0)||
('an', '', '', '', 0.0)||('association', 'noun', 'C0004083', ['menp'], 0.0)||('between', '', '', '', 0.0)||('fatness', 'noun', 'C0235433', ['fndg'], 0.0)||('in', '', '', '', 0.0)||('adolescence', 'noun', 'C0001578', ['tmco'], 0.0)||('and', '', '', '', 0.0)||('undesirable', '', '', '', 0.0)||('socio - economic', '', '', '', 0.0)||('consequences', '', '', '', 0.0)||(',', '', '', '', 0.0)||('such as', '', '', '', 0.0)||('lower', 'adj', 'C0441994', ['ftcn'], 0.0)||('educational', 'adj', 'C1555905', ['inpr'], 0.0)||('attainment', '', '', '', 0.0)||('and', '', '', '', 0.0)||('income', 'noun', 'C0021162', ['qnco'], 0.0)||(',', '', '', '', 0.0)||('has', '', '', '', 0.0)||('been', '', '', '', 0.0)||('observed', 'verb', 'C1441672', ['ftcn'], 0.0)||(',', '', '', '', 0.0)||('particularly', '', '', '', 0.0)||('for', '', '', '', 0.0)||('women', 'noun', 'C0043210', ['popg'], 0.0)||('.', '', '', '', 0.0)||
('childhood', 'noun', 'C0231335', ['tmco'], 0.0)||('factors', '', '', '', 0.0)||('implicated', '', '', '', 0.0)||('in', '', '', '', 0.0)||('the', '', '', '', 0.0)||('development', 'noun', 'C0020119', ['phsf'], 0.0)||('of', '', '', '', 0.0)||('adult', 'noun', 'C0001675', ['aggp'], 0.0)||('obesity', 'noun', 'C0028754', ['dsyn'], 0.0)||('therefore', '', '', '', 0.0)||('have', '', '', '', 0.0)||('far - reaching', '', '', '', 0.0)||('implications', '', '', '', 0.0)||('for', '', '', '', 0.0)||('costs', 'noun', 'C0010186', ['qnco'], 0.0)||('to', '', '', '', 0.0)||('the', '', '', '', 0.0)||('health', 'noun', 'C0018684', ['idcn'], 0.0)||('-', '', '', '', 0.0)||('services', 'noun', 'C0557854', ['acty'], 0.0)||('and', '', '', '', 0.0)||('economy', 'noun', 'C0013556', ['ocdi'], 0.0)||('.', '', '', '', 0.0)||
('in', '', '', '', 0.0)||('order', 'noun', 'C1705175', ['inpr'], 0.0)||('to', '', '', '', 0.0)||('identify', '', '', '', 0.0)||('relevant', 'adj', 'C2347946', ['qlco'], 0.0)||('studies', '', '', '', 0.0)||(',', '', '', '', 0.0)||('electronic', 'adj', 'C0013850', ['mnob'], 0.0)||('databases', 'noun', 'C0242356', ['inpr'], 0.0)||('-', '', '', '', 0.0)||('-', '', '', '', 0.0)||('medline', 'noun', 'C0025141', ['inpr'], 0.0)||(',', '', '', '', 0.0)||('embase', '', '', '', 0.0)||(',', '', '', '', 0.0)||('cab', '', '', '', 0.0)||('abstracts', 'noun', 'C0600678', ['inpr'], 0.0)||(',', '', '', '', 0.0)||('psyclit', '', '', '', 0.0)||('and', '', '', '', 0.0)||('sport', 'noun', 'C0038039', ['dora'], 0.0)||('discus', 'noun', 'C1036711', ['euka'], 0.0)||('-', '', '', '', 0.0)||('were', '', '', '', 0.0)||('searched', 'verb', 'C1706202', ['acty'], 0.0)||('from', '', '', '', 0.0)||('the', '', '', '', 0.0)||('start', 'noun', 'C0439659', ['tmco'], 0.0)||('date', 'noun', 'C0011008', ['tmco'], 0.0)||('of', '', '', '', 0.0)||('the', '', '', '', 0.0)||('database', 'noun', 'C0242356', ['inpr'], 0.0)||('to', '', '', '', 0.0)||('spring', 'verb', 'C0241232', ['tmco'], 0.0)||('1998', '', '', '', 0.0)||('.', '', '', '', 0.0)||
('the', '', '', '', 0.0)||('general', 'adj', 'C0205246', ['spco'], 0.0)||('search', 'noun', 'C1552603', ['idcn'], 0.0)||('structure', 'noun', 'C0678594', ['spco'], 0.0)||('for', '', '', '', 0.0)||('electronic', 'adj', 'C0013850', ['mnob'], 0.0)||('databases', 'noun', 'C0242356', ['inpr'], 0.0)||('was', '', '', '', 0.0)||('(', '', '', '', 0.0)||('childhood', 'noun', 'C0231335', ['tmco'], 0.0)||('or', '', '', '', 0.0)||('synonyms', 'noun', 'C0871468', ['cnce'], 0.0)||(')', '', '', '', 0.0)||('and', '', '', '', 0.0)||('(', '', '', '', 0.0)||('fatness', 'noun', 'C0235433', ['fndg'], 0.0)||('or', '', '', '', 0.0)||('synonyms', 'noun', 'C0871468', ['cnce'], 0.0)||(')', '', '', '', 0.0)||('and', '', '', '', 0.0)||('(', '', '', '', 0.0)||('longitudinal', 'adj', 'C0205127', ['spco'], 0.0)||('or', '', '', '', 0.0)||('synonyms', 'noun', 'C0871468', ['cnce'], 0.0)||(')', '', '', '', 0.0)||('.', '', '', '', 0.0)||
('further', 'adj', 'C1517331', ['spco'], 0.0)||('studies', '', '', '', 0.0)||('were', '', '', '', 0.0)||('identified', 'verb', 'C0205396', ['qlco'], 0.0)||('by', '', '', '', 0.0)||('citations', '', '', '', 0.0)||('in', '', '', '', 0.0)||('retrieved', '', '', '', 0.0)||('papers', 'noun', 'C0030351', ['mnob'], 0.0)||('and', '', '', '', 0.0)||('by', '', '', '', 0.0)||('consultation', 'noun', 'C0009818', ['hlca'], 0.0)||('with', '', '', '', 0.0)||('experts', '', '', '', 0.0)||('.', '', '', '', 0.0)||
('longitudinal', 'adj', 'C0205127', ['spco'], 0.0)||('observational', 'adj', 'C1964257', ['diap'], 0.0)||('studies', '', '', '', 0.0)||('of', '', '', '', 0.0)||('healthy', '', '', '', 0.0)||('children', 'noun', 'C0008059', ['aggp'], 0.0)||('which', '', '', '', 0.0)||('included', '', '', '', 0.0)||('measurement', 'noun', 'C0242485', ['ftcn'], 0.0)||('of', '', '', '', 0.0)||('a', '', '', '', 0.0)||('risk factor', '', '', '', 0.0)||('in', '', '', '', 0.0)||('childhood', 'noun', 'C0231335', ['tmco'], 0.0)||('(', '', '', '', 0.0)||('<', '', '', '', 0.0)||('18', '', '', '', 0.0)||('y', '', '', '', 0.0)||(')', '', '', '', 0.0)||(',', '', '', '', 0.0)||('and', '', '', '', 0.0)||('outcome', 'noun', 'C1274040', ['ftcn'], 0.0)||('measure', 'verb', 'C0079809', ['qnco'], 0.0)||('at', '', '', '', 0.0)||('least', '', '', '', 0.0)||('1', '', '', '', 0.0)||('y', '', '', '', 0.0)||('later', '', '', '', 0.0)||('.', '', '', '', 0.0)||
('any', '', '', '', 0.0)||('measure', 'noun', 'C0079809', ['qnco'], 0.0)||('of', '', '', '', 0.0)||('fatness', 'noun', 'C0235433', ['fndg'], 0.0)||(',', '', '', '', 0.0)||('leanness', 'noun', 'C0039870', ['fndg'], 0.0)||('or', '', '', '', 0.0)||('change', 'noun', 'C0392747', ['ftcn'], 0.0)||('in', '', '', '', 0.0)||('fatness', 'noun', 'C0235433', ['fndg'], 0.0)||('or', '', '', '', 0.0)||('leanness', 'noun', 'C0039870', ['fndg'], 0.0)||('was', '', '', '', 0.0)||('accepted', 'verb', 'C1272684', ['qlco'], 0.0)||('.', '', '', '', 0.0)||
('measures', 'noun', 'C0079809', ['qnco'], 0.0)||('of', '', '', '', 0.0)||('fat', 'noun', 'C0424612', ['orga'], 0.0)||('distribution', 'noun', 'C0520511', ['idcn'], 0.0)||('were', '', '', '', 0.0)||('not', 'adv', 'C1518422', ['ftcn'], 0.0)||('included', '', '', '', 0.0)||('.', '', '', '', 0.0)||
('only', '', '', '', 0.0)||('studies', '', '', '', 0.0)||('with', '', '', '', 0.0)||('participants', '', '', '', 0.0)||('from', '', '', '', 0.0)||('an', '', '', '', 0.0)||('industrialized country', '', '', '', 0.0)||('were', '', '', '', 0.0)||('considered', '', '', '', 0.0)||(',', '', '', '', 0.0)||('and', '', '', '', 0.0)||('those', '', '', '', 0.0)||('concerning', '', '', '', 0.0)||('minority', 'noun', 'C0026192', ['popg'], 0.0)||('or', '', '', '', 0.0)||('special', 'adj', 'C0205555', ['qlco'], 0.0)||('groups', 'noun', 'C0441833', ['idcn'], 0.0)||(',', '', '', '', 0.0)||('e', '', '', '', 0.0)||('.', '', '', '', 0.0)||('g', '', '', '', 0.0)||('.', '', '', '', 0.0)||
('pima', 'noun', 'C1551488', ['popg'], 0.0)||('indians', 'noun', 'C0422792', ['popg'], 0.0)||('or', '', '', '', 0.0)||('children', 'noun', 'C0008059', ['aggp'], 0.0)||('born', '', '', '', 0.0)||('preterm', '', '', '', 0.0)||(',', '', '', '', 0.0)||('were', '', '', '', 0.0)||('excluded', 'verb', 'C1554077', ['idcn'], 0.0)||('.', '', '', '', 0.0)||
('risk factors', 'noun', 'C0035648', ['qnco'], 0.0)||('for', '', '', '', 0.0)||('obesity', 'noun', 'C0028754', ['dsyn'], 0.0)||('included', '', '', '', 0.0)||('parental', 'adj', 'C0030551', ['famg'], 0.0)||('fatness', 'noun', 'C0235433', ['fndg'], 0.0)||(',', '', '', '', 0.0)||('social factors', '', '', '', 0.0)||(',', '', '', '', 0.0)||('birth weight', 'noun', 'C0005612', ['orga'], 0.0)||(',', '', '', '', 0.0)||('timing', 'noun', 'C0449243', ['tmco'], 0.0)||('or', '', '', '', 0.0)||('rate', 'noun', 'C0871208', ['acty'], 0.0)||('of', '', '', '', 0.0)||('maturation', 'noun', 'C0870861', ['phpr'], 0.0)||(',', '', '', '', 0.0)||('physical', 'adj', 'C0031809', ['hlca'], 0.0)||('activity', 'noun', 'C0441655', ['acty'], 0.0)||(',', '', '', '', 0.0)||('dietary factors', 'noun', 'C1511903', ['ftcn'], 0.0)||('and', '', '', '', 0.0)||('other', '', '', '', 0.0)||('behavioural', '', '', '', 0.0)||('or', '', '', '', 0.0)||('psychological factors', 'noun', 'C0033898', ['menp'], 0.0)||('.', '', '', '', 0.0)||
('offspring', 'noun', 'C0680063', ['famg'], 0.0)||('of', '', '', '', 0.0)||('obese', 'adj', 'C0028754', ['dsyn'], 0.0)||('parent', 'noun', 'C0030551', ['famg'], 0.0)||('(', '', '', '', 0.0)||('s )', '', '', '', 0.0)||('were', '', '', '', 0.0)||('consistently', '', '', '', 0.0)||('seen', 'verb', 'C0205397', ['qlco'], 0.0)||('to', '', '', '', 0.0)||('be', '', '', '', 0.0)||('at', '', '', '', 0.0)||('increased risk', '', '', '', 0.0)||('of', '', '', '', 0.0)||('fatness', 'noun', 'C0235433', ['fndg'], 0.0)||(',', '', '', '', 0.0)||('although', '', '', '', 0.0)||('few', '', '', '', 0.0)||('studies', '', '', '', 0.0)||('have', '', '', '', 0.0)||('looked', '', '', '', 0.0)||('at', '', '', '', 0.0)||('this', '', '', '', 0.0)||('relationship', 'noun', 'C0439849', ['qlco'], 0.0)||('over', 'adv', 'C0205136', ['spco'], 0.0)||('longer', '', '', '', 0.0)||('periods', '', '', '', 0.0)||('of', '', '', '', 0.0)||('childhood', 'noun', 'C0231335', ['tmco'], 0.0)||('and', '', '', '', 0.0)||('into', '', '', '', 0.0)||('adulthood', 'noun', 'C0700597', ['tmco'], 0.0)||('.', '', '', '', 0.0)||
('the', '', '', '', 0.0)||('relative', 'adj', 'C0080103', ['famg'], 0.0)||('contributions', '', '', '', 0.0)||('of', '', '', '', 0.0)||('genes', 'noun', 'C0017337', ['gngm'], 0.0)||('and', '', '', '', 0.0)||('inherited', 'adj', 'C0439660', ['ftcn'], 0.0)||('lifestyle', 'noun', 'C0023676', ['socb'], 0.0)||('factors', '', '', '', 0.0)||('to', '', '', '', 0.0)||('the', '', '', '', 0.0)||('parent - child', '', '', '', 0.0)||('fatness', 'noun', 'C0235433', ['fndg'], 0.0)||('association', 'noun', 'C0004083', ['menp'], 0.0)||('remain', '', '', '', 0.0)||('largely', '', '', '', 0.0)||('unknown', 'verb', 'C0439673', ['idcn'], 0.0)||('.', '', '', '', 0.0)||
('no', '', '', '', 0.0)||('clear', 'adj', 'C0522503', ['qlco'], 0.0)||('relationship', 'noun', 'C0439849', ['qlco'], 0.0)||('is', '', '', '', 0.0)||('reported', 'verb', 'C0684224', ['inpr'], 0.0)||('between', '', '', '', 0.0)||('socio - economic', '', '', '', 0.0)||('status', 'noun', 'C0449438', ['qlco'], 0.0)||('(', '', '', '', 0.0)||('ses', '', '', '', 0.0)||(')', '', '', '', 0.0)||('in', '', '', '', 0.0)||('early', 'adj', 'C1279919', ['tmco'], 0.0)||('life', 'noun', 'C0376558', ['idcn'], 0.0)||('and', '', '', '', 0.0)||('childhood', 'noun', 'C0231335', ['tmco'], 0.0)||('fatness', 'noun', 'C0235433', ['fndg'], 0.0)||('.', '', '', '', 0.0)||
('however', '', '', '', 0.0)||(',', '', '', '', 0.0)||('a', '', '', '', 0.0)||('strong', 'adj', 'C0442821', ['qlco'], 0.0)||('consistent', 'adj', 'C0332290', ['idcn'], 0.0)||('relationship', 'noun', 'C0439849', ['qlco'], 0.0)||('is', '', '', '', 0.0)||('observed', 'verb', 'C1441672', ['ftcn'], 0.0)||('between', '', '', '', 0.0)||('low ses', '', '', '', 0.0)||('in', '', '', '', 0.0)||('early', 'adj', 'C1279919', ['tmco'], 0.0)||('life', 'noun', 'C0376558', ['idcn'], 0.0)||('and', '', '', '', 0.0)||('increased', 'adj', 'C0205217', ['qnco'], 0.0)||('fatness', 'noun', 'C0235433', ['fndg'], 0.0)||('in', '', '', '', 0.0)||('adulthood', 'noun', 'C0700597', ['tmco'], 0.0)||('.', '', '', '', 0.0)||
('studies', '', '', '', 0.0)||('investigating', '', '', '', 0.0)||('ses', '', '', '', 0.0)||('were', '', '', '', 0.0)||('generally', '', '', '', 0.0)||('large', 'adj', 'C0549177', ['qnco'], 0.0)||('but', '', '', '', 0.0)||('very', 'adv', 'C0442824', ['qlco'], 0.0)||('few', '', '', '', 0.0)||('considered', '', '', '', 0.0)||('confounding', '', '', '', 0.0)||('by', '', '', '', 0.0)||('parental', 'adj', 'C0030551', ['famg'], 0.0)||('fatness', 'noun', 'C0235433', ['fndg'], 0.0)||('.', '', '', '', 0.0)||
('women', 'noun', 'C0043210', ['popg'], 0.0)||('who', '', '', '', 0.0)||('change', 'verb', 'C0392747', ['ftcn'], 0.0)||('social class', 'noun', 'C0037402', ['qlco'], 0.0)||('(', '', '', '', 0.0)||('social', 'adj', 'C0728831', ['ftcn'], 0.0)||('mobility', 'noun', 'C0425245', ['fndg'], 0.0)||(')', '', '', '', 0.0)||('show', 'verb', 'C1547282', ['inpr'], 0.0)||('the', '', '', '', 0.0)||('prevalence', 'noun', 'C0033105', ['qnco'], 0.0)||('of', '', '', '', 0.0)||('obesity', 'noun', 'C0028754', ['dsyn'], 0.0)||('of', '', '', '', 0.0)||('the', '', '', '', 0.0)||('class', 'noun', 'C0456387', ['inpr'], 0.0)||('they', '', '', '', 0.0)||('join', '', '', '', 0.0)||(',', '', '', '', 0.0)||('an', '', '', '', 0.0)||('association', 'noun', 'C0004083', ['menp'], 0.0)||('which', '', '', '', 0.0)||('is', '', '', '', 0.0)||('not', 'adv', 'C1518422', ['ftcn'], 0.0)||('present', 'verb', 'C0150312', ['qnco'], 0.0)||('in', '', '', '', 0.0)||('men', 'noun', 'C0025266', ['popg'], 0.0)||('.', '', '', '', 0.0)||
('the', '', '', '', 0.0)||('influence', '', '', '', 0.0)||('of', '', '', '', 0.0)||('other', '', '', '', 0.0)||('social factors', '', '', '', 0.0)||('such as', '', '', '', 0.0)||('family size', 'noun', 'C0015611', ['grpa'], 0.0)||(',', '', '', '', 0.0)||('number', 'noun', 'C0449788', ['qnco'], 0.0)||('of', '', '', '', 0.0)||('parents', 'noun', 'C0030551', ['famg'], 0.0)||('at', '', '', '', 0.0)||('home', 'noun', 'C0442519', ['cnce'], 0.0)||('and', '', '', '', 0.0)||('childcare', 'noun', 'C0683807', ['ocac'], 0.0)||('have', '', '', '', 0.0)||('been', '', '', '', 0.0)||('little', 'adj', 'C0700321', ['qnco'], 0.0)||('researched', '', '', '', 0.0)||('.', '', '', '', 0.0)||
('there', '', '', '', 0.0)||('is', '', '', '', 0.0)||('good', 'adj', 'C0205170', ['qlco'], 0.0)||('evidence', 'noun', 'C0332120', ['ftcn'], 0.0)||('from', '', '', '', 0.0)||('large', 'adj', 'C0549177', ['qnco'], 0.0)||('and', '', '', '', 0.0)||('reasonably', '', '', '', 0.0)||('long - term', '', '', '', 0.0)||('studies', '', '', '', 0.0)||('for', '', '', '', 0.0)||('an', '', '', '', 0.0)||('apparently', 'adv', 'C0750541', ['idcn'], 0.0)||('clear', 'verb', 'C0522503', ['qlco'], 0.0)||('relationship', 'noun', 'C0439849', ['qlco'], 0.0)||('for', '', '', '', 0.0)||('increased', 'adj', 'C0205217', ['qnco'], 0.0)||('fatness', 'noun', 'C0235433', ['fndg'], 0.0)||('with', '', '', '', 0.0)||('higher', '', '', '', 0.0)||('birth weight', 'noun', 'C0005612', ['orga'], 0.0)||(',', '', '', '', 0.0)||('but', '', '', '', 0.0)||('in', '', '', '', 0.0)||('studies', '', '', '', 0.0)||('which', '', '', '', 0.0)||('attempted', '', '', '', 0.0)||('to', '', '', '', 0.0)||('address', 'verb', 'C1442065', ['spco'], 0.0)||('potential', 'adj', 'C0035647', ['qlco'], 0.0)||('confounding', '', '', '', 0.0)||('by', '', '', '', 0.0)||('gestational age', 'noun', 'C0017504', ['orga'], 0.0)||(',', '', '', '', 0.0)||('parental', 'adj', 'C0030551', ['famg'], 0.0)||('fatness', 'noun', 'C0235433', ['fndg'], 0.0)||(',', '', '', '', 0.0)||('or', '', '', '', 0.0)||('social', 'adj', 'C0728831', ['ftcn'], 0.0)||('group', 'noun', 'C0441833', ['idcn'], 0.0)||(',', '', '', '', 0.0)||('the', '', '', '', 0.0)||('relationship', 'noun', 'C0439849', ['qlco'], 0.0)||('was', '', '', '', 0.0)||('less', '', '', '', 0.0)||('consistent', 'adj', 'C0332290', ['idcn'], 0.0)||('.', '', '', '', 0.0)||
('the', '', '', '', 0.0)||('relationship', 'noun', 'C0439849', ['qlco'], 0.0)||('between', '', '', '', 0.0)||('earlier', '', '', '', 0.0)||('maturation', 'noun', 'C0870861', ['phpr'], 0.0)||('and', '', '', '', 0.0)||('greater', 'adj', 'C1704243', ['qnco'], 0.0)||('subsequent', 'adj', 'C0332282', ['tmco'], 0.0)||('fatness', 'noun', 'C0235433', ['fndg'], 0.0)||('was', '', '', '', 0.0)||('investigated', '', '', '', 0.0)||('in', '', '', '', 0.0)||('predominantly', '', '', '', 0.0)||('smaller', 'adj', 'C0547044', ['qlco'], 0.0)||(',', '', '', '', 0.0)||('but', '', '', '', 0.0)||('also', '', '', '', 0.0)||('a', '', '', '', 0.0)||('few', '', '', '', 0.0)||('large', 'adj', 'C0549177', ['qnco'], 0.0)||('studies', '', '', '', 0.0)||('.', '', '', '', 0.0)||
('again', '', '', '', 0.0)||(',', '', '', '', 0.0)||('this', '', '', '', 0.0)||('relationship', 'noun', 'C0439849', ['qlco'], 0.0)||('appeared', '', '', '', 0.0)||('to', '', '', '', 0.0)||('be', '', '', '', 0.0)||('consistent', 'adj', 'C0332290', ['idcn'], 0.0)||(',', '', '', '', 0.0)||('but', '', '', '', 0.0)||('in', '', '', '', 0.0)||('general', 'adj', 'C0205246', ['spco'], 0.0)||(',', '', '', '', 0.0)||('the', '', '', '', 0.0)||('studies', '', '', '', 0.0)||('had', '', '', '', 0.0)||('not', 'adv', 'C1518422', ['ftcn'], 0.0)||('investigated', '', '', '', 0.0)||('whether', '', '', '', 0.0)||('there', '', '', '', 0.0)||('was', '', '', '', 0.0)||('confounding', '', '', '', 0.0)||('by', '', '', '', 0.0)||('other', '', '', '', 0.0)||('factors', '', '', '', 0.0)||(',', '', '', '', 0.0)||('including', '', '', '', 0.0)||('parental', 'adj', 'C0030551', ['famg'], 0.0)||('fatness', 'noun', 'C0235433', ['fndg'], 0.0)||(',', '', '', '', 0.0)||('ses', '', '', '', 0.0)||(',', '', '', '', 0.0)||('earlier', '', '', '', 0.0)||('fatness', 'verb', 'C0235433', ['fndg'], 0.0)||('in', '', '', '', 0.0)||('childhood', 'noun', 'C0231335', ['tmco'], 0.0)||(',', '', '', '', 0.0)||('or', '', '', '', 0.0)||('dietary', 'adj', 'C0012155', ['food'], 0.0)||('or', '', '', '', 0.0)||('activity', 'noun', 'C0441655', ['acty'], 0.0)||('behaviours', '', '', '', 0.0)||('.', '', '', '', 0.0)||
('studies', '', '', '', 0.0)||('investigating', '', '', '', 0.0)||('the', '', '', '', 0.0)||('role', 'noun', 'C0035820', ['socb'], 0.0)||('of', '', '', '', 0.0)||('diet', 'noun', 'C0012155', ['food'], 0.0)||('or', '', '', '', 0.0)||('activity', 'noun', 'C0441655', ['acty'], 0.0)||('were', '', '', '', 0.0)||('generally', '', '', '', 0.0)||('small', 'adj', 'C0700321', ['qnco'], 0.0)||(',', '', '', '', 0.0)||('and', '', '', '', 0.0)||('included', '', '', '', 0.0)||('diverse', 'adj', 'C1880371', ['qlco'], 0.0)||('methods', 'noun', 'C0025663', ['inpr'], 0.0)||('of', '', '', '', 0.0)||('risk factor', '', '', '', 0.0)||('measurement', 'noun', 'C0242485', ['ftcn'], 0.0)||('.', '', '', '', 0.0)||
('there', '', '', '', 0.0)||('was', '', '', '', 0.0)||('almost', '', '', '', 0.0)||('no', '', '', '', 0.0)||('evidence', 'noun', 'C0332120', ['ftcn'], 0.0)||('for', '', '', '', 0.0)||('an', '', '', '', 0.0)||('influence', '', '', '', 0.0)||('of', '', '', '', 0.0)||('activity', 'noun', 'C0441655', ['acty'], 0.0)||('in', '', '', '', 0.0)||('infancy', 'noun', 'C0231330', ['tmco'], 0.0)||('on', '', '', '', 0.0)||('later', '', '', '', 0.0)||('fatness', 'noun', 'C0235433', ['fndg'], 0.0)||(',', '', '', '', 0.0)||('and', '', '', '', 0.0)||('inconsistent', 'adj', 'C0442809', ['qlco'], 0.0)||('but', '', '', '', 0.0)||('suggestive', '', '', '', 0.0)||('evidence', 'noun', 'C0332120', ['ftcn'], 0.0)||('for', '', '', '', 0.0)||('a', '', '', '', 0.0)||('protective', '', '', '', 0.0)||('effect', 'noun', 'C1280500', ['qlco'], 0.0)||('of', '', '', '', 0.0)||('activity', 'noun', 'C0441655', ['acty'], 0.0)||('in', '', '', '', 0.0)||('childhood', 'noun', 'C0231335', ['tmco'], 0.0)||('on', '', '', '', 0.0)||('later', '', '', '', 0.0)||('fatness', 'noun', 'C0235433', ['fndg'], 0.0)||('.', '', '', '', 0.0)||
('no', '', '', '', 0.0)||('clear', 'adj', 'C0522503', ['qlco'], 0.0)||('evidence', 'noun', 'C0332120', ['ftcn'], 0.0)||('for', '', '', '', 0.0)||('an', '', '', '', 0.0)||('effect', 'noun', 'C1280500', ['qlco'], 0.0)||('of', '', '', '', 0.0)||('infant', 'noun', 'C0021270', ['aggp'], 0.0)||('feeding', 'noun', 'C0204695', ['hlca'], 0.0)||('on', '', '', '', 0.0)||('later', '', '', '', 0.0)||('fatness', 'noun', 'C0235433', ['fndg'], 0.0)||('emerged', '', '', '', 0.0)||(',', '', '', '', 0.0)||('but', '', '', '', 0.0)||('follow - up', '', '', '', 0.0)||('to', '', '', '', 0.0)||('adulthood', 'noun', 'C0700597', ['tmco'], 0.0)||('was', '', '', '', 0.0)||('rare', 'adj', 'C0521114', ['tmco'], 0.0)||(',', '', '', '', 0.0)||('with', '', '', '', 0.0)||('only', '', '', '', 0.0)||('one', 'adv', 'C0205447', ['qnco'], 0.0)||('study', 'noun', 'C0008976', ['resa'], 0.0)||('measuring', 'adj', 'C0242485', ['ftcn'], 0.0)||('fatness', 'noun', 'C0235433', ['fndg'], 0.0)||('after', '', '', '', 0.0)||('7y', '', '', '', 0.0)||('.', '', '', '', 0.0)||
('studies', '', '', '', 0.0)||('investigating', '', '', '', 0.0)||('diet', 'noun', 'C0012155', ['food'], 0.0)||('in', '', '', '', 0.0)||('childhood', 'noun', 'C0231335', ['tmco'], 0.0)||('were', '', '', '', 0.0)||('limited', 'verb', 'C0439801', ['ftcn'], 0.0)||('and', '', '', '', 0.0)||('inconc', '', '', '', 0.0)||
