('the', '', '', '', 0.0)||('prevalence', 'noun', 'C0033105', ['qnco'], 0.0)||('of', '', '', '', 0.0)||('adiposity', 'noun', 'C0028754', ['dsyn'], 0.0)||('in', '', '', '', 0.0)||('childhood', 'noun', 'C0231335', ['tmco'], 0.0)||('is', '', '', '', 0.0)||('increasing', 'verb', 'C0442808', ['ftcn'], 0.0)||('.', '', '', '', 0.0)||
('is', '', '', '', 0.0)||('breast - feeding', '', '', '', 0.0)||('protective', '', '', '', 0.0)||('as', '', '', '', 0.0)||('suggested', '', '', '', 0.0)||('by', '', '', '', 0.0)||('cross - sectional studies', '', '', '', 0.0)||('?', '', '', '', 0.0)||
('in', '', '', '', 0.0)||('a', '', '', '', 0.0)||('longitudinal', 'adj', 'C0205127', ['spco'], 0.0)||('birth', 'noun', 'C0005615', ['orgf'], 0.0)||('cohort study', 'noun', 'C0009247', ['qnco'], 0.0)||(',', '', '', '', 0.0)||('we', '', '', '', 0.0)||('tested', '', '', '', 0.0)||('whether', '', '', '', 0.0)||('breast - feeding', '', '', '', 0.0)||('for', '', '', '', 0.0)||('more', '', '', '', 0.0)||('than', '', '', '', 0.0)||('2', '', '', '', 0.0)||('months', 'noun', 'C0439231', ['tmco'], 0.0)||('has', '', '', '', 0.0)||('preventive', 'adj', 'C1456501', ['qlco'], 0.0)||('effects', '', '', '', 0.0)||('against', '', '', '', 0.0)||('overweight', 'noun', 'C0497406', ['sosy'], 0.0)||('and', '', '', '', 0.0)||('adiposity', 'noun', 'C0028754', ['dsyn'], 0.0)||('at', '', '', '', 0.0)||('6', '', '', '', 0.0)||('y', '', '', '', 0.0)||('.', '', '', '', 0.0)||
('of', '', '', '', 0.0)||('1314', '', '', '', 0.0)||('children', 'noun', 'C0008059', ['aggp'], 0.0)||('representing', '', '', '', 0.0)||('the', '', '', '', 0.0)||('catchment areas', '', '', '', 0.0)||('of', '', '', '', 0.0)||('six', '', 'C0205452', ['qnco'], 0.0)||('delivery', 'noun', 'C0011209', ['topp'], 0.0)||('units', 'noun', 'C0439148', ['qnco'], 0.0)||(',', '', '', '', 0.0)||('918', '', '', '', 0.0)||('could', '', '', '', 0.0)||('be', '', '', '', 0.0)||('followed', '', '', '', 0.0)||('up to', '', '', '', 0.0)||('the', '', '', '', 0.0)||('age', 'noun', 'C0001779', ['orga'], 0.0)||('of', '', '', '', 0.0)||('6', '', '', '', 0.0)||('y', '', '', '', 0.0)||('.', '', '', '', 0.0)||
('height', 'noun', 'C0489786', ['orga'], 0.0)||(',', '', '', '', 0.0)||('weight', 'noun', 'C0005910', ['orga'], 0.0)||(',', '', '', '', 0.0)||('and', '', '', '', 0.0)||('skin - fold thickness', '', '', '', 0.0)||('were', '', '', '', 0.0)||('measured', 'verb', 'C0444706', ['qlco'], 0.0)||('at', '', '', '', 0.0)||('regular', 'adj', 'C0205272', ['qlco'], 0.0)||('visits', 'noun', 'C0545082', ['bhvr'], 0.0)||('.', '', '', '', 0.0)||
('as', '', '', '', 0.0)||('the', '', '', '', 0.0)||('criteria', 'noun', 'C0243161', ['inpr'], 0.0)||('of', '', '', '', 0.0)||('overweight', 'noun', 'C0497406', ['sosy'], 0.0)||(',', '', '', '', 0.0)||('obesity', 'noun', 'C0028754', ['dsyn'], 0.0)||(',', '', '', '', 0.0)||('and', '', '', '', 0.0)||('adiposity', 'noun', 'C0028754', ['dsyn'], 0.0)||('in', '', '', '', 0.0)||('the', '', '', '', 0.0)||('children', 'noun', 'C0008059', ['aggp'], 0.0)||(',', '', '', '', 0.0)||('the', '', '', '', 0.0)||('90th', '', '', '', 0.0)||('and', '', '', '', 0.0)||('the', '', '', '', 0.0)||('97th', '', '', '', 0.0)||('percentiles', '', '', '', 0.0)||('of', '', '', '', 0.0)||('bmi', 'noun', 'C1305855', ['clna'], 0.0)||('and', '', '', '', 0.0)||('skin - fold', '', '', '', 0.0)||('values', 'noun', 'C0042295', ['qlco'], 0.0)||('were', '', '', '', 0.0)||('used', '', '', '', 0.0)||('.', '', '', '', 0.0)||
('parents', 'noun', 'C0030551', ['famg'], 0.0)||('with', '', '', '', 0.0)||('a', '', '', '', 0.0)||('bmi', 'noun', 'C1305855', ['clna'], 0.0)||('at', '', '', '', 0.0)||('or', '', '', '', 0.0)||('above', '', '', '', 0.0)||('the', '', '', '', 0.0)||('90th', '', '', '', 0.0)||('percentile', 'noun', 'C1264641', ['qnco'], 0.0)||(',', '', '', '', 0.0)||('which', '', '', '', 0.0)||('was', '', '', '', 0.0)||('27', '', '', '', 0.0)||('kg', 'noun', 'C0022718', ['geoa'], 0.0)||('/', '', '', '', 0.0)||('m (', '', '', '', 0.0)||('2', '', '', '', 0.0)||(')', '', '', '', 0.0)||('or', '', '', '', 0.0)||('more', '', '', '', 0.0)||(',', '', '', '', 0.0)||('were', '', '', '', 0.0)||('considered', '', '', '', 0.0)||('overweight', 'noun', 'C0497406', ['sosy'], 0.0)||('.', '', '', '', 0.0)||
('infants', 'noun', 'C0021270', ['aggp'], 0.0)||('bottle - fed', '', '', '', 0.0)||('from', '', '', '', 0.0)||('birth', 'noun', 'C0005615', ['orgf'], 0.0)||('or', '', '', '', 0.0)||('breast - fed', '', '', '', 0.0)||('for', '', '', '', 0.0)||('less', '', '', '', 0.0)||('than', '', '', '', 0.0)||('3', '', '', '', 0.0)||('months', 'noun', 'C0439231', ['tmco'], 0.0)||('were', '', '', '', 0.0)||('classified', 'verb', 'C0008902', ['clas'], 0.0)||('as', '', '', '', 0.0)||("'", '', '', '', 0.0)||('bottle - fed', '', '', '', 0.0)||("'", '', '', '', 0.0)||('(', '', '', '', 0.0)||('bo', '', '', '', 0.0)||(')', '', '', '', 0.0)||(',', '', '', '', 0.0)||('and', '', '', '', 0.0)||('those', '', '', '', 0.0)||('breast - fed', '', '', '', 0.0)||('for', '', '', '', 0.0)||('3', '', '', '', 0.0)||('months', 'noun', 'C0439231', ['tmco'], 0.0)||('and', '', '', '', 0.0)||('more', '', '', '', 0.0)||('as', '', '', '', 0.0)||("'", '', '', '', 0.0)||('breast - fed', '', '', '', 0.0)||("'", '', '', '', 0.0)||('(', '', '', '', 0.0)||('br', '', '', '', 0.0)||(')', '', '', '', 0.0)||('.', '', '', '', 0.0)||
('univariate', '', '', '', 0.0)||('comparisons', '', '', '', 0.0)||('and', '', '', '', 0.0)||('logistic regression', 'noun', 'C0206031', ['resa'], 0.0)||('analysis', 'noun', 'C0002778', ['lbpr'], 0.0)||('were', '', '', '', 0.0)||('performed', 'verb', 'C0884358', ['ftcn'], 0.0)||('applying', 'verb', 'C0185125', ['hlca'], 0.0)||('sas', 'noun', 'C0605290', ['orch'], 0.0)||('6 . 12', '', '', '', 0.0)||('.', '', '', '', 0.0)||
('the', '', '', '', 0.0)||('final', 'adj', 'C0205088', ['tmco'], 0.0)||('logistic', '', '', '', 0.0)||('model', '', '', '', 0.0)||('consisted', '', '', '', 0.0)||('of', '', '', '', 0.0)||('the', '', '', '', 0.0)||('480', '', '', '', 0.0)||('cases', 'noun', 'C0868928', ['ftcn'], 0.0)||('for', '', '', '', 0.0)||('whom', '', '', '', 0.0)||('complete', 'verb', 'C0205197', ['qlco'], 0.0)||('data', 'noun', 'C1511726', ['idcn'], 0.0)||('for', '', '', '', 0.0)||('all', '', '', '', 0.0)||('variables', '', '', '', 0.0)||('were', '', '', '', 0.0)||('available', 'adj', 'C0470187', ['ftcn'], 0.0)||('.', '', '', '', 0.0)||
('the', '', '', '', 0.0)||('potential', 'adj', 'C0035647', ['qlco'], 0.0)||('effect', 'noun', 'C1280500', ['qlco'], 0.0)||('of', '', '', '', 0.0)||('loss', 'noun', 'C1517945', ['qnco'], 0.0)||('to', '', '', '', 0.0)||('follow - up', '', '', '', 0.0)||('was', '', '', '', 0.0)||('analysed', '', '', '', 0.0)||('by', '', '', '', 0.0)||('the', '', '', '', 0.0)||('cochran', '', '', '', 0.0)||('-', '', '', '', 0.0)||('mantel', '', '', '', 0.0)||('-', '', '', '', 0.0)||('haenzel', '', '', '', 0.0)||('test', 'noun', 'C0022885', ['lbpr'], 0.0)||(':', '', '', '', 0.0)||('the', '', '', '', 0.0)||('outcomes', 'noun', 'C0085415', ['qlco'], 0.0)||('were', '', '', '', 0.0)||('not', 'adv', 'C1518422', ['ftcn'], 0.0)||('significantly', '', '', '', 0.0)||('influenced', '', '', '', 0.0)||('by', '', '', '', 0.0)||('loss', 'noun', 'C1517945', ['qnco'], 0.0)||('to', '', '', '', 0.0)||('follow - up', '', '', '', 0.0)||('.', '', '', '', 0.0)||
('at', '', '', '', 0.0)||('birth', 'noun', 'C0005615', ['orgf'], 0.0)||('bmis', '', '', '', 0.0)||('were', '', '', '', 0.0)||('nearly', '', '', '', 0.0)||('identical', 'adj', 'C0205280', ['qlco'], 0.0)||('in', '', '', '', 0.0)||('both', '', '', '', 0.0)||('groups', 'noun', 'C0441833', ['idcn'], 0.0)||('.', '', '', '', 0.0)||
('by', '', '', '', 0.0)||('3', '', '', '', 0.0)||('months', 'noun', 'C0439231', ['tmco'], 0.0)||(',', '', '', '', 0.0)||('bo', '', '', '', 0.0)||('had', '', '', '', 0.0)||('significantly', '', '', '', 0.0)||('higher', '', '', '', 0.0)||('bmis', '', '', '', 0.0)||('and', '', '', '', 0.0)||('thicker', '', '', '', 0.0)||('skin folds', '', '', '', 0.0)||('than', '', '', '', 0.0)||('br', '', '', '', 0.0)||('.', '', '', '', 0.0)||
('from', '', '', '', 0.0)||('6', '', '', '', 0.0)||('months', 'noun', 'C0439231', ['tmco'], 0.0)||('on', '', '', '', 0.0)||(',', '', '', '', 0.0)||('compared', 'verb', 'C1707455', ['acty'], 0.0)||('to', '', '', '', 0.0)||('br', '', '', '', 0.0)||(',', '', '', '', 0.0)||('a', '', '', '', 0.0)||('consistently', '', '', '', 0.0)||('higher', '', '', '', 0.0)||('proportion', 'noun', 'C1709707', ['qnco'], 0.0)||('of', '', '', '', 0.0)||('bo', '', '', '', 0.0)||('children', 'noun', 'C0008059', ['aggp'], 0.0)||('exceeded', '', '', '', 0.0)||('the', '', '', '', 0.0)||('90th', '', '', '', 0.0)||('and', '', '', '', 0.0)||('the', '', '', '', 0.0)||('97th', '', '', '', 0.0)||('percentile', 'noun', 'C1264641', ['qnco'], 0.0)||('of', '', '', '', 0.0)||('bmi', 'noun', 'C1305855', ['clna'], 0.0)||('and', '', '', '', 0.0)||('skin - fold thickness', '', '', '', 0.0)||('reference values', 'noun', 'C0034926', ['qnco'], 0.0)||('.', '', '', '', 0.0)||
('from', '', '', '', 0.0)||('the', '', '', '', 0.0)||('age', 'noun', 'C0001779', ['orga'], 0.0)||('of', '', '', '', 0.0)||('4', '', '', '', 0.0)||('y', '', '', '', 0.0)||('to', '', '', '', 0.0)||('5', '', '', '', 0.0)||('and', '', '', '', 0.0)||('6', '', '', '', 0.0)||('y', '', '', '', 0.0)||(',', '', '', '', 0.0)||('in', '', '', '', 0.0)||('bo', '', '', '', 0.0)||('the', '', '', '', 0.0)||('prevalence', 'noun', 'C0033105', ['qnco'], 0.0)||('of', '', '', '', 0.0)||('obesity', 'noun', 'C0028754', ['dsyn'], 0.0)||('nearly', '', '', '', 0.0)||('doubled', '', '', '', 0.0)||('and', '', '', '', 0.0)||('tripled', '', '', '', 0.0)||(',', '', '', '', 0.0)||('respectively', '', '', '', 0.0)||('.', '', '', '', 0.0)||
('with', '', '', '', 0.0)||('only', '', '', '', 0.0)||('minor', 'adj', 'C0026193', ['popg'], 0.0)||('changes', '', '', '', 0.0)||('of', '', '', '', 0.0)||('obesity', 'noun', 'C0028754', ['dsyn'], 0.0)||('prevalence', 'noun', 'C0033105', ['qnco'], 0.0)||('in', '', '', '', 0.0)||('br', '', '', '', 0.0)||(',', '', '', '', 0.0)||('the', '', '', '', 0.0)||('difference', 'noun', 'C1705242', ['qlco'], 0.0)||('of', '', '', '', 0.0)||('bmi', 'noun', 'C1305855', ['clna'], 0.0)||('and', '', '', '', 0.0)||('skin - fold thickness', '', '', '', 0.0)||('between', '', '', '', 0.0)||('groups', 'noun', 'C0441833', ['idcn'], 0.0)||('became', '', '', '', 0.0)||('statistically significant', 'adj', 'C0237881', ['qnco'], 0.0)||('.', '', '', '', 0.0)||
('logistic regression', 'noun', 'C0206031', ['resa'], 0.0)||('analysis', 'noun', 'C0002778', ['lbpr'], 0.0)||('revealed', 'verb', 'C0443289', ['qlco'], 0.0)||('that', '', '', '', 0.0)||('overweight', 'noun', 'C0497406', ['sosy'], 0.0)||('of', '', '', '', 0.0)||('the', '', '', '', 0.0)||('mother', 'noun', 'C0026591', ['famg'], 0.0)||(',', '', '', '', 0.0)||('maternal', 'adj', 'C1858460', ['clna'], 0.0)||('smoking', 'noun', 'C0037369', ['inbe'], 0.0)||('during', '', '', '', 0.0)||('pregnancy', 'noun', 'C0032961', ['orgf'], 0.0)||(',', '', '', '', 0.0)||('bottle feeding', 'noun', 'C0006042', ['topp'], 0.0)||(',', '', '', '', 0.0)||('and', '', '', '', 0.0)||('low', 'adj', 'C0205251', ['qlco'], 0.0)||('social status', 'noun', 'C0699806', ['qlco'], 0.0)||('remained', '', '', '', 0.0)||('important', '', '', '', 0.0)||('risk factors', 'noun', 'C0035648', ['qnco'], 0.0)||('for', '', '', '', 0.0)||('overweight', 'noun', 'C0497406', ['sosy'], 0.0)||('and', '', '', '', 0.0)||('adiposity', 'noun', 'C0028754', ['dsyn'], 0.0)||('at', '', '', '', 0.0)||('6', '', '', '', 0.0)||('y', '', '', '', 0.0)||('of', '', '', '', 0.0)||('age', 'noun', 'C0001779', ['orga'], 0.0)||('.', '', '', '', 0.0)||
('a', '', '', '', 0.0)||('maternal', 'adj', 'C1858460', ['clna'], 0.0)||('bmi', 'noun', 'C1305855', ['clna'], 0.0)||('of', '', '', '', 0.0)||('>', '', '', '', 0.0)||('or', '', '', '', 0.0)||('=', '', '', '', 0.0)||('27', '', '', '', 0.0)||(',', '', '', '', 0.0)||('bottle - feeding', '', '', '', 0.0)||(',', '', '', '', 0.0)||('maternal', 'adj', 'C1858460', ['clna'], 0.0)||('smoking', 'noun', 'C0037369', ['inbe'], 0.0)||('during', '', '', '', 0.0)||('pregnancy', 'noun', 'C0032961', ['orgf'], 0.0)||(',', '', '', '', 0.0)||('and', '', '', '', 0.0)||('low', 'adj', 'C0205251', ['qlco'], 0.0)||('social status', 'noun', 'C0699806', ['qlco'], 0.0)||('are', '', '', '', 0.0)||('risk factors', 'noun', 'C0035648', ['qnco'], 0.0)||('for', '', '', '', 0.0)||('overweight', 'noun', 'C0497406', ['sosy'], 0.0)||('and', '', '', '', 0.0)||('adiposity', 'noun', 'C0028754', ['dsyn'], 0.0)||('at', '', '', '', 0.0)||('6', '', '', '', 0.0)||('y', '', '', '', 0.0)||('of', '', '', '', 0.0)||('age', 'noun', 'C0001779', ['orga'], 0.0)||('.', '', '', '', 0.0)||
('early', 'adj', 'C1279919', ['tmco'], 0.0)||('bottle - feeding', '', '', '', 0.0)||('brings', '', '', '', 0.0)||('forward', 'verb', 'C0439780', ['spco'], 0.0)||('the', '', '', '', 0.0)||('obesity', 'noun', 'C0028754', ['dsyn'], 0.0)||('rebound', '', '', '', 0.0)||(',', '', '', '', 0.0)||('predictive', 'adj', 'C0681890', ['qlco'], 0.0)||('of', '', '', '', 0.0)||('obesity', 'noun', 'C0028754', ['dsyn'], 0.0)||('in', '', '', '', 0.0)||('later', '', '', '', 0.0)||('life', 'noun', 'C0376558', ['idcn'], 0.0)||('.', '', '', '', 0.0)||
