('to', '', '', '', 0.0)||('review', 'verb', 'C0282443', ['inpr'], 0.0)||('the', '', '', '', 0.0)||('literature', 'noun', 'C0023866', ['inpr'], 0.0)||('on', '', '', '', 0.0)||('the', '', '', '', 0.0)||('association', 'noun', 'C0004083', ['menp'], 0.0)||('between', '', '', '', 0.0)||('birthweight', 'noun', 'C0005612', ['orga'], 0.0)||('and', '', '', '', 0.0)||('body mass index', 'noun', 'C0005893', ['diap'], 0.0)||('and', '', '', '', 0.0)||('obesity', 'noun', 'C0028754', ['dsyn'], 0.0)||('in', '', '', '', 0.0)||('later', '', '', '', 0.0)||('life', 'noun', 'C0376558', ['idcn'], 0.0)||('.', '', '', '', 0.0)||
('included', '', '', '', 0.0)||('in', '', '', '', 0.0)||('the', '', '', '', 0.0)||('review', 'noun', 'C0282443', ['inpr'], 0.0)||('were', '', '', '', 0.0)||('papers', 'noun', 'C0030351', ['mnob'], 0.0)||('appearing', '', '', '', 0.0)||('in', '', '', '', 0.0)||('medline', 'noun', 'C0025141', ['inpr'], 0.0)||('since', '', '', '', 0.0)||('1966', '', '', '', 0.0)||('and', '', '', '', 0.0)||('identified', 'verb', 'C0205396', ['qlco'], 0.0)||('using', 'verb', 'C1524063', ['ftcn'], 0.0)||('the', '', '', '', 0.0)||('search', 'noun', 'C1552603', ['idcn'], 0.0)||('terms', '', '', '', 0.0)||('obesity', 'noun', 'C0028754', ['dsyn'], 0.0)||(',', '', '', '', 0.0)||('body fat', 'noun', 'C0344335', ['clna'], 0.0)||(',', '', '', '', 0.0)||('waist', 'noun', 'C0230097', ['blor'], 0.0)||(',', '', '', '', 0.0)||('body constitution', 'noun', 'C0005886', ['orga', 'qnco'], 0.0)||(',', '', '', '', 0.0)||('birthweight', 'noun', 'C0005612', ['orga'], 0.0)||('and', '', '', '', 0.0)||('birth weight', 'noun', 'C0005612', ['orga'], 0.0)||('.', '', '', '', 0.0)||
('further', 'adj', 'C1517331', ['spco'], 0.0)||('papers', 'noun', 'C0030351', ['mnob'], 0.0)||('were', '', '', '', 0.0)||('identified', 'verb', 'C0205396', ['qlco'], 0.0)||('by', '', '', '', 0.0)||('examining', 'adj', 'C2004054', ['acty'], 0.0)||('bibliographies', '', '', '', 0.0)||('.', '', '', '', 0.0)||
('there', '', '', '', 0.0)||('is', '', '', '', 0.0)||('good', 'adj', 'C0205170', ['qlco'], 0.0)||('evidence', 'noun', 'C0332120', ['ftcn'], 0.0)||('that', '', '', '', 0.0)||('there', '', '', '', 0.0)||('is', '', '', '', 0.0)||('an', '', '', '', 0.0)||('association', 'noun', 'C0004083', ['menp'], 0.0)||('between', '', '', '', 0.0)||('birthweight', 'noun', 'C0005612', ['orga'], 0.0)||('and', '', '', '', 0.0)||('subsequent', 'adj', 'C0332282', ['tmco'], 0.0)||('birthweight', 'noun', 'C0005612', ['orga'], 0.0)||('and', '', '', '', 0.0)||('body mass index', 'noun', 'C0005893', ['diap'], 0.0)||('and', '', '', '', 0.0)||('overweight', 'noun', 'C0497406', ['sosy'], 0.0)||('in', '', '', '', 0.0)||('young adults', 'noun', 'C0238598', ['aggp'], 0.0)||('and', '', '', '', 0.0)||('children', 'noun', 'C0008059', ['aggp'], 0.0)||(',', '', '', '', 0.0)||('which', '', '', '', 0.0)||('is', '', '', '', 0.0)||('linear', 'adj', 'C0205132', ['spco'], 0.0)||('and', '', '', '', 0.0)||('positive', 'noun', 'C1446409', ['qlco'], 0.0)||('in', '', '', '', 0.0)||('some', '', '', '', 0.0)||('studies', '', '', '', 0.0)||('and', '', '', '', 0.0)||('j', '', '', '', 0.0)||('-', '', '', '', 0.0)||('or', '', '', '', 0.0)||('u - shaped', '', '', '', 0.0)||('in', '', '', '', 0.0)||('others', 'noun', 'C1955473', ['fndg'], 0.0)||('.', '', '', '', 0.0)||
('the', '', '', '', 0.0)||('evidence', 'noun', 'C0332120', ['ftcn'], 0.0)||('is', '', '', '', 0.0)||('less', '', '', '', 0.0)||('strong', 'adj', 'C0442821', ['qlco'], 0.0)||('for', '', '', '', 0.0)||('middle - aged', '', '', '', 0.0)||('subjects', '', '', '', 0.0)||('.', '', '', '', 0.0)||
('studies', '', '', '', 0.0)||('that', '', '', '', 0.0)||('have', '', '', '', 0.0)||('assessed', 'adj', 'C1516048', ['acty'], 0.0)||('lean body mass', 'noun', 'C0424678', ['clna'], 0.0)||('and', '', '', '', 0.0)||('fat', 'noun', 'C0424612', ['orga'], 0.0)||('body mass', 'noun', 'C0518010', ['fndg'], 0.0)||('have', '', '', '', 0.0)||('tended', '', '', '', 0.0)||('to', '', '', '', 0.0)||('find', 'verb', 'C0243095', ['fndg'], 0.0)||('that', '', '', '', 0.0)||('birthweight', 'noun', 'C0005612', ['orga'], 0.0)||('is', '', '', '', 0.0)||('positively', '', '', '', 0.0)||('associated', 'verb', 'C0332281', ['qlco'], 0.0)||('with', '', '', '', 0.0)||('lean body mass', 'noun', 'C0424678', ['clna'], 0.0)||('and', '', '', '', 0.0)||('negatively', '', '', '', 0.0)||('associated', 'verb', 'C0332281', ['qlco'], 0.0)||('with', '', '', '', 0.0)||('relative', 'adj', 'C0080103', ['famg'], 0.0)||('adiposity', 'noun', 'C0028754', ['dsyn'], 0.0)||('.', '', '', '', 0.0)||
('this', '', '', '', 0.0)||('suggests', '', '', '', 0.0)||('that', '', '', '', 0.0)||('the', '', '', '', 0.0)||('association', 'noun', 'C0004083', ['menp'], 0.0)||('between', '', '', '', 0.0)||('birthweight', 'noun', 'C0005612', ['orga'], 0.0)||('and', '', '', '', 0.0)||('birthweight', 'noun', 'C0005612', ['orga'], 0.0)||('and', '', '', '', 0.0)||('body mass index', 'noun', 'C0005893', ['diap'], 0.0)||('/', '', '', '', 0.0)||('overweight', 'noun', 'C0497406', ['sosy'], 0.0)||('does', '', '', '', 0.0)||('not', 'adv', 'C1518422', ['ftcn'], 0.0)||('necessarily', '', '', '', 0.0)||('reflect', '', '', '', 0.0)||('increased', 'adj', 'C0205217', ['qnco'], 0.0)||('adiposity', 'noun', 'C0028754', ['dsyn'], 0.0)||('at', '', '', '', 0.0)||('higher', '', '', '', 0.0)||('birthweights', '', '', '', 0.0)||('.', '', '', '', 0.0)||
('on', '', '', '', 0.0)||('controlling', 'noun', 'C2239193', ['phpr'], 0.0)||('for', '', '', '', 0.0)||('current', 'adj', 'C0521116', ['tmco'], 0.0)||('body mass', 'noun', 'C0518010', ['fndg'], 0.0)||('there', '', '', '', 0.0)||('is', '', '', '', 0.0)||('fairly', '', '', '', 0.0)||('consistent', 'adj', 'C0332290', ['idcn'], 0.0)||('evidence', 'noun', 'C0332120', ['ftcn'], 0.0)||('of', '', '', '', 0.0)||('a', '', '', '', 0.0)||('negative association', '', '', '', 0.0)||('between', '', '', '', 0.0)||('birthweight', 'noun', 'C0005612', ['orga'], 0.0)||('and', '', '', '', 0.0)||('a', '', '', '', 0.0)||('central', 'adj', 'C0205099', ['spco'], 0.0)||('pattern', 'noun', 'C0449774', ['spco'], 0.0)||('of', '', '', '', 0.0)||('fat', 'noun', 'C0424612', ['orga'], 0.0)||('distribution', 'noun', 'C0520511', ['idcn'], 0.0)||('as', '', '', '', 0.0)||('measured', 'verb', 'C0444706', ['qlco'], 0.0)||('by', '', '', '', 0.0)||('central', 'adj', 'C0205099', ['spco'], 0.0)||(':', '', '', '', 0.0)||('peripheral', 'adj', 'C0205100', ['spco'], 0.0)||('skinfold', '', '', '', 0.0)||('ratios', 'noun', 'C0456603', ['qnco'], 0.0)||('.', '', '', '', 0.0)||
('it', '', '', '', 0.0)||('has', '', '', '', 0.0)||('been', '', '', '', 0.0)||('suggested', '', '', '', 0.0)||('that', '', '', '', 0.0)||('the', '', '', '', 0.0)||('prenatal', 'adj', 'C0033052', ['hlca'], 0.0)||('period', 'noun', 'C1948053', ['tmco'], 0.0)||('is', '', '', '', 0.0)||('a', '', '', '', 0.0)||("'", '', '', '', 0.0)||("critical ' period", '', '', '', 0.0)||('for', '', '', '', 0.0)||('the', '', '', '', 0.0)||('development', 'noun', 'C0020119', ['phsf'], 0.0)||('of', '', '', '', 0.0)||('adiposity', 'noun', 'C0028754', ['dsyn'], 0.0)||(',', '', '', '', 0.0)||('but', '', '', '', 0.0)||('it', '', '', '', 0.0)||('is', '', '', '', 0.0)||('unclear', '', '', '', 0.0)||('how', '', '', '', 0.0)||('far', '', '', '', 0.0)||('associations', 'noun', 'C0004083', ['menp'], 0.0)||('between', '', '', '', 0.0)||('birthweight', 'noun', 'C0005612', ['orga'], 0.0)||('and', '', '', '', 0.0)||('subsequent', 'adj', 'C0332282', ['tmco'], 0.0)||('body', 'noun', 'C0460148', ['anst'], 0.0)||('habitus', '', '', '', 0.0)||('are', '', '', '', 0.0)||('genetic', 'adj', 'C0314603', ['ftcn'], 0.0)||('in', '', '', '', 0.0)||('origin', 'noun', 'C0439659', ['tmco'], 0.0)||('and', '', '', '', 0.0)||('how', '', '', '', 0.0)||('far', '', '', '', 0.0)||('they', '', '', '', 0.0)||('result', 'verb', 'C1274040', ['ftcn'], 0.0)||('from', '', '', '', 0.0)||('intrauterine', 'adj', 'C0694756', ['bsoj'], 0.0)||("'", '', '', '', 0.0)||('programming', '', '', '', 0.0)||("'", '', '', '', 0.0)||('.', '', '', '', 0.0)||
('two', 'adj', 'C0205448', ['qnco'], 0.0)||('lines', 'noun', 'C1517938', ['nusq'], 0.0)||('of', '', '', '', 0.0)||('evidence', 'noun', 'C0332120', ['ftcn'], 0.0)||('would', '', '', '', 0.0)||('suggest', 'verb', 'C1705535', ['idcn'], 0.0)||('that', '', '', '', 0.0)||('the', '', '', '', 0.0)||('association', 'noun', 'C0004083', ['menp'], 0.0)||('is', '', '', '', 0.0)||('predominantly', '', '', '', 0.0)||('genetic', 'adj', 'C0314603', ['ftcn'], 0.0)||('.', '', '', '', 0.0)||
('studies', '', '', '', 0.0)||('of', '', '', '', 0.0)||('monozygotic twins', 'noun', 'C0041432', ['famg'], 0.0)||('have', '', '', '', 0.0)||('found', '', '', '', 0.0)||('environmentally', '', '', '', 0.0)||('determined', '', '', '', 0.0)||('differences', '', '', '', 0.0)||('in', '', '', '', 0.0)||('birthweight', 'noun', 'C0005612', ['orga'], 0.0)||('to', '', '', '', 0.0)||('be', '', '', '', 0.0)||('unrelated', 'verb', 'C0445356', ['fndg'], 0.0)||('to', '', '', '', 0.0)||('subsequent', 'adj', 'C0332282', ['tmco'], 0.0)||('birthweight', 'noun', 'C0005612', ['orga'], 0.0)||('and', '', '', '', 0.0)||('body mass index', 'noun', 'C0005893', ['diap'], 0.0)||(',', '', '', '', 0.0)||('and', '', '', '', 0.0)||('the', '', '', '', 0.0)||('association', 'noun', 'C0004083', ['menp'], 0.0)||('between', '', '', '', 0.0)||('birthweight', 'noun', 'C0005612', ['orga'], 0.0)||('and', '', '', '', 0.0)||('birthweight', 'noun', 'C0005612', ['orga'], 0.0)||('and', '', '', '', 0.0)||('body mass index', 'noun', 'C0005893', ['diap'], 0.0)||('is', '', '', '', 0.0)||('substantially', '', '', '', 0.0)||('reduced', 'verb', 'C0392756', ['qlco'], 0.0)||('on', '', '', '', 0.0)||('controlling', 'noun', 'C2239193', ['phpr'], 0.0)||('for', '', '', '', 0.0)||('parental', 'adj', 'C0030551', ['famg'], 0.0)||('birthweight', 'noun', 'C0005612', ['orga'], 0.0)||('and', '', '', '', 0.0)||('body mass index', 'noun', 'C0005893', ['diap'], 0.0)||('.', '', '', '', 0.0)||
('however', '', '', '', 0.0)||(',', '', '', '', 0.0)||('some', '', '', '', 0.0)||('evidence', 'noun', 'C0332120', ['ftcn'], 0.0)||('of', '', '', '', 0.0)||('an', '', '', '', 0.0)||('influence', '', '', '', 0.0)||('of', '', '', '', 0.0)||('intrauterine', 'adj', 'C0694756', ['bsoj'], 0.0)||('environment', 'noun', 'C0014406', ['spco'], 0.0)||('on', '', '', '', 0.0)||('later', '', '', '', 0.0)||('obesity', 'noun', 'C0028754', ['dsyn'], 0.0)||('comes', '', '', '', 0.0)||('from', '', '', '', 0.0)||('studies', '', '', '', 0.0)||('of', '', '', '', 0.0)||('subjects', '', '', '', 0.0)||('who', '', '', '', 0.0)||('were', '', '', '', 0.0)||('exposed', 'verb', 'C0332157', ['clna'], 0.0)||('in', '', '', '', 0.0)||('utero', '', '', '', 0.0)||('to', '', '', '', 0.0)||('the', '', '', '', 0.0)||('effects', '', '', '', 0.0)||('of', '', '', '', 0.0)||('diabetes', 'noun', 'C0011847', ['dsyn'], 0.0)||(',', '', '', '', 0.0)||('famine', 'noun', 'C0015619', ['phpr'], 0.0)||('conditions', '', '', '', 0.0)||('or', '', '', '', 0.0)||('smoking', 'noun', 'C0037369', ['inbe'], 0.0)||('.', '', '', '', 0.0)||
('the', '', '', '', 0.0)||('reasons', '', '', '', 0.0)||('for', '', '', '', 0.0)||('the', '', '', '', 0.0)||('positive', 'adj', 'C1446409', ['qlco'], 0.0)||('association', 'noun', 'C0004083', ['menp'], 0.0)||('between', '', '', '', 0.0)||('birthweight', 'noun', 'C0005612', ['orga'], 0.0)||('and', '', '', '', 0.0)||('birthweight', 'noun', 'C0005612', ['orga'], 0.0)||('and', '', '', '', 0.0)||('body mass index', 'noun', 'C0005893', ['diap'], 0.0)||('remain', '', '', '', 0.0)||('unclear', '', '', '', 0.0)||('.', '', '', '', 0.0)||
('more', '', '', '', 0.0)||('studies', '', '', '', 0.0)||('including', '', '', '', 0.0)||('accurate', 'adj', 'C0443131', ['qlco'], 0.0)||('measurement', 'noun', 'C0242485', ['ftcn'], 0.0)||('of', '', '', '', 0.0)||('body composition', 'noun', 'C0005885', ['orga'], 0.0)||('are', '', '', '', 0.0)||('needed', 'verb', 'C0027552', ['qlco'], 0.0)||('to', '', '', '', 0.0)||('assess', 'verb', 'C1516048', ['acty'], 0.0)||('how', '', '', '', 0.0)||('far', '', '', '', 0.0)||('this', '', '', '', 0.0)||('relation', 'noun', 'C0080103', ['famg'], 0.0)||('is', '', '', '', 0.0)||('accounted', '', '', '', 0.0)||('for', '', '', '', 0.0)||('by', '', '', '', 0.0)||('changes', '', '', '', 0.0)||('in', '', '', '', 0.0)||('fat', 'noun', 'C0424612', ['orga'], 0.0)||('mass', 'noun', 'C0577559', ['fndg'], 0.0)||('or', '', '', '', 0.0)||('by', '', '', '', 0.0)||('changes', '', '', '', 0.0)||('in', '', '', '', 0.0)||('lean', 'adj', 'C2709063', ['qlco'], 0.0)||('mass', 'noun', 'C0577559', ['fndg'], 0.0)||('.', '', '', '', 0.0)||
('studies', '', '', '', 0.0)||('with', '', '', '', 0.0)||('accurate', 'adj', 'C0443131', ['qlco'], 0.0)||('measures', 'noun', 'C0079809', ['qnco'], 0.0)||('of', '', '', '', 0.0)||('parental', 'adj', 'C0030551', ['famg'], 0.0)||('birthweight', 'noun', 'C0005612', ['orga'], 0.0)||('and', '', '', '', 0.0)||('body mass index', 'noun', 'C0005893', ['diap'], 0.0)||('would', '', '', '', 0.0)||('also', '', '', '', 0.0)||('be', '', '', '', 0.0)||('useful', '', '', '', 0.0)||('in', '', '', '', 0.0)||('assessing', 'noun', 'C1516048', ['acty'], 0.0)||('the', '', '', '', 0.0)||('importance', '', '', '', 0.0)||('of', '', '', '', 0.0)||('this', '', '', '', 0.0)||('confounder', '', '', '', 0.0)||('.', '', '', '', 0.0)||
