('the', '', '', '', 0.0)||('roots', 'noun', 'C0242726', ['plnt'], 0.0)||('of', '', '', '', 0.0)||('the', '', '', '', 0.0)||('obesity', 'noun', 'C0028754', ['dsyn'], 0.0)||('epidemic', 'adj', 'C0014499', ['phpr'], 0.0)||('need', 'noun', 'C0027552', ['qlco'], 0.0)||('to', '', '', '', 0.0)||('be', '', '', '', 0.0)||('traced', '', '', '', 0.0)||('back', '', '', '', 0.0)||('as', '', '', '', 0.0)||('early', 'adv', 'C1279919', ['tmco'], 0.0)||('in life', '', '', '', 0.0)||('as', '', '', '', 0.0)||('possible', 'adj', 'C0332149', ['qlco'], 0.0)||('in', '', '', '', 0.0)||('order', 'noun', 'C1705175', ['inpr'], 0.0)||('to', '', '', '', 0.0)||('develop', '', '', '', 0.0)||('effective', 'adj', 'C1704419', ['qlco'], 0.0)||('means', 'noun', 'C1704970', ['cnce'], 0.0)||('for', '', '', '', 0.0)||('preventing', 'adj', 'C1292733', ['ftcn'], 0.0)||('obesity', 'noun', 'C0028754', ['dsyn'], 0.0)||('and', '', '', '', 0.0)||('its', '', '', '', 0.0)||('health', 'noun', 'C0018684', ['idcn'], 0.0)||('consequences', '', '', '', 0.0)||('in', '', '', '', 0.0)||('the', '', '', '', 0.0)||('future', 'noun', 'C0016884', ['tmco'], 0.0)||('.', '', '', '', 0.0)||
('the', '', '', '', 0.0)||('aim', 'noun', 'C1947946', ['idcn'], 0.0)||('of', '', '', '', 0.0)||('this', '', '', '', 0.0)||('paper', 'noun', 'C0030351', ['mnob'], 0.0)||('is', '', '', '', 0.0)||('to', '', '', '', 0.0)||('examine', '', '', '', 0.0)||('a', '', '', '', 0.0)||('broad', 'adj', 'C0332464', ['spco'], 0.0)||('range', 'noun', 'C1514721', ['qnco'], 0.0)||('of', '', '', '', 0.0)||('factors', '', '', '', 0.0)||('that', '', '', '', 0.0)||('may', '', '', '', 0.0)||('simultaneously', '', '', '', 0.0)||('contribute', 'verb', 'C1880177', ['acty'], 0.0)||('to', '', '', '', 0.0)||('childhood', 'noun', 'C0231335', ['tmco'], 0.0)||('overweight', 'noun', 'C0497406', ['sosy'], 0.0)||('in', '', '', '', 0.0)||('a', '', '', '', 0.0)||('population - based', '', '', '', 0.0)||('cohort', 'noun', 'C0599755', ['popg'], 0.0)||('of', '', '', '', 0.0)||('children', 'noun', 'C0008059', ['aggp'], 0.0)||('followed', '', '', '', 0.0)||('from', '', '', '', 0.0)||('birth', 'noun', 'C0005615', ['orgf'], 0.0)||('to', '', '', '', 0.0)||('4 . 5', '', '', '', 0.0)||('years', 'noun', 'C0439234', ['tmco'], 0.0)||(',', '', '', '', 0.0)||('to', '', '', '', 0.0)||('determine', '', '', '', 0.0)||('which', '', '', '', 0.0)||('factors', '', '', '', 0.0)||('exert', '', '', '', 0.0)||('the', '', '', '', 0.0)||('most', '', '', '', 0.0)||('influence', '', '', '', 0.0)||('in', '', '', '', 0.0)||('early', 'adj', 'C1279919', ['tmco'], 0.0)||('life', 'noun', 'C0376558', ['idcn'], 0.0)||('.', '', '', '', 0.0)||
('the', '', '', '', 0.0)||('analyses', '', '', '', 0.0)||('were', '', '', '', 0.0)||('performed', 'verb', 'C0884358', ['ftcn'], 0.0)||('using', 'verb', 'C1524063', ['ftcn'], 0.0)||('data', 'noun', 'C1511726', ['idcn'], 0.0)||('from', '', '', '', 0.0)||('the', '', '', '', 0.0)||('quebec', 'noun', 'C0034390', ['geoa'], 0.0)||('longitudinal study', 'noun', 'C0023981', ['resa'], 0.0)||('of', '', '', '', 0.0)||('child', 'noun', 'C0008059', ['aggp'], 0.0)||('development', 'noun', 'C0020119', ['phsf'], 0.0)||('1998', '', '', '', 0.0)||('-', '', '', '', 0.0)||('2002', '', '', '', 0.0)||('.', '', '', '', 0.0)||
('the', '', '', '', 0.0)||('study', 'noun', 'C0008976', ['resa'], 0.0)||('follows', '', '', '', 0.0)||('a', '', '', '', 0.0)||('representative', 'adj', 'C1882932', ['acty'], 0.0)||('sample', 'noun', 'C0370003', ['sbst'], 0.0)||('(', '', '', '', 0.0)||('n =', '', '', '', 0.0)||('2103', '', '', '', 0.0)||(')', '', '', '', 0.0)||('of', '', '', '', 0.0)||('children', 'noun', 'C0008059', ['aggp'], 0.0)||('born', '', '', '', 0.0)||('in', '', '', '', 0.0)||('1998', '', '', '', 0.0)||('in', '', '', '', 0.0)||('the', '', '', '', 0.0)||('canadian', 'noun', 'C0238884', ['fndg'], 0.0)||('province', 'noun', 'C1514578', ['geoa'], 0.0)||('of', '', '', '', 0.0)||('quebec', 'noun', 'C0034390', ['geoa'], 0.0)||('.', '', '', '', 0.0)||
('measured', 'adj', 'C0444706', ['qlco'], 0.0)||('height', 'noun', 'C0489786', ['orga'], 0.0)||('and', '', '', '', 0.0)||('weight', 'noun', 'C0005910', ['orga'], 0.0)||('were', '', '', '', 0.0)||('available', 'adj', 'C0470187', ['ftcn'], 0.0)||('for', '', '', '', 0.0)||('1550', '', '', '', 0.0)||('children', 'noun', 'C0008059', ['aggp'], 0.0)||('aged', 'verb', 'C0001779', ['orga'], 0.0)||('4 . 5', '', '', '', 0.0)||('years', 'noun', 'C0439234', ['tmco'], 0.0)||('.', '', '', '', 0.0)||
('at', '', '', '', 0.0)||('4 . 5', '', '', '', 0.0)||('years', 'noun', 'C0439234', ['tmco'], 0.0)||(',', '', '', '', 0.0)||('bmi', 'noun', 'C1305855', ['clna'], 0.0)||('was', '', '', '', 0.0)||('analyzed', 'verb', 'C0936012', ['resa'], 0.0)||('using', 'verb', 'C1524063', ['ftcn'], 0.0)||('the', '', '', '', 0.0)||('us', '', '', '', 0.0)||('cdc', 'noun', 'C0007670', ['hcro'], 0.0)||('sex', 'noun', 'C0036864', ['bhvr'], 0.0)||('-', '', '', '', 0.0)||('and', '', '', '', 0.0)||('age - specific', '', '', '', 0.0)||('growth', 'noun', 'C0018270', ['orgf'], 0.0)||('charts', 'noun', 'C0007963', ['medd'], 0.0)||('.', '', '', '', 0.0)||
('in', '', '', '', 0.0)||('order', 'noun', 'C1705175', ['inpr'], 0.0)||('to', '', '', '', 0.0)||('study', 'verb', 'C0008976', ['resa'], 0.0)||('children', 'noun', 'C0008059', ['aggp'], 0.0)||('at', '', '', '', 0.0)||('their', '', '', '', 0.0)||('highest', 'adj', 'C1522410', ['qlco'], 0.0)||('weights', 'noun', 'C0043100', ['qnco'], 0.0)||('at', '', '', '', 0.0)||('various', 'adj', 'C0440102', ['irda'], 0.0)||('ages', '', '', '', 0.0)||(',', '', '', '', 0.0)||('odds ratios', 'noun', 'C0028873', ['qnco'], 0.0)||('were', '', '', '', 0.0)||('presented', 'verb', 'C0449450', ['idcn'], 0.0)||('for', '', '', '', 0.0)||('high', 'adj', 'C0205250', ['qlco'], 0.0)||('birth weight', 'noun', 'C0005612', ['orga'], 0.0)||(',', '', '', '', 0.0)||('weight', 'noun', 'C0005910', ['orga'], 0.0)||('-', '', '', '', 0.0)||('for', '', '', '', 0.0)||('-', '', '', '', 0.0)||('stature', 'noun', 'C0424639', ['fndg'], 0.0)||('at', '', '', '', 0.0)||('or', '', '', '', 0.0)||('above', '', '', '', 0.0)||('the', '', '', '', 0.0)||('95th', '', '', '', 0.0)||('percentile', 'noun', 'C1264641', ['qnco'], 0.0)||('at', '', '', '', 0.0)||('5', '', '', '', 0.0)||('months', 'noun', 'C0439231', ['tmco'], 0.0)||(',', '', '', '', 0.0)||('and', '', '', '', 0.0)||('bmi', 'noun', 'C1305855', ['clna'], 0.0)||('at', '', '', '', 0.0)||('or', '', '', '', 0.0)||('above', '', '', '', 0.0)||('the', '', '', '', 0.0)||('95th', '', '', '', 0.0)||('percentile', 'noun', 'C1264641', ['qnco'], 0.0)||('at', '', '', '', 0.0)||('4 . 5', '', '', '', 0.0)||('years', 'noun', 'C0439234', ['tmco'], 0.0)||('.', '', '', '', 0.0)||
('monthly', 'adv', 'C0332177', ['tmco'], 0.0)||('weight gain', 'noun', 'C0043094', ['fndg'], 0.0)||('between', '', '', '', 0.0)||('birth', 'noun', 'C0005615', ['orgf'], 0.0)||('and', '', '', '', 0.0)||('five', '', 'C0205451', ['qnco'], 0.0)||('months', 'noun', 'C0439231', ['tmco'], 0.0)||('has', '', '', '', 0.0)||('been', '', '', '', 0.0)||('analyzed', 'verb', 'C0936012', ['resa'], 0.0)||('.', '', '', '', 0.0)||
('children', 'noun', 'C0008059', ['aggp'], 0.0)||('were', '', '', '', 0.0)||('also', '', '', '', 0.0)||('evaluated', 'verb', 'C0220825', ['ftcn'], 0.0)||('by', '', '', '', 0.0)||('the', '', '', '', 0.0)||('z', '', '', '', 0.0)||('-', '', '', '', 0.0)||('score', 'noun', 'C0449820', ['qnco'], 0.0)||('obtained', 'verb', 'C1301820', ['ftcn'], 0.0)||('from', '', '', '', 0.0)||('the', '', '', '', 0.0)||('standardized', '', '', '', 0.0)||('weight', 'noun', 'C0005910', ['orga'], 0.0)||('divided', 'verb', 'C0332849', ['ftcn'], 0.0)||('by', '', '', '', 0.0)||('height', 'noun', 'C0489786', ['orga'], 0.0)||('.', '', '', '', 0.0)||
('factors', '', '', '', 0.0)||('potentially', '', '', '', 0.0)||('related', 'verb', 'C0439849', ['qlco'], 0.0)||('to', '', '', '', 0.0)||('children', 'noun', 'C0008059', ['aggp'], 0.0)||("' s", '', '', '', 0.0)||('weight', 'noun', 'C0005910', ['orga'], 0.0)||('include', 'verb', 'C1552866', ['idcn'], 0.0)||('sex', 'noun', 'C0036864', ['bhvr'], 0.0)||(',', '', '', '', 0.0)||('gestational age', 'noun', 'C0017504', ['orga'], 0.0)||('and', '', '', '', 0.0)||('birth', 'noun', 'C0005615', ['orgf'], 0.0)||('rank', 'noun', 'C0699794', ['inpr'], 0.0)||(',', '', '', '', 0.0)||('breastfeeding', 'verb', 'C0006147', ['orgf'], 0.0)||(',', '', '', '', 0.0)||('mothers', 'noun', 'C0026591', ['famg'], 0.0)||("'", '', '', '', 0.0)||('smoking', 'adj', 'C0037369', ['inbe'], 0.0)||('status', 'noun', 'C0449438', ['qlco'], 0.0)||('during', '', '', '', 0.0)||('pregnancy', 'noun', 'C0032961', ['orgf'], 0.0)||(',', '', '', '', 0.0)||('family', 'noun', 'C0015576', ['famg'], 0.0)||('type', 'noun', 'C0332307', ['qlco'], 0.0)||('at', '', '', '', 0.0)||('child', 'noun', 'C0008059', ['aggp'], 0.0)||("' s", '', '', '', 0.0)||('birth', 'noun', 'C0005615', ['orgf'], 0.0)||(',', '', '', '', 0.0)||('and', '', '', '', 0.0)||('family', 'noun', 'C0015576', ['famg'], 0.0)||('income', 'noun', 'C0021162', ['qnco'], 0.0)||('before', '', '', '', 0.0)||('pregnancy', 'noun', 'C0032961', ['orgf'], 0.0)||('and', '', '', '', 0.0)||('when', '', '', '', 0.0)||('the', '', '', '', 0.0)||('children', 'noun', 'C0008059', ['aggp'], 0.0)||('were', '', '', '', 0.0)||('5', '', '', '', 0.0)||('months', 'noun', 'C0439231', ['tmco'], 0.0)||('and', '', '', '', 0.0)||('4 . 5', '', '', '', 0.0)||('years', 'noun', 'C0439234', ['tmco'], 0.0)||('old', 'noun', 'C0580836', ['tmco'], 0.0)||('.', '', '', '', 0.0)||
('other', '', '', '', 0.0)||('parental', 'adj', 'C0030551', ['famg'], 0.0)||('factors', '', '', '', 0.0)||('such as', '', '', '', 0.0)||('height', 'noun', 'C0489786', ['orga'], 0.0)||('and', '', '', '', 0.0)||('overweight', 'noun', 'C0497406', ['sosy'], 0.0)||('/', '', '', '', 0.0)||('obesity', 'noun', 'C0028754', ['dsyn'], 0.0)||('(', '', '', '', 0.0)||('based', 'verb', 'C1527178', ['ftcn'], 0.0)||('on', '', '', '', 0.0)||('bmi', 'noun', 'C1305855', ['clna'], 0.0)||(')', '', '', '', 0.0)||('and', '', '', '', 0.0)||('other', '', '', '', 0.0)||('maternal', 'adj', 'C1858460', ['clna'], 0.0)||('factors', '', '', '', 0.0)||('(', '', '', '', 0.0)||('age', 'noun', 'C0001779', ['orga'], 0.0)||(',', '', '', '', 0.0)||('education', 'noun', 'C0013621', ['edac'], 0.0)||(',', '', '', '', 0.0)||('immigrant', 'adj', 'C0282163', ['popg'], 0.0)||('status', 'noun', 'C0449438', ['qlco'], 0.0)||(')', '', '', '', 0.0)||('were', '', '', '', 0.0)||('also', '', '', '', 0.0)||('part', 'noun', 'C0449719', ['spco'], 0.0)||('of', '', '', '', 0.0)||('the', '', '', '', 0.0)||('analysis', 'noun', 'C0002778', ['lbpr'], 0.0)||('.', '', '', '', 0.0)||
('being', '', '', '', 0.0)||('in', '', '', '', 0.0)||('the', '', '', '', 0.0)||('highest', 'adj', 'C1522410', ['qlco'], 0.0)||('quintiles', '', '', '', 0.0)||('of', '', '', '', 0.0)||('weight gain', 'noun', 'C0043094', ['fndg'], 0.0)||('between', '', '', '', 0.0)||('birth', 'noun', 'C0005615', ['orgf'], 0.0)||('and', '', '', '', 0.0)||('5', '', '', '', 0.0)||('months', 'noun', 'C0439231', ['tmco'], 0.0)||(',', '', '', '', 0.0)||('as well as', '', '', '', 0.0)||('maternal', 'adj', 'C1858460', ['clna'], 0.0)||('smoking', 'noun', 'C0037369', ['inbe'], 0.0)||('during', '', '', '', 0.0)||('pregnancy', 'noun', 'C0032961', ['orgf'], 0.0)||(',', '', '', '', 0.0)||('almost', '', '', '', 0.0)||('double', 'verb', 'C0205173', ['ftcn'], 0.0)||('the', '', '', '', 0.0)||('odds', '', '', '', 0.0)||('of', '', '', '', 0.0)||('being', '', '', '', 0.0)||('overweight', 'noun', 'C0497406', ['sosy'], 0.0)||('at', '', '', '', 0.0)||('4 . 5', '', '', '', 0.0)||('years', 'noun', 'C0439234', ['tmco'], 0.0)||('.', '', '', '', 0.0)||
('parental', 'adj', 'C0030551', ['famg'], 0.0)||('overweight', 'noun', 'C0497406', ['sosy'], 0.0)||('or', '', '', '', 0.0)||('obesity', 'noun', 'C0028754', ['dsyn'], 0.0)||('also', '', '', '', 0.0)||('increased', 'verb', 'C0205217', ['qnco'], 0.0)||('the', '', '', '', 0.0)||('odds', '', '', '', 0.0)||('of', '', '', '', 0.0)||('being', '', '', '', 0.0)||('overweight', 'noun', 'C0497406', ['sosy'], 0.0)||('at', '', '', '', 0.0)||('this', '', '', '', 0.0)||('age', 'noun', 'C0001779', ['orga'], 0.0)||(',', '', '', '', 0.0)||('as well as', '', '', '', 0.0)||('being', '', '', '', 0.0)||('raised', 'verb', 'C0442818', ['qnco'], 0.0)||('in', '', '', '', 0.0)||('middle', 'noun', 'C0444598', ['spco'], 0.0)||('-', '', '', '', 0.0)||('income', 'noun', 'C0021162', ['qnco'], 0.0)||('or', '', '', '', 0.0)||('in', '', '', '', 0.0)||('poor', 'adj', 'C0032854', ['grpa'], 0.0)||('families', 'noun', 'C0015576', ['famg'], 0.0)||('.', '', '', '', 0.0)||
('a', '', '', '', 0.0)||('greater', 'adj', 'C1704243', ['qnco'], 0.0)||('proportion', 'noun', 'C1709707', ['qnco'], 0.0)||('of', '', '', '', 0.0)||('children', 'noun', 'C0008059', ['aggp'], 0.0)||('born', '', '', '', 0.0)||('to', '', '', '', 0.0)||('nonsmoking', '', '', '', 0.0)||('mothers', 'noun', 'C0026591', ['famg'], 0.0)||('with', '', '', '', 0.0)||('higher', '', '', '', 0.0)||('weights', 'noun', 'C0043100', ['qnco'], 0.0)||('(', '', '', '', 0.0)||('more', '', '', '', 0.0)||('than', '', '', '', 0.0)||('4000', '', '', '', 0.0)||('g', '', '', '', 0.0)||(')', '', '', '', 0.0)||('were', '', '', '', 0.0)||('overweight', 'adj', 'C0497406', ['sosy'], 0.0)||('at', '', '', '', 0.0)||('4 . 5', '', '', '', 0.0)||('years', 'noun', 'C0439234', ['tmco'], 0.0)||(',', '', '', '', 0.0)||('the', '', '', '', 0.0)||('percentage', 'noun', 'C0439165', ['qnco'], 0.0)||('being', '', '', '', 0.0)||('greatest', 'adj', 'C0205393', ['qnco'], 0.0)||('for', '', '', '', 0.0)||('those', '', '', '', 0.0)||('in', '', '', '', 0.0)||('the', '', '', '', 0.0)||('highest', 'adj', 'C1522410', ['qlco'], 0.0)||('weight - gain', '', '', '', 0.0)||('categories', 'noun', 'C0683312', ['inpr'], 0.0)||('from', '', '', '', 0.0)||('birth', 'noun', 'C0005615', ['orgf'], 0.0)||('to', '', '', '', 0.0)||('5', '', '', '', 0.0)||('months', 'noun', 'C0439231', ['tmco'], 0.0)||('.', '', '', '', 0.0)||
('the', '', '', '', 0.0)||('pattern', 'noun', 'C0449774', ['spco'], 0.0)||('was', '', '', '', 0.0)||('different', 'adj', 'C1705242', ['qlco'], 0.0)||('for', '', '', '', 0.0)||('children', 'noun', 'C0008059', ['aggp'], 0.0)||('born', '', '', '', 0.0)||('to', '', '', '', 0.0)||('smoking', 'adj', 'C0037369', ['inbe'], 0.0)||('mothers', 'noun', 'C0026591', ['famg'], 0.0)||('.', '', '', '', 0.0)||
('the', '', '', '', 0.0)||('greatest', 'adj', 'C0205393', ['qnco'], 0.0)||('proportion', 'noun', 'C1709707', ['qnco'], 0.0)||('of', '', '', '', 0.0)||('4 . 5', '', '', '', 0.0)||('-', '', '', '', 0.0)||('year', 'noun', 'C0439234', ['tmco'], 0.0)||('-', '', '', '', 0.0)||('old', 'adj', 'C0580836', ['tmco'], 0.0)||('overweight', 'adj', 'C0497406', ['sosy'], 0.0)||('children', 'noun', 'C0008059', ['aggp'], 0.0)||('was', '', '', '', 0.0)||('seen', 'verb', 'C0205397', ['qlco'], 0.0)||('for', '', '', '', 0.0)||('children', 'noun', 'C0008059', ['aggp'], 0.0)||('born', '', '', '', 0.0)||('in', '', '', '', 0.0)||('the', '', '', '', 0.0)||('normal', 'adj', 'C0205307', ['qlco'], 0.0)||('weight', 'noun', 'C0005910', ['orga'], 0.0)||('-', '', '', '', 0.0)||('range', 'noun', 'C1514721', ['qnco'], 0.0)||('category', 'noun', 'C0683312', ['inpr'], 0.0)||('(', '', '', '', 0.0)||('3000', '', '', '', 0.0)||('-', '', '', '', 0.0)||('4000', '', '', '', 0.0)||('g', '', '', '', 0.0)||(')', '', '', '', 0.0)||('who', '', '', '', 0.0)||('were', '', '', '', 0.0)||('in', '', '', '', 0.0)||('the', '', '', '', 0.0)||('highest', 'adj', 'C1522410', ['qlco'], 0.0)||('quintiles', '', '', '', 0.0)||('of', '', '', '', 0.0)||('weight gain', 'noun', 'C0043094', ['fndg'], 0.0)||('from', '', '', '', 0.0)||('birth', 'noun', 'C0005615', ['orgf'], 0.0)||('to', '', '', '', 0.0)||('5', '', '', '', 0.0)||('months', 'noun', 'C0439231', ['tmco'], 0.0)||(',', '', '', '', 0.0)||('and', '', '', '', 0.0)||('for', '', '', '', 0.0)||('children', 'noun', 'C0008059', ['aggp'], 0.0)||('with', '', '', '', 0.0)||('high', 'adj', 'C0205250', ['qlco'], 0.0)||('birth weights', 'noun', 'C0005612', ['orga'], 0.0)||('(', '', '', '', 0.0)||('more', '', '', '', 0.0)||('than', '', '', '', 0.0)||('4000', '', '', '', 0.0)||('g', '', '', '', 0.0)||(')', '', '', '', 0.0)||('who', '', '', '', 0.0)||('were', '', '', '', 0.0)||('in', '', '', '', 0.0)||('the', '', '', '', 0.0)||('lowest', 'adj', 'C1708760', ['qlco'], 0.0)||('quintiles', '', '', '', 0.0)||('of', '', '', '', 0.0)||('birth', 'noun', 'C0005615', ['orgf'], 0.0)||('-', '', '', '', 0.0)||('to', '', '', '', 0.0)||('-', '', '', '', 0.0)||('5', '', '', '', 0.0)||('-', '', '', '', 0.0)||('months', 'noun', 'C0439231', ['tmco'], 0.0)||('weight gain', 'noun', 'C0043094', ['fndg'], 0.0)||('.', '', '', '', 0.0)||
('children', 'noun', 'C0008059', ['aggp'], 0.0)||('who', '', '', '', 0.0)||('were', '', '', '', 0.0)||('overweight', 'adj', 'C0497406', ['sosy'], 0.0)||('at', '', '', '', 0.0)||('4 . 5', '', '', '', 0.0)||('years', 'noun', 'C0439234', ['tmco'], 0.0)||('and', '', '', '', 0.0)||('who', '', '', '', 0.0)||('had', '', '', '', 0.0)||('been', '', '', '', 0.0)||('born', '', '', '', 0.0)||('to', '', '', '', 0.0)||('smoking', 'adj', 'C0037369', ['inbe'], 0.0)||('mothers', 'noun', 'C0026591', ['famg'], 0.0)||('started', 'verb', 'C1272689', ['qlco'], 0.0)||('life', 'noun', 'C0376558', ['idcn'], 0.0)||('with', '', '', '', 0.0)||('a', '', '', '', 0.0)||('birth weight', 'noun', 'C0005612', ['orga'], 0.0)||('around', '', '', '', 0.0)||('that', '', '', '', 0.0)||('for', '', '', '', 0.0)||('the', '', '', '', 0.0)||('population means', '', '', '', 0.0)||(',', '', '', '', 0.0)||('but', '', '', '', 0.0)||('they', '', '', '', 0.0)||('gained', '', '', '', 0.0)||('more', '', '', '', 0.0)||('weight', 'noun', 'C0005910', ['orga'], 0.0)||('in', '', '', '', 0.0)||('the', '', '', '', 0.0)||('first', 'noun', 'C0205435', ['qnco'], 0.0)||('5', '', '', '', 0.0)||('months', 'noun', 'C0439231', ['tmco'], 0.0)||('of', '', '', '', 0.0)||('life', 'noun', 'C0376558', ['idcn'], 0.0)||('than', '', '', '', 0.0)||('did', '', '', '', 0.0)||('the', '', '', '', 0.0)||('children', 'noun', 'C0008059', ['aggp'], 0.0)||('of', '', '', '', 0.0)||('nonsmoking', '', '', '', 0.0)||('mothers', 'noun', 'C0026591', ['famg'], 0.0)||('.', '', '', '', 0.0)||
('this', '', '', '', 0.0)||('study', 'noun', 'C0008976', ['resa'], 0.0)||('indicates', '', '', '', 0.0)||('that', '', '', '', 0.0)||('behavioral', 'adj', 'C0004927', ['inbe'], 0.0)||('and', '', '', '', 0.0)||('social factors', '', '', '', 0.0)||('exert', '', '', '', 0.0)||('critical', 'adj', 'C1511545', ['qlco'], 0.0)||('influences', '', '', '', 0.0)||('on', '', '', '', 0.0)||('the', '', '', '', 0.0)||('onset', 'noun', 'C0332162', ['qlco'], 0.0)||('of', '', '', '', 0.0)||('childhood', 'noun', 'C0231335', ['tmco'], 0.0)||('overweight', 'noun', 'C0497406', ['sosy'], 0.0)||('in', '', '', '', 0.0)||('preschool', 'noun', 'C0681405', ['fndg'], 0.0)||('years', 'noun', 'C0439234', ['tmco'], 0.0)||('.', '', '', '', 0.0)||
('from', '', '', '', 0.0)||('a', '', '', '', 0.0)||('population', 'noun', 'C0032659', ['qnco'], 0.0)||('-', '', '', '', 0.0)||('health', 'noun', 'C0018684', ['idcn'], 0.0)||('perspective', '', '', '', 0.0)||(',', '', '', '', 0.0)||('interventions', '', '', '', 0.0)||('aimed', '', '', '', 0.0)||('at', '', '', '', 0.0)||('preventing', 'adj', 'C1292733', ['ftcn'], 0.0)||('childhood', 'noun', 'C0231335', ['tmco'], 0.0)||('obesity', 'noun', 'C0028754', ['dsyn'], 0.0)||('would', '', '', '', 0.0)||('do', '', '', '', 0.0)||('well', 'adv', 'C0205170', ['qlco'], 0.0)||('to', '', '', '', 0.0)||('target', 'verb', 'C1521840', ['ftcn'], 0.0)||('smoking', 'adj', 'C0037369', ['inbe'], 0.0)||('pregnant', 'adj', 'C0549206', ['fndg'], 0.0)||('women', 'noun', 'C0043210', ['popg'], 0.0)||(',', '', '', '', 0.0)||('as well as', '', '', '', 0.0)||('nonsmoking', '', '', '', 0.0)||('pregnant', 'adj', 'C0549206', ['fndg'], 0.0)||('women', 'noun', 'C0043210', ['popg'], 0.0)||('at risk', '', '', '', 0.0)||('for', '', '', '', 0.0)||('giving', 'verb', 'C1998497', ['ftcn'], 0.0)||('birth', 'noun', 'C0005615', ['orgf'], 0.0)||('to', '', '', '', 0.0)||('high', 'adj', 'C0205250', ['qlco'], 0.0)||('-', '', '', '', 0.0)||('birth - weight', '', '', '', 0.0)||('children', 'noun', 'C0008059', ['aggp'], 0.0)||(',', '', '', '', 0.0)||('paying', '', '', '', 0.0)||('particular', '', '', '', 0.0)||('attention', 'noun', 'C0004268', ['menp'], 0.0)||('to', '', '', '', 0.0)||('rapid', 'adj', 'C0439831', ['qlco'], 0.0)||('weight gain', 'noun', 'C0043094', ['fndg'], 0.0)||('in', '', '', '', 0.0)||('the', '', '', '', 0.0)||('first', 'adj', 'C0205435', ['qnco'], 0.0)||('months', 'noun', 'C0439231', ['tmco'], 0.0)||('of', '', '', '', 0.0)||('life', 'noun', 'C0376558', ['idcn'], 0.0)||('.', '', '', '', 0.0)||
