('antiseizure', '', '', '', 0.0)||('medications', 'noun', 'C0013227', ['phsu'], 0.0)||(',', '', '', '', 0.0)||('including', '', '', '', 0.0)||('carbamazepine', 'noun', 'C0006949', ['orch', 'phsu'], 0.0)||('and', '', '', '', 0.0)||('valproic acid', 'noun', 'C0042291', ['orch', 'phsu'], 0.0)||(',', '', '', '', 0.0)||('are', '', '', '', 0.0)||('considered', '', '', '', 0.0)||('human', 'noun', 'C0086418', ['humn'], 0.0)||('teratogens', 'noun', 'C0039536', ['hops'], 0.0)||('in', '', '', '', 0.0)||('the', '', '', '', 0.0)||('first', 'adj', 'C0205435', ['qnco'], 0.0)||('trimester', 'noun', 'C0032982', ['tmco'], 0.0)||('.', '', '', '', 0.0)||
('if', '', '', '', 0.0)||('a', '', '', '', 0.0)||('woman', 'noun', 'C0043210', ['popg'], 0.0)||('has', '', '', '', 0.0)||('an', '', '', '', 0.0)||('unplanned pregnancy', 'noun', 'C0041747', ['fndg'], 0.0)||('and', '', '', '', 0.0)||('presents', '', '', '', 0.0)||('late', 'adv', 'C0205087', ['tmco'], 0.0)||('in', '', '', '', 0.0)||('the', '', '', '', 0.0)||('first', 'adj', 'C0205435', ['qnco'], 0.0)||('trimester', 'noun', 'C0032982', ['tmco'], 0.0)||('or', '', '', '', 0.0)||('in', '', '', '', 0.0)||('the', '', '', '', 0.0)||('second trimester', '', '', '', 0.0)||(',', '', '', '', 0.0)||('discontinuation', 'noun', 'C0457454', ['hlca'], 0.0)||('of', '', '', '', 0.0)||('these', '', '', '', 0.0)||('medication', '', '', '', 0.0)||('in', '', '', '', 0.0)||('stable', 'adj', 'C0205360', ['qlco'], 0.0)||('patients', 'noun', 'C0030705', ['podg'], 0.0)||('is', '', '', '', 0.0)||('not', 'adv', 'C1518422', ['ftcn'], 0.0)||('recommended', 'verb', 'C0034866', ['idcn'], 0.0)||('.', '', '', '', 0.0)||
('valproate', 'noun', 'C0080356', ['lipd', 'phsu'], 0.0)||('and', '', '', '', 0.0)||('carbamazepine', 'noun', 'C0006949', ['orch', 'phsu'], 0.0)||('are', '', '', '', 0.0)||('both', '', '', '', 0.0)||('compatible', 'adj', 'C1524057', ['qlco'], 0.0)||('with', '', '', '', 0.0)||('breastfeeding', 'noun', 'C0006147', ['orgf'], 0.0)||('.', '', '', '', 0.0)||
