('sixty', '', '', '', 0.0)||('pregnant', 'adj', 'C0549206', ['fndg'], 0.0)||('women', 'noun', 'C0043210', ['popg'], 0.0)||('with', '', '', '', 0.0)||('fetuses', 'noun', 'C0015965', ['emst'], 0.0)||('affected', 'verb', 'C0392760', ['ftcn'], 0.0)||('by', '', '', '', 0.0)||('beta - thalassemia', '', '', '', 0.0)||('major', 'adj', 'C0205164', ['qlco'], 0.0)||('underwent', '', '', '', 0.0)||('termination', 'noun', 'C1549081', ['inpr'], 0.0)||('of', '', '', '', 0.0)||('gestation', 'noun', 'C0032961', ['orgf'], 0.0)||('induced', 'verb', 'C0205263', ['ftcn'], 0.0)||('by', '', '', '', 0.0)||('amniocentesis', 'noun', 'C0002627', ['diap'], 0.0)||('and', '', '', '', 0.0)||('intrauterine', 'adj', 'C0694756', ['bsoj'], 0.0)||('instillation', 'noun', 'C0184959', ['hlca'], 0.0)||('of', '', '', '', 0.0)||('prostaglandin f2 alpha', 'noun', 'C0012471', ['eico', 'horm', 'phsu'], 0.0)||('between', '', '', '', 0.0)||('19', '', '', '', 0.0)||('and', '', '', '', 0.0)||('25', '', '', '', 0.0)||('weeks', 'noun', 'C0439230', ['tmco'], 0.0)||('.', '', '', '', 0.0)||
('pharmacokinetics', 'noun', 'C0031327', ['phsf'], 0.0)||('of', '', '', '', 0.0)||('ciprofloxacin', 'noun', 'C0008809', ['orch', 'phsu'], 0.0)||('in', '', '', '', 0.0)||('maternal blood', '', '', '', 0.0)||('and', '', '', '', 0.0)||('amniotic fluid', 'noun', 'C0002638', ['bdsu'], 0.0)||('were', '', '', '', 0.0)||('studied', '', '', '', 0.0)||('after', '', '', '', 0.0)||('two', 'adj', 'C0205448', ['qnco'], 0.0)||('doses', 'noun', 'C0178602', ['qnco'], 0.0)||('of', '', '', '', 0.0)||('ciprofloxacin', 'noun', 'C0008809', ['orch', 'phsu'], 0.0)||('(', '', '', '', 0.0)||('200', '', '', '', 0.0)||('mg', '', '', '', 0.0)||('intravenously', '', '', '', 0.0)||('every', '', '', '', 0.0)||('12', '', '', '', 0.0)||('hours', 'noun', 'C0439227', ['tmco'], 0.0)||(')', '', '', '', 0.0)||(',', '', '', '', 0.0)||('after', '', '', '', 0.0)||('two', 'adj', 'C0205448', ['qnco'], 0.0)||('doses', 'noun', 'C0178602', ['qnco'], 0.0)||('of', '', '', '', 0.0)||('pefloxacin', 'noun', 'C0030771', ['orch', 'phsu'], 0.0)||('(', '', '', '', 0.0)||('400', '', '', '', 0.0)||('mg', '', '', '', 0.0)||('intravenously', '', '', '', 0.0)||('every', '', '', '', 0.0)||('12', '', '', '', 0.0)||('hours', 'noun', 'C0439227', ['tmco'], 0.0)||(')', '', '', '', 0.0)||(',', '', '', '', 0.0)||('and', '', '', '', 0.0)||('after', '', '', '', 0.0)||('two', 'adj', 'C0205448', ['qnco'], 0.0)||('doses', 'noun', 'C0178602', ['qnco'], 0.0)||('of', '', '', '', 0.0)||('ofloxacin', 'noun', 'C0028902', ['antb', 'orch'], 0.0)||('(', '', '', '', 0.0)||('400', '', '', '', 0.0)||('mg', '', '', '', 0.0)||('intravenously', '', '', '', 0.0)||('every', '', '', '', 0.0)||('12', '', '', '', 0.0)||('hours', 'noun', 'C0439227', ['tmco'], 0.0)||(')', '', '', '', 0.0)||('.', '', '', '', 0.0)||
('twenty', '', '', '', 0.0)||('patients', 'noun', 'C0030705', ['podg'], 0.0)||('were', '', '', '', 0.0)||('studied', '', '', '', 0.0)||('in', '', '', '', 0.0)||('each', '', '', '', 0.0)||('group', 'noun', 'C0441833', ['idcn'], 0.0)||('.', '', '', '', 0.0)||
('the', '', '', '', 0.0)||('ranges', '', '', '', 0.0)||('of', '', '', '', 0.0)||('mean', 'noun', 'C0444504', ['qnco'], 0.0)||('maternal serum', '', '', '', 0.0)||('and', '', '', '', 0.0)||('amniotic fluid', 'noun', 'C0002638', ['bdsu'], 0.0)||('levels', 'noun', 'C0441889', ['qlco'], 0.0)||('were', '', '', '', 0.0)||('as', '', '', '', 0.0)||('follows', '', '', '', 0.0)||(':', '', '', '', 0.0)||('ciprofloxacin', 'noun', 'C0008809', ['orch', 'phsu'], 0.0)||('in', '', '', '', 0.0)||('maternal serum', '', '', '', 0.0)||('0 . 01', '', '', '', 0.0)||('to', '', '', '', 0.0)||('0 . 28', '', '', '', 0.0)||('micrograms', '', '', '', 0.0)||('/', '', '', '', 0.0)||('ml', '', '', '', 0.0)||(',', '', '', '', 0.0)||('in', '', '', '', 0.0)||('amniotic fluid', 'noun', 'C0002638', ['bdsu'], 0.0)||('0 . 1', '', '', '', 0.0)||('to', '', '', '', 0.0)||('0 . 13', '', '', '', 0.0)||('micrograms', '', '', '', 0.0)||('/', '', '', '', 0.0)||('ml', '', '', '', 0.0)||(';', '', '', '', 0.0)||
('pefloxacin', 'noun', 'C0030771', ['orch', 'phsu'], 0.0)||('in', '', '', '', 0.0)||('maternal serum', '', '', '', 0.0)||('2 . 65', '', '', '', 0.0)||('to', '', '', '', 0.0)||('4 . 31', '', '', '', 0.0)||('micrograms', '', '', '', 0.0)||('/', '', '', '', 0.0)||('ml', '', '', '', 0.0)||(',', '', '', '', 0.0)||('in', '', '', '', 0.0)||('amniotic fluid', 'noun', 'C0002638', ['bdsu'], 0.0)||('1 . 97', '', '', '', 0.0)||('to', '', '', '', 0.0)||('2 . 74', '', '', '', 0.0)||('micrograms', '', '', '', 0.0)||('/', '', '', '', 0.0)||('ml', '', '', '', 0.0)||(';', '', '', '', 0.0)||
('and', '', '', '', 0.0)||('ofloxacin', 'noun', 'C0028902', ['antb', 'orch'], 0.0)||('in', '', '', '', 0.0)||('maternal serum', '', '', '', 0.0)||('0 . 07', '', '', '', 0.0)||('to', '', '', '', 0.0)||('0 . 68', '', '', '', 0.0)||('micrograms', '', '', '', 0.0)||('/', '', '', '', 0.0)||('ml', '', '', '', 0.0)||(',', '', '', '', 0.0)||('in', '', '', '', 0.0)||('amniotic fluid', 'noun', 'C0002638', ['bdsu'], 0.0)||('0 . 13', '', '', '', 0.0)||('to', '', '', '', 0.0)||('0 . 25', '', '', '', 0.0)||('micrograms', '', '', '', 0.0)||('/', '', '', '', 0.0)||('ml', '', '', '', 0.0)||('.', '', '', '', 0.0)||
('three', '', 'C0205449', ['qnco'], 0.0)||('groups', 'noun', 'C0441833', ['idcn'], 0.0)||('of', '', '', '', 0.0)||('lactating', '', '', '', 0.0)||('women', 'noun', 'C0043210', ['popg'], 0.0)||('(', '', '', '', 0.0)||('10', '', '', '', 0.0)||('women', 'noun', 'C0043210', ['popg'], 0.0)||('in', '', '', '', 0.0)||('each', '', '', '', 0.0)||(')', '', '', '', 0.0)||(',', '', '', '', 0.0)||('were', '', '', '', 0.0)||('given', '', '', '', 0.0)||('three', '', 'C0205449', ['qnco'], 0.0)||('doses', 'noun', 'C0178602', ['qnco'], 0.0)||('of', '', '', '', 0.0)||('750', '', '', '', 0.0)||('mg', '', '', '', 0.0)||('ciprofloxacin', 'noun', 'C0008809', ['orch', 'phsu'], 0.0)||('orally', 'adv', 'C0442027', ['spco'], 0.0)||(',', '', '', '', 0.0)||('400', '', '', '', 0.0)||('mg', '', '', '', 0.0)||('pefloxacin', 'noun', 'C0030771', ['orch', 'phsu'], 0.0)||('orally', 'adv', 'C0442027', ['spco'], 0.0)||(',', '', '', '', 0.0)||('and', '', '', '', 0.0)||('400', '', '', '', 0.0)||('mg', '', '', '', 0.0)||('ofloxacin', 'noun', 'C0028902', ['antb', 'orch'], 0.0)||('orally', 'adv', 'C0442027', ['spco'], 0.0)||('.', '', '', '', 0.0)||
('serum', 'noun', 'C0229671', ['bdsu'], 0.0)||('and', '', '', '', 0.0)||('milk', 'noun', 'C0026131', ['bdsu'], 0.0)||('samples', '', '', '', 0.0)||('were', '', '', '', 0.0)||('obtained', 'verb', 'C1301820', ['ftcn'], 0.0)||('simultaneously', '', '', '', 0.0)||('at', '', '', '', 0.0)||('two', 'noun', 'C0205448', ['qnco'], 0.0)||(',', '', '', '', 0.0)||('four', '', 'C0205450', ['qnco'], 0.0)||(',', '', '', '', 0.0)||('six', '', 'C0205452', ['qnco'], 0.0)||(',', '', '', '', 0.0)||('nine', '', 'C0205455', ['qnco'], 0.0)||(',', '', '', '', 0.0)||('12', '', '', '', 0.0)||(',', '', '', '', 0.0)||('and', '', '', '', 0.0)||('24', '', '', '', 0.0)||('hours', 'noun', 'C0439227', ['tmco'], 0.0)||('after', '', '', '', 0.0)||('dosage', 'noun', 'C0178602', ['qnco'], 0.0)||('administration', 'noun', 'C0001554', ['ocac'], 0.0)||('.', '', '', '', 0.0)||
('the', '', '', '', 0.0)||('mean', 'noun', 'C0444504', ['qnco'], 0.0)||('breast milk', 'noun', 'C0026140', ['bdsu'], 0.0)||('levels', 'noun', 'C0441889', ['qlco'], 0.0)||('of', '', '', '', 0.0)||('ciprofloxacin', 'noun', 'C0008809', ['orch', 'phsu'], 0.0)||('at', '', '', '', 0.0)||('the', '', '', '', 0.0)||('corresponding', '', '', '', 0.0)||('time intervals', '', '', '', 0.0)||('were', '', '', '', 0.0)||('3 . 79', '', '', '', 0.0)||(',', '', '', '', 0.0)||('2 . 26', '', '', '', 0.0)||(',', '', '', '', 0.0)||('0 . 86', '', '', '', 0.0)||(',', '', '', '', 0.0)||('0 . 51', '', '', '', 0.0)||(',', '', '', '', 0.0)||('0 . 20', '', '', '', 0.0)||(',', '', '', '', 0.0)||('and', '', '', '', 0.0)||('0 . 02', '', '', '', 0.0)||('micrograms', '', '', '', 0.0)||('/', '', '', '', 0.0)||('ml', '', '', '', 0.0)||('.', '', '', '', 0.0)||
('the', '', '', '', 0.0)||('mean', 'noun', 'C0444504', ['qnco'], 0.0)||('breast milk', 'noun', 'C0026140', ['bdsu'], 0.0)||('levels', 'noun', 'C0441889', ['qlco'], 0.0)||('of', '', '', '', 0.0)||('pefloxacin', 'noun', 'C0030771', ['orch', 'phsu'], 0.0)||('were', '', '', '', 0.0)||('3 . 54', '', '', '', 0.0)||(',', '', '', '', 0.0)||('3 . 43', '', '', '', 0.0)||(',', '', '', '', 0.0)||('2 . 93', '', '', '', 0.0)||(',', '', '', '', 0.0)||('2 . 24', '', '', '', 0.0)||(',', '', '', '', 0.0)||('1 . 79', '', '', '', 0.0)||(',', '', '', '', 0.0)||('and', '', '', '', 0.0)||('0 . 88', '', '', '', 0.0)||('micrograms', '', '', '', 0.0)||('/', '', '', '', 0.0)||('ml', '', '', '', 0.0)||(',', '', '', '', 0.0)||('and', '', '', '', 0.0)||('of', '', '', '', 0.0)||('ofloxacin', 'noun', 'C0028902', ['antb', 'orch'], 0.0)||(',', '', '', '', 0.0)||('2 . 41', '', '', '', 0.0)||(',', '', '', '', 0.0)||('1 . 91', '', '', '', 0.0)||(',', '', '', '', 0.0)||('1 . 25', '', '', '', 0.0)||(',', '', '', '', 0.0)||('0 . 64', '', '', '', 0.0)||(',', '', '', '', 0.0)||('0 . 29', '', '', '', 0.0)||(',', '', '', '', 0.0)||('and', '', '', '', 0.0)||('0 . 05', '', '', '', 0.0)||('micrograms', '', '', '', 0.0)||('/', '', '', '', 0.0)||('ml', '', '', '', 0.0)||('.', '', '', '', 0.0)||
('it', '', '', '', 0.0)||('is', '', '', '', 0.0)||('concluded', '', '', '', 0.0)||('that', '', '', '', 0.0)||('all', '', '', '', 0.0)||('studied', '', '', '', 0.0)||('quinolones', 'noun', 'C0034428', ['orch'], 0.0)||('penetrate', '', '', '', 0.0)||('the', '', '', '', 0.0)||('placenta', 'noun', 'C0032043', ['emst'], 0.0)||('and', '', '', '', 0.0)||('are', '', '', '', 0.0)||('found', '', '', '', 0.0)||('in', '', '', '', 0.0)||('amniotic fluid', 'noun', 'C0002638', ['bdsu'], 0.0)||('at', '', '', '', 0.0)||('low', 'adj', 'C0205251', ['qlco'], 0.0)||('concentrations', 'noun', 'C0086045', ['menp'], 0.0)||('and', '', '', '', 0.0)||('at', '', '', '', 0.0)||('much', '', '', '', 0.0)||('higher', '', '', '', 0.0)||('levels', 'noun', 'C0441889', ['qlco'], 0.0)||('in breast', '', '', '', 0.0)||('milk', 'noun', 'C0026131', ['bdsu'], 0.0)||('.', '', '', '', 0.0)||
('because of', '', '', '', 0.0)||('the', '', '', '', 0.0)||('potential', 'noun', 'C0035647', ['qlco'], 0.0)||('for', '', '', '', 0.0)||('quinolones', 'noun', 'C0034428', ['orch'], 0.0)||('to', '', '', '', 0.0)||('cause', 'verb', 'C1524003', ['cnce'], 0.0)||('arthropathy', 'noun', 'C0022408', ['dsyn'], 0.0)||('in', '', '', '', 0.0)||('juvenile', 'adj', 'C0205653', ['aggp'], 0.0)||('animals', 'noun', 'C0003062', ['anim'], 0.0)||(',', '', '', '', 0.0)||('their', '', '', '', 0.0)||('use', 'noun', 'C0042153', ['ftcn'], 0.0)||('should', '', '', '', 0.0)||('be', '', '', '', 0.0)||('avoided', '', '', '', 0.0)||('in', '', '', '', 0.0)||('pregnant', 'adj', 'C0549206', ['fndg'], 0.0)||('and', '', '', '', 0.0)||('lactating', '', '', '', 0.0)||('women', 'noun', 'C0043210', ['popg'], 0.0)||('.', '', '', '', 0.0)||
