('quinolone', '', '', '', 0.0)||('-', '', '', '', 0.0)||('induced', 'adj', 'C0205263', ['ftcn'], 0.0)||('cartilage', 'noun', 'C0007301', ['tisu'], 0.0)||('toxicity', 'noun', 'C0040539', ['qlco'], 0.0)||('has', '', '', '', 0.0)||('been', '', '', '', 0.0)||('observed', 'verb', 'C1441672', ['ftcn'], 0.0)||('in', '', '', '', 0.0)||('experimental', 'adj', 'C1517004', ['ftcn'], 0.0)||('juvenile', 'adj', 'C0205653', ['aggp'], 0.0)||('animal studies', '', '', '', 0.0)||('and', '', '', '', 0.0)||('is', '', '', '', 0.0)||('species', 'noun', 'C1548151', ['idcn'], 0.0)||('-', '', '', '', 0.0)||('and', '', '', '', 0.0)||('dose', 'noun', 'C0178602', ['qnco'], 0.0)||('-', '', '', '', 0.0)||('specific', 'adj', 'C0205369', ['qlco'], 0.0)||('.', '', '', '', 0.0)||
('accordingly', '', '', '', 0.0)||('these', '', '', '', 0.0)||('findings', 'noun', 'C2607943', ['ftcn'], 0.0)||('have', '', '', '', 0.0)||('led', '', '', '', 0.0)||('to', '', '', '', 0.0)||('the', '', '', '', 0.0)||('contraindication', 'noun', 'C0522473', ['qlco'], 0.0)||('of', '', '', '', 0.0)||('fluoroquinolones', 'noun', 'C0949665', ['orch', 'phsu'], 0.0)||('in', '', '', '', 0.0)||('children', 'noun', 'C0008059', ['aggp'], 0.0)||('.', '', '', '', 0.0)||
('previous', 'adj', 'C0205156', ['tmco'], 0.0)||('data', 'noun', 'C1511726', ['idcn'], 0.0)||('in', '', '', '', 0.0)||('634', '', '', '', 0.0)||('adolescents', 'noun', 'C0205653', ['aggp'], 0.0)||('and', '', '', '', 0.0)||('children', 'noun', 'C0008059', ['aggp'], 0.0)||('treated', 'verb', 'C1522326', ['ftcn'], 0.0)||('with', '', '', '', 0.0)||('compassionate', '', '', '', 0.0)||('use', 'noun', 'C0042153', ['ftcn'], 0.0)||('ciprofloxacin', 'noun', 'C0008809', ['orch', 'phsu'], 0.0)||('demonstrated', '', '', '', 0.0)||('low', 'adj', 'C0205251', ['qlco'], 0.0)||('rates', '', '', '', 0.0)||('of', '', '', '', 0.0)||('reversible', 'adj', 'C0205343', ['ftcn'], 0.0)||('arthralgia', 'noun', 'C0003862', ['sosy'], 0.0)||('and', '', '', '', 0.0)||('a', '', '', '', 0.0)||('safety', 'noun', 'C0036043', ['hcpp'], 0.0)||('profile', 'verb', 'C1979963', ['lbpr'], 0.0)||('similar', 'adj', 'C2348205', ['qlco'], 0.0)||('to', '', '', '', 0.0)||('that', '', '', '', 0.0)||('for', '', '', '', 0.0)||('adult', 'noun', 'C0001675', ['aggp'], 0.0)||('patients', 'noun', 'C0030705', ['podg'], 0.0)||('.', '', '', '', 0.0)||
('this', '', '', '', 0.0)||('report', 'noun', 'C0684224', ['inpr'], 0.0)||('describes', '', '', '', 0.0)||('the', '', '', '', 0.0)||('safety', 'noun', 'C0036043', ['hcpp'], 0.0)||('findings', 'noun', 'C2607943', ['ftcn'], 0.0)||('in', '', '', '', 0.0)||('1795', '', '', '', 0.0)||('children', 'noun', 'C0008059', ['aggp'], 0.0)||('who', '', '', '', 0.0)||('received', 'verb', 'C1514756', ['qlco'], 0.0)||('2030', '', '', '', 0.0)||('treatment', 'noun', 'C0039798', ['ftcn'], 0.0)||('courses', 'noun', 'C0750729', ['tmco'], 0.0)||('of', '', '', '', 0.0)||('intravenous', 'adj', 'C0205520', ['ftcn'], 0.0)||('or', '', '', '', 0.0)||('oral', 'adj', 'C0442027', ['spco'], 0.0)||('ciprofloxacin', 'noun', 'C0008809', ['orch', 'phsu'], 0.0)||('.', '', '', '', 0.0)||
('the', '', '', '', 0.0)||('average doses', '', '', '', 0.0)||('of', '', '', '', 0.0)||('intravenous', 'adj', 'C0205520', ['ftcn'], 0.0)||('and', '', '', '', 0.0)||('oral', 'adj', 'C0442027', ['spco'], 0.0)||('ciprofloxacin', 'noun', 'C0008809', ['orch', 'phsu'], 0.0)||('in', '', '', '', 0.0)||('the', '', '', '', 0.0)||('study population', 'noun', 'C2348561', ['popg'], 0.0)||('were', '', '', '', 0.0)||('8', '', '', '', 0.0)||('and', '', '', '', 0.0)||('25', '', '', '', 0.0)||('mg / kg', '', '', '', 0.0)||('/', '', '', '', 0.0)||('day', 'noun', 'C0439228', ['tmco'], 0.0)||(',', '', '', '', 0.0)||('respectively', '', '', '', 0.0)||('.', '', '', '', 0.0)||
('treatment', 'noun', 'C0039798', ['ftcn'], 0.0)||('-', '', '', '', 0.0)||('associated', 'adj', 'C0332281', ['qlco'], 0.0)||('events', 'noun', 'C0441471', ['evnt'], 0.0)||('were', '', '', '', 0.0)||('reported', 'verb', 'C0684224', ['inpr'], 0.0)||('in', '', '', '', 0.0)||('10 . 9 %', '', '', '', 0.0)||('of', '', '', '', 0.0)||('children', 'noun', 'C0008059', ['aggp'], 0.0)||('receiving', '', '', '', 0.0)||('oral', 'adj', 'C0442027', ['spco'], 0.0)||('ciprofloxacin', 'noun', 'C0008809', ['orch', 'phsu'], 0.0)||('compared', 'verb', 'C1707455', ['acty'], 0.0)||('with', '', '', '', 0.0)||('18 . 9 %', '', '', '', 0.0)||('among', '', '', '', 0.0)||('intravenous', 'adj', 'C0205520', ['ftcn'], 0.0)||('recipients', '', '', '', 0.0)||('.', '', '', '', 0.0)||
('overall', 'adj', 'C0282416', ['inpr'], 0.0)||('arthralgia', 'noun', 'C0003862', ['sosy'], 0.0)||('occurred', 'verb', 'C1709305', ['cnce'], 0.0)||('during', '', '', '', 0.0)||('31', '', '', '', 0.0)||('ciprofloxacin', 'noun', 'C0008809', ['orch', 'phsu'], 0.0)||('treatment', 'noun', 'C0039798', ['ftcn'], 0.0)||('courses', 'noun', 'C0750729', ['tmco'], 0.0)||('(', '', '', '', 0.0)||('1 . 5 %', '', '', '', 0.0)||(')', '', '', '', 0.0)||('and', '', '', '', 0.0)||('the', '', '', '', 0.0)||('majority', 'noun', 'C0680220', ['socb'], 0.0)||('of', '', '', '', 0.0)||('events', 'noun', 'C0441471', ['evnt'], 0.0)||('were', '', '', '', 0.0)||('of', '', '', '', 0.0)||('mild to moderate', 'adj', 'C1299392', ['qlco'], 0.0)||('severity', 'noun', 'C0439793', ['qlco'], 0.0)||('and', '', '', '', 0.0)||('resolved', 'verb', 'C1514893', ['idcn'], 0.0)||('without', '', '', '', 0.0)||('intervention', 'noun', 'C1273869', ['hlca'], 0.0)||('.', '', '', '', 0.0)||
('more', '', '', '', 0.0)||('than', '', '', '', 0.0)||('60 %', '', '', '', 0.0)||('of', '', '', '', 0.0)||('arthralgia', 'noun', 'C0003862', ['sosy'], 0.0)||('episodes', 'noun', 'C0332189', ['tmco'], 0.0)||('were', '', '', '', 0.0)||('in', '', '', '', 0.0)||('children', 'noun', 'C0008059', ['aggp'], 0.0)||('with', '', '', '', 0.0)||('cystic fibrosis', 'noun', 'C0010674', ['dsyn'], 0.0)||('.', '', '', '', 0.0)||
('the', '', '', '', 0.0)||('adverse', '', '', '', 0.0)||('event', 'noun', 'C0441471', ['evnt'], 0.0)||('pattern', 'noun', 'C0449774', ['spco'], 0.0)||('in', '', '', '', 0.0)||('children', 'noun', 'C0008059', ['aggp'], 0.0)||('receiving', '', '', '', 0.0)||('ciprofloxacin', 'noun', 'C0008809', ['orch', 'phsu'], 0.0)||('in', '', '', '', 0.0)||('this', '', '', '', 0.0)||('analysis', 'noun', 'C0002778', ['lbpr'], 0.0)||('was', '', '', '', 0.0)||('similar', 'adj', 'C2348205', ['qlco'], 0.0)||('to', '', '', '', 0.0)||('that', '', '', '', 0.0)||('observed', 'verb', 'C1441672', ['ftcn'], 0.0)||('in', '', '', '', 0.0)||('adults', 'noun', 'C0001675', ['aggp'], 0.0)||('.', '', '', '', 0.0)||
('rates', '', '', '', 0.0)||('of', '', '', '', 0.0)||('reversible', 'adj', 'C0205343', ['ftcn'], 0.0)||('arthralgia', 'noun', 'C0003862', ['sosy'], 0.0)||('were', '', '', '', 0.0)||('low', 'adj', 'C0205251', ['qlco'], 0.0)||('and', '', '', '', 0.0)||('unchanged', 'verb', 'C0442739', ['fndg'], 0.0)||('from', '', '', '', 0.0)||('previously', '', '', '', 0.0)||('published', 'adj', 'C0034037', ['ocac'], 0.0)||('surveillance', 'noun', 'C0220920', ['ftcn'], 0.0)||('data', 'noun', 'C1511726', ['idcn'], 0.0)||('in', '', '', '', 0.0)||('children', 'noun', 'C0008059', ['aggp'], 0.0)||('.', '', '', '', 0.0)||
