('a', '', '', '', 0.0)||('case', 'noun', 'C0868928', ['ftcn'], 0.0)||('series', 'noun', 'C0205549', ['qnco'], 0.0)||('administered', 'verb', 'C1521801', ['ftcn'], 0.0)||('ciprofloxacin', 'noun', 'C0008809', ['orch', 'phsu'], 0.0)||('750', '', '', '', 0.0)||('mg', '', '', '', 0.0)||(',', '', '', '', 0.0)||('pefloxacin', 'noun', 'C0030771', ['orch', 'phsu'], 0.0)||('400', '', '', '', 0.0)||('mg', '', '', '', 0.0)||(',', '', '', '', 0.0)||('or', '', '', '', 0.0)||('ofloxacin', 'noun', 'C0028902', ['antb', 'orch'], 0.0)||('400', '', '', '', 0.0)||('mg', '', '', '', 0.0)||('twice daily', 'adv', 'C0585361', ['tmco'], 0.0)||('to', '', '', '', 0.0)||('3', '', '', '', 0.0)||('groups', 'noun', 'C0441833', ['idcn'], 0.0)||('of', '', '', '', 0.0)||('10', '', '', '', 0.0)||('women', 'noun', 'C0043210', ['popg'], 0.0)||('each', '', '', '', 0.0)||('.', '', '', '', 0.0)||
('milk', 'noun', 'C0026131', ['bdsu'], 0.0)||('samples', '', '', '', 0.0)||('were', '', '', '', 0.0)||('obtained', 'verb', 'C1301820', ['ftcn'], 0.0)||('6', '', '', '', 0.0)||('times', 'noun', 'C1632851', ['qnco'], 0.0)||('over', '', '', '', 0.0)||('24', '', '', '', 0.0)||('hours', 'noun', 'C0439227', ['tmco'], 0.0)||('following', '', '', '', 0.0)||('the', '', '', '', 0.0)||('third', 'adj', 'C0205437', ['qnco'], 0.0)||('dose', 'noun', 'C0178602', ['qnco'], 0.0)||('of', '', '', '', 0.0)||('antibiotic', 'noun', 'C0003232', ['antb'], 0.0)||('.', '', '', '', 0.0)||
('maximum', 'noun', 'C0806909', ['qnco'], 0.0)||('levels', 'noun', 'C0441889', ['qlco'], 0.0)||('in breast', '', '', '', 0.0)||('milk', 'noun', 'C0026131', ['bdsu'], 0.0)||('occurred', 'verb', 'C1709305', ['cnce'], 0.0)||('2', '', '', '', 0.0)||('hours', 'noun', 'C0439227', ['tmco'], 0.0)||('after', '', '', '', 0.0)||('the', '', '', '', 0.0)||('dose', 'noun', 'C0178602', ['qnco'], 0.0)||(',', '', '', '', 0.0)||('and', '', '', '', 0.0)||('were', '', '', '', 0.0)||('3 . 79', '', '', '', 0.0)||(',', '', '', '', 0.0)||('3 . 54', '', '', '', 0.0)||(',', '', '', '', 0.0)||('and', '', '', '', 0.0)||('2 . 41', '', '', '', 0.0)||('mcg', 'noun', 'C0439211', ['qnco'], 0.0)||('/', '', '', '', 0.0)||('ml', '', '', '', 0.0)||('for', '', '', '', 0.0)||('ciprofloxacin', 'noun', 'C0008809', ['orch', 'phsu'], 0.0)||(',', '', '', '', 0.0)||('pefloxacin', 'noun', 'C0030771', ['orch', 'phsu'], 0.0)||(',', '', '', '', 0.0)||('and', '', '', '', 0.0)||('ofloxacin', 'noun', 'C0028902', ['antb', 'orch'], 0.0)||('respectively', '', '', '', 0.0)||('.', '', '', '', 0.0)||
('all', '', '', '', 0.0)||('3', '', '', '', 0.0)||('quinolones', 'noun', 'C0034428', ['orch'], 0.0)||('achieved', '', '', '', 0.0)||('higher', '', '', '', 0.0)||('concentrations', 'noun', 'C0086045', ['menp'], 0.0)||('in breast', '', '', '', 0.0)||('milk', 'noun', 'C0026131', ['bdsu'], 0.0)||('than', '', '', '', 0.0)||('in', '', '', '', 0.0)||('serum', 'noun', 'C0229671', ['bdsu'], 0.0)||('.', '', '', '', 0.0)||
