('in', '', '', '', 0.0)||('a', '', '', '', 0.0)||('case', 'noun', 'C0868928', ['ftcn'], 0.0)||('series', 'noun', 'C0205549', ['qnco'], 0.0)||(',', '', '', '', 0.0)||('9', '', '', '', 0.0)||('lactating', '', '', '', 0.0)||('mothers', 'noun', 'C0026591', ['famg'], 0.0)||('were', '', '', '', 0.0)||('given', '', '', '', 0.0)||('nitrofurantoin', 'adv', 'C0028156', ['orch', 'phsu'], 0.0)||('100', '', '', '', 0.0)||('mg', '', '', '', 0.0)||('orally', 'adv', 'C0442027', ['spco'], 0.0)||('every', '', '', '', 0.0)||('6', '', '', '', 0.0)||('hours', 'noun', 'C0439227', ['tmco'], 0.0)||('for', '', '', '', 0.0)||('1', '', '', '', 0.0)||('day', 'noun', 'C0439228', ['tmco'], 0.0)||('.', '', '', '', 0.0)||
('on', '', '', '', 0.0)||('day', 'noun', 'C0439228', ['tmco'], 0.0)||('2', '', '', '', 0.0)||(',', '', '', '', 0.0)||('after', '', '', '', 0.0)||('a', '', '', '', 0.0)||('single', 'adj', 'C0037179', ['popg'], 0.0)||('100', '', '', '', 0.0)||('to', '', '', '', 0.0)||('200', '', '', '', 0.0)||('mg', '', '', '', 0.0)||('dose', 'noun', 'C0178602', ['qnco'], 0.0)||(',', '', '', '', 0.0)||('drug levels', '', '', '', 0.0)||('in', '', '', '', 0.0)||('the', '', '', '', 0.0)||('breast milk', 'noun', 'C0026140', ['bdsu'], 0.0)||('2', '', '', '', 0.0)||('hours', 'noun', 'C0439227', ['tmco'], 0.0)||('post - dose', '', '', '', 0.0)||('ranged', '', '', '', 0.0)||('from', '', '', '', 0.0)||('none', 'noun', 'C0549184', ['qnco'], 0.0)||('(', '', '', '', 0.0)||('in', '', '', '', 0.0)||('6', '', '', '', 0.0)||('of', '', '', '', 0.0)||('the', '', '', '', 0.0)||('9', '', '', '', 0.0)||('women', 'noun', 'C0043210', ['popg'], 0.0)||(')', '', '', '', 0.0)||('to', '', '', '', 0.0)||('a', '', '', '', 0.0)||('maximum', 'noun', 'C0806909', ['qnco'], 0.0)||('of', '', '', '', 0.0)||('0 . 5', '', '', '', 0.0)||('mcg', 'noun', 'C0439211', ['qnco'], 0.0)||('/', '', '', '', 0.0)||('ml', '', '', '', 0.0)||('in', '', '', '', 0.0)||('one', 'noun', 'C0205447', ['qnco'], 0.0)||('.', '', '', '', 0.0)||
('since', '', '', '', 0.0)||('even', '', '', '', 0.0)||('a', '', '', '', 0.0)||('very', 'adv', 'C0442824', ['qlco'], 0.0)||('small', 'adj', 'C0700321', ['qnco'], 0.0)||('amount', 'noun', 'C1265611', ['qnco'], 0.0)||('of', '', '', '', 0.0)||('the', '', '', '', 0.0)||('drug', 'noun', 'C0013227', ['phsu'], 0.0)||('may', '', '', '', 0.0)||('trigger', 'verb', 'C1444748', ['qlco'], 0.0)||('a', '', '', '', 0.0)||('hemolytic', '', '', '', 0.0)||('reaction', 'noun', 'C0443286', ['ftcn'], 0.0)||('among', '', '', '', 0.0)||('g6pd', 'noun', 'C0017757', ['aapp', 'enzy'], 0.0)||('-', '', '', '', 0.0)||('deficient', 'adj', 'C0011155', ['ftcn'], 0.0)||('individuals', '', '', '', 0.0)||(',', '', '', '', 0.0)||('the', '', '', '', 0.0)||('researchers', 'noun', 'C0035173', ['prog'], 0.0)||('called', '', '', '', 0.0)||('for', '', '', '', 0.0)||('caution', '', '', '', 0.0)||('when', '', '', '', 0.0)||('prescribing', 'verb', 'C0278329', ['hlca'], 0.0)||('to', '', '', '', 0.0)||('mothers', 'noun', 'C0026591', ['famg'], 0.0)||('from', '', '', '', 0.0)||('high - risk', '', '', '', 0.0)||('populations', 'noun', 'C0032659', ['qnco'], 0.0)||('.', '', '', '', 0.0)||
