('several', '', '', '', 0.0)||('trials', '', '', '', 0.0)||('have', '', '', '', 0.0)||('addressed', '', '', '', 0.0)||('the', '', '', '', 0.0)||('efficacy', 'noun', 'C1707887', ['resa'], 0.0)||('of', '', '', '', 0.0)||('liothyronine sodium', 'noun', 'C0546882', ['aapp', 'horm', 'phsu'], 0.0)||('therapy', 'noun', 'C0039798', ['ftcn'], 0.0)||('in', '', '', '', 0.0)||('euthyroid', 'noun', 'C0117002', ['fndg'], 0.0)||(',', '', '', '', 0.0)||('nonpsychotic', '', '', '', 0.0)||('depressed', 'adj', 'C0344315', ['fndg'], 0.0)||('patients', 'noun', 'C0030705', ['podg'], 0.0)||('refractory', 'adj', 'C0205269', ['ftcn'], 0.0)||('to', '', '', '', 0.0)||('tricyclic antidepressant', 'noun', 'C0003290', ['phsu'], 0.0)||('therapy', 'noun', 'C0039798', ['ftcn'], 0.0)||('.', '', '', '', 0.0)||
('we', '', '', '', 0.0)||('undertook', '', '', '', 0.0)||('a', '', '', '', 0.0)||('meta - analysis', '', '', '', 0.0)||('of', '', '', '', 0.0)||('these', '', '', '', 0.0)||('trials', '', '', '', 0.0)||('.', '', '', '', 0.0)||
('the', '', '', '', 0.0)||('medline', 'noun', 'C0025141', ['inpr'], 0.0)||('database', 'noun', 'C0242356', ['inpr'], 0.0)||('(', '', '', '', 0.0)||('1966', '', '', '', 0.0)||('to', '', '', '', 0.0)||('may', '', '', '', 0.0)||('1995', '', '', '', 0.0)||(')', '', '', '', 0.0)||('and', '', '', '', 0.0)||('published', 'adj', 'C0034037', ['ocac'], 0.0)||('reference', 'noun', 'C1514811', ['idcn'], 0.0)||('lists', '', '', '', 0.0)||('were', '', '', '', 0.0)||('examined', 'verb', 'C0332128', ['fndg'], 0.0)||('for', '', '', '', 0.0)||('controlled clinical trials', '', '', '', 0.0)||('of', '', '', '', 0.0)||('triiodothyronine', 'noun', 'C0041014', ['aapp', 'horm', 'phsu'], 0.0)||('augmentation', 'noun', 'C1293122', ['topp'], 0.0)||('in', '', '', '', 0.0)||('euthyroid', 'noun', 'C0117002', ['fndg'], 0.0)||('patients', 'noun', 'C0030705', ['podg'], 0.0)||('with', '', '', '', 0.0)||('refractory', 'adj', 'C0205269', ['ftcn'], 0.0)||('depression', 'noun', 'C0011570', ['mobd'], 0.0)||('.', '', '', '', 0.0)||
('quality', 'noun', 'C0332306', ['qlco'], 0.0)||('assessment', 'noun', 'C1261322', ['hlca'], 0.0)||('and', '', '', '', 0.0)||('data', 'noun', 'C1511726', ['idcn'], 0.0)||('abstraction', 'noun', 'C0679195', ['inpr'], 0.0)||('were', '', '', '', 0.0)||('performed', 'verb', 'C0884358', ['ftcn'], 0.0)||('independently', '', '', '', 0.0)||('by', '', '', '', 0.0)||('two', 'adj', 'C0205448', ['qnco'], 0.0)||('reviewers', '', '', '', 0.0)||('.', '', '', '', 0.0)||
('results', 'noun', 'C1274040', ['ftcn'], 0.0)||('were', '', '', '', 0.0)||('aggregated', 'verb', 'C0332621', ['ftcn'], 0.0)||('three', '', 'C0205449', ['qnco'], 0.0)||('ways', '', '', '', 0.0)||(':', '', '', '', 0.0)||('the', '', '', '', 0.0)||('relative response', '', '', '', 0.0)||('rate', 'noun', 'C0871208', ['acty'], 0.0)||('compared', 'verb', 'C1707455', ['acty'], 0.0)||('with', '', '', '', 0.0)||('controls', '', '', '', 0.0)||(',', '', '', '', 0.0)||('accepting', '', '', '', 0.0)||('each', '', '', '', 0.0)||('trial', 'noun', 'C0008976', ['resa'], 0.0)||("' s", '', '', '', 0.0)||('definition', 'noun', 'C1550452', ['idcn'], 0.0)||('of', '', '', '', 0.0)||('clinical', 'adj', 'C0205210', ['qlco'], 0.0)||('response', 'noun', 'C0871261', ['clna'], 0.0)||(';', '', '', '', 0.0)||
('absolute', 'adj', 'C0205344', ['qlco'], 0.0)||('improvement', '', '', '', 0.0)||('in', '', '', '', 0.0)||('response rates', '', '', '', 0.0)||(';', '', '', '', 0.0)||
('and', '', '', '', 0.0)||('improvements', '', '', '', 0.0)||('in', '', '', '', 0.0)||('depression', 'noun', 'C0011570', ['mobd'], 0.0)||('scores', 'noun', 'C0449820', ['qnco'], 0.0)||(',', '', '', '', 0.0)||('analyzed', 'verb', 'C0936012', ['resa'], 0.0)||('as', '', '', '', 0.0)||('continuous', 'adj', 'C0549178', ['idcn'], 0.0)||('variables', '', '', '', 0.0)||('without', '', '', '', 0.0)||('a', '', '', '', 0.0)||('prespecified', '', '', '', 0.0)||('threshold', 'noun', 'C0449864', ['qlco'], 0.0)||('for', '', '', '', 0.0)||('clinical', 'adj', 'C0205210', ['qlco'], 0.0)||('response', 'noun', 'C0871261', ['clna'], 0.0)||('.', '', '', '', 0.0)||
('aggregating', '', '', '', 0.0)||('eight', '', 'C0205454', ['qnco'], 0.0)||('studies', '', '', '', 0.0)||('with', '', '', '', 0.0)||('a', '', '', '', 0.0)||('total', 'noun', 'C0439810', ['qlco'], 0.0)||('of', '', '', '', 0.0)||('292', '', '', '', 0.0)||('patients', 'noun', 'C0030705', ['podg'], 0.0)||(',', '', '', '', 0.0)||('patients', 'noun', 'C0030705', ['podg'], 0.0)||('treated', 'verb', 'C1522326', ['ftcn'], 0.0)||('with', '', '', '', 0.0)||('triiodothyronine', 'noun', 'C0041014', ['aapp', 'horm', 'phsu'], 0.0)||('augmentation', 'noun', 'C1293122', ['topp'], 0.0)||('were', '', '', '', 0.0)||('twice', 'adv', 'C1720725', ['inpr'], 0.0)||('as', '', '', '', 0.0)||('likely', 'adj', 'C0332148', ['qlco'], 0.0)||('to', '', '', '', 0.0)||('respond', '', '', '', 0.0)||('as', '', '', '', 0.0)||('controls', '', '', '', 0.0)||('(', '', '', '', 0.0)||('relative response', '', '', '', 0.0)||(',', '', '', '', 0.0)||('2 . 09', '', '', '', 0.0)||(';', '', '', '', 0.0)||('95 %', '', '', '', 0.0)||('confidence interval', 'noun', 'C0009667', ['qnco'], 0.0)||(',', '', '', '', 0.0)||('1 . 31', '', '', '', 0.0)||('to', '', '', '', 0.0)||('3 . 32', '', '', '', 0.0)||(';', '', '', '', 0.0)||('p', '', '', '', 0.0)||('=', '', '', '', 0.0)||('.', '', '', '', 0.0)||('002', '', '', '', 0.0)||(')', '', '', '', 0.0)||('.', '', '', '', 0.0)||
('this', '', '', '', 0.0)||('corresponded', '', '', '', 0.0)||('to', '', '', '', 0.0)||('a', '', '', '', 0.0)||('23 . 2 %', '', '', '', 0.0)||('absolute', 'adj', 'C0205344', ['qlco'], 0.0)||('improvement', '', '', '', 0.0)||('in', '', '', '', 0.0)||('response rates', '', '', '', 0.0)||('(', '', '', '', 0.0)||('95 %', '', '', '', 0.0)||('confidence interval', 'noun', 'C0009667', ['qnco'], 0.0)||(',', '', '', '', 0.0)||('4 . 5 %', '', '', '', 0.0)||('to', '', '', '', 0.0)||('41 . 9 %', '', '', '', 0.0)||(';', '', '', '', 0.0)||('p', '', '', '', 0.0)||('=', '', '', '', 0.0)||('.', '', '', '', 0.0)||('02', '', '', '', 0.0)||(')', '', '', '', 0.0)||('.', '', '', '', 0.0)||
('improvements', '', '', '', 0.0)||('in', '', '', '', 0.0)||('depression', 'noun', 'C0011570', ['mobd'], 0.0)||('scores', 'noun', 'C0449820', ['qnco'], 0.0)||('were', '', '', '', 0.0)||('moderately', 'adv', 'C1881878', ['qlco'], 0.0)||('large', 'adj', 'C0549177', ['qnco'], 0.0)||('(', '', '', '', 0.0)||('standardized', '', '', '', 0.0)||('effect', 'noun', 'C1280500', ['qlco'], 0.0)||('size', 'noun', 'C0456389', ['spco'], 0.0)||(',', '', '', '', 0.0)||('0 . 62', '', '', '', 0.0)||(';', '', '', '', 0.0)||('p', '', '', '', 0.0)||('<', '', '', '', 0.0)||('.', '', '', '', 0.0)||('001', '', '', '', 0.0)||(')', '', '', '', 0.0)||('.', '', '', '', 0.0)||
('however', '', '', '', 0.0)||(',', '', '', '', 0.0)||('study', 'noun', 'C0008976', ['resa'], 0.0)||('quality', 'noun', 'C0332306', ['qlco'], 0.0)||('was', '', '', '', 0.0)||('uneven', '', '', '', 0.0)||(',', '', '', '', 0.0)||('and', '', '', '', 0.0)||('results', 'noun', 'C1274040', ['ftcn'], 0.0)||('were', '', '', '', 0.0)||('statistically', 'adv', 'C0038215', ['ocdi'], 0.0)||('heterogeneous', 'adj', 'C0019409', ['qlco'], 0.0)||('.', '', '', '', 0.0)||
('among', '', '', '', 0.0)||('the', '', '', '', 0.0)||('four', '', 'C0205450', ['qnco'], 0.0)||('randomized', 'verb', 'C0034656', ['resa'], 0.0)||('double - blind studies', '', '', '', 0.0)||(',', '', '', '', 0.0)||('pooled', 'adj', 'C1709595', ['cnce'], 0.0)||('effects', '', '', '', 0.0)||('were', '', '', '', 0.0)||('not', 'adv', 'C1518422', ['ftcn'], 0.0)||('significant', 'adj', 'C0750502', ['idcn'], 0.0)||('(', '', '', '', 0.0)||('relative response', '', '', '', 0.0)||(',', '', '', '', 0.0)||('1 . 53', '', '', '', 0.0)||(';', '', '', '', 0.0)||('95 %', '', '', '', 0.0)||('confidence interval', 'noun', 'C0009667', ['qnco'], 0.0)||(',', '', '', '', 0.0)||('0 . 70', '', '', '', 0.0)||('to', '', '', '', 0.0)||('3 . 35', '', '', '', 0.0)||(';', '', '', '', 0.0)||('p', '', '', '', 0.0)||('=', '', '', '', 0.0)||('.', '', '', '', 0.0)||('29', '', '', '', 0.0)||(')', '', '', '', 0.0)||(',', '', '', '', 0.0)||('but', '', '', '', 0.0)||('one', 'noun', 'C0205447', ['qnco'], 0.0)||('study', 'noun', 'C0008976', ['resa'], 0.0)||('with', '', '', '', 0.0)||('negative', 'adj', 'C0205160', ['qlco'], 0.0)||('results', 'noun', 'C1274040', ['ftcn'], 0.0)||('accounted', '', '', '', 0.0)||('for', '', '', '', 0.0)||('most', '', '', '', 0.0)||('of', '', '', '', 0.0)||('the', '', '', '', 0.0)||('intertrial', '', '', '', 0.0)||('heterogeneity', 'noun', 'C0019409', ['qlco'], 0.0)||('in', '', '', '', 0.0)||('results', 'noun', 'C1274040', ['ftcn'], 0.0)||('.', '', '', '', 0.0)||
('triiodothyronine', 'noun', 'C0041014', ['aapp', 'horm', 'phsu'], 0.0)||('augmentation', 'noun', 'C1293122', ['topp'], 0.0)||('may', '', '', '', 0.0)||('be', '', '', '', 0.0)||('an', '', '', '', 0.0)||('effective', 'adj', 'C1704419', ['qlco'], 0.0)||('empirical', 'adj', 'C1880496', ['qlco'], 0.0)||('method', 'noun', 'C0025663', ['inpr'], 0.0)||('of', '', '', '', 0.0)||('increasing', 'adj', 'C0442808', ['ftcn'], 0.0)||('response rates', '', '', '', 0.0)||('and', '', '', '', 0.0)||('decreasing', 'adj', 'C0442797', ['qlco'], 0.0)||('depression', 'noun', 'C0011570', ['mobd'], 0.0)||('severity scores', '', '', '', 0.0)||('in', '', '', '', 0.0)||('a', '', '', '', 0.0)||('subgroup', 'noun', 'C1515021', ['clas'], 0.0)||('of', '', '', '', 0.0)||('patients', 'noun', 'C0030705', ['podg'], 0.0)||('with', '', '', '', 0.0)||('depression', 'noun', 'C0011570', ['mobd'], 0.0)||('refractory', 'adj', 'C0205269', ['ftcn'], 0.0)||('to', '', '', '', 0.0)||('tricyclic antidepressant', 'noun', 'C0003290', ['phsu'], 0.0)||('therapy', 'noun', 'C0039798', ['ftcn'], 0.0)||(',', '', '', '', 0.0)||('but', '', '', '', 0.0)||('the', '', '', '', 0.0)||('total number', '', '', '', 0.0)||('of', '', '', '', 0.0)||('patients', 'noun', 'C0030705', ['podg'], 0.0)||('randomized', 'verb', 'C0034656', ['resa'], 0.0)||('was', '', '', '', 0.0)||('small', 'adj', 'C0700321', ['qnco'], 0.0)||(',', '', '', '', 0.0)||('and', '', '', '', 0.0)||('additional', 'adj', 'C1524062', ['ftcn'], 0.0)||('placebo - controlled', '', '', '', 0.0)||('data', 'noun', 'C1511726', ['idcn'], 0.0)||('are', '', '', '', 0.0)||('required', 'verb', 'C1514873', ['ftcn'], 0.0)||('for', '', '', '', 0.0)||('a', '', '', '', 0.0)||('definitive', 'adj', 'C0443196', ['tmco'], 0.0)||('verdict', 'noun', 'C0680738', ['gora'], 0.0)||('.', '', '', '', 0.0)||
('since', '', '', '', 0.0)||('therapeutic', 'adj', 'C0039796', ['topp'], 0.0)||('trends', 'noun', 'C0040833', ['tmco'], 0.0)||('now', 'adv', 'C1948052', ['tmco'], 0.0)||('favor', 'verb', 'C0309049', ['orch', 'phsu', 'vita'], 0.0)||('other', '', '', '', 0.0)||('drugs', 'noun', 'C0013227', ['phsu'], 0.0)||(',', '', '', '', 0.0)||('future', 'adj', 'C0016884', ['tmco'], 0.0)||('trials', '', '', '', 0.0)||('might', '', '', '', 0.0)||('usefully', '', '', '', 0.0)||('examine', '', '', '', 0.0)||('triiodothyronine', 'noun', 'C0041014', ['aapp', 'horm', 'phsu'], 0.0)||('augmentation', 'noun', 'C1293122', ['topp'], 0.0)||('with', '', '', '', 0.0)||('selective serotonin reuptake inhibitors', 'noun', 'C0162758', ['phsu'], 0.0)||('or', '', '', '', 0.0)||('compare', 'verb', 'C1707455', ['acty'], 0.0)||('potentiation', 'noun', 'C0279023', ['topp'], 0.0)||('strategies', 'noun', 'C0679199', ['menp'], 0.0)||(',', '', '', '', 0.0)||('eg', 'noun', 'C0013715', ['geoa'], 0.0)||(',', '', '', '', 0.0)||('lithium', 'noun', 'C0023870', ['elii', 'phsu'], 0.0)||('vs', '', '', '', 0.0)||('triiodothyronine', 'noun', 'C0041014', ['aapp', 'horm', 'phsu'], 0.0)||(',', '', '', '', 0.0)||('for', '', '', '', 0.0)||('managing', 'noun', 'C1273870', ['ocac'], 0.0)||('refractory', 'adj', 'C0205269', ['ftcn'], 0.0)||('depression', 'noun', 'C0011570', ['mobd'], 0.0)||('.', '', '', '', 0.0)||
('such', '', '', '', 0.0)||('trials', '', '', '', 0.0)||('would', '', '', '', 0.0)||('benefit', 'verb', 'C0814225', ['qnco'], 0.0)||('from', '', '', '', 0.0)||('much', '', '', '', 0.0)||('larger', 'adj', 'C0549177', ['qnco'], 0.0)||('sample', 'noun', 'C0370003', ['sbst'], 0.0)||('sizes', 'noun', 'C0456389', ['spco'], 0.0)||('than', '', '', '', 0.0)||('those', '', '', '', 0.0)||('reviewed', 'verb', 'C1709940', ['qlco'], 0.0)||('here', '', '', '', 0.0)||('.', '', '', '', 0.0)||
