('a', '', '', '', 0.0)||('small', 'adj', 'C0700321', ['qnco'], 0.0)||('double - blind study', '', '', '', 0.0)||('randomized', 'verb', 'C0034656', ['resa'], 0.0)||('79', '', '', '', 0.0)||('male', 'noun', 'C0024554', ['orga'], 0.0)||('smokeless tobacco', 'noun', 'C0040338', ['sbst'], 0.0)||('users', 'noun', 'C1706077', ['humn'], 0.0)||('to', '', '', '', 0.0)||('chew', 'verb', 'C1549534', ['ftcn'], 0.0)||('nicotine', 'noun', 'C0028040', ['hops', 'orch', 'phsu'], 0.0)||('gum', 'noun', 'C0017562', ['bpoc'], 0.0)||('(', '', '', '', 0.0)||('0', '', '', '', 0.0)||('mg', '', '', '', 0.0)||(',', '', '', '', 0.0)||('2', '', '', '', 0.0)||('mg', '', '', '', 0.0)||(',', '', '', '', 0.0)||('or', '', '', '', 0.0)||('4', '', '', '', 0.0)||('mg', '', '', '', 0.0)||(')', '', '', '', 0.0)||('for', '', '', '', 0.0)||('5', '', '', '', 0.0)||('days', 'noun', 'C0439228', ['tmco'], 0.0)||('.', '', '', '', 0.0)||
('sixty', '', '', '', 0.0)||('patients', 'noun', 'C0030705', ['podg'], 0.0)||('completed', 'verb', 'C0205197', ['qlco'], 0.0)||('the', '', '', '', 0.0)||('study', 'noun', 'C0008976', ['resa'], 0.0)||('.', '', '', '', 0.0)||
('no', '', '', '', 0.0)||('significant', 'adj', 'C0750502', ['idcn'], 0.0)||('differences', '', '', '', 0.0)||('in', '', '', '', 0.0)||('withdrawal symptoms', 'noun', 'C0087169', ['sosy'], 0.0)||(',', '', '', '', 0.0)||('including', '', '', '', 0.0)||('cravings', 'noun', 'C0870371', ['inbe'], 0.0)||(',', '', '', '', 0.0)||('concentration', 'noun', 'C0086045', ['menp'], 0.0)||(',', '', '', '', 0.0)||('or', '', '', '', 0.0)||('restlessness', 'noun', 'C0085631', ['sosy'], 0.0)||(',', '', '', '', 0.0)||('were', '', '', '', 0.0)||('noted', '', '', '', 0.0)||('among', '', '', '', 0.0)||('the', '', '', '', 0.0)||('3', '', '', '', 0.0)||('groups', 'noun', 'C0441833', ['idcn'], 0.0)||('(', '', '', '', 0.0)||('p', '', '', '', 0.0)||('>', '', '', '', 0.0)||('.', '', '', '', 0.0)||('05', '', '', '', 0.0)||(')', '', '', '', 0.0)||('.', '', '', '', 0.0)||
('however', '', '', '', 0.0)||(',', '', '', '', 0.0)||('further', 'adj', 'C1517331', ['spco'], 0.0)||('analysis', 'noun', 'C0002778', ['lbpr'], 0.0)||('demonstrated', '', '', '', 0.0)||('that', '', '', '', 0.0)||('patients', 'noun', 'C0030705', ['podg'], 0.0)||('with', '', '', '', 0.0)||('high', 'adj', 'C0205250', ['qlco'], 0.0)||('blood levels', '', '', '', 0.0)||('of', '', '', '', 0.0)||('cotinine', 'noun', 'C0010194', ['orch', 'phsu'], 0.0)||('who', '', '', '', 0.0)||('received', 'verb', 'C1514756', ['qlco'], 0.0)||('nicotine', 'noun', 'C0028040', ['hops', 'orch', 'phsu'], 0.0)||('gum', 'noun', 'C0017562', ['bpoc'], 0.0)||('2', '', '', '', 0.0)||('mg', '', '', '', 0.0)||('experienced', '', '', '', 0.0)||('decreased', 'adj', 'C0205216', ['qnco'], 0.0)||('cravings', 'noun', 'C0870371', ['inbe'], 0.0)||('compared', 'verb', 'C1707455', ['acty'], 0.0)||('with', '', '', '', 0.0)||('placebo', 'noun', 'C0032042', ['topp'], 0.0)||('(', '', '', '', 0.0)||('p', '', '', '', 0.0)||('<', '', '', '', 0.0)||('.', '', '', '', 0.0)||('001', '', '', '', 0.0)||(')', '', '', '', 0.0)||(',', '', '', '', 0.0)||('and', '', '', '', 0.0)||('a', '', '', '', 0.0)||('trend', 'noun', 'C1521798', ['tmco'], 0.0)||('towards', '', '', '', 0.0)||('decreased', 'adj', 'C0205216', ['qnco'], 0.0)||('cravings', 'noun', 'C0870371', ['inbe'], 0.0)||('with', '', '', '', 0.0)||('4', '', '', '', 0.0)||('mg', '', '', '', 0.0)||('gum', 'noun', 'C0017562', ['bpoc'], 0.0)||('was', '', '', '', 0.0)||('noted', '', '', '', 0.0)||('(', '', '', '', 0.0)||('p', '', '', '', 0.0)||('<', '', '', '', 0.0)||('.', '', '', '', 0.0)||('06', '', '', '', 0.0)||(')', '', '', '', 0.0)||('.', '', '', '', 0.0)||
('limitations', '', '', '', 0.0)||('of', '', '', '', 0.0)||('this', '', '', '', 0.0)||('study', 'noun', 'C0008976', ['resa'], 0.0)||(':', '', '', '', 0.0)||('quit rates', '', '', '', 0.0)||('were', '', '', '', 0.0)||('not', 'adv', 'C1518422', ['ftcn'], 0.0)||('reported', 'verb', 'C0684224', ['inpr'], 0.0)||(',', '', '', '', 0.0)||('participants', '', '', '', 0.0)||('did', '', '', '', 0.0)||('not', 'adv', 'C1518422', ['ftcn'], 0.0)||('have', '', '', '', 0.0)||('to', '', '', '', 0.0)||('be', '', '', '', 0.0)||('motivated', '', '', '', 0.0)||('to', '', '', '', 0.0)||('quit', 'verb', 'C0748223', ['idcn'], 0.0)||('smokeless tobacco', 'noun', 'C0040338', ['sbst'], 0.0)||('in', '', '', '', 0.0)||('order', 'noun', 'C1705175', ['inpr'], 0.0)||('to', '', '', '', 0.0)||('enroll', '', '', '', 0.0)||(',', '', '', '', 0.0)||('and', '', '', '', 0.0)||('it', '', '', '', 0.0)||('is', '', '', '', 0.0)||('not', 'adv', 'C1518422', ['ftcn'], 0.0)||('known', 'verb', 'C0205309', ['qlco'], 0.0)||('if', '', '', '', 0.0)||('patients', 'noun', 'C0030705', ['podg'], 0.0)||('were', '', '', '', 0.0)||('counseled', '', '', '', 0.0)||('about', '', '', '', 0.0)||('the', '', '', '', 0.0)||('appropriate', 'adj', 'C1548787', ['qlco'], 0.0)||('"', '', '', '', 0.0)||('chew', 'noun', 'C1549534', ['ftcn'], 0.0)||('and', '', '', '', 0.0)||('park', 'noun', 'C0030567', ['dsyn'], 0.0)||('"', '', '', '', 0.0)||('technique', 'noun', 'C0449851', ['ftcn'], 0.0)||('for', '', '', '', 0.0)||('nicotine', 'noun', 'C0028040', ['hops', 'orch', 'phsu'], 0.0)||('gum', 'noun', 'C0017562', ['bpoc'], 0.0)||('.', '', '', '', 0.0)||
