('ninety - four', '', '', '', 0.0)||('patients', 'noun', 'C0030705', ['podg'], 0.0)||('with', '', '', '', 0.0)||('infectious mononucleosis', 'noun', 'C0021345', ['dsyn'], 0.0)||('and', '', '', '', 0.0)||('symptoms', 'noun', 'C0683368', ['ftcn'], 0.0)||('<', '', '', '', 0.0)||('or', '', '', '', 0.0)||('=', '', '', '', 0.0)||('7', '', '', '', 0.0)||('days', 'noun', 'C0439228', ['tmco'], 0.0)||('were', '', '', '', 0.0)||('randomized', 'verb', 'C0034656', ['resa'], 0.0)||('to', '', '', '', 0.0)||('treatment', 'noun', 'C0039798', ['ftcn'], 0.0)||('with', '', '', '', 0.0)||('oral', 'adj', 'C0442027', ['spco'], 0.0)||('acyclovir', '', '', '', 0.0)||('(', '', '', '', 0.0)||('800', '', '', '', 0.0)||('mg', '', '', '', 0.0)||('5', '', '', '', 0.0)||('times', 'noun', 'C1632851', ['qnco'], 0.0)||('/', '', '', '', 0.0)||('day', 'noun', 'C0439228', ['tmco'], 0.0)||(')', '', '', '', 0.0)||('and', '', '', '', 0.0)||('prednisolone', 'noun', 'C0032950', ['phsu', 'strd'], 0.0)||('(', '', '', '', 0.0)||('0 . 7', '', '', '', 0.0)||('mg / kg', '', '', '', 0.0)||('for', '', '', '', 0.0)||('the', '', '', '', 0.0)||('first', 'noun', 'C0205435', ['qnco'], 0.0)||('4', '', '', '', 0.0)||('days', 'noun', 'C0439228', ['tmco'], 0.0)||(',', '', '', '', 0.0)||('which', '', '', '', 0.0)||('was', '', '', '', 0.0)||('reduced', 'verb', 'C0392756', ['qlco'], 0.0)||('by', '', '', '', 0.0)||('0 . 1', '', '', '', 0.0)||('mg / kg', '', '', '', 0.0)||('on', '', '', '', 0.0)||('consecutive', 'adj', 'C1707491', ['qlco'], 0.0)||('days', 'noun', 'C0439228', ['tmco'], 0.0)||('for', '', '', '', 0.0)||('another', '', '', '', 0.0)||('6', '', '', '', 0.0)||('days', 'noun', 'C0439228', ['tmco'], 0.0)||(';', '', '', '', 0.0)||('n =', '', '', '', 0.0)||('48', '', '', '', 0.0)||(')', '', '', '', 0.0)||(',', '', '', '', 0.0)||('or', '', '', '', 0.0)||('placebo', 'noun', 'C0032042', ['topp'], 0.0)||('(', '', '', '', 0.0)||('n =', '', '', '', 0.0)||('46', '', '', '', 0.0)||(')', '', '', '', 0.0)||('for', '', '', '', 0.0)||('10', '', '', '', 0.0)||('days', 'noun', 'C0439228', ['tmco'], 0.0)||('.', '', '', '', 0.0)||
('oropharyngeal', 'adj', 'C0521367', ['blor'], 0.0)||('epstein - barr virus', '', '', '', 0.0)||('shedding', '', '', '', 0.0)||('was', '', '', '', 0.0)||('significantly', '', '', '', 0.0)||('inhibited', 'verb', 'C0311403', ['qlco'], 0.0)||('during', '', '', '', 0.0)||('the', '', '', '', 0.0)||('treatment', 'noun', 'C0039798', ['ftcn'], 0.0)||('period', 'noun', 'C1948053', ['tmco'], 0.0)||('(', '', '', '', 0.0)||('p', '', '', '', 0.0)||('=', '', '', '', 0.0)||('.', '', '', '', 0.0)||('02', '', '', '', 0.0)||(',', '', '', '', 0.0)||('mann', '', '', '', 0.0)||('-', '', '', '', 0.0)||('whitney', '', '', '', 0.0)||('rank', 'noun', 'C0699794', ['inpr'], 0.0)||('test', 'noun', 'C0022885', ['lbpr'], 0.0)||(')', '', '', '', 0.0)||('.', '', '', '', 0.0)||
('no', '', '', '', 0.0)||('significant', 'adj', 'C0750502', ['idcn'], 0.0)||('effect', 'noun', 'C1280500', ['qlco'], 0.0)||('was', '', '', '', 0.0)||('observed', 'verb', 'C1441672', ['ftcn'], 0.0)||('for', '', '', '', 0.0)||('duration', 'noun', 'C0449238', ['tmco'], 0.0)||('of', '', '', '', 0.0)||('general', 'adj', 'C0205246', ['spco'], 0.0)||('illness', 'noun', 'C0221423', ['fndg'], 0.0)||(',', '', '', '', 0.0)||('sore throat', '', '', '', 0.0)||(',', '', '', '', 0.0)||('weight loss', '', '', '', 0.0)||(',', '', '', '', 0.0)||('or', '', '', '', 0.0)||('absence', 'noun', 'C1689985', ['anab'], 0.0)||('from', '', '', '', 0.0)||('school', 'noun', 'C0036375', ['mnob', 'orgt'], 0.0)||('or', '', '', '', 0.0)||('work', 'noun', 'C0043227', ['ocac'], 0.0)||('.', '', '', '', 0.0)||
('the', '', '', '', 0.0)||('frequency', 'noun', 'C0376249', ['qnco'], 0.0)||('of', '', '', '', 0.0)||('latent', 'adj', 'C0205275', ['qlco'], 0.0)||('epstein - barr virus', '', '', '', 0.0)||('-', '', '', '', 0.0)||('infected', 'adj', 'C0439663', ['ftcn'], 0.0)||('b lymphocytes', '', '', '', 0.0)||('in', '', '', '', 0.0)||('peripheral blood', 'noun', 'C0229664', ['bdsu'], 0.0)||('and', '', '', '', 0.0)||('the', '', '', '', 0.0)||('hla', 'noun', 'C0019721', ['aapp', 'imft'], 0.0)||('-', '', '', '', 0.0)||('restricted', 'adj', 'C0443288', ['ftcn'], 0.0)||('epstein - barr virus', '', '', '', 0.0)||('-', '', '', '', 0.0)||('specific', 'adj', 'C0205369', ['qlco'], 0.0)||('cellular immunity', '', '', '', 0.0)||(',', '', '', '', 0.0)||('measured', 'verb', 'C0444706', ['qlco'], 0.0)||('6', '', '', '', 0.0)||('months', 'noun', 'C0439231', ['tmco'], 0.0)||('after', '', '', '', 0.0)||('onset', 'noun', 'C0332162', ['qlco'], 0.0)||('of', '', '', '', 0.0)||('disease', 'noun', 'C0012634', ['dsyn'], 0.0)||(',', '', '', '', 0.0)||('was', '', '', '', 0.0)||('not', 'adv', 'C1518422', ['ftcn'], 0.0)||('affected', 'verb', 'C0392760', ['ftcn'], 0.0)||('by', '', '', '', 0.0)||('treatment', 'noun', 'C0039798', ['ftcn'], 0.0)||('.', '', '', '', 0.0)||
('thus', '', '', '', 0.0)||(',', '', '', '', 0.0)||('acyclovir', '', '', '', 0.0)||('combined', 'verb', 'C0205195', ['qlco'], 0.0)||('with', '', '', '', 0.0)||('prednisolone', 'noun', 'C0032950', ['phsu', 'strd'], 0.0)||('inhibited', 'verb', 'C0311403', ['qlco'], 0.0)||('oropharyngeal', 'adj', 'C0521367', ['blor'], 0.0)||('epstein - barr virus', '', '', '', 0.0)||('replication', 'noun', 'C0598312', ['genf'], 0.0)||('without', '', '', '', 0.0)||('affecting', 'adj', 'C0392760', ['ftcn'], 0.0)||('duration', 'noun', 'C0449238', ['tmco'], 0.0)||('of', '', '', '', 0.0)||('clinical', 'adj', 'C0205210', ['qlco'], 0.0)||('symptoms', 'noun', 'C0683368', ['ftcn'], 0.0)||('or', '', '', '', 0.0)||('development', 'noun', 'C0020119', ['phsf'], 0.0)||('of', '', '', '', 0.0)||('epstein - barr virus', '', '', '', 0.0)||('-', '', '', '', 0.0)||('specific', 'adj', 'C0205369', ['qlco'], 0.0)||('cellular immunity', '', '', '', 0.0)||('.', '', '', '', 0.0)||
