('screening', 'noun', 'C0220908', ['hlca'], 0.0)||('for', '', '', '', 0.0)||('hepatocellular carcinoma', 'noun', 'C1512411', ['neop'], 0.0)||('has', '', '', '', 0.0)||('been', '', '', '', 0.0)||('conducted', '', '', '', 0.0)||('for', '', '', '', 0.0)||('over', 'adv', 'C0205136', ['spco'], 0.0)||('20', '', '', '', 0.0)||('years', 'noun', 'C0439234', ['tmco'], 0.0)||(',', '', '', '', 0.0)||('but', '', '', '', 0.0)||('there', '', '', '', 0.0)||('is', '', '', '', 0.0)||('no', '', '', '', 0.0)||('conclusive', '', '', '', 0.0)||('evidence', 'noun', 'C0332120', ['ftcn'], 0.0)||('that', '', '', '', 0.0)||('screening', 'noun', 'C0220908', ['hlca'], 0.0)||('may', '', '', '', 0.0)||('reduce', '', '', '', 0.0)||('hepatocellular carcinoma', 'noun', 'C1512411', ['neop'], 0.0)||('mortality', 'noun', 'C0026565', ['qnco'], 0.0)||('.', '', '', '', 0.0)||
('the', '', '', '', 0.0)||('aim', 'noun', 'C1947946', ['idcn'], 0.0)||('of', '', '', '', 0.0)||('this', '', '', '', 0.0)||('study', 'noun', 'C0008976', ['resa'], 0.0)||('was', '', '', '', 0.0)||('to', '', '', '', 0.0)||('assess', 'verb', 'C1516048', ['acty'], 0.0)||('the', '', '', '', 0.0)||('effect', 'noun', 'C1280500', ['qlco'], 0.0)||('of', '', '', '', 0.0)||('screening', 'noun', 'C0220908', ['hlca'], 0.0)||('on', '', '', '', 0.0)||('hepatocellular carcinoma', 'noun', 'C1512411', ['neop'], 0.0)||('mortality', 'noun', 'C0026565', ['qnco'], 0.0)||('in', '', '', '', 0.0)||('people', 'noun', 'C0027361', ['popg'], 0.0)||('at', '', '', '', 0.0)||('increased risk', '', '', '', 0.0)||('.', '', '', '', 0.0)||
('this', '', '', '', 0.0)||('study', 'noun', 'C0008976', ['resa'], 0.0)||('included', '', '', '', 0.0)||('18 , 816', '', '', '', 0.0)||('people', 'noun', 'C0027361', ['popg'], 0.0)||(',', '', '', '', 0.0)||('aged', 'verb', 'C0001779', ['orga'], 0.0)||('35', '', '', '', 0.0)||('-', '', '', '', 0.0)||('59', '', '', '', 0.0)||('years', 'noun', 'C0439234', ['tmco'], 0.0)||('with', '', '', '', 0.0)||('hepatitis b virus', 'noun', 'C0019169', ['virs'], 0.0)||('infection', 'noun', 'C0021311', ['dsyn'], 0.0)||('or', '', '', '', 0.0)||('a', '', '', '', 0.0)||('history', 'noun', 'C0019664', ['ocdi'], 0.0)||('of', '', '', '', 0.0)||('chronic hepatitis', '', '', '', 0.0)||('in', '', '', '', 0.0)||('urban', 'adj', 'C0442529', ['geoa'], 0.0)||('shanghai', '', '', '', 0.0)||(',', '', '', '', 0.0)||('china', 'noun', 'C0008115', ['geoa'], 0.0)||('.', '', '', '', 0.0)||
('participants', '', '', '', 0.0)||('were', '', '', '', 0.0)||('randomly', '', '', '', 0.0)||('allocated', '', '', '', 0.0)||('to', '', '', '', 0.0)||('a', '', '', '', 0.0)||('screening', 'adj', 'C0220908', ['hlca'], 0.0)||('(', '', '', '', 0.0)||('9 , 373', '', '', '', 0.0)||(')', '', '', '', 0.0)||('or', '', '', '', 0.0)||('control', 'noun', 'C0243148', ['qlco'], 0.0)||('(', '', '', '', 0.0)||('9 , 443', '', '', '', 0.0)||(')', '', '', '', 0.0)||('group', 'noun', 'C0441833', ['idcn'], 0.0)||('.', '', '', '', 0.0)||
('controls', '', '', '', 0.0)||('received', 'verb', 'C1514756', ['qlco'], 0.0)||('no', '', '', '', 0.0)||('screening', 'noun', 'C0220908', ['hlca'], 0.0)||('and', '', '', '', 0.0)||('continued', 'verb', 'C0549178', ['idcn'], 0.0)||('to', '', '', '', 0.0)||('use', 'verb', 'C0042153', ['ftcn'], 0.0)||('health - care', '', '', '', 0.0)||('facilities', 'noun', 'C1547538', ['idcn'], 0.0)||('.', '', '', '', 0.0)||
('screening', 'adj', 'C0220908', ['hlca'], 0.0)||('group', 'noun', 'C0441833', ['idcn'], 0.0)||('participants', '', '', '', 0.0)||('were', '', '', '', 0.0)||('invited', '', '', '', 0.0)||('to', '', '', '', 0.0)||('have', '', '', '', 0.0)||('an', '', '', '', 0.0)||('afp', 'noun', 'C0201539', ['lbpr'], 0.0)||('test', 'noun', 'C0022885', ['lbpr'], 0.0)||('and', '', '', '', 0.0)||('ultrasonography', 'noun', 'C0041618', ['diap'], 0.0)||('examination', '', '', '', 0.0)||('every', '', '', '', 0.0)||('6', '', '', '', 0.0)||('months', 'noun', 'C0439231', ['tmco'], 0.0)||('.', '', '', '', 0.0)||
('screening', 'noun', 'C0220908', ['hlca'], 0.0)||('was', '', '', '', 0.0)||('stopped', '', '', '', 0.0)||('in', '', '', '', 0.0)||('december', '', '', '', 0.0)||('1997', '', '', '', 0.0)||(';', '', '', '', 0.0)||
('by', '', '', '', 0.0)||('that', '', '', '', 0.0)||('time', 'noun', 'C0040223', ['tmco'], 0.0)||('screening', 'adj', 'C0220908', ['hlca'], 0.0)||('group', 'noun', 'C0441833', ['idcn'], 0.0)||('participants', '', '', '', 0.0)||('had', '', '', '', 0.0)||('been', '', '', '', 0.0)||('offered', 'verb', 'C1444648', ['fndg'], 0.0)||('five', '', 'C0205451', ['qnco'], 0.0)||('to', '', '', '', 0.0)||('ten', 'verb', 'C0014518', ['dsyn'], 0.0)||('times', 'noun', 'C1632851', ['qnco'], 0.0)||('.', '', '', '', 0.0)||
('all', '', '', '', 0.0)||('participants', '', '', '', 0.0)||('were', '', '', '', 0.0)||('followed', '', '', '', 0.0)||('up', '', '', '', 0.0)||('until', '', '', '', 0.0)||('december', '', '', '', 0.0)||('1998', '', '', '', 0.0)||('.', '', '', '', 0.0)||
('the', '', '', '', 0.0)||('primary', 'adj', 'C0205225', ['qlco'], 0.0)||('outcome', 'noun', 'C1274040', ['ftcn'], 0.0)||('measure', 'noun', 'C0079809', ['qnco'], 0.0)||('was', '', '', '', 0.0)||('hepatocellular carcinoma', 'noun', 'C1512411', ['neop'], 0.0)||('mortality', 'noun', 'C0026565', ['qnco'], 0.0)||('.', '', '', '', 0.0)||
('the', '', '', '', 0.0)||('screened', '', '', '', 0.0)||('group', 'noun', 'C0441833', ['idcn'], 0.0)||('completed', 'verb', 'C0205197', ['qlco'], 0.0)||('58 . 2', '', '', '', 0.0)||('percent', 'noun', 'C0439165', ['qnco'], 0.0)||('of', '', '', '', 0.0)||('the', '', '', '', 0.0)||('screening', 'noun', 'C0220908', ['hlca'], 0.0)||('offered', 'verb', 'C1444648', ['fndg'], 0.0)||('.', '', '', '', 0.0)||
('when', '', '', '', 0.0)||('the', '', '', '', 0.0)||('screening', 'adj', 'C0220908', ['hlca'], 0.0)||('group', 'noun', 'C0441833', ['idcn'], 0.0)||('was', '', '', '', 0.0)||('compared', 'verb', 'C1707455', ['acty'], 0.0)||('to', '', '', '', 0.0)||('the', '', '', '', 0.0)||('control group', 'noun', 'C0009932', ['grup'], 0.0)||(',', '', '', '', 0.0)||('the', '', '', '', 0.0)||('number', 'noun', 'C0449788', ['qnco'], 0.0)||('of', '', '', '', 0.0)||('hepatocellular carcinoma', 'noun', 'C1512411', ['neop'], 0.0)||('was', '', '', '', 0.0)||('86', '', '', '', 0.0)||('versus', '', '', '', 0.0)||('67', '', '', '', 0.0)||(';', '', '', '', 0.0)||
('subclinical', 'adj', 'C0205211', ['qlco'], 0.0)||('hepatocellular carcinoma', 'noun', 'C1512411', ['neop'], 0.0)||('being', '', '', '', 0.0)||('52', '', '', '', 0.0)||('(', '', '', '', 0.0)||('60 . 5 %', '', '', '', 0.0)||(')', '', '', '', 0.0)||('versus', '', '', '', 0.0)||('0', '', '', '', 0.0)||(';', '', '', '', 0.0)||
('small', 'adj', 'C0700321', ['qnco'], 0.0)||('hepatocellular carcinoma', 'noun', 'C1512411', ['neop'], 0.0)||('39', '', '', '', 0.0)||('(', '', '', '', 0.0)||('45 . 3 %', '', '', '', 0.0)||(')', '', '', '', 0.0)||('versus', '', '', '', 0.0)||('0', '', '', '', 0.0)||(';', '', '', '', 0.0)||
('resection', 'noun', 'C0728940', ['topp'], 0.0)||('achieved', '', '', '', 0.0)||('40', '', '', '', 0.0)||('(', '', '', '', 0.0)||('46 . 5 %', '', '', '', 0.0)||(')', '', '', '', 0.0)||('versus', '', '', '', 0.0)||('5', '', '', '', 0.0)||('(', '', '', '', 0.0)||('7 . 5 %', '', '', '', 0.0)||(')', '', '', '', 0.0)||(';', '', '', '', 0.0)||
('1', '', '', '', 0.0)||('-', '', '', '', 0.0)||(',', '', '', '', 0.0)||('3', '', '', '', 0.0)||(',', '', '', '', 0.0)||('-', '', '', '', 0.0)||(',', '', '', '', 0.0)||('and', '', '', '', 0.0)||('5 - year survival rate', '', '', '', 0.0)||('65 . 9 %', '', '', '', 0.0)||(',', '', '', '', 0.0)||('52 . 6 %', '', '', '', 0.0)||(',', '', '', '', 0.0)||('46 . 4 %', '', '', '', 0.0)||('versus', '', '', '', 0.0)||('31 . 2 %', '', '', '', 0.0)||(',', '', '', '', 0.0)||('7 . 2 %', '', '', '', 0.0)||(',', '', '', '', 0.0)||('0', '', '', '', 0.0)||(',', '', '', '', 0.0)||('respectively', '', '', '', 0.0)||('.', '', '', '', 0.0)||
('thirty - two', '', '', '', 0.0)||('people', 'noun', 'C0027361', ['popg'], 0.0)||('died', 'verb', 'C1306577', ['fndg'], 0.0)||('from', '', '', '', 0.0)||('hepatocellular carcinoma', 'noun', 'C1512411', ['neop'], 0.0)||('in', '', '', '', 0.0)||('the', '', '', '', 0.0)||('screened', '', '', '', 0.0)||('group', 'noun', 'C0441833', ['idcn'], 0.0)||('versus', '', '', '', 0.0)||('54', '', '', '', 0.0)||('in', '', '', '', 0.0)||('the', '', '', '', 0.0)||('control group', 'noun', 'C0009932', ['grup'], 0.0)||(',', '', '', '', 0.0)||('and', '', '', '', 0.0)||('the', '', '', '', 0.0)||('hepatocellular carcinoma', 'noun', 'C1512411', ['neop'], 0.0)||('mortality rate', 'noun', 'C0026565', ['qnco'], 0.0)||('was', '', '', '', 0.0)||('significantly', '', '', '', 0.0)||('lower', 'adj', 'C0441994', ['ftcn'], 0.0)||('in', '', '', '', 0.0)||('the', '', '', '', 0.0)||('screened', '', '', '', 0.0)||('group', 'noun', 'C0441833', ['idcn'], 0.0)||('than', '', '', '', 0.0)||('in', '', '', '', 0.0)||('controls', '', '', '', 0.0)||(',', '', '', '', 0.0)||('being', '', '', '', 0.0)||('83 . 2', '', '', '', 0.0)||('/', '', '', '', 0.0)||('100 , 000', '', '', '', 0.0)||('and', '', '', '', 0.0)||('131 . 5', '', '', '', 0.0)||('/', '', '', '', 0.0)||('100 , 000', '', '', '', 0.0)||(',', '', '', '', 0.0)||('respectively', '', '', '', 0.0)||(',', '', '', '', 0.0)||('with', '', '', '', 0.0)||('a', '', '', '', 0.0)||('mortality rate', 'noun', 'C0026565', ['qnco'], 0.0)||('ratio', 'noun', 'C0456603', ['qnco'], 0.0)||('of', '', '', '', 0.0)||('0 . 63', '', '', '', 0.0)||('(', '', '', '', 0.0)||('95 %', '', '', '', 0.0)||('ci', 'noun', 'C1417638', ['gngm'], 0.0)||('0 . 41', '', '', '', 0.0)||('-', '', '', '', 0.0)||('0 . 98', '', '', '', 0.0)||(')', '', '', '', 0.0)||('.', '', '', '', 0.0)||
('our', '', '', '', 0.0)||('finding', 'noun', 'C0037088', ['sosy'], 0.0)||('indicated', 'verb', 'C1444656', ['fndg'], 0.0)||('that', '', '', '', 0.0)||('biannual', '', '', '', 0.0)||('screening', 'noun', 'C0220908', ['hlca'], 0.0)||('reduced', 'adj', 'C0392756', ['qlco'], 0.0)||('hepatocellular carcinoma', 'noun', 'C1512411', ['neop'], 0.0)||('mortality', 'noun', 'C0026565', ['qnco'], 0.0)||('by', '', '', '', 0.0)||('37 %', '', '', '', 0.0)||('.', '', '', '', 0.0)||
