('there', '', '', '', 0.0)||('is', '', '', '', 0.0)||('currently', 'adv', 'C0521116', ['tmco'], 0.0)||('no', '', '', '', 0.0)||('evidence', 'noun', 'C0332120', ['ftcn'], 0.0)||('that', '', '', '', 0.0)||('screening', 'adj', 'C0220908', ['hlca'], 0.0)||('patients', 'noun', 'C0030705', ['podg'], 0.0)||('at risk', '', '', '', 0.0)||('for', '', '', '', 0.0)||('hepatocellular carcinoma', 'noun', 'C1512411', ['neop'], 0.0)||('reduces', '', '', '', 0.0)||('mortality', 'noun', 'C0026565', ['qnco'], 0.0)||('from', '', '', '', 0.0)||('the', '', '', '', 0.0)||('disease', 'noun', 'C0012634', ['dsyn'], 0.0)||('.', '', '', '', 0.0)||
('nonetheless', '', '', '', 0.0)||(',', '', '', '', 0.0)||('screening', 'verb', 'C0220908', ['hlca'], 0.0)||('is', '', '', '', 0.0)||('widely', '', '', '', 0.0)||('practiced', '', '', '', 0.0)||('.', '', '', '', 0.0)||
('screening', 'noun', 'C0220908', ['hlca'], 0.0)||('is', '', '', '', 0.0)||('a', '', '', '', 0.0)||('process', 'noun', 'C1184743', ['bpoc'], 0.0)||('that', '', '', '', 0.0)||('includes', 'verb', 'C0332257', ['ftcn'], 0.0)||('selecting', '', '', '', 0.0)||('patients', 'noun', 'C0030705', ['podg'], 0.0)||(',', '', '', '', 0.0)||('applying', 'verb', 'C0185125', ['hlca'], 0.0)||('screening tests', 'noun', 'C0871311', ['hlca'], 0.0)||(',', '', '', '', 0.0)||('deciding', '', '', '', 0.0)||('on', '', '', '', 0.0)||('recall', 'noun', 'C0034770', ['menp'], 0.0)||('policies', 'noun', 'C0242456', ['inpr'], 0.0)||(',', '', '', '', 0.0)||('and', '', '', '', 0.0)||('subsequently', '', '', '', 0.0)||('proving', '', '', '', 0.0)||('or', '', '', '', 0.0)||('disproving', '', '', '', 0.0)||('the', '', '', '', 0.0)||('presence', 'noun', 'C0392148', ['topp'], 0.0)||('of', '', '', '', 0.0)||('cancer', 'noun', 'C0006826', ['neop'], 0.0)||('.', '', '', '', 0.0)||
('the', '', '', '', 0.0)||('literature', 'noun', 'C0023866', ['inpr'], 0.0)||('on', '', '', '', 0.0)||('screening', 'noun', 'C0220908', ['hlca'], 0.0)||('for', '', '', '', 0.0)||('hepatocellular carcinoma', 'noun', 'C1512411', ['neop'], 0.0)||('is', '', '', '', 0.0)||('confusing', '', '', '', 0.0)||('at', '', '', '', 0.0)||('best', 'adj', 'C1522427', ['qlco'], 0.0)||(',', '', '', '', 0.0)||('and', '', '', '', 0.0)||('does', '', '', '', 0.0)||('not', 'adv', 'C1518422', ['ftcn'], 0.0)||('adequately', '', '', '', 0.0)||('consider', 'verb', 'C0750591', ['idcn'], 0.0)||('the', '', '', '', 0.0)||('many', '', '', '', 0.0)||('biases', 'noun', 'C0242568', ['idcn'], 0.0)||('that', '', '', '', 0.0)||('result', 'verb', 'C1274040', ['ftcn'], 0.0)||('from', '', '', '', 0.0)||('uncontrolled', 'adj', 'C0205318', ['qlco'], 0.0)||('and', '', '', '', 0.0)||('retrospective studies', 'noun', 'C0035363', ['resa'], 0.0)||('.', '', '', '', 0.0)||
('nonetheless', '', '', '', 0.0)||(',', '', '', '', 0.0)||('screening', 'verb', 'C0220908', ['hlca'], 0.0)||('can', '', '', '', 0.0)||('be', '', '', '', 0.0)||('justified', '', '', '', 0.0)||('because', '', '', '', 0.0)||('it', '', '', '', 0.0)||('is', '', '', '', 0.0)||('likely', 'adv', 'C0332148', ['qlco'], 0.0)||('that', '', '', '', 0.0)||('mortality', 'noun', 'C0026565', ['qnco'], 0.0)||('is', '', '', '', 0.0)||('decreased', 'verb', 'C0205216', ['qnco'], 0.0)||('by', '', '', '', 0.0)||('adequate', 'adj', 'C0205410', ['qlco'], 0.0)||('treatment', 'noun', 'C0039798', ['ftcn'], 0.0)||('of', '', '', '', 0.0)||('small', 'adj', 'C0700321', ['qnco'], 0.0)||('cancers', 'noun', 'C0006826', ['neop'], 0.0)||(',', '', '', '', 0.0)||('particularly', '', '', '', 0.0)||('in', '', '', '', 0.0)||('the', '', '', '', 0.0)||('era', 'noun', 'C0681698', ['tmco'], 0.0)||('of', '', '', '', 0.0)||('liver', 'noun', 'C0023884', ['bpoc'], 0.0)||('transplantation', 'noun', 'C0029216', ['topp'], 0.0)||('.', '', '', '', 0.0)||
('false - positive', '', '', '', 0.0)||('screening test', '', '', '', 0.0)||('results', 'noun', 'C1274040', ['ftcn'], 0.0)||('are', '', '', '', 0.0)||('common', 'adj', 'C0205214', ['qnco'], 0.0)||('.', '', '', '', 0.0)||
('once', '', '', '', 0.0)||('an', '', '', '', 0.0)||('abnormal', 'adj', 'C0205161', ['ftcn'], 0.0)||('screening', 'adj', 'C0220908', ['hlca'], 0.0)||('result', 'noun', 'C1274040', ['ftcn'], 0.0)||('is', '', '', '', 0.0)||('obtained', 'verb', 'C1301820', ['ftcn'], 0.0)||('there', '', '', '', 0.0)||('is', '', '', '', 0.0)||('little', '', '', '', 0.0)||('guidance', 'noun', 'C0150600', ['hlca'], 0.0)||('from', '', '', '', 0.0)||('the', '', '', '', 0.0)||('literature', 'noun', 'C0023866', ['inpr'], 0.0)||('as to', '', '', '', 0.0)||('how', '', '', '', 0.0)||('patients', 'noun', 'C0030705', ['podg'], 0.0)||('should', '', '', '', 0.0)||('be', '', '', '', 0.0)||('investigated', '', '', '', 0.0)||('further', 'adv', 'C1517331', ['spco'], 0.0)||(',', '', '', '', 0.0)||('nor', '', '', '', 0.0)||('about', '', '', '', 0.0)||('how', '', '', '', 0.0)||('to', '', '', '', 0.0)||('determine', '', '', '', 0.0)||('whether', '', '', '', 0.0)||('the', '', '', '', 0.0)||('screening test', '', '', '', 0.0)||('result', 'noun', 'C1274040', ['ftcn'], 0.0)||('was', '', '', '', 0.0)||('a', '', '', '', 0.0)||('false - positive', '', '', '', 0.0)||('.', '', '', '', 0.0)||
('this', '', '', '', 0.0)||('should', '', '', '', 0.0)||('at', '', '', '', 0.0)||('minimum', 'noun', 'C1524031', ['qlco'], 0.0)||('include', 'verb', 'C1552866', ['idcn'], 0.0)||('short', 'adj', 'C1806781', ['qnco'], 0.0)||('interval', 'noun', 'C1272706', ['tmco'], 0.0)||('follow - up', '', '', '', 0.0)||('with', '', '', '', 0.0)||('ct scans', '', '', '', 0.0)||('and', '', '', '', 0.0)||("mri ' s", '', '', '', 0.0)||('.', '', '', '', 0.0)||
