('to', '', '', '', 0.0)||('determine', '', '', '', 0.0)||('if', '', '', '', 0.0)||('high', 'adj', 'C0205250', ['qlco'], 0.0)||('doses', 'noun', 'C0178602', ['qnco'], 0.0)||('of', '', '', '', 0.0)||('oral', 'adj', 'C0442027', ['spco'], 0.0)||('iron', 'noun', 'C0302583', ['bacs', 'elii', 'phsu'], 0.0)||('could', '', '', '', 0.0)||('shorten', '', '', '', 0.0)||('the', '', '', '', 0.0)||('duration', 'noun', 'C0449238', ['tmco'], 0.0)||('of', '', '', '', 0.0)||('therapy', 'noun', 'C0039798', ['ftcn'], 0.0)||('necessary', '', '', '', 0.0)||('to', '', '', '', 0.0)||('treat', 'verb', 'C1292734', ['ftcn'], 0.0)||('fe', '', '', '', 0.0)||('deficiency anemia', 'noun', 'C0041782', ['dsyn'], 0.0)||(',', '', '', '', 0.0)||('high - dose', '', '', '', 0.0)||('fe', '', '', '', 0.0)||('600', '', '', '', 0.0)||('mg', '', '', '', 0.0)||('three', '', 'C0205449', ['qnco'], 0.0)||('times', 'noun', 'C1632851', ['qnco'], 0.0)||('per', '', '', '', 0.0)||('day', 'noun', 'C0439228', ['tmco'], 0.0)||('(', '', '', '', 0.0)||('given', '', '', '', 0.0)||('as', '', '', '', 0.0)||('nontoxic', 'adj', 'C1518413', ['qlco'], 0.0)||('carbonyl', '', '', '', 0.0)||('fe )', '', '', '', 0.0)||('was', '', '', '', 0.0)||('compared', 'verb', 'C1707455', ['acty'], 0.0)||('with', '', '', '', 0.0)||('standard', 'adj', 'C1442989', ['ftcn'], 0.0)||('ferrous sulfate', 'noun', 'C0060282', ['inch', 'phsu'], 0.0)||('60', '', '', '', 0.0)||('mg', '', '', '', 0.0)||('fe + +', '', '', '', 0.0)||('three', '', 'C0205449', ['qnco'], 0.0)||('times', 'noun', 'C1632851', ['qnco'], 0.0)||('per', '', '', '', 0.0)||('day', 'noun', 'C0439228', ['tmco'], 0.0)||('in', '', '', '', 0.0)||('a', '', '', '', 0.0)||('randomized', 'adj', 'C0034656', ['resa'], 0.0)||(',', '', '', '', 0.0)||('double - blind', '', '', '', 0.0)||(',', '', '', '', 0.0)||('3', '', '', '', 0.0)||('-', '', '', '', 0.0)||('wk', 'noun', 'C0439230', ['tmco'], 0.0)||('trial', 'noun', 'C0008976', ['resa'], 0.0)||('involving', 'verb', 'C1314939', ['ftcn'], 0.0)||('36', '', '', '', 0.0)||('female', 'noun', 'C0015780', ['orga'], 0.0)||('blood donors', 'noun', 'C0005795', ['popg'], 0.0)||('with', '', '', '', 0.0)||('mild', 'adj', 'C0547040', ['qlco'], 0.0)||('fe', '', '', '', 0.0)||('deficiency anemia', 'noun', 'C0041782', ['dsyn'], 0.0)||('.', '', '', '', 0.0)||
('in', '', '', '', 0.0)||('animal studies', '', '', '', 0.0)||(',', '', '', '', 0.0)||('both', '', '', '', 0.0)||('forms', 'verb', 'C0376315', ['mnob'], 0.0)||('of', '', '', '', 0.0)||('fe', '', '', '', 0.0)||('have', '', '', '', 0.0)||('similar', 'adj', 'C2348205', ['qlco'], 0.0)||('bioavailability', 'noun', 'C0005508', ['qnco'], 0.0)||('when', '', '', '', 0.0)||('administered', 'verb', 'C1521801', ['ftcn'], 0.0)||('in', '', '', '', 0.0)||('equal', 'adj', 'C0205163', ['qlco'], 0.0)||('amounts', '', '', '', 0.0)||('.', '', '', '', 0.0)||
('high - dose', '', '', '', 0.0)||('carbonyl', '', '', '', 0.0)||('fe', '', '', '', 0.0)||('was', '', '', '', 0.0)||('well tolerated', '', '', '', 0.0)||('with', '', '', '', 0.0)||('gastrointestinal', 'adj', 'C0521362', ['spco'], 0.0)||('side effects', 'noun', 'C0001688', ['ftcn'], 0.0)||('similar', 'adj', 'C2348205', ['qlco'], 0.0)||('those', '', '', '', 0.0)||('observed', 'verb', 'C1441672', ['ftcn'], 0.0)||('with', '', '', '', 0.0)||('standard', 'adj', 'C1442989', ['ftcn'], 0.0)||('feso4', '', '', '', 0.0)||('therapy', 'noun', 'C0039798', ['ftcn'], 0.0)||('.', '', '', '', 0.0)||
('the', '', '', '', 0.0)||('10 - fold', '', '', '', 0.0)||('larger', 'adj', 'C0549177', ['qnco'], 0.0)||('amount', 'noun', 'C1265611', ['qnco'], 0.0)||('of', '', '', '', 0.0)||('fe', '', '', '', 0.0)||('resulted', '', '', '', 0.0)||('in', '', '', '', 0.0)||('a', '', '', '', 0.0)||('mean', 'noun', 'C0444504', ['qnco'], 0.0)||('1 . 5', '', '', '', 0.0)||('-', '', '', '', 0.0)||('fold', 'noun', 'C0332462', ['spco'], 0.0)||('increase', 'noun', 'C0442805', ['ftcn'], 0.0)||('in', '', '', '', 0.0)||('estimated', 'adj', 'C0750572', ['qnco'], 0.0)||('fe', '', '', '', 0.0)||('absorption', 'noun', 'C0000854', ['npop'], 0.0)||('.', '', '', '', 0.0)||
('both', '', '', '', 0.0)||('regimens', '', '', '', 0.0)||('corrected', 'verb', 'C0205202', ['qlco'], 0.0)||('anemia', 'noun', 'C1000483', ['plnt'], 0.0)||('but', '', '', '', 0.0)||('neither', '', '', '', 0.0)||('replenished', '', '', '', 0.0)||('storage', 'noun', 'C0337174', ['spco'], 0.0)||('fe', '', '', '', 0.0)||('.', '', '', '', 0.0)||
('these', '', '', '', 0.0)||('results', 'noun', 'C1274040', ['ftcn'], 0.0)||('suggest', 'verb', 'C1705535', ['idcn'], 0.0)||('that', '', '', '', 0.0)||('the', '', '', '', 0.0)||('principal', 'adj', 'C0205225', ['qlco'], 0.0)||('advantage', '', '', '', 0.0)||('to', '', '', '', 0.0)||('the', '', '', '', 0.0)||('use', 'noun', 'C0042153', ['ftcn'], 0.0)||('of', '', '', '', 0.0)||('carbonyl', '', '', '', 0.0)||('fe', '', '', '', 0.0)||('would', '', '', '', 0.0)||('derive', '', '', '', 0.0)||('from', '', '', '', 0.0)||('its', '', '', '', 0.0)||('safety', 'noun', 'C0036043', ['hcpp'], 0.0)||('rather than', '', '', '', 0.0)||('from', '', '', '', 0.0)||('the', '', '', '', 0.0)||('large', 'adj', 'C0549177', ['qnco'], 0.0)||('doses', 'noun', 'C0178602', ['qnco'], 0.0)||('that', '', '', '', 0.0)||('can', '', '', '', 0.0)||('be', '', '', '', 0.0)||('given', '', '', '', 0.0)||('.', '', '', '', 0.0)||
