('to', '', '', '', 0.0)||('evaluate', 'verb', 'C0220825', ['ftcn'], 0.0)||('the', '', '', '', 0.0)||('effects', '', '', '', 0.0)||('of', '', '', '', 0.0)||('an', '', '', '', 0.0)||('exercise', 'noun', 'C0015259', ['dora'], 0.0)||('and', '', '', '', 0.0)||('scheduled', 'verb', 'C0086960', ['inpr'], 0.0)||('-', '', '', '', 0.0)||('toileting', 'verb', 'C0150810', ['dora'], 0.0)||('intervention', 'noun', 'C1273869', ['hlca'], 0.0)||('on', '', '', '', 0.0)||('appetite', 'noun', 'C0003618', ['orgf'], 0.0)||('and', '', '', '', 0.0)||('constipation', 'noun', 'C0009806', ['sosy'], 0.0)||('in', '', '', '', 0.0)||('nursing home', '', '', '', 0.0)||('residents', '', '', '', 0.0)||('.', '', '', '', 0.0)||
('a', '', '', '', 0.0)||('controlled', 'adj', 'C2587213', ['ftcn'], 0.0)||(',', '', '', '', 0.0)||('clinical', 'adj', 'C0205210', ['qlco'], 0.0)||('intervention', 'noun', 'C1273869', ['hlca'], 0.0)||('trial', 'noun', 'C0008976', ['resa'], 0.0)||('with', '', '', '', 0.0)||('89', '', '', '', 0.0)||('residents', '', '', '', 0.0)||('in', '', '', '', 0.0)||('two', 'adj', 'C0205448', ['qnco'], 0.0)||('nhs', 'noun', 'C0796085', ['dsyn'], 0.0)||('.', '', '', '', 0.0)||
('research', 'noun', 'C0035168', ['resa'], 0.0)||('staff', 'noun', 'C0851286', ['prog'], 0.0)||('provided', '', '', '', 0.0)||('exercise', 'noun', 'C0015259', ['dora'], 0.0)||('and', '', '', '', 0.0)||('toileting', 'adj', 'C0150810', ['dora'], 0.0)||('assistance', 'noun', 'C0018896', ['socb'], 0.0)||('every', '', '', '', 0.0)||('two', 'adj', 'C0205448', ['qnco'], 0.0)||('hours', 'noun', 'C0439227', ['tmco'], 0.0)||(',', '', '', '', 0.0)||('four', '', 'C0205450', ['qnco'], 0.0)||('times', 'noun', 'C1632851', ['qnco'], 0.0)||('per', '', '', '', 0.0)||('day', 'noun', 'C0439228', ['tmco'], 0.0)||(',', '', '', '', 0.0)||('five', '', 'C0205451', ['qnco'], 0.0)||('days', 'noun', 'C0439228', ['tmco'], 0.0)||('a', '', '', '', 0.0)||('week', 'noun', 'C0439230', ['tmco'], 0.0)||('for', '', '', '', 0.0)||('32', '', '', '', 0.0)||('weeks', 'noun', 'C0439230', ['tmco'], 0.0)||('.', '', '', '', 0.0)||
('oral', 'adj', 'C0442027', ['spco'], 0.0)||('food', 'noun', 'C0016452', ['food'], 0.0)||('and', '', '', '', 0.0)||('fluid', 'noun', 'C0005889', ['bdsu'], 0.0)||('consumption', 'noun', 'C0009830', ['acty'], 0.0)||('during', '', '', '', 0.0)||('meals', '', '', '', 0.0)||('was', '', '', '', 0.0)||('measured', 'verb', 'C0444706', ['qlco'], 0.0)||('at', '', '', '', 0.0)||('baseline', 'noun', 'C0168634', ['bodm'], 0.0)||(',', '', '', '', 0.0)||('eight', '', 'C0205454', ['qnco'], 0.0)||('and', '', '', '', 0.0)||('32', '', '', '', 0.0)||('weeks', 'noun', 'C0439230', ['tmco'], 0.0)||('.', '', '', '', 0.0)||
('bowel movement', 'noun', 'C0011135', ['orgf'], 0.0)||('frequency', 'noun', 'C0376249', ['qnco'], 0.0)||('was', '', '', '', 0.0)||('measured', 'verb', 'C0444706', ['qlco'], 0.0)||('at', '', '', '', 0.0)||('baseline', 'noun', 'C0168634', ['bodm'], 0.0)||('and', '', '', '', 0.0)||('32', '', '', '', 0.0)||('weeks', 'noun', 'C0439230', ['tmco'], 0.0)||('.', '', '', '', 0.0)||
('the', '', '', '', 0.0)||('intervention', 'noun', 'C1273869', ['hlca'], 0.0)||('group', 'noun', 'C0441833', ['idcn'], 0.0)||('showed', '', '', '', 0.0)||('significant', 'adj', 'C0750502', ['idcn'], 0.0)||('improvements', '', '', '', 0.0)||('or', '', '', '', 0.0)||('maintenance', 'noun', 'C0024501', ['acty'], 0.0)||('across', '', '', '', 0.0)||('all', '', '', '', 0.0)||('measures', 'verb', 'C0079809', ['qnco'], 0.0)||('of', '', '', '', 0.0)||('daily physical activity', '', '', '', 0.0)||(',', '', '', '', 0.0)||('functional', 'adj', 'C0205245', ['ftcn'], 0.0)||('performance', 'noun', 'C0597198', ['inbe'], 0.0)||(',', '', '', '', 0.0)||('and', '', '', '', 0.0)||('strength', 'noun', 'C0808080', ['idcn'], 0.0)||('compared', 'verb', 'C1707455', ['acty'], 0.0)||('to', '', '', '', 0.0)||('the', '', '', '', 0.0)||('control group', 'noun', 'C0009932', ['grup'], 0.0)||('.', '', '', '', 0.0)||
('participants', '', '', '', 0.0)||('in', '', '', '', 0.0)||('both', '', '', '', 0.0)||('groups', 'noun', 'C0441833', ['idcn'], 0.0)||('consumed', '', '', '', 0.0)||('an', '', '', '', 0.0)||('average', 'noun', 'C1510992', ['qnco'], 0.0)||('of', '', '', '', 0.0)||('approximately', 'adv', 'C0332232', ['qlco'], 0.0)||('55 %', '', '', '', 0.0)||('of', '', '', '', 0.0)||('meals', '', '', '', 0.0)||('at', '', '', '', 0.0)||('all', '', '', '', 0.0)||('three', '', 'C0205449', ['qnco'], 0.0)||('time points', '', '', '', 0.0)||('(', '', '', '', 0.0)||('approximately', 'adv', 'C0332232', ['qlco'], 0.0)||('1100', '', '', '', 0.0)||('calories', 'noun', 'C1556156', ['qnco'], 0.0)||('/', '', '', '', 0.0)||('day', 'noun', 'C0439228', ['tmco'], 0.0)||(')', '', '', '', 0.0)||('with', '', '', '', 0.0)||('no', '', '', '', 0.0)||('change over', '', '', '', 0.0)||('time', 'noun', 'C0040223', ['tmco'], 0.0)||('in', '', '', '', 0.0)||('either', '', '', '', 0.0)||('group', 'noun', 'C0441833', ['idcn'], 0.0)||('.', '', '', '', 0.0)||
('there', '', '', '', 0.0)||('was', '', '', '', 0.0)||('also', '', '', '', 0.0)||('no', '', '', '', 0.0)||('change', 'noun', 'C0392747', ['ftcn'], 0.0)||('in', '', '', '', 0.0)||('the', '', '', '', 0.0)||('frequency', 'noun', 'C0376249', ['qnco'], 0.0)||('of', '', '', '', 0.0)||('bowel movements', 'noun', 'C0011135', ['orgf'], 0.0)||('in', '', '', '', 0.0)||('either', '', '', '', 0.0)||('group', 'noun', 'C0441833', ['idcn'], 0.0)||(',', '', '', '', 0.0)||('which', '', '', '', 0.0)||('averaged', '', '', '', 0.0)||('less', '', '', '', 0.0)||('than', '', '', '', 0.0)||('one', 'noun', 'C0205447', ['qnco'], 0.0)||('in', '', '', '', 0.0)||('two', 'adj', 'C0205448', ['qnco'], 0.0)||('days', 'noun', 'C0439228', ['tmco'], 0.0)||('for', '', '', '', 0.0)||('both', '', '', '', 0.0)||('groups', 'noun', 'C0441833', ['idcn'], 0.0)||(';', '', '', '', 0.0)||
('and', '', '', '', 0.0)||(',', '', '', '', 0.0)||('approximately', 'adv', 'C0332232', ['qlco'], 0.0)||('one', 'noun', 'C0205447', ['qnco'], 0.0)||('-', '', '', '', 0.0)||('half', '', '', '', 0.0)||('of', '', '', '', 0.0)||('all', '', '', '', 0.0)||('participants', '', '', '', 0.0)||('had', '', '', '', 0.0)||('no', '', '', '', 0.0)||('bowel movement', 'noun', 'C0011135', ['orgf'], 0.0)||('in', '', '', '', 0.0)||('two', 'adj', 'C0205448', ['qnco'], 0.0)||('days', 'noun', 'C0439228', ['tmco'], 0.0)||('.', '', '', '', 0.0)||
('an', '', '', '', 0.0)||('exercise', 'noun', 'C0015259', ['dora'], 0.0)||('and', '', '', '', 0.0)||('scheduled', 'verb', 'C0086960', ['inpr'], 0.0)||('-', '', '', '', 0.0)||('toileting', 'verb', 'C0150810', ['dora'], 0.0)||('intervention', 'noun', 'C1273869', ['hlca'], 0.0)||('alone', 'adj', 'C0439044', ['fndg'], 0.0)||('is', '', '', '', 0.0)||('not', 'adv', 'C1518422', ['ftcn'], 0.0)||('sufficient', 'adj', 'C0205410', ['qlco'], 0.0)||('to', '', '', '', 0.0)||('improve', 'verb', 'C0332161', ['qlco'], 0.0)||('oral', 'adj', 'C0442027', ['spco'], 0.0)||('food', 'noun', 'C0016452', ['food'], 0.0)||('and', '', '', '', 0.0)||('fluid', 'noun', 'C0005889', ['bdsu'], 0.0)||('consumption', 'noun', 'C0009830', ['acty'], 0.0)||('during', '', '', '', 0.0)||('meals', '', '', '', 0.0)||('and', '', '', '', 0.0)||('bowel movement', 'noun', 'C0011135', ['orgf'], 0.0)||('frequency', 'noun', 'C0376249', ['qnco'], 0.0)||('in', '', '', '', 0.0)||('nursing home', '', '', '', 0.0)||('residents', '', '', '', 0.0)||('.', '', '', '', 0.0)||
