('this', '', '', '', 0.0)||('study', 'noun', 'C0008976', ['resa'], 0.0)||('prospectively', '', '', '', 0.0)||('randomized', 'verb', 'C0034656', ['resa'], 0.0)||('62', '', '', '', 0.0)||('patients', 'noun', 'C0030705', ['podg'], 0.0)||('to', '', '', '', 0.0)||('rehabilitation', 'noun', 'C0034991', ['topp'], 0.0)||('programs', 'noun', 'C0376691', ['inpr'], 0.0)||('either', '', '', '', 0.0)||('with', '', '', '', 0.0)||('or', '', '', '', 0.0)||('without', '', '', '', 0.0)||('postoperative', 'adj', 'C0032790', ['tmco'], 0.0)||('brace', 'noun', 'C0006086', ['medd'], 0.0)||('for', '', '', '', 0.0)||('6', '', '', '', 0.0)||('weeks', 'noun', 'C0439230', ['tmco'], 0.0)||('following', '', '', '', 0.0)||('bone', 'noun', 'C0262950', ['bpoc'], 0.0)||('-', '', '', '', 0.0)||('tendon', 'noun', 'C0039508', ['bpoc'], 0.0)||('-', '', '', '', 0.0)||('bone', 'noun', 'C0262950', ['bpoc'], 0.0)||('anterior cruciate ligament', 'noun', 'C0078960', ['bpoc'], 0.0)||('reconstruction', 'noun', 'C0020912', ['mcha'], 0.0)||('.', '', '', '', 0.0)||
('the', '', '', '', 0.0)||('nonbraced', '', '', '', 0.0)||('group', 'noun', 'C0441833', ['idcn'], 0.0)||('had', '', '', '', 0.0)||('a', '', '', '', 0.0)||('smaller', 'adj', 'C0547044', ['qlco'], 0.0)||('knee', 'noun', 'C0022742', ['bpoc'], 0.0)||('circumference', 'noun', 'C0332520', ['qnco'], 0.0)||('2', '', '', '', 0.0)||('weeks', 'noun', 'C0439230', ['tmco'], 0.0)||('after', '', '', '', 0.0)||('surgery', 'noun', 'C0038894', ['bmod'], 0.0)||('.', '', '', '', 0.0)||
('at', '', '', '', 0.0)||('6', '', '', '', 0.0)||('-', '', '', '', 0.0)||('month', 'noun', 'C0439231', ['tmco'], 0.0)||('follow - up', '', '', '', 0.0)||('the', '', '', '', 0.0)||('nonbraced', '', '', '', 0.0)||('group', 'noun', 'C0441833', ['idcn'], 0.0)||('had', '', '', '', 0.0)||('a', '', '', '', 0.0)||('better', 'adj', 'C0332272', ['qlco'], 0.0)||('tegner', '', '', '', 0.0)||('score', 'noun', 'C0449820', ['qnco'], 0.0)||('.', '', '', '', 0.0)||
('at 2', '', '', '', 0.0)||('years', 'noun', 'C0439234', ['tmco'], 0.0)||('there', '', '', '', 0.0)||('was', '', '', '', 0.0)||('no', '', '', '', 0.0)||('difference', 'noun', 'C1705242', ['qlco'], 0.0)||('between', '', '', '', 0.0)||('the', '', '', '', 0.0)||('groups', 'noun', 'C0441833', ['idcn'], 0.0)||('.', '', '', '', 0.0)||
('there', '', '', '', 0.0)||('was', '', '', '', 0.0)||('one', 'adv', 'C0205447', ['qnco'], 0.0)||('partial', 'adj', 'C0728938', ['qnco'], 0.0)||('rupture', 'noun', 'C0035955', ['inpo'], 0.0)||('of', '', '', '', 0.0)||('the', '', '', '', 0.0)||('graft', 'noun', 'C0181074', ['bodm'], 0.0)||('in', '', '', '', 0.0)||('the', '', '', '', 0.0)||('nonbraced', '', '', '', 0.0)||('group', 'noun', 'C0441833', ['idcn'], 0.0)||('after', '', '', '', 0.0)||('a', '', '', '', 0.0)||('new', 'adj', 'C0205314', ['tmco'], 0.0)||('trauma', 'noun', 'C0043251', ['inpo'], 0.0)||('1', '', '', '', 0.0)||('year', 'noun', 'C0439234', ['tmco'], 0.0)||('after', '', '', '', 0.0)||('surgery', 'noun', 'C0038894', ['bmod'], 0.0)||('.', '', '', '', 0.0)||
('there', '', '', '', 0.0)||('were', '', '', '', 0.0)||('no', '', '', '', 0.0)||('differences', '', '', '', 0.0)||('between', '', '', '', 0.0)||('the', '', '', '', 0.0)||('groups', 'noun', 'C0441833', ['idcn'], 0.0)||('in', '', '', '', 0.0)||('either', '', '', '', 0.0)||('subjective', 'adj', 'C0439655', ['qlco'], 0.0)||('or', '', '', '', 0.0)||('objective', 'adj', 'C0018017', ['inpr'], 0.0)||('knee', 'noun', 'C0022742', ['bpoc'], 0.0)||('stability', 'noun', 'C0205360', ['qlco'], 0.0)||('at 2', '', '', '', 0.0)||('or', '', '', '', 0.0)||('6', '', '', '', 0.0)||('weeks', 'noun', 'C0439230', ['tmco'], 0.0)||('or', '', '', '', 0.0)||('at', '', '', '', 0.0)||('follow - up', '', '', '', 0.0)||('3', '', '', '', 0.0)||(',', '', '', '', 0.0)||('6', '', '', '', 0.0)||(',', '', '', '', 0.0)||('and', '', '', '', 0.0)||('24', '', '', '', 0.0)||('months', 'noun', 'C0439231', ['tmco'], 0.0)||('after', '', '', '', 0.0)||('surgery', 'noun', 'C0038894', ['bmod'], 0.0)||('.', '', '', '', 0.0)||
('this', '', '', '', 0.0)||('study', 'noun', 'C0008976', ['resa'], 0.0)||('found', '', '', '', 0.0)||('no', '', '', '', 0.0)||('benefit', 'noun', 'C0814225', ['qnco'], 0.0)||('of', '', '', '', 0.0)||('using', 'verb', 'C1524063', ['ftcn'], 0.0)||('a', '', '', '', 0.0)||('postoperative', 'adj', 'C0032790', ['tmco'], 0.0)||('knee brace', 'noun', 'C2095483', ['topp'], 0.0)||('on', '', '', '', 0.0)||('patients', 'noun', 'C0030705', ['podg'], 0.0)||("'", '', '', '', 0.0)||('knee', 'noun', 'C0022742', ['bpoc'], 0.0)||('function', 'noun', 'C0031843', ['phsf'], 0.0)||('at', '', '', '', 0.0)||('any', '', '', '', 0.0)||('stage', 'noun', 'C0205390', ['tmco'], 0.0)||('up to', '', '', '', 0.0)||('24', '', '', '', 0.0)||('months', 'noun', 'C0439231', ['tmco'], 0.0)||('after', '', '', '', 0.0)||('surgery', 'noun', 'C0038894', ['bmod'], 0.0)||('.', '', '', '', 0.0)||
('furthermore', '', '', '', 0.0)||(',', '', '', '', 0.0)||('the', '', '', '', 0.0)||('braced', '', '', '', 0.0)||('group', 'noun', 'C0441833', ['idcn'], 0.0)||('was', '', '', '', 0.0)||('not', 'adv', 'C1518422', ['ftcn'], 0.0)||('more', '', '', '', 0.0)||('stable', 'adj', 'C0205360', ['qlco'], 0.0)||('than', '', '', '', 0.0)||('the', '', '', '', 0.0)||('nonbraced', '', '', '', 0.0)||('group', 'noun', 'C0441833', ['idcn'], 0.0)||(',', '', '', '', 0.0)||('indicating', '', '', '', 0.0)||('that', '', '', '', 0.0)||('the', '', '', '', 0.0)||('brace', 'noun', 'C0006086', ['medd'], 0.0)||('does', '', '', '', 0.0)||('not', 'adv', 'C1518422', ['ftcn'], 0.0)||('contribute', 'verb', 'C1880177', ['acty'], 0.0)||('to', '', '', '', 0.0)||('a', '', '', '', 0.0)||('more', '', '', '', 0.0)||('stable', 'adj', 'C0205360', ['qlco'], 0.0)||('knee', 'noun', 'C0022742', ['bpoc'], 0.0)||('during', '', '', '', 0.0)||('rehabilitation', 'noun', 'C0034991', ['topp'], 0.0)||('or', '', '', '', 0.0)||('2', '', '', '', 0.0)||('-', '', '', '', 0.0)||('year', 'noun', 'C0439234', ['tmco'], 0.0)||('follow - up', '', '', '', 0.0)||('.', '', '', '', 0.0)||
