('in', '', '', '', 0.0)||('1', '', '', '', 0.0)||('small', 'adj', 'C0700321', ['qnco'], 0.0)||(',', '', '', '', 0.0)||('controlled', 'verb', 'C2587213', ['ftcn'], 0.0)||(',', '', '', '', 0.0)||('prospective', 'adj', 'C0023981', ['resa'], 0.0)||(',', '', '', '', 0.0)||('double', 'verb', 'C0205173', ['ftcn'], 0.0)||('-', '', '', '', 0.0)||('blinded', 'adj', 'C0150108', ['resa'], 0.0)||('study', 'noun', 'C0008976', ['resa'], 0.0)||(',', '', '', '', 0.0)||('the', '', '', '', 0.0)||('authors', 'noun', 'C0341628', ['prog'], 0.0)||('attempted', '', '', '', 0.0)||('to', '', '', '', 0.0)||('correlate', '', '', '', 0.0)||('clinical', 'adj', 'C0205210', ['qlco'], 0.0)||('relief', 'noun', 'C0564405', ['fndg'], 0.0)||('of', '', '', '', 0.0)||('de quervain', '', '', '', 0.0)||("' s", '', '', '', 0.0)||('tenosynovitis', 'noun', 'C0039520', ['dsyn'], 0.0)||('with', '', '', '', 0.0)||('accuracy', 'noun', 'C0443131', ['qlco'], 0.0)||('of', '', '', '', 0.0)||('injection', 'noun', 'C1272883', ['bodm'], 0.0)||('into', '', '', '', 0.0)||('the', '', '', '', 0.0)||('first', 'adj', 'C0205435', ['qnco'], 0.0)||('dorsal', 'adj', 'C0205095', ['spco'], 0.0)||('compartment', 'noun', 'C1185625', ['bsoj'], 0.0)||('.', '', '', '', 0.0)||
('the', '', '', '', 0.0)||('researchers', 'noun', 'C0035173', ['prog'], 0.0)||('enrolled', '', '', '', 0.0)||('19', '', '', '', 0.0)||('patients', 'noun', 'C0030705', ['podg'], 0.0)||('.', '', '', '', 0.0)||
('the', '', '', '', 0.0)||('same', 'adj', 'C0445247', ['qlco'], 0.0)||('hand', 'noun', 'C0018563', ['bpoc'], 0.0)||('surgeon', 'noun', 'C0582175', ['prog'], 0.0)||('injected', '', '', '', 0.0)||('3', '', '', '', 0.0)||('cc', '', '', '', 0.0)||('of', '', '', '', 0.0)||('1 %', '', '', '', 0.0)||('lidocaine', 'noun', 'C0023660', ['orch', 'phsu'], 0.0)||(',', '', '', '', 0.0)||('1', '', '', '', 0.0)||('cc', '', '', '', 0.0)||('betamethasone', 'noun', 'C0005308', ['horm', 'phsu', 'strd'], 0.0)||(',', '', '', '', 0.0)||('and', '', '', '', 0.0)||('1', '', '', '', 0.0)||('cc', '', '', '', 0.0)||('omnipaque', 'noun', 'C0729203', ['irda', 'orch'], 0.0)||('300', '', '', '', 0.0)||('dye', 'noun', 'C0013343', ['irda'], 0.0)||('into', '', '', '', 0.0)||('the', '', '', '', 0.0)||('abductor pollicis longus', 'noun', 'C0224278', ['bpoc'], 0.0)||('sheath', 'noun', 'C0009653', ['medd'], 0.0)||('and', '', '', '', 0.0)||('then', 'adv', 'C1883708', ['tmco'], 0.0)||('attempted', '', '', '', 0.0)||(',', '', '', '', 0.0)||('with', '', '', '', 0.0)||('ulnar deviation', 'noun', 'C0449752', ['fndg'], 0.0)||('of', '', '', '', 0.0)||('the', '', '', '', 0.0)||('needle', 'noun', 'C0027551', ['medd'], 0.0)||(',', '', '', '', 0.0)||('to', '', '', '', 0.0)||('fill', 'verb', 'C1708059', ['acty'], 0.0)||('the', '', '', '', 0.0)||('extensor pollicis brevis', 'noun', 'C0224284', ['bpoc'], 0.0)||('sheath', 'noun', 'C0009653', ['medd'], 0.0)||('.', '', '', '', 0.0)||
('patients', 'noun', 'C0030705', ['podg'], 0.0)||('were', '', '', '', 0.0)||('followed', '', '', '', 0.0)||('-', '', '', '', 0.0)||('up', '', '', '', 0.0)||('at', '', '', '', 0.0)||('1', '', '', '', 0.0)||('month', 'noun', 'C0439231', ['tmco'], 0.0)||('and', '', '', '', 0.0)||('3', '', '', '', 0.0)||('months', 'noun', 'C0439231', ['tmco'], 0.0)||('postinjection', '', '', '', 0.0)||('.', '', '', '', 0.0)||
('success', 'noun', 'C0597535', ['socb'], 0.0)||('-', '', '', '', 0.0)||('defined', 'verb', 'C1704788', ['cnce'], 0.0)||('as', '', '', '', 0.0)||('a', '', '', '', 0.0)||('negative', 'adj', 'C0205160', ['qlco'], 0.0)||('finkelstein', '', '', '', 0.0)||("' s", '', '', '', 0.0)||('test', 'noun', 'C0022885', ['lbpr'], 0.0)||(',', '', '', '', 0.0)||('absence', 'noun', 'C1689985', ['anab'], 0.0)||('of', '', '', '', 0.0)||('pain', 'noun', 'C0030193', ['sosy'], 0.0)||(',', '', '', '', 0.0)||('and', '', '', '', 0.0)||('normal', 'adj', 'C0205307', ['qlco'], 0.0)||('activities', 'noun', 'C0441655', ['acty'], 0.0)||('of', '', '', '', 0.0)||('daily', 'adj', 'C0332173', ['tmco'], 0.0)||('living', 'noun', 'C0376558', ['idcn'], 0.0)||('-', '', '', '', 0.0)||('was', '', '', '', 0.0)||('noted', '', '', '', 0.0)||('in', '', '', '', 0.0)||('11', '', '', '', 0.0)||('of', '', '', '', 0.0)||('19', '', '', '', 0.0)||('patients', 'noun', 'C0030705', ['podg'], 0.0)||('at', '', '', '', 0.0)||('3', '', '', '', 0.0)||('months', 'noun', 'C0439231', ['tmco'], 0.0)||('.', '', '', '', 0.0)||
('in', '', '', '', 0.0)||('a', '', '', '', 0.0)||('radiographic', 'adj', 'C0444708', ['npop'], 0.0)||('check', 'noun', 'C1948051', ['qlco'], 0.0)||(',', '', '', '', 0.0)||('4', '', '', '', 0.0)||('of', '', '', '', 0.0)||('5', '', '', '', 0.0)||('of', '', '', '', 0.0)||('the', '', '', '', 0.0)||('patients', 'noun', 'C0030705', ['podg'], 0.0)||('with', '', '', '', 0.0)||('dye', 'noun', 'C0013343', ['irda'], 0.0)||('in', '', '', '', 0.0)||('both', '', '', '', 0.0)||('compartments', 'noun', 'C1185625', ['bsoj'], 0.0)||('were', '', '', '', 0.0)||('asymptomatic', 'adj', 'C0231221', ['fndg'], 0.0)||(',', '', '', '', 0.0)||('while', '', '', '', 0.0)||('the', '', '', '', 0.0)||('3', '', '', '', 0.0)||('who', '', '', '', 0.0)||('had', '', '', '', 0.0)||('no', '', '', '', 0.0)||('dye', 'noun', 'C0013343', ['irda'], 0.0)||('in', '', '', '', 0.0)||('either', '', '', '', 0.0)||('compartment', 'noun', 'C1185625', ['bsoj'], 0.0)||('remained', '', '', '', 0.0)||('symptomatic', 'adj', 'C0231220', ['ftcn'], 0.0)||('.', '', '', '', 0.0)||
('this', '', '', '', 0.0)||('suggests', '', '', '', 0.0)||('that', '', '', '', 0.0)||('the', '', '', '', 0.0)||('location', 'noun', 'C0450429', ['spco'], 0.0)||('of', '', '', '', 0.0)||('injection', 'noun', 'C1272883', ['bodm'], 0.0)||('may', '', '', '', 0.0)||('be', '', '', '', 0.0)||('important', '', '', '', 0.0)||('in', '', '', '', 0.0)||('de quervain', '', '', '', 0.0)||("' s", '', '', '', 0.0)||('tenosynovitis', 'noun', 'C0039520', ['dsyn'], 0.0)||('.', '', '', '', 0.0)||
