('bed rest', 'noun', 'C0004910', ['topp'], 0.0)||('or', '', '', '', 0.0)||('restriction', 'noun', 'C0443288', ['ftcn'], 0.0)||('of', '', '', '', 0.0)||('activity', 'noun', 'C0441655', ['acty'], 0.0)||(',', '', '', '', 0.0)||('with', '', '', '', 0.0)||('or', '', '', '', 0.0)||('without', '', '', '', 0.0)||('hospitalisation', 'noun', 'C0019993', ['hlca'], 0.0)||(',', '', '', '', 0.0)||('have', '', '', '', 0.0)||('been', '', '', '', 0.0)||('advocated', '', '', '', 0.0)||('for', '', '', '', 0.0)||('women', 'noun', 'C0043210', ['popg'], 0.0)||('with', '', '', '', 0.0)||('hypertension', 'noun', 'C0020538', ['dsyn'], 0.0)||('during', '', '', '', 0.0)||('pregnancy', 'noun', 'C0032961', ['orgf'], 0.0)||('to', '', '', '', 0.0)||('improve', 'verb', 'C0332161', ['qlco'], 0.0)||('pregnancy outcome', 'noun', 'C0032972', ['qlco'], 0.0)||('.', '', '', '', 0.0)||
('however', '', '', '', 0.0)||(',', '', '', '', 0.0)||('benefits', 'noun', 'C0814225', ['qnco'], 0.0)||('need', 'verb', 'C0027552', ['qlco'], 0.0)||('to', '', '', '', 0.0)||('be', '', '', '', 0.0)||('demonstrated', '', '', '', 0.0)||('before', '', '', '', 0.0)||('such', '', '', '', 0.0)||('interventions', '', '', '', 0.0)||('can', '', '', '', 0.0)||('be', '', '', '', 0.0)||('recommended', 'verb', 'C0034866', ['idcn'], 0.0)||('since', '', '', '', 0.0)||('restricted', 'adj', 'C0443288', ['ftcn'], 0.0)||('activity', 'noun', 'C0441655', ['acty'], 0.0)||('may', '', '', '', 0.0)||('be', '', '', '', 0.0)||('disruptive', '', '', '', 0.0)||('to', '', '', '', 0.0)||('women', 'noun', 'C0043210', ['popg'], 0.0)||("' s", '', '', '', 0.0)||('lives', '', '', '', 0.0)||(',', '', '', '', 0.0)||('expensive', '', '', '', 0.0)||(',', '', '', '', 0.0)||('and', '', '', '', 0.0)||('increase', 'verb', 'C0442805', ['ftcn'], 0.0)||('the', '', '', '', 0.0)||('risk', 'noun', 'C0035647', ['qlco'], 0.0)||('of', '', '', '', 0.0)||('thromboembolism', 'noun', 'C0040038', ['dsyn'], 0.0)||('.', '', '', '', 0.0)||
('to', '', '', '', 0.0)||('assess', 'verb', 'C1516048', ['acty'], 0.0)||('the', '', '', '', 0.0)||('effects', '', '', '', 0.0)||('on', '', '', '', 0.0)||('the', '', '', '', 0.0)||('mother', 'noun', 'C0026591', ['famg'], 0.0)||('and', '', '', '', 0.0)||('the', '', '', '', 0.0)||('baby', 'noun', 'C0021270', ['aggp'], 0.0)||('of', '', '', '', 0.0)||('different', 'adj', 'C1705242', ['qlco'], 0.0)||('degrees', '', '', '', 0.0)||('of', '', '', '', 0.0)||('bed rest', 'noun', 'C0004910', ['topp'], 0.0)||(',', '', '', '', 0.0)||('compared', 'verb', 'C1707455', ['acty'], 0.0)||('with', '', '', '', 0.0)||('each other', '', '', '', 0.0)||(',', '', '', '', 0.0)||('and', '', '', '', 0.0)||('with', '', '', '', 0.0)||('routine', 'adj', 'C0205547', ['qlco'], 0.0)||('activity', 'noun', 'C0441655', ['acty'], 0.0)||(',', '', '', '', 0.0)||('in', '', '', '', 0.0)||('hospital', 'noun', 'C0019994', ['hcro', 'mnob'], 0.0)||('or', '', '', '', 0.0)||('at', '', '', '', 0.0)||('home', 'noun', 'C0442519', ['cnce'], 0.0)||(',', '', '', '', 0.0)||('for', '', '', '', 0.0)||('primary', 'adj', 'C0205225', ['qlco'], 0.0)||('treatment', 'noun', 'C0039798', ['ftcn'], 0.0)||('of', '', '', '', 0.0)||('hypertension', 'noun', 'C0020538', ['dsyn'], 0.0)||('during', '', '', '', 0.0)||('pregnancy', 'noun', 'C0032961', ['orgf'], 0.0)||('.', '', '', '', 0.0)||
('we', '', '', '', 0.0)||('searched', 'verb', 'C1706202', ['acty'], 0.0)||('the', '', '', '', 0.0)||('cochrane', '', '', '', 0.0)||('pregnancy', 'noun', 'C0032961', ['orgf'], 0.0)||('and', '', '', '', 0.0)||('childbirth', 'noun', 'C1148523', ['orgf'], 0.0)||('group', 'noun', 'C0441833', ['idcn'], 0.0)||("' s", '', '', '', 0.0)||('trials', '', '', '', 0.0)||('register', '', '', '', 0.0)||('(', '', '', '', 0.0)||('april', '', '', '', 0.0)||('2005', '', '', '', 0.0)||(')', '', '', '', 0.0)||(',', '', '', '', 0.0)||('the', '', '', '', 0.0)||('cochrane', '', '', '', 0.0)||('central', 'adj', 'C0205099', ['spco'], 0.0)||('register', '', '', '', 0.0)||('of', '', '', '', 0.0)||('controlled', 'adj', 'C2587213', ['ftcn'], 0.0)||('trials', '', '', '', 0.0)||('(', '', '', '', 0.0)||('the', '', '', '', 0.0)||('cochrane', '', '', '', 0.0)||('library', 'noun', 'C0023621', ['mnob', 'orgt'], 0.0)||(',', '', '', '', 0.0)||('issue', 'noun', 'C0033213', ['fndg'], 0.0)||('1', '', '', '', 0.0)||(',', '', '', '', 0.0)||('2005', '', '', '', 0.0)||(')', '', '', '', 0.0)||(',', '', '', '', 0.0)||('and', '', '', '', 0.0)||('embase', '', '', '', 0.0)||('(', '', '', '', 0.0)||('january', '', '', '', 0.0)||('2002', '', '', '', 0.0)||('to', '', '', '', 0.0)||('december', '', '', '', 0.0)||('2004', '', '', '', 0.0)||(')', '', '', '', 0.0)||('.', '', '', '', 0.0)||
('randomised', '', '', '', 0.0)||('trials', '', '', '', 0.0)||('evaluating', 'verb', 'C0220825', ['ftcn'], 0.0)||('bed rest', 'noun', 'C0004910', ['topp'], 0.0)||('for', '', '', '', 0.0)||('women', 'noun', 'C0043210', ['popg'], 0.0)||('with', '', '', '', 0.0)||('hypertension', 'noun', 'C0020538', ['dsyn'], 0.0)||('in', '', '', '', 0.0)||('pregnancy', 'noun', 'C0032961', ['orgf'], 0.0)||('were', '', '', '', 0.0)||('selected', '', '', '', 0.0)||('.', '', '', '', 0.0)||
('two', 'noun', 'C0205448', ['qnco'], 0.0)||('review', 'noun', 'C0282443', ['inpr'], 0.0)||('authors', 'noun', 'C0341628', ['prog'], 0.0)||('assessed', 'verb', 'C1516048', ['acty'], 0.0)||('trials', '', '', '', 0.0)||('for', '', '', '', 0.0)||('inclusion', 'noun', 'C1512693', ['qlco'], 0.0)||('independently', '', '', '', 0.0)||(',', '', '', '', 0.0)||('and', '', '', '', 0.0)||('extracted', 'adj', 'C0185115', ['topp'], 0.0)||('data', 'noun', 'C1511726', ['idcn'], 0.0)||('.', '', '', '', 0.0)||
('data', 'noun', 'C1511726', ['idcn'], 0.0)||('were', '', '', '', 0.0)||('entered', 'verb', 'C1521975', ['qlco'], 0.0)||('into', '', '', '', 0.0)||('revman', '', '', '', 0.0)||('software', 'noun', 'C0037585', ['inpr', 'mnob'], 0.0)||('and', '', '', '', 0.0)||('double - checked', '', '', '', 0.0)||('.', '', '', '', 0.0)||
('four', '', 'C0205450', ['qnco'], 0.0)||('small', 'adj', 'C0700321', ['qnco'], 0.0)||('trials', '', '', '', 0.0)||('(', '', '', '', 0.0)||('449', '', '', '', 0.0)||('women', 'noun', 'C0043210', ['popg'], 0.0)||(')', '', '', '', 0.0)||('were', '', '', '', 0.0)||('included', '', '', '', 0.0)||('.', '', '', '', 0.0)||
('three', '', 'C0205449', ['qnco'], 0.0)||('were', '', '', '', 0.0)||('of', '', '', '', 0.0)||('good', 'adj', 'C0205170', ['qlco'], 0.0)||('quality', 'noun', 'C0332306', ['qlco'], 0.0)||('.', '', '', '', 0.0)||
('two', 'adj', 'C0205448', ['qnco'], 0.0)||('trials', '', '', '', 0.0)||('(', '', '', '', 0.0)||('145', '', '', '', 0.0)||('women', 'noun', 'C0043210', ['popg'], 0.0)||(')', '', '', '', 0.0)||('compared', 'verb', 'C1707455', ['acty'], 0.0)||('strict', '', '', '', 0.0)||('bed rest', 'noun', 'C0004910', ['topp'], 0.0)||('with', '', '', '', 0.0)||('some', '', '', '', 0.0)||('rest', 'noun', 'C0035253', ['dora'], 0.0)||(',', '', '', '', 0.0)||('in', '', '', '', 0.0)||('hospital', 'noun', 'C0019994', ['hcro', 'mnob'], 0.0)||(',', '', '', '', 0.0)||('for', '', '', '', 0.0)||('women', 'noun', 'C0043210', ['popg'], 0.0)||('with', '', '', '', 0.0)||('proteinuric', '', '', '', 0.0)||('hypertension', 'noun', 'C0020538', ['dsyn'], 0.0)||('.', '', '', '', 0.0)||
('there', '', '', '', 0.0)||('was', '', '', '', 0.0)||('insufficient', 'adj', 'C0205412', ['qlco'], 0.0)||('evidence', 'noun', 'C0332120', ['ftcn'], 0.0)||('to', '', '', '', 0.0)||('demonstrate', '', '', '', 0.0)||('any', '', '', '', 0.0)||('differences', '', '', '', 0.0)||('between', '', '', '', 0.0)||('the', '', '', '', 0.0)||('groups', 'noun', 'C0441833', ['idcn'], 0.0)||('for', '', '', '', 0.0)||('reported', 'adj', 'C0684224', ['inpr'], 0.0)||('outcomes', 'noun', 'C0085415', ['qlco'], 0.0)||('.', '', '', '', 0.0)||
('two', 'adj', 'C0205448', ['qnco'], 0.0)||('trials', '', '', '', 0.0)||('(', '', '', '', 0.0)||('304', '', '', '', 0.0)||('women', 'noun', 'C0043210', ['popg'], 0.0)||(')', '', '', '', 0.0)||('compared', 'verb', 'C1707455', ['acty'], 0.0)||('some', '', '', '', 0.0)||('bed rest', 'noun', 'C0004910', ['topp'], 0.0)||('in', '', '', '', 0.0)||('hospital', 'noun', 'C0019994', ['hcro', 'mnob'], 0.0)||('with', '', '', '', 0.0)||('routine', 'adj', 'C0205547', ['qlco'], 0.0)||('activity', 'noun', 'C0441655', ['acty'], 0.0)||('at', '', '', '', 0.0)||('home', 'noun', 'C0442519', ['cnce'], 0.0)||('for', '', '', '', 0.0)||('non - proteinuric', '', '', '', 0.0)||('hypertension', 'noun', 'C0020538', ['dsyn'], 0.0)||('.', '', '', '', 0.0)||
('there', '', '', '', 0.0)||('was', '', '', '', 0.0)||('reduced', 'verb', 'C0392756', ['qlco'], 0.0)||('risk', 'verb', 'C0035647', ['qlco'], 0.0)||('of', '', '', '', 0.0)||('severe', 'adj', 'C0205082', ['qlco'], 0.0)||('hypertension', 'noun', 'C0020538', ['dsyn'], 0.0)||('(', '', '', '', 0.0)||('1', '', '', '', 0.0)||('trial', 'noun', 'C0008976', ['resa'], 0.0)||(',', '', '', '', 0.0)||('218', '', '', '', 0.0)||('women', 'noun', 'C0043210', ['popg'], 0.0)||(';', '', '', '', 0.0)||('rr', 'noun', 'C0231832', ['clna'], 0.0)||('0 . 58', '', '', '', 0.0)||(',', '', '', '', 0.0)||('95 %', '', '', '', 0.0)||('ci', 'noun', 'C1417638', ['gngm'], 0.0)||('0 . 38', '', '', '', 0.0)||('to', '', '', '', 0.0)||('0 . 89', '', '', '', 0.0)||(')', '', '', '', 0.0)||('and', '', '', '', 0.0)||('a', '', '', '', 0.0)||('borderline', 'adj', 'C0205189', ['qlco'], 0.0)||('reduction', 'noun', 'C0301630', ['npop'], 0.0)||('in', '', '', '', 0.0)||('risk', 'noun', 'C0035647', ['qlco'], 0.0)||('of', '', '', '', 0.0)||('preterm birth', 'noun', 'C0151526', ['patf'], 0.0)||('(', '', '', '', 0.0)||('1', '', '', '', 0.0)||('trial', 'noun', 'C0008976', ['resa'], 0.0)||(',', '', '', '', 0.0)||('218', '', '', '', 0.0)||('women', 'noun', 'C0043210', ['popg'], 0.0)||(';', '', '', '', 0.0)||('rr', 'noun', 'C0231832', ['clna'], 0.0)||('0 . 53', '', '', '', 0.0)||(',', '', '', '', 0.0)||('ci', 'noun', 'C1417638', ['gngm'], 0.0)||('0 . 29', '', '', '', 0.0)||('to', '', '', '', 0.0)||('0 . 99', '', '', '', 0.0)||(')', '', '', '', 0.0)||('with', '', '', '', 0.0)||('some', '', '', '', 0.0)||('rest', 'noun', 'C0035253', ['dora'], 0.0)||('compared', 'verb', 'C1707455', ['acty'], 0.0)||('to', '', '', '', 0.0)||('normal', 'adj', 'C0205307', ['qlco'], 0.0)||('activity', 'noun', 'C0441655', ['acty'], 0.0)||('.', '', '', '', 0.0)||
('more', '', '', '', 0.0)||('women', 'noun', 'C0043210', ['popg'], 0.0)||('in', '', '', '', 0.0)||('the', '', '', '', 0.0)||('bed rest', 'noun', 'C0004910', ['topp'], 0.0)||('group', 'noun', 'C0441833', ['idcn'], 0.0)||('opted', '', '', '', 0.0)||('not', 'adv', 'C1518422', ['ftcn'], 0.0)||('to', '', '', '', 0.0)||('have', '', '', '', 0.0)||('the', '', '', '', 0.0)||('same', 'adj', 'C0445247', ['qlco'], 0.0)||('management', 'noun', 'C0001554', ['ocac'], 0.0)||('in', '', '', '', 0.0)||('future', 'adj', 'C0016884', ['tmco'], 0.0)||('pregnancies', 'noun', 'C0032961', ['orgf'], 0.0)||(',', '', '', '', 0.0)||('if', '', '', '', 0.0)||('the', '', '', '', 0.0)||('choice', 'noun', 'C0008300', ['inbe'], 0.0)||('were', '', '', '', 0.0)||('given', '', '', '', 0.0)||('(', '', '', '', 0.0)||('1', '', '', '', 0.0)||('trial', 'noun', 'C0008976', ['resa'], 0.0)||(',', '', '', '', 0.0)||('86', '', '', '', 0.0)||('women', 'noun', 'C0043210', ['popg'], 0.0)||(';', '', '', '', 0.0)||('rr', 'noun', 'C0231832', ['clna'], 0.0)||('3 . 00', '', '', '', 0.0)||(',', '', '', '', 0.0)||('95 %', '', '', '', 0.0)||('ci', 'noun', 'C1417638', ['gngm'], 0.0)||('1 . 43', '', '', '', 0.0)||('to', '', '', '', 0.0)||('6 . 31', '', '', '', 0.0)||(')', '', '', '', 0.0)||('.', '', '', '', 0.0)||
('there', '', '', '', 0.0)||('were', '', '', '', 0.0)||('no', '', '', '', 0.0)||('significant', 'adj', 'C0750502', ['idcn'], 0.0)||('differences', '', '', '', 0.0)||('for', '', '', '', 0.0)||('any', '', '', '', 0.0)||('other', '', '', '', 0.0)||('outcomes', 'noun', 'C0085415', ['qlco'], 0.0)||('.', '', '', '', 0.0)||
('few', '', '', '', 0.0)||('randomised', '', '', '', 0.0)||('trials', '', '', '', 0.0)||('have', '', '', '', 0.0)||('evaluated', 'verb', 'C0220825', ['ftcn'], 0.0)||('rest', 'noun', 'C0035253', ['dora'], 0.0)||('for', '', '', '', 0.0)||('women', 'noun', 'C0043210', ['popg'], 0.0)||('with', '', '', '', 0.0)||('hypertension', 'noun', 'C0020538', ['dsyn'], 0.0)||('during', '', '', '', 0.0)||('pregnancy', 'noun', 'C0032961', ['orgf'], 0.0)||(',', '', '', '', 0.0)||('and', '', '', '', 0.0)||('important', '', '', '', 0.0)||('information', 'noun', 'C1533716', ['idcn'], 0.0)||('on', '', '', '', 0.0)||('side - effects', '', '', '', 0.0)||('and', '', '', '', 0.0)||('cost', 'noun', 'C0010186', ['qnco'], 0.0)||('implication', '', '', '', 0.0)||('is', '', '', '', 0.0)||('missing', 'verb', 'C1551393', ['idcn'], 0.0)||('from', '', '', '', 0.0)||('available', 'adj', 'C0470187', ['ftcn'], 0.0)||('trials', '', '', '', 0.0)||('.', '', '', '', 0.0)||
('although', '', '', '', 0.0)||('one', 'noun', 'C0205447', ['qnco'], 0.0)||('small', 'adj', 'C0700321', ['qnco'], 0.0)||('trial', 'noun', 'C0008976', ['resa'], 0.0)||('suggests', '', '', '', 0.0)||('that', '', '', '', 0.0)||('some', '', '', '', 0.0)||('bed rest', 'noun', 'C0004910', ['topp'], 0.0)||('may', '', '', '', 0.0)||('be', '', '', '', 0.0)||('associated', 'verb', 'C0332281', ['qlco'], 0.0)||('with', '', '', '', 0.0)||('reduced', 'adj', 'C0392756', ['qlco'], 0.0)||('risk', 'noun', 'C0035647', ['qlco'], 0.0)||('of', '', '', '', 0.0)||('severe', 'adj', 'C0205082', ['qlco'], 0.0)||('hypertension', 'noun', 'C0020538', ['dsyn'], 0.0)||('and', '', '', '', 0.0)||('preterm birth', 'noun', 'C0151526', ['patf'], 0.0)||(',', '', '', '', 0.0)||('these', '', '', '', 0.0)||('findings', 'noun', 'C2607943', ['ftcn'], 0.0)||('need', 'verb', 'C0027552', ['qlco'], 0.0)||('to', '', '', '', 0.0)||('be', '', '', '', 0.0)||('confirmed', 'verb', 'C0750484', ['idcn'], 0.0)||('in', '', '', '', 0.0)||('larger', 'adj', 'C0549177', ['qnco'], 0.0)||('trials', '', '', '', 0.0)||('.', '', '', '', 0.0)||
('at', '', '', '', 0.0)||('present', 'noun', 'C0150312', ['qnco'], 0.0)||(',', '', '', '', 0.0)||('there', '', '', '', 0.0)||('is', '', '', '', 0.0)||('insufficient', 'adj', 'C0205412', ['qlco'], 0.0)||('evidence', 'noun', 'C0332120', ['ftcn'], 0.0)||('to', '', '', '', 0.0)||('provide', 'verb', 'C0359589', ['food'], 0.0)||('clear', 'adj', 'C0522503', ['qlco'], 0.0)||('guidance', 'noun', 'C0150600', ['hlca'], 0.0)||('for', '', '', '', 0.0)||('clinical', 'adj', 'C0205210', ['qlco'], 0.0)||('practice', 'noun', 'C0237607', ['menp'], 0.0)||('.', '', '', '', 0.0)||
('therefore', '', '', '', 0.0)||(',', '', '', '', 0.0)||('bed rest', 'noun', 'C0004910', ['topp'], 0.0)||('should', '', '', '', 0.0)||('not', 'adv', 'C1518422', ['ftcn'], 0.0)||('be', '', '', '', 0.0)||('recommended', 'verb', 'C0034866', ['idcn'], 0.0)||('routinely', '', '', '', 0.0)||('for', '', '', '', 0.0)||('hypertension', 'noun', 'C0020538', ['dsyn'], 0.0)||('in', '', '', '', 0.0)||('pregnancy', 'noun', 'C0032961', ['orgf'], 0.0)||(',', '', '', '', 0.0)||('especially', '', '', '', 0.0)||('since', '', '', '', 0.0)||('more', '', '', '', 0.0)||('women', 'noun', 'C0043210', ['popg'], 0.0)||('appear', '', '', '', 0.0)||('to', '', '', '', 0.0)||('prefer', '', '', '', 0.0)||('unrestricted', '', '', '', 0.0)||('activity', 'noun', 'C0441655', ['acty'], 0.0)||(',', '', '', '', 0.0)||('if', '', '', '', 0.0)||('the', '', '', '', 0.0)||('choice', 'noun', 'C0008300', ['inbe'], 0.0)||('were', '', '', '', 0.0)||('given', '', '', '', 0.0)||('.', '', '', '', 0.0)||
