('this', '', '', '', 0.0)||('study', 'noun', 'C0008976', ['resa'], 0.0)||('assessed', 'verb', 'C1516048', ['acty'], 0.0)||('the', '', '', '', 0.0)||('prognostic', 'adj', 'C0220901', ['inpr'], 0.0)||('value', 'noun', 'C0042295', ['qlco'], 0.0)||('of', '', '', '', 0.0)||('ambulatory', 'adj', 'C0439841', ['ftcn'], 0.0)||('vs', '', '', '', 0.0)||('.', '', '', '', 0.0)||
('clinic', 'noun', 'C0002424', ['hcro', 'mnob'], 0.0)||('blood pressure measurement', '', '', '', 0.0)||('in', '', '', '', 0.0)||('688', '', '', '', 0.0)||('hypertensives', '', '', '', 0.0)||('who', '', '', '', 0.0)||('had', '', '', '', 0.0)||('undergone', '', '', '', 0.0)||('pretreatment', 'noun', 'C1550147', ['sbst'], 0.0)||('24', '', '', '', 0.0)||('-', '', '', '', 0.0)||('hour', 'noun', 'C0439227', ['tmco'], 0.0)||('intra - arterial', '', '', '', 0.0)||('ambulatory blood pressure', '', '', '', 0.0)||('monitoring', 'noun', 'C0150369', ['hlca'], 0.0)||('.', '', '', '', 0.0)||
('a', '', '', '', 0.0)||('total', 'noun', 'C0439810', ['qlco'], 0.0)||('of', '', '', '', 0.0)||('157', '', '', '', 0.0)||('first', 'adj', 'C0205435', ['qnco'], 0.0)||('events', 'noun', 'C0441471', ['evnt'], 0.0)||('were', '', '', '', 0.0)||('recorded', '', '', '', 0.0)||('over', '', '', '', 0.0)||('a', '', '', '', 0.0)||('follow - up', '', '', '', 0.0)||('period', 'noun', 'C1948053', ['tmco'], 0.0)||('of', '', '', '', 0.0)||('9', '', '', '', 0.0)||('.', '', '', '', 0.0)||('2a', '', '', '', 0.0)||('+', '', '', '', 0.0)||('/', '', '', '', 0.0)||('-', '', '', '', 0.0)||('4 . 4', '', '', '', 0.0)||('years', 'noun', 'C0439234', ['tmco'], 0.0)||('.', '', '', '', 0.0)||
('ambulatory', 'adj', 'C0439841', ['ftcn'], 0.0)||('systolic', 'adj', 'C0039155', ['tmco'], 0.0)||('or', '', '', '', 0.0)||('diastolic blood pressure', 'noun', 'C0428883', ['clna'], 0.0)||('parameters', 'noun', 'C0449381', ['fndg'], 0.0)||('(', '', '', '', 0.0)||('whether', '', '', '', 0.0)||('24', '', '', '', 0.0)||('-', '', '', '', 0.0)||('hour', 'noun', 'C0439227', ['tmco'], 0.0)||('mean', 'noun', 'C0444504', ['qnco'], 0.0)||(',', '', '', '', 0.0)||('daytime', 'noun', 'C0332169', ['tmco'], 0.0)||('mean', 'noun', 'C0444504', ['qnco'], 0.0)||(',', '', '', '', 0.0)||('or', '', '', '', 0.0)||('nighttime', '', '', '', 0.0)||('mean', 'noun', 'C0444504', ['qnco'], 0.0)||(')', '', '', '', 0.0)||('or', '', '', '', 0.0)||('ambulatory', 'adj', 'C0439841', ['ftcn'], 0.0)||('pulse pressure', 'noun', 'C0949236', ['orgf'], 0.0)||('provided', '', '', '', 0.0)||('independent', 'adj', 'C0085862', ['idcn'], 0.0)||('prognostic', 'adj', 'C0220901', ['inpr'], 0.0)||('information', 'noun', 'C1533716', ['idcn'], 0.0)||('in conjunction with', '', '', '', 0.0)||('clinical', 'adj', 'C0205210', ['qlco'], 0.0)||('variables', '', '', '', 0.0)||('.', '', '', '', 0.0)||
('the', '', '', '', 0.0)||('most', '', '', '', 0.0)||('predictive', 'adj', 'C0681890', ['qlco'], 0.0)||('models', '', '', '', 0.0)||('contained', 'verb', 'C2700400', ['acty'], 0.0)||('the', '', '', '', 0.0)||('ambulatory', 'adj', 'C0439841', ['ftcn'], 0.0)||('systolic blood pressure', 'noun', 'C0488055', ['clna'], 0.0)||('parameters', 'noun', 'C0449381', ['fndg'], 0.0)||('.', '', '', '', 0.0)||
('age', 'noun', 'C0001779', ['orga'], 0.0)||(',', '', '', '', 0.0)||('male', 'noun', 'C0024554', ['orga'], 0.0)||('gender', 'noun', 'C0079399', ['orga'], 0.0)||(',', '', '', '', 0.0)||('south', 'noun', 'C1710133', ['spco'], 0.0)||('asian', 'noun', 'C0078988', ['popg'], 0.0)||('origin', 'noun', 'C0439659', ['tmco'], 0.0)||(',', '', '', '', 0.0)||('diabetes mellitus', 'noun', 'C0011849', ['dsyn'], 0.0)||(',', '', '', '', 0.0)||('and', '', '', '', 0.0)||('previous', 'adj', 'C0205156', ['tmco'], 0.0)||('cardiovascular disease', 'noun', 'C0007222', ['dsyn'], 0.0)||('were', '', '', '', 0.0)||('additional', 'adj', 'C1524062', ['ftcn'], 0.0)||('independent', 'adj', 'C0085862', ['idcn'], 0.0)||('predictors', '', '', '', 0.0)||('of', '', '', '', 0.0)||('events', 'noun', 'C0441471', ['evnt'], 0.0)||('.', '', '', '', 0.0)||
('in', '', '', '', 0.0)||('a', '', '', '', 0.0)||('subgroup', 'noun', 'C1515021', ['clas'], 0.0)||('of', '', '', '', 0.0)||('295', '', '', '', 0.0)||('uncomplicated', 'adj', 'C0443334', ['qlco'], 0.0)||('patients', 'noun', 'C0030705', ['podg'], 0.0)||(',', '', '', '', 0.0)||('24', '', '', '', 0.0)||('-', '', '', '', 0.0)||('hour', 'noun', 'C0439227', ['tmco'], 0.0)||('ambulatory', 'adj', 'C0439841', ['ftcn'], 0.0)||('pulse pressure', 'noun', 'C0949236', ['orgf'], 0.0)||('was', '', '', '', 0.0)||('an', '', '', '', 0.0)||('independent', 'adj', 'C0085862', ['idcn'], 0.0)||('predictor', 'noun', 'C2698872', ['idcn'], 0.0)||('of', '', '', '', 0.0)||('left ventricular mass index', '', '', '', 0.0)||('and', '', '', '', 0.0)||('maximal', 'adj', 'C0205289', ['qlco'], 0.0)||('carotid intima - media thickness', '', '', '', 0.0)||('.', '', '', '', 0.0)||
('baseline', 'noun', 'C0168634', ['bodm'], 0.0)||('clinic', 'noun', 'C0002424', ['hcro', 'mnob'], 0.0)||('blood pressure', 'noun', 'C0005823', ['orgf'], 0.0)||('parameters', 'noun', 'C0449381', ['fndg'], 0.0)||('did', '', '', '', 0.0)||('not', 'adv', 'C1518422', ['ftcn'], 0.0)||('provide', 'verb', 'C0359589', ['food'], 0.0)||('independent', 'adj', 'C0085862', ['idcn'], 0.0)||('information', 'noun', 'C1533716', ['idcn'], 0.0)||('for', '', '', '', 0.0)||('the', '', '', '', 0.0)||('prediction', 'noun', 'C0681842', ['idcn'], 0.0)||('of', '', '', '', 0.0)||('events', 'noun', 'C0441471', ['evnt'], 0.0)||('or', '', '', '', 0.0)||('target organ', '', '', '', 0.0)||('damage', 'noun', 'C0010957', ['inpo'], 0.0)||('.', '', '', '', 0.0)||
('therefore', '', '', '', 0.0)||(',', '', '', '', 0.0)||('in', '', '', '', 0.0)||('this', '', '', '', 0.0)||('study', 'noun', 'C0008976', ['resa'], 0.0)||(',', '', '', '', 0.0)||('ambulatory blood pressure', '', '', '', 0.0)||('proved', '', '', '', 0.0)||('to', '', '', '', 0.0)||('be', '', '', '', 0.0)||('superior', 'adj', 'C1282910', ['spco'], 0.0)||('to', '', '', '', 0.0)||('clinic', 'noun', 'C0002424', ['hcro', 'mnob'], 0.0)||('measurement', 'noun', 'C0242485', ['ftcn'], 0.0)||('for', '', '', '', 0.0)||('cardiovascular risk', '', '', '', 0.0)||('stratification', 'noun', 'C1514983', ['resa'], 0.0)||('.', '', '', '', 0.0)||
('however', '', '', '', 0.0)||(',', '', '', '', 0.0)||('the', '', '', '', 0.0)||('routine', 'adj', 'C0205547', ['qlco'], 0.0)||('use', 'noun', 'C0042153', ['ftcn'], 0.0)||('of', '', '', '', 0.0)||('ambulatory blood pressure', '', '', '', 0.0)||('monitoring', 'noun', 'C0150369', ['hlca'], 0.0)||('is', '', '', '', 0.0)||('not', 'adv', 'C1518422', ['ftcn'], 0.0)||('currently', 'adv', 'C0521116', ['tmco'], 0.0)||('recommended', 'verb', 'C0034866', ['idcn'], 0.0)||(',', '', '', '', 0.0)||('mainly', '', '', '', 0.0)||('because of', '', '', '', 0.0)||('a', '', '', '', 0.0)||('lack', 'noun', 'C0332268', ['qlco'], 0.0)||('of', '', '', '', 0.0)||('outcome', 'noun', 'C1274040', ['ftcn'], 0.0)||('trials', '', '', '', 0.0)||('based', 'verb', 'C1527178', ['ftcn'], 0.0)||('on', '', '', '', 0.0)||('the', '', '', '', 0.0)||('treatment', 'noun', 'C0039798', ['ftcn'], 0.0)||('of', '', '', '', 0.0)||('ambulatory blood pressure levels', '', '', '', 0.0)||('.', '', '', '', 0.0)||
('(', '', '', '', 0.0)||('c', '', '', '', 0.0)||(')', '', '', '', 0.0)||('2001', '', '', '', 0.0)||('by', '', '', '', 0.0)||('le', 'noun', 'C0023595', ['clna'], 0.0)||('jacq', '', '', '', 0.0)||('communications', '', '', '', 0.0)||(',', '', '', '', 0.0)||('inc', '', '', '', 0.0)||('.', '', '', '', 0.0)||
