('colesevelam hydrochloride', 'noun', 'C0541154', ['orch', 'phsu'], 0.0)||('is', '', '', '', 0.0)||('a', '', '', '', 0.0)||('novel', 'adj', 'C0205314', ['tmco'], 0.0)||(',', '', '', '', 0.0)||('potent', '', '', '', 0.0)||(',', '', '', '', 0.0)||('non - absorbed', '', '', '', 0.0)||('lipid', 'noun', 'C0023779', ['lipd'], 0.0)||('-', '', '', '', 0.0)||('lowering', 'adj', 'C2003888', ['ftcn'], 0.0)||('agent', 'noun', 'C0450442', ['chvf'], 0.0)||('previously', '', '', '', 0.0)||('shown', '', '', '', 0.0)||('to', '', '', '', 0.0)||('reduce', '', '', '', 0.0)||('low density lipoprotein cholesterol', 'noun', 'C0023824', ['bacs', 'strd'], 0.0)||('.', '', '', '', 0.0)||
('to', '', '', '', 0.0)||('examine', '', '', '', 0.0)||('the', '', '', '', 0.0)||('efficacy', 'noun', 'C1707887', ['resa'], 0.0)||('and', '', '', '', 0.0)||('safety', 'noun', 'C0036043', ['hcpp'], 0.0)||('of', '', '', '', 0.0)||('coadministration', '', '', '', 0.0)||('of', '', '', '', 0.0)||('colesevelam', 'noun', 'C0541155', ['orch', 'phsu'], 0.0)||('and', '', '', '', 0.0)||('atorvastatin', 'noun', 'C0286651', ['orch', 'phsu'], 0.0)||(',', '', '', '', 0.0)||('administration', 'noun', 'C0001554', ['ocac'], 0.0)||('of', '', '', '', 0.0)||('these', '', '', '', 0.0)||('agents', '', '', '', 0.0)||('alone', 'adj', 'C0439044', ['fndg'], 0.0)||('or', '', '', '', 0.0)||('in', '', '', '', 0.0)||('combination', 'noun', 'C0205195', ['qlco'], 0.0)||('was', '', '', '', 0.0)||('examined', 'verb', 'C0332128', ['fndg'], 0.0)||('in', '', '', '', 0.0)||('a', '', '', '', 0.0)||('double - blind study', '', '', '', 0.0)||('of', '', '', '', 0.0)||('94', '', '', '', 0.0)||('hypercholesterolemic', '', '', '', 0.0)||('men', 'noun', 'C0025266', ['popg'], 0.0)||('and', '', '', '', 0.0)||('women', 'noun', 'C0043210', ['popg'], 0.0)||('(', '', '', '', 0.0)||('baseline', 'noun', 'C0168634', ['bodm'], 0.0)||('low density lipoprotein cholesterol', 'noun', 'C0023824', ['bacs', 'strd'], 0.0)||('>', '', '', '', 0.0)||('or', '', '', '', 0.0)||('=', '', '', '', 0.0)||('160', '', '', '', 0.0)||('mg', '', '', '', 0.0)||('/', '', '', '', 0.0)||('dl', '', '', '', 0.0)||(')', '', '', '', 0.0)||('.', '', '', '', 0.0)||
('after', '', '', '', 0.0)||('4', '', '', '', 0.0)||('weeks', 'noun', 'C0439230', ['tmco'], 0.0)||('on', '', '', '', 0.0)||('the', '', '', '', 0.0)||('american heart association', 'noun', 'C0002458', ['hcro'], 0.0)||('step', 'noun', 'C1261552', ['cnce'], 0.0)||('i', '', '', '', 0.0)||('diet', 'noun', 'C0012155', ['food'], 0.0)||(',', '', '', '', 0.0)||('patients', 'noun', 'C0030705', ['podg'], 0.0)||('were', '', '', '', 0.0)||('randomized', 'verb', 'C0034656', ['resa'], 0.0)||('among', '', '', '', 0.0)||('five', '', 'C0205451', ['qnco'], 0.0)||('groups', 'noun', 'C0441833', ['idcn'], 0.0)||(':', '', '', '', 0.0)||('placebo', 'noun', 'C0032042', ['topp'], 0.0)||(';', '', '', '', 0.0)||
('colesevelam', 'noun', 'C0541155', ['orch', 'phsu'], 0.0)||('3 . 8', '', '', '', 0.0)||('g', '', '', '', 0.0)||('/', '', '', '', 0.0)||('day', 'noun', 'C0439228', ['tmco'], 0.0)||(';', '', '', '', 0.0)||
('atorvastatin', 'noun', 'C0286651', ['orch', 'phsu'], 0.0)||('10', '', '', '', 0.0)||('mg', '', '', '', 0.0)||('/', '', '', '', 0.0)||('day', 'noun', 'C0439228', ['tmco'], 0.0)||(';', '', '', '', 0.0)||
('coadminstered', '', '', '', 0.0)||('colesevelam', 'noun', 'C0541155', ['orch', 'phsu'], 0.0)||('3 . 8', '', '', '', 0.0)||('g', '', '', '', 0.0)||('/', '', '', '', 0.0)||('day', 'noun', 'C0439228', ['tmco'], 0.0)||('plus', '', '', '', 0.0)||('atorvastatin', 'noun', 'C0286651', ['orch', 'phsu'], 0.0)||('10', '', '', '', 0.0)||('mg', '', '', '', 0.0)||('/', '', '', '', 0.0)||('day', 'noun', 'C0439228', ['tmco'], 0.0)||(';', '', '', '', 0.0)||
('or', '', '', '', 0.0)||('atorvastatin', 'noun', 'C0286651', ['orch', 'phsu'], 0.0)||('80', '', '', '', 0.0)||('mg', '', '', '', 0.0)||('/', '', '', '', 0.0)||('day', 'noun', 'C0439228', ['tmco'], 0.0)||('.', '', '', '', 0.0)||
('fasting', 'adj', 'C0015663', ['fndg'], 0.0)||('lipids', 'noun', 'C0023779', ['lipd'], 0.0)||('were', '', '', '', 0.0)||('measured', 'verb', 'C0444706', ['qlco'], 0.0)||('at', '', '', '', 0.0)||('screening', 'noun', 'C0220908', ['hlca'], 0.0)||(',', '', '', '', 0.0)||('baseline', 'noun', 'C0168634', ['bodm'], 0.0)||('and', '', '', '', 0.0)||('2', '', '', '', 0.0)||('and', '', '', '', 0.0)||('4', '', '', '', 0.0)||('weeks', 'noun', 'C0439230', ['tmco'], 0.0)||('of', '', '', '', 0.0)||('treatment', 'noun', 'C0039798', ['ftcn'], 0.0)||('.', '', '', '', 0.0)||
('low density lipoprotein cholesterol', 'noun', 'C0023824', ['bacs', 'strd'], 0.0)||('decreased', 'verb', 'C0205216', ['qnco'], 0.0)||('by', '', '', '', 0.0)||('12', '', '', '', 0.0)||('-', '', '', '', 0.0)||('53 %', '', '', '', 0.0)||('in', '', '', '', 0.0)||('all', '', '', '', 0.0)||('active treatment', 'noun', 'C1704532', ['topp'], 0.0)||('groups', 'noun', 'C0441833', ['idcn'], 0.0)||('(', '', '', '', 0.0)||('p', '', '', '', 0.0)||('<', '', '', '', 0.0)||('0 . 01', '', '', '', 0.0)||(')', '', '', '', 0.0)||('.', '', '', '', 0.0)||
('low density lipoprotein cholesterol', 'noun', 'C0023824', ['bacs', 'strd'], 0.0)||('reductions', '', '', '', 0.0)||('with', '', '', '', 0.0)||('combination', 'noun', 'C0205195', ['qlco'], 0.0)||('therapy', 'noun', 'C0039798', ['ftcn'], 0.0)||('(', '', '', '', 0.0)||('48 %', '', '', '', 0.0)||(')', '', '', '', 0.0)||('were', '', '', '', 0.0)||('statistically', 'adv', 'C0038215', ['ocdi'], 0.0)||('superior', 'adj', 'C1282910', ['spco'], 0.0)||('to', '', '', '', 0.0)||('colesevelam', 'verb', 'C0541155', ['orch', 'phsu'], 0.0)||('(', '', '', '', 0.0)||('12 %', '', '', '', 0.0)||(')', '', '', '', 0.0)||('or', '', '', '', 0.0)||('low - dose', '', '', '', 0.0)||('atorvastatin', 'noun', 'C0286651', ['orch', 'phsu'], 0.0)||('(', '', '', '', 0.0)||('38 %', '', '', '', 0.0)||(')', '', '', '', 0.0)||('alone', 'adj', 'C0439044', ['fndg'], 0.0)||('(', '', '', '', 0.0)||('p', '', '', '', 0.0)||('<', '', '', '', 0.0)||('0 . 01', '', '', '', 0.0)||(')', '', '', '', 0.0)||(',', '', '', '', 0.0)||('but', '', '', '', 0.0)||('similar', 'adj', 'C2348205', ['qlco'], 0.0)||('to', '', '', '', 0.0)||('those', '', '', '', 0.0)||('achieved', '', '', '', 0.0)||('with', '', '', '', 0.0)||('atorvastatin', 'noun', 'C0286651', ['orch', 'phsu'], 0.0)||('80', '', '', '', 0.0)||('mg', '', '', '', 0.0)||('/', '', '', '', 0.0)||('day', 'noun', 'C0439228', ['tmco'], 0.0)||('(', '', '', '', 0.0)||('53 %', '', '', '', 0.0)||(')', '', '', '', 0.0)||('.', '', '', '', 0.0)||
('total cholesterol', 'noun', 'C0543421', ['strd'], 0.0)||('decreased', 'verb', 'C0205216', ['qnco'], 0.0)||('6', '', '', '', 0.0)||('-', '', '', '', 0.0)||('39 %', '', '', '', 0.0)||('in', '', '', '', 0.0)||('all', '', '', '', 0.0)||('active treatment', 'noun', 'C1704532', ['topp'], 0.0)||('groups', 'noun', 'C0441833', ['idcn'], 0.0)||('(', '', '', '', 0.0)||('p', '', '', '', 0.0)||('<', '', '', '', 0.0)||('0 . 05', '', '', '', 0.0)||(')', '', '', '', 0.0)||('.', '', '', '', 0.0)||
('high density lipoprotein cholesterol', 'noun', 'C0023822', ['bacs', 'lipd'], 0.0)||('increased', 'verb', 'C0205217', ['qnco'], 0.0)||('significantly', '', '', '', 0.0)||('for', '', '', '', 0.0)||('all', '', '', '', 0.0)||('groups', 'noun', 'C0441833', ['idcn'], 0.0)||('including', '', '', '', 0.0)||('placebo', 'noun', 'C0032042', ['topp'], 0.0)||('(', '', '', '', 0.0)||('p', '', '', '', 0.0)||('<', '', '', '', 0.0)||('0 . 05', '', '', '', 0.0)||(')', '', '', '', 0.0)||('.', '', '', '', 0.0)||
('triglycerides', 'noun', 'C0041004', ['bacs', 'lipd'], 0.0)||('decreased', 'verb', 'C0205216', ['qnco'], 0.0)||('in', '', '', '', 0.0)||('patients', 'noun', 'C0030705', ['podg'], 0.0)||('taking', '', '', '', 0.0)||('atorvastatin', 'noun', 'C0286651', ['orch', 'phsu'], 0.0)||('alone', 'adj', 'C0439044', ['fndg'], 0.0)||('(', '', '', '', 0.0)||('p', '', '', '', 0.0)||('<', '', '', '', 0.0)||('0 . 05', '', '', '', 0.0)||(')', '', '', '', 0.0)||(',', '', '', '', 0.0)||('but', '', '', '', 0.0)||('were', '', '', '', 0.0)||('unaffected', '', '', '', 0.0)||('by', '', '', '', 0.0)||('colesevelam', 'noun', 'C0541155', ['orch', 'phsu'], 0.0)||('alone', 'adj', 'C0439044', ['fndg'], 0.0)||('or', '', '', '', 0.0)||('in', '', '', '', 0.0)||('combination', 'noun', 'C0205195', ['qlco'], 0.0)||('.', '', '', '', 0.0)||
('the', '', '', '', 0.0)||('frequency', 'noun', 'C0376249', ['qnco'], 0.0)||('of', '', '', '', 0.0)||('side effects', 'noun', 'C0001688', ['ftcn'], 0.0)||('did', '', '', '', 0.0)||('not', 'adv', 'C1518422', ['ftcn'], 0.0)||('differ', '', '', '', 0.0)||('among', '', '', '', 0.0)||('groups', 'noun', 'C0441833', ['idcn'], 0.0)||('.', '', '', '', 0.0)||
('at', '', '', '', 0.0)||('recommended', 'adj', 'C0034866', ['idcn'], 0.0)||('starting doses', '', '', '', 0.0)||('of', '', '', '', 0.0)||('each', '', '', '', 0.0)||('agent', 'noun', 'C0450442', ['chvf'], 0.0)||(',', '', '', '', 0.0)||('coadministration', '', '', '', 0.0)||('of', '', '', '', 0.0)||('colesevelam', 'noun', 'C0541155', ['orch', 'phsu'], 0.0)||('and', '', '', '', 0.0)||('atorvastatin', 'noun', 'C0286651', ['orch', 'phsu'], 0.0)||('was', '', '', '', 0.0)||('well tolerated', '', '', '', 0.0)||(',', '', '', '', 0.0)||('efficacious', '', '', '', 0.0)||('and', '', '', '', 0.0)||('produced', '', '', '', 0.0)||('additive', 'adj', 'C0442796', ['qlco'], 0.0)||('low density lipoprotein cholesterol', 'noun', 'C0023824', ['bacs', 'strd'], 0.0)||('reductions', '', '', '', 0.0)||('comparable', '', '', '', 0.0)||('to', '', '', '', 0.0)||('those', '', '', '', 0.0)||('observed', 'verb', 'C1441672', ['ftcn'], 0.0)||('with', '', '', '', 0.0)||('the', '', '', '', 0.0)||('maximum', 'noun', 'C0806909', ['qnco'], 0.0)||('atorvastatin', 'noun', 'C0286651', ['orch', 'phsu'], 0.0)||('dose', 'noun', 'C0178602', ['qnco'], 0.0)||('.', '', '', '', 0.0)||
