('combination', 'noun', 'C0205195', ['qlco'], 0.0)||('therapy', 'noun', 'C0039798', ['ftcn'], 0.0)||('to', '', '', '', 0.0)||('improve', 'verb', 'C0332161', ['qlco'], 0.0)||('the', '', '', '', 0.0)||('total', 'adj', 'C0439810', ['qlco'], 0.0)||('lipid', 'noun', 'C0023779', ['lipd'], 0.0)||('profile', 'noun', 'C1979963', ['lbpr'], 0.0)||('may', '', '', '', 0.0)||('achieve', '', '', '', 0.0)||('greater', 'adj', 'C1704243', ['qnco'], 0.0)||('coronary', 'adj', 'C0018787', ['bpoc'], 0.0)||('risk', 'noun', 'C0035647', ['qlco'], 0.0)||('reductions', '', '', '', 0.0)||('than', '', '', '', 0.0)||('lowering', 'verb', 'C2003888', ['ftcn'], 0.0)||('low - density lipoprotein cholesterol', '', '', '', 0.0)||('(', '', '', '', 0.0)||('ldl - c', '', '', '', 0.0)||(')', '', '', '', 0.0)||('alone', 'adj', 'C0439044', ['fndg'], 0.0)||('.', '', '', '', 0.0)||
('a', '', '', '', 0.0)||('new', 'adj', 'C0205314', ['tmco'], 0.0)||('extended - release', '', '', '', 0.0)||('niacin', 'noun', 'C0027996', ['orch', 'phsu', 'vita'], 0.0)||('(', '', '', '', 0.0)||('niacin', 'noun', 'C0027996', ['orch', 'phsu', 'vita'], 0.0)||('er ) /', '', '', '', 0.0)||('lovastatin', 'noun', 'C0024027', ['orch', 'phsu'], 0.0)||('tablet', 'noun', 'C0039225', ['bodm'], 0.0)||('substantially', '', '', '', 0.0)||('lowers', '', '', '', 0.0)||('ldl - c', '', '', '', 0.0)||(',', '', '', '', 0.0)||('triglyceride', 'noun', 'C0041004', ['bacs', 'lipd'], 0.0)||(',', '', '', '', 0.0)||('and', '', '', '', 0.0)||('lipoprotein ( a ) levels', '', '', '', 0.0)||('and', '', '', '', 0.0)||('raises', '', '', '', 0.0)||('high - density lipoprotein cholesterol', '', '', '', 0.0)||('level', 'noun', 'C0441889', ['qlco'], 0.0)||('.', '', '', '', 0.0)||
('we', '', '', '', 0.0)||('evaluated', 'verb', 'C0220825', ['ftcn'], 0.0)||('these', '', '', '', 0.0)||('serum', 'noun', 'C0229671', ['bdsu'], 0.0)||('lipid', 'noun', 'C0023779', ['lipd'], 0.0)||('responses', 'noun', 'C0871261', ['clna'], 0.0)||('to', '', '', '', 0.0)||('niacin', 'verb', 'C0027996', ['orch', 'phsu', 'vita'], 0.0)||('er /', '', '', '', 0.0)||('lovastatin', 'noun', 'C0024027', ['orch', 'phsu'], 0.0)||('at', '', '', '', 0.0)||('all', '', '', '', 0.0)||('clinically', '', '', '', 0.0)||('reasonable', '', '', '', 0.0)||('doses', 'noun', 'C0178602', ['qnco'], 0.0)||('.', '', '', '', 0.0)||
('men', 'noun', 'C0025266', ['popg'], 0.0)||('(', '', '', '', 0.0)||('n =', '', '', '', 0.0)||('85', '', '', '', 0.0)||(')', '', '', '', 0.0)||('and', '', '', '', 0.0)||('women', 'noun', 'C0043210', ['popg'], 0.0)||('(', '', '', '', 0.0)||('n =', '', '', '', 0.0)||('79', '', '', '', 0.0)||(')', '', '', '', 0.0)||('with', '', '', '', 0.0)||('type', 'noun', 'C0332307', ['qlco'], 0.0)||('iia', '', '', '', 0.0)||('or', '', '', '', 0.0)||('iib', '', '', '', 0.0)||('primary', 'adj', 'C0205225', ['qlco'], 0.0)||('hyperlipidemia', '', '', '', 0.0)||('after', '', '', '', 0.0)||('diet', 'noun', 'C0012155', ['food'], 0.0)||('were', '', '', '', 0.0)||('randomized', 'verb', 'C0034656', ['resa'], 0.0)||('among', '', '', '', 0.0)||('5', '', '', '', 0.0)||('parallel', 'adj', 'C2348042', ['qlco'], 0.0)||('treatment', 'noun', 'C0039798', ['ftcn'], 0.0)||('arms', 'noun', 'C0446516', ['blor'], 0.0)||('.', '', '', '', 0.0)||
('each', '', '', '', 0.0)||('arm', 'noun', 'C0446516', ['blor'], 0.0)||('had', '', '', '', 0.0)||('5', '', '', '', 0.0)||('sequential', 'adj', 'C1548958', ['idcn'], 0.0)||('4', '', '', '', 0.0)||('-', '', '', '', 0.0)||('week', 'noun', 'C0439230', ['tmco'], 0.0)||('treatment', 'noun', 'C0039798', ['ftcn'], 0.0)||('periods', '', '', '', 0.0)||(':', '', '', '', 0.0)||('niacin', 'noun', 'C0027996', ['orch', 'phsu', 'vita'], 0.0)||('er (', '', '', '', 0.0)||('starting', '', '', '', 0.0)||('at', '', '', '', 0.0)||('500', '', '', '', 0.0)||('mg', '', '', '', 0.0)||('/', '', '', '', 0.0)||('d', '', '', '', 0.0)||(',', '', '', '', 0.0)||('increasing', 'verb', 'C0442808', ['ftcn'], 0.0)||('in', '', '', '', 0.0)||('500', '', '', '', 0.0)||('-', '', '', '', 0.0)||('mg', '', '', '', 0.0)||('increments', '', '', '', 0.0)||('to', '', '', '', 0.0)||('2500', '', '', '', 0.0)||('mg', '', '', '', 0.0)||('/', '', '', '', 0.0)||('d', '', '', '', 0.0)||(')', '', '', '', 0.0)||(';', '', '', '', 0.0)||
('lovastatin', 'noun', 'C0024027', ['orch', 'phsu'], 0.0)||('(', '', '', '', 0.0)||('starting', '', '', '', 0.0)||('at', '', '', '', 0.0)||('10', '', '', '', 0.0)||('mg', '', '', '', 0.0)||(',', '', '', '', 0.0)||('increasing', 'verb', 'C0442808', ['ftcn'], 0.0)||('to', '', '', '', 0.0)||('20', '', '', '', 0.0)||('mg', '', '', '', 0.0)||(',', '', '', '', 0.0)||('then', 'adv', 'C1883708', ['tmco'], 0.0)||('40', '', '', '', 0.0)||('mg', '', '', '', 0.0)||('/', '', '', '', 0.0)||('d', '', '', '', 0.0)||(')', '', '', '', 0.0)||(';', '', '', '', 0.0)||
('and', '', '', '', 0.0)||('3', '', '', '', 0.0)||('combinations', 'noun', 'C0453882', ['mnob'], 0.0)||('arms', 'noun', 'C0446516', ['blor'], 0.0)||(',', '', '', '', 0.0)||('each', '', '', '', 0.0)||('with', '', '', '', 0.0)||('a', '', '', '', 0.0)||('constant', 'adj', 'C1948059', ['qlco'], 0.0)||('lovastatin', 'noun', 'C0024027', ['orch', 'phsu'], 0.0)||('dose', 'noun', 'C0178602', ['qnco'], 0.0)||('and', '', '', '', 0.0)||('escalating', '', '', '', 0.0)||('niacin', 'noun', 'C0027996', ['orch', 'phsu', 'vita'], 0.0)||('er', '', '', '', 0.0)||('doses', 'noun', 'C0178602', ['qnco'], 0.0)||('.', '', '', '', 0.0)||
('for', '', '', '', 0.0)||('primary', 'adj', 'C0205225', ['qlco'], 0.0)||('comparisons', '', '', '', 0.0)||(',', '', '', '', 0.0)||('mean', 'noun', 'C0444504', ['qnco'], 0.0)||('ldl - c level', '', '', '', 0.0)||('reductions', '', '', '', 0.0)||('from', '', '', '', 0.0)||('baseline', 'noun', 'C0168634', ['bodm'], 0.0)||('were', '', '', '', 0.0)||('greater', 'adj', 'C1704243', ['qnco'], 0.0)||('with', '', '', '', 0.0)||('niacin', 'noun', 'C0027996', ['orch', 'phsu', 'vita'], 0.0)||('er /', '', '', '', 0.0)||('lovastatin', 'noun', 'C0024027', ['orch', 'phsu'], 0.0)||('(', '', '', '', 0.0)||('1500 / 20', '', '', '', 0.0)||('mg', '', '', '', 0.0)||(')', '', '', '', 0.0)||('than', '', '', '', 0.0)||('with', '', '', '', 0.0)||('lovastatin', 'noun', 'C0024027', ['orch', 'phsu'], 0.0)||('(', '', '', '', 0.0)||('20', '', '', '', 0.0)||('mg', '', '', '', 0.0)||(')', '', '', '', 0.0)||('(', '', '', '', 0.0)||('35 %', '', '', '', 0.0)||('vs', '', '', '', 0.0)||('22 %', '', '', '', 0.0)||(',', '', '', '', 0.0)||('p', '', '', '', 0.0)||('<', '', '', '', 0.0)||('.', '', '', '', 0.0)||('001', '', '', '', 0.0)||(')', '', '', '', 0.0)||('and', '', '', '', 0.0)||('with', '', '', '', 0.0)||('niacin', 'noun', 'C0027996', ['orch', 'phsu', 'vita'], 0.0)||('er /', '', '', '', 0.0)||('lovastatin', 'noun', 'C0024027', ['orch', 'phsu'], 0.0)||('(', '', '', '', 0.0)||('2000 / 40', '', '', '', 0.0)||('mg', '', '', '', 0.0)||(')', '', '', '', 0.0)||('than', '', '', '', 0.0)||('with', '', '', '', 0.0)||('lovastatin', 'noun', 'C0024027', ['orch', 'phsu'], 0.0)||('(', '', '', '', 0.0)||('40', '', '', '', 0.0)||('mg', '', '', '', 0.0)||(')', '', '', '', 0.0)||('(', '', '', '', 0.0)||('46 %', '', '', '', 0.0)||('vs', '', '', '', 0.0)||('24 %', '', '', '', 0.0)||(',', '', '', '', 0.0)||('p', '', '', '', 0.0)||('<', '', '', '', 0.0)||('.', '', '', '', 0.0)||('001', '', '', '', 0.0)||(')', '', '', '', 0.0)||('.', '', '', '', 0.0)||
('each', '', '', '', 0.0)||('500', '', '', '', 0.0)||('-', '', '', '', 0.0)||('mg', '', '', '', 0.0)||('increase', 'noun', 'C0442805', ['ftcn'], 0.0)||('in', '', '', '', 0.0)||('niacin', 'noun', 'C0027996', ['orch', 'phsu', 'vita'], 0.0)||('er', '', '', '', 0.0)||(',', '', '', '', 0.0)||('on', '', '', '', 0.0)||('average', 'noun', 'C1510992', ['qnco'], 0.0)||(',', '', '', '', 0.0)||('decreased', 'adj', 'C0205216', ['qnco'], 0.0)||('ldl - c levels', '', '', '', 0.0)||('an', '', '', '', 0.0)||('additional', 'adj', 'C1524062', ['ftcn'], 0.0)||('4 %', '', '', '', 0.0)||('and', '', '', '', 0.0)||('increased', 'adj', 'C0205217', ['qnco'], 0.0)||('high - density lipoprotein cholesterol', '', '', '', 0.0)||('levels', 'noun', 'C0441889', ['qlco'], 0.0)||('8 %', '', '', '', 0.0)||('.', '', '', '', 0.0)||
('the', '', '', '', 0.0)||('maximum recommended dose', '', '', '', 0.0)||('(', '', '', '', 0.0)||('2000 / 40', '', '', '', 0.0)||('mg', '', '', '', 0.0)||('/', '', '', '', 0.0)||('d )', '', '', '', 0.0)||('increased', 'verb', 'C0205217', ['qnco'], 0.0)||('high - density lipoprotein cholesterol', '', '', '', 0.0)||('levels', 'noun', 'C0441889', ['qlco'], 0.0)||('29 %', '', '', '', 0.0)||('and', '', '', '', 0.0)||('decreased', 'adj', 'C0205216', ['qnco'], 0.0)||('ldl - c levels', '', '', '', 0.0)||('46 %', '', '', '', 0.0)||(',', '', '', '', 0.0)||('triglyceride levels', '', '', '', 0.0)||('38 %', '', '', '', 0.0)||(',', '', '', '', 0.0)||('and', '', '', '', 0.0)||('lipoprotein ( a ) levels', '', '', '', 0.0)||('14 %', '', '', '', 0.0)||('.', '', '', '', 0.0)||
('all', '', '', '', 0.0)||('lipid', 'noun', 'C0023779', ['lipd'], 0.0)||('responses', 'noun', 'C0871261', ['clna'], 0.0)||('were', '', '', '', 0.0)||('dose dependent', '', '', '', 0.0)||('and', '', '', '', 0.0)||('generally', '', '', '', 0.0)||('additive', 'adj', 'C0442796', ['qlco'], 0.0)||('.', '', '', '', 0.0)||
('graphs', '', '', '', 0.0)||('of', '', '', '', 0.0)||('the', '', '', '', 0.0)||('dose - response relationships', '', '', '', 0.0)||('as', '', '', '', 0.0)||('3 - dimensional', '', '', '', 0.0)||('surfaces', '', '', '', 0.0)||('documented', 'verb', 'C1301725', ['hlca'], 0.0)||('the', '', '', '', 0.0)||('strength', 'noun', 'C0808080', ['idcn'], 0.0)||('and', '', '', '', 0.0)||('consistency', 'noun', 'C0332529', ['qlco'], 0.0)||('of', '', '', '', 0.0)||('these', '', '', '', 0.0)||('responses', 'noun', 'C0871261', ['clna'], 0.0)||('.', '', '', '', 0.0)||
('niacin', 'noun', 'C0027996', ['orch', 'phsu', 'vita'], 0.0)||('er /', '', '', '', 0.0)||('lovastatin', 'noun', 'C0024027', ['orch', 'phsu'], 0.0)||('combination', 'noun', 'C0205195', ['qlco'], 0.0)||('therapy', 'noun', 'C0039798', ['ftcn'], 0.0)||('substantially', '', '', '', 0.0)||('improves', '', '', '', 0.0)||('4', '', '', '', 0.0)||('major', 'adj', 'C0205164', ['qlco'], 0.0)||('lipoprotein levels', '', '', '', 0.0)||('associated', 'verb', 'C0332281', ['qlco'], 0.0)||('with', '', '', '', 0.0)||('atherosclerotic', 'adj', 'C0333482', ['ftcn'], 0.0)||('disease', 'noun', 'C0012634', ['dsyn'], 0.0)||('.', '', '', '', 0.0)||
('dose - response', '', '', '', 0.0)||('surfaces', '', '', '', 0.0)||('provide', 'verb', 'C0359589', ['food'], 0.0)||('a', '', '', '', 0.0)||('practical', '', '', '', 0.0)||('guide', 'noun', 'C0181090', ['prog'], 0.0)||('for', '', '', '', 0.0)||('dose', 'noun', 'C0178602', ['qnco'], 0.0)||('selection', 'noun', 'C0036576', ['genf'], 0.0)||('.', '', '', '', 0.0)||
