('surgical removal', 'noun', 'C0728940', ['topp'], 0.0)||('of', '', '', '', 0.0)||('the', '', '', '', 0.0)||('tonsils', 'noun', 'C0040421', ['bpoc'], 0.0)||('(', '', '', '', 0.0)||('tonsillectomy', 'noun', 'C0040423', ['topp'], 0.0)||(')', '', '', '', 0.0)||('is', '', '', '', 0.0)||('a', '', '', '', 0.0)||('common', 'adj', 'C0205214', ['qnco'], 0.0)||('but', '', '', '', 0.0)||('controversial', '', '', '', 0.0)||('ent', '', '', '', 0.0)||('operation', 'noun', 'C0543467', ['topp'], 0.0)||('.', '', '', '', 0.0)||
('to', '', '', '', 0.0)||('determine', '', '', '', 0.0)||('the', '', '', '', 0.0)||('effect', 'noun', 'C1280500', ['qlco'], 0.0)||('of', '', '', '', 0.0)||('tonsillectomy', 'noun', 'C0040423', ['topp'], 0.0)||('in', '', '', '', 0.0)||('patients', 'noun', 'C0030705', ['podg'], 0.0)||('with', '', '', '', 0.0)||('chronic', 'adj', 'C0205191', ['tmco'], 0.0)||('/', '', '', '', 0.0)||('recurrent', 'adj', 'C0034897', ['phpr'], 0.0)||('acute', 'adj', 'C0205178', ['tmco'], 0.0)||('tonsillitis', 'noun', 'C0040425', ['dsyn'], 0.0)||('.', '', '', '', 0.0)||
('cochrane', '', '', '', 0.0)||('controlled', 'adj', 'C2587213', ['ftcn'], 0.0)||('trials', '', '', '', 0.0)||('register', '', '', '', 0.0)||(',', '', '', '', 0.0)||('medline', 'noun', 'C0025141', ['inpr'], 0.0)||(',', '', '', '', 0.0)||('embase', '', '', '', 0.0)||(',', '', '', '', 0.0)||('bibliographies', '', '', '', 0.0)||('.', '', '', '', 0.0)||
('randomised controlled trials', '', '', '', 0.0)||('comparing', '', '', '', 0.0)||('tonsillectomy', 'noun', 'C0040423', ['topp'], 0.0)||('with', '', '', '', 0.0)||('non - surgical', '', '', '', 0.0)||('treatment', 'noun', 'C0039798', ['ftcn'], 0.0)||('in', '', '', '', 0.0)||('adults', 'noun', 'C0001675', ['aggp'], 0.0)||('and', '', '', '', 0.0)||('children', 'noun', 'C0008059', ['aggp'], 0.0)||('with', '', '', '', 0.0)||('chronic', 'adj', 'C0205191', ['tmco'], 0.0)||('/', '', '', '', 0.0)||('recurrent', 'adj', 'C0034897', ['phpr'], 0.0)||('acute', 'adj', 'C0205178', ['tmco'], 0.0)||('tonsillitis', 'noun', 'C0040425', ['dsyn'], 0.0)||('.', '', '', '', 0.0)||
('trials', '', '', '', 0.0)||('which', '', '', '', 0.0)||('included', '', '', '', 0.0)||('reduction', 'noun', 'C0301630', ['npop'], 0.0)||('in', '', '', '', 0.0)||('the', '', '', '', 0.0)||('number', 'noun', 'C0449788', ['qnco'], 0.0)||('and', '', '', '', 0.0)||('severity', 'noun', 'C0439793', ['qlco'], 0.0)||('of', '', '', '', 0.0)||('tonsillitis', 'noun', 'C0040425', ['dsyn'], 0.0)||('and', '', '', '', 0.0)||('sore throat', '', '', '', 0.0)||('as', '', '', '', 0.0)||('main', 'adj', 'C0205225', ['qlco'], 0.0)||('outcome', 'noun', 'C1274040', ['ftcn'], 0.0)||('measures', 'noun', 'C0079809', ['qnco'], 0.0)||('.', '', '', '', 0.0)||
('two', 'adj', 'C0205448', ['qnco'], 0.0)||('authors', 'noun', 'C0341628', ['prog'], 0.0)||('applied', 'verb', 'C0185125', ['hlca'], 0.0)||('the', '', '', '', 0.0)||('inclusion', 'noun', 'C1512693', ['qlco'], 0.0)||('/', '', '', '', 0.0)||('exclusion', 'noun', 'C0680251', ['ftcn'], 0.0)||('criteria', 'noun', 'C0243161', ['inpr'], 0.0)||('independently', '', '', '', 0.0)||('.', '', '', '', 0.0)||
('no', '', '', '', 0.0)||('trials', '', '', '', 0.0)||('evaluating', 'verb', 'C0220825', ['ftcn'], 0.0)||('the', '', '', '', 0.0)||('effectiveness', 'noun', 'C1280519', ['qlco'], 0.0)||('of', '', '', '', 0.0)||('tonsillectomy', 'noun', 'C0040423', ['topp'], 0.0)||('in', '', '', '', 0.0)||('adults', 'noun', 'C0001675', ['aggp'], 0.0)||('were', '', '', '', 0.0)||('identified', 'verb', 'C0205396', ['qlco'], 0.0)||('.', '', '', '', 0.0)||
('two', 'adj', 'C0205448', ['qnco'], 0.0)||('trials', '', '', '', 0.0)||('from', '', '', '', 0.0)||('pittsburgh', '', '', '', 0.0)||('assessed', 'verb', 'C1516048', ['acty'], 0.0)||('tonsillectomy', 'noun', 'C0040423', ['topp'], 0.0)||('in', '', '', '', 0.0)||('children', 'noun', 'C0008059', ['aggp'], 0.0)||('.', '', '', '', 0.0)||
('significant', 'adj', 'C0750502', ['idcn'], 0.0)||('baseline', 'noun', 'C0168634', ['bodm'], 0.0)||('differences', '', '', '', 0.0)||('between', '', '', '', 0.0)||('the', '', '', '', 0.0)||('surgical', 'adj', 'C0543467', ['topp'], 0.0)||('and', '', '', '', 0.0)||('non - surgical', '', '', '', 0.0)||('groups', 'noun', 'C0441833', ['idcn'], 0.0)||('and', '', '', '', 0.0)||('the', '', '', '', 0.0)||('inclusion', 'noun', 'C1512693', ['qlco'], 0.0)||('of', '', '', '', 0.0)||('children', 'noun', 'C0008059', ['aggp'], 0.0)||('who', '', '', '', 0.0)||('also', '', '', '', 0.0)||('underwent', '', '', '', 0.0)||('adenoidectomy', 'adv', 'C0001425', ['topp'], 0.0)||('prevent', 'verb', 'C0309872', ['phsu'], 0.0)||('firm', 'adj', 'C0205233', ['qlco'], 0.0)||('conclusions', 'noun', 'C1707478', ['idcn'], 0.0)||('being', '', '', '', 0.0)||('drawn', '', '', '', 0.0)||('from', '', '', '', 0.0)||('the', '', '', '', 0.0)||('fully', '', '', '', 0.0)||('published', 'adj', 'C0034037', ['ocac'], 0.0)||('trial', 'noun', 'C0008976', ['resa'], 0.0)||('.', '', '', '', 0.0)||
('limited', 'verb', 'C0439801', ['ftcn'], 0.0)||('and', '', '', '', 0.0)||('insufficient', 'adj', 'C0205412', ['qlco'], 0.0)||('information', 'noun', 'C1533716', ['idcn'], 0.0)||('is', '', '', '', 0.0)||('available', 'adj', 'C0470187', ['ftcn'], 0.0)||('from', '', '', '', 0.0)||('the', '', '', '', 0.0)||('second', 'adj', 'C0205436', ['qnco'], 0.0)||('study', 'noun', 'C0008976', ['resa'], 0.0)||(';', '', '', '', 0.0)||
('further', 'adj', 'C1517331', ['spco'], 0.0)||('details', 'noun', 'C1522508', ['qlco'], 0.0)||('are', '', '', '', 0.0)||('awaited', '', '', '', 0.0)||('.', '', '', '', 0.0)||
('the', '', '', '', 0.0)||('effectiveness', 'noun', 'C1280519', ['qlco'], 0.0)||('of', '', '', '', 0.0)||('tonsillectomy', 'noun', 'C0040423', ['topp'], 0.0)||('has', '', '', '', 0.0)||('not', 'adv', 'C1518422', ['ftcn'], 0.0)||('been', '', '', '', 0.0)||('formally', '', '', '', 0.0)||('evaluated', 'verb', 'C0220825', ['ftcn'], 0.0)||('.', '', '', '', 0.0)||
('further', 'adj', 'C1517331', ['spco'], 0.0)||('trials', '', '', '', 0.0)||('addressing', '', '', '', 0.0)||('relevant', 'adj', 'C2347946', ['qlco'], 0.0)||('outcome', 'noun', 'C1274040', ['ftcn'], 0.0)||('measure', 'noun', 'C0079809', ['qnco'], 0.0)||('are', '', '', '', 0.0)||('required', 'verb', 'C1514873', ['ftcn'], 0.0)||('.', '', '', '', 0.0)||
