('many', '', '', '', 0.0)||('case - finding', '', '', '', 0.0)||('instruments', 'noun', 'C0348000', ['medd'], 0.0)||('are', '', '', '', 0.0)||('available', 'adj', 'C0470187', ['ftcn'], 0.0)||('to', '', '', '', 0.0)||('help', 'verb', 'C1552861', ['idcn'], 0.0)||('primary care', 'noun', 'C0033137', ['hlca'], 0.0)||('physicians', 'noun', 'C0031831', ['prog'], 0.0)||('diagnose', '', '', '', 0.0)||('depression', 'noun', 'C0011570', ['mobd'], 0.0)||(',', '', '', '', 0.0)||('but', '', '', '', 0.0)||('they', '', '', '', 0.0)||('are', '', '', '', 0.0)||('not', 'adv', 'C1518422', ['ftcn'], 0.0)||('widely', '', '', '', 0.0)||('used', '', '', '', 0.0)||('.', '', '', '', 0.0)||
('physicians', 'noun', 'C0031831', ['prog'], 0.0)||('often', 'adv', 'C0332183', ['tmco'], 0.0)||('consider', 'verb', 'C0750591', ['idcn'], 0.0)||('these', '', '', '', 0.0)||('instruments', 'noun', 'C0348000', ['medd'], 0.0)||('too', '', '', '', 0.0)||('time consuming', '', '', '', 0.0)||('or', '', '', '', 0.0)||('feel', '', '', '', 0.0)||('they', '', '', '', 0.0)||('do', '', '', '', 0.0)||('not', 'adv', 'C1518422', ['ftcn'], 0.0)||('provide', 'verb', 'C0359589', ['food'], 0.0)||('sufficient', 'adj', 'C0205410', ['qlco'], 0.0)||('diagnostic', 'adj', 'C0011900', ['fndg'], 0.0)||('information', 'noun', 'C1533716', ['idcn'], 0.0)||('.', '', '', '', 0.0)||
('our', '', '', '', 0.0)||('study', 'noun', 'C0008976', ['resa'], 0.0)||('examined', 'verb', 'C0332128', ['fndg'], 0.0)||('the', '', '', '', 0.0)||('validity', 'noun', 'C2349101', ['qnco'], 0.0)||('and', '', '', '', 0.0)||('utility', '', '', '', 0.0)||('of', '', '', '', 0.0)||('the', '', '', '', 0.0)||('quick', 'adj', 'C0439831', ['qlco'], 0.0)||('psychodiagnostics', '', '', '', 0.0)||('panel', 'noun', 'C0441833', ['idcn'], 0.0)||(',', '', '', '', 0.0)||('an', '', '', '', 0.0)||('automated', 'adj', 'C0205554', ['ftcn'], 0.0)||('mental health', 'noun', 'C0025353', ['idcn'], 0.0)||('test', 'noun', 'C0022885', ['lbpr'], 0.0)||('designed', '', '', '', 0.0)||('to', '', '', '', 0.0)||('meet', '', '', '', 0.0)||('the', '', '', '', 0.0)||('special', 'adj', 'C0205555', ['qlco'], 0.0)||('needs', 'noun', 'C0027552', ['qlco'], 0.0)||('of', '', '', '', 0.0)||('primary care', 'noun', 'C0033137', ['hlca'], 0.0)||('physicians', 'noun', 'C0031831', ['prog'], 0.0)||('.', '', '', '', 0.0)||
('the', '', '', '', 0.0)||('test', 'noun', 'C0022885', ['lbpr'], 0.0)||('screens', 'noun', 'C0183185', ['medd'], 0.0)||('for', '', '', '', 0.0)||('9', '', '', '', 0.0)||('common', 'adj', 'C0205214', ['qnco'], 0.0)||('psychiatric', 'adj', 'C0205487', ['ftcn'], 0.0)||('disorders', 'noun', 'C0012634', ['dsyn'], 0.0)||('and', '', '', '', 0.0)||('requires', '', '', '', 0.0)||('no', '', '', '', 0.0)||('physician', 'noun', 'C0031831', ['prog'], 0.0)||('time', 'noun', 'C0040223', ['tmco'], 0.0)||('to', '', '', '', 0.0)||('administer', 'noun', 'C1621583', ['ftcn'], 0.0)||('or', '', '', '', 0.0)||('score', 'noun', 'C0449820', ['qnco'], 0.0)||('.', '', '', '', 0.0)||
('we', '', '', '', 0.0)||('evaluated', 'verb', 'C0220825', ['ftcn'], 0.0)||('criterion', 'noun', 'C0243161', ['inpr'], 0.0)||('validity', 'noun', 'C2349101', ['qnco'], 0.0)||('relative', 'adj', 'C0080103', ['famg'], 0.0)||('to', '', '', '', 0.0)||('the', '', '', '', 0.0)||('structured clinical interview', 'noun', 'C0935589', ['diap'], 0.0)||('for', '', '', '', 0.0)||('dsm - iv', '', '', '', 0.0)||(',', '', '', '', 0.0)||('and', '', '', '', 0.0)||('evaluated', 'adj', 'C0220825', ['ftcn'], 0.0)||('convergent', '', '', '', 0.0)||('validity', 'noun', 'C2349101', ['qnco'], 0.0)||('by', '', '', '', 0.0)||('correlating', '', '', '', 0.0)||('quick', 'adj', 'C0439831', ['qlco'], 0.0)||('psychodiagnostics', '', '', '', 0.0)||('panel', 'noun', 'C0441833', ['idcn'], 0.0)||('scores', 'verb', 'C0449820', ['qnco'], 0.0)||('with', '', '', '', 0.0)||('established', 'adj', 'C0443211', ['qlco'], 0.0)||('mental health', 'noun', 'C0025353', ['idcn'], 0.0)||('measures', 'noun', 'C0079809', ['qnco'], 0.0)||('.', '', '', '', 0.0)||
('sensitivity', 'noun', 'C0036667', ['qnco'], 0.0)||('to', '', '', '', 0.0)||('change', 'verb', 'C0392747', ['ftcn'], 0.0)||('was', '', '', '', 0.0)||('examined', 'verb', 'C0332128', ['fndg'], 0.0)||('by', '', '', '', 0.0)||('readministering', '', '', '', 0.0)||('the', '', '', '', 0.0)||('test', 'noun', 'C0022885', ['lbpr'], 0.0)||('to', '', '', '', 0.0)||('patients', 'noun', 'C0030705', ['podg'], 0.0)||('pretreatment', 'noun', 'C1550147', ['sbst'], 0.0)||('and', '', '', '', 0.0)||('posttreatment', '', '', '', 0.0)||('.', '', '', '', 0.0)||
('utility', '', '', '', 0.0)||('was', '', '', '', 0.0)||('evaluated', 'verb', 'C0220825', ['ftcn'], 0.0)||('through', '', '', '', 0.0)||('physician', 'noun', 'C0031831', ['prog'], 0.0)||('and', '', '', '', 0.0)||('patient', '', '', '', 0.0)||('satisfaction', 'noun', 'C0242428', ['menp'], 0.0)||('surveys', 'noun', 'C0038951', ['inpr'], 0.0)||('.', '', '', '', 0.0)||
('for', '', '', '', 0.0)||('major depression', 'noun', 'C0041696', ['mobd'], 0.0)||(',', '', '', '', 0.0)||('sensitivity and specificity', 'noun', 'C0036668', ['qnco'], 0.0)||('were', '', '', '', 0.0)||('81 %', '', '', '', 0.0)||('and', '', '', '', 0.0)||('96 %', '', '', '', 0.0)||(',', '', '', '', 0.0)||('respectively', '', '', '', 0.0)||('.', '', '', '', 0.0)||
('for', '', '', '', 0.0)||('other', '', '', '', 0.0)||('disorders', 'noun', 'C0012634', ['dsyn'], 0.0)||(',', '', '', '', 0.0)||('sensitivities', 'noun', 'C0427965', ['fndg'], 0.0)||('ranged', '', '', '', 0.0)||('from', '', '', '', 0.0)||('69 %', '', '', '', 0.0)||('to', '', '', '', 0.0)||('98 %', '', '', '', 0.0)||(',', '', '', '', 0.0)||('and', '', '', '', 0.0)||('specificities', '', '', '', 0.0)||('ranged', '', '', '', 0.0)||('from', '', '', '', 0.0)||('90 %', '', '', '', 0.0)||('to', '', '', '', 0.0)||('97 %', '', '', '', 0.0)||('.', '', '', '', 0.0)||
('the', '', '', '', 0.0)||('depression', 'noun', 'C0011570', ['mobd'], 0.0)||('severity score', 'noun', 'C0457451', ['qnco'], 0.0)||('correlated', 'verb', 'C1707520', ['qlco'], 0.0)||('highly', 'adv', 'C0205250', ['qlco'], 0.0)||('with', '', '', '', 0.0)||('the', '', '', '', 0.0)||('beck', '', '', '', 0.0)||(',', '', '', '', 0.0)||('hamilton', '', '', '', 0.0)||(',', '', '', '', 0.0)||('zung', '', '', '', 0.0)||(',', '', '', '', 0.0)||('and', '', '', '', 0.0)||('ces - d', '', '', '', 0.0)||('depression', 'noun', 'C0011570', ['mobd'], 0.0)||('scales', 'noun', 'C0175659', ['medd'], 0.0)||(',', '', '', '', 0.0)||('and', '', '', '', 0.0)||('the', '', '', '', 0.0)||('anxiety', 'noun', 'C0003467', ['menp'], 0.0)||('score', 'noun', 'C0449820', ['qnco'], 0.0)||('correlated', 'verb', 'C1707520', ['qlco'], 0.0)||('highly', 'adv', 'C0205250', ['qlco'], 0.0)||('with', '', '', '', 0.0)||('the', '', '', '', 0.0)||('spielberger', '', '', '', 0.0)||('state - trait anxiety inventory', '', '', '', 0.0)||('and', '', '', '', 0.0)||('the', '', '', '', 0.0)||('anxiety', 'noun', 'C0003467', ['menp'], 0.0)||('subscale', '', '', '', 0.0)||('of', '', '', '', 0.0)||('the', '', '', '', 0.0)||('symptom checklist', 'noun', 'C0451524', ['diap', 'inpr'], 0.0)||('90', '', '', '', 0.0)||('(', '', '', '', 0.0)||('ps < .', '', '', '', 0.0)||('001', '', '', '', 0.0)||(')', '', '', '', 0.0)||('.', '', '', '', 0.0)||
('the', '', '', '', 0.0)||('test', 'noun', 'C0022885', ['lbpr'], 0.0)||('was', '', '', '', 0.0)||('sensitive', 'adj', 'C0332324', ['ftcn'], 0.0)||('to', '', '', '', 0.0)||('change', 'verb', 'C0392747', ['ftcn'], 0.0)||('.', '', '', '', 0.0)||
('all', '', '', '', 0.0)||('primary care', 'noun', 'C0033137', ['hlca'], 0.0)||('physicians', 'noun', 'C0031831', ['prog'], 0.0)||('agreed', '', '', '', 0.0)||('or', '', '', '', 0.0)||('strongly', '', '', '', 0.0)||('agreed', '', '', '', 0.0)||('that', '', '', '', 0.0)||('the', '', '', '', 0.0)||('quick', 'adj', 'C0439831', ['qlco'], 0.0)||('psychodiagnostics', '', '', '', 0.0)||('panel', 'noun', 'C0441833', ['idcn'], 0.0)||('"', '', '', '', 0.0)||('is', '', '', '', 0.0)||('convenient', '', '', '', 0.0)||('and', '', '', '', 0.0)||('easy', 'adj', 'C0332219', ['qlco'], 0.0)||('to', '', '', '', 0.0)||('use', 'verb', 'C0042153', ['ftcn'], 0.0)||(',', '', '', '', 0.0)||('"', '', '', '', 0.0)||('"', '', '', '', 0.0)||('can', '', '', '', 0.0)||('be', '', '', '', 0.0)||('used', '', '', '', 0.0)||('immediately', 'adv', 'C0205548', ['tmco'], 0.0)||('by', '', '', '', 0.0)||('any', '', '', '', 0.0)||('physician', 'noun', 'C0031831', ['prog'], 0.0)||(',', '', '', '', 0.0)||('"', '', '', '', 0.0)||('and', '', '', '', 0.0)||('"', '', '', '', 0.0)||('helps', '', '', '', 0.0)||('provide', 'verb', 'C0359589', ['food'], 0.0)||('better', 'adj', 'C0332272', ['qlco'], 0.0)||('patient', '', '', '', 0.0)||('care', 'noun', 'C0580931', ['fndg'], 0.0)||('.', '', '', '', 0.0)||('"', '', '', '', 0.0)||
('patients', 'noun', 'C0030705', ['podg'], 0.0)||('also', '', '', '', 0.0)||('rated', 'verb', 'C0871208', ['acty'], 0.0)||('the', '', '', '', 0.0)||('test', 'noun', 'C0022885', ['lbpr'], 0.0)||('favorably', '', '', '', 0.0)||('.', '', '', '', 0.0)||
('the', '', '', '', 0.0)||('quick', 'adj', 'C0439831', ['qlco'], 0.0)||('psychodiagnostics', '', '', '', 0.0)||('panel', 'noun', 'C0441833', ['idcn'], 0.0)||('is', '', '', '', 0.0)||('a', '', '', '', 0.0)||('valid', 'adj', 'C2349099', ['qlco'], 0.0)||('mental health', 'noun', 'C0025353', ['idcn'], 0.0)||('assessment', 'noun', 'C1261322', ['hlca'], 0.0)||('tool', 'noun', 'C0336791', ['mnob'], 0.0)||('that', '', '', '', 0.0)||('can', '', '', '', 0.0)||('diagnose', '', '', '', 0.0)||('a', '', '', '', 0.0)||('range', 'noun', 'C1514721', ['qnco'], 0.0)||('of', '', '', '', 0.0)||('common', 'adj', 'C0205214', ['qnco'], 0.0)||('psychiatric', 'adj', 'C0205487', ['ftcn'], 0.0)||('disorders', 'noun', 'C0012634', ['dsyn'], 0.0)||('and', '', '', '', 0.0)||('is', '', '', '', 0.0)||('practical', '', '', '', 0.0)||('for', '', '', '', 0.0)||('routine', 'adj', 'C0205547', ['qlco'], 0.0)||('use', 'noun', 'C0042153', ['ftcn'], 0.0)||('in', '', '', '', 0.0)||('primary care', 'noun', 'C0033137', ['hlca'], 0.0)||('.', '', '', '', 0.0)||
