('to', '', '', '', 0.0)||('investigate', '', '', '', 0.0)||('the', '', '', '', 0.0)||('efficacy', 'noun', 'C1707887', ['resa'], 0.0)||('and', '', '', '', 0.0)||('safety', 'noun', 'C0036043', ['hcpp'], 0.0)||('of', '', '', '', 0.0)||('selegiline', 'noun', 'C0036579', ['orch', 'phsu'], 0.0)||('in', '', '', '', 0.0)||('the', '', '', '', 0.0)||('early', 'adj', 'C1279919', ['tmco'], 0.0)||('phase', 'noun', 'C0205390', ['tmco'], 0.0)||('of', '', '', '', 0.0)||("parkinson ' s disease", '', '', '', 0.0)||(',', '', '', '', 0.0)||('we', '', '', '', 0.0)||('carried', '', '', '', 0.0)||('out', '', '', '', 0.0)||('a', '', '', '', 0.0)||('placebo - controlled', '', '', '', 0.0)||(',', '', '', '', 0.0)||('double - blind', '', '', '', 0.0)||(',', '', '', '', 0.0)||('parallel', 'adj', 'C2348042', ['qlco'], 0.0)||('trial', 'noun', 'C0008976', ['resa'], 0.0)||('.', '', '', '', 0.0)||
('de novo', 'adj', 'C1515568', ['idcn'], 0.0)||("parkinson ' s disease", '', '', '', 0.0)||('patients', 'noun', 'C0030705', ['podg'], 0.0)||('were', '', '', '', 0.0)||('randomized', 'verb', 'C0034656', ['resa'], 0.0)||('to', '', '', '', 0.0)||('receive', 'verb', 'C1514756', ['qlco'], 0.0)||('either', '', '', '', 0.0)||('selegiline', 'noun', 'C0036579', ['orch', 'phsu'], 0.0)||('(', '', '', '', 0.0)||('10', '', '', '', 0.0)||('mg', '', '', '', 0.0)||('/', '', '', '', 0.0)||('d )', '', '', '', 0.0)||('or', '', '', '', 0.0)||('matching', 'adj', 'C0150103', ['resa'], 0.0)||('placebo', 'noun', 'C0032042', ['topp'], 0.0)||('.', '', '', '', 0.0)||
('we', '', '', '', 0.0)||('continued', 'verb', 'C0549178', ['idcn'], 0.0)||('selegiline', 'noun', 'C0036579', ['orch', 'phsu'], 0.0)||('or', '', '', '', 0.0)||('placebo', 'noun', 'C0032042', ['topp'], 0.0)||('until', '', '', '', 0.0)||('levodopa', 'noun', 'C0023570', ['aapp', 'nsba', 'phsu'], 0.0)||('therapy', 'noun', 'C0039798', ['ftcn'], 0.0)||('became', '', '', '', 0.0)||('necessary', '', '', '', 0.0)||('and', '', '', '', 0.0)||('assessed', 'verb', 'C1516048', ['acty'], 0.0)||('the', '', '', '', 0.0)||('disability', 'noun', 'C0231170', ['fndg'], 0.0)||('using', 'verb', 'C1524063', ['ftcn'], 0.0)||('three', '', 'C0205449', ['qnco'], 0.0)||('different', 'adj', 'C1705242', ['qlco'], 0.0)||('rating', 'adj', 'C0871208', ['acty'], 0.0)||('scales', 'noun', 'C0175659', ['medd'], 0.0)||('at', '', '', '', 0.0)||('baseline', 'noun', 'C0168634', ['bodm'], 0.0)||(',', '', '', '', 0.0)||('after', '', '', '', 0.0)||('3', '', '', '', 0.0)||('weeks', 'noun', 'C0439230', ['tmco'], 0.0)||(',', '', '', '', 0.0)||('at 2', '', '', '', 0.0)||(',', '', '', '', 0.0)||('4', '', '', '', 0.0)||(',', '', '', '', 0.0)||('8', '', '', '', 0.0)||(',', '', '', '', 0.0)||('and', '', '', '', 0.0)||('12', '', '', '', 0.0)||('months', 'noun', 'C0439231', ['tmco'], 0.0)||(',', '', '', '', 0.0)||('and', '', '', '', 0.0)||('at', '', '', '', 0.0)||('every', '', '', '', 0.0)||('4', '', '', '', 0.0)||('months', 'noun', 'C0439231', ['tmco'], 0.0)||('thereafter', '', '', '', 0.0)||('.', '', '', '', 0.0)||
('fifty - two', '', '', '', 0.0)||('patients', 'noun', 'C0030705', ['podg'], 0.0)||('were', '', '', '', 0.0)||('eligible', 'adj', 'C1548635', ['idcn'], 0.0)||('for', '', '', '', 0.0)||('the', '', '', '', 0.0)||('analysis', 'noun', 'C0002778', ['lbpr'], 0.0)||(',', '', '', '', 0.0)||('27', '', '', '', 0.0)||('in', '', '', '', 0.0)||('the', '', '', '', 0.0)||('selegiline', 'noun', 'C0036579', ['orch', 'phsu'], 0.0)||('group', 'noun', 'C0441833', ['idcn'], 0.0)||('and', '', '', '', 0.0)||('25', '', '', '', 0.0)||('in', '', '', '', 0.0)||('the', '', '', '', 0.0)||('placebo', 'noun', 'C0032042', ['topp'], 0.0)||('group', 'noun', 'C0441833', ['idcn'], 0.0)||('.', '', '', '', 0.0)||
('the', '', '', '', 0.0)||('median', 'adj', 'C0549183', ['spco'], 0.0)||('duration', 'noun', 'C0449238', ['tmco'], 0.0)||('of', '', '', '', 0.0)||('time', 'noun', 'C0040223', ['tmco'], 0.0)||('before', '', '', '', 0.0)||('levodopa', 'noun', 'C0023570', ['aapp', 'nsba', 'phsu'], 0.0)||('had', '', '', '', 0.0)||('to', '', '', '', 0.0)||('be', '', '', '', 0.0)||('initiated', '', '', '', 0.0)||('was', '', '', '', 0.0)||('545', '', '', '', 0.0)||('+', '', '', '', 0.0)||('/', '', '', '', 0.0)||('-', '', '', '', 0.0)||('90', '', '', '', 0.0)||('days', 'noun', 'C0439228', ['tmco'], 0.0)||('with', '', '', '', 0.0)||('selegiline', 'noun', 'C0036579', ['orch', 'phsu'], 0.0)||('and', '', '', '', 0.0)||('372', '', '', '', 0.0)||('+', '', '', '', 0.0)||('/', '', '', '', 0.0)||('-', '', '', '', 0.0)||('28', '', '', '', 0.0)||('days', 'noun', 'C0439228', ['tmco'], 0.0)||('with', '', '', '', 0.0)||('placebo', 'noun', 'C0032042', ['topp'], 0.0)||('(', '', '', '', 0.0)||('p', '', '', '', 0.0)||('=', '', '', '', 0.0)||('0 . 03', '', '', '', 0.0)||(')', '', '', '', 0.0)||('.', '', '', '', 0.0)||
('disability', 'noun', 'C0231170', ['fndg'], 0.0)||('was', '', '', '', 0.0)||('significantly', '', '', '', 0.0)||('less', '', '', '', 0.0)||('in', '', '', '', 0.0)||('the', '', '', '', 0.0)||('selegiline', 'noun', 'C0036579', ['orch', 'phsu'], 0.0)||('group', 'noun', 'C0441833', ['idcn'], 0.0)||('than', '', '', '', 0.0)||('in', '', '', '', 0.0)||('the', '', '', '', 0.0)||('placebo', 'noun', 'C0032042', ['topp'], 0.0)||('group', 'noun', 'C0441833', ['idcn'], 0.0)||('up to', '', '', '', 0.0)||('12', '', '', '', 0.0)||('months', 'noun', 'C0439231', ['tmco'], 0.0)||('.', '', '', '', 0.0)||
('the', '', '', '', 0.0)||('period', 'noun', 'C1948053', ['tmco'], 0.0)||('of', '', '', '', 0.0)||('time', 'noun', 'C0040223', ['tmco'], 0.0)||('during', '', '', '', 0.0)||('which', '', '', '', 0.0)||('the', '', '', '', 0.0)||('mean', 'noun', 'C0444504', ['qnco'], 0.0)||('total', 'noun', 'C0439810', ['qlco'], 0.0)||('columbia', 'noun', 'C1551442', ['popg'], 0.0)||('university', 'noun', 'C0041740', ['mnob', 'orgt'], 0.0)||('rating', 'adj', 'C0871208', ['acty'], 0.0)||('scale', 'noun', 'C0175659', ['medd'], 0.0)||('score', 'noun', 'C0449820', ['qnco'], 0.0)||('stayed', '', '', '', 0.0)||('below', '', '', '', 0.0)||('the', '', '', '', 0.0)||('baseline', 'noun', 'C0168634', ['bodm'], 0.0)||('was', '', '', '', 0.0)||('used', '', '', '', 0.0)||('to', '', '', '', 0.0)||('express', '', '', '', 0.0)||('the', '', '', '', 0.0)||('initial', 'adj', 'C0205265', ['tmco'], 0.0)||('symptomatic', 'adj', 'C0231220', ['ftcn'], 0.0)||('effect', 'noun', 'C1280500', ['qlco'], 0.0)||('of', '', '', '', 0.0)||('the', '', '', '', 0.0)||('treatments', 'noun', 'C0087111', ['topp'], 0.0)||('.', '', '', '', 0.0)||
('the', '', '', '', 0.0)||('difference', 'noun', 'C1705242', ['qlco'], 0.0)||('in', '', '', '', 0.0)||('this', '', '', '', 0.0)||('initial', 'adj', 'C0205265', ['tmco'], 0.0)||('improvement', '', '', '', 0.0)||('time', 'noun', 'C0040223', ['tmco'], 0.0)||('between', '', '', '', 0.0)||('the', '', '', '', 0.0)||('two', 'adj', 'C0205448', ['qnco'], 0.0)||('groups', 'noun', 'C0441833', ['idcn'], 0.0)||('was', '', '', '', 0.0)||('about', '', '', '', 0.0)||('3', '', '', '', 0.0)||('months', 'noun', 'C0439231', ['tmco'], 0.0)||('and', '', '', '', 0.0)||('did', '', '', '', 0.0)||('not', 'adv', 'C1518422', ['ftcn'], 0.0)||('alone', 'adj', 'C0439044', ['fndg'], 0.0)||('explain', '', '', '', 0.0)||('the', '', '', '', 0.0)||('difference', 'noun', 'C1705242', ['qlco'], 0.0)||('in', '', '', '', 0.0)||('the', '', '', '', 0.0)||('delay', 'noun', 'C0205421', ['tmco'], 0.0)||('of', '', '', '', 0.0)||('the', '', '', '', 0.0)||('need', 'noun', 'C0027552', ['qlco'], 0.0)||('to', '', '', '', 0.0)||('start', 'verb', 'C0439659', ['tmco'], 0.0)||('levodopa', 'noun', 'C0023570', ['aapp', 'nsba', 'phsu'], 0.0)||('therapy', 'noun', 'C0039798', ['ftcn'], 0.0)||('.', '', '', '', 0.0)||
('selegiline', 'noun', 'C0036579', ['orch', 'phsu'], 0.0)||('was', '', '', '', 0.0)||('well tolerated', '', '', '', 0.0)||('and', '', '', '', 0.0)||('there', '', '', '', 0.0)||('were', '', '', '', 0.0)||('no', '', '', '', 0.0)||('severe', 'adj', 'C0205082', ['qlco'], 0.0)||('side effects', 'noun', 'C0001688', ['ftcn'], 0.0)||('.', '', '', '', 0.0)||
('we', '', '', '', 0.0)||('conclude', 'verb', 'C0917903', ['bodm', 'orch'], 0.0)||('that', '', '', '', 0.0)||('selegiline', 'noun', 'C0036579', ['orch', 'phsu'], 0.0)||('delays', '', '', '', 0.0)||('the', '', '', '', 0.0)||('need', 'noun', 'C0027552', ['qlco'], 0.0)||('to', '', '', '', 0.0)||('start', 'verb', 'C0439659', ['tmco'], 0.0)||('levodopa', 'noun', 'C0023570', ['aapp', 'nsba', 'phsu'], 0.0)||('in', '', '', '', 0.0)||('de novo', 'adj', 'C1515568', ['idcn'], 0.0)||("parkinson ' s disease", '', '', '', 0.0)||('patients', 'noun', 'C0030705', ['podg'], 0.0)||(',', '', '', '', 0.0)||('has', '', '', '', 0.0)||('symptomatic', 'adj', 'C0231220', ['ftcn'], 0.0)||('efficacy', 'noun', 'C1707887', ['resa'], 0.0)||(',', '', '', '', 0.0)||('and', '', '', '', 0.0)||('possibly', 'adv', 'C0332149', ['qlco'], 0.0)||('retards', '', '', '', 0.0)||('the', '', '', '', 0.0)||('progression', 'noun', 'C0242656', ['patf'], 0.0)||('of', '', '', '', 0.0)||('the', '', '', '', 0.0)||('disease', 'noun', 'C0012634', ['dsyn'], 0.0)||('.', '', '', '', 0.0)||
