('the', '', '', '', 0.0)||("parkinson ' s disease", '', '', '', 0.0)||('research', 'noun', 'C0035168', ['resa'], 0.0)||('group', 'noun', 'C0441833', ['idcn'], 0.0)||('of', '', '', '', 0.0)||('the', '', '', '', 0.0)||('united kingdom', 'noun', 'C0041700', ['geoa'], 0.0)||('reported', 'verb', 'C0684224', ['inpr'], 0.0)||('increased', 'adj', 'C0205217', ['qnco'], 0.0)||('mortality', 'noun', 'C0026565', ['qnco'], 0.0)||('in', '', '', '', 0.0)||('pd', 'noun', 'C0030567', ['dsyn'], 0.0)||('patients', 'noun', 'C0030705', ['podg'], 0.0)||('treated', 'verb', 'C1522326', ['ftcn'], 0.0)||('with', '', '', '', 0.0)||('levodopa', 'noun', 'C0023570', ['aapp', 'nsba', 'phsu'], 0.0)||('plus', '', '', '', 0.0)||('selegiline', 'noun', 'C0036579', ['orch', 'phsu'], 0.0)||('compared', 'verb', 'C1707455', ['acty'], 0.0)||('with', '', '', '', 0.0)||('those', '', '', '', 0.0)||('treated', 'verb', 'C1522326', ['ftcn'], 0.0)||('with', '', '', '', 0.0)||('levodopa', 'noun', 'C0023570', ['aapp', 'nsba', 'phsu'], 0.0)||('alone', 'adj', 'C0439044', ['fndg'], 0.0)||('.', '', '', '', 0.0)||
('we', '', '', '', 0.0)||('performed', 'verb', 'C0884358', ['ftcn'], 0.0)||('a', '', '', '', 0.0)||('meta - analysis', '', '', '', 0.0)||('on', '', '', '', 0.0)||('five', '', 'C0205451', ['qnco'], 0.0)||('long - term', '', '', '', 0.0)||(',', '', '', '', 0.0)||('prospective', 'adj', 'C0023981', ['resa'], 0.0)||(',', '', '', '', 0.0)||('randomized', 'adj', 'C0034656', ['resa'], 0.0)||('trials', '', '', '', 0.0)||('of', '', '', '', 0.0)||('selegiline', 'noun', 'C0036579', ['orch', 'phsu'], 0.0)||('in', '', '', '', 0.0)||('patients', 'noun', 'C0030705', ['podg'], 0.0)||('with', '', '', '', 0.0)||('untreated', '', '', '', 0.0)||('pd', 'noun', 'C0030567', ['dsyn'], 0.0)||('.', '', '', '', 0.0)||
('included', '', '', '', 0.0)||('in', '', '', '', 0.0)||('the', '', '', '', 0.0)||('analysis', 'noun', 'C0002778', ['lbpr'], 0.0)||('were', '', '', '', 0.0)||('four', '', 'C0205450', ['qnco'], 0.0)||('randomized', 'verb', 'C0034656', ['resa'], 0.0)||(',', '', '', '', 0.0)||('double - blind', '', '', '', 0.0)||(',', '', '', '', 0.0)||('placebo - controlled studies', '', '', '', 0.0)||('and', '', '', '', 0.0)||('one', 'noun', 'C0205447', ['qnco'], 0.0)||('randomized', 'verb', 'C0034656', ['resa'], 0.0)||(',', '', '', '', 0.0)||('double - blind', '', '', '', 0.0)||(',', '', '', '', 0.0)||('placebo - controlled study', '', '', '', 0.0)||('of', '', '', '', 0.0)||('2', '', '', '', 0.0)||('years', 'noun', 'C0439234', ['tmco'], 0.0)||("'", '', '', '', 0.0)||('duration', 'noun', 'C0449238', ['tmco'], 0.0)||('followed', '', '', '', 0.0)||('by', '', '', '', 0.0)||('long - term', '', '', '', 0.0)||(',', '', '', '', 0.0)||('open', 'verb', 'C0175566', ['spco'], 0.0)||('follow - up', '', '', '', 0.0)||('.', '', '', '', 0.0)||
('the', '', '', '', 0.0)||('mean', 'noun', 'C0444504', ['qnco'], 0.0)||('duration', 'noun', 'C0449238', ['tmco'], 0.0)||('of', '', '', '', 0.0)||('follow - up', '', '', '', 0.0)||('was', '', '', '', 0.0)||('4 . 1', '', '', '', 0.0)||('+', '', '', '', 0.0)||('/', '', '', '', 0.0)||('-', '', '', '', 0.0)||('1 . 8', '', '', '', 0.0)||('years', 'noun', 'C0439234', ['tmco'], 0.0)||('.', '', '', '', 0.0)||
('there', '', '', '', 0.0)||('were', '', '', '', 0.0)||('14', '', '', '', 0.0)||('deaths', 'noun', 'C1306577', ['fndg'], 0.0)||('in', '', '', '', 0.0)||('297', '', '', '', 0.0)||('selegiline', 'noun', 'C0036579', ['orch', 'phsu'], 0.0)||('-', '', '', '', 0.0)||('treated', 'adj', 'C1522326', ['ftcn'], 0.0)||('patients', 'noun', 'C0030705', ['podg'], 0.0)||('(', '', '', '', 0.0)||('4 . 7 %', '', '', '', 0.0)||(')', '', '', '', 0.0)||('and', '', '', '', 0.0)||('17', '', '', '', 0.0)||('deaths', 'noun', 'C1306577', ['fndg'], 0.0)||('in', '', '', '', 0.0)||('292', '', '', '', 0.0)||('non', 'noun', 'C1518422', ['ftcn'], 0.0)||('-', '', '', '', 0.0)||('selegiline', 'noun', 'C0036579', ['orch', 'phsu'], 0.0)||('-', '', '', '', 0.0)||('treated', 'adj', 'C1522326', ['ftcn'], 0.0)||('patients', 'noun', 'C0030705', ['podg'], 0.0)||('(', '', '', '', 0.0)||('5 . 8 %', '', '', '', 0.0)||(')', '', '', '', 0.0)||('.', '', '', '', 0.0)||
('the', '', '', '', 0.0)||('hazard ratio', '', '', '', 0.0)||('for', '', '', '', 0.0)||('mortality', 'noun', 'C0026565', ['qnco'], 0.0)||('was', '', '', '', 0.0)||('1 . 02', '', '', '', 0.0)||('(', '', '', '', 0.0)||('95 %', '', '', '', 0.0)||('ci', 'noun', 'C1417638', ['gngm'], 0.0)||('0 . 44', '', '', '', 0.0)||('to', '', '', '', 0.0)||('2 . 37', '', '', '', 0.0)||(';', '', '', '', 0.0)||('p', '', '', '', 0.0)||('=', '', '', '', 0.0)||('0 . 96', '', '', '', 0.0)||(')', '', '', '', 0.0)||('.', '', '', '', 0.0)||
('an', '', '', '', 0.0)||('analysis', 'noun', 'C0002778', ['lbpr'], 0.0)||('restricted', 'verb', 'C0443288', ['ftcn'], 0.0)||('to', '', '', '', 0.0)||('patients', 'noun', 'C0030705', ['podg'], 0.0)||('receiving', '', '', '', 0.0)||('only', '', '', '', 0.0)||('levodopa', 'noun', 'C0023570', ['aapp', 'nsba', 'phsu'], 0.0)||('with', '', '', '', 0.0)||('or', '', '', '', 0.0)||('without', '', '', '', 0.0)||('selegiline', 'noun', 'C0036579', ['orch', 'phsu'], 0.0)||('noted', '', '', '', 0.0)||('11', '', '', '', 0.0)||('deaths', 'noun', 'C1306577', ['fndg'], 0.0)||('in', '', '', '', 0.0)||('257', '', '', '', 0.0)||('levodopa', 'noun', 'C0023570', ['aapp', 'nsba', 'phsu'], 0.0)||('/', '', '', '', 0.0)||('selegiline', 'noun', 'C0036579', ['orch', 'phsu'], 0.0)||('-', '', '', '', 0.0)||('treated', 'adj', 'C1522326', ['ftcn'], 0.0)||('patients', 'noun', 'C0030705', ['podg'], 0.0)||('(', '', '', '', 0.0)||('4 . 3 %', '', '', '', 0.0)||(')', '', '', '', 0.0)||('and', '', '', '', 0.0)||('11', '', '', '', 0.0)||('deaths', 'noun', 'C1306577', ['fndg'], 0.0)||('in', '', '', '', 0.0)||('254', '', '', '', 0.0)||('patients', 'noun', 'C0030705', ['podg'], 0.0)||('treated', 'verb', 'C1522326', ['ftcn'], 0.0)||('with', '', '', '', 0.0)||('levodopa', 'noun', 'C0023570', ['aapp', 'nsba', 'phsu'], 0.0)||('alone', 'adj', 'C0439044', ['fndg'], 0.0)||('(', '', '', '', 0.0)||('4 . 3 %', '', '', '', 0.0)||(')', '', '', '', 0.0)||('.', '', '', '', 0.0)||
('the', '', '', '', 0.0)||('hazard ratio', '', '', '', 0.0)||('was', '', '', '', 0.0)||('1 . 06', '', '', '', 0.0)||('(', '', '', '', 0.0)||('95 %', '', '', '', 0.0)||('ci', 'noun', 'C1417638', ['gngm'], 0.0)||('0 . 44', '', '', '', 0.0)||('to', '', '', '', 0.0)||('2 . 55', '', '', '', 0.0)||(';', '', '', '', 0.0)||('p', '', '', '', 0.0)||('=', '', '', '', 0.0)||('0 . 90', '', '', '', 0.0)||(')', '', '', '', 0.0)||('.', '', '', '', 0.0)||
('death rate', 'noun', 'C0026565', ['qnco'], 0.0)||('per', '', '', '', 0.0)||('1 , 000', '', '', '', 0.0)||('patient years', '', '', '', 0.0)||('was', '', '', '', 0.0)||('11 . 4', '', '', '', 0.0)||('in', '', '', '', 0.0)||('the', '', '', '', 0.0)||('selegiline', 'noun', 'C0036579', ['orch', 'phsu'], 0.0)||('group', 'noun', 'C0441833', ['idcn'], 0.0)||('and', '', '', '', 0.0)||('14 . 2', '', '', '', 0.0)||('in', '', '', '', 0.0)||('the', '', '', '', 0.0)||('nonselegiline', '', '', '', 0.0)||('group', 'noun', 'C0441833', ['idcn'], 0.0)||('.', '', '', '', 0.0)||
('kaplan - meier survival curves', '', '', '', 0.0)||('reflecting', 'verb', 'C0558058', ['menp'], 0.0)||('pooled', 'adj', 'C1709595', ['cnce'], 0.0)||('survival', 'noun', 'C0038952', ['acty'], 0.0)||('data', 'noun', 'C1511726', ['idcn'], 0.0)||('showed', '', '', '', 0.0)||('no', '', '', '', 0.0)||('significant', 'adj', 'C0750502', ['idcn'], 0.0)||('difference', 'noun', 'C1705242', ['qlco'], 0.0)||('in', '', '', '', 0.0)||('duration', 'noun', 'C0449238', ['tmco'], 0.0)||('of', '', '', '', 0.0)||('survival', 'noun', 'C0038952', ['acty'], 0.0)||('.', '', '', '', 0.0)||
('the', '', '', '', 0.0)||('hazard ratio', '', '', '', 0.0)||('was', '', '', '', 0.0)||('0 . 84', '', '', '', 0.0)||('(', '', '', '', 0.0)||('95 %', '', '', '', 0.0)||('ci', 'noun', 'C1417638', ['gngm'], 0.0)||('0 . 41', '', '', '', 0.0)||('to', '', '', '', 0.0)||('1 . 70', '', '', '', 0.0)||(';', '', '', '', 0.0)||('p', '', '', '', 0.0)||('=', '', '', '', 0.0)||('0 . 63', '', '', '', 0.0)||(')', '', '', '', 0.0)||('for', '', '', '', 0.0)||('selegiline', 'noun', 'C0036579', ['orch', 'phsu'], 0.0)||('-', '', '', '', 0.0)||('versus', '', '', '', 0.0)||('non', 'noun', 'C1518422', ['ftcn'], 0.0)||('-', '', '', '', 0.0)||('selegiline', 'noun', 'C0036579', ['orch', 'phsu'], 0.0)||('-', '', '', '', 0.0)||('treated', 'adj', 'C1522326', ['ftcn'], 0.0)||('patients', 'noun', 'C0030705', ['podg'], 0.0)||('and', '', '', '', 0.0)||('1 . 05', '', '', '', 0.0)||('(', '', '', '', 0.0)||('95 %', '', '', '', 0.0)||('ci', 'noun', 'C1417638', ['gngm'], 0.0)||('0 . 46', '', '', '', 0.0)||('to', '', '', '', 0.0)||('2 . 43', '', '', '', 0.0)||(';', '', '', '', 0.0)||('p', '', '', '', 0.0)||('=', '', '', '', 0.0)||('0 . 91', '', '', '', 0.0)||(')', '', '', '', 0.0)||('for', '', '', '', 0.0)||('selegiline', 'noun', 'C0036579', ['orch', 'phsu'], 0.0)||('/', '', '', '', 0.0)||('levodopa', 'noun', 'C0023570', ['aapp', 'nsba', 'phsu'], 0.0)||('-', '', '', '', 0.0)||('versus', '', '', '', 0.0)||('levodopa', 'noun', 'C0023570', ['aapp', 'nsba', 'phsu'], 0.0)||('-', '', '', '', 0.0)||('treated', 'adj', 'C1522326', ['ftcn'], 0.0)||('patients', 'noun', 'C0030705', ['podg'], 0.0)||('.', '', '', '', 0.0)||
('these', '', '', '', 0.0)||('results', 'noun', 'C1274040', ['ftcn'], 0.0)||('contrast', 'verb', 'C1979874', ['irda'], 0.0)||('with', '', '', '', 0.0)||('those', '', '', '', 0.0)||('of', '', '', '', 0.0)||('the', '', '', '', 0.0)||("parkinson ' s disease", '', '', '', 0.0)||('research', 'noun', 'C0035168', ['resa'], 0.0)||('group', 'noun', 'C0441833', ['idcn'], 0.0)||('of', '', '', '', 0.0)||('the', '', '', '', 0.0)||('united kingdom', 'noun', 'C0041700', ['geoa'], 0.0)||('study', 'noun', 'C0008976', ['resa'], 0.0)||('and', '', '', '', 0.0)||('demonstrate', '', '', '', 0.0)||('no', '', '', '', 0.0)||('increase', 'noun', 'C0442805', ['ftcn'], 0.0)||('in', '', '', '', 0.0)||('mortality', 'noun', 'C0026565', ['qnco'], 0.0)||('associated', 'verb', 'C0332281', ['qlco'], 0.0)||('with', '', '', '', 0.0)||('selegiline', 'noun', 'C0036579', ['orch', 'phsu'], 0.0)||('treatment', 'noun', 'C0039798', ['ftcn'], 0.0)||('whether', '', '', '', 0.0)||('or', '', '', '', 0.0)||('not', 'adv', 'C1518422', ['ftcn'], 0.0)||('patients', 'noun', 'C0030705', ['podg'], 0.0)||('also', '', '', '', 0.0)||('received', 'adj', 'C1514756', ['qlco'], 0.0)||('levodopa', 'noun', 'C0023570', ['aapp', 'nsba', 'phsu'], 0.0)||('.', '', '', '', 0.0)||
