('the', '', '', '', 0.0)||('study', 'noun', 'C0008976', ['resa'], 0.0)||('was', '', '', '', 0.0)||('designed', '', '', '', 0.0)||('to', '', '', '', 0.0)||('assess', 'verb', 'C1516048', ['acty'], 0.0)||('the', '', '', '', 0.0)||('antihypertensive', 'adj', 'C0003364', ['phsu'], 0.0)||('effect', 'noun', 'C1280500', ['qlco'], 0.0)||('of', '', '', '', 0.0)||('combined', 'adj', 'C0205195', ['qlco'], 0.0)||('angiotensin - converting enzyme', '', '', '', 0.0)||('inhibition', 'noun', 'C0021467', ['menp'], 0.0)||('and', '', '', '', 0.0)||('angiotensin ii type 1 receptor', 'noun', 'C0529330', ['aapp', 'rcpt'], 0.0)||('(', '', '', '', 0.0)||('at1', '', '', '', 0.0)||(')', '', '', '', 0.0)||('antagonism', 'noun', 'C0680242', ['socb'], 0.0)||('in', '', '', '', 0.0)||('patients', 'noun', 'C0030705', ['podg'], 0.0)||('with', '', '', '', 0.0)||('essential hypertension', 'noun', 'C0085580', ['dsyn'], 0.0)||('.', '', '', '', 0.0)||
('twenty', '', '', '', 0.0)||('patients', 'noun', 'C0030705', ['podg'], 0.0)||('with', '', '', '', 0.0)||('uncontrolled', 'adj', 'C0205318', ['qlco'], 0.0)||('ambulatory', 'adj', 'C0439841', ['ftcn'], 0.0)||('diastolic blood pressure', 'noun', 'C0428883', ['clna'], 0.0)||('after', '', '', '', 0.0)||('6', '', '', '', 0.0)||('weeks', 'noun', 'C0439230', ['tmco'], 0.0)||('of', '', '', '', 0.0)||('angiotensin - converting enzyme inhibitor', '', '', '', 0.0)||('monotherapy', '', '', '', 0.0)||('(', '', '', '', 0.0)||('benazepril', 'noun', 'C0053091', ['orch', 'phsu'], 0.0)||(',', '', '', '', 0.0)||('20', '', '', '', 0.0)||('mg', '', '', '', 0.0)||(',', '', '', '', 0.0)||('o . d .', '', '', '', 0.0)||(')', '', '', '', 0.0)||
('were', '', '', '', 0.0)||('randomized', 'verb', 'C0034656', ['resa'], 0.0)||('to', '', '', '', 0.0)||('receive', 'verb', 'C1514756', ['qlco'], 0.0)||('double - blind', '', '', '', 0.0)||('valsartan', 'noun', 'C0216784', ['orch', 'phsu'], 0.0)||(',', '', '', '', 0.0)||('80', '', '', '', 0.0)||('mg', '', '', '', 0.0)||(',', '', '', '', 0.0)||('o . d', '', '', '', 0.0)||('.', '', '', '', 0.0)||
('(', '', '', '', 0.0)||('at1', '', '', '', 0.0)||('antagonist', 'noun', 'C0231491', ['ortf'], 0.0)||(')', '', '', '', 0.0)||('or', '', '', '', 0.0)||('matching', 'adj', 'C0150103', ['resa'], 0.0)||('placebo', 'noun', 'C0032042', ['topp'], 0.0)||('for', '', '', '', 0.0)||('5', '', '', '', 0.0)||('weeks', 'noun', 'C0439230', ['tmco'], 0.0)||('while', '', '', '', 0.0)||('continuing', 'verb', 'C0549178', ['idcn'], 0.0)||('to', '', '', '', 0.0)||('receive', 'verb', 'C1514756', ['qlco'], 0.0)||('background', 'noun', 'C1706907', ['cnce'], 0.0)||('benazepril', 'noun', 'C0053091', ['orch', 'phsu'], 0.0)||('.', '', '', '', 0.0)||
('then', 'adv', 'C1883708', ['tmco'], 0.0)||('patients', 'noun', 'C0030705', ['podg'], 0.0)||('crossed over', '', '', '', 0.0)||('to', '', '', '', 0.0)||('the', '', '', '', 0.0)||('alternative', 'adj', 'C1523987', ['cnce'], 0.0)||('regimen', 'noun', 'C0040808', ['topp'], 0.0)||('for', '', '', '', 0.0)||('a', '', '', '', 0.0)||('second', 'noun', 'C0205436', ['qnco'], 0.0)||('5', '', '', '', 0.0)||('-', '', '', '', 0.0)||('week', 'noun', 'C0439230', ['tmco'], 0.0)||('period', 'noun', 'C1948053', ['tmco'], 0.0)||('.', '', '', '', 0.0)||
('the', '', '', '', 0.0)||('24', '', '', '', 0.0)||('-', '', '', '', 0.0)||('h', '', '', '', 0.0)||('ambulatory blood pressure', '', '', '', 0.0)||('was', '', '', '', 0.0)||('monitored', '', '', '', 0.0)||('on', '', '', '', 0.0)||('the', '', '', '', 0.0)||('final', 'adj', 'C0205088', ['tmco'], 0.0)||('day', 'noun', 'C0439228', ['tmco'], 0.0)||('of', '', '', '', 0.0)||('the', '', '', '', 0.0)||('benazepril', 'noun', 'C0053091', ['orch', 'phsu'], 0.0)||('monotherapy', '', '', '', 0.0)||('period', 'noun', 'C1948053', ['tmco'], 0.0)||('and', '', '', '', 0.0)||('on', '', '', '', 0.0)||('the', '', '', '', 0.0)||('final', 'adj', 'C0205088', ['tmco'], 0.0)||('day', 'noun', 'C0439228', ['tmco'], 0.0)||('of', '', '', '', 0.0)||('each', '', '', '', 0.0)||('double - blind', '', '', '', 0.0)||('treatment', 'noun', 'C0039798', ['ftcn'], 0.0)||('period', 'noun', 'C1948053', ['tmco'], 0.0)||('.', '', '', '', 0.0)||
('valsartan', 'noun', 'C0216784', ['orch', 'phsu'], 0.0)||('added', 'verb', 'C1524062', ['ftcn'], 0.0)||('to', '', '', '', 0.0)||('benazepril', 'noun', 'C0053091', ['orch', 'phsu'], 0.0)||('produced', '', '', '', 0.0)||('a', '', '', '', 0.0)||('significant', 'adj', 'C0750502', ['idcn'], 0.0)||('antihypertensive', 'adj', 'C0003364', ['phsu'], 0.0)||('effect', 'noun', 'C1280500', ['qlco'], 0.0)||('with', '', '', '', 0.0)||('a', '', '', '', 0.0)||('benefit', 'noun', 'C0814225', ['qnco'], 0.0)||('over', '', '', '', 0.0)||('placebo', 'noun', 'C0032042', ['topp'], 0.0)||('of', '', '', '', 0.0)||('6 . 5', '', '', '', 0.0)||('+', '', '', '', 0.0)||('/', '', '', '', 0.0)||('-', '', '', '', 0.0)||('12 . 6', '', '', '', 0.0)||('/', '', '', '', 0.0)||('4 . 5', '', '', '', 0.0)||('+', '', '', '', 0.0)||('/', '', '', '', 0.0)||('-', '', '', '', 0.0)||('8 . 0', '', '', '', 0.0)||('mm hg', 'noun', 'C0439475', ['qnco'], 0.0)||('(', '', '', '', 0.0)||('systolic', 'adj', 'C0039155', ['tmco'], 0.0)||('/', '', '', '', 0.0)||('diastolic', 'adj', 'C0012000', ['clna'], 0.0)||(')', '', '', '', 0.0)||('for', '', '', '', 0.0)||('average', 'adj', 'C1510992', ['qnco'], 0.0)||('awake', 'adj', 'C0234422', ['fndg'], 0.0)||('ambulatory blood pressure', '', '', '', 0.0)||('(', '', '', '', 0.0)||('p', '', '', '', 0.0)||('<', '', '', '', 0.0)||('0 . 05', '', '', '', 0.0)||(')', '', '', '', 0.0)||(',', '', '', '', 0.0)||('7 . 1', '', '', '', 0.0)||('+', '', '', '', 0.0)||('/', '', '', '', 0.0)||('-', '', '', '', 0.0)||('9 . 4', '', '', '', 0.0)||('/', '', '', '', 0.0)||('5 . 6', '', '', '', 0.0)||('+', '', '', '', 0.0)||('/', '', '', '', 0.0)||('-', '', '', '', 0.0)||('6 . 5', '', '', '', 0.0)||('mm hg', 'noun', 'C0439475', ['qnco'], 0.0)||('for', '', '', '', 0.0)||('asleep', 'noun', 'C0424522', ['fndg'], 0.0)||('blood pressure', 'noun', 'C0005823', ['orgf'], 0.0)||('(', '', '', '', 0.0)||('p', '', '', '', 0.0)||('<', '', '', '', 0.0)||('0 . 01', '', '', '', 0.0)||(')', '', '', '', 0.0)||(',', '', '', '', 0.0)||('and', '', '', '', 0.0)||('6 . 8', '', '', '', 0.0)||('+', '', '', '', 0.0)||('/', '', '', '', 0.0)||('-', '', '', '', 0.0)||('9 . 7', '', '', '', 0.0)||('/', '', '', '', 0.0)||('4 . 9', '', '', '', 0.0)||('+', '', '', '', 0.0)||('/', '', '', '', 0.0)||('-', '', '', '', 0.0)||('6 . 8', '', '', '', 0.0)||('mm hg', 'noun', 'C0439475', ['qnco'], 0.0)||('for', '', '', '', 0.0)||('average', 'noun', 'C1510992', ['qnco'], 0.0)||('24', '', '', '', 0.0)||('-', '', '', '', 0.0)||('h', '', '', '', 0.0)||('ambulatory blood pressure', '', '', '', 0.0)||('(', '', '', '', 0.0)||('p', '', '', '', 0.0)||('<', '', '', '', 0.0)||('0 . 01', '', '', '', 0.0)||(')', '', '', '', 0.0)||('.', '', '', '', 0.0)||
('pulse rate', 'noun', 'C0232117', ['clna'], 0.0)||('was', '', '', '', 0.0)||('unaffected', '', '', '', 0.0)||('.', '', '', '', 0.0)||
('plasma', 'noun', 'C0032105', ['bdsu'], 0.0)||('active renin', '', '', '', 0.0)||('was', '', '', '', 0.0)||('higher', '', '', '', 0.0)||('on', '', '', '', 0.0)||('the', '', '', '', 0.0)||('benazepril', 'noun', 'C0053091', ['orch', 'phsu'], 0.0)||('-', '', '', '', 0.0)||('valsartan', 'noun', 'C0216784', ['orch', 'phsu'], 0.0)||('combination', 'noun', 'C0205195', ['qlco'], 0.0)||('compared', 'verb', 'C1707455', ['acty'], 0.0)||('with', '', '', '', 0.0)||('benazepril', 'noun', 'C0053091', ['orch', 'phsu'], 0.0)||('-', '', '', '', 0.0)||('placebo', 'noun', 'C0032042', ['topp'], 0.0)||('(', '', '', '', 0.0)||('p', '', '', '', 0.0)||('<', '', '', '', 0.0)||('0 . 05', '', '', '', 0.0)||(')', '', '', '', 0.0)||('.', '', '', '', 0.0)||
('there', '', '', '', 0.0)||('was', '', '', '', 0.0)||('no', '', '', '', 0.0)||('change', 'noun', 'C0392747', ['ftcn'], 0.0)||('in', '', '', '', 0.0)||('routine', 'adj', 'C0205547', ['qlco'], 0.0)||('biochemical', 'adj', 'C0205474', ['ftcn'], 0.0)||('variables', '', '', '', 0.0)||('when', '', '', '', 0.0)||('valsartan', 'noun', 'C0216784', ['orch', 'phsu'], 0.0)||('was', '', '', '', 0.0)||('added', 'verb', 'C1524062', ['ftcn'], 0.0)||('to', '', '', '', 0.0)||('benazepril', 'noun', 'C0053091', ['orch', 'phsu'], 0.0)||('.', '', '', '', 0.0)||
('six', '', 'C0205452', ['qnco'], 0.0)||('patients', 'noun', 'C0030705', ['podg'], 0.0)||('reported', 'verb', 'C0684224', ['inpr'], 0.0)||('mild', 'adj', 'C0547040', ['qlco'], 0.0)||('dizziness', 'noun', 'C0012833', ['sosy'], 0.0)||('or', '', '', '', 0.0)||('fatigue', 'noun', 'C0015672', ['sosy'], 0.0)||('(', '', '', '', 0.0)||('three', '', 'C0205449', ['qnco'], 0.0)||('also', '', '', '', 0.0)||('with', '', '', '', 0.0)||('placebo', 'noun', 'C0032042', ['topp'], 0.0)||(')', '', '', '', 0.0)||('.', '', '', '', 0.0)||
('these', '', '', '', 0.0)||('data', 'noun', 'C1511726', ['idcn'], 0.0)||('suggest', 'verb', 'C1705535', ['idcn'], 0.0)||('that', '', '', '', 0.0)||('in', '', '', '', 0.0)||('hypertensive', 'adj', 'C0857121', ['fndg'], 0.0)||('patients', 'noun', 'C0030705', ['podg'], 0.0)||('uncontrolled', 'verb', 'C0205318', ['qlco'], 0.0)||('with', '', '', '', 0.0)||('an', '', '', '', 0.0)||('angiotensin - converting enzyme inhibitor', '', '', '', 0.0)||(',', '', '', '', 0.0)||('the', '', '', '', 0.0)||('addition', 'noun', 'C1883712', ['ftcn'], 0.0)||('of', '', '', '', 0.0)||('an', '', '', '', 0.0)||('at1', '', '', '', 0.0)||('antagonist', 'noun', 'C0231491', ['ortf'], 0.0)||('provides', '', '', '', 0.0)||('a', '', '', '', 0.0)||('powerful', '', '', '', 0.0)||('and', '', '', '', 0.0)||('safe', '', '', '', 0.0)||('antihypertensive', 'adj', 'C0003364', ['phsu'], 0.0)||('drug combination', '', '', '', 0.0)||('.', '', '', '', 0.0)||
