('to', '', '', '', 0.0)||('assess', 'verb', 'C1516048', ['acty'], 0.0)||('and', '', '', '', 0.0)||('compare', 'verb', 'C1707455', ['acty'], 0.0)||('the', '', '', '', 0.0)||('effects', '', '', '', 0.0)||('of', '', '', '', 0.0)||('candesartan', 'noun', 'C0717550', ['orch', 'phsu'], 0.0)||('or', '', '', '', 0.0)||('lisinopril', 'noun', 'C0065374', ['aapp', 'phsu'], 0.0)||(',', '', '', '', 0.0)||('or', '', '', '', 0.0)||('both', '', '', '', 0.0)||(',', '', '', '', 0.0)||('on', '', '', '', 0.0)||('blood pressure', 'noun', 'C0005823', ['orgf'], 0.0)||('and', '', '', '', 0.0)||('urinary', 'adj', 'C0042027', ['bpoc'], 0.0)||('albumin', 'noun', 'C0001924', ['aapp', 'bacs'], 0.0)||('excretion', 'noun', 'C0221102', ['phsf'], 0.0)||('in', '', '', '', 0.0)||('patients', 'noun', 'C0030705', ['podg'], 0.0)||('with', '', '', '', 0.0)||('microalbuminuria', 'noun', 'C0730345', ['dsyn'], 0.0)||(',', '', '', '', 0.0)||('hypertension', 'noun', 'C0020538', ['dsyn'], 0.0)||(',', '', '', '', 0.0)||('and', '', '', '', 0.0)||('type 2 diabetes', 'noun', 'C0011860', ['dsyn'], 0.0)||('.', '', '', '', 0.0)||
('prospective', 'adj', 'C0023981', ['resa'], 0.0)||(',', '', '', '', 0.0)||('randomised', '', '', '', 0.0)||(',', '', '', '', 0.0)||('parallel', 'adj', 'C2348042', ['qlco'], 0.0)||('group', 'noun', 'C0441833', ['idcn'], 0.0)||(',', '', '', '', 0.0)||('double blind study', '', '', '', 0.0)||('with', '', '', '', 0.0)||('four', '', 'C0205450', ['qnco'], 0.0)||('week', 'noun', 'C0439230', ['tmco'], 0.0)||('placebo', 'noun', 'C0032042', ['topp'], 0.0)||('run in', '', '', '', 0.0)||('period', 'noun', 'C1948053', ['tmco'], 0.0)||('and', '', '', '', 0.0)||('12', '', '', '', 0.0)||('weeks', 'noun', 'C0439230', ['tmco'], 0.0)||("'", '', '', '', 0.0)||('monotherapy', '', '', '', 0.0)||('with', '', '', '', 0.0)||('candesartan', 'noun', 'C0717550', ['orch', 'phsu'], 0.0)||('or', '', '', '', 0.0)||('lisinopril', 'noun', 'C0065374', ['aapp', 'phsu'], 0.0)||('followed', '', '', '', 0.0)||('by', '', '', '', 0.0)||('12', '', '', '', 0.0)||('weeks', 'noun', 'C0439230', ['tmco'], 0.0)||("'", '', '', '', 0.0)||('monotherapy', '', '', '', 0.0)||('or', '', '', '', 0.0)||('combination', 'noun', 'C0205195', ['qlco'], 0.0)||('treatment', 'noun', 'C0039798', ['ftcn'], 0.0)||('.', '', '', '', 0.0)||
('tertiary', 'adj', 'C0205372', ['qnco'], 0.0)||('hospitals', 'noun', 'C0019994', ['hcro', 'mnob'], 0.0)||('and', '', '', '', 0.0)||('primary care', 'noun', 'C0033137', ['hlca'], 0.0)||('centres', '', '', '', 0.0)||('in', '', '', '', 0.0)||('four', '', 'C0205450', ['qnco'], 0.0)||('countries', 'noun', 'C0454664', ['geoa'], 0.0)||('(', '', '', '', 0.0)||('37', '', '', '', 0.0)||('centres', '', '', '', 0.0)||(')', '', '', '', 0.0)||('.', '', '', '', 0.0)||
('199', '', '', '', 0.0)||('patients', 'noun', 'C0030705', ['podg'], 0.0)||('aged', 'verb', 'C0001779', ['orga'], 0.0)||('30', '', '', '', 0.0)||('-', '', '', '', 0.0)||('75', '', '', '', 0.0)||('years', 'noun', 'C0439234', ['tmco'], 0.0)||('.', '', '', '', 0.0)||
('candesartan', 'noun', 'C0717550', ['orch', 'phsu'], 0.0)||('16', '', '', '', 0.0)||('mg', '', '', '', 0.0)||('once', '', '', '', 0.0)||('daily', 'adv', 'C0332173', ['tmco'], 0.0)||(',', '', '', '', 0.0)||('lisinopril', 'noun', 'C0065374', ['aapp', 'phsu'], 0.0)||('20', '', '', '', 0.0)||('mg', '', '', '', 0.0)||('once', '', '', '', 0.0)||('daily', 'adv', 'C0332173', ['tmco'], 0.0)||('.', '', '', '', 0.0)||
('blood pressure', 'noun', 'C0005823', ['orgf'], 0.0)||('and', '', '', '', 0.0)||('urinary', 'adj', 'C0042027', ['bpoc'], 0.0)||('albumin : creatinine ratio', '', '', '', 0.0)||('.', '', '', '', 0.0)||
('at', '', '', '', 0.0)||('12', '', '', '', 0.0)||('weeks', 'noun', 'C0439230', ['tmco'], 0.0)||('mean', 'noun', 'C0444504', ['qnco'], 0.0)||('(', '', '', '', 0.0)||('95 %', '', '', '', 0.0)||('confidence interval', 'noun', 'C0009667', ['qnco'], 0.0)||(')', '', '', '', 0.0)||('reductions', '', '', '', 0.0)||('in', '', '', '', 0.0)||('diastolic blood pressure', 'noun', 'C0428883', ['clna'], 0.0)||('were', '', '', '', 0.0)||('9 . 5', '', '', '', 0.0)||('mm hg', 'noun', 'C0439475', ['qnco'], 0.0)||('(', '', '', '', 0.0)||('7 . 7', '', '', '', 0.0)||('mm hg', 'noun', 'C0439475', ['qnco'], 0.0)||('to', '', '', '', 0.0)||('11 . 2', '', '', '', 0.0)||('mm hg', 'noun', 'C0439475', ['qnco'], 0.0)||(',', '', '', '', 0.0)||('p', '', '', '', 0.0)||('<', '', '', '', 0.0)||('0 . 001', '', '', '', 0.0)||(')', '', '', '', 0.0)||('and', '', '', '', 0.0)||('9 . 7', '', '', '', 0.0)||('mm hg', 'noun', 'C0439475', ['qnco'], 0.0)||('(', '', '', '', 0.0)||('7 . 9', '', '', '', 0.0)||('mm hg', 'noun', 'C0439475', ['qnco'], 0.0)||('to', '', '', '', 0.0)||('11 . 5', '', '', '', 0.0)||('mm hg', 'noun', 'C0439475', ['qnco'], 0.0)||(',', '', '', '', 0.0)||('p', '', '', '', 0.0)||('<', '', '', '', 0.0)||('0 . 001', '', '', '', 0.0)||(')', '', '', '', 0.0)||(',', '', '', '', 0.0)||('respectively', '', '', '', 0.0)||(',', '', '', '', 0.0)||('and', '', '', '', 0.0)||('in', '', '', '', 0.0)||('urinary', 'adj', 'C0042027', ['bpoc'], 0.0)||('albumin : creatinine ratio', '', '', '', 0.0)||('were', '', '', '', 0.0)||('30 %', '', '', '', 0.0)||('(', '', '', '', 0.0)||('15 %', '', '', '', 0.0)||('to', '', '', '', 0.0)||('42 %', '', '', '', 0.0)||(',', '', '', '', 0.0)||('p', '', '', '', 0.0)||('<', '', '', '', 0.0)||('0 . 001', '', '', '', 0.0)||(')', '', '', '', 0.0)||('and', '', '', '', 0.0)||('46 %', '', '', '', 0.0)||('(', '', '', '', 0.0)||('35 %', '', '', '', 0.0)||('to', '', '', '', 0.0)||('56 %', '', '', '', 0.0)||(',', '', '', '', 0.0)||('p', '', '', '', 0.0)||('<', '', '', '', 0.0)||('0 . 001', '', '', '', 0.0)||(')', '', '', '', 0.0)||('for', '', '', '', 0.0)||('candesartan', 'noun', 'C0717550', ['orch', 'phsu'], 0.0)||('and', '', '', '', 0.0)||('lisinopril', 'noun', 'C0065374', ['aapp', 'phsu'], 0.0)||(',', '', '', '', 0.0)||('respectively', '', '', '', 0.0)||('.', '', '', '', 0.0)||
('at', '', '', '', 0.0)||('24', '', '', '', 0.0)||('weeks', 'noun', 'C0439230', ['tmco'], 0.0)||('the', '', '', '', 0.0)||('mean reduction', '', '', '', 0.0)||('in', '', '', '', 0.0)||('diastolic blood pressure', 'noun', 'C0428883', ['clna'], 0.0)||('with', '', '', '', 0.0)||('combination', 'noun', 'C0205195', ['qlco'], 0.0)||('treatment', 'noun', 'C0039798', ['ftcn'], 0.0)||('(', '', '', '', 0.0)||('16 . 3', '', '', '', 0.0)||('mm hg', 'noun', 'C0439475', ['qnco'], 0.0)||(',', '', '', '', 0.0)||('13 . 6', '', '', '', 0.0)||('mm hg', 'noun', 'C0439475', ['qnco'], 0.0)||('to', '', '', '', 0.0)||('18 . 9', '', '', '', 0.0)||('mm hg', 'noun', 'C0439475', ['qnco'], 0.0)||(',', '', '', '', 0.0)||('p', '', '', '', 0.0)||('<', '', '', '', 0.0)||('0', '', '', '', 0.0)||('.', '', '', '', 0.0)||('001', '', '', '', 0.0)||(')', '', '', '', 0.0)||('was', '', '', '', 0.0)||('significantly', '', '', '', 0.0)||('greater', 'adj', 'C1704243', ['qnco'], 0.0)||('than', '', '', '', 0.0)||('that', '', '', '', 0.0)||('with', '', '', '', 0.0)||('candesartan', 'noun', 'C0717550', ['orch', 'phsu'], 0.0)||('(', '', '', '', 0.0)||('10 . 4', '', '', '', 0.0)||('mm hg', 'noun', 'C0439475', ['qnco'], 0.0)||(',', '', '', '', 0.0)||('7 . 7', '', '', '', 0.0)||('mm hg', 'noun', 'C0439475', ['qnco'], 0.0)||('to', '', '', '', 0.0)||('13 . 1', '', '', '', 0.0)||('mm hg', 'noun', 'C0439475', ['qnco'], 0.0)||(',', '', '', '', 0.0)||('p', '', '', '', 0.0)||('<', '', '', '', 0.0)||('0 . 001', '', '', '', 0.0)||(')', '', '', '', 0.0)||('or', '', '', '', 0.0)||('lisinopril', 'noun', 'C0065374', ['aapp', 'phsu'], 0.0)||('(', '', '', '', 0.0)||('mean', 'noun', 'C0444504', ['qnco'], 0.0)||('10 . 7', '', '', '', 0.0)||('mm hg', 'noun', 'C0439475', ['qnco'], 0.0)||(',', '', '', '', 0.0)||('8 . 0', '', '', '', 0.0)||('mm hg', 'noun', 'C0439475', ['qnco'], 0.0)||('to', '', '', '', 0.0)||('13 . 5', '', '', '', 0.0)||('mm hg', 'noun', 'C0439475', ['qnco'], 0.0)||(',', '', '', '', 0.0)||('p', '', '', '', 0.0)||('<', '', '', '', 0.0)||('0 . 001', '', '', '', 0.0)||(')', '', '', '', 0.0)||('.', '', '', '', 0.0)||
('furthermore', '', '', '', 0.0)||(',', '', '', '', 0.0)||('the', '', '', '', 0.0)||('reduction', 'noun', 'C0301630', ['npop'], 0.0)||('in', '', '', '', 0.0)||('urinary', 'adj', 'C0042027', ['bpoc'], 0.0)||('albumin : creatinine ratio', '', '', '', 0.0)||('with', '', '', '', 0.0)||('combination', 'noun', 'C0205195', ['qlco'], 0.0)||('treatment', 'noun', 'C0039798', ['ftcn'], 0.0)||('(', '', '', '', 0.0)||('50 %', '', '', '', 0.0)||(',', '', '', '', 0.0)||('36 %', '', '', '', 0.0)||('to', '', '', '', 0.0)||('61 %', '', '', '', 0.0)||(',', '', '', '', 0.0)||('p', '', '', '', 0.0)||('<', '', '', '', 0.0)||('0 . 001', '', '', '', 0.0)||(')', '', '', '', 0.0)||('was', '', '', '', 0.0)||('greater', 'adj', 'C1704243', ['qnco'], 0.0)||('than', '', '', '', 0.0)||('with', '', '', '', 0.0)||('candesartan', 'noun', 'C0717550', ['orch', 'phsu'], 0.0)||('(', '', '', '', 0.0)||('24 %', '', '', '', 0.0)||(',', '', '', '', 0.0)||('0 %', '', '', '', 0.0)||('to', '', '', '', 0.0)||('43 %', '', '', '', 0.0)||(',', '', '', '', 0.0)||('p', '', '', '', 0.0)||('=', '', '', '', 0.0)||('0 . 05', '', '', '', 0.0)||(')', '', '', '', 0.0)||('and', '', '', '', 0.0)||('lisinopril', 'noun', 'C0065374', ['aapp', 'phsu'], 0.0)||('(', '', '', '', 0.0)||('39 %', '', '', '', 0.0)||(',', '', '', '', 0.0)||('20 %', '', '', '', 0.0)||('to', '', '', '', 0.0)||('54 %', '', '', '', 0.0)||(',', '', '', '', 0.0)||('p', '', '', '', 0.0)||('<', '', '', '', 0.0)||('0 . 001', '', '', '', 0.0)||(')', '', '', '', 0.0)||('.', '', '', '', 0.0)||
('all', '', '', '', 0.0)||('treatments', 'noun', 'C0087111', ['topp'], 0.0)||('were', '', '', '', 0.0)||('generally', '', '', '', 0.0)||('well tolerated', '', '', '', 0.0)||('.', '', '', '', 0.0)||
('candesartan', 'noun', 'C0717550', ['orch', 'phsu'], 0.0)||('16', '', '', '', 0.0)||('mg', '', '', '', 0.0)||('once', '', '', '', 0.0)||('daily', 'adj', 'C0332173', ['tmco'], 0.0)||('is', '', '', '', 0.0)||('as', '', '', '', 0.0)||('effective', 'adj', 'C1704419', ['qlco'], 0.0)||('as', '', '', '', 0.0)||('lisinopril', 'noun', 'C0065374', ['aapp', 'phsu'], 0.0)||('20', '', '', '', 0.0)||('mg', '', '', '', 0.0)||('once', '', '', '', 0.0)||('daily', 'adj', 'C0332173', ['tmco'], 0.0)||('in', '', '', '', 0.0)||('reducing', 'adj', 'C0392756', ['qlco'], 0.0)||('blood pressure', 'noun', 'C0005823', ['orgf'], 0.0)||('and', '', '', '', 0.0)||('microalbuminuria', 'noun', 'C0730345', ['dsyn'], 0.0)||('in', '', '', '', 0.0)||('hypertensive', 'adj', 'C0857121', ['fndg'], 0.0)||('patients', 'noun', 'C0030705', ['podg'], 0.0)||('with', '', '', '', 0.0)||('type 2 diabetes', 'noun', 'C0011860', ['dsyn'], 0.0)||('.', '', '', '', 0.0)||
('combination', 'noun', 'C0205195', ['qlco'], 0.0)||('treatment', 'noun', 'C0039798', ['ftcn'], 0.0)||('is', '', '', '', 0.0)||('well tolerated', '', '', '', 0.0)||('and', '', '', '', 0.0)||('more', '', '', '', 0.0)||('effective', 'adj', 'C1704419', ['qlco'], 0.0)||('in', '', '', '', 0.0)||('reducing', 'adj', 'C0392756', ['qlco'], 0.0)||('blood pressure', 'noun', 'C0005823', ['orgf'], 0.0)||('.', '', '', '', 0.0)||
