('a', '', '', '', 0.0)||('meta - analysis', '', '', '', 0.0)||('of', '', '', '', 0.0)||('40', '', '', '', 0.0)||('studies', '', '', '', 0.0)||('of', '', '', '', 0.0)||('fdg', 'noun', 'C0046056', ['irda', 'orch'], 0.0)||('pet', 'noun', 'C0031268', ['anim'], 0.0)||('scanning', 'noun', 'C0034606', ['diap'], 0.0)||('for', '', '', '', 0.0)||('solitary pulmonary nodules', '', '', '', 0.0)||('yielded', '', '', '', 0.0)||('a', '', '', '', 0.0)||('maximum', 'noun', 'C0806909', ['qnco'], 0.0)||('joint', 'noun', 'C0022417', ['bsoj'], 0.0)||('sensitivity and specificity', 'noun', 'C0036668', ['qnco'], 0.0)||('of', '', '', '', 0.0)||('90 %', '', '', '', 0.0)||('(', '', '', '', 0.0)||('95 %', '', '', '', 0.0)||('ci', 'noun', 'C1417638', ['gngm'], 0.0)||(',', '', '', '', 0.0)||('86 . 4 %', '', '', '', 0.0)||('-', '', '', '', 0.0)||('92 . 7 %', '', '', '', 0.0)||(')', '', '', '', 0.0)||('.', '', '', '', 0.0)||
('the', '', '', '', 0.0)||('methodological', '', '', '', 0.0)||('quality', 'noun', 'C0332306', ['qlco'], 0.0)||('of', '', '', '', 0.0)||('studies', '', '', '', 0.0)||('included', '', '', '', 0.0)||('in', '', '', '', 0.0)||('the', '', '', '', 0.0)||('meta - analysis', '', '', '', 0.0)||('was', '', '', '', 0.0)||('fair', 'adj', 'C1547189', ['qlco'], 0.0)||(',', '', '', '', 0.0)||('with', '', '', '', 0.0)||('small', 'adj', 'C0700321', ['qnco'], 0.0)||('sample', 'noun', 'C0370003', ['sbst'], 0.0)||('sizes', 'noun', 'C0456389', ['spco'], 0.0)||('(', '', '', '', 0.0)||('inclusion', 'noun', 'C1512693', ['qlco'], 0.0)||('criteria', 'noun', 'C0243161', ['inpr'], 0.0)||('were', '', '', '', 0.0)||('for', '', '', '', 0.0)||('a', '', '', '', 0.0)||('minimum', 'noun', 'C1524031', ['qlco'], 0.0)||('of', '', '', '', 0.0)||('10', '', '', '', 0.0)||('patients', 'noun', 'C0030705', ['podg'], 0.0)||('with', '', '', '', 0.0)||('pulmonary', 'adj', 'C0024109', ['bpoc'], 0.0)||('nodules', 'noun', 'C0028259', ['acab'], 0.0)||('and', '', '', '', 0.0)||('malignant', 'adj', 'C0205282', ['qlco'], 0.0)||('prevalence', 'noun', 'C0033105', ['qnco'], 0.0)||('of', '', '', '', 0.0)||('at', '', '', '', 0.0)||('least', '', '', '', 0.0)||('0 . 5', '', '', '', 0.0)||(')', '', '', '', 0.0)||(';', '', '', '', 0.0)||
('masking', 'noun', 'C0150112', ['ftcn'], 0.0)||('was', '', '', '', 0.0)||('frequently', 'adv', 'C0332183', ['tmco'], 0.0)||('incomplete', 'adj', 'C0205257', ['qnco'], 0.0)||('.', '', '', '', 0.0)||
