('spontaneous', 'adj', 'C0205359', ['ftcn'], 0.0)||('splenic', 'adj', 'C0037993', ['bpoc'], 0.0)||('rupture', 'noun', 'C0035955', ['inpo'], 0.0)||('is', '', '', '', 0.0)||('an', '', '', '', 0.0)||('extremely', '', '', '', 0.0)||('rare', 'adj', 'C0521114', ['tmco'], 0.0)||('but', '', '', '', 0.0)||('life - threatening', '', '', '', 0.0)||('complication', 'noun', 'C0009566', ['patf'], 0.0)||('of', '', '', '', 0.0)||('infectious mononucleosis', 'noun', 'C0021345', ['dsyn'], 0.0)||('in', '', '', '', 0.0)||('young adults', 'noun', 'C0238598', ['aggp'], 0.0)||('.', '', '', '', 0.0)||
('although', '', '', '', 0.0)||('splenectomy', 'noun', 'C0037995', ['topp'], 0.0)||('remains', '', '', '', 0.0)||('effective', 'adj', 'C1704419', ['qlco'], 0.0)||('treatment', 'noun', 'C0039798', ['ftcn'], 0.0)||(',', '', '', '', 0.0)||('reports', 'verb', 'C0684224', ['inpr'], 0.0)||('of', '', '', '', 0.0)||('successful', 'adj', 'C1272703', ['qlco'], 0.0)||('nonoperative', '', '', '', 0.0)||('management', 'noun', 'C0001554', ['ocac'], 0.0)||('have', '', '', '', 0.0)||('challenged', '', '', '', 0.0)||('the', '', '', '', 0.0)||('time - honored', '', '', '', 0.0)||('approach', 'noun', 'C0449445', ['spco'], 0.0)||('of', '', '', '', 0.0)||('emergent', 'adj', 'C0750573', ['idcn'], 0.0)||('laparotomy', 'noun', 'C0023038', ['topp'], 0.0)||('.', '', '', '', 0.0)||
('on', '', '', '', 0.0)||('retrospective', 'adj', 'C1514923', ['qlco'], 0.0)||('analysis', 'noun', 'C0002778', ['lbpr'], 0.0)||('of', '', '', '', 0.0)||('our', '', '', '', 0.0)||('institutional', '', '', '', 0.0)||('experience', 'noun', 'C0596545', ['menp'], 0.0)||('with', '', '', '', 0.0)||('8 , 116', '', '', '', 0.0)||('patients', 'noun', 'C0030705', ['podg'], 0.0)||('who', '', '', '', 0.0)||('had', '', '', '', 0.0)||('this', '', '', '', 0.0)||('disease', 'noun', 'C0012634', ['dsyn'], 0.0)||('during', '', '', '', 0.0)||('a', '', '', '', 0.0)||('40', '', '', '', 0.0)||('-', '', '', '', 0.0)||('year', 'noun', 'C0439234', ['tmco'], 0.0)||('period', 'noun', 'C1948053', ['tmco'], 0.0)||(',', '', '', '', 0.0)||('we', '', '', '', 0.0)||('found', '', '', '', 0.0)||('5', '', '', '', 0.0)||('substantiated', '', '', '', 0.0)||('cases', 'noun', 'C0868928', ['ftcn'], 0.0)||('of', '', '', '', 0.0)||('atraumatic', '', '', '', 0.0)||('splenic', 'adj', 'C0037993', ['bpoc'], 0.0)||('rupture', 'noun', 'C0035955', ['inpo'], 0.0)||('due to', '', '', '', 0.0)||('infectious mononucleosis', 'noun', 'C0021345', ['dsyn'], 0.0)||('.', '', '', '', 0.0)||
('four', '', 'C0205450', ['qnco'], 0.0)||('additional', 'adj', 'C1524062', ['ftcn'], 0.0)||('cases', 'noun', 'C0868928', ['ftcn'], 0.0)||('of', '', '', '', 0.0)||('suspected', 'adj', 'C0332147', ['qlco'], 0.0)||('splenic', 'adj', 'C0037993', ['bpoc'], 0.0)||('rupture', 'noun', 'C0035955', ['inpo'], 0.0)||('were', '', '', '', 0.0)||('noted', '', '', '', 0.0)||('.', '', '', '', 0.0)||
('all', '', '', '', 0.0)||('nine', '', 'C0205455', ['qnco'], 0.0)||('patients', 'noun', 'C0030705', ['podg'], 0.0)||('were', '', '', '', 0.0)||('hospitalized', 'verb', 'C0701159', ['fndg'], 0.0)||('and', '', '', '', 0.0)||('treated', 'verb', 'C1522326', ['ftcn'], 0.0)||('(', '', '', '', 0.0)||('seven', '', 'C0205453', ['qnco'], 0.0)||('underwent', '', '', '', 0.0)||('splenectomy', 'noun', 'C0037995', ['topp'], 0.0)||('and', '', '', '', 0.0)||('two', 'noun', 'C0205448', ['qnco'], 0.0)||('were', '', '', '', 0.0)||('treated', 'verb', 'C1522326', ['ftcn'], 0.0)||('with', '', '', '', 0.0)||('supportive', 'adj', 'C1521721', ['cnce'], 0.0)||('measures', 'noun', 'C0079809', ['qnco'], 0.0)||('only', '', '', '', 0.0)||(')', '', '', '', 0.0)||(',', '', '', '', 0.0)||('and', '', '', '', 0.0)||('they', '', '', '', 0.0)||('remain', '', '', '', 0.0)||('alive', 'adj', 'C0376558', ['idcn'], 0.0)||('and', '', '', '', 0.0)||('well', 'adv', 'C0205170', ['qlco'], 0.0)||('.', '', '', '', 0.0)||
('in', '', '', '', 0.0)||('patients', 'noun', 'C0030705', ['podg'], 0.0)||('with', '', '', '', 0.0)||('infectious mononucleosis', 'noun', 'C0021345', ['dsyn'], 0.0)||('suspected', 'verb', 'C0332147', ['qlco'], 0.0)||('of', '', '', '', 0.0)||('having', '', '', '', 0.0)||('rupture', 'noun', 'C0035955', ['inpo'], 0.0)||('of', '', '', '', 0.0)||('the', '', '', '', 0.0)||('spleen', 'noun', 'C0037993', ['bpoc'], 0.0)||(',', '', '', '', 0.0)||('a', '', '', '', 0.0)||('rapid', 'adj', 'C0439831', ['qlco'], 0.0)||('but', '', '', '', 0.0)||('thorough', '', '', '', 0.0)||('assessment', 'noun', 'C1261322', ['hlca'], 0.0)||('and', '', '', '', 0.0)||('prompt', 'noun', 'C1602245', ['phsu'], 0.0)||('implementation', 'noun', 'C1708476', ['acty'], 0.0)||('of', '', '', '', 0.0)||('appropriate', 'adj', 'C1548787', ['qlco'], 0.0)||('management', 'noun', 'C0001554', ['ocac'], 0.0)||('should', '', '', '', 0.0)||('minimize', '', '', '', 0.0)||('the', '', '', '', 0.0)||('associated', 'adj', 'C0332281', ['qlco'], 0.0)||('morbidity', 'noun', 'C0026538', ['qnco'], 0.0)||('and', '', '', '', 0.0)||('mortality', 'noun', 'C0026565', ['qnco'], 0.0)||('.', '', '', '', 0.0)||
('on', '', '', '', 0.0)||('the', '', '', '', 0.0)||('basis', 'noun', 'C1527178', ['ftcn'], 0.0)||('of', '', '', '', 0.0)||('review', 'noun', 'C0282443', ['inpr'], 0.0)||('of', '', '', '', 0.0)||('the', '', '', '', 0.0)||('medical', 'adj', 'C0205476', ['ftcn'], 0.0)||('literature', 'noun', 'C0023866', ['inpr'], 0.0)||('and', '', '', '', 0.0)||('careful', '', '', '', 0.0)||('scrutiny', '', '', '', 0.0)||('of', '', '', '', 0.0)||('our', '', '', '', 0.0)||('own', '', '', '', 0.0)||('experience', 'noun', 'C0596545', ['menp'], 0.0)||(',', '', '', '', 0.0)||('we', '', '', '', 0.0)||('advocate', 'verb', 'C1510823', ['ocdi'], 0.0)||('emergent', 'adj', 'C0750573', ['idcn'], 0.0)||('splenectomy', 'noun', 'C0037995', ['topp'], 0.0)||('for', '', '', '', 0.0)||('spontaneous', 'adj', 'C0205359', ['ftcn'], 0.0)||('splenic', 'adj', 'C0037993', ['bpoc'], 0.0)||('rupture', 'noun', 'C0035955', ['inpo'], 0.0)||('in', '', '', '', 0.0)||('patients', 'noun', 'C0030705', ['podg'], 0.0)||('with', '', '', '', 0.0)||('infectious mononucleosis', 'noun', 'C0021345', ['dsyn'], 0.0)||('.', '', '', '', 0.0)||
