('in', '', '', '', 0.0)||('a', '', '', '', 0.0)||('case - control study', '', '', '', 0.0)||(',', '', '', '', 0.0)||('29', '', '', '', 0.0)||('patients', 'noun', 'C0030705', ['podg'], 0.0)||('were', '', '', '', 0.0)||('admitted', '', '', '', 0.0)||('to', '', '', '', 0.0)||('an', '', '', '', 0.0)||('ear', 'noun', 'C0013443', ['bpoc'], 0.0)||(',', '', '', '', 0.0)||('nose', 'noun', 'C0028429', ['bpoc'], 0.0)||(',', '', '', '', 0.0)||('and', '', '', '', 0.0)||('throat', 'noun', 'C0031354', ['bpoc'], 0.0)||('department', 'noun', 'C1704729', ['orgt'], 0.0)||('with', '', '', '', 0.0)||('infectious mononucleosis', 'noun', 'C0021345', ['dsyn'], 0.0)||('and', '', '', '', 0.0)||('were', '', '', '', 0.0)||('evaluated', 'verb', 'C0220825', ['ftcn'], 0.0)||('serially', '', '', '', 0.0)||('for', '', '', '', 0.0)||('splenic', 'adj', 'C0037993', ['bpoc'], 0.0)||('and', '', '', '', 0.0)||('hepatic', 'adj', 'C0205054', ['blor'], 0.0)||('enlargement', 'noun', 'C0020564', ['patf'], 0.0)||('by', '', '', '', 0.0)||('ultrasound', 'noun', 'C0041618', ['diap'], 0.0)||('.', '', '', '', 0.0)||
('diagnosis', 'noun', 'C0011900', ['fndg'], 0.0)||('was', '', '', '', 0.0)||('based', 'verb', 'C1527178', ['ftcn'], 0.0)||('on', '', '', '', 0.0)||('clinical', 'adj', 'C0205210', ['qlco'], 0.0)||('picture', 'noun', 'C0441469', ['mnob'], 0.0)||(',', '', '', '', 0.0)||('a', '', '', '', 0.0)||('positive', 'adj', 'C1446409', ['qlco'], 0.0)||('heterophile', 'noun', 'C1440697', ['imft'], 0.0)||('test', 'noun', 'C0022885', ['lbpr'], 0.0)||(',', '', '', '', 0.0)||('and', '', '', '', 0.0)||('other', '', '', '', 0.0)||('blood tests', 'noun', 'C0018941', ['lbpr'], 0.0)||('.', '', '', '', 0.0)||
('four', '', 'C0205450', ['qnco'], 0.0)||('patients', 'noun', 'C0030705', ['podg'], 0.0)||('were', '', '', '', 0.0)||('included', '', '', '', 0.0)||('despite', '', '', '', 0.0)||('negative', 'adj', 'C0205160', ['qlco'], 0.0)||('serology', 'noun', 'C0036745', ['bmod'], 0.0)||('due to', '', '', '', 0.0)||('compelling', '', '', '', 0.0)||('clinical', 'adj', 'C0205210', ['qlco'], 0.0)||('presentations', '', '', '', 0.0)||('and', '', '', '', 0.0)||('symptoms', 'noun', 'C0683368', ['ftcn'], 0.0)||('.', '', '', '', 0.0)||
('serial', 'adj', 'C0031082', ['inpr', 'mnob'], 0.0)||('ultrasound', 'noun', 'C0041618', ['diap'], 0.0)||('imaging', 'verb', 'C0011923', ['diap'], 0.0)||('showed', '', '', '', 0.0)||('that', '', '', '', 0.0)||('all', '', '', '', 0.0)||('had', '', '', '', 0.0)||('enlarged spleens', '', '', '', 0.0)||('(', '', '', '', 0.0)||('mean', 'noun', 'C0444504', ['qnco'], 0.0)||('enlargement', 'noun', 'C0020564', ['patf'], 0.0)||('50 %', '', '', '', 0.0)||('-', '', '', '', 0.0)||('60 %', '', '', '', 0.0)||(')', '', '', '', 0.0)||(';', '', '', '', 0.0)||
('50 %', '', '', '', 0.0)||('had', '', '', '', 0.0)||('hepatic', 'adj', 'C0205054', ['blor'], 0.0)||('enlargement', 'noun', 'C0020564', ['patf'], 0.0)||('(', '', '', '', 0.0)||('5 %', '', '', '', 0.0)||('-', '', '', '', 0.0)||('20 %', '', '', '', 0.0)||('enlargement', 'noun', 'C0020564', ['patf'], 0.0)||(')', '', '', '', 0.0)||('.', '', '', '', 0.0)||
('the', '', '', '', 0.0)||('patients', 'noun', 'C0030705', ['podg'], 0.0)||('were', '', '', '', 0.0)||('compared', 'verb', 'C1707455', ['acty'], 0.0)||('with', '', '', '', 0.0)||('a', '', '', '', 0.0)||('control group', 'noun', 'C0009932', ['grup'], 0.0)||('of', '', '', '', 0.0)||('8', '', '', '', 0.0)||('patients', 'noun', 'C0030705', ['podg'], 0.0)||('admitted', '', '', '', 0.0)||('with', '', '', '', 0.0)||('peritonsillar abscess', 'noun', 'C0031157', ['dsyn'], 0.0)||(',', '', '', '', 0.0)||('as', '', '', '', 0.0)||('verified', 'verb', 'C1711411', ['ftcn'], 0.0)||('by', '', '', '', 0.0)||('tonsillectomy', 'noun', 'C0040423', ['topp'], 0.0)||('.', '', '', '', 0.0)||
('no', '', '', '', 0.0)||('controls', '', '', '', 0.0)||('had', '', '', '', 0.0)||('hepatic', 'adj', 'C0205054', ['blor'], 0.0)||('or', '', '', '', 0.0)||('splenic', 'adj', 'C0037993', ['bpoc'], 0.0)||('enlargement', 'noun', 'C0020564', ['patf'], 0.0)||('.', '', '', '', 0.0)||
('physical examinations', '', '', '', 0.0)||('detected', 'verb', 'C0442726', ['fndg'], 0.0)||('splenomegaly', 'noun', 'C0038002', ['fndg'], 0.0)||('in', '', '', '', 0.0)||('only', '', '', '', 0.0)||('17 %', '', '', '', 0.0)||('of', '', '', '', 0.0)||('the', '', '', '', 0.0)||('study', 'noun', 'C0008976', ['resa'], 0.0)||('patients', 'noun', 'C0030705', ['podg'], 0.0)||('.', '', '', '', 0.0)||
('the', '', '', '', 0.0)||('exams', '', '', '', 0.0)||('were', '', '', '', 0.0)||('conducted', '', '', '', 0.0)||('by', '', '', '', 0.0)||('house staff', 'noun', 'C0020044', ['prog'], 0.0)||('without', '', '', '', 0.0)||('blinding', 'noun', 'C0150108', ['resa'], 0.0)||(',', '', '', '', 0.0)||('randomization', 'noun', 'C0034656', ['resa'], 0.0)||(',', '', '', '', 0.0)||('or', '', '', '', 0.0)||('tests', 'verb', 'C0022885', ['lbpr'], 0.0)||('of', '', '', '', 0.0)||('reproducibility', 'noun', 'C1514863', ['qlco'], 0.0)||('.', '', '', '', 0.0)||
('ultrasound', 'noun', 'C0041618', ['diap'], 0.0)||('scanning', 'noun', 'C0034606', ['diap'], 0.0)||('was', '', '', '', 0.0)||('completed', 'verb', 'C0205197', ['qlco'], 0.0)||('on', '', '', '', 0.0)||('days', 'noun', 'C0439228', ['tmco'], 0.0)||('1', '', '', '', 0.0)||(',', '', '', '', 0.0)||('3', '', '', '', 0.0)||(',', '', '', '', 0.0)||('5', '', '', '', 0.0)||(',', '', '', '', 0.0)||('10', '', '', '', 0.0)||(',', '', '', '', 0.0)||('20', '', '', '', 0.0)||(',', '', '', '', 0.0)||('90', '', '', '', 0.0)||(',', '', '', '', 0.0)||('and', '', '', '', 0.0)||('120', '', '', '', 0.0)||('.', '', '', '', 0.0)||
('the', '', '', '', 0.0)||('spleen', 'noun', 'C0037993', ['bpoc'], 0.0)||('was', '', '', '', 0.0)||('significantly', '', '', '', 0.0)||('larger', 'adj', 'C0549177', ['qnco'], 0.0)||('in', '', '', '', 0.0)||('the', '', '', '', 0.0)||('infectious mononucleosis', 'noun', 'C0021345', ['dsyn'], 0.0)||('group', 'noun', 'C0441833', ['idcn'], 0.0)||('than', '', '', '', 0.0)||('in', '', '', '', 0.0)||('the', '', '', '', 0.0)||('control group', 'noun', 'C0009932', ['grup'], 0.0)||('for', '', '', '', 0.0)||('the', '', '', '', 0.0)||('first', 'noun', 'C0205435', ['qnco'], 0.0)||('30', '', '', '', 0.0)||('days', 'noun', 'C0439228', ['tmco'], 0.0)||(',', '', '', '', 0.0)||('and', '', '', '', 0.0)||('no', '', '', '', 0.0)||('difference', 'noun', 'C1705242', ['qlco'], 0.0)||('in', '', '', '', 0.0)||('size', 'noun', 'C0456389', ['spco'], 0.0)||('was', '', '', '', 0.0)||('found', '', '', '', 0.0)||('over', '', '', '', 0.0)||('the', '', '', '', 0.0)||('subsequent', 'adj', 'C0332282', ['tmco'], 0.0)||('3', '', '', '', 0.0)||('months', 'noun', 'C0439231', ['tmco'], 0.0)||('.', '', '', '', 0.0)||
('no', '', '', '', 0.0)||('correlation', 'noun', 'C1707520', ['qlco'], 0.0)||('existed', '', '', '', 0.0)||('between', '', '', '', 0.0)||('laboratory', 'noun', 'C0022877', ['mnob', 'orgt'], 0.0)||('values', 'noun', 'C0042295', ['qlco'], 0.0)||('and', '', '', '', 0.0)||('enlargement', 'noun', 'C0020564', ['patf'], 0.0)||('of', '', '', '', 0.0)||('the', '', '', '', 0.0)||('spleen', 'noun', 'C0037993', ['bpoc'], 0.0)||('or', '', '', '', 0.0)||('liver', 'noun', 'C0023884', ['bpoc'], 0.0)||('.', '', '', '', 0.0)||
