('though', '', '', '', 0.0)||('evidence', 'noun', 'C0332120', ['ftcn'], 0.0)||('is', '', '', '', 0.0)||('insufficient', 'adj', 'C0205412', ['qlco'], 0.0)||('to', '', '', '', 0.0)||('recommend', '', '', '', 0.0)||('screening', 'verb', 'C0220908', ['hlca'], 0.0)||('all', '', '', '', 0.0)||('women', 'noun', 'C0043210', ['popg'], 0.0)||('for', '', '', '', 0.0)||('hypothyroidism', 'noun', 'C0020676', ['dsyn'], 0.0)||(',', '', '', '', 0.0)||('women', 'noun', 'C0043210', ['popg'], 0.0)||('aged', 'verb', 'C0001779', ['orga'], 0.0)||('>', '', '', '', 0.0)||('50', '', '', '', 0.0)||('years', 'noun', 'C0439234', ['tmco'], 0.0)||('are', '', '', '', 0.0)||('at', '', '', '', 0.0)||('increased risk', '', '', '', 0.0)||('.', '', '', '', 0.0)||
('screening', 'noun', 'C0220908', ['hlca'], 0.0)||('is', '', '', '', 0.0)||('most', '', '', '', 0.0)||('likely', 'adj', 'C0332148', ['qlco'], 0.0)||('to', '', '', '', 0.0)||('detect', '', '', '', 0.0)||('subclinical hypothyroidism', 'noun', 'C0271790', ['dsyn'], 0.0)||('.', '', '', '', 0.0)||
('studies', '', '', '', 0.0)||('evaluating', 'verb', 'C0220825', ['ftcn'], 0.0)||('treatment', 'noun', 'C0039798', ['ftcn'], 0.0)||('of', '', '', '', 0.0)||('subclinical hypothyroidism', 'noun', 'C0271790', ['dsyn'], 0.0)||('in', '', '', '', 0.0)||('women', 'noun', 'C0043210', ['popg'], 0.0)||('aged', 'verb', 'C0001779', ['orga'], 0.0)||('>', '', '', '', 0.0)||('50', '', '', '', 0.0)||('years', 'noun', 'C0439234', ['tmco'], 0.0)||('offer', '', '', '', 0.0)||('a', '', '', '', 0.0)||('mix', 'noun', 'C0205430', ['ftcn'], 0.0)||('of', '', '', '', 0.0)||('potential', 'adj', 'C0035647', ['qlco'], 0.0)||('benefits', 'noun', 'C0814225', ['qnco'], 0.0)||('and', '', '', '', 0.0)||('harms', '', '', '', 0.0)||('but', '', '', '', 0.0)||('without', '', '', '', 0.0)||('long - term', '', '', '', 0.0)||('outcome', 'noun', 'C1274040', ['ftcn'], 0.0)||('information', 'noun', 'C1533716', ['idcn'], 0.0)||('.', '', '', '', 0.0)||
('no', '', '', '', 0.0)||('studies', '', '', '', 0.0)||('address', 'verb', 'C1442065', ['spco'], 0.0)||('asymptomatic', 'adj', 'C0231221', ['fndg'], 0.0)||('women', 'noun', 'C0043210', ['popg'], 0.0)||('aged', 'verb', 'C0001779', ['orga'], 0.0)||('<', '', '', '', 0.0)||('50', '', '', '', 0.0)||('.', '', '', '', 0.0)||
