('to', '', '', '', 0.0)||('evaluate', 'verb', 'C0220825', ['ftcn'], 0.0)||('the', '', '', '', 0.0)||('safety', 'noun', 'C0036043', ['hcpp'], 0.0)||('and', '', '', '', 0.0)||('accuracy', 'noun', 'C0443131', ['qlco'], 0.0)||('of', '', '', '', 0.0)||('colposcopy', 'noun', 'C0009417', ['diap'], 0.0)||('and', '', '', '', 0.0)||('colposcopically', '', '', '', 0.0)||('directed', '', '', '', 0.0)||('biopsy', 'noun', 'C0005558', ['diap'], 0.0)||('in', '', '', '', 0.0)||('pregnant', 'adj', 'C0549206', ['fndg'], 0.0)||('women', 'noun', 'C0043210', ['popg'], 0.0)||('with', '', '', '', 0.0)||('abnormal', 'adj', 'C0205161', ['ftcn'], 0.0)||('cervical', 'adj', 'C0205064', ['spco'], 0.0)||('cytology', 'noun', 'C0010818', ['lbpr'], 0.0)||('.', '', '', '', 0.0)||
('a', '', '', '', 0.0)||('retrospective', 'adj', 'C1514923', ['qlco'], 0.0)||('analysis', 'noun', 'C0002778', ['lbpr'], 0.0)||('of', '', '', '', 0.0)||('612', '', '', '', 0.0)||('gravidas', '', '', '', 0.0)||('with', '', '', '', 0.0)||('abnormal', 'adj', 'C0205161', ['ftcn'], 0.0)||('cervical', 'adj', 'C0205064', ['spco'], 0.0)||('cytology', 'noun', 'C0010818', ['lbpr'], 0.0)||('was', '', '', '', 0.0)||('conducted', '', '', '', 0.0)||('.', '', '', '', 0.0)||
('colposcopy', 'noun', 'C0009417', ['diap'], 0.0)||('and', '', '', '', 0.0)||('directed', '', '', '', 0.0)||('biopsy', 'noun', 'C0005558', ['diap'], 0.0)||('were', '', '', '', 0.0)||('performed', 'verb', 'C0884358', ['ftcn'], 0.0)||('using', 'verb', 'C1524063', ['ftcn'], 0.0)||('standard', 'adj', 'C1442989', ['ftcn'], 0.0)||('techniques', 'noun', 'C0025664', ['inpr'], 0.0)||('.', '', '', '', 0.0)||
('two', 'adj', 'C0205448', ['qnco'], 0.0)||('patients', 'noun', 'C0030705', ['podg'], 0.0)||('underwent', '', '', '', 0.0)||('diagnostic', 'adj', 'C0011900', ['fndg'], 0.0)||('conization', '', '', '', 0.0)||('during', '', '', '', 0.0)||('the', '', '', '', 0.0)||('second trimester', '', '', '', 0.0)||('.', '', '', '', 0.0)||
('one', 'noun', 'C0205447', ['qnco'], 0.0)||('hundred', '', '', '', 0.0)||('twelve', '', 'C0205458', ['qnco'], 0.0)||('patients', 'noun', 'C0030705', ['podg'], 0.0)||('had', '', '', '', 0.0)||('procedures', 'noun', 'C0025664', ['inpr'], 0.0)||('that', '', '', '', 0.0)||('provided', '', '', '', 0.0)||('a', '', '', '', 0.0)||('final', 'adj', 'C0205088', ['tmco'], 0.0)||('specimen', 'noun', 'C0370003', ['sbst'], 0.0)||('.', '', '', '', 0.0)||
('endocervical', 'adj', 'C0227837', ['bpoc'], 0.0)||('curettage', 'noun', 'C0010468', ['topp'], 0.0)||('was', '', '', '', 0.0)||('omitted', '', '', '', 0.0)||('.', '', '', '', 0.0)||
('the', '', '', '', 0.0)||('transformation zone', '', '', '', 0.0)||('was', '', '', '', 0.0)||('fully', '', '', '', 0.0)||('visualized', 'verb', 'C0234621', ['ftcn'], 0.0)||('in', '', '', '', 0.0)||('all', '', '', '', 0.0)||('patients', 'noun', 'C0030705', ['podg'], 0.0)||('by', '', '', '', 0.0)||('the', '', '', '', 0.0)||('20th', '', '', '', 0.0)||('week', 'noun', 'C0439230', ['tmco'], 0.0)||('of', '', '', '', 0.0)||('gestation', 'noun', 'C0032961', ['orgf'], 0.0)||('.', '', '', '', 0.0)||
('directed', '', '', '', 0.0)||('cervical', 'adj', 'C0205064', ['spco'], 0.0)||('biopsy', 'noun', 'C0005558', ['diap'], 0.0)||('was', '', '', '', 0.0)||('performed', 'verb', 'C0884358', ['ftcn'], 0.0)||('on', '', '', '', 0.0)||('the', '', '', '', 0.0)||('following', '', '', '', 0.0)||('patients', 'noun', 'C0030705', ['podg'], 0.0)||(':', '', '', '', 0.0)||('1', '', '', '', 0.0)||(')', '', '', '', 0.0)||('with', '', '', '', 0.0)||('colposcopic', '', '', '', 0.0)||('evidence', 'noun', 'C0332120', ['ftcn'], 0.0)||('of', '', '', '', 0.0)||('invasion', 'noun', 'C1269955', ['fndg'], 0.0)||('or', '', '', '', 0.0)||('cervical intraepithelial neoplasia', 'noun', 'C0206708', ['neop'], 0.0)||('iii', 'noun', 'C0439070', ['inpr'], 0.0)||(',', '', '', '', 0.0)||('2', '', '', '', 0.0)||(')', '', '', '', 0.0)||('with', '', '', '', 0.0)||('discordancy', '', '', '', 0.0)||('between', '', '', '', 0.0)||('colposcopy', 'noun', 'C0009417', ['diap'], 0.0)||('and', '', '', '', 0.0)||('cytology', 'noun', 'C0010818', ['lbpr'], 0.0)||(',', '', '', '', 0.0)||('3', '', '', '', 0.0)||(')', '', '', '', 0.0)||('electing', '', '', '', 0.0)||('termination', 'noun', 'C1549081', ['inpr'], 0.0)||('of', '', '', '', 0.0)||('pregnancy', 'noun', 'C0032961', ['orgf'], 0.0)||(',', '', '', '', 0.0)||('and', '', '', '', 0.0)||('4', '', '', '', 0.0)||(')', '', '', '', 0.0)||('whose', '', '', '', 0.0)||('anticipated', '', '', '', 0.0)||('reliability', 'noun', 'C2347947', ['qnco'], 0.0)||('was', '', '', '', 0.0)||('even', '', '', '', 0.0)||('remotely', '', '', '', 0.0)||('questioned', '', '', '', 0.0)||('.', '', '', '', 0.0)||
('a', '', '', '', 0.0)||('colposcopically', '', '', '', 0.0)||('directed', '', '', '', 0.0)||('biopsy', 'noun', 'C0005558', ['diap'], 0.0)||('was', '', '', '', 0.0)||('performed', 'verb', 'C0884358', ['ftcn'], 0.0)||('in', '', '', '', 0.0)||('449', '', '', '', 0.0)||('patients', 'noun', 'C0030705', ['podg'], 0.0)||('(', '', '', '', 0.0)||('73 %', '', '', '', 0.0)||(')', '', '', '', 0.0)||('.', '', '', '', 0.0)||
('ninety - one', '', '', '', 0.0)||('patients', 'noun', 'C0030705', ['podg'], 0.0)||('(', '', '', '', 0.0)||('15 %', '', '', '', 0.0)||(')', '', '', '', 0.0)||('did', '', '', '', 0.0)||('not', 'adv', 'C1518422', ['ftcn'], 0.0)||('have', '', '', '', 0.0)||('biopsies', 'noun', 'C0005558', ['diap'], 0.0)||('because of', '', '', '', 0.0)||('normal', 'adj', 'C0205307', ['qlco'], 0.0)||('colposcopic', '', '', '', 0.0)||('findings', 'noun', 'C2607943', ['ftcn'], 0.0)||(',', '', '', '', 0.0)||('and', '', '', '', 0.0)||('the', '', '', '', 0.0)||('remaining', 'adj', 'C1527428', ['qlco'], 0.0)||('72', '', '', '', 0.0)||('patients', 'noun', 'C0030705', ['podg'], 0.0)||('(', '', '', '', 0.0)||('12 %', '', '', '', 0.0)||(')', '', '', '', 0.0)||('had', '', '', '', 0.0)||('either', '', '', '', 0.0)||('cervical intraepithelial neoplasia', 'noun', 'C0206708', ['neop'], 0.0)||('i', '', '', '', 0.0)||('or', '', '', '', 0.0)||('ii', '', '', '', 0.0)||('.', '', '', '', 0.0)||
('thirty - nine', '', '', '', 0.0)||('of', '', '', '', 0.0)||('these', '', '', '', 0.0)||('patients', 'noun', 'C0030705', ['podg'], 0.0)||('(', '', '', '', 0.0)||('6 %', '', '', '', 0.0)||(')', '', '', '', 0.0)||('were', '', '', '', 0.0)||('lost', 'verb', 'C0745777', ['ftcn'], 0.0)||('to', '', '', '', 0.0)||('follow - up', '', '', '', 0.0)||('.', '', '', '', 0.0)||
('colposcopically', '', '', '', 0.0)||('directed', '', '', '', 0.0)||('biopsy', 'noun', 'C0005558', ['diap'], 0.0)||('and', '', '', '', 0.0)||('colposcopic', '', '', '', 0.0)||('impression', 'noun', 'C0596764', ['inbe'], 0.0)||('had', '', '', '', 0.0)||('a', '', '', '', 0.0)||('95 %', '', '', '', 0.0)||('concordancy', '', '', '', 0.0)||('within', '', '', '', 0.0)||('one', 'noun', 'C0205447', ['qnco'], 0.0)||('degree', 'noun', 'C0441889', ['qlco'], 0.0)||('of', '', '', '', 0.0)||('severity', 'noun', 'C0439793', ['qlco'], 0.0)||(';', '', '', '', 0.0)||
('however', '', '', '', 0.0)||(',', '', '', '', 0.0)||('14 %', '', '', '', 0.0)||('of', '', '', '', 0.0)||('cervical intraepithelial neoplasia', 'noun', 'C0206708', ['neop'], 0.0)||('i', '', '', '', 0.0)||('colposcopic', '', '', '', 0.0)||('impressions', '', '', '', 0.0)||('and', '', '', '', 0.0)||('54 %', '', '', '', 0.0)||('of', '', '', '', 0.0)||('normal', 'adj', 'C0205307', ['qlco'], 0.0)||('colposcopic', '', '', '', 0.0)||('findings', 'noun', 'C2607943', ['ftcn'], 0.0)||('turned', '', '', '', 0.0)||('out', '', '', '', 0.0)||('to', '', '', '', 0.0)||('be', '', '', '', 0.0)||('cervical intraepithelial neoplasia', 'noun', 'C0206708', ['neop'], 0.0)||('iii', 'noun', 'C0439070', ['inpr'], 0.0)||('and', '', '', '', 0.0)||('cervical intraepithelial neoplasia', 'noun', 'C0206708', ['neop'], 0.0)||('i', '', '', '', 0.0)||('or', '', '', '', 0.0)||('ii', '', '', '', 0.0)||(',', '', '', '', 0.0)||('respectively', '', '', '', 0.0)||('.', '', '', '', 0.0)||
('ninety - five', '', '', '', 0.0)||('percent', 'noun', 'C0439165', ['qnco'], 0.0)||('of', '', '', '', 0.0)||('the', '', '', '', 0.0)||('biopsy', 'noun', 'C0005558', ['diap'], 0.0)||('diagnoses', 'noun', 'C0011900', ['fndg'], 0.0)||('correlated', 'verb', 'C1707520', ['qlco'], 0.0)||('with', '', '', '', 0.0)||('the', '', '', '', 0.0)||('final', 'adj', 'C0205088', ['tmco'], 0.0)||('pathology', 'noun', 'C0030664', ['bmod'], 0.0)||('to within', '', '', '', 0.0)||('one', 'noun', 'C0205447', ['qnco'], 0.0)||('degree', 'noun', 'C0441889', ['qlco'], 0.0)||('of', '', '', '', 0.0)||('severity', 'noun', 'C0439793', ['qlco'], 0.0)||('.', '', '', '', 0.0)||
('the', '', '', '', 0.0)||('data', 'noun', 'C1511726', ['idcn'], 0.0)||('confirm', 'verb', 'C1456348', ['qlco'], 0.0)||('previous', 'adj', 'C0205156', ['tmco'], 0.0)||('findings', 'noun', 'C2607943', ['ftcn'], 0.0)||('that', '', '', '', 0.0)||('colposcopically', '', '', '', 0.0)||('directed', '', '', '', 0.0)||('biopsy', 'noun', 'C0005558', ['diap'], 0.0)||('is', '', '', '', 0.0)||('a', '', '', '', 0.0)||('safe', '', '', '', 0.0)||('and', '', '', '', 0.0)||('reliable', '', '', '', 0.0)||('method', 'noun', 'C0025663', ['inpr'], 0.0)||('of', '', '', '', 0.0)||('evaluating', 'noun', 'C0220825', ['ftcn'], 0.0)||('pregnant', 'adj', 'C0549206', ['fndg'], 0.0)||('patients', 'noun', 'C0030705', ['podg'], 0.0)||('with', '', '', '', 0.0)||('abnormal', 'adj', 'C0205161', ['ftcn'], 0.0)||('cervical', 'adj', 'C0205064', ['spco'], 0.0)||('cytology', 'noun', 'C0010818', ['lbpr'], 0.0)||('.', '', '', '', 0.0)||
