('to', '', '', '', 0.0)||('investigate', '', '', '', 0.0)||('whether', '', '', '', 0.0)||('the', '', '', '', 0.0)||('incidence', 'noun', 'C0021149', ['qnco'], 0.0)||('of', '', '', '', 0.0)||('vertebral', 'adj', 'C0549207', ['bpoc'], 0.0)||('fractures', 'noun', 'C0016658', ['inpo'], 0.0)||('is', '', '', '', 0.0)||('related', 'verb', 'C0439849', ['qlco'], 0.0)||('to', '', '', '', 0.0)||('the', '', '', '', 0.0)||('magnitude', 'noun', 'C1704240', ['qnco'], 0.0)||('of', '', '', '', 0.0)||('change', 'noun', 'C0392747', ['ftcn'], 0.0)||('in', '', '', '', 0.0)||('bone mineral density', 'noun', 'C0005938', ['clna'], 0.0)||('during', '', '', '', 0.0)||('alendronate', 'adj', 'C0102118', ['opco', 'phsu'], 0.0)||('treatment', 'noun', 'C0039798', ['ftcn'], 0.0)||('.', '', '', '', 0.0)||
('women', 'noun', 'C0043210', ['popg'], 0.0)||('in', '', '', '', 0.0)||('this', '', '', '', 0.0)||('study', 'noun', 'C0008976', ['resa'], 0.0)||('were', '', '', '', 0.0)||('age', 'noun', 'C0001779', ['orga'], 0.0)||('55', '', '', '', 0.0)||('-', '', '', '', 0.0)||('81', '', '', '', 0.0)||('years', 'noun', 'C0439234', ['tmco'], 0.0)||('(', '', '', '', 0.0)||('n = 2 ,', '', '', '', 0.0)||('984', '', '', '', 0.0)||(')', '', '', '', 0.0)||('.', '', '', '', 0.0)||
('while', '', '', '', 0.0)||('participating', 'verb', 'C0679823', ['ftcn'], 0.0)||('in', '', '', '', 0.0)||('the', '', '', '', 0.0)||('fracture', 'noun', 'C0016658', ['inpo'], 0.0)||('intervention', 'noun', 'C1273869', ['hlca'], 0.0)||('trial', 'noun', 'C0008976', ['resa'], 0.0)||(',', '', '', '', 0.0)||('they', '', '', '', 0.0)||('received', 'verb', 'C1514756', ['qlco'], 0.0)||('5', '', '', '', 0.0)||('mg', '', '', '', 0.0)||('/', '', '', '', 0.0)||('day', 'noun', 'C0439228', ['tmco'], 0.0)||('of', '', '', '', 0.0)||('alendronate', 'noun', 'C0102118', ['opco', 'phsu'], 0.0)||('for', '', '', '', 0.0)||('2', '', '', '', 0.0)||('years', 'noun', 'C0439234', ['tmco'], 0.0)||('followed', '', '', '', 0.0)||('by', '', '', '', 0.0)||('10', '', '', '', 0.0)||('mg', '', '', '', 0.0)||('/', '', '', '', 0.0)||('day', 'noun', 'C0439228', ['tmco'], 0.0)||('for', '', '', '', 0.0)||('the', '', '', '', 0.0)||('remaining', 'adj', 'C1527428', ['qlco'], 0.0)||('12', '', '', '', 0.0)||('-', '', '', '', 0.0)||('30', '', '', '', 0.0)||('months', 'noun', 'C0439231', ['tmco'], 0.0)||('of', '', '', '', 0.0)||('the', '', '', '', 0.0)||('study', 'noun', 'C0008976', ['resa'], 0.0)||('.', '', '', '', 0.0)||
('their', '', '', '', 0.0)||('bone mineral density', 'noun', 'C0005938', ['clna'], 0.0)||('was', '', '', '', 0.0)||('measured', 'verb', 'C0444706', ['qlco'], 0.0)||('at', '', '', '', 0.0)||('baseline', 'noun', 'C0168634', ['bodm'], 0.0)||('and', '', '', '', 0.0)||('at', '', '', '', 0.0)||('12', '', '', '', 0.0)||('and', '', '', '', 0.0)||('24', '', '', '', 0.0)||('months', 'noun', 'C0439231', ['tmco'], 0.0)||(',', '', '', '', 0.0)||('and', '', '', '', 0.0)||('spine', 'noun', 'C0037949', ['bpoc'], 0.0)||('radiographs', '', '', '', 0.0)||('were', '', '', '', 0.0)||('obtained', 'verb', 'C1301820', ['ftcn'], 0.0)||('at', '', '', '', 0.0)||('baseline', 'noun', 'C0168634', ['bodm'], 0.0)||('and', '', '', '', 0.0)||('again', '', '', '', 0.0)||('at', '', '', '', 0.0)||('36', '', '', '', 0.0)||('or', '', '', '', 0.0)||('48', '', '', '', 0.0)||('months', 'noun', 'C0439231', ['tmco'], 0.0)||('to', '', '', '', 0.0)||('identify', '', '', '', 0.0)||('new', 'adj', 'C0205314', ['tmco'], 0.0)||('vertebral', 'adj', 'C0549207', ['bpoc'], 0.0)||('fractures', 'noun', 'C0016658', ['inpo'], 0.0)||('.', '', '', '', 0.0)||
('after', '', '', '', 0.0)||('12', '', '', '', 0.0)||('months', 'noun', 'C0439231', ['tmco'], 0.0)||('of', '', '', '', 0.0)||('alendronate', 'adj', 'C0102118', ['opco', 'phsu'], 0.0)||('treatment', 'noun', 'C0039798', ['ftcn'], 0.0)||(',', '', '', '', 0.0)||('35 %', '', '', '', 0.0)||('of', '', '', '', 0.0)||('participants', '', '', '', 0.0)||('had', '', '', '', 0.0)||('increases', '', '', '', 0.0)||('of', '', '', '', 0.0)||('>', '', '', '', 0.0)||('or', '', '', '', 0.0)||('=', '', '', '', 0.0)||('3 %', '', '', '', 0.0)||('in', '', '', '', 0.0)||('total', 'adj', 'C0439810', ['qlco'], 0.0)||('hip bone', 'noun', 'C0030786', ['bpoc'], 0.0)||('mineral', 'noun', 'C0026162', ['inch'], 0.0)||('density', 'noun', 'C0178587', ['qnco'], 0.0)||(',', '', '', '', 0.0)||('and', '', '', '', 0.0)||('21 %', '', '', '', 0.0)||('had', '', '', '', 0.0)||('either', '', '', '', 0.0)||('decreased', 'adj', 'C0205216', ['qnco'], 0.0)||('total', 'adj', 'C0439810', ['qlco'], 0.0)||('hip bone', 'noun', 'C0030786', ['bpoc'], 0.0)||('mineral', 'noun', 'C0026162', ['inch'], 0.0)||('density', 'noun', 'C0178587', ['qnco'], 0.0)||('or', '', '', '', 0.0)||('no', '', '', '', 0.0)||('change', 'noun', 'C0392747', ['ftcn'], 0.0)||('.', '', '', '', 0.0)||
('women', 'noun', 'C0043210', ['popg'], 0.0)||('who', '', '', '', 0.0)||('had', '', '', '', 0.0)||('larger', 'adj', 'C0549177', ['qnco'], 0.0)||('increases', '', '', '', 0.0)||('in', '', '', '', 0.0)||('total', 'adj', 'C0439810', ['qlco'], 0.0)||('hip bone', 'noun', 'C0030786', ['bpoc'], 0.0)||('mineral', 'noun', 'C0026162', ['inch'], 0.0)||('density', 'noun', 'C0178587', ['qnco'], 0.0)||('during', '', '', '', 0.0)||('the', '', '', '', 0.0)||('first', 'noun', 'C0205435', ['qnco'], 0.0)||('12', '', '', '', 0.0)||('months', 'noun', 'C0439231', ['tmco'], 0.0)||('had', '', '', '', 0.0)||('a', '', '', '', 0.0)||('lower', 'adj', 'C0441994', ['ftcn'], 0.0)||('incidence', 'noun', 'C0021149', ['qnco'], 0.0)||('of', '', '', '', 0.0)||('new', 'adj', 'C0205314', ['tmco'], 0.0)||('vertebral', 'adj', 'C0549207', ['bpoc'], 0.0)||('fractures', 'noun', 'C0016658', ['inpo'], 0.0)||('during', '', '', '', 0.0)||('the', '', '', '', 0.0)||('entire', 'adj', 'C0439751', ['qnco'], 0.0)||('followup', 'noun', 'C1522577', ['hlca'], 0.0)||('period', 'noun', 'C1948053', ['tmco'], 0.0)||('.', '', '', '', 0.0)||
('only', '', '', '', 0.0)||('3 . 2 %', '', '', '', 0.0)||('of', '', '', '', 0.0)||('women', 'noun', 'C0043210', ['popg'], 0.0)||('with', '', '', '', 0.0)||('increases', '', '', '', 0.0)||('of', '', '', '', 0.0)||('>', '', '', '', 0.0)||('or', '', '', '', 0.0)||('=', '', '', '', 0.0)||('3 %', '', '', '', 0.0)||('in', '', '', '', 0.0)||('total', 'adj', 'C0439810', ['qlco'], 0.0)||('hip bone', 'noun', 'C0030786', ['bpoc'], 0.0)||('mineral', 'noun', 'C0026162', ['inch'], 0.0)||('density', 'noun', 'C0178587', ['qnco'], 0.0)||('experienced', '', '', '', 0.0)||('new', 'adj', 'C0205314', ['tmco'], 0.0)||('vertebral', 'adj', 'C0549207', ['bpoc'], 0.0)||('fractures', 'noun', 'C0016658', ['inpo'], 0.0)||(',', '', '', '', 0.0)||('whereas', '', '', '', 0.0)||('twice', 'adv', 'C1720725', ['inpr'], 0.0)||('as', '', '', '', 0.0)||('many', '', '', '', 0.0)||('women', 'noun', 'C0043210', ['popg'], 0.0)||('(', '', '', '', 0.0)||('6 . 3 %', '', '', '', 0.0)||(')', '', '', '', 0.0)||('whose', '', '', '', 0.0)||('bone mineral density', 'noun', 'C0005938', ['clna'], 0.0)||('declined', '', '', '', 0.0)||('or', '', '', '', 0.0)||('stayed', '', '', '', 0.0)||('the', '', '', '', 0.0)||('same', 'adj', 'C0445247', ['qlco'], 0.0)||('experienced', '', '', '', 0.0)||('new', 'adj', 'C0205314', ['tmco'], 0.0)||('fractures', 'noun', 'C0016658', ['inpo'], 0.0)||('(', '', '', '', 0.0)||('adjusted odds ratio', '', '', '', 0.0)||('0 . 45', '', '', '', 0.0)||(',', '', '', '', 0.0)||('95 %', '', '', '', 0.0)||('confidence interval', 'noun', 'C0009667', ['qnco'], 0.0)||('0 . 27', '', '', '', 0.0)||('-', '', '', '', 0.0)||('0 . 72', '', '', '', 0.0)||(')', '', '', '', 0.0)||('.', '', '', '', 0.0)||
('similar', 'adj', 'C2348205', ['qlco'], 0.0)||('patterns', 'noun', 'C0449774', ['spco'], 0.0)||('were', '', '', '', 0.0)||('observed', 'verb', 'C1441672', ['ftcn'], 0.0)||('for', '', '', '', 0.0)||('spine', 'noun', 'C0037949', ['bpoc'], 0.0)||('bone mineral density', 'noun', 'C0005938', ['clna'], 0.0)||('at', '', '', '', 0.0)||('12', '', '', '', 0.0)||('months', 'noun', 'C0439231', ['tmco'], 0.0)||(',', '', '', '', 0.0)||('and', '', '', '', 0.0)||('for', '', '', '', 0.0)||('both', '', '', '', 0.0)||('sites', 'noun', 'C0205145', ['spco'], 0.0)||('using', 'verb', 'C1524063', ['ftcn'], 0.0)||('change', 'noun', 'C0392747', ['ftcn'], 0.0)||('in', '', '', '', 0.0)||('bone mineral density', 'noun', 'C0005938', ['clna'], 0.0)||('at', '', '', '', 0.0)||('24', '', '', '', 0.0)||('months', 'noun', 'C0439231', ['tmco'], 0.0)||('.', '', '', '', 0.0)||
('women', 'noun', 'C0043210', ['popg'], 0.0)||('with', '', '', '', 0.0)||('increases', '', '', '', 0.0)||('of', '', '', '', 0.0)||('>', '', '', '', 0.0)||('or', '', '', '', 0.0)||('=', '', '', '', 0.0)||('3 %', '', '', '', 0.0)||('in', '', '', '', 0.0)||('bone mineral density', 'noun', 'C0005938', ['clna'], 0.0)||('during', '', '', '', 0.0)||('the', '', '', '', 0.0)||('first', 'noun', 'C0205435', ['qnco'], 0.0)||('1', '', '', '', 0.0)||('or', '', '', '', 0.0)||('2', '', '', '', 0.0)||('years', 'noun', 'C0439234', ['tmco'], 0.0)||('of', '', '', '', 0.0)||('alendronate', 'adj', 'C0102118', ['opco', 'phsu'], 0.0)||('treatment', 'noun', 'C0039798', ['ftcn'], 0.0)||('had', '', '', '', 0.0)||('the', '', '', '', 0.0)||('lowest', 'adj', 'C1708760', ['qlco'], 0.0)||('incidence', 'noun', 'C0021149', ['qnco'], 0.0)||('of', '', '', '', 0.0)||('new', 'adj', 'C0205314', ['tmco'], 0.0)||('vertebral', 'adj', 'C0549207', ['bpoc'], 0.0)||('fractures', 'noun', 'C0016658', ['inpo'], 0.0)||('.', '', '', '', 0.0)||
('these', '', '', '', 0.0)||('findings', 'noun', 'C2607943', ['ftcn'], 0.0)||('suggest', 'verb', 'C1705535', ['idcn'], 0.0)||('that', '', '', '', 0.0)||(',', '', '', '', 0.0)||('among', '', '', '', 0.0)||('women', 'noun', 'C0043210', ['popg'], 0.0)||('taking', '', '', '', 0.0)||('antiresorptive', '', '', '', 0.0)||('agents', '', '', '', 0.0)||(',', '', '', '', 0.0)||('greater', 'adj', 'C1704243', ['qnco'], 0.0)||('increases', '', '', '', 0.0)||('in', '', '', '', 0.0)||('bone mineral density', 'noun', 'C0005938', ['clna'], 0.0)||('are', '', '', '', 0.0)||('associated', 'verb', 'C0332281', ['qlco'], 0.0)||('with', '', '', '', 0.0)||('lower risk', '', '', '', 0.0)||('of', '', '', '', 0.0)||('new', 'adj', 'C0205314', ['tmco'], 0.0)||('vertebral', 'adj', 'C0549207', ['bpoc'], 0.0)||('fractures', 'noun', 'C0016658', ['inpo'], 0.0)||('.', '', '', '', 0.0)||
