('epstein - barr virus', '', '', '', 0.0)||('infectious mononucleosis', 'noun', 'C0021345', ['dsyn'], 0.0)||('.', '', '', '', 0.0)||
('infectious mononucleosis', 'noun', 'C0021345', ['dsyn'], 0.0)||('should', '', '', '', 0.0)||('be', '', '', '', 0.0)||('suspected', 'verb', 'C0332147', ['qlco'], 0.0)||('in', '', '', '', 0.0)||('patients', 'noun', 'C0030705', ['podg'], 0.0)||('10', '', '', '', 0.0)||('to', '', '', '', 0.0)||('30', '', '', '', 0.0)||('years', 'noun', 'C0439234', ['tmco'], 0.0)||('of', '', '', '', 0.0)||('age', 'noun', 'C0001779', ['orga'], 0.0)||('who', '', '', '', 0.0)||('present', 'verb', 'C0150312', ['qnco'], 0.0)||('with', '', '', '', 0.0)||('sore throat', '', '', '', 0.0)||('and', '', '', '', 0.0)||('significant', 'adj', 'C0750502', ['idcn'], 0.0)||('fatigue', 'noun', 'C0015672', ['sosy'], 0.0)||(',', '', '', '', 0.0)||('palatal', 'adj', 'C0700374', ['bpoc'], 0.0)||('petechiae', 'noun', 'C0031256', ['dsyn'], 0.0)||(',', '', '', '', 0.0)||('posterior', 'adj', 'C0205095', ['spco'], 0.0)||('cervical', 'adj', 'C0205064', ['spco'], 0.0)||('or', '', '', '', 0.0)||('auricular', 'adj', 'C1522191', ['ftcn'], 0.0)||('adenopathy', 'noun', 'C0024228', ['dsyn'], 0.0)||(',', '', '', '', 0.0)||('marked', 'adj', 'C0522501', ['qlco'], 0.0)||('adenopathy', 'noun', 'C0024228', ['dsyn'], 0.0)||(',', '', '', '', 0.0)||('or', '', '', '', 0.0)||('inguinal', 'adj', 'C0018246', ['blor'], 0.0)||('adenopathy', 'noun', 'C0024228', ['dsyn'], 0.0)||('.', '', '', '', 0.0)||
('an', '', '', '', 0.0)||('atypical', 'adj', 'C0205182', ['qlco'], 0.0)||('lymphocytosis', 'noun', 'C0024282', ['dsyn'], 0.0)||('of', '', '', '', 0.0)||('at', '', '', '', 0.0)||('least', '', '', '', 0.0)||('20', '', '', '', 0.0)||('percent', 'noun', 'C0439165', ['qnco'], 0.0)||('or', '', '', '', 0.0)||('atypical', 'adj', 'C0205182', ['qlco'], 0.0)||('lymphocytosis', 'noun', 'C0024282', ['dsyn'], 0.0)||('of', '', '', '', 0.0)||('at', '', '', '', 0.0)||('least', '', '', '', 0.0)||('10', '', '', '', 0.0)||('percent', 'noun', 'C0439165', ['qnco'], 0.0)||('plus', '', '', '', 0.0)||('lymphocytosis', 'noun', 'C0024282', ['dsyn'], 0.0)||('of', '', '', '', 0.0)||('at', '', '', '', 0.0)||('least', '', '', '', 0.0)||('50', '', '', '', 0.0)||('percent', 'noun', 'C0439165', ['qnco'], 0.0)||('strongly', '', '', '', 0.0)||('supports', 'verb', 'C0183683', ['medd'], 0.0)||('the', '', '', '', 0.0)||('diagnosis', 'noun', 'C0011900', ['fndg'], 0.0)||(',', '', '', '', 0.0)||('as', '', '', '', 0.0)||('does', '', '', '', 0.0)||('a', '', '', '', 0.0)||('positive', 'adj', 'C1446409', ['qlco'], 0.0)||('heterophile antibody test', '', '', '', 0.0)||('.', '', '', '', 0.0)||
('false - negative', '', '', '', 0.0)||('results', 'noun', 'C1274040', ['ftcn'], 0.0)||('of', '', '', '', 0.0)||('heterophile antibody tests', '', '', '', 0.0)||('are', '', '', '', 0.0)||('relatively', '', '', '', 0.0)||('common', 'adj', 'C0205214', ['qnco'], 0.0)||('early', 'adj', 'C1279919', ['tmco'], 0.0)||('in', '', '', '', 0.0)||('the', '', '', '', 0.0)||('course', 'noun', 'C0750729', ['tmco'], 0.0)||('of', '', '', '', 0.0)||('infection', 'noun', 'C0021311', ['dsyn'], 0.0)||('.', '', '', '', 0.0)||
('patients', 'noun', 'C0030705', ['podg'], 0.0)||('with', '', '', '', 0.0)||('negative', 'adj', 'C0205160', ['qlco'], 0.0)||('results', 'noun', 'C1274040', ['ftcn'], 0.0)||('may', '', '', '', 0.0)||('have', '', '', '', 0.0)||('another', '', '', '', 0.0)||('infection', 'noun', 'C0021311', ['dsyn'], 0.0)||(',', '', '', '', 0.0)||('such as', '', '', '', 0.0)||('toxoplasmosis', 'noun', 'C0040558', ['dsyn'], 0.0)||(',', '', '', '', 0.0)||('streptococcal', 'adj', 'C0038402', ['bact'], 0.0)||('infection', 'noun', 'C0021311', ['dsyn'], 0.0)||(',', '', '', '', 0.0)||('cytomegalovirus', 'noun', 'C0010825', ['virs'], 0.0)||('infection', 'noun', 'C0021311', ['dsyn'], 0.0)||(',', '', '', '', 0.0)||('or', '', '', '', 0.0)||('another', '', '', '', 0.0)||('viral infection', 'noun', 'C0042769', ['dsyn'], 0.0)||('.', '', '', '', 0.0)||
('symptomatic treatment', '', '', '', 0.0)||(',', '', '', '', 0.0)||('the', '', '', '', 0.0)||('mainstay', '', '', '', 0.0)||('of', '', '', '', 0.0)||('care', 'noun', 'C0580931', ['fndg'], 0.0)||(',', '', '', '', 0.0)||('includes', 'verb', 'C0332257', ['ftcn'], 0.0)||('adequate', 'adj', 'C0205410', ['qlco'], 0.0)||('hydration', 'noun', 'C1321013', ['fndg'], 0.0)||(',', '', '', '', 0.0)||('analgesics', 'noun', 'C0002771', ['phsu'], 0.0)||(',', '', '', '', 0.0)||('antipyretics', 'noun', 'C0003419', ['phsu'], 0.0)||(',', '', '', '', 0.0)||('and', '', '', '', 0.0)||('adequate', 'adj', 'C0205410', ['qlco'], 0.0)||('rest', 'noun', 'C0035253', ['dora'], 0.0)||('.', '', '', '', 0.0)||
('bed rest', 'noun', 'C0004910', ['topp'], 0.0)||('should', '', '', '', 0.0)||('not', 'adv', 'C1518422', ['ftcn'], 0.0)||('be', '', '', '', 0.0)||('enforced', '', '', '', 0.0)||(',', '', '', '', 0.0)||('and', '', '', '', 0.0)||('the', '', '', '', 0.0)||('patient', '', '', '', 0.0)||("' s", '', '', '', 0.0)||('energy level', 'noun', 'C0516979', ['fndg'], 0.0)||('should', '', '', '', 0.0)||('guide', 'verb', 'C0181090', ['prog'], 0.0)||('activity', 'noun', 'C0441655', ['acty'], 0.0)||('.', '', '', '', 0.0)||
('corticosteroids', 'noun', 'C0001617', ['horm', 'phsu', 'strd'], 0.0)||(',', '', '', '', 0.0)||('acyclovir', '', '', '', 0.0)||(',', '', '', '', 0.0)||('and', '', '', '', 0.0)||('antihistamines', 'noun', 'C0003360', ['orch', 'phsu'], 0.0)||('are', '', '', '', 0.0)||('not', 'adv', 'C1518422', ['ftcn'], 0.0)||('recommended', 'verb', 'C0034866', ['idcn'], 0.0)||('for', '', '', '', 0.0)||('routine', 'adj', 'C0205547', ['qlco'], 0.0)||('treatment', 'noun', 'C0039798', ['ftcn'], 0.0)||('of', '', '', '', 0.0)||('infectious mononucleosis', 'noun', 'C0021345', ['dsyn'], 0.0)||(',', '', '', '', 0.0)||('although', '', '', '', 0.0)||('corticosteroids', 'noun', 'C0001617', ['horm', 'phsu', 'strd'], 0.0)||('may', '', '', '', 0.0)||('benefit', 'verb', 'C0814225', ['qnco'], 0.0)||('patients', 'noun', 'C0030705', ['podg'], 0.0)||('with', '', '', '', 0.0)||('respiratory', 'adj', 'C0521346', ['ftcn'], 0.0)||('compromise', '', '', '', 0.0)||('or', '', '', '', 0.0)||('severe', 'adj', 'C0205082', ['qlco'], 0.0)||('pharyngeal', 'adj', 'C0031354', ['bpoc'], 0.0)||('edema', 'noun', 'C0013604', ['patf'], 0.0)||('.', '', '', '', 0.0)||
('patients', 'noun', 'C0030705', ['podg'], 0.0)||('with', '', '', '', 0.0)||('infectious mononucleosis', 'noun', 'C0021345', ['dsyn'], 0.0)||('should', '', '', '', 0.0)||('be', '', '', '', 0.0)||('withdrawn', 'verb', 'C0237955', ['menp'], 0.0)||('from', '', '', '', 0.0)||('contact', 'noun', 'C0337611', ['popg'], 0.0)||('or', '', '', '', 0.0)||('collision', 'noun', 'C0337196', ['phpr'], 0.0)||('sports', 'noun', 'C0038039', ['dora'], 0.0)||('for', '', '', '', 0.0)||('at', '', '', '', 0.0)||('least', '', '', '', 0.0)||('four', '', 'C0205450', ['qnco'], 0.0)||('weeks', 'noun', 'C0439230', ['tmco'], 0.0)||('after', '', '', '', 0.0)||('the', '', '', '', 0.0)||('onset', 'noun', 'C0332162', ['qlco'], 0.0)||('of', '', '', '', 0.0)||('symptoms', 'noun', 'C0683368', ['ftcn'], 0.0)||('.', '', '', '', 0.0)||
('fatigue', 'noun', 'C0015672', ['sosy'], 0.0)||(',', '', '', '', 0.0)||('myalgias', 'adv', 'C0231528', ['sosy'], 0.0)||(',', '', '', '', 0.0)||('and', '', '', '', 0.0)||('need', 'noun', 'C0027552', ['qlco'], 0.0)||('for', '', '', '', 0.0)||('sleep', 'noun', 'C0037313', ['orgf'], 0.0)||('may', '', '', '', 0.0)||('persist', '', '', '', 0.0)||('for', '', '', '', 0.0)||('several', '', '', '', 0.0)||('months', 'noun', 'C0439231', ['tmco'], 0.0)||('after', '', '', '', 0.0)||('the', '', '', '', 0.0)||('acute', 'adj', 'C0205178', ['tmco'], 0.0)||('infection', 'noun', 'C0021311', ['dsyn'], 0.0)||('has', '', '', '', 0.0)||('resolved', 'verb', 'C1514893', ['idcn'], 0.0)||('.', '', '', '', 0.0)||
