('drug therapy', 'noun', 'C0013216', ['topp'], 0.0)||('for', '', '', '', 0.0)||('hypercholesterolaemia', 'noun', 'C0020443', ['dsyn'], 0.0)||('has', '', '', '', 0.0)||('remained', '', '', '', 0.0)||('controversial', '', '', '', 0.0)||('mainly', '', '', '', 0.0)||('because of', '', '', '', 0.0)||('insufficient', 'adj', 'C0205412', ['qlco'], 0.0)||('clinical trial', 'noun', 'C0008976', ['resa'], 0.0)||('evidence', 'noun', 'C0332120', ['ftcn'], 0.0)||('for', '', '', '', 0.0)||('improved', 'adj', 'C0184511', ['qlco'], 0.0)||('survival', 'noun', 'C0038952', ['acty'], 0.0)||('.', '', '', '', 0.0)||
('the', '', '', '', 0.0)||('present', 'adj', 'C0150312', ['qnco'], 0.0)||('trial', 'noun', 'C0008976', ['resa'], 0.0)||('was', '', '', '', 0.0)||('designed', '', '', '', 0.0)||('to', '', '', '', 0.0)||('evaluate', 'verb', 'C0220825', ['ftcn'], 0.0)||('the', '', '', '', 0.0)||('effect', 'noun', 'C1280500', ['qlco'], 0.0)||('of', '', '', '', 0.0)||('cholesterol', 'noun', 'C0008377', ['bacs', 'strd'], 0.0)||('lowering', 'noun', 'C2003888', ['ftcn'], 0.0)||('with', '', '', '', 0.0)||('simvastatin', 'noun', 'C0074554', ['orch', 'phsu'], 0.0)||('on', '', '', '', 0.0)||('mortality', 'noun', 'C0026565', ['qnco'], 0.0)||('and', '', '', '', 0.0)||('morbidity', 'noun', 'C0026538', ['qnco'], 0.0)||('in', '', '', '', 0.0)||('patients', 'noun', 'C0030705', ['podg'], 0.0)||('with', '', '', '', 0.0)||('coronary heart disease', 'noun', 'C0010068', ['dsyn'], 0.0)||('.', '', '', '', 0.0)||
('4444', '', '', '', 0.0)||('patients', 'noun', 'C0030705', ['podg'], 0.0)||('with', '', '', '', 0.0)||('angina pectoris', 'noun', 'C0002962', ['sosy'], 0.0)||('or', '', '', '', 0.0)||('previous', 'adj', 'C0205156', ['tmco'], 0.0)||('myocardial infarction', 'noun', 'C0027051', ['dsyn'], 0.0)||('and', '', '', '', 0.0)||('serum cholesterol', 'noun', 'C0587184', ['lbpr'], 0.0)||('5 . 5', '', '', '', 0.0)||('-', '', '', '', 0.0)||('8 . 0', '', '', '', 0.0)||('mmol', '', '', '', 0.0)||('/', '', '', '', 0.0)||('l', '', '', '', 0.0)||('on', '', '', '', 0.0)||('a', '', '', '', 0.0)||('lipid', 'noun', 'C0023779', ['lipd'], 0.0)||('-', '', '', '', 0.0)||('lowering', 'adj', 'C2003888', ['ftcn'], 0.0)||('diet', 'noun', 'C0012155', ['food'], 0.0)||('were', '', '', '', 0.0)||('randomised', '', '', '', 0.0)||('to', '', '', '', 0.0)||('double - blind', '', '', '', 0.0)||('treatment', 'noun', 'C0039798', ['ftcn'], 0.0)||('with', '', '', '', 0.0)||('simvastatin', 'noun', 'C0074554', ['orch', 'phsu'], 0.0)||('or', '', '', '', 0.0)||('placebo', 'noun', 'C0032042', ['topp'], 0.0)||('.', '', '', '', 0.0)||
('over', '', '', '', 0.0)||('the', '', '', '', 0.0)||('5 . 4', '', '', '', 0.0)||('years', 'noun', 'C0439234', ['tmco'], 0.0)||('median', 'noun', 'C0549183', ['spco'], 0.0)||('follow - up', '', '', '', 0.0)||('period', 'noun', 'C1948053', ['tmco'], 0.0)||(',', '', '', '', 0.0)||('simvastatin', 'noun', 'C0074554', ['orch', 'phsu'], 0.0)||('produced', '', '', '', 0.0)||('mean', 'noun', 'C0444504', ['qnco'], 0.0)||('changes', '', '', '', 0.0)||('in', '', '', '', 0.0)||('total cholesterol', 'noun', 'C0543421', ['strd'], 0.0)||(',', '', '', '', 0.0)||('low - density - lipoprotein cholesterol', '', '', '', 0.0)||(',', '', '', '', 0.0)||('and', '', '', '', 0.0)||('high - density - lipoprotein cholesterol', '', '', '', 0.0)||('of', '', '', '', 0.0)||('-', '', '', '', 0.0)||('25 %', '', '', '', 0.0)||(',', '', '', '', 0.0)||('-', '', '', '', 0.0)||('35 %', '', '', '', 0.0)||(',', '', '', '', 0.0)||('and', '', '', '', 0.0)||('+', '', '', '', 0.0)||('8 %', '', '', '', 0.0)||(',', '', '', '', 0.0)||('respectively', '', '', '', 0.0)||(',', '', '', '', 0.0)||('with', '', '', '', 0.0)||('few', '', '', '', 0.0)||('adverse effects', 'noun', 'C0001688', ['ftcn'], 0.0)||('.', '', '', '', 0.0)||
('256', '', '', '', 0.0)||('patients', 'noun', 'C0030705', ['podg'], 0.0)||('(', '', '', '', 0.0)||('12 %', '', '', '', 0.0)||(')', '', '', '', 0.0)||('in', '', '', '', 0.0)||('the', '', '', '', 0.0)||('placebo', 'noun', 'C0032042', ['topp'], 0.0)||('group', 'noun', 'C0441833', ['idcn'], 0.0)||('died', 'verb', 'C1306577', ['fndg'], 0.0)||(',', '', '', '', 0.0)||('compared', 'verb', 'C1707455', ['acty'], 0.0)||('with', '', '', '', 0.0)||('182', '', '', '', 0.0)||('(', '', '', '', 0.0)||('8 %', '', '', '', 0.0)||(')', '', '', '', 0.0)||('in', '', '', '', 0.0)||('the', '', '', '', 0.0)||('simvastatin', 'noun', 'C0074554', ['orch', 'phsu'], 0.0)||('group', 'noun', 'C0441833', ['idcn'], 0.0)||('.', '', '', '', 0.0)||
('the', '', '', '', 0.0)||('relative risk', 'noun', 'C0242492', ['qnco'], 0.0)||('of', '', '', '', 0.0)||('death', 'noun', 'C0011065', ['orgf'], 0.0)||('in', '', '', '', 0.0)||('the', '', '', '', 0.0)||('simvastatin', 'noun', 'C0074554', ['orch', 'phsu'], 0.0)||('group', 'noun', 'C0441833', ['idcn'], 0.0)||('was', '', '', '', 0.0)||('0 . 70', '', '', '', 0.0)||('(', '', '', '', 0.0)||('95 %', '', '', '', 0.0)||('ci', 'noun', 'C1417638', ['gngm'], 0.0)||('0 . 58', '', '', '', 0.0)||('-', '', '', '', 0.0)||('0 . 85', '', '', '', 0.0)||(',', '', '', '', 0.0)||('p', '', '', '', 0.0)||('=', '', '', '', 0.0)||('0 . 0003', '', '', '', 0.0)||(')', '', '', '', 0.0)||('.', '', '', '', 0.0)||
('the', '', '', '', 0.0)||('6', '', '', '', 0.0)||('-', '', '', '', 0.0)||('year', 'noun', 'C0439234', ['tmco'], 0.0)||('probabilities', 'noun', 'C0033204', ['qnco'], 0.0)||('of', '', '', '', 0.0)||('survival', 'noun', 'C0038952', ['acty'], 0.0)||('in', '', '', '', 0.0)||('the', '', '', '', 0.0)||('placebo', 'noun', 'C0032042', ['topp'], 0.0)||('and', '', '', '', 0.0)||('simvastatin', 'noun', 'C0074554', ['orch', 'phsu'], 0.0)||('groups', 'noun', 'C0441833', ['idcn'], 0.0)||('were', '', '', '', 0.0)||('87 . 6 %', '', '', '', 0.0)||('and', '', '', '', 0.0)||('91 . 3 %', '', '', '', 0.0)||(',', '', '', '', 0.0)||('respectively', '', '', '', 0.0)||('.', '', '', '', 0.0)||
('there', '', '', '', 0.0)||('were', '', '', '', 0.0)||('189', '', '', '', 0.0)||('coronary', 'adj', 'C0018787', ['bpoc'], 0.0)||('deaths', 'noun', 'C1306577', ['fndg'], 0.0)||('in', '', '', '', 0.0)||('the', '', '', '', 0.0)||('placebo', 'noun', 'C0032042', ['topp'], 0.0)||('group', 'noun', 'C0441833', ['idcn'], 0.0)||('and', '', '', '', 0.0)||('111', '', '', '', 0.0)||('in', '', '', '', 0.0)||('the', '', '', '', 0.0)||('simvastatin', 'noun', 'C0074554', ['orch', 'phsu'], 0.0)||('group', 'noun', 'C0441833', ['idcn'], 0.0)||('(', '', '', '', 0.0)||('relative risk', 'noun', 'C0242492', ['qnco'], 0.0)||('0 . 58', '', '', '', 0.0)||(',', '', '', '', 0.0)||('95 %', '', '', '', 0.0)||('ci', 'noun', 'C1417638', ['gngm'], 0.0)||('0 . 46', '', '', '', 0.0)||('-', '', '', '', 0.0)||('0 . 73', '', '', '', 0.0)||(')', '', '', '', 0.0)||(',', '', '', '', 0.0)||('while', '', '', '', 0.0)||('noncardiovascular', '', '', '', 0.0)||('causes', 'noun', 'C0015127', ['ftcn'], 0.0)||('accounted', '', '', '', 0.0)||('for', '', '', '', 0.0)||('49', '', '', '', 0.0)||('and', '', '', '', 0.0)||('46', '', '', '', 0.0)||('deaths', 'noun', 'C1306577', ['fndg'], 0.0)||(',', '', '', '', 0.0)||('respectively', '', '', '', 0.0)||('.', '', '', '', 0.0)||
('622', '', '', '', 0.0)||('patients', 'noun', 'C0030705', ['podg'], 0.0)||('(', '', '', '', 0.0)||('28 %', '', '', '', 0.0)||(')', '', '', '', 0.0)||('in', '', '', '', 0.0)||('the', '', '', '', 0.0)||('placebo', 'noun', 'C0032042', ['topp'], 0.0)||('group', 'noun', 'C0441833', ['idcn'], 0.0)||('and', '', '', '', 0.0)||('431', '', '', '', 0.0)||('(', '', '', '', 0.0)||('19 %', '', '', '', 0.0)||(')', '', '', '', 0.0)||('in', '', '', '', 0.0)||('the', '', '', '', 0.0)||('simvastatin', 'noun', 'C0074554', ['orch', 'phsu'], 0.0)||('group', 'noun', 'C0441833', ['idcn'], 0.0)||('had', '', '', '', 0.0)||('one', 'noun', 'C0205447', ['qnco'], 0.0)||('or', '', '', '', 0.0)||('more', '', '', '', 0.0)||('major', 'adj', 'C0205164', ['qlco'], 0.0)||('coronary', 'adj', 'C0018787', ['bpoc'], 0.0)||('events', 'noun', 'C0441471', ['evnt'], 0.0)||('.', '', '', '', 0.0)||
('the', '', '', '', 0.0)||('relative risk', 'noun', 'C0242492', ['qnco'], 0.0)||('was', '', '', '', 0.0)||('0 . 66', '', '', '', 0.0)||('(', '', '', '', 0.0)||('95 %', '', '', '', 0.0)||('ci', 'noun', 'C1417638', ['gngm'], 0.0)||('0 . 59', '', '', '', 0.0)||('-', '', '', '', 0.0)||('0 . 75', '', '', '', 0.0)||(',', '', '', '', 0.0)||('p', '', '', '', 0.0)||('<', '', '', '', 0.0)||('0 . 00001', '', '', '', 0.0)||(')', '', '', '', 0.0)||(',', '', '', '', 0.0)||('and', '', '', '', 0.0)||('the', '', '', '', 0.0)||('respective', '', '', '', 0.0)||('probabilities', 'noun', 'C0033204', ['qnco'], 0.0)||('of', '', '', '', 0.0)||('escaping', '', '', '', 0.0)||('such', '', '', '', 0.0)||('events', 'noun', 'C0441471', ['evnt'], 0.0)||('were', '', '', '', 0.0)||('70 . 5 %', '', '', '', 0.0)||('and', '', '', '', 0.0)||('79 . 6 %', '', '', '', 0.0)||('.', '', '', '', 0.0)||
('this', '', '', '', 0.0)||('risk', 'noun', 'C0035647', ['qlco'], 0.0)||('was', '', '', '', 0.0)||('also', '', '', '', 0.0)||('significantly', '', '', '', 0.0)||('reduced', 'verb', 'C0392756', ['qlco'], 0.0)||('in', '', '', '', 0.0)||('subgroups', '', '', '', 0.0)||('consisting', '', '', '', 0.0)||('of', '', '', '', 0.0)||('women', 'noun', 'C0043210', ['popg'], 0.0)||('and', '', '', '', 0.0)||('patients', 'noun', 'C0030705', ['podg'], 0.0)||('of', '', '', '', 0.0)||('both', '', '', '', 0.0)||('sexes', '', '', '', 0.0)||('aged', 'verb', 'C0001779', ['orga'], 0.0)||('60', '', '', '', 0.0)||('or', '', '', '', 0.0)||('more', '', '', '', 0.0)||('.', '', '', '', 0.0)||
('other', '', '', '', 0.0)||('benefits', 'noun', 'C0814225', ['qnco'], 0.0)||('of', '', '', '', 0.0)||('treatment', 'noun', 'C0039798', ['ftcn'], 0.0)||('included', '', '', '', 0.0)||('a', '', '', '', 0.0)||('37 %', '', '', '', 0.0)||('reduction', 'noun', 'C0301630', ['npop'], 0.0)||('(', '', '', '', 0.0)||('p', '', '', '', 0.0)||('<', '', '', '', 0.0)||('0 . 00001', '', '', '', 0.0)||(')', '', '', '', 0.0)||('in', '', '', '', 0.0)||('the', '', '', '', 0.0)||('risk', 'noun', 'C0035647', ['qlco'], 0.0)||('of', '', '', '', 0.0)||('undergoing', '', '', '', 0.0)||('myocardial', 'adj', 'C0027061', ['tisu'], 0.0)||('revascularisation', 'noun', 'C0581603', ['topp'], 0.0)||('procedures', 'noun', 'C0025664', ['inpr'], 0.0)||('.', '', '', '', 0.0)||
('this', '', '', '', 0.0)||('study', 'noun', 'C0008976', ['resa'], 0.0)||('shows', '', '', '', 0.0)||('that', '', '', '', 0.0)||('long - term', '', '', '', 0.0)||('treatment', 'noun', 'C0039798', ['ftcn'], 0.0)||('with', '', '', '', 0.0)||('simvastatin', 'noun', 'C0074554', ['orch', 'phsu'], 0.0)||('is', '', '', '', 0.0)||('safe', '', '', '', 0.0)||('and', '', '', '', 0.0)||('improves', '', '', '', 0.0)||('survival', 'noun', 'C0038952', ['acty'], 0.0)||('in', '', '', '', 0.0)||('coronary heart disease', 'noun', 'C0010068', ['dsyn'], 0.0)||('patients', 'noun', 'C0030705', ['podg'], 0.0)||('.', '', '', '', 0.0)||
