('in', '', '', '', 0.0)||('patients', 'noun', 'C0030705', ['podg'], 0.0)||('with', '', '', '', 0.0)||('coronary heart disease', 'noun', 'C0010068', ['dsyn'], 0.0)||('and', '', '', '', 0.0)||('a', '', '', '', 0.0)||('broad', 'adj', 'C0332464', ['spco'], 0.0)||('range', 'noun', 'C1514721', ['qnco'], 0.0)||('of', '', '', '', 0.0)||('cholesterol levels', '', '', '', 0.0)||(',', '', '', '', 0.0)||('cholesterol', 'noun', 'C0008377', ['bacs', 'strd'], 0.0)||('-', '', '', '', 0.0)||('lowering', 'adj', 'C2003888', ['ftcn'], 0.0)||('therapy', 'noun', 'C0039798', ['ftcn'], 0.0)||('reduces', '', '', '', 0.0)||('the', '', '', '', 0.0)||('risk', 'noun', 'C0035647', ['qlco'], 0.0)||('of', '', '', '', 0.0)||('coronary', 'adj', 'C0018787', ['bpoc'], 0.0)||('events', 'noun', 'C0441471', ['evnt'], 0.0)||(',', '', '', '', 0.0)||('but', '', '', '', 0.0)||('the', '', '', '', 0.0)||('effects', '', '', '', 0.0)||('on', '', '', '', 0.0)||('mortality', 'noun', 'C0026565', ['qnco'], 0.0)||('from', '', '', '', 0.0)||('coronary heart disease', 'noun', 'C0010068', ['dsyn'], 0.0)||('and', '', '', '', 0.0)||('overall', 'adj', 'C0282416', ['inpr'], 0.0)||('mortality', 'noun', 'C0026565', ['qnco'], 0.0)||('have', '', '', '', 0.0)||('remained', '', '', '', 0.0)||('uncertain', 'adj', 'C0087130', ['idcn'], 0.0)||('.', '', '', '', 0.0)||
('in', '', '', '', 0.0)||('a', '', '', '', 0.0)||('double - blind', '', '', '', 0.0)||(',', '', '', '', 0.0)||('randomized', 'adj', 'C0034656', ['resa'], 0.0)||('trial', 'noun', 'C0008976', ['resa'], 0.0)||(',', '', '', '', 0.0)||('we', '', '', '', 0.0)||('compared', 'verb', 'C1707455', ['acty'], 0.0)||('the', '', '', '', 0.0)||('effects', '', '', '', 0.0)||('of', '', '', '', 0.0)||('pravastatin', 'noun', 'C0085542', ['orch', 'phsu'], 0.0)||('(', '', '', '', 0.0)||('40', '', '', '', 0.0)||('mg', '', '', '', 0.0)||('daily', 'adv', 'C0332173', ['tmco'], 0.0)||(')', '', '', '', 0.0)||('with', '', '', '', 0.0)||('those', '', '', '', 0.0)||('of', '', '', '', 0.0)||('a', '', '', '', 0.0)||('placebo', 'noun', 'C0032042', ['topp'], 0.0)||('over', '', '', '', 0.0)||('a', '', '', '', 0.0)||('mean follow - up period', '', '', '', 0.0)||('of', '', '', '', 0.0)||('6 . 1', '', '', '', 0.0)||('years', 'noun', 'C0439234', ['tmco'], 0.0)||('in', '', '', '', 0.0)||('9014', '', '', '', 0.0)||('patients', 'noun', 'C0030705', ['podg'], 0.0)||('who', '', '', '', 0.0)||('were', '', '', '', 0.0)||('31', '', '', '', 0.0)||('to', '', '', '', 0.0)||('75', '', '', '', 0.0)||('years', 'noun', 'C0439234', ['tmco'], 0.0)||('of', '', '', '', 0.0)||('age', 'noun', 'C0001779', ['orga'], 0.0)||('.', '', '', '', 0.0)||
('the', '', '', '', 0.0)||('patients', 'noun', 'C0030705', ['podg'], 0.0)||('had', '', '', '', 0.0)||('a', '', '', '', 0.0)||('history', 'noun', 'C0019664', ['ocdi'], 0.0)||('of', '', '', '', 0.0)||('myocardial infarction', 'noun', 'C0027051', ['dsyn'], 0.0)||('or', '', '', '', 0.0)||('hospitalization', '', '', '', 0.0)||('for', '', '', '', 0.0)||('unstable angina', '', '', '', 0.0)||('and', '', '', '', 0.0)||('initial', 'adj', 'C0205265', ['tmco'], 0.0)||('plasma total cholesterol levels', '', '', '', 0.0)||('of', '', '', '', 0.0)||('155', '', '', '', 0.0)||('to', '', '', '', 0.0)||('271', '', '', '', 0.0)||('mg', '', '', '', 0.0)||('per', '', '', '', 0.0)||('deciliter', 'noun', 'C0439241', ['qnco'], 0.0)||('.', '', '', '', 0.0)||
('both', '', '', '', 0.0)||('groups', 'verb', 'C0441833', ['idcn'], 0.0)||('received', 'adj', 'C1514756', ['qlco'], 0.0)||('advice', 'noun', 'C0150600', ['hlca'], 0.0)||('on', '', '', '', 0.0)||('following', '', '', '', 0.0)||('a', '', '', '', 0.0)||('cholesterol', 'noun', 'C0008377', ['bacs', 'strd'], 0.0)||('-', '', '', '', 0.0)||('lowering', 'adj', 'C2003888', ['ftcn'], 0.0)||('diet', 'noun', 'C0012155', ['food'], 0.0)||('.', '', '', '', 0.0)||
('the', '', '', '', 0.0)||('primary', 'adj', 'C0205225', ['qlco'], 0.0)||('study', 'noun', 'C0008976', ['resa'], 0.0)||('outcome', 'noun', 'C1274040', ['ftcn'], 0.0)||('was', '', '', '', 0.0)||('mortality', 'noun', 'C0026565', ['qnco'], 0.0)||('from', '', '', '', 0.0)||('coronary heart disease', 'noun', 'C0010068', ['dsyn'], 0.0)||('.', '', '', '', 0.0)||
('death', 'noun', 'C0011065', ['orgf'], 0.0)||('from', '', '', '', 0.0)||('coronary heart disease', 'noun', 'C0010068', ['dsyn'], 0.0)||('occurred', 'verb', 'C1709305', ['cnce'], 0.0)||('in', '', '', '', 0.0)||('8 . 3', '', '', '', 0.0)||('percent', 'noun', 'C0439165', ['qnco'], 0.0)||('of', '', '', '', 0.0)||('the', '', '', '', 0.0)||('patients', 'noun', 'C0030705', ['podg'], 0.0)||('in', '', '', '', 0.0)||('the', '', '', '', 0.0)||('placebo', 'noun', 'C0032042', ['topp'], 0.0)||('group', 'noun', 'C0441833', ['idcn'], 0.0)||('and', '', '', '', 0.0)||('6 . 4', '', '', '', 0.0)||('percent', 'noun', 'C0439165', ['qnco'], 0.0)||('of', '', '', '', 0.0)||('those', '', '', '', 0.0)||('in', '', '', '', 0.0)||('the', '', '', '', 0.0)||('pravastatin', 'noun', 'C0085542', ['orch', 'phsu'], 0.0)||('group', 'noun', 'C0441833', ['idcn'], 0.0)||(',', '', '', '', 0.0)||('a', '', '', '', 0.0)||('relative', 'adj', 'C0080103', ['famg'], 0.0)||('reduction', 'noun', 'C0301630', ['npop'], 0.0)||('in', '', '', '', 0.0)||('risk', 'noun', 'C0035647', ['qlco'], 0.0)||('of', '', '', '', 0.0)||('24', '', '', '', 0.0)||('percent', 'noun', 'C0439165', ['qnco'], 0.0)||('(', '', '', '', 0.0)||('95', '', '', '', 0.0)||('percent', 'noun', 'C0439165', ['qnco'], 0.0)||('confidence interval', 'noun', 'C0009667', ['qnco'], 0.0)||(',', '', '', '', 0.0)||('12', '', '', '', 0.0)||('to', '', '', '', 0.0)||('35', '', '', '', 0.0)||('percent', 'noun', 'C0439165', ['qnco'], 0.0)||(';', '', '', '', 0.0)||('p', '', '', '', 0.0)||('<', '', '', '', 0.0)||('0 . 001', '', '', '', 0.0)||(')', '', '', '', 0.0)||('.', '', '', '', 0.0)||
('overall', 'adj', 'C0282416', ['inpr'], 0.0)||('mortality', 'noun', 'C0026565', ['qnco'], 0.0)||('was', '', '', '', 0.0)||('14 . 1', '', '', '', 0.0)||('percent', 'noun', 'C0439165', ['qnco'], 0.0)||('in', '', '', '', 0.0)||('the', '', '', '', 0.0)||('placebo', 'noun', 'C0032042', ['topp'], 0.0)||('group', 'noun', 'C0441833', ['idcn'], 0.0)||('and', '', '', '', 0.0)||('11 . 0', '', '', '', 0.0)||('percent', 'noun', 'C0439165', ['qnco'], 0.0)||('in', '', '', '', 0.0)||('the', '', '', '', 0.0)||('pravastatin', 'noun', 'C0085542', ['orch', 'phsu'], 0.0)||('group', 'noun', 'C0441833', ['idcn'], 0.0)||('(', '', '', '', 0.0)||('relative', 'adj', 'C0080103', ['famg'], 0.0)||('reduction', 'noun', 'C0301630', ['npop'], 0.0)||('in', '', '', '', 0.0)||('risk', 'noun', 'C0035647', ['qlco'], 0.0)||(',', '', '', '', 0.0)||('22', '', '', '', 0.0)||('percent', 'noun', 'C0439165', ['qnco'], 0.0)||(';', '', '', '', 0.0)||('95', '', '', '', 0.0)||('percent', 'noun', 'C0439165', ['qnco'], 0.0)||('confidence interval', 'noun', 'C0009667', ['qnco'], 0.0)||(',', '', '', '', 0.0)||('13', '', '', '', 0.0)||('to', '', '', '', 0.0)||('31', '', '', '', 0.0)||('percent', 'noun', 'C0439165', ['qnco'], 0.0)||(';', '', '', '', 0.0)||('p', '', '', '', 0.0)||('<', '', '', '', 0.0)||('0 . 001', '', '', '', 0.0)||(')', '', '', '', 0.0)||('.', '', '', '', 0.0)||
('the', '', '', '', 0.0)||('incidence', 'noun', 'C0021149', ['qnco'], 0.0)||('of', '', '', '', 0.0)||('all', '', '', '', 0.0)||('cardiovascular', 'adj', 'C0007226', ['bdsy'], 0.0)||('outcomes', 'noun', 'C0085415', ['qlco'], 0.0)||('was', '', '', '', 0.0)||('consistently', '', '', '', 0.0)||('lower', 'adj', 'C0441994', ['ftcn'], 0.0)||('among', '', '', '', 0.0)||('patients', 'noun', 'C0030705', ['podg'], 0.0)||('assigned', 'verb', 'C1516050', ['ftcn'], 0.0)||('to', '', '', '', 0.0)||('receive', 'verb', 'C1514756', ['qlco'], 0.0)||('pravastatin', 'noun', 'C0085542', ['orch', 'phsu'], 0.0)||(';', '', '', '', 0.0)||
('these', '', '', '', 0.0)||('outcomes', 'noun', 'C0085415', ['qlco'], 0.0)||('included', '', '', '', 0.0)||('myocardial infarction', 'noun', 'C0027051', ['dsyn'], 0.0)||('(', '', '', '', 0.0)||('reduction', 'noun', 'C0301630', ['npop'], 0.0)||('in', '', '', '', 0.0)||('risk', 'noun', 'C0035647', ['qlco'], 0.0)||(',', '', '', '', 0.0)||('29', '', '', '', 0.0)||('percent', 'noun', 'C0439165', ['qnco'], 0.0)||(';', '', '', '', 0.0)||('p', '', '', '', 0.0)||('<', '', '', '', 0.0)||('0 . 001', '', '', '', 0.0)||(')', '', '', '', 0.0)||(',', '', '', '', 0.0)||('death', 'noun', 'C0011065', ['orgf'], 0.0)||('from', '', '', '', 0.0)||('coronary heart disease', 'noun', 'C0010068', ['dsyn'], 0.0)||('or', '', '', '', 0.0)||('nonfatal', '', '', '', 0.0)||('myocardial infarction', 'noun', 'C0027051', ['dsyn'], 0.0)||('(', '', '', '', 0.0)||('a', '', '', '', 0.0)||('24', '', '', '', 0.0)||('percent', 'noun', 'C0439165', ['qnco'], 0.0)||('reduction', 'noun', 'C0301630', ['npop'], 0.0)||('in', '', '', '', 0.0)||('risk', 'noun', 'C0035647', ['qlco'], 0.0)||(',', '', '', '', 0.0)||('p', '', '', '', 0.0)||('<', '', '', '', 0.0)||('0 . 001', '', '', '', 0.0)||(')', '', '', '', 0.0)||(',', '', '', '', 0.0)||('stroke', 'noun', 'C0038454', ['dsyn'], 0.0)||('(', '', '', '', 0.0)||('a', '', '', '', 0.0)||('19', '', '', '', 0.0)||('percent', 'noun', 'C0439165', ['qnco'], 0.0)||('reduction', 'noun', 'C0301630', ['npop'], 0.0)||('in', '', '', '', 0.0)||('risk', 'noun', 'C0035647', ['qlco'], 0.0)||(',', '', '', '', 0.0)||('p', '', '', '', 0.0)||('=', '', '', '', 0.0)||('0 . 048', '', '', '', 0.0)||(')', '', '', '', 0.0)||(',', '', '', '', 0.0)||('and', '', '', '', 0.0)||('coronary', 'adj', 'C0018787', ['bpoc'], 0.0)||('revascularization', '', '', '', 0.0)||('(', '', '', '', 0.0)||('a', '', '', '', 0.0)||('20', '', '', '', 0.0)||('percent', 'noun', 'C0439165', ['qnco'], 0.0)||('reduction', 'noun', 'C0301630', ['npop'], 0.0)||('in', '', '', '', 0.0)||('risk', 'noun', 'C0035647', ['qlco'], 0.0)||(',', '', '', '', 0.0)||('p', '', '', '', 0.0)||('<', '', '', '', 0.0)||('0 . 001', '', '', '', 0.0)||(')', '', '', '', 0.0)||('.', '', '', '', 0.0)||
('the', '', '', '', 0.0)||('effects', '', '', '', 0.0)||('of', '', '', '', 0.0)||('treatment', 'noun', 'C0039798', ['ftcn'], 0.0)||('were', '', '', '', 0.0)||('similar', 'adj', 'C2348205', ['qlco'], 0.0)||('for', '', '', '', 0.0)||('all', '', '', '', 0.0)||('predefined', '', '', '', 0.0)||('subgroups', '', '', '', 0.0)||('.', '', '', '', 0.0)||
('there', '', '', '', 0.0)||('were', '', '', '', 0.0)||('no', '', '', '', 0.0)||('clinically', '', '', '', 0.0)||('significant', 'adj', 'C0750502', ['idcn'], 0.0)||('adverse effects', 'noun', 'C0001688', ['ftcn'], 0.0)||('of', '', '', '', 0.0)||('treatment', 'noun', 'C0039798', ['ftcn'], 0.0)||('with', '', '', '', 0.0)||('pravastatin', 'noun', 'C0085542', ['orch', 'phsu'], 0.0)||('.', '', '', '', 0.0)||
('pravastatin', 'noun', 'C0085542', ['orch', 'phsu'], 0.0)||('therapy', 'noun', 'C0039798', ['ftcn'], 0.0)||('reduced', 'verb', 'C0392756', ['qlco'], 0.0)||('mortality', 'noun', 'C0026565', ['qnco'], 0.0)||('from', '', '', '', 0.0)||('coronary heart disease', 'noun', 'C0010068', ['dsyn'], 0.0)||('and', '', '', '', 0.0)||('overall', 'adj', 'C0282416', ['inpr'], 0.0)||('mortality', 'noun', 'C0026565', ['qnco'], 0.0)||(',', '', '', '', 0.0)||('as', '', '', '', 0.0)||('compared', 'verb', 'C1707455', ['acty'], 0.0)||('with', '', '', '', 0.0)||('the', '', '', '', 0.0)||('rates', '', '', '', 0.0)||('in', '', '', '', 0.0)||('the', '', '', '', 0.0)||('placebo', 'noun', 'C0032042', ['topp'], 0.0)||('group', 'noun', 'C0441833', ['idcn'], 0.0)||(',', '', '', '', 0.0)||('as well as', '', '', '', 0.0)||('the', '', '', '', 0.0)||('incidence', 'noun', 'C0021149', ['qnco'], 0.0)||('of', '', '', '', 0.0)||('all', '', '', '', 0.0)||('prespecified', '', '', '', 0.0)||('cardiovascular', 'adj', 'C0007226', ['bdsy'], 0.0)||('events', 'noun', 'C0441471', ['evnt'], 0.0)||('in', '', '', '', 0.0)||('patients', 'noun', 'C0030705', ['podg'], 0.0)||('with', '', '', '', 0.0)||('a', '', '', '', 0.0)||('history', 'noun', 'C0019664', ['ocdi'], 0.0)||('of', '', '', '', 0.0)||('myocardial infarction', 'noun', 'C0027051', ['dsyn'], 0.0)||('or', '', '', '', 0.0)||('unstable angina', '', '', '', 0.0)||('who', '', '', '', 0.0)||('had', '', '', '', 0.0)||('a', '', '', '', 0.0)||('broad', 'adj', 'C0332464', ['spco'], 0.0)||('range', 'noun', 'C1514721', ['qnco'], 0.0)||('of', '', '', '', 0.0)||('initial', 'adj', 'C0205265', ['tmco'], 0.0)||('cholesterol levels', '', '', '', 0.0)||('.', '', '', '', 0.0)||
