('the', '', '', '', 0.0)||('widespread', 'adj', 'C0205391', ['spco'], 0.0)||('use', 'noun', 'C0042153', ['ftcn'], 0.0)||('of', '', '', '', 0.0)||('sedative - hypnotics', '', '', '', 0.0)||('in', '', '', '', 0.0)||('older', '', '', '', 0.0)||('populations', 'noun', 'C0032659', ['qnco'], 0.0)||('makes', '', '', '', 0.0)||('it', '', '', '', 0.0)||('imperative', '', '', '', 0.0)||('to', '', '', '', 0.0)||('identify', '', '', '', 0.0)||('hazardous', '', '', '', 0.0)||('regimens', '', '', '', 0.0)||('that', '', '', '', 0.0)||('should', '', '', '', 0.0)||('be', '', '', '', 0.0)||('avoided', '', '', '', 0.0)||('and', '', '', '', 0.0)||('safer', '', '', '', 0.0)||('regimens', '', '', '', 0.0)||('that', '', '', '', 0.0)||('may', '', '', '', 0.0)||('be', '', '', '', 0.0)||('used', '', '', '', 0.0)||('preferentially', '', '', '', 0.0)||('by', '', '', '', 0.0)||('older', '', '', '', 0.0)||('people', 'noun', 'C0027361', ['popg'], 0.0)||('.', '', '', '', 0.0)||
('although', '', '', '', 0.0)||('benzodiazepines', 'noun', 'C0005064', ['orch', 'phsu'], 0.0)||('have', '', '', '', 0.0)||('been', '', '', '', 0.0)||('shown', '', '', '', 0.0)||('to', '', '', '', 0.0)||('increase', 'verb', 'C0442805', ['ftcn'], 0.0)||('fall', 'noun', 'C0085639', ['fndg'], 0.0)||('and', '', '', '', 0.0)||('fracture', 'noun', 'C0016658', ['inpo'], 0.0)||('risk', 'noun', 'C0035647', ['qlco'], 0.0)||(',', '', '', '', 0.0)||('zolpidem', 'noun', 'C0078839', ['orch', 'phsu'], 0.0)||(',', '', '', '', 0.0)||('a', '', '', '', 0.0)||('nonbenzodiazepine', '', '', '', 0.0)||('hypnotic', 'adj', 'C0020591', ['phsu'], 0.0)||(',', '', '', '', 0.0)||('has', '', '', '', 0.0)||('been', '', '', '', 0.0)||('advocated', '', '', '', 0.0)||('as', '', '', '', 0.0)||('a', '', '', '', 0.0)||('safer', '', '', '', 0.0)||('alternative', 'noun', 'C1523987', ['cnce'], 0.0)||('.', '', '', '', 0.0)||
('case - control study', '', '', '', 0.0)||('of', '', '', '', 0.0)||('hip', 'noun', 'C0019552', ['bpoc'], 0.0)||('fracture', 'noun', 'C0016658', ['inpo'], 0.0)||('cases', 'noun', 'C0868928', ['ftcn'], 0.0)||('and', '', '', '', 0.0)||('controls', '', '', '', 0.0)||('in', '', '', '', 0.0)||('1994', '', '', '', 0.0)||('.', '', '', '', 0.0)||
('all', '', '', '', 0.0)||('subjects', '', '', '', 0.0)||('were', '', '', '', 0.0)||('age', 'noun', 'C0001779', ['orga'], 0.0)||('65', '', '', '', 0.0)||('and', '', '', '', 0.0)||('older', '', '', '', 0.0)||('and', '', '', '', 0.0)||('enrolled', '', '', '', 0.0)||('in', '', '', '', 0.0)||('medicare', 'noun', 'C0018717', ['rnlw'], 0.0)||(',', '', '', '', 0.0)||('and', '', '', '', 0.0)||('in', '', '', '', 0.0)||('medicaid', 'noun', 'C0025071', ['gora'], 0.0)||('or', '', '', '', 0.0)||('the', '', '', '', 0.0)||('pharmaceutical', 'adj', 'C0013058', ['bodm'], 0.0)||('assistance', 'noun', 'C0018896', ['socb'], 0.0)||('to', '', '', '', 0.0)||('the', '', '', '', 0.0)||('aged', 'noun', 'C0001779', ['orga'], 0.0)||('and', '', '', '', 0.0)||('disabled', 'adj', 'C0018576', ['podg'], 0.0)||('program', 'noun', 'C1709697', ['cnce'], 0.0)||('of', '', '', '', 0.0)||('new jersey', 'noun', 'C0027971', ['geoa'], 0.0)||('.', '', '', '', 0.0)||
('cases', 'noun', 'C0868928', ['ftcn'], 0.0)||('(', '', '', '', 0.0)||('n =', '', '', '', 0.0)||('1 , 222', '', '', '', 0.0)||(')', '', '', '', 0.0)||('were', '', '', '', 0.0)||('patients', 'noun', 'C0030705', ['podg'], 0.0)||('who', '', '', '', 0.0)||('underwent', '', '', '', 0.0)||('surgical repair', 'noun', 'C0374711', ['topp'], 0.0)||('of', '', '', '', 0.0)||('a', '', '', '', 0.0)||('hip', 'noun', 'C0019552', ['bpoc'], 0.0)||('fracture', 'noun', 'C0016658', ['inpo'], 0.0)||('.', '', '', '', 0.0)||
('they', '', '', '', 0.0)||('were', '', '', '', 0.0)||('frequency', 'noun', 'C0376249', ['qnco'], 0.0)||('-', '', '', '', 0.0)||('matched', 'verb', 'C1708943', ['qlco'], 0.0)||('to', '', '', '', 0.0)||('four', '', 'C0205450', ['qnco'], 0.0)||('controls', '', '', '', 0.0)||('(', '', '', '', 0.0)||('n =', '', '', '', 0.0)||('4 , 888', '', '', '', 0.0)||(')', '', '', '', 0.0)||('based', 'verb', 'C1527178', ['ftcn'], 0.0)||('on', '', '', '', 0.0)||('age', 'noun', 'C0001779', ['orga'], 0.0)||('and', '', '', '', 0.0)||('gender', 'noun', 'C0079399', ['orga'], 0.0)||('.', '', '', '', 0.0)||
('use', 'noun', 'C0042153', ['ftcn'], 0.0)||('of', '', '', '', 0.0)||('sedative - hypnotics', '', '', '', 0.0)||('and', '', '', '', 0.0)||('other', '', '', '', 0.0)||('medications', 'noun', 'C0013227', ['phsu'], 0.0)||('was', '', '', '', 0.0)||('assessed', 'verb', 'C1516048', ['acty'], 0.0)||('in', '', '', '', 0.0)||('the', '', '', '', 0.0)||('180', '', '', '', 0.0)||('days', 'noun', 'C0439228', ['tmco'], 0.0)||('before', '', '', '', 0.0)||('the', '', '', '', 0.0)||('index', 'noun', 'C0918012', ['inpr'], 0.0)||('event', 'noun', 'C0441471', ['evnt'], 0.0)||('.', '', '', '', 0.0)||
('we', '', '', '', 0.0)||('assessed', 'verb', 'C1516048', ['acty'], 0.0)||('other', '', '', '', 0.0)||('covariates', '', '', '', 0.0)||(',', '', '', '', 0.0)||('including', '', '', '', 0.0)||('demographic', '', '', '', 0.0)||(',', '', '', '', 0.0)||('clinical', 'adj', 'C0205210', ['qlco'], 0.0)||(',', '', '', '', 0.0)||('and', '', '', '', 0.0)||('healthcare', 'noun', 'C0086388', ['hlca'], 0.0)||('utilization', 'noun', 'C0042153', ['ftcn'], 0.0)||('variables', '', '', '', 0.0)||('in', '', '', '', 0.0)||('the', '', '', '', 0.0)||('prior', 'adj', 'C0332152', ['tmco'], 0.0)||('180', '', '', '', 0.0)||('days', 'noun', 'C0439228', ['tmco'], 0.0)||('.', '', '', '', 0.0)||
('zolpidem', 'noun', 'C0078839', ['orch', 'phsu'], 0.0)||('use', 'noun', 'C0042153', ['ftcn'], 0.0)||('was', '', '', '', 0.0)||('associated', 'verb', 'C0332281', ['qlco'], 0.0)||('with', '', '', '', 0.0)||('a', '', '', '', 0.0)||('significant', 'adj', 'C0750502', ['idcn'], 0.0)||('increased risk', '', '', '', 0.0)||('of', '', '', '', 0.0)||('hip', 'noun', 'C0019552', ['bpoc'], 0.0)||('fracture', 'noun', 'C0016658', ['inpo'], 0.0)||('(', '', '', '', 0.0)||('adjusted odds ratio', '', '', '', 0.0)||('1 . 95', '', '', '', 0.0)||(';', '', '', '', 0.0)||('95 %', '', '', '', 0.0)||('confidence interval', 'noun', 'C0009667', ['qnco'], 0.0)||('=', '', '', '', 0.0)||('1 . 09', '', '', '', 0.0)||('-', '', '', '', 0.0)||('3 . 51', '', '', '', 0.0)||(')', '', '', '', 0.0)||('.', '', '', '', 0.0)||
('other', '', '', '', 0.0)||('psychotropic', '', '', '', 0.0)||('medication', '', '', '', 0.0)||('classes', 'noun', 'C0456387', ['inpr'], 0.0)||('with', '', '', '', 0.0)||('significantly', '', '', '', 0.0)||('increased risks', '', '', '', 0.0)||('included', '', '', '', 0.0)||('benzodiazepines', 'noun', 'C0005064', ['orch', 'phsu'], 0.0)||('(', '', '', '', 0.0)||('adjusted odds ratio', '', '', '', 0.0)||('1 . 46', '', '', '', 0.0)||(';', '', '', '', 0.0)||('95 %', '', '', '', 0.0)||('confidence interval', 'noun', 'C0009667', ['qnco'], 0.0)||('=', '', '', '', 0.0)||('1 . 21', '', '', '', 0.0)||('-', '', '', '', 0.0)||('1 . 76', '', '', '', 0.0)||(')', '', '', '', 0.0)||(',', '', '', '', 0.0)||('antipsychotic', '', '', '', 0.0)||('medications', 'noun', 'C0013227', ['phsu'], 0.0)||('(', '', '', '', 0.0)||('adjusted odds ratio', '', '', '', 0.0)||('1 . 61', '', '', '', 0.0)||(';', '', '', '', 0.0)||('95 %', '', '', '', 0.0)||('confidence interval', 'noun', 'C0009667', ['qnco'], 0.0)||('=', '', '', '', 0.0)||('1 . 29', '', '', '', 0.0)||('-', '', '', '', 0.0)||('2 . 01', '', '', '', 0.0)||(')', '', '', '', 0.0)||(',', '', '', '', 0.0)||('and', '', '', '', 0.0)||('antidepressants', 'noun', 'C0003289', ['phsu'], 0.0)||('(', '', '', '', 0.0)||('adjusted odds ratio', '', '', '', 0.0)||('1 . 46', '', '', '', 0.0)||(';', '', '', '', 0.0)||('95 %', '', '', '', 0.0)||('confidence interval', 'noun', 'C0009667', ['qnco'], 0.0)||('=', '', '', '', 0.0)||('1 . 22', '', '', '', 0.0)||('-', '', '', '', 0.0)||('1 . 75', '', '', '', 0.0)||(')', '', '', '', 0.0)||('.', '', '', '', 0.0)||
('in', '', '', '', 0.0)||('subanalyses', '', '', '', 0.0)||(',', '', '', '', 0.0)||('preferential', '', '', '', 0.0)||('use', 'noun', 'C0042153', ['ftcn'], 0.0)||('of', '', '', '', 0.0)||('zolpidem', 'noun', 'C0078839', ['orch', 'phsu'], 0.0)||('by', '', '', '', 0.0)||('subjects', '', '', '', 0.0)||('at', '', '', '', 0.0)||('greater', 'adj', 'C1704243', ['qnco'], 0.0)||('risk', 'noun', 'C0035647', ['qlco'], 0.0)||('of', '', '', '', 0.0)||('hip', 'noun', 'C0019552', ['bpoc'], 0.0)||('fracture', 'noun', 'C0016658', ['inpo'], 0.0)||('did', '', '', '', 0.0)||('not', 'adv', 'C1518422', ['ftcn'], 0.0)||('appear', '', '', '', 0.0)||('to', '', '', '', 0.0)||('explain', '', '', '', 0.0)||('the', '', '', '', 0.0)||('apparent', 'adj', 'C0750489', ['idcn'], 0.0)||('risk', 'noun', 'C0035647', ['qlco'], 0.0)||('of', '', '', '', 0.0)||('hip', 'noun', 'C0019552', ['bpoc'], 0.0)||('fracture', 'noun', 'C0016658', ['inpo'], 0.0)||('with', '', '', '', 0.0)||('zolpidem', 'noun', 'C0078839', ['orch', 'phsu'], 0.0)||('use', 'noun', 'C0042153', ['ftcn'], 0.0)||('.', '', '', '', 0.0)||
('use', 'noun', 'C0042153', ['ftcn'], 0.0)||('of', '', '', '', 0.0)||('zolpidem', 'noun', 'C0078839', ['orch', 'phsu'], 0.0)||('by', '', '', '', 0.0)||('older', '', '', '', 0.0)||('people', 'noun', 'C0027361', ['popg'], 0.0)||('was', '', '', '', 0.0)||('associated', 'verb', 'C0332281', ['qlco'], 0.0)||('with', '', '', '', 0.0)||('nearly', '', '', '', 0.0)||('twice', '', '', '', 0.0)||('the', '', '', '', 0.0)||('risk', 'noun', 'C0035647', ['qlco'], 0.0)||('of', '', '', '', 0.0)||('hip', 'noun', 'C0019552', ['bpoc'], 0.0)||('fracture', 'noun', 'C0016658', ['inpo'], 0.0)||(',', '', '', '', 0.0)||('even', '', '', '', 0.0)||('after', '', '', '', 0.0)||('controlling', 'noun', 'C2239193', ['phpr'], 0.0)||('for', '', '', '', 0.0)||('possible', 'adj', 'C0332149', ['qlco'], 0.0)||('demographic', '', '', '', 0.0)||('and', '', '', '', 0.0)||('clinical', 'adj', 'C0205210', ['qlco'], 0.0)||('confounders', '', '', '', 0.0)||('.', '', '', '', 0.0)||
('rather than', '', '', '', 0.0)||('being', '', '', '', 0.0)||('a', '', '', '', 0.0)||('safer', '', '', '', 0.0)||('alternative', 'noun', 'C1523987', ['cnce'], 0.0)||(',', '', '', '', 0.0)||('zolpidem', 'noun', 'C0078839', ['orch', 'phsu'], 0.0)||('may', '', '', '', 0.0)||('be', '', '', '', 0.0)||('associated', 'verb', 'C0332281', ['qlco'], 0.0)||('with', '', '', '', 0.0)||('risks', 'noun', 'C0035647', ['qlco'], 0.0)||('that', '', '', '', 0.0)||('are', '', '', '', 0.0)||('as', '', '', '', 0.0)||('great', 'adj', 'C0549177', ['qnco'], 0.0)||('as', '', '', '', 0.0)||('those', '', '', '', 0.0)||('seen', 'verb', 'C0205397', ['qlco'], 0.0)||('with', '', '', '', 0.0)||('conventional', 'adj', 'C0439858', ['qlco'], 0.0)||('benzodiazepines', 'noun', 'C0005064', ['orch', 'phsu'], 0.0)||('in', '', '', '', 0.0)||('older', '', '', '', 0.0)||('patients', 'noun', 'C0030705', ['podg'], 0.0)||('.', '', '', '', 0.0)||
