('selective iga deficiency', 'noun', 'C0162538', ['dsyn'], 0.0)||('was', '', '', '', 0.0)||('observed', 'verb', 'C1441672', ['ftcn'], 0.0)||('in', '', '', '', 0.0)||('12', '', '', '', 0.0)||('of', '', '', '', 0.0)||('688', '', '', '', 0.0)||('(', '', '', '', 0.0)||('1 . 7 %', '', '', '', 0.0)||(')', '', '', '', 0.0)||('patients', 'noun', 'C0030705', ['podg'], 0.0)||('with', '', '', '', 0.0)||('celiac disease', 'noun', 'C0007570', ['dsyn'], 0.0)||('who', '', '', '', 0.0)||('were', '', '', '', 0.0)||('clinically', '', '', '', 0.0)||('undistinguishable', '', '', '', 0.0)||('from', '', '', '', 0.0)||('patients', 'noun', 'C0030705', ['podg'], 0.0)||('with', '', '', '', 0.0)||('celiac disease', 'noun', 'C0007570', ['dsyn'], 0.0)||('with', '', '', '', 0.0)||('normal', 'adj', 'C0205307', ['qlco'], 0.0)||('iga', 'noun', 'C1413238', ['gngm'], 0.0)||('levels', 'noun', 'C0441889', ['qlco'], 0.0)||('.', '', '', '', 0.0)||
('this', '', '', '', 0.0)||('high', 'adj', 'C0205250', ['qlco'], 0.0)||('prevalence', 'noun', 'C0033105', ['qnco'], 0.0)||('of', '', '', '', 0.0)||('iga deficiency', 'noun', 'C0162538', ['dsyn'], 0.0)||('in', '', '', '', 0.0)||('patients', 'noun', 'C0030705', ['podg'], 0.0)||('with', '', '', '', 0.0)||('celiac disease', 'noun', 'C0007570', ['dsyn'], 0.0)||('makes', '', '', '', 0.0)||('serum', 'noun', 'C0229671', ['bdsu'], 0.0)||('iga', 'noun', 'C1413238', ['gngm'], 0.0)||('assay', 'verb', 'C0005507', ['lbpr'], 0.0)||('advisable', '', '', '', 0.0)||('when', '', '', '', 0.0)||('screening', 'verb', 'C0220908', ['hlca'], 0.0)||('for', '', '', '', 0.0)||('celiac disease', 'noun', 'C0007570', ['dsyn'], 0.0)||('is', '', '', '', 0.0)||('performed', 'verb', 'C0884358', ['ftcn'], 0.0)||('by', '', '', '', 0.0)||('measurement', 'noun', 'C0242485', ['ftcn'], 0.0)||('of', '', '', '', 0.0)||('antigliadin', '', '', '', 0.0)||('antibodies', 'noun', 'C0003241', ['aapp', 'imft'], 0.0)||('or', '', '', '', 0.0)||('anti', '', '', '', 0.0)||('-', '', '', '', 0.0)||('iga', 'noun', 'C1413238', ['gngm'], 0.0)||('endomysium', 'noun', 'C0504097', ['tisu'], 0.0)||('antibodies', 'noun', 'C0003241', ['aapp', 'imft'], 0.0)||('.', '', '', '', 0.0)||
('similarly', '', '', '', 0.0)||(',', '', '', '', 0.0)||('subjects', '', '', '', 0.0)||('with', '', '', '', 0.0)||('iga deficiency', 'noun', 'C0162538', ['dsyn'], 0.0)||('should', '', '', '', 0.0)||('be', '', '', '', 0.0)||('considered', '', '', '', 0.0)||('at risk', '', '', '', 0.0)||('of', '', '', '', 0.0)||('celiac disease', 'noun', 'C0007570', ['dsyn'], 0.0)||('.', '', '', '', 0.0)||
