('in', '', '', '', 0.0)||('a', '', '', '', 0.0)||('systematic review', '', '', '', 0.0)||(',', '', '', '', 0.0)||('there', '', '', '', 0.0)||('was', '', '', '', 0.0)||('no', '', '', '', 0.0)||('statistically significant', 'adj', 'C0237881', ['qnco'], 0.0)||('difference', 'noun', 'C1705242', ['qlco'], 0.0)||('between', '', '', '', 0.0)||('iga', 'noun', 'C1413238', ['gngm'], 0.0)||('ema', '', '', '', 0.0)||('and', '', '', '', 0.0)||('iga', 'noun', 'C1413238', ['gngm'], 0.0)||('ttg', '', '', '', 0.0)||('-', '', '', '', 0.0)||('both', '', '', '', 0.0)||('had', '', '', '', 0.0)||('sensitivities', 'noun', 'C0427965', ['fndg'], 0.0)||('greater', 'adj', 'C1704243', ['qnco'], 0.0)||('than', '', '', '', 0.0)||('90 %', '', '', '', 0.0)||('and', '', '', '', 0.0)||('specificities', '', '', '', 0.0)||('greater', 'adj', 'C1704243', ['qnco'], 0.0)||('than', '', '', '', 0.0)||('95 %', '', '', '', 0.0)||('.', '', '', '', 0.0)||
('iga', 'noun', 'C1413238', ['gngm'], 0.0)||('aga', '', '', '', 0.0)||('did', '', '', '', 0.0)||('not', 'adv', 'C1518422', ['ftcn'], 0.0)||('perform', '', '', '', 0.0)||('as', '', '', '', 0.0)||('well', 'adj', 'C0205170', ['qlco'], 0.0)||('(', '', '', '', 0.0)||('sensitivity', 'noun', 'C0036667', ['qnco'], 0.0)||('80 %', '', '', '', 0.0)||('-', '', '', '', 0.0)||('90 %', '', '', '', 0.0)||(',', '', '', '', 0.0)||('specificity', 'noun', 'C0037791', ['qnco'], 0.0)||('85 %', '', '', '', 0.0)||('-', '', '', '', 0.0)||('95 %', '', '', '', 0.0)||(')', '', '', '', 0.0)||('.', '', '', '', 0.0)||
('igg', '', '', '', 0.0)||('ttg', '', '', '', 0.0)||('and', '', '', '', 0.0)||('igg', '', '', '', 0.0)||('ema', '', '', '', 0.0)||('had', '', '', '', 0.0)||('specificities', '', '', '', 0.0)||('of', '', '', '', 0.0)||('95 %', '', '', '', 0.0)||('but', '', '', '', 0.0)||('sensitivities', 'noun', 'C0427965', ['fndg'], 0.0)||('of', '', '', '', 0.0)||('only', '', '', '', 0.0)||('40 %', '', '', '', 0.0)||('.', '', '', '', 0.0)||
