('topical', 'adj', 'C0205530', ['spco'], 0.0)||('fluoride', 'noun', 'C0016327', ['inch', 'phsu'], 0.0)||('therapy', 'noun', 'C0039798', ['ftcn'], 0.0)||('in', '', '', '', 0.0)||('the', '', '', '', 0.0)||('form', 'noun', 'C0013058', ['bodm'], 0.0)||('of', '', '', '', 0.0)||('varnish', 'noun', 'C0042359', ['mnob'], 0.0)||(',', '', '', '', 0.0)||('gel', 'noun', 'C0017243', ['bodm'], 0.0)||(',', '', '', '', 0.0)||('mouthrinse', '', '', '', 0.0)||('or', '', '', '', 0.0)||('toothpaste', 'noun', 'C0040462', ['bodm'], 0.0)||('has', '', '', '', 0.0)||('been', '', '', '', 0.0)||('used', '', '', '', 0.0)||('extensively', '', '', '', 0.0)||('as', '', '', '', 0.0)||('a', '', '', '', 0.0)||('caries', 'noun', 'C0011334', ['dsyn'], 0.0)||('-', '', '', '', 0.0)||('preventive', 'adj', 'C1456501', ['qlco'], 0.0)||('intervention', 'noun', 'C1273869', ['hlca'], 0.0)||('for', '', '', '', 0.0)||('over', 'adv', 'C0205136', ['spco'], 0.0)||('three', '', 'C0205449', ['qnco'], 0.0)||('decades', '', '', '', 0.0)||('.', '', '', '', 0.0)||
('to', '', '', '', 0.0)||('determine', '', '', '', 0.0)||('the', '', '', '', 0.0)||('effectiveness', 'noun', 'C1280519', ['qlco'], 0.0)||('and', '', '', '', 0.0)||('safety', 'noun', 'C0036043', ['hcpp'], 0.0)||('of', '', '', '', 0.0)||('fluoride', 'noun', 'C0016327', ['inch', 'phsu'], 0.0)||('varnishes', '', '', '', 0.0)||(',', '', '', '', 0.0)||('gels', 'noun', 'C0017243', ['bodm'], 0.0)||(',', '', '', '', 0.0)||('mouthrinses', '', '', '', 0.0)||(',', '', '', '', 0.0)||('and', '', '', '', 0.0)||('toothpastes', 'verb', 'C0040462', ['bodm'], 0.0)||('in', '', '', '', 0.0)||('the', '', '', '', 0.0)||('prevention', 'noun', 'C0199176', ['topp'], 0.0)||('of', '', '', '', 0.0)||('dental caries', 'noun', 'C0011334', ['dsyn'], 0.0)||('in', '', '', '', 0.0)||('children', 'noun', 'C0008059', ['aggp'], 0.0)||('and', '', '', '', 0.0)||('to', '', '', '', 0.0)||('examine', '', '', '', 0.0)||('factors', '', '', '', 0.0)||('potentially', '', '', '', 0.0)||('modifying', '', '', '', 0.0)||('their', '', '', '', 0.0)||('effect', 'noun', 'C1280500', ['qlco'], 0.0)||('.', '', '', '', 0.0)||
('we', '', '', '', 0.0)||('searched', 'verb', 'C1706202', ['acty'], 0.0)||('the', '', '', '', 0.0)||('cochrane', '', '', '', 0.0)||('oral', 'adj', 'C0442027', ['spco'], 0.0)||('health', 'noun', 'C0018684', ['idcn'], 0.0)||('group', 'noun', 'C0441833', ['idcn'], 0.0)||("' s", '', '', '', 0.0)||('trials', '', '', '', 0.0)||('register', '', '', '', 0.0)||('(', '', '', '', 0.0)||('may', '', '', '', 0.0)||('2000', '', '', '', 0.0)||(')', '', '', '', 0.0)||(',', '', '', '', 0.0)||('central', 'adj', 'C0205099', ['spco'], 0.0)||('(', '', '', '', 0.0)||('the', '', '', '', 0.0)||('cochrane', '', '', '', 0.0)||('library', 'noun', 'C0023621', ['mnob', 'orgt'], 0.0)||('issue', 'noun', 'C0033213', ['fndg'], 0.0)||('2', '', '', '', 0.0)||(',', '', '', '', 0.0)||('2000', '', '', '', 0.0)||(')', '', '', '', 0.0)||(',', '', '', '', 0.0)||('medline', 'noun', 'C0025141', ['inpr'], 0.0)||('(', '', '', '', 0.0)||('1966', '', '', '', 0.0)||('to', '', '', '', 0.0)||('january', '', '', '', 0.0)||('2000', '', '', '', 0.0)||(')', '', '', '', 0.0)||(',', '', '', '', 0.0)||('plus', '', '', '', 0.0)||('several', '', '', '', 0.0)||('other', '', '', '', 0.0)||('databases', 'noun', 'C0242356', ['inpr'], 0.0)||('.', '', '', '', 0.0)||
('we', '', '', '', 0.0)||('handsearched', '', '', '', 0.0)||('journals', '', '', '', 0.0)||(',', '', '', '', 0.0)||('reference', 'noun', 'C1514811', ['idcn'], 0.0)||('lists', '', '', '', 0.0)||('of', '', '', '', 0.0)||('articles', '', '', '', 0.0)||('and', '', '', '', 0.0)||('contacted', '', '', '', 0.0)||('selected', '', '', '', 0.0)||('authors', 'noun', 'C0341628', ['prog'], 0.0)||('and', '', '', '', 0.0)||('manufacturers', '', '', '', 0.0)||('.', '', '', '', 0.0)||
('randomized', 'verb', 'C0034656', ['resa'], 0.0)||('or', '', '', '', 0.0)||('quasi - randomized controlled trials', '', '', '', 0.0)||('with', '', '', '', 0.0)||('blind', 'adj', 'C0150108', ['resa'], 0.0)||('outcome', 'noun', 'C1274040', ['ftcn'], 0.0)||('assessment', 'noun', 'C1261322', ['hlca'], 0.0)||(',', '', '', '', 0.0)||('comparing', '', '', '', 0.0)||('fluoride', 'noun', 'C0016327', ['inch', 'phsu'], 0.0)||('varnish', 'noun', 'C0042359', ['mnob'], 0.0)||(',', '', '', '', 0.0)||('gel', 'noun', 'C0017243', ['bodm'], 0.0)||(',', '', '', '', 0.0)||('mouthrinse', '', '', '', 0.0)||(',', '', '', '', 0.0)||('or', '', '', '', 0.0)||('toothpaste', 'verb', 'C0040462', ['bodm'], 0.0)||('with', '', '', '', 0.0)||('placebo', 'noun', 'C0032042', ['topp'], 0.0)||('or', '', '', '', 0.0)||('no', '', '', '', 0.0)||('treatment', 'noun', 'C0039798', ['ftcn'], 0.0)||('in', '', '', '', 0.0)||('children', 'noun', 'C0008059', ['aggp'], 0.0)||('up to', '', '', '', 0.0)||('16', '', '', '', 0.0)||('years', 'noun', 'C0439234', ['tmco'], 0.0)||('during', '', '', '', 0.0)||('at', '', '', '', 0.0)||('least', '', '', '', 0.0)||('1', '', '', '', 0.0)||('year', 'noun', 'C0439234', ['tmco'], 0.0)||('.', '', '', '', 0.0)||
('the', '', '', '', 0.0)||('main', 'adj', 'C0205225', ['qlco'], 0.0)||('outcome', 'noun', 'C1274040', ['ftcn'], 0.0)||('was', '', '', '', 0.0)||('caries', 'noun', 'C0011334', ['dsyn'], 0.0)||('increment', 'noun', 'C1705117', ['qnco'], 0.0)||('measured', 'verb', 'C0444706', ['qlco'], 0.0)||('by', '', '', '', 0.0)||('the', '', '', '', 0.0)||('change', 'noun', 'C0392747', ['ftcn'], 0.0)||('in', '', '', '', 0.0)||('decayed', '', '', '', 0.0)||(',', '', '', '', 0.0)||('missing', 'verb', 'C1551393', ['idcn'], 0.0)||('and', '', '', '', 0.0)||('filled', 'adj', 'C1708059', ['acty'], 0.0)||('tooth', 'noun', 'C0040426', ['bpoc'], 0.0)||('surfaces', '', '', '', 0.0)||('.', '', '', '', 0.0)||
('inclusion', 'noun', 'C1512693', ['qlco'], 0.0)||('decisions', '', '', '', 0.0)||(',', '', '', '', 0.0)||('quality', 'noun', 'C0332306', ['qlco'], 0.0)||('assessment', 'noun', 'C1261322', ['hlca'], 0.0)||('and', '', '', '', 0.0)||('data', 'noun', 'C1511726', ['idcn'], 0.0)||('extraction', 'noun', 'C0185115', ['topp'], 0.0)||('were', '', '', '', 0.0)||('duplicated', 'verb', 'C0332597', ['ftcn'], 0.0)||('in', '', '', '', 0.0)||('a', '', '', '', 0.0)||('random sample', 'noun', 'C0150105', ['resa'], 0.0)||('of', '', '', '', 0.0)||('one', 'noun', 'C0205447', ['qnco'], 0.0)||('third', 'noun', 'C0205437', ['qnco'], 0.0)||('of', '', '', '', 0.0)||('studies', '', '', '', 0.0)||(',', '', '', '', 0.0)||('and', '', '', '', 0.0)||('consensus', 'noun', 'C0376298', ['socb'], 0.0)||('achieved', '', '', '', 0.0)||('by', '', '', '', 0.0)||('discussion', 'noun', 'C0557061', ['topp'], 0.0)||('or', '', '', '', 0.0)||('a', '', '', '', 0.0)||('third party', 'adj', 'C1698594', ['inpr'], 0.0)||('.', '', '', '', 0.0)||
('authors', 'noun', 'C0341628', ['prog'], 0.0)||('were', '', '', '', 0.0)||('contacted', '', '', '', 0.0)||('for', '', '', '', 0.0)||('missing', 'adj', 'C1551393', ['idcn'], 0.0)||('data', 'noun', 'C1511726', ['idcn'], 0.0)||('.', '', '', '', 0.0)||
('the', '', '', '', 0.0)||('primary', 'adj', 'C0205225', ['qlco'], 0.0)||('measure', 'noun', 'C0079809', ['qnco'], 0.0)||('of', '', '', '', 0.0)||('effect', 'noun', 'C1280500', ['qlco'], 0.0)||('was', '', '', '', 0.0)||('the', '', '', '', 0.0)||('prevented', '', '', '', 0.0)||('fraction', 'noun', 'C1264633', ['qnco'], 0.0)||('that', '', '', '', 0.0)||('is', '', '', '', 0.0)||('the', '', '', '', 0.0)||('difference', 'noun', 'C1705242', ['qlco'], 0.0)||('in', '', '', '', 0.0)||('mean', 'noun', 'C0444504', ['qnco'], 0.0)||('caries', 'noun', 'C0011334', ['dsyn'], 0.0)||('increments', '', '', '', 0.0)||('between', '', '', '', 0.0)||('the', '', '', '', 0.0)||('treatment', 'noun', 'C0039798', ['ftcn'], 0.0)||('and', '', '', '', 0.0)||('control groups', 'noun', 'C0009932', ['grup'], 0.0)||('expressed', '', '', '', 0.0)||('as', '', '', '', 0.0)||('a', '', '', '', 0.0)||('percentage', 'noun', 'C0439165', ['qnco'], 0.0)||('of', '', '', '', 0.0)||('the', '', '', '', 0.0)||('mean', 'noun', 'C0444504', ['qnco'], 0.0)||('increment', 'noun', 'C1705117', ['qnco'], 0.0)||('in', '', '', '', 0.0)||('the', '', '', '', 0.0)||('control group', 'noun', 'C0009932', ['grup'], 0.0)||('.', '', '', '', 0.0)||
('random', 'adj', 'C0034656', ['resa'], 0.0)||('effects', '', '', '', 0.0)||('meta - analyses', '', '', '', 0.0)||('were', '', '', '', 0.0)||('performed', 'verb', 'C0884358', ['ftcn'], 0.0)||('where', '', '', '', 0.0)||('data', 'noun', 'C1511726', ['idcn'], 0.0)||('could', '', '', '', 0.0)||('be', '', '', '', 0.0)||('pooled', 'verb', 'C1709595', ['cnce'], 0.0)||('.', '', '', '', 0.0)||
('potential', 'adj', 'C0035647', ['qlco'], 0.0)||('sources', '', '', '', 0.0)||('of', '', '', '', 0.0)||('heterogeneity', 'noun', 'C0019409', ['qlco'], 0.0)||('were', '', '', '', 0.0)||('examined', 'verb', 'C0332128', ['fndg'], 0.0)||('in', '', '', '', 0.0)||('random', 'adj', 'C0034656', ['resa'], 0.0)||('effects', '', '', '', 0.0)||('metaregression', '', '', '', 0.0)||('analyses', '', '', '', 0.0)||('.', '', '', '', 0.0)||
('there', '', '', '', 0.0)||('were', '', '', '', 0.0)||('144', '', '', '', 0.0)||('studies', '', '', '', 0.0)||('included', '', '', '', 0.0)||('.', '', '', '', 0.0)||
('for', '', '', '', 0.0)||('the', '', '', '', 0.0)||('133', '', '', '', 0.0)||('that', '', '', '', 0.0)||('contributed', '', '', '', 0.0)||('data', 'noun', 'C1511726', ['idcn'], 0.0)||('for', '', '', '', 0.0)||('meta - analysis', '', '', '', 0.0)||('(', '', '', '', 0.0)||('involving', 'verb', 'C1314939', ['ftcn'], 0.0)||('65 , 169', '', '', '', 0.0)||('children', 'noun', 'C0008059', ['aggp'], 0.0)||(')', '', '', '', 0.0)||('the', '', '', '', 0.0)||('d (', '', '', '', 0.0)||('m )', '', '', '', 0.0)||('fs', '', '', '', 0.0)||('pooled', 'verb', 'C1709595', ['cnce'], 0.0)||('prevented', '', '', '', 0.0)||('fraction', 'noun', 'C1264633', ['qnco'], 0.0)||('estimate', 'noun', 'C0750572', ['qnco'], 0.0)||('was', '', '', '', 0.0)||('26 %', '', '', '', 0.0)||('(', '', '', '', 0.0)||('95 %', '', '', '', 0.0)||('ci', 'noun', 'C1417638', ['gngm'], 0.0)||(',', '', '', '', 0.0)||('24 %', '', '', '', 0.0)||('to', '', '', '', 0.0)||('29 %', '', '', '', 0.0)||(';', '', '', '', 0.0)||('p', '', '', '', 0.0)||('<', '', '', '', 0.0)||('0 . 0001', '', '', '', 0.0)||(')', '', '', '', 0.0)||('.', '', '', '', 0.0)||
('there', '', '', '', 0.0)||('was', '', '', '', 0.0)||('substantial', '', '', '', 0.0)||('heterogeneity', 'noun', 'C0019409', ['qlco'], 0.0)||(',', '', '', '', 0.0)||('confirmed', 'verb', 'C0750484', ['idcn'], 0.0)||('statistically', 'adv', 'C0038215', ['ocdi'], 0.0)||('(', '', '', '', 0.0)||('p', '', '', '', 0.0)||('<', '', '', '', 0.0)||('0 . 0001', '', '', '', 0.0)||(')', '', '', '', 0.0)||(',', '', '', '', 0.0)||('but', '', '', '', 0.0)||('the', '', '', '', 0.0)||('direction', 'noun', 'C0449738', ['spco'], 0.0)||('of', '', '', '', 0.0)||('effect', 'noun', 'C1280500', ['qlco'], 0.0)||('was', '', '', '', 0.0)||('consistent', 'adj', 'C0332290', ['idcn'], 0.0)||('.', '', '', '', 0.0)||
('the', '', '', '', 0.0)||('effect', 'noun', 'C1280500', ['qlco'], 0.0)||('of', '', '', '', 0.0)||('topical', 'adj', 'C0205530', ['spco'], 0.0)||('fluoride', 'noun', 'C0016327', ['inch', 'phsu'], 0.0)||('varied', '', '', '', 0.0)||('according to', '', '', '', 0.0)||('type', 'noun', 'C0332307', ['qlco'], 0.0)||('of', '', '', '', 0.0)||('control group', 'noun', 'C0009932', ['grup'], 0.0)||('used', '', '', '', 0.0)||(',', '', '', '', 0.0)||('type', 'noun', 'C0332307', ['qlco'], 0.0)||('of', '', '', '', 0.0)||('topical', 'adj', 'C0205530', ['spco'], 0.0)||('fluoride', 'noun', 'C0016327', ['inch', 'phsu'], 0.0)||('therapy', 'noun', 'C0039798', ['ftcn'], 0.0)||('used', '', '', '', 0.0)||(',', '', '', '', 0.0)||('mode', 'noun', 'C1513371', ['ftcn'], 0.0)||('/', '', '', '', 0.0)||('setting', 'noun', 'C0542559', ['ftcn'], 0.0)||('of', '', '', '', 0.0)||('topical', 'adj', 'C0205530', ['spco'], 0.0)||('fluoride', 'noun', 'C0016327', ['inch', 'phsu'], 0.0)||('therapy', 'noun', 'C0039798', ['ftcn'], 0.0)||('use', 'noun', 'C0042153', ['ftcn'], 0.0)||(',', '', '', '', 0.0)||('initial', 'adj', 'C0205265', ['tmco'], 0.0)||('caries', 'noun', 'C0011334', ['dsyn'], 0.0)||('levels', 'noun', 'C0441889', ['qlco'], 0.0)||('and', '', '', '', 0.0)||('intensity', 'noun', 'C0522510', ['qlco'], 0.0)||('of', '', '', '', 0.0)||('topical', 'adj', 'C0205530', ['spco'], 0.0)||('fluoride', 'noun', 'C0016327', ['inch', 'phsu'], 0.0)||('therapy', 'noun', 'C0039798', ['ftcn'], 0.0)||('application', 'noun', 'C0185125', ['hlca'], 0.0)||(',', '', '', '', 0.0)||('but', '', '', '', 0.0)||('was', '', '', '', 0.0)||('not', 'adv', 'C1518422', ['ftcn'], 0.0)||('influenced', '', '', '', 0.0)||('by', '', '', '', 0.0)||('exposure', 'noun', 'C0332157', ['clna'], 0.0)||('to', '', '', '', 0.0)||('water', 'noun', 'C0043047', ['inch', 'phsu'], 0.0)||('fluoridation', 'noun', 'C0016323', ['eehu'], 0.0)||('or', '', '', '', 0.0)||('other', '', '', '', 0.0)||('fluoride', 'noun', 'C0016327', ['inch', 'phsu'], 0.0)||('sources', '', '', '', 0.0)||('.', '', '', '', 0.0)||
('d (', '', '', '', 0.0)||('m )', '', '', '', 0.0)||('fs', '', '', '', 0.0)||('prevented', '', '', '', 0.0)||('fraction', 'noun', 'C1264633', ['qnco'], 0.0)||('was', '', '', '', 0.0)||('on', '', '', '', 0.0)||('average', 'noun', 'C1510992', ['qnco'], 0.0)||('14 %', '', '', '', 0.0)||('(', '', '', '', 0.0)||('95 %', '', '', '', 0.0)||('ci', 'noun', 'C1417638', ['gngm'], 0.0)||(',', '', '', '', 0.0)||('5 %', '', '', '', 0.0)||('to', '', '', '', 0.0)||('23 %', '', '', '', 0.0)||(';', '', '', '', 0.0)||('p', '', '', '', 0.0)||('=', '', '', '', 0.0)||('0 . 002', '', '', '', 0.0)||(')', '', '', '', 0.0)||('higher', '', '', '', 0.0)||('in', '', '', '', 0.0)||('non - placebo controlled', '', '', '', 0.0)||('trials', '', '', '', 0.0)||(',', '', '', '', 0.0)||('14 %', '', '', '', 0.0)||('(', '', '', '', 0.0)||('95 %', '', '', '', 0.0)||('ci', 'noun', 'C1417638', ['gngm'], 0.0)||(',', '', '', '', 0.0)||('2 %', '', '', '', 0.0)||('to', '', '', '', 0.0)||('26 %', '', '', '', 0.0)||(';', '', '', '', 0.0)||('p', '', '', '', 0.0)||('=', '', '', '', 0.0)||('0 . 25', '', '', '', 0.0)||(')', '', '', '', 0.0)||('higher', '', '', '', 0.0)||('in', '', '', '', 0.0)||('fluoride', 'noun', 'C0016327', ['inch', 'phsu'], 0.0)||('varnish', 'noun', 'C0042359', ['mnob'], 0.0)||('trials', '', '', '', 0.0)||('compared', 'verb', 'C1707455', ['acty'], 0.0)||('with', '', '', '', 0.0)||('all', '', '', '', 0.0)||('others', 'noun', 'C1955473', ['fndg'], 0.0)||(',', '', '', '', 0.0)||('and', '', '', '', 0.0)||('10 %', '', '', '', 0.0)||('(', '', '', '', 0.0)||('95 %', '', '', '', 0.0)||('ci', 'noun', 'C1417638', ['gngm'], 0.0)||(',', '', '', '', 0.0)||('-', '', '', '', 0.0)||('17 %', '', '', '', 0.0)||('to', '', '', '', 0.0)||('-', '', '', '', 0.0)||('3 %', '', '', '', 0.0)||(';', '', '', '', 0.0)||('p', '', '', '', 0.0)||('=', '', '', '', 0.0)||('0 . 003', '', '', '', 0.0)||(')', '', '', '', 0.0)||('lower', 'adj', 'C0441994', ['ftcn'], 0.0)||('in', '', '', '', 0.0)||('trials', '', '', '', 0.0)||('of', '', '', '', 0.0)||('unsupervised', '', '', '', 0.0)||('home', 'noun', 'C0442519', ['cnce'], 0.0)||('use', 'noun', 'C0042153', ['ftcn'], 0.0)||('compared', 'verb', 'C1707455', ['acty'], 0.0)||('with', '', '', '', 0.0)||('self applied', '', '', '', 0.0)||('supervised', '', '', '', 0.0)||('and', '', '', '', 0.0)||('operator', 'noun', 'C1705273', ['inpr'], 0.0)||('-', '', '', '', 0.0)||('applied', 'verb', 'C0185125', ['hlca'], 0.0)||('.', '', '', '', 0.0)||
('there', '', '', '', 0.0)||('was', '', '', '', 0.0)||('a', '', '', '', 0.0)||('0 . 7 %', '', '', '', 0.0)||('increase', 'noun', 'C0442805', ['ftcn'], 0.0)||('in', '', '', '', 0.0)||('the', '', '', '', 0.0)||('prevented', '', '', '', 0.0)||('fraction', 'noun', 'C1264633', ['qnco'], 0.0)||('per', '', '', '', 0.0)||('unit', 'noun', 'C0439148', ['qnco'], 0.0)||('increase', 'noun', 'C0442805', ['ftcn'], 0.0)||('in', '', '', '', 0.0)||('baseline', 'noun', 'C0168634', ['bodm'], 0.0)||('caries', 'noun', 'C0011334', ['dsyn'], 0.0)||('(', '', '', '', 0.0)||('95 %', '', '', '', 0.0)||('ci', 'noun', 'C1417638', ['gngm'], 0.0)||(',', '', '', '', 0.0)||('0 . 2 %', '', '', '', 0.0)||('to', '', '', '', 0.0)||('1 . 2 %', '', '', '', 0.0)||(';', '', '', '', 0.0)||('p', '', '', '', 0.0)||('=', '', '', '', 0.0)||('0 . 004', '', '', '', 0.0)||(')', '', '', '', 0.0)||('.', '', '', '', 0.0)||
('the', '', '', '', 0.0)||('benefits', 'noun', 'C0814225', ['qnco'], 0.0)||('of', '', '', '', 0.0)||('topical', 'adj', 'C0205530', ['spco'], 0.0)||('fluorides', 'noun', 'C0016327', ['inch', 'phsu'], 0.0)||('have', '', '', '', 0.0)||('been', '', '', '', 0.0)||('firmly', 'adv', 'C1880776', ['qlco'], 0.0)||('established', 'verb', 'C0443211', ['qlco'], 0.0)||('on', '', '', '', 0.0)||('a', '', '', '', 0.0)||('sizeable', '', '', '', 0.0)||('body', 'noun', 'C0460148', ['anst'], 0.0)||('of', '', '', '', 0.0)||('evidence', 'noun', 'C0332120', ['ftcn'], 0.0)||('from', '', '', '', 0.0)||('randomized controlled trials', '', '', '', 0.0)||('.', '', '', '', 0.0)||
('while', '', '', '', 0.0)||('the', '', '', '', 0.0)||('formal', '', '', '', 0.0)||('examination', '', '', '', 0.0)||('of', '', '', '', 0.0)||('sources', '', '', '', 0.0)||('of', '', '', '', 0.0)||('heterogeneity', 'noun', 'C0019409', ['qlco'], 0.0)||('between', '', '', '', 0.0)||('studies', '', '', '', 0.0)||('has', '', '', '', 0.0)||('been', '', '', '', 0.0)||('important', '', '', '', 0.0)||('in', '', '', '', 0.0)||('the', '', '', '', 0.0)||('overall', 'adj', 'C0282416', ['inpr'], 0.0)||('conclusions', 'noun', 'C1707478', ['idcn'], 0.0)||('reached', '', '', '', 0.0)||(',', '', '', '', 0.0)||('these', '', '', '', 0.0)||('should', '', '', '', 0.0)||('be', '', '', '', 0.0)||('interpreted', '', '', '', 0.0)||('with', '', '', '', 0.0)||('caution', '', '', '', 0.0)||('.', '', '', '', 0.0)||
('we', '', '', '', 0.0)||('were', '', '', '', 0.0)||('unable', 'adj', 'C1299582', ['fndg'], 0.0)||('to', '', '', '', 0.0)||('reach', '', '', '', 0.0)||('definite', 'adj', 'C0439544', ['qlco'], 0.0)||('conclusions', 'noun', 'C1707478', ['idcn'], 0.0)||('about', '', '', '', 0.0)||('any', '', '', '', 0.0)||('adverse effects', 'noun', 'C0001688', ['ftcn'], 0.0)||('that', '', '', '', 0.0)||('might', '', '', '', 0.0)||('result', 'verb', 'C1274040', ['ftcn'], 0.0)||('from', '', '', '', 0.0)||('the', '', '', '', 0.0)||('use', 'noun', 'C0042153', ['ftcn'], 0.0)||('of', '', '', '', 0.0)||('topical', 'adj', 'C0205530', ['spco'], 0.0)||('fluorides', 'noun', 'C0016327', ['inch', 'phsu'], 0.0)||(',', '', '', '', 0.0)||('because', '', '', '', 0.0)||('data', 'noun', 'C1511726', ['idcn'], 0.0)||('reported', 'verb', 'C0684224', ['inpr'], 0.0)||('in', '', '', '', 0.0)||('the', '', '', '', 0.0)||('trials', '', '', '', 0.0)||('are', '', '', '', 0.0)||('scarce', '', '', '', 0.0)||('.', '', '', '', 0.0)||
