('this', '', '', '', 0.0)||('study', 'noun', 'C0008976', ['resa'], 0.0)||('compared', 'verb', 'C1707455', ['acty'], 0.0)||('fluorosis', 'noun', 'C0016325', ['inpo'], 0.0)||('in', '', '', '', 0.0)||('the', '', '', '', 0.0)||('upper', 'adj', 'C1282910', ['spco'], 0.0)||('central incisors', '', '', '', 0.0)||('of', '', '', '', 0.0)||('children', 'noun', 'C0008059', ['aggp'], 0.0)||('from', '', '', '', 0.0)||('socially', '', '', '', 0.0)||('diverse', 'adj', 'C1880371', ['qlco'], 0.0)||('backgrounds', '', '', '', 0.0)||('who', '', '', '', 0.0)||('had', '', '', '', 0.0)||('received', 'verb', 'C1514756', ['qlco'], 0.0)||('either', '', '', '', 0.0)||('440', '', '', '', 0.0)||('-', '', '', '', 0.0)||('or', '', '', '', 0.0)||('1 , 450', '', '', '', 0.0)||('-', '', '', '', 0.0)||('ppm', '', '', '', 0.0)||('f', '', '', '', 0.0)||('toothpaste', 'noun', 'C0040462', ['bodm'], 0.0)||('from', '', '', '', 0.0)||('12', '', '', '', 0.0)||('months', 'noun', 'C0439231', ['tmco'], 0.0)||('of', '', '', '', 0.0)||('age', 'noun', 'C0001779', ['orga'], 0.0)||('.', '', '', '', 0.0)||
('the', '', '', '', 0.0)||('children', 'noun', 'C0008059', ['aggp'], 0.0)||('were', '', '', '', 0.0)||('resident', 'adj', 'C1320928', ['prog'], 0.0)||('in', '', '', '', 0.0)||('non - fluoridated', '', '', '', 0.0)||('districts', '', '', '', 0.0)||('in', '', '', '', 0.0)||('the', '', '', '', 0.0)||('north - west', '', '', '', 0.0)||('of', '', '', '', 0.0)||('england', 'noun', 'C0014282', ['geoa'], 0.0)||('.', '', '', '', 0.0)||
('they', '', '', '', 0.0)||('received', 'verb', 'C1514756', ['qlco'], 0.0)||('either', '', '', '', 0.0)||('440', '', '', '', 0.0)||('-', '', '', '', 0.0)||('or', '', '', '', 0.0)||('1 , 450', '', '', '', 0.0)||('-', '', '', '', 0.0)||('ppm', '', '', '', 0.0)||('f', '', '', '', 0.0)||('toothpaste', 'noun', 'C0040462', ['bodm'], 0.0)||('and', '', '', '', 0.0)||('advice', 'noun', 'C0150600', ['hlca'], 0.0)||('regarding', '', '', '', 0.0)||('its', '', '', '', 0.0)||('use', 'noun', 'C0042153', ['ftcn'], 0.0)||('until', '', '', '', 0.0)||('the', '', '', '', 0.0)||('age', 'noun', 'C0001779', ['orga'], 0.0)||('of', '', '', '', 0.0)||('5', '', '', '', 0.0)||('-', '', '', '', 0.0)||('6', '', '', '', 0.0)||('years', 'noun', 'C0439234', ['tmco'], 0.0)||('.', '', '', '', 0.0)||
('dental fluorosis', 'noun', 'C1318523', ['cgab'], 0.0)||('(', '', '', '', 0.0)||('tf', '', '', '', 0.0)||('index', 'noun', 'C0918012', ['inpr'], 0.0)||(')', '', '', '', 0.0)||('was', '', '', '', 0.0)||('assessed', 'verb', 'C1516048', ['acty'], 0.0)||('on', '', '', '', 0.0)||('digital', 'adj', 'C0442015', ['inpr'], 0.0)||('images', '', '', '', 0.0)||('of', '', '', '', 0.0)||('dried', 'adj', 'C1512080', ['qlco'], 0.0)||('teeth', 'noun', 'C0040426', ['bpoc'], 0.0)||('when', '', '', '', 0.0)||('the', '', '', '', 0.0)||('children', 'noun', 'C0008059', ['aggp'], 0.0)||('(', '', '', '', 0.0)||('n =', '', '', '', 0.0)||('1 , 268', '', '', '', 0.0)||(')', '', '', '', 0.0)||('were', '', '', '', 0.0)||('8', '', '', '', 0.0)||('-', '', '', '', 0.0)||('10', '', '', '', 0.0)||('years', 'noun', 'C0439234', ['tmco'], 0.0)||('old', 'noun', 'C0580836', ['tmco'], 0.0)||('.', '', '', '', 0.0)||
('in', '', '', '', 0.0)||('the', '', '', '', 0.0)||('less', '', '', '', 0.0)||('deprived', '', '', '', 0.0)||('districts', '', '', '', 0.0)||('the', '', '', '', 0.0)||('prevalences', 'noun', 'C0033105', ['qnco'], 0.0)||('of', '', '', '', 0.0)||('fluorosis', 'noun', 'C0016325', ['inpo'], 0.0)||('(', '', '', '', 0.0)||('tf', '', '', '', 0.0)||('>', '', '', '', 0.0)||('or', '', '', '', 0.0)||('=', '', '', '', 0.0)||('0', '', '', '', 0.0)||(')', '', '', '', 0.0)||('for', '', '', '', 0.0)||('the', '', '', '', 0.0)||('1 , 450', '', '', '', 0.0)||('-', '', '', '', 0.0)||('and', '', '', '', 0.0)||('440', '', '', '', 0.0)||('-', '', '', '', 0.0)||('ppm', '', '', '', 0.0)||('f', '', '', '', 0.0)||('groups', 'noun', 'C0441833', ['idcn'], 0.0)||('were', '', '', '', 0.0)||('34 . 5', '', '', '', 0.0)||('and', '', '', '', 0.0)||('23 . 7 %', '', '', '', 0.0)||('(', '', '', '', 0.0)||('p', '', '', '', 0.0)||('=', '', '', '', 0.0)||('0 . 006', '', '', '', 0.0)||(')', '', '', '', 0.0)||('.', '', '', '', 0.0)||
('in', '', '', '', 0.0)||('the', '', '', '', 0.0)||('deprived', '', '', '', 0.0)||('districts', '', '', '', 0.0)||('the', '', '', '', 0.0)||('prevalences', 'noun', 'C0033105', ['qnco'], 0.0)||('of', '', '', '', 0.0)||('fluorosis', 'noun', 'C0016325', ['inpo'], 0.0)||('were', '', '', '', 0.0)||('25 . 2', '', '', '', 0.0)||('and', '', '', '', 0.0)||('19 . 5 %', '', '', '', 0.0)||('(', '', '', '', 0.0)||('p', '', '', '', 0.0)||('=', '', '', '', 0.0)||('0 . 2', '', '', '', 0.0)||(')', '', '', '', 0.0)||('.', '', '', '', 0.0)||
('overall', 'adv', 'C0282416', ['inpr'], 0.0)||('the', '', '', '', 0.0)||('prevalences', 'noun', 'C0033105', ['qnco'], 0.0)||('of', '', '', '', 0.0)||('tf', '', '', '', 0.0)||('>', '', '', '', 0.0)||('or', '', '', '', 0.0)||('=', '', '', '', 0.0)||('2', '', '', '', 0.0)||('were', '', '', '', 0.0)||('7', '', '', '', 0.0)||('and', '', '', '', 0.0)||('2 . 1 %', '', '', '', 0.0)||('for', '', '', '', 0.0)||('the', '', '', '', 0.0)||('1 , 450', '', '', '', 0.0)||('-', '', '', '', 0.0)||('and', '', '', '', 0.0)||('440', '', '', '', 0.0)||('-', '', '', '', 0.0)||('ppm', '', '', '', 0.0)||('f', '', '', '', 0.0)||('groups', 'noun', 'C0441833', ['idcn'], 0.0)||('and', '', '', '', 0.0)||('2 . 2', '', '', '', 0.0)||('and', '', '', '', 0.0)||('0 . 2 %', '', '', '', 0.0)||('for', '', '', '', 0.0)||('tf', '', '', '', 0.0)||('>', '', '', '', 0.0)||('or', '', '', '', 0.0)||('=', '', '', '', 0.0)||('3', '', '', '', 0.0)||('.', '', '', '', 0.0)||
('these', '', '', '', 0.0)||('differences', '', '', '', 0.0)||('were', '', '', '', 0.0)||('statistically significant', 'adj', 'C0237881', ['qnco'], 0.0)||('(', '', '', '', 0.0)||('p', '', '', '', 0.0)||('<', '', '', '', 0.0)||('0 . 003', '', '', '', 0.0)||(')', '', '', '', 0.0)||('.', '', '', '', 0.0)||
('there', '', '', '', 0.0)||('was', '', '', '', 0.0)||('a', '', '', '', 0.0)||('strong', 'adj', 'C0442821', ['qlco'], 0.0)||('association', 'noun', 'C0004083', ['menp'], 0.0)||('between', '', '', '', 0.0)||('the', '', '', '', 0.0)||('deprivation', 'noun', 'C0871712', ['qlco'], 0.0)||('status', 'noun', 'C0449438', ['qlco'], 0.0)||('of', '', '', '', 0.0)||('wards', '', '', '', 0.0)||('and', '', '', '', 0.0)||('fluorosis', 'noun', 'C0016325', ['inpo'], 0.0)||('.', '', '', '', 0.0)||
('only', '', '', '', 0.0)||('1', '', '', '', 0.0)||('subject', 'noun', 'C0681850', ['grup'], 0.0)||('with', '', '', '', 0.0)||('a', '', '', '', 0.0)||('tf', '', '', '', 0.0)||('score', 'noun', 'C0449820', ['qnco'], 0.0)||('of', '', '', '', 0.0)||('3', '', '', '', 0.0)||('was', '', '', '', 0.0)||('identified', 'verb', 'C0205396', ['qlco'], 0.0)||('in', '', '', '', 0.0)||('the', '', '', '', 0.0)||('two', 'adj', 'C0205448', ['qnco'], 0.0)||('most', '', '', '', 0.0)||('deprived', '', '', '', 0.0)||('quintiles', '', '', '', 0.0)||('of', '', '', '', 0.0)||('the', '', '', '', 0.0)||('townsend score', '', '', '', 0.0)||('.', '', '', '', 0.0)||
('it', '', '', '', 0.0)||('is', '', '', '', 0.0)||('concluded', '', '', '', 0.0)||('that', '', '', '', 0.0)||('careful', '', '', '', 0.0)||('targeting', 'noun', 'C1521840', ['ftcn'], 0.0)||('of', '', '', '', 0.0)||('programmes', '', '', '', 0.0)||('of', '', '', '', 0.0)||('this', '', '', '', 0.0)||('type', 'noun', 'C0332307', ['qlco'], 0.0)||('to', '', '', '', 0.0)||('children', 'noun', 'C0008059', ['aggp'], 0.0)||('living', 'verb', 'C0376558', ['idcn'], 0.0)||('in', '', '', '', 0.0)||('high', 'adj', 'C0205250', ['qlco'], 0.0)||('caries risk', 'noun', 'C1317169', ['orga'], 0.0)||('deprived', '', '', '', 0.0)||('communities', 'noun', 'C0009462', ['geoa'], 0.0)||('carries', 'verb', 'C0699809', ['fndg'], 0.0)||('only', '', '', '', 0.0)||('a', '', '', '', 0.0)||('small', 'adj', 'C0700321', ['qnco'], 0.0)||('risk', 'noun', 'C0035647', ['qlco'], 0.0)||('of', '', '', '', 0.0)||('aesthetically', '', '', '', 0.0)||('objectionable', '', '', '', 0.0)||('fluorosis', 'noun', 'C0016325', ['inpo'], 0.0)||('(', '', '', '', 0.0)||('tf', '', '', '', 0.0)||('>', '', '', '', 0.0)||('2', '', '', '', 0.0)||(')', '', '', '', 0.0)||('whether', '', '', '', 0.0)||('low', 'adj', 'C0205251', ['qlco'], 0.0)||('or', '', '', '', 0.0)||('high', 'adj', 'C0205250', ['qlco'], 0.0)||('fluoride', 'noun', 'C0016327', ['inch', 'phsu'], 0.0)||('toothpastes', 'noun', 'C0040462', ['bodm'], 0.0)||('are', '', '', '', 0.0)||('used', '', '', '', 0.0)||('.', '', '', '', 0.0)||
('high', 'adj', 'C0205250', ['qlco'], 0.0)||('fluoride', 'noun', 'C0016327', ['inch', 'phsu'], 0.0)||('(', '', '', '', 0.0)||('1 , 450', '', '', '', 0.0)||('ppm', '', '', '', 0.0)||('f )', '', '', '', 0.0)||('toothpastes', 'noun', 'C0040462', ['bodm'], 0.0)||('should', '', '', '', 0.0)||('not', 'adv', 'C1518422', ['ftcn'], 0.0)||('be', '', '', '', 0.0)||('provided', '', '', '', 0.0)||('on', '', '', '', 0.0)||('a', '', '', '', 0.0)||('community', 'noun', 'C0009462', ['geoa'], 0.0)||('basis', 'noun', 'C1527178', ['ftcn'], 0.0)||('to', '', '', '', 0.0)||('very', 'adv', 'C0442824', ['qlco'], 0.0)||('young', 'adj', 'C0332239', ['tmco'], 0.0)||('children', 'noun', 'C0008059', ['aggp'], 0.0)||('in', '', '', '', 0.0)||('less', '', '', '', 0.0)||('deprived', '', '', '', 0.0)||('communities', 'noun', 'C0009462', ['geoa'], 0.0)||('.', '', '', '', 0.0)||
