('to', '', '', '', 0.0)||('determine', '', '', '', 0.0)||('whether', '', '', '', 0.0)||('acetazolamide', 'noun', 'C0000981', ['orch', 'phsu'], 0.0)||('or', '', '', '', 0.0)||('furosemide', 'noun', 'C0016860', ['orch', 'phsu'], 0.0)||('produce', '', '', '', 0.0)||('allergic', 'adj', 'C0700624', ['ftcn'], 0.0)||('cross - reactions', '', '', '', 0.0)||('in', '', '', '', 0.0)||('patients', 'noun', 'C0030705', ['podg'], 0.0)||('with', '', '', '', 0.0)||('self - reported', '', '', '', 0.0)||('"', '', '', '', 0.0)||('sulfa', 'noun', 'C0749139', ['phsu'], 0.0)||('allergy', 'noun', 'C0002111', ['bmod'], 0.0)||('.', '', '', '', 0.0)||('"', '', '', '', 0.0)||
('retrospective', 'adj', 'C1514923', ['qlco'], 0.0)||('case', 'noun', 'C0868928', ['ftcn'], 0.0)||('series', 'noun', 'C0205549', ['qnco'], 0.0)||('.', '', '', '', 0.0)||
('a', '', '', '', 0.0)||('retrospective', 'adj', 'C1514923', ['qlco'], 0.0)||('review', 'noun', 'C0282443', ['inpr'], 0.0)||('included', '', '', '', 0.0)||('patients', 'noun', 'C0030705', ['podg'], 0.0)||('with', '', '', '', 0.0)||('intracranial hypertension', 'noun', 'C0151740', ['dsyn'], 0.0)||('and', '', '', '', 0.0)||('a', '', '', '', 0.0)||('self - reported', '', '', '', 0.0)||('sulfa', 'noun', 'C0749139', ['phsu'], 0.0)||('allergy', 'noun', 'C0002111', ['bmod'], 0.0)||('treated', 'verb', 'C1522326', ['ftcn'], 0.0)||('with', '', '', '', 0.0)||('either', '', '', '', 0.0)||('acetazolamide', 'noun', 'C0000981', ['orch', 'phsu'], 0.0)||('or', '', '', '', 0.0)||('furosemide', 'noun', 'C0016860', ['orch', 'phsu'], 0.0)||('seen', 'verb', 'C0205397', ['qlco'], 0.0)||('at', '', '', '', 0.0)||('the', '', '', '', 0.0)||('university', 'noun', 'C0041740', ['mnob', 'orgt'], 0.0)||('of', '', '', '', 0.0)||('iowa', 'noun', 'C0022037', ['geoa'], 0.0)||('hospitals', 'noun', 'C0019994', ['hcro', 'mnob'], 0.0)||('and', '', '', '', 0.0)||('clinics', 'noun', 'C0442592', ['hcro', 'mnob'], 0.0)||('from', '', '', '', 0.0)||('1972', '', '', '', 0.0)||('to', '', '', '', 0.0)||('2003', '', '', '', 0.0)||('.', '', '', '', 0.0)||
('all', '', '', '', 0.0)||('presumed', '', '', '', 0.0)||('medication', '', '', '', 0.0)||('-', '', '', '', 0.0)||('related', 'adj', 'C0439849', ['qlco'], 0.0)||('side effects', 'noun', 'C0001688', ['ftcn'], 0.0)||('were', '', '', '', 0.0)||('collected', 'verb', 'C1516695', ['idcn'], 0.0)||(',', '', '', '', 0.0)||('including', '', '', '', 0.0)||('both', '', '', '', 0.0)||('predictable', '', '', '', 0.0)||('adverse effects', 'noun', 'C0001688', ['ftcn'], 0.0)||('(', '', '', '', 0.0)||('for', '', '', '', 0.0)||('example', 'noun', 'C1707959', ['cnce'], 0.0)||(',', '', '', '', 0.0)||('paresthesias', 'adv', 'C0030554', ['sosy'], 0.0)||(',', '', '', '', 0.0)||('fatigue', 'noun', 'C0015672', ['sosy'], 0.0)||(')', '', '', '', 0.0)||('and', '', '', '', 0.0)||('unpredictable', '', '', '', 0.0)||('adverse reactions', 'noun', 'C0559546', ['fndg'], 0.0)||('(', '', '', '', 0.0)||('for', '', '', '', 0.0)||('example', 'noun', 'C1707959', ['cnce'], 0.0)||(',', '', '', '', 0.0)||('cutaneous', 'adj', 'C0221912', ['spco'], 0.0)||('fixed eruptions', '', '', '', 0.0)||(',', '', '', '', 0.0)||('urticaria', 'noun', 'C0042109', ['dsyn'], 0.0)||(',', '', '', '', 0.0)||('stevens - johnson syndrome', '', '', '', 0.0)||(',', '', '', '', 0.0)||('toxic epidermal necrolysis', 'noun', 'C0014518', ['dsyn'], 0.0)||(',', '', '', '', 0.0)||('angioedema', 'noun', 'C0002994', ['patf'], 0.0)||(',', '', '', '', 0.0)||('anaphylaxis', 'noun', 'C0002792', ['patf'], 0.0)||(')', '', '', '', 0.0)||('.', '', '', '', 0.0)||
('we', '', '', '', 0.0)||('reviewed', 'verb', 'C1709940', ['qlco'], 0.0)||('363', '', '', '', 0.0)||('charts', 'noun', 'C0007963', ['medd'], 0.0)||('.', '', '', '', 0.0)||
('of', '', '', '', 0.0)||('these', '', '', '', 0.0)||(',', '', '', '', 0.0)||('329', '', '', '', 0.0)||('patients', 'noun', 'C0030705', ['podg'], 0.0)||('(', '', '', '', 0.0)||('91 %', '', '', '', 0.0)||(')', '', '', '', 0.0)||('were', '', '', '', 0.0)||('excluded', 'verb', 'C1554077', ['idcn'], 0.0)||('.', '', '', '', 0.0)||
('of', '', '', '', 0.0)||('the', '', '', '', 0.0)||('remaining', 'adj', 'C1527428', ['qlco'], 0.0)||('34', '', '', '', 0.0)||('cases', 'noun', 'C0868928', ['ftcn'], 0.0)||('that', '', '', '', 0.0)||('did', '', '', '', 0.0)||('report', 'verb', 'C0684224', ['inpr'], 0.0)||('a', '', '', '', 0.0)||('so - called', '', '', '', 0.0)||('sulfa', 'noun', 'C0749139', ['phsu'], 0.0)||('allergy', 'noun', 'C0002111', ['bmod'], 0.0)||(',', '', '', '', 0.0)||('13', '', '', '', 0.0)||('(', '', '', '', 0.0)||('38 %', '', '', '', 0.0)||(')', '', '', '', 0.0)||('received', 'adj', 'C1514756', ['qlco'], 0.0)||('acetazolamide', 'noun', 'C0000981', ['orch', 'phsu'], 0.0)||('alone', 'adj', 'C0439044', ['fndg'], 0.0)||(',', '', '', '', 0.0)||('7', '', '', '', 0.0)||('(', '', '', '', 0.0)||('21 %', '', '', '', 0.0)||(')', '', '', '', 0.0)||('received', 'adj', 'C1514756', ['qlco'], 0.0)||('furosemide', 'noun', 'C0016860', ['orch', 'phsu'], 0.0)||('alone', 'adj', 'C0439044', ['fndg'], 0.0)||(',', '', '', '', 0.0)||('and', '', '', '', 0.0)||('14', '', '', '', 0.0)||('(', '', '', '', 0.0)||('41 %', '', '', '', 0.0)||(')', '', '', '', 0.0)||('received', 'verb', 'C1514756', ['qlco'], 0.0)||('both', '', '', '', 0.0)||('acetazolamide', 'noun', 'C0000981', ['orch', 'phsu'], 0.0)||('and', '', '', '', 0.0)||('furosemide', 'noun', 'C0016860', ['orch', 'phsu'], 0.0)||('.', '', '', '', 0.0)||
('of', '', '', '', 0.0)||('the', '', '', '', 0.0)||('27', '', '', '', 0.0)||('patients', 'noun', 'C0030705', ['podg'], 0.0)||('who', '', '', '', 0.0)||('received', 'verb', 'C1514756', ['qlco'], 0.0)||('acetazolamide', 'noun', 'C0000981', ['orch', 'phsu'], 0.0)||(',', '', '', '', 0.0)||('10', '', '', '', 0.0)||('(', '', '', '', 0.0)||('37 %', '', '', '', 0.0)||(')', '', '', '', 0.0)||('had', '', '', '', 0.0)||('no', '', '', '', 0.0)||('documented', 'adj', 'C1301725', ['hlca'], 0.0)||('allergic', 'adj', 'C0700624', ['ftcn'], 0.0)||('cross - reaction', '', '', '', 0.0)||('to', '', '', '', 0.0)||('sulfa', 'noun', 'C0749139', ['phsu'], 0.0)||(',', '', '', '', 0.0)||('and', '', '', '', 0.0)||('2', '', '', '', 0.0)||('(', '', '', '', 0.0)||('7 %', '', '', '', 0.0)||(')', '', '', '', 0.0)||('cases', 'noun', 'C0868928', ['ftcn'], 0.0)||('had', '', '', '', 0.0)||('urticaria', 'noun', 'C0042109', ['dsyn'], 0.0)||('.', '', '', '', 0.0)||
('the', '', '', '', 0.0)||('remaining', 'adj', 'C1527428', ['qlco'], 0.0)||('15', '', '', '', 0.0)||('(', '', '', '', 0.0)||('56 %', '', '', '', 0.0)||(')', '', '', '', 0.0)||('of', '', '', '', 0.0)||('acetazolamide', 'noun', 'C0000981', ['orch', 'phsu'], 0.0)||('-', '', '', '', 0.0)||('treated', 'adj', 'C1522326', ['ftcn'], 0.0)||('patients', 'noun', 'C0030705', ['podg'], 0.0)||('experienced', '', '', '', 0.0)||('predictable', '', '', '', 0.0)||('adverse reactions', 'noun', 'C0559546', ['fndg'], 0.0)||('for', '', '', '', 0.0)||('this', '', '', '', 0.0)||('drug', 'noun', 'C0013227', ['phsu'], 0.0)||('(', '', '', '', 0.0)||('for', '', '', '', 0.0)||('example', 'noun', 'C1707959', ['cnce'], 0.0)||(',', '', '', '', 0.0)||('paresthesias', 'noun', 'C0030554', ['sosy'], 0.0)||(')', '', '', '', 0.0)||('.', '', '', '', 0.0)||
('no', '', '', '', 0.0)||('patient', '', '', '', 0.0)||('experienced', '', '', '', 0.0)||('a', '', '', '', 0.0)||('severe', 'adj', 'C0205082', ['qlco'], 0.0)||('allergic', 'adj', 'C0700624', ['ftcn'], 0.0)||('cross - reaction', '', '', '', 0.0)||('to', '', '', '', 0.0)||('sulfa', 'noun', 'C0749139', ['phsu'], 0.0)||('.', '', '', '', 0.0)||
('of', '', '', '', 0.0)||('21', '', '', '', 0.0)||('patients', 'noun', 'C0030705', ['podg'], 0.0)||('who', '', '', '', 0.0)||('received', 'verb', 'C1514756', ['qlco'], 0.0)||('furosemide', 'noun', 'C0016860', ['orch', 'phsu'], 0.0)||(',', '', '', '', 0.0)||('no', '', '', '', 0.0)||('unpredictable', '', '', '', 0.0)||('adverse reactions', 'noun', 'C0559546', ['fndg'], 0.0)||('or', '', '', '', 0.0)||('allergic', 'adj', 'C0700624', ['ftcn'], 0.0)||('cross - reactions', '', '', '', 0.0)||('to', '', '', '', 0.0)||('sulfa', 'noun', 'C0749139', ['phsu'], 0.0)||('were', '', '', '', 0.0)||('noted', '', '', '', 0.0)||('.', '', '', '', 0.0)||
('we', '', '', '', 0.0)||('find', 'verb', 'C0243095', ['fndg'], 0.0)||('little', '', '', '', 0.0)||('clinical', 'adj', 'C0205210', ['qlco'], 0.0)||('or', '', '', '', 0.0)||('pharmacological', 'adj', 'C0031330', ['bmod'], 0.0)||('evidence', 'noun', 'C0332120', ['ftcn'], 0.0)||('to', '', '', '', 0.0)||('suggest', 'verb', 'C1705535', ['idcn'], 0.0)||('that', '', '', '', 0.0)||('a', '', '', '', 0.0)||('self - reported', '', '', '', 0.0)||('sulfa', 'noun', 'C0749139', ['phsu'], 0.0)||('allergy', 'noun', 'C0002111', ['bmod'], 0.0)||('is', '', '', '', 0.0)||('likely', 'adv', 'C0332148', ['qlco'], 0.0)||('to', '', '', '', 0.0)||('produce', '', '', '', 0.0)||('a', '', '', '', 0.0)||('life - threatening', '', '', '', 0.0)||('cross - reaction', '', '', '', 0.0)||('with', '', '', '', 0.0)||('acetazolamide', 'noun', 'C0000981', ['orch', 'phsu'], 0.0)||('or', '', '', '', 0.0)||('furosemide', 'noun', 'C0016860', ['orch', 'phsu'], 0.0)||('.', '', '', '', 0.0)||
('these', '', '', '', 0.0)||('medications', 'noun', 'C0013227', ['phsu'], 0.0)||('should', '', '', '', 0.0)||('be', '', '', '', 0.0)||('considered', '', '', '', 0.0)||('for', '', '', '', 0.0)||('intracranial hypertension', 'noun', 'C0151740', ['dsyn'], 0.0)||('if', '', '', '', 0.0)||('the', '', '', '', 0.0)||('risk', 'noun', 'C0035647', ['qlco'], 0.0)||('-', '', '', '', 0.0)||('to', '', '', '', 0.0)||('-', '', '', '', 0.0)||('benefit', 'noun', 'C0814225', ['qnco'], 0.0)||('ratio', 'noun', 'C0456603', ['qnco'], 0.0)||('warrants', '', '', '', 0.0)||('their', '', '', '', 0.0)||('use', 'noun', 'C0042153', ['ftcn'], 0.0)||('.', '', '', '', 0.0)||
