('the', '', '', '', 0.0)||('aim', 'noun', 'C1947946', ['idcn'], 0.0)||('of', '', '', '', 0.0)||('nicotine', 'noun', 'C0028040', ['hops', 'orch', 'phsu'], 0.0)||('replacement therapy', 'noun', 'C0279033', ['topp'], 0.0)||('is', '', '', '', 0.0)||('to', '', '', '', 0.0)||('replace', 'verb', 'C1554078', ['idcn'], 0.0)||('nicotine', 'noun', 'C0028040', ['hops', 'orch', 'phsu'], 0.0)||('from', '', '', '', 0.0)||('cigarettes', 'noun', 'C0677453', ['mnob'], 0.0)||('.', '', '', '', 0.0)||
('this', '', '', '', 0.0)||('reduces', '', '', '', 0.0)||('withdrawal symptoms', 'noun', 'C0087169', ['sosy'], 0.0)||('associated', 'verb', 'C0332281', ['qlco'], 0.0)||('with', '', '', '', 0.0)||('smoking', 'adj', 'C0037369', ['inbe'], 0.0)||('cessation', 'noun', 'C1880019', ['acty'], 0.0)||('thus', '', '', '', 0.0)||('helping', '', '', '', 0.0)||('resist', '', '', '', 0.0)||('the', '', '', '', 0.0)||('urge', '', '', '', 0.0)||('to', '', '', '', 0.0)||('smoke', 'verb', 'C0037366', ['eehu', 'hops'], 0.0)||('cigarettes', 'noun', 'C0677453', ['mnob'], 0.0)||('.', '', '', '', 0.0)||
('the', '', '', '', 0.0)||('aims', 'noun', 'C1947946', ['idcn'], 0.0)||('of', '', '', '', 0.0)||('this', '', '', '', 0.0)||('review', 'noun', 'C0282443', ['inpr'], 0.0)||('were', '', '', '', 0.0)||(':', '', '', '', 0.0)||('to', '', '', '', 0.0)||('determine', '', '', '', 0.0)||('the', '', '', '', 0.0)||('effectiveness', 'noun', 'C1280519', ['qlco'], 0.0)||('of', '', '', '', 0.0)||('the', '', '', '', 0.0)||('different', 'adj', 'C1705242', ['qlco'], 0.0)||('forms', 'noun', 'C0376315', ['mnob'], 0.0)||('of', '', '', '', 0.0)||('nicotine', 'noun', 'C0028040', ['hops', 'orch', 'phsu'], 0.0)||('replacement therapy', 'noun', 'C0279033', ['topp'], 0.0)||('(', '', '', '', 0.0)||('chewing gum', 'noun', 'C0008037', ['food'], 0.0)||(',', '', '', '', 0.0)||('transdermal', 'adj', 'C0040652', ['ftcn'], 0.0)||('patches', 'noun', 'C0994894', ['bodm'], 0.0)||(',', '', '', '', 0.0)||('nasal spray', 'noun', 'C0461725', ['bodm'], 0.0)||(',', '', '', '', 0.0)||('inhalers', 'noun', 'C0021461', ['medd'], 0.0)||('and', '', '', '', 0.0)||('tablets', 'noun', 'C0039225', ['bodm'], 0.0)||(')', '', '', '', 0.0)||('in', '', '', '', 0.0)||('achieving', '', '', '', 0.0)||('abstinence', '', '', '', 0.0)||('from', '', '', '', 0.0)||('cigarettes', 'noun', 'C0677453', ['mnob'], 0.0)||(',', '', '', '', 0.0)||('or', '', '', '', 0.0)||('a', '', '', '', 0.0)||('sustained', 'adj', 'C0443318', ['ftcn'], 0.0)||('reduction', 'noun', 'C0301630', ['npop'], 0.0)||('in', '', '', '', 0.0)||('amount', 'noun', 'C1265611', ['qnco'], 0.0)||('smoked', '', '', '', 0.0)||(';', '', '', '', 0.0)||
('to', '', '', '', 0.0)||('determine', '', '', '', 0.0)||('whether', '', '', '', 0.0)||('the', '', '', '', 0.0)||('effect', 'noun', 'C1280500', ['qlco'], 0.0)||('is', '', '', '', 0.0)||('influenced', '', '', '', 0.0)||('by', '', '', '', 0.0)||('the', '', '', '', 0.0)||('clinical', 'adj', 'C0205210', ['qlco'], 0.0)||('setting', 'noun', 'C0542559', ['ftcn'], 0.0)||('in', '', '', '', 0.0)||('which', '', '', '', 0.0)||('the', '', '', '', 0.0)||('smoker', 'noun', 'C0337664', ['fndg'], 0.0)||('is', '', '', '', 0.0)||('recruited', '', '', '', 0.0)||('and', '', '', '', 0.0)||('treated', 'adj', 'C1522326', ['ftcn'], 0.0)||(',', '', '', '', 0.0)||('the', '', '', '', 0.0)||('dosage', 'noun', 'C0178602', ['qnco'], 0.0)||('and', '', '', '', 0.0)||('form', 'noun', 'C0013058', ['bodm'], 0.0)||('of', '', '', '', 0.0)||('the', '', '', '', 0.0)||('nicotine', 'noun', 'C0028040', ['hops', 'orch', 'phsu'], 0.0)||('replacement therapy', 'noun', 'C0279033', ['topp'], 0.0)||('used', '', '', '', 0.0)||(',', '', '', '', 0.0)||('or', '', '', '', 0.0)||('the', '', '', '', 0.0)||('intensity', 'noun', 'C0522510', ['qlco'], 0.0)||('of', '', '', '', 0.0)||('additional', 'adj', 'C1524062', ['ftcn'], 0.0)||('advice', 'noun', 'C0150600', ['hlca'], 0.0)||('and', '', '', '', 0.0)||('support', 'noun', 'C0183683', ['medd'], 0.0)||('offered', 'verb', 'C1444648', ['fndg'], 0.0)||('to', '', '', '', 0.0)||('the', '', '', '', 0.0)||('smoker', 'noun', 'C0337664', ['fndg'], 0.0)||(';', '', '', '', 0.0)||
('to', '', '', '', 0.0)||('determine', '', '', '', 0.0)||('whether', '', '', '', 0.0)||('combinations', 'noun', 'C0453882', ['mnob'], 0.0)||('of', '', '', '', 0.0)||('nicotine', 'noun', 'C0028040', ['hops', 'orch', 'phsu'], 0.0)||('replacement therapy', 'noun', 'C0279033', ['topp'], 0.0)||('are', '', '', '', 0.0)||('more', '', '', '', 0.0)||('effective', 'adj', 'C1704419', ['qlco'], 0.0)||('than', '', '', '', 0.0)||('one', 'noun', 'C0205447', ['qnco'], 0.0)||('type', 'noun', 'C0332307', ['qlco'], 0.0)||('alone', 'adj', 'C0439044', ['fndg'], 0.0)||(';', '', '', '', 0.0)||
('to', '', '', '', 0.0)||('determine', '', '', '', 0.0)||('its', '', '', '', 0.0)||('effectiveness', 'noun', 'C1280519', ['qlco'], 0.0)||('compared', 'verb', 'C1707455', ['acty'], 0.0)||('to', '', '', '', 0.0)||('other', '', '', '', 0.0)||('pharmacotherapies', 'noun', 'C0013216', ['topp'], 0.0)||('.', '', '', '', 0.0)||
('we', '', '', '', 0.0)||('searched', 'verb', 'C1706202', ['acty'], 0.0)||('the', '', '', '', 0.0)||('cochrane', '', '', '', 0.0)||('tobacco', 'noun', 'C0040329', ['hops', 'orch', 'phsu'], 0.0)||('addiction', 'noun', 'C0085281', ['mobd'], 0.0)||('group', 'noun', 'C0441833', ['idcn'], 0.0)||('trials', '', '', '', 0.0)||('register', '', '', '', 0.0)||('in', '', '', '', 0.0)||('march', '', '', '', 0.0)||('2004', '', '', '', 0.0)||('.', '', '', '', 0.0)||
('randomized', 'adj', 'C0034656', ['resa'], 0.0)||('trials', '', '', '', 0.0)||('in', '', '', '', 0.0)||('which', '', '', '', 0.0)||('nicotine', 'noun', 'C0028040', ['hops', 'orch', 'phsu'], 0.0)||('replacement therapy', 'noun', 'C0279033', ['topp'], 0.0)||('was', '', '', '', 0.0)||('compared', 'verb', 'C1707455', ['acty'], 0.0)||('to', '', '', '', 0.0)||('placebo', 'noun', 'C0032042', ['topp'], 0.0)||('or', '', '', '', 0.0)||('to', '', '', '', 0.0)||('no', '', '', '', 0.0)||('treatment', 'noun', 'C0039798', ['ftcn'], 0.0)||(',', '', '', '', 0.0)||('or', '', '', '', 0.0)||('where', '', '', '', 0.0)||('different', 'adj', 'C1705242', ['qlco'], 0.0)||('doses', 'noun', 'C0178602', ['qnco'], 0.0)||('of', '', '', '', 0.0)||('nicotine', 'noun', 'C0028040', ['hops', 'orch', 'phsu'], 0.0)||('replacement therapy', 'noun', 'C0279033', ['topp'], 0.0)||('were', '', '', '', 0.0)||('compared', 'verb', 'C1707455', ['acty'], 0.0)||('.', '', '', '', 0.0)||
('we', '', '', '', 0.0)||('excluded', 'verb', 'C1554077', ['idcn'], 0.0)||('trials', '', '', '', 0.0)||('which', '', '', '', 0.0)||('did', '', '', '', 0.0)||('not', 'adv', 'C1518422', ['ftcn'], 0.0)||('report', 'verb', 'C0684224', ['inpr'], 0.0)||('cessation', 'noun', 'C1880019', ['acty'], 0.0)||('rates', '', '', '', 0.0)||(',', '', '', '', 0.0)||('and', '', '', '', 0.0)||('those', '', '', '', 0.0)||('with', '', '', '', 0.0)||('follow up', '', '', '', 0.0)||('of', '', '', '', 0.0)||('less', '', '', '', 0.0)||('than', '', '', '', 0.0)||('six', '', 'C0205452', ['qnco'], 0.0)||('months', 'noun', 'C0439231', ['tmco'], 0.0)||('.', '', '', '', 0.0)||
('we', '', '', '', 0.0)||('extracted', 'verb', 'C0185115', ['topp'], 0.0)||('data', 'noun', 'C1511726', ['idcn'], 0.0)||('in', '', '', '', 0.0)||('duplicate', 'noun', 'C0205173', ['ftcn'], 0.0)||('on', '', '', '', 0.0)||('the', '', '', '', 0.0)||('type', 'noun', 'C0332307', ['qlco'], 0.0)||('of', '', '', '', 0.0)||('participants', '', '', '', 0.0)||(',', '', '', '', 0.0)||('the', '', '', '', 0.0)||('dose', 'noun', 'C0178602', ['qnco'], 0.0)||(',', '', '', '', 0.0)||('duration', 'noun', 'C0449238', ['tmco'], 0.0)||('and', '', '', '', 0.0)||('form', 'noun', 'C0013058', ['bodm'], 0.0)||('of', '', '', '', 0.0)||('nicotine', 'noun', 'C0028040', ['hops', 'orch', 'phsu'], 0.0)||('therapy', 'noun', 'C0039798', ['ftcn'], 0.0)||(',', '', '', '', 0.0)||('the', '', '', '', 0.0)||('outcome', 'noun', 'C1274040', ['ftcn'], 0.0)||('measures', 'noun', 'C0079809', ['qnco'], 0.0)||(',', '', '', '', 0.0)||('method', 'noun', 'C0025663', ['inpr'], 0.0)||('of', '', '', '', 0.0)||('randomization', 'noun', 'C0034656', ['resa'], 0.0)||(',', '', '', '', 0.0)||('and', '', '', '', 0.0)||('completeness', 'noun', 'C0439812', ['qlco'], 0.0)||('of', '', '', '', 0.0)||('follow up', '', '', '', 0.0)||('.', '', '', '', 0.0)||
('the', '', '', '', 0.0)||('main', 'adj', 'C0205225', ['qlco'], 0.0)||('outcome', 'noun', 'C1274040', ['ftcn'], 0.0)||('measure', 'noun', 'C0079809', ['qnco'], 0.0)||('was', '', '', '', 0.0)||('abstinence', '', '', '', 0.0)||('from', '', '', '', 0.0)||('smoking', 'noun', 'C0037369', ['inbe'], 0.0)||('after', '', '', '', 0.0)||('at', '', '', '', 0.0)||('least', '', '', '', 0.0)||('six', '', 'C0205452', ['qnco'], 0.0)||('months', 'noun', 'C0439231', ['tmco'], 0.0)||('of', '', '', '', 0.0)||('follow up', '', '', '', 0.0)||('.', '', '', '', 0.0)||
('we', '', '', '', 0.0)||('used', '', '', '', 0.0)||('the', '', '', '', 0.0)||('most', '', '', '', 0.0)||('rigorous', '', '', '', 0.0)||('definition', 'noun', 'C1550452', ['idcn'], 0.0)||('of', '', '', '', 0.0)||('abstinence', '', '', '', 0.0)||('for', '', '', '', 0.0)||('each', '', '', '', 0.0)||('trial', 'noun', 'C0008976', ['resa'], 0.0)||(',', '', '', '', 0.0)||('and', '', '', '', 0.0)||('biochemically', '', '', '', 0.0)||('validated', '', '', '', 0.0)||('rates', '', '', '', 0.0)||('if', '', '', '', 0.0)||('available', 'adj', 'C0470187', ['ftcn'], 0.0)||('.', '', '', '', 0.0)||
('for', '', '', '', 0.0)||('each', '', '', '', 0.0)||('study', 'verb', 'C0008976', ['resa'], 0.0)||('we', '', '', '', 0.0)||('calculated', 'verb', 'C0444686', ['ftcn'], 0.0)||('summary', 'noun', 'C1552616', ['inpr'], 0.0)||('odds ratios', 'noun', 'C0028873', ['qnco'], 0.0)||('.', '', '', '', 0.0)||
('where', '', '', '', 0.0)||('appropriate', 'adj', 'C1548787', ['qlco'], 0.0)||(',', '', '', '', 0.0)||('we', '', '', '', 0.0)||('performed', 'verb', 'C0884358', ['ftcn'], 0.0)||('meta - analysis', '', '', '', 0.0)||('using', 'verb', 'C1524063', ['ftcn'], 0.0)||('a', '', '', '', 0.0)||('mantel', '', '', '', 0.0)||('-', '', '', '', 0.0)||('haenszel', '', '', '', 0.0)||('fixed effect model', '', '', '', 0.0)||('.', '', '', '', 0.0)||
('we', '', '', '', 0.0)||('identified', 'verb', 'C0205396', ['qlco'], 0.0)||('123', '', '', '', 0.0)||('trials', '', '', '', 0.0)||(';', '', '', '', 0.0)||
('103', '', '', '', 0.0)||('contributing', 'noun', 'C1880177', ['acty'], 0.0)||('to', '', '', '', 0.0)||('the', '', '', '', 0.0)||('primary', 'adj', 'C0205225', ['qlco'], 0.0)||('comparison', 'noun', 'C1707455', ['acty'], 0.0)||('between', '', '', '', 0.0)||('nicotine', 'noun', 'C0028040', ['hops', 'orch', 'phsu'], 0.0)||('replacement therapy', 'noun', 'C0279033', ['topp'], 0.0)||('and', '', '', '', 0.0)||('a', '', '', '', 0.0)||('placebo', 'noun', 'C0032042', ['topp'], 0.0)||('or', '', '', '', 0.0)||('non - nicotine', '', '', '', 0.0)||('replacement therapy', 'noun', 'C0279033', ['topp'], 0.0)||('control group', 'noun', 'C0009932', ['grup'], 0.0)||('.', '', '', '', 0.0)||
('the', '', '', '', 0.0)||('odds ratio', 'noun', 'C0028873', ['qnco'], 0.0)||('for', '', '', '', 0.0)||('abstinence', '', '', '', 0.0)||('with', '', '', '', 0.0)||('nicotine', 'noun', 'C0028040', ['hops', 'orch', 'phsu'], 0.0)||('replacement therapy', 'noun', 'C0279033', ['topp'], 0.0)||('compared', 'verb', 'C1707455', ['acty'], 0.0)||('to', '', '', '', 0.0)||('control', 'verb', 'C0243148', ['qlco'], 0.0)||('was', '', '', '', 0.0)||('1 . 77', '', '', '', 0.0)||('(', '', '', '', 0.0)||('95 %', '', '', '', 0.0)||('confidence intervals', 'noun', 'C0009667', ['qnco'], 0.0)||(':', '', '', '', 0.0)||('1 . 66', '', '', '', 0.0)||('to', '', '', '', 0.0)||('1 . 88', '', '', '', 0.0)||(')', '', '', '', 0.0)||('.', '', '', '', 0.0)||
('the', '', '', '', 0.0)||('ors', 'noun', 'C0069590', ['inch', 'phsu'], 0.0)||('for', '', '', '', 0.0)||('the', '', '', '', 0.0)||('different', 'adj', 'C1705242', ['qlco'], 0.0)||('forms', 'noun', 'C0376315', ['mnob'], 0.0)||('of', '', '', '', 0.0)||('nicotine', 'noun', 'C0028040', ['hops', 'orch', 'phsu'], 0.0)||('replacement therapy', 'noun', 'C0279033', ['topp'], 0.0)||('were', '', '', '', 0.0)||('1 . 66', '', '', '', 0.0)||('(', '', '', '', 0.0)||('95 %', '', '', '', 0.0)||('confidence intervals', 'noun', 'C0009667', ['qnco'], 0.0)||(':', '', '', '', 0.0)||('1 . 52', '', '', '', 0.0)||('to', '', '', '', 0.0)||('1 . 81', '', '', '', 0.0)||(')', '', '', '', 0.0)||('for', '', '', '', 0.0)||('gum', 'noun', 'C0017562', ['bpoc'], 0.0)||(',', '', '', '', 0.0)||('1 . 81', '', '', '', 0.0)||('(', '', '', '', 0.0)||('95 %', '', '', '', 0.0)||('confidence intervals', 'noun', 'C0009667', ['qnco'], 0.0)||(':', '', '', '', 0.0)||('1 . 63', '', '', '', 0.0)||('to', '', '', '', 0.0)||('2 . 02', '', '', '', 0.0)||(')', '', '', '', 0.0)||('for', '', '', '', 0.0)||('patches', 'noun', 'C0994894', ['bodm'], 0.0)||(',', '', '', '', 0.0)||('2 . 35', '', '', '', 0.0)||('(', '', '', '', 0.0)||('95 %', '', '', '', 0.0)||('confidence intervals', 'noun', 'C0009667', ['qnco'], 0.0)||(':', '', '', '', 0.0)||('1 . 63', '', '', '', 0.0)||('to', '', '', '', 0.0)||('3 . 38', '', '', '', 0.0)||(')', '', '', '', 0.0)||('for', '', '', '', 0.0)||('nasal spray', 'noun', 'C0461725', ['bodm'], 0.0)||(',', '', '', '', 0.0)||('2 . 14', '', '', '', 0.0)||('(', '', '', '', 0.0)||('95 %', '', '', '', 0.0)||('confidence intervals', 'noun', 'C0009667', ['qnco'], 0.0)||(':', '', '', '', 0.0)||('1 . 44', '', '', '', 0.0)||('to', '', '', '', 0.0)||('3 . 18', '', '', '', 0.0)||(')', '', '', '', 0.0)||('for', '', '', '', 0.0)||('inhaled', 'adj', 'C0004048', ['orgf'], 0.0)||('nicotine', 'noun', 'C0028040', ['hops', 'orch', 'phsu'], 0.0)||('and', '', '', '', 0.0)||('2 . 05', '', '', '', 0.0)||('(', '', '', '', 0.0)||('95 %', '', '', '', 0.0)||('confidence intervals', 'noun', 'C0009667', ['qnco'], 0.0)||(':', '', '', '', 0.0)||('1 . 62', '', '', '', 0.0)||('to', '', '', '', 0.0)||('2 . 59', '', '', '', 0.0)||(')', '', '', '', 0.0)||('for', '', '', '', 0.0)||('nicotine', 'noun', 'C0028040', ['hops', 'orch', 'phsu'], 0.0)||('sublingual tablet', 'noun', 'C0991582', ['bodm'], 0.0)||('/', '', '', '', 0.0)||('lozenge', 'noun', 'C0991564', ['bodm'], 0.0)||('.', '', '', '', 0.0)||
('these', '', '', '', 0.0)||('odds', '', '', '', 0.0)||('were', '', '', '', 0.0)||('largely', '', '', '', 0.0)||('independent of', '', '', '', 0.0)||('the', '', '', '', 0.0)||('duration', 'noun', 'C0449238', ['tmco'], 0.0)||('of', '', '', '', 0.0)||('therapy', 'noun', 'C0039798', ['ftcn'], 0.0)||(',', '', '', '', 0.0)||('the', '', '', '', 0.0)||('intensity', 'noun', 'C0522510', ['qlco'], 0.0)||('of', '', '', '', 0.0)||('additional', 'adj', 'C1524062', ['ftcn'], 0.0)||('support', 'noun', 'C0183683', ['medd'], 0.0)||('provided', '', '', '', 0.0)||('or', '', '', '', 0.0)||('the', '', '', '', 0.0)||('setting', 'noun', 'C0542559', ['ftcn'], 0.0)||('in', '', '', '', 0.0)||('which', '', '', '', 0.0)||('the', '', '', '', 0.0)||('nicotine', 'noun', 'C0028040', ['hops', 'orch', 'phsu'], 0.0)||('replacement therapy', 'noun', 'C0279033', ['topp'], 0.0)||('was', '', '', '', 0.0)||('offered', 'verb', 'C1444648', ['fndg'], 0.0)||('.', '', '', '', 0.0)||
('in', '', '', '', 0.0)||('highly', 'adv', 'C0205250', ['qlco'], 0.0)||('dependent', 'adj', 'C0851827', ['qlco'], 0.0)||('smokers', '', '', '', 0.0)||('there', '', '', '', 0.0)||('was', '', '', '', 0.0)||('a', '', '', '', 0.0)||('significant', 'adj', 'C0750502', ['idcn'], 0.0)||('benefit', 'noun', 'C0814225', ['qnco'], 0.0)||('of', '', '', '', 0.0)||('4', '', '', '', 0.0)||('mg', '', '', '', 0.0)||('gum', 'noun', 'C0017562', ['bpoc'], 0.0)||('compared', 'verb', 'C1707455', ['acty'], 0.0)||('with', '', '', '', 0.0)||('2', '', '', '', 0.0)||('mg', '', '', '', 0.0)||('gum', 'noun', 'C0017562', ['bpoc'], 0.0)||('(', '', '', '', 0.0)||('odds ratio', 'noun', 'C0028873', ['qnco'], 0.0)||('2 . 20', '', '', '', 0.0)||(',', '', '', '', 0.0)||('95 %', '', '', '', 0.0)||('confidence intervals', 'noun', 'C0009667', ['qnco'], 0.0)||(':', '', '', '', 0.0)||('1 . 85', '', '', '', 0.0)||('to', '', '', '', 0.0)||('3 . 25', '', '', '', 0.0)||(')', '', '', '', 0.0)||('.', '', '', '', 0.0)||
('there', '', '', '', 0.0)||('was', '', '', '', 0.0)||('weak', 'adj', 'C0004093', ['sosy'], 0.0)||('evidence', 'noun', 'C0332120', ['ftcn'], 0.0)||('that', '', '', '', 0.0)||('combinations', 'noun', 'C0453882', ['mnob'], 0.0)||('of', '', '', '', 0.0)||('forms', 'noun', 'C0376315', ['mnob'], 0.0)||('of', '', '', '', 0.0)||('nicotine', 'noun', 'C0028040', ['hops', 'orch', 'phsu'], 0.0)||('replacement therapy', 'noun', 'C0279033', ['topp'], 0.0)||('are', '', '', '', 0.0)||('more', '', '', '', 0.0)||('effective', 'adj', 'C1704419', ['qlco'], 0.0)||('.', '', '', '', 0.0)||
('higher', '', '', '', 0.0)||('doses', 'noun', 'C0178602', ['qnco'], 0.0)||('of', '', '', '', 0.0)||('nicotine', 'noun', 'C0028040', ['hops', 'orch', 'phsu'], 0.0)||('patch', 'noun', 'C0332461', ['bdsu'], 0.0)||('may', '', '', '', 0.0)||('produce', '', '', '', 0.0)||('small', 'adj', 'C0700321', ['qnco'], 0.0)||('increases', '', '', '', 0.0)||('in', '', '', '', 0.0)||('quit rates', '', '', '', 0.0)||('.', '', '', '', 0.0)||
('only', '', '', '', 0.0)||('one', 'adv', 'C0205447', ['qnco'], 0.0)||('study', 'verb', 'C0008976', ['resa'], 0.0)||('directly', 'adv', 'C1947931', ['qlco'], 0.0)||('compared', 'adj', 'C1707455', ['acty'], 0.0)||('nicotine', 'noun', 'C0028040', ['hops', 'orch', 'phsu'], 0.0)||('replacement therapy', 'noun', 'C0279033', ['topp'], 0.0)||('to', '', '', '', 0.0)||('another', '', '', '', 0.0)||('pharmacotherapy', 'noun', 'C0013216', ['topp'], 0.0)||('.', '', '', '', 0.0)||
('in', '', '', '', 0.0)||('this', '', '', '', 0.0)||('study', 'noun', 'C0008976', ['resa'], 0.0)||('quit rates', '', '', '', 0.0)||('with', '', '', '', 0.0)||('bupropion', 'noun', 'C0085208', ['orch', 'phsu'], 0.0)||('were', '', '', '', 0.0)||('higher', '', '', '', 0.0)||('than', '', '', '', 0.0)||('with', '', '', '', 0.0)||('nicotine', 'noun', 'C0028040', ['hops', 'orch', 'phsu'], 0.0)||('patch', 'noun', 'C0332461', ['bdsu'], 0.0)||('or', '', '', '', 0.0)||('placebo', 'noun', 'C0032042', ['topp'], 0.0)||('.', '', '', '', 0.0)||
('all', '', '', '', 0.0)||('of', '', '', '', 0.0)||('the', '', '', '', 0.0)||('commercially', '', '', '', 0.0)||('available', 'adj', 'C0470187', ['ftcn'], 0.0)||('forms', 'noun', 'C0376315', ['mnob'], 0.0)||('of', '', '', '', 0.0)||('nicotine', 'noun', 'C0028040', ['hops', 'orch', 'phsu'], 0.0)||('replacement therapy', 'noun', 'C0279033', ['topp'], 0.0)||('(', '', '', '', 0.0)||('gum', 'noun', 'C0017562', ['bpoc'], 0.0)||(',', '', '', '', 0.0)||('transdermal', 'adj', 'C0040652', ['ftcn'], 0.0)||('patch', 'noun', 'C0332461', ['bdsu'], 0.0)||(',', '', '', '', 0.0)||('nasal spray', 'noun', 'C0461725', ['bodm'], 0.0)||(',', '', '', '', 0.0)||('inhaler', 'noun', 'C0021461', ['medd'], 0.0)||('and', '', '', '', 0.0)||('sublingual tablets', 'noun', 'C0991582', ['bodm'], 0.0)||('/', '', '', '', 0.0)||('lozenges', 'noun', 'C0991564', ['bodm'], 0.0)||(')', '', '', '', 0.0)||('are', '', '', '', 0.0)||('effective', 'adj', 'C1704419', ['qlco'], 0.0)||('as', '', '', '', 0.0)||('part', 'noun', 'C0449719', ['spco'], 0.0)||('of', '', '', '', 0.0)||('a', '', '', '', 0.0)||('strategy', 'noun', 'C0679199', ['menp'], 0.0)||('to', '', '', '', 0.0)||('promote', 'verb', 'C0033414', ['acty'], 0.0)||('smoking', 'adj', 'C0037369', ['inbe'], 0.0)||('cessation', 'noun', 'C1880019', ['acty'], 0.0)||('.', '', '', '', 0.0)||
('they', '', '', '', 0.0)||('increase', 'verb', 'C0442805', ['ftcn'], 0.0)||('the', '', '', '', 0.0)||('odds', '', '', '', 0.0)||('of', '', '', '', 0.0)||('quitting', '', '', '', 0.0)||('approximately', 'adv', 'C0332232', ['qlco'], 0.0)||('1 . 5', '', '', '', 0.0)||('to', '', '', '', 0.0)||('2', '', '', '', 0.0)||('fold', 'noun', 'C0332462', ['spco'], 0.0)||('regardless of', '', '', '', 0.0)||('setting', 'noun', 'C0542559', ['ftcn'], 0.0)||('.', '', '', '', 0.0)||
('the', '', '', '', 0.0)||('effectiveness', 'noun', 'C1280519', ['qlco'], 0.0)||('of', '', '', '', 0.0)||('nicotine', 'noun', 'C0028040', ['hops', 'orch', 'phsu'], 0.0)||('replacement therapy', 'noun', 'C0279033', ['topp'], 0.0)||('appears', '', '', '', 0.0)||('to', '', '', '', 0.0)||('be', '', '', '', 0.0)||('largely', '', '', '', 0.0)||('independent of', '', '', '', 0.0)||('the', '', '', '', 0.0)||('intensity', 'noun', 'C0522510', ['qlco'], 0.0)||('of', '', '', '', 0.0)||('additional', 'adj', 'C1524062', ['ftcn'], 0.0)||('support', 'noun', 'C0183683', ['medd'], 0.0)||('provided', '', '', '', 0.0)||('to', '', '', '', 0.0)||('the', '', '', '', 0.0)||('smoker', 'noun', 'C0337664', ['fndg'], 0.0)||('.', '', '', '', 0.0)||
('provision', '', '', '', 0.0)||('of', '', '', '', 0.0)||('more', '', '', '', 0.0)||('intense', 'adj', 'C0522510', ['qlco'], 0.0)||('levels', 'noun', 'C0441889', ['qlco'], 0.0)||('of', '', '', '', 0.0)||('support', 'noun', 'C0183683', ['medd'], 0.0)||(',', '', '', '', 0.0)||('although', '', '', '', 0.0)||('beneficial', '', '', '', 0.0)||('in', '', '', '', 0.0)||('facilitating', 'noun', 'C1999202', ['ftcn'], 0.0)||('the', '', '', '', 0.0)||('likelihood', 'noun', 'C0033204', ['qnco'], 0.0)||('of', '', '', '', 0.0)||('quitting', '', '', '', 0.0)||(',', '', '', '', 0.0)||('is', '', '', '', 0.0)||('not', 'adv', 'C1518422', ['ftcn'], 0.0)||('essential', 'adj', 'C0205224', ['qlco'], 0.0)||('to', '', '', '', 0.0)||('the', '', '', '', 0.0)||('success', 'noun', 'C0597535', ['socb'], 0.0)||('of', '', '', '', 0.0)||('nicotine', 'noun', 'C0028040', ['hops', 'orch', 'phsu'], 0.0)||('replacement therapy', 'noun', 'C0279033', ['topp'], 0.0)||('.', '', '', '', 0.0)||
