('the', '', '', '', 0.0)||('fda', 'noun', 'C0041714', ['hcro'], 0.0)||('has', '', '', '', 0.0)||('not', 'adv', 'C1518422', ['ftcn'], 0.0)||('approved', 'verb', 'C0205540', ['qlco'], 0.0)||('this', '', '', '', 0.0)||('live - virus', '', '', '', 0.0)||('vaccine', 'noun', 'C0042210', ['imft', 'phsu'], 0.0)||('for', '', '', '', 0.0)||('use', 'noun', 'C0042153', ['ftcn'], 0.0)||('in', '', '', '', 0.0)||('pregnant', 'adj', 'C0549206', ['fndg'], 0.0)||('women', 'noun', 'C0043210', ['popg'], 0.0)||('and', '', '', '', 0.0)||('immunocom', '', '', '', 0.0)||('-', '', '', '', 0.0)||('promised', '', '', '', 0.0)||('persons', 'noun', 'C0027361', ['popg'], 0.0)||(',', '', '', '', 0.0)||('including', '', '', '', 0.0)||('transplant', 'noun', 'C0040732', ['topp'], 0.0)||('recipients', '', '', '', 0.0)||('and', '', '', '', 0.0)||('persons', 'noun', 'C0027361', ['popg'], 0.0)||('receiving', '', '', '', 0.0)||('corticosteroid', 'noun', 'C0001617', ['horm', 'phsu', 'strd'], 0.0)||('therapy', 'noun', 'C0039798', ['ftcn'], 0.0)||('.', '', '', '', 0.0)||
('however', '', '', '', 0.0)||(',', '', '', '', 0.0)||('the', '', '', '', 0.0)||('vaccine', 'noun', 'C0042210', ['imft', 'phsu'], 0.0)||('has', '', '', '', 0.0)||('been', '', '', '', 0.0)||('very', 'adv', 'C0442824', ['qlco'], 0.0)||('well - studied', '', '', '', 0.0)||('in', '', '', '', 0.0)||('children', 'noun', 'C0008059', ['aggp'], 0.0)||('with', '', '', '', 0.0)||('leukemia', '', '', '', 0.0)||('.', '', '', '', 0.0)||
('a', '', '', '', 0.0)||('review', 'noun', 'C0282443', ['inpr'], 0.0)||('of', '', '', '', 0.0)||('these', '', '', '', 0.0)||('studies', '', '', '', 0.0)||('found', '', '', '', 0.0)||('that', '', '', '', 0.0)||('optimal', 'adj', 'C2698651', ['qlco'], 0.0)||('seroconversion', '', '', '', 0.0)||('requires', '', '', '', 0.0)||('2', '', '', '', 0.0)||('sequential', 'adj', 'C1548958', ['idcn'], 0.0)||('vaccine doses', '', '', '', 0.0)||('(', '', '', '', 0.0)||('86 %', '', '', '', 0.0)||('efficacy', 'noun', 'C1707887', ['resa'], 0.0)||(')', '', '', '', 0.0)||('.', '', '', '', 0.0)||
('a', '', '', '', 0.0)||('rash', 'noun', 'C0015230', ['dsyn'], 0.0)||('of', '', '', '', 0.0)||('varying', '', '', '', 0.0)||('severity', 'noun', 'C0439793', ['qlco'], 0.0)||('was', '', '', '', 0.0)||('the', '', '', '', 0.0)||('predominant', '', '', '', 0.0)||('adverse', '', '', '', 0.0)||('event', 'noun', 'C0441471', ['evnt'], 0.0)||('in', '', '', '', 0.0)||('20 %', '', '', '', 0.0)||('to', '', '', '', 0.0)||('50 %', '', '', '', 0.0)||('of', '', '', '', 0.0)||('vacinees', '', '', '', 0.0)||('.', '', '', '', 0.0)||
