('there', '', '', '', 0.0)||('is', '', '', '', 0.0)||('controversy', 'noun', 'C0680243', ['socb'], 0.0)||('regarding', '', '', '', 0.0)||('whether', '', '', '', 0.0)||('hypersensitivity', 'noun', 'C0020517', ['patf'], 0.0)||('to', '', '', '', 0.0)||('food', 'noun', 'C0016452', ['food'], 0.0)||('proteins', 'noun', 'C0033684', ['aapp', 'bacs'], 0.0)||('contributes', '', '', '', 0.0)||('to', '', '', '', 0.0)||('colic', 'adj', 'C0232488', ['sosy'], 0.0)||('among', '', '', '', 0.0)||('breastfed', '', '', '', 0.0)||('infants', 'noun', 'C0021270', ['aggp'], 0.0)||('.', '', '', '', 0.0)||
('a', '', '', '', 0.0)||('randomized', 'adj', 'C0034656', ['resa'], 0.0)||(',', '', '', '', 0.0)||('controlled', 'adj', 'C2587213', ['ftcn'], 0.0)||('trial', 'noun', 'C0008976', ['resa'], 0.0)||('of', '', '', '', 0.0)||('a', '', '', '', 0.0)||('low', 'adj', 'C0205251', ['qlco'], 0.0)||('-', '', '', '', 0.0)||('allergen', 'noun', 'C0002092', ['imft'], 0.0)||('maternal', 'adj', 'C1858460', ['clna'], 0.0)||('diet', 'noun', 'C0012155', ['food'], 0.0)||('was', '', '', '', 0.0)||('conducted', '', '', '', 0.0)||('among', '', '', '', 0.0)||('exclusively', '', '', '', 0.0)||('breastfed', '', '', '', 0.0)||('infants', 'noun', 'C0021270', ['aggp'], 0.0)||('presenting', 'verb', 'C0449450', ['idcn'], 0.0)||('with', '', '', '', 0.0)||('colic', 'adj', 'C0232488', ['sosy'], 0.0)||('.', '', '', '', 0.0)||
('in', '', '', '', 0.0)||('the', '', '', '', 0.0)||('active', 'adj', 'C0205177', ['ftcn'], 0.0)||('arm', 'noun', 'C0446516', ['blor'], 0.0)||(',', '', '', '', 0.0)||('mothers', 'noun', 'C0026591', ['famg'], 0.0)||('excluded', 'verb', 'C1554077', ['idcn'], 0.0)||('cow', 'noun', 'C0007452', ['mamm'], 0.0)||("' s", '', '', '', 0.0)||('milk', 'noun', 'C0026131', ['bdsu'], 0.0)||(',', '', '', '', 0.0)||('eggs', 'noun', 'C0013710', ['food'], 0.0)||(',', '', '', '', 0.0)||('peanuts', 'noun', 'C0949399', ['food'], 0.0)||(',', '', '', '', 0.0)||('tree nuts', '', '', '', 0.0)||(',', '', '', '', 0.0)||('wheat', 'noun', 'C0043137', ['food'], 0.0)||(',', '', '', '', 0.0)||('soy', 'noun', 'C0677666', ['aapp', 'phsu'], 0.0)||(',', '', '', '', 0.0)||('and', '', '', '', 0.0)||('fish', 'noun', 'C0016163', ['fish'], 0.0)||('from', '', '', '', 0.0)||('their', '', '', '', 0.0)||('diet', 'noun', 'C0012155', ['food'], 0.0)||(';', '', '', '', 0.0)||
('mothers', 'noun', 'C0026591', ['famg'], 0.0)||('in', '', '', '', 0.0)||('the', '', '', '', 0.0)||('control group', 'noun', 'C0009932', ['grup'], 0.0)||('continued', 'verb', 'C0549178', ['idcn'], 0.0)||('to', '', '', '', 0.0)||('consume', '', '', '', 0.0)||('these', '', '', '', 0.0)||('foods', 'noun', 'C0016452', ['food'], 0.0)||('.', '', '', '', 0.0)||
('outcomes', 'noun', 'C0085415', ['qlco'], 0.0)||('were', '', '', '', 0.0)||('assessed', 'verb', 'C1516048', ['acty'], 0.0)||('after', '', '', '', 0.0)||('7', '', '', '', 0.0)||('days', 'noun', 'C0439228', ['tmco'], 0.0)||(',', '', '', '', 0.0)||('as', '', '', '', 0.0)||('the', '', '', '', 0.0)||('change', 'noun', 'C0392747', ['ftcn'], 0.0)||('in', '', '', '', 0.0)||('cry', 'noun', 'C0010399', ['inbe'], 0.0)||('/', '', '', '', 0.0)||('fuss', '', '', '', 0.0)||('duration', 'noun', 'C0449238', ['tmco'], 0.0)||('over', '', '', '', 0.0)||('48', '', '', '', 0.0)||('hours', 'noun', 'C0439227', ['tmco'], 0.0)||(',', '', '', '', 0.0)||('with', '', '', '', 0.0)||('validated', '', '', '', 0.0)||('charts', 'noun', 'C0007963', ['medd'], 0.0)||('.', '', '', '', 0.0)||
('the', '', '', '', 0.0)||('primary', 'adj', 'C0205225', ['qlco'], 0.0)||('end point', 'noun', 'C2349179', ['qlco'], 0.0)||('was', '', '', '', 0.0)||('a', '', '', '', 0.0)||('reduction', 'noun', 'C0301630', ['npop'], 0.0)||('in', '', '', '', 0.0)||('cry', 'noun', 'C0010399', ['inbe'], 0.0)||('/', '', '', '', 0.0)||('fuss', '', '', '', 0.0)||('duration', 'noun', 'C0449238', ['tmco'], 0.0)||('of', '', '', '', 0.0)||('>', '', '', '', 0.0)||('or', '', '', '', 0.0)||('=', '', '', '', 0.0)||('25 %', '', '', '', 0.0)||('from', '', '', '', 0.0)||('baseline', 'noun', 'C0168634', ['bodm'], 0.0)||('.', '', '', '', 0.0)||
('mothers', 'noun', 'C0026591', ['famg'], 0.0)||('also', '', '', '', 0.0)||('assessed', 'verb', 'C1516048', ['acty'], 0.0)||('the', '', '', '', 0.0)||('responses', 'noun', 'C0871261', ['clna'], 0.0)||('to', '', '', '', 0.0)||('diet', 'noun', 'C0012155', ['food'], 0.0)||('with', '', '', '', 0.0)||('categorical', '', '', '', 0.0)||('and', '', '', '', 0.0)||('visual analog scales', '', '', '', 0.0)||('.', '', '', '', 0.0)||
('of', '', '', '', 0.0)||('107', '', '', '', 0.0)||('infants', 'noun', 'C0021270', ['aggp'], 0.0)||(',', '', '', '', 0.0)||('90', '', '', '', 0.0)||('completed', 'verb', 'C0205197', ['qlco'], 0.0)||('the', '', '', '', 0.0)||('trial', 'noun', 'C0008976', ['resa'], 0.0)||('(', '', '', '', 0.0)||('mean', 'noun', 'C0444504', ['qnco'], 0.0)||('age', 'noun', 'C0001779', ['orga'], 0.0)||(':', '', '', '', 0.0)||('5 . 7', '', '', '', 0.0)||('weeks', 'noun', 'C0439230', ['tmco'], 0.0)||(';', '', '', '', 0.0)||('range', 'noun', 'C1514721', ['qnco'], 0.0)||(':', '', '', '', 0.0)||('2 . 9', '', '', '', 0.0)||('-', '', '', '', 0.0)||('8 . 6', '', '', '', 0.0)||('weeks', 'noun', 'C0439230', ['tmco'], 0.0)||(';', '', '', '', 0.0)||('54', '', '', '', 0.0)||('male', 'noun', 'C0024554', ['orga'], 0.0)||('infants', 'noun', 'C0021270', ['aggp'], 0.0)||(')', '', '', '', 0.0)||('.', '', '', '', 0.0)||
('infants', 'noun', 'C0021270', ['aggp'], 0.0)||('in', '', '', '', 0.0)||('both', '', '', '', 0.0)||('groups', 'noun', 'C0441833', ['idcn'], 0.0)||('presented', 'verb', 'C0449450', ['idcn'], 0.0)||('with', '', '', '', 0.0)||('significant', 'adj', 'C0750502', ['idcn'], 0.0)||('distress', 'noun', 'C0231303', ['menp'], 0.0)||('(', '', '', '', 0.0)||('geometric mean', '', '', '', 0.0)||(':', '', '', '', 0.0)||('low', 'adj', 'C0205251', ['qlco'], 0.0)||('-', '', '', '', 0.0)||('allergen', 'noun', 'C0002092', ['imft'], 0.0)||('group', 'noun', 'C0441833', ['idcn'], 0.0)||(':', '', '', '', 0.0)||('690', '', '', '', 0.0)||('minutes', 'noun', 'C0439232', ['tmco'], 0.0)||('per', '', '', '', 0.0)||('48', '', '', '', 0.0)||('hours', 'noun', 'C0439227', ['tmco'], 0.0)||(';', '', '', '', 0.0)||('control group', 'noun', 'C0009932', ['grup'], 0.0)||(':', '', '', '', 0.0)||('631', '', '', '', 0.0)||('minutes', 'noun', 'C0439232', ['tmco'], 0.0)||('per', '', '', '', 0.0)||('48', '', '', '', 0.0)||('hours', 'noun', 'C0439227', ['tmco'], 0.0)||(')', '', '', '', 0.0)||('.', '', '', '', 0.0)||
('in', '', '', '', 0.0)||('follow - up', '', '', '', 0.0)||('assessments', '', '', '', 0.0)||('on', '', '', '', 0.0)||('days', 'noun', 'C0439228', ['tmco'], 0.0)||('8', '', '', '', 0.0)||('and', '', '', '', 0.0)||('9', '', '', '', 0.0)||(',', '', '', '', 0.0)||('there', '', '', '', 0.0)||('were', '', '', '', 0.0)||('significantly', '', '', '', 0.0)||('more', '', '', '', 0.0)||('responders', '', '', '', 0.0)||('in', '', '', '', 0.0)||('the', '', '', '', 0.0)||('low', 'adj', 'C0205251', ['qlco'], 0.0)||('-', '', '', '', 0.0)||('allergen', 'noun', 'C0002092', ['imft'], 0.0)||('group', 'noun', 'C0441833', ['idcn'], 0.0)||('(', '', '', '', 0.0)||('74 %', '', '', '', 0.0)||('vs', '', '', '', 0.0)||('37 %', '', '', '', 0.0)||(')', '', '', '', 0.0)||(',', '', '', '', 0.0)||('ie', '', '', '', 0.0)||(',', '', '', '', 0.0)||('an', '', '', '', 0.0)||('absolute risk reduction', '', '', '', 0.0)||('of', '', '', '', 0.0)||('37 %', '', '', '', 0.0)||('(', '', '', '', 0.0)||('95 %', '', '', '', 0.0)||('confidence interval', 'noun', 'C0009667', ['qnco'], 0.0)||(':', '', '', '', 0.0)||('18', '', '', '', 0.0)||('-', '', '', '', 0.0)||('56 %', '', '', '', 0.0)||(')', '', '', '', 0.0)||('.', '', '', '', 0.0)||
('cry', 'noun', 'C0010399', ['inbe'], 0.0)||('/', '', '', '', 0.0)||('fuss', '', '', '', 0.0)||('duration', 'noun', 'C0449238', ['tmco'], 0.0)||('per', '', '', '', 0.0)||('48', '', '', '', 0.0)||('hours', 'noun', 'C0439227', ['tmco'], 0.0)||('was', '', '', '', 0.0)||('reduced', 'verb', 'C0392756', ['qlco'], 0.0)||('by', '', '', '', 0.0)||('a', '', '', '', 0.0)||('substantially', '', '', '', 0.0)||('greater', 'adj', 'C1704243', ['qnco'], 0.0)||('amount', 'noun', 'C1265611', ['qnco'], 0.0)||('in', '', '', '', 0.0)||('the', '', '', '', 0.0)||('low', 'adj', 'C0205251', ['qlco'], 0.0)||('-', '', '', '', 0.0)||('allergen', 'noun', 'C0002092', ['imft'], 0.0)||('group', 'noun', 'C0441833', ['idcn'], 0.0)||(';', '', '', '', 0.0)||
('the', '', '', '', 0.0)||('adjusted', 'adj', 'C0456081', ['ftcn'], 0.0)||('geometric mean ratio', '', '', '', 0.0)||('was', '', '', '', 0.0)||('0 . 79', '', '', '', 0.0)||('(', '', '', '', 0.0)||('95 %', '', '', '', 0.0)||('confidence interval', 'noun', 'C0009667', ['qnco'], 0.0)||(':', '', '', '', 0.0)||('0 . 63', '', '', '', 0.0)||('-', '', '', '', 0.0)||('0 . 97', '', '', '', 0.0)||(')', '', '', '', 0.0)||(',', '', '', '', 0.0)||('ie', '', '', '', 0.0)||(',', '', '', '', 0.0)||('an', '', '', '', 0.0)||('average', 'adj', 'C1510992', ['qnco'], 0.0)||('reduction', 'noun', 'C0301630', ['npop'], 0.0)||('of', '', '', '', 0.0)||('21 %', '', '', '', 0.0)||('(', '', '', '', 0.0)||('95 %', '', '', '', 0.0)||('confidence interval', 'noun', 'C0009667', ['qnco'], 0.0)||(':', '', '', '', 0.0)||('3', '', '', '', 0.0)||('-', '', '', '', 0.0)||('37 %', '', '', '', 0.0)||(')', '', '', '', 0.0)||('.', '', '', '', 0.0)||
('mothers', 'noun', 'C0026591', ['famg'], 0.0)||("'", '', '', '', 0.0)||('subjective', 'adj', 'C0439655', ['qlco'], 0.0)||('assessments', '', '', '', 0.0)||('of', '', '', '', 0.0)||('the', '', '', '', 0.0)||('responses', 'noun', 'C0871261', ['clna'], 0.0)||('to', '', '', '', 0.0)||('diet', 'noun', 'C0012155', ['food'], 0.0)||('indicated', 'verb', 'C1444656', ['fndg'], 0.0)||('little', '', '', '', 0.0)||('difference', 'noun', 'C1705242', ['qlco'], 0.0)||('between', '', '', '', 0.0)||('the', '', '', '', 0.0)||('groups', 'noun', 'C0441833', ['idcn'], 0.0)||('.', '', '', '', 0.0)||
('exclusion', 'noun', 'C0680251', ['ftcn'], 0.0)||('of', '', '', '', 0.0)||('allergenic', '', '', '', 0.0)||('foods', 'noun', 'C0016452', ['food'], 0.0)||('from', '', '', '', 0.0)||('the', '', '', '', 0.0)||('maternal', 'adj', 'C1858460', ['clna'], 0.0)||('diet', 'noun', 'C0012155', ['food'], 0.0)||('was', '', '', '', 0.0)||('associated', 'verb', 'C0332281', ['qlco'], 0.0)||('with', '', '', '', 0.0)||('a', '', '', '', 0.0)||('reduction', 'noun', 'C0301630', ['npop'], 0.0)||('in', '', '', '', 0.0)||('distressed', 'adj', 'C0700361', ['mobd'], 0.0)||('behavior', 'noun', 'C0004927', ['inbe'], 0.0)||('among', '', '', '', 0.0)||('breastfed', '', '', '', 0.0)||('infants', 'noun', 'C0021270', ['aggp'], 0.0)||('with', '', '', '', 0.0)||('colic', 'adj', 'C0232488', ['sosy'], 0.0)||('presenting', 'noun', 'C0449450', ['idcn'], 0.0)||('in', '', '', '', 0.0)||('the', '', '', '', 0.0)||('first', 'noun', 'C0205435', ['qnco'], 0.0)||('6', '', '', '', 0.0)||('weeks', 'noun', 'C0439230', ['tmco'], 0.0)||('of', '', '', '', 0.0)||('life', 'noun', 'C0376558', ['idcn'], 0.0)||('.', '', '', '', 0.0)||
