('in', '', '', '', 0.0)||('a', '', '', '', 0.0)||('double - blind study', '', '', '', 0.0)||('of', '', '', '', 0.0)||('18', '', '', '', 0.0)||('patients', 'noun', 'C0030705', ['podg'], 0.0)||('with', '', '', '', 0.0)||('coxarthrosis', 'noun', 'C0029410', ['dsyn'], 0.0)||('the', '', '', '', 0.0)||('effect', 'noun', 'C1280500', ['qlco'], 0.0)||('of', '', '', '', 0.0)||('3', '', '', '', 0.0)||('naproxen', 'noun', 'C0027396', ['orch', 'phsu'], 0.0)||('doses', 'noun', 'C0178602', ['qnco'], 0.0)||('(', '', '', '', 0.0)||('0 . 5', '', '', '', 0.0)||(',', '', '', '', 0.0)||('1 . 0', '', '', '', 0.0)||(',', '', '', '', 0.0)||('and', '', '', '', 0.0)||('1 . 5', '', '', '', 0.0)||('g', '', '', '', 0.0)||('daily', 'adv', 'C0332173', ['tmco'], 0.0)||(')', '', '', '', 0.0)||('and', '', '', '', 0.0)||('2', '', '', '', 0.0)||('naproxen', 'noun', 'C0027396', ['orch', 'phsu'], 0.0)||('doses', 'noun', 'C0178602', ['qnco'], 0.0)||('combined', 'verb', 'C0205195', ['qlco'], 0.0)||('with', '', '', '', 0.0)||('paracetamol', 'noun', 'C0000970', ['orch', 'phsu'], 0.0)||('(', '', '', '', 0.0)||('0 . 5', '', '', '', 0.0)||('g', '', '', '', 0.0)||('+', '', '', '', 0.0)||('4', '', '', '', 0.0)||('g', '', '', '', 0.0)||('daily', 'adj', 'C0332173', ['tmco'], 0.0)||('and', '', '', '', 0.0)||('1 . 0', '', '', '', 0.0)||('g', '', '', '', 0.0)||('+', '', '', '', 0.0)||('4', '', '', '', 0.0)||('g', '', '', '', 0.0)||('daily', 'adv', 'C0332173', ['tmco'], 0.0)||(')', '', '', '', 0.0)||('was', '', '', '', 0.0)||('investigated', '', '', '', 0.0)||('.', '', '', '', 0.0)||
('plasma levels', '', '', '', 0.0)||('of', '', '', '', 0.0)||('naproxen', 'noun', 'C0027396', ['orch', 'phsu'], 0.0)||('and', '', '', '', 0.0)||('paracetamol', 'noun', 'C0000970', ['orch', 'phsu'], 0.0)||('were', '', '', '', 0.0)||('measured', 'verb', 'C0444706', ['qlco'], 0.0)||('(', '', '', '', 0.0)||('hplc', 'noun', 'C0008562', ['lbpr'], 0.0)||(')', '', '', '', 0.0)||(',', '', '', '', 0.0)||('and', '', '', '', 0.0)||('clinical', 'adj', 'C0205210', ['qlco'], 0.0)||('assessment', 'noun', 'C1261322', ['hlca'], 0.0)||('of', '', '', '', 0.0)||('pain', 'noun', 'C0030193', ['sosy'], 0.0)||(',', '', '', '', 0.0)||('joint', 'adj', 'C0022417', ['bsoj'], 0.0)||('movement', 'noun', 'C0026649', ['orgf'], 0.0)||(',', '', '', '', 0.0)||('activity', 'noun', 'C0441655', ['acty'], 0.0)||('of', '', '', '', 0.0)||('daily', 'adj', 'C0332173', ['tmco'], 0.0)||('life', 'noun', 'C0376558', ['idcn'], 0.0)||('and', '', '', '', 0.0)||('side - effects', '', '', '', 0.0)||('were', '', '', '', 0.0)||('performed', 'verb', 'C0884358', ['ftcn'], 0.0)||('at', '', '', '', 0.0)||('the', '', '', '', 0.0)||('end', 'noun', 'C0444930', ['spco'], 0.0)||('of', '', '', '', 0.0)||('the', '', '', '', 0.0)||('5', '', '', '', 0.0)||('treatment', 'noun', 'C0039798', ['ftcn'], 0.0)||('periods', '', '', '', 0.0)||('.', '', '', '', 0.0)||
('a', '', '', '', 0.0)||('relationship', 'noun', 'C0439849', ['qlco'], 0.0)||('was', '', '', '', 0.0)||('found', '', '', '', 0.0)||('between', '', '', '', 0.0)||('the', '', '', '', 0.0)||('3', '', '', '', 0.0)||('naproxen', 'noun', 'C0027396', ['orch', 'phsu'], 0.0)||('doses', 'noun', 'C0178602', ['qnco'], 0.0)||(',', '', '', '', 0.0)||('naproxen', 'noun', 'C0027396', ['orch', 'phsu'], 0.0)||('plasma levels', '', '', '', 0.0)||(',', '', '', '', 0.0)||('pain', 'noun', 'C0030193', ['sosy'], 0.0)||('at', '', '', '', 0.0)||('rest', 'noun', 'C0035253', ['dora'], 0.0)||(',', '', '', '', 0.0)||('and', '', '', '', 0.0)||('pain', 'noun', 'C0030193', ['sosy'], 0.0)||('during', '', '', '', 0.0)||('movement', 'noun', 'C0026649', ['orgf'], 0.0)||('.', '', '', '', 0.0)||
('the', '', '', '', 0.0)||('combined', 'adj', 'C0205195', ['qlco'], 0.0)||('treatment', 'noun', 'C0039798', ['ftcn'], 0.0)||('was', '', '', '', 0.0)||('more', '', '', '', 0.0)||('effective', 'adj', 'C1704419', ['qlco'], 0.0)||('than', '', '', '', 0.0)||('treatment', 'noun', 'C0039798', ['ftcn'], 0.0)||('with', '', '', '', 0.0)||('the', '', '', '', 0.0)||('same', 'adj', 'C0445247', ['qlco'], 0.0)||('naproxen', 'noun', 'C0027396', ['orch', 'phsu'], 0.0)||('dose', 'noun', 'C0178602', ['qnco'], 0.0)||('alone', 'adj', 'C0439044', ['fndg'], 0.0)||('.', '', '', '', 0.0)||
('the', '', '', '', 0.0)||('effect', 'noun', 'C1280500', ['qlco'], 0.0)||('of', '', '', '', 0.0)||('naproxen', 'noun', 'C0027396', ['orch', 'phsu'], 0.0)||('(', '', '', '', 0.0)||('0 . 5', '', '', '', 0.0)||('g', '', '', '', 0.0)||('daily', 'adv', 'C0332173', ['tmco'], 0.0)||(')', '', '', '', 0.0)||('combined', 'verb', 'C0205195', ['qlco'], 0.0)||('with', '', '', '', 0.0)||('paracetamol', 'noun', 'C0000970', ['orch', 'phsu'], 0.0)||('(', '', '', '', 0.0)||('4', '', '', '', 0.0)||('g', '', '', '', 0.0)||('daily', 'adv', 'C0332173', ['tmco'], 0.0)||(')', '', '', '', 0.0)||('did', '', '', '', 0.0)||('not', 'adv', 'C1518422', ['ftcn'], 0.0)||('differ', '', '', '', 0.0)||('from', '', '', '', 0.0)||('that', '', '', '', 0.0)||('obtained', 'verb', 'C1301820', ['ftcn'], 0.0)||('during', '', '', '', 0.0)||('treatment', 'noun', 'C0039798', ['ftcn'], 0.0)||('with', '', '', '', 0.0)||('higher', '', '', '', 0.0)||('naproxen', 'noun', 'C0027396', ['orch', 'phsu'], 0.0)||('doses', 'noun', 'C0178602', ['qnco'], 0.0)||('only', '', '', '', 0.0)||('.', '', '', '', 0.0)||
('furthermore', '', '', '', 0.0)||(',', '', '', '', 0.0)||('the', '', '', '', 0.0)||('effect', 'noun', 'C1280500', ['qlco'], 0.0)||('of', '', '', '', 0.0)||('the', '', '', '', 0.0)||('highest', 'adj', 'C1522410', ['qlco'], 0.0)||('naproxen', 'adj', 'C0027396', ['orch', 'phsu'], 0.0)||('dose', 'noun', 'C0178602', ['qnco'], 0.0)||('was', '', '', '', 0.0)||('not', 'adv', 'C1518422', ['ftcn'], 0.0)||('better', 'adj', 'C0332272', ['qlco'], 0.0)||('than', '', '', '', 0.0)||('the', '', '', '', 0.0)||('effect', 'noun', 'C1280500', ['qlco'], 0.0)||('of', '', '', '', 0.0)||('the', '', '', '', 0.0)||('lower', 'adj', 'C0441994', ['ftcn'], 0.0)||('naproxen', 'noun', 'C0027396', ['orch', 'phsu'], 0.0)||('dose', 'noun', 'C0178602', ['qnco'], 0.0)||('(', '', '', '', 0.0)||('1 . 0', '', '', '', 0.0)||('g', '', '', '', 0.0)||('daily', 'adv', 'C0332173', ['tmco'], 0.0)||(')', '', '', '', 0.0)||('combined', 'verb', 'C0205195', ['qlco'], 0.0)||('with', '', '', '', 0.0)||('paracetamol', 'noun', 'C0000970', ['orch', 'phsu'], 0.0)||('.', '', '', '', 0.0)||
('the', '', '', '', 0.0)||('main', 'adj', 'C0205225', ['qlco'], 0.0)||('finding', 'noun', 'C0037088', ['sosy'], 0.0)||('was', '', '', '', 0.0)||('that', '', '', '', 0.0)||('treatment', 'noun', 'C0039798', ['ftcn'], 0.0)||('with', '', '', '', 0.0)||('naproxen', 'noun', 'C0027396', ['orch', 'phsu'], 0.0)||('and', '', '', '', 0.0)||('paracetamol', 'noun', 'C0000970', ['orch', 'phsu'], 0.0)||('is', '', '', '', 0.0)||('more', '', '', '', 0.0)||('effective', 'adj', 'C1704419', ['qlco'], 0.0)||('than', '', '', '', 0.0)||('treatment', 'noun', 'C0039798', ['ftcn'], 0.0)||('with', '', '', '', 0.0)||('higher', '', '', '', 0.0)||('naproxen', 'noun', 'C0027396', ['orch', 'phsu'], 0.0)||('doses', 'noun', 'C0178602', ['qnco'], 0.0)||('alone', 'adj', 'C0439044', ['fndg'], 0.0)||('.', '', '', '', 0.0)||
