('type 2 diabetes mellitus', '', '', '', 0.0)||('is', '', '', '', 0.0)||('associated', 'verb', 'C0332281', ['qlco'], 0.0)||('with', '', '', '', 0.0)||('a', '', '', '', 0.0)||('heavy', 'adj', 'C0439539', ['qlco'], 0.0)||('burden', '', '', '', 0.0)||('of', '', '', '', 0.0)||('suffering', 'noun', 'C0683278', ['mobd'], 0.0)||('.', '', '', '', 0.0)||
('screening', 'noun', 'C0220908', ['hlca'], 0.0)||('for', '', '', '', 0.0)||('diabetes', 'noun', 'C0011847', ['dsyn'], 0.0)||('is', '', '', '', 0.0)||('controversial', '', '', '', 0.0)||('.', '', '', '', 0.0)||
('to', '', '', '', 0.0)||('examine', '', '', '', 0.0)||('the', '', '', '', 0.0)||('evidence', 'noun', 'C0332120', ['ftcn'], 0.0)||('that', '', '', '', 0.0)||('screening', 'noun', 'C0220908', ['hlca'], 0.0)||('and', '', '', '', 0.0)||('earlier', '', '', '', 0.0)||('treatment', 'noun', 'C0039798', ['ftcn'], 0.0)||('are', '', '', '', 0.0)||('effective', 'adj', 'C1704419', ['qlco'], 0.0)||('in', '', '', '', 0.0)||('reducing', 'adj', 'C0392756', ['qlco'], 0.0)||('morbidity', 'noun', 'C0026538', ['qnco'], 0.0)||('and', '', '', '', 0.0)||('mortality', 'noun', 'C0026565', ['qnco'], 0.0)||('associated', 'verb', 'C0332281', ['qlco'], 0.0)||('with', '', '', '', 0.0)||('diabetes', 'noun', 'C0011847', ['dsyn'], 0.0)||('.', '', '', '', 0.0)||
('medline', 'noun', 'C0025141', ['inpr'], 0.0)||(',', '', '', '', 0.0)||('the', '', '', '', 0.0)||('cochrane', '', '', '', 0.0)||('library', 'noun', 'C0023621', ['mnob', 'orgt'], 0.0)||(',', '', '', '', 0.0)||('reviews', '', '', '', 0.0)||(',', '', '', '', 0.0)||('and', '', '', '', 0.0)||('experts', '', '', '', 0.0)||(',', '', '', '', 0.0)||('all', '', '', '', 0.0)||('of', '', '', '', 0.0)||('which', '', '', '', 0.0)||('addressed', '', '', '', 0.0)||('key', '', '', '', 0.0)||('questions', '', '', '', 0.0)||('about', '', '', '', 0.0)||('screening', 'noun', 'C0220908', ['hlca'], 0.0)||('.', '', '', '', 0.0)||
('studies', '', '', '', 0.0)||('that', '', '', '', 0.0)||('provided', '', '', '', 0.0)||('information', 'noun', 'C1533716', ['idcn'], 0.0)||('about', '', '', '', 0.0)||('the', '', '', '', 0.0)||('existence', '', '', '', 0.0)||('and', '', '', '', 0.0)||('length', 'noun', 'C1444754', ['qnco'], 0.0)||('of', '', '', '', 0.0)||('an', '', '', '', 0.0)||('asymptomatic', 'adj', 'C0231221', ['fndg'], 0.0)||('phase', 'noun', 'C0205390', ['tmco'], 0.0)||('of', '', '', '', 0.0)||('diabetes', 'noun', 'C0011847', ['dsyn'], 0.0)||(';', '', '', '', 0.0)||
('studies', '', '', '', 0.0)||('that', '', '', '', 0.0)||('addressed', '', '', '', 0.0)||('the', '', '', '', 0.0)||('accuracy', 'noun', 'C0443131', ['qlco'], 0.0)||('and', '', '', '', 0.0)||('reliability', 'noun', 'C2347947', ['qnco'], 0.0)||('of', '', '', '', 0.0)||('screening tests', 'noun', 'C0871311', ['hlca'], 0.0)||(';', '', '', '', 0.0)||
('and', '', '', '', 0.0)||('randomized', 'adj', 'C0034656', ['resa'], 0.0)||(',', '', '', '', 0.0)||('controlled', 'adj', 'C2587213', ['ftcn'], 0.0)||('trials', '', '', '', 0.0)||('with', '', '', '', 0.0)||('health', 'noun', 'C0018684', ['idcn'], 0.0)||('outcomes', 'noun', 'C0085415', ['qlco'], 0.0)||('for', '', '', '', 0.0)||('various', 'adj', 'C0440102', ['irda'], 0.0)||('treatment', 'noun', 'C0039798', ['ftcn'], 0.0)||('strategies', 'noun', 'C0679199', ['menp'], 0.0)||('were', '', '', '', 0.0)||('selected', '', '', '', 0.0)||('.', '', '', '', 0.0)||
('two', 'noun', 'C0205448', ['qnco'], 0.0)||('reviewers', '', '', '', 0.0)||('abstracted', '', '', '', 0.0)||('relevant', 'adj', 'C2347946', ['qlco'], 0.0)||('information', 'noun', 'C1533716', ['idcn'], 0.0)||('using', 'verb', 'C1524063', ['ftcn'], 0.0)||('standardized', '', '', '', 0.0)||('abstraction', 'noun', 'C0679195', ['inpr'], 0.0)||('forms', 'noun', 'C0376315', ['mnob'], 0.0)||('and', '', '', '', 0.0)||('graded', '', '', '', 0.0)||('articles', '', '', '', 0.0)||('according to', '', '', '', 0.0)||('u', '', '', '', 0.0)||('.', '', '', '', 0.0)||('s', '', '', '', 0.0)||('.', '', '', '', 0.0)||
('preventive', 'adj', 'C1456501', ['qlco'], 0.0)||('services', 'noun', 'C0557854', ['acty'], 0.0)||('task force', 'noun', 'C0162458', ['gora'], 0.0)||('criteria', 'noun', 'C0243161', ['inpr'], 0.0)||('.', '', '', '', 0.0)||
('no', '', '', '', 0.0)||('randomized', 'adj', 'C0034656', ['resa'], 0.0)||(',', '', '', '', 0.0)||('controlled', 'adj', 'C2587213', ['ftcn'], 0.0)||('trial', 'noun', 'C0008976', ['resa'], 0.0)||('of', '', '', '', 0.0)||('screening', 'noun', 'C0220908', ['hlca'], 0.0)||('for', '', '', '', 0.0)||('diabetes', 'noun', 'C0011847', ['dsyn'], 0.0)||('has', '', '', '', 0.0)||('been', '', '', '', 0.0)||('performed', 'verb', 'C0884358', ['ftcn'], 0.0)||('.', '', '', '', 0.0)||
('type 2 diabetes mellitus', '', '', '', 0.0)||('includes', 'verb', 'C0332257', ['ftcn'], 0.0)||('an', '', '', '', 0.0)||('asymptomatic', 'adj', 'C0231221', ['fndg'], 0.0)||('preclinical', 'adj', 'C1709630', ['qlco'], 0.0)||('phase', 'noun', 'C0205390', ['tmco'], 0.0)||(';', '', '', '', 0.0)||
('the', '', '', '', 0.0)||('length', 'noun', 'C1444754', ['qnco'], 0.0)||('of', '', '', '', 0.0)||('this', '', '', '', 0.0)||('phase', 'noun', 'C0205390', ['tmco'], 0.0)||('is', '', '', '', 0.0)||('unknown', 'verb', 'C0439673', ['idcn'], 0.0)||('.', '', '', '', 0.0)||
('screening tests', 'noun', 'C0871311', ['hlca'], 0.0)||('can', '', '', '', 0.0)||('detect', '', '', '', 0.0)||('diabetes', 'noun', 'C0011847', ['dsyn'], 0.0)||('in', '', '', '', 0.0)||('its', '', '', '', 0.0)||('preclinical', 'adj', 'C1709630', ['qlco'], 0.0)||('phase', 'noun', 'C0205390', ['tmco'], 0.0)||('.', '', '', '', 0.0)||
('over', '', '', '', 0.0)||('the', '', '', '', 0.0)||('10', '', '', '', 0.0)||('to', '', '', '', 0.0)||('15', '', '', '', 0.0)||('years', 'noun', 'C0439234', ['tmco'], 0.0)||('after', '', '', '', 0.0)||('clinical diagnosis', '', '', '', 0.0)||(',', '', '', '', 0.0)||('tight', 'adj', 'C0439816', ['qlco'], 0.0)||('glycemic control', '', '', '', 0.0)||('probably', 'adv', 'C0750492', ['idcn'], 0.0)||('reduces', '', '', '', 0.0)||('the', '', '', '', 0.0)||('risk', 'noun', 'C0035647', ['qlco'], 0.0)||('for', '', '', '', 0.0)||('blindness', 'noun', 'C0456909', ['dsyn'], 0.0)||('and', '', '', '', 0.0)||('end - stage renal disease', '', '', '', 0.0)||(',', '', '', '', 0.0)||('and', '', '', '', 0.0)||('aggressive', 'adj', 'C0001807', ['mobd'], 0.0)||('control', 'noun', 'C0243148', ['qlco'], 0.0)||('of', '', '', '', 0.0)||('hypertension', 'noun', 'C0020538', ['dsyn'], 0.0)||(',', '', '', '', 0.0)||('lipid', 'noun', 'C0023779', ['lipd'], 0.0)||('therapy', 'noun', 'C0039798', ['ftcn'], 0.0)||(',', '', '', '', 0.0)||('and', '', '', '', 0.0)||('aspirin', 'noun', 'C0004057', ['orch', 'phsu'], 0.0)||('use', 'noun', 'C0042153', ['ftcn'], 0.0)||('reduce', '', '', '', 0.0)||('cardiovascular', 'adj', 'C0007226', ['bdsy'], 0.0)||('events', 'noun', 'C0441471', ['evnt'], 0.0)||('.', '', '', '', 0.0)||
('the', '', '', '', 0.0)||('magnitude', 'noun', 'C1704240', ['qnco'], 0.0)||('of', '', '', '', 0.0)||('the', '', '', '', 0.0)||('benefit', 'noun', 'C0814225', ['qnco'], 0.0)||('is', '', '', '', 0.0)||('larger', 'adj', 'C0549177', ['qnco'], 0.0)||('for', '', '', '', 0.0)||('cardiovascular risk', '', '', '', 0.0)||('reduction', 'noun', 'C0301630', ['npop'], 0.0)||('than', '', '', '', 0.0)||('for', '', '', '', 0.0)||('tight', 'adj', 'C0439816', ['qlco'], 0.0)||('glycemic control', '', '', '', 0.0)||('.', '', '', '', 0.0)||
('the', '', '', '', 0.0)||('additional', 'adj', 'C1524062', ['ftcn'], 0.0)||('benefit', 'noun', 'C0814225', ['qnco'], 0.0)||('of', '', '', '', 0.0)||('starting', '', '', '', 0.0)||('these', '', '', '', 0.0)||('treatments', 'noun', 'C0087111', ['topp'], 0.0)||('in', '', '', '', 0.0)||('the', '', '', '', 0.0)||('preclinical', 'adj', 'C1709630', ['qlco'], 0.0)||('phase', 'noun', 'C0205390', ['tmco'], 0.0)||(',', '', '', '', 0.0)||('after', '', '', '', 0.0)||('detection', 'noun', 'C1511790', ['topp'], 0.0)||('by', '', '', '', 0.0)||('screening', 'noun', 'C0220908', ['hlca'], 0.0)||(',', '', '', '', 0.0)||('is', '', '', '', 0.0)||('uncertain', 'adj', 'C0087130', ['idcn'], 0.0)||('but', '', '', '', 0.0)||('is', '', '', '', 0.0)||('probably', 'adv', 'C0750492', ['idcn'], 0.0)||('also', '', '', '', 0.0)||('greater', 'adj', 'C1704243', ['qnco'], 0.0)||('for', '', '', '', 0.0)||('cardiovascular risk', '', '', '', 0.0)||('reduction', 'noun', 'C0301630', ['npop'], 0.0)||('.', '', '', '', 0.0)||
('the', '', '', '', 0.0)||('interventions', '', '', '', 0.0)||('that', '', '', '', 0.0)||('are', '', '', '', 0.0)||('most', '', '', '', 0.0)||('clearly', '', '', '', 0.0)||('beneficial', '', '', '', 0.0)||('during', '', '', '', 0.0)||('the', '', '', '', 0.0)||('preclinical', 'adj', 'C1709630', ['qlco'], 0.0)||('phase', 'noun', 'C0205390', ['tmco'], 0.0)||('are', '', '', '', 0.0)||('those', '', '', '', 0.0)||('that', '', '', '', 0.0)||('affect', 'verb', 'C0001721', ['menp'], 0.0)||('the', '', '', '', 0.0)||('risk', 'noun', 'C0035647', ['qlco'], 0.0)||('for', '', '', '', 0.0)||('cardiovascular disease', 'noun', 'C0007222', ['dsyn'], 0.0)||('.', '', '', '', 0.0)||
('the', '', '', '', 0.0)||('magnitude', 'noun', 'C1704240', ['qnco'], 0.0)||('of', '', '', '', 0.0)||('additional', 'adj', 'C1524062', ['ftcn'], 0.0)||('benefit', 'noun', 'C0814225', ['qnco'], 0.0)||('of', '', '', '', 0.0)||('initiating', 'noun', 'C1998548', ['ftcn'], 0.0)||('tight', 'adj', 'C0439816', ['qlco'], 0.0)||('glycemic control', '', '', '', 0.0)||('during', '', '', '', 0.0)||('the', '', '', '', 0.0)||('preclinical', 'adj', 'C1709630', ['qlco'], 0.0)||('phase', 'noun', 'C0205390', ['tmco'], 0.0)||('is', '', '', '', 0.0)||('uncertain', 'adj', 'C0087130', ['idcn'], 0.0)||('but', '', '', '', 0.0)||('probably', 'adv', 'C0750492', ['idcn'], 0.0)||('small', 'adj', 'C0700321', ['qnco'], 0.0)||('.', '', '', '', 0.0)||
