('previous', 'adj', 'C0205156', ['tmco'], 0.0)||('studies', '', '', '', 0.0)||('with', '', '', '', 0.0)||('cisapride', 'noun', 'C0072916', ['orch', 'phsu'], 0.0)||('reported', 'verb', 'C0684224', ['inpr'], 0.0)||('conflicting', '', '', '', 0.0)||('results', 'noun', 'C1274040', ['ftcn'], 0.0)||('in', '', '', '', 0.0)||('patients', 'noun', 'C0030705', ['podg'], 0.0)||('with', '', '', '', 0.0)||('constipation', 'noun', 'C0009806', ['sosy'], 0.0)||('-', '', '', '', 0.0)||('predominant', '', '', '', 0.0)||('irritable bowel syndrome', 'noun', 'C0022104', ['dsyn'], 0.0)||('.', '', '', '', 0.0)||
('to', '', '', '', 0.0)||('gain', 'verb', 'C1517378', ['qnco'], 0.0)||('further', 'adj', 'C1517331', ['spco'], 0.0)||('evidence', 'noun', 'C0332120', ['ftcn'], 0.0)||(',', '', '', '', 0.0)||('this', '', '', '', 0.0)||('randomized', 'adj', 'C0034656', ['resa'], 0.0)||('double - blind study', '', '', '', 0.0)||('was', '', '', '', 0.0)||('carried', '', '', '', 0.0)||('out', '', '', '', 0.0)||('.', '', '', '', 0.0)||
('eighty', '', '', '', 0.0)||('-', '', '', '', 0.0)||('two', 'adj', 'C0205448', ['qnco'], 0.0)||('symptomatic', 'adj', 'C0231220', ['ftcn'], 0.0)||('outpatients', 'noun', 'C0029921', ['podg'], 0.0)||('were', '', '', '', 0.0)||('randomized', 'verb', 'C0034656', ['resa'], 0.0)||('to', '', '', '', 0.0)||('receive', 'verb', 'C1514756', ['qlco'], 0.0)||('either', '', '', '', 0.0)||('5', '', '', '', 0.0)||('mg', '', '', '', 0.0)||('oral', 'adj', 'C0442027', ['spco'], 0.0)||('cisapride', 'noun', 'C0072916', ['orch', 'phsu'], 0.0)||('or', '', '', '', 0.0)||('placebo', 'noun', 'C0032042', ['topp'], 0.0)||('three', '', 'C0205449', ['qnco'], 0.0)||('times', '', '', '', 0.0)||('daily', 'adj', 'C0332173', ['tmco'], 0.0)||('for', '', '', '', 0.0)||('a', '', '', '', 0.0)||('period', 'noun', 'C1948053', ['tmco'], 0.0)||('of', '', '', '', 0.0)||('12', '', '', '', 0.0)||('weeks', 'noun', 'C0439230', ['tmco'], 0.0)||('.', '', '', '', 0.0)||
('in', '', '', '', 0.0)||('patients', 'noun', 'C0030705', ['podg'], 0.0)||('without', '', '', '', 0.0)||('satisfactory', 'adj', 'C1547307', ['inpr'], 0.0)||('improvement', '', '', '', 0.0)||('after', '', '', '', 0.0)||('4', '', '', '', 0.0)||('weeks', 'noun', 'C0439230', ['tmco'], 0.0)||(',', '', '', '', 0.0)||('the', '', '', '', 0.0)||('dose', 'noun', 'C0178602', ['qnco'], 0.0)||('was', '', '', '', 0.0)||('doubled', '', '', '', 0.0)||('.', '', '', '', 0.0)||
('symptom', '', '', '', 0.0)||('evaluation', 'noun', 'C0220825', ['ftcn'], 0.0)||('used', '', '', '', 0.0)||('visual analog scales', '', '', '', 0.0)||('and', '', '', '', 0.0)||('the', '', '', '', 0.0)||('investigators', 'noun', 'C0035173', ['prog'], 0.0)||("'", '', '', '', 0.0)||('global', 'adj', 'C0205246', ['spco'], 0.0)||('assessment', 'noun', 'C1261322', ['hlca'], 0.0)||('.', '', '', '', 0.0)||
('after', '', '', '', 0.0)||('4', '', '', '', 0.0)||('weeks', 'noun', 'C0439230', ['tmco'], 0.0)||(',', '', '', '', 0.0)||('in', '', '', '', 0.0)||('18', '', '', '', 0.0)||('(', '', '', '', 0.0)||('45 %', '', '', '', 0.0)||(')', '', '', '', 0.0)||('cisapride', 'noun', 'C0072916', ['orch', 'phsu'], 0.0)||('and', '', '', '', 0.0)||('24', '', '', '', 0.0)||('(', '', '', '', 0.0)||('57 %', '', '', '', 0.0)||(')', '', '', '', 0.0)||('placebo', 'noun', 'C0032042', ['topp'], 0.0)||('patients', 'noun', 'C0030705', ['podg'], 0.0)||('the', '', '', '', 0.0)||('dose', 'noun', 'C0178602', ['qnco'], 0.0)||('was', '', '', '', 0.0)||('doubled', '', '', '', 0.0)||('because of', '', '', '', 0.0)||('insufficient', 'adj', 'C0205412', ['qlco'], 0.0)||('improvement', '', '', '', 0.0)||('of', '', '', '', 0.0)||('symptoms', 'noun', 'C0683368', ['ftcn'], 0.0)||('.', '', '', '', 0.0)||
('the', '', '', '', 0.0)||('mean', 'noun', 'C0444504', ['qnco'], 0.0)||('visual analog scales', '', '', '', 0.0)||('score', 'verb', 'C0449820', ['qnco'], 0.0)||('for', '', '', '', 0.0)||('patients', 'noun', 'C0030705', ['podg'], 0.0)||("'", '', '', '', 0.0)||('global', 'adj', 'C0205246', ['spco'], 0.0)||('rating', 'noun', 'C0871208', ['acty'], 0.0)||('of', '', '', '', 0.0)||('irritable bowel syndrome', 'noun', 'C0022104', ['dsyn'], 0.0)||('symptoms', 'noun', 'C0683368', ['ftcn'], 0.0)||('at', '', '', '', 0.0)||('baseline', 'noun', 'C0168634', ['bodm'], 0.0)||('was', '', '', '', 0.0)||('67 . 5', '', '', '', 0.0)||('mm', '', '', '', 0.0)||('for', '', '', '', 0.0)||('cisapride', 'noun', 'C0072916', ['orch', 'phsu'], 0.0)||('versus', '', '', '', 0.0)||('70 . 7', '', '', '', 0.0)||('mm', '', '', '', 0.0)||('for', '', '', '', 0.0)||('placebo', 'noun', 'C0032042', ['topp'], 0.0)||(',', '', '', '', 0.0)||('and', '', '', '', 0.0)||('improved', 'verb', 'C0184511', ['qlco'], 0.0)||('to', '', '', '', 0.0)||('38 . 4', '', '', '', 0.0)||('mm', '', '', '', 0.0)||('versus', '', '', '', 0.0)||('44 . 5', '', '', '', 0.0)||('mm', '', '', '', 0.0)||('after', '', '', '', 0.0)||('12', '', '', '', 0.0)||('weeks', 'noun', 'C0439230', ['tmco'], 0.0)||('of', '', '', '', 0.0)||('treatment', 'noun', 'C0039798', ['ftcn'], 0.0)||('.', '', '', '', 0.0)||
('investigators', 'noun', 'C0035173', ['prog'], 0.0)||('rated', 'verb', 'C0871208', ['acty'], 0.0)||('the', '', '', '', 0.0)||('overall', 'adj', 'C0282416', ['inpr'], 0.0)||('effect', 'noun', 'C1280500', ['qlco'], 0.0)||('of', '', '', '', 0.0)||('therapy', 'noun', 'C0039798', ['ftcn'], 0.0)||('as', '', '', '', 0.0)||('good', 'adj', 'C0205170', ['qlco'], 0.0)||('or', '', '', '', 0.0)||('excellent', 'adj', 'C1548784', ['qlco'], 0.0)||('in', '', '', '', 0.0)||('70 %', '', '', '', 0.0)||('of', '', '', '', 0.0)||('the', '', '', '', 0.0)||('cisapride', 'noun', 'C0072916', ['orch', 'phsu'], 0.0)||('and', '', '', '', 0.0)||('50 %', '', '', '', 0.0)||('of', '', '', '', 0.0)||('the', '', '', '', 0.0)||('placebo', 'noun', 'C0032042', ['topp'], 0.0)||('group', 'noun', 'C0441833', ['idcn'], 0.0)||('.', '', '', '', 0.0)||
('neither', '', '', '', 0.0)||('these', '', '', '', 0.0)||('nor', '', '', '', 0.0)||('further', 'adj', 'C1517331', ['spco'], 0.0)||('efficacy', 'noun', 'C1707887', ['resa'], 0.0)||('parameter', 'noun', 'C0549193', ['spco'], 0.0)||('differences', '', '', '', 0.0)||('reached', '', '', '', 0.0)||('statistical significance', 'noun', 'C0237881', ['qnco'], 0.0)||('.', '', '', '', 0.0)||
('these', '', '', '', 0.0)||('results', 'noun', 'C1274040', ['ftcn'], 0.0)||('indicate', '', '', '', 0.0)||('that', '', '', '', 0.0)||('the', '', '', '', 0.0)||('effect', 'noun', 'C1280500', ['qlco'], 0.0)||('of', '', '', '', 0.0)||('15', '', '', '', 0.0)||('-', '', '', '', 0.0)||('30', '', '', '', 0.0)||('mg', '', '', '', 0.0)||('cisapride', 'noun', 'C0072916', ['orch', 'phsu'], 0.0)||('daily', 'adv', 'C0332173', ['tmco'], 0.0)||('on', '', '', '', 0.0)||('symptoms', 'noun', 'C0683368', ['ftcn'], 0.0)||('of', '', '', '', 0.0)||('constipation', 'noun', 'C0009806', ['sosy'], 0.0)||('-', '', '', '', 0.0)||('predominant', '', '', '', 0.0)||('irritable bowel syndrome', 'noun', 'C0022104', ['dsyn'], 0.0)||('is', '', '', '', 0.0)||('not', 'adv', 'C1518422', ['ftcn'], 0.0)||('significantly', '', '', '', 0.0)||('superior', 'adj', 'C1282910', ['spco'], 0.0)||('to', '', '', '', 0.0)||('placebo', 'noun', 'C0032042', ['topp'], 0.0)||('.', '', '', '', 0.0)||
('during', '', '', '', 0.0)||('the', '', '', '', 0.0)||('12', '', '', '', 0.0)||('week', 'noun', 'C0439230', ['tmco'], 0.0)||('treatment', 'noun', 'C0039798', ['ftcn'], 0.0)||('of', '', '', '', 0.0)||('this', '', '', '', 0.0)||('trial', 'noun', 'C0008976', ['resa'], 0.0)||('cisapride', 'noun', 'C0072916', ['orch', 'phsu'], 0.0)||('proved', '', '', '', 0.0)||('to', '', '', '', 0.0)||('be', '', '', '', 0.0)||('safe', '', '', '', 0.0)||('and', '', '', '', 0.0)||('tolerable', '', '', '', 0.0)||('.', '', '', '', 0.0)||
