('community', 'noun', 'C0009462', ['geoa'], 0.0)||('-', '', '', '', 0.0)||('acquired', 'adj', 'C0439661', ['tmco'], 0.0)||(',', '', '', '', 0.0)||('methicillin - resistant', '', '', '', 0.0)||('infections', 'noun', 'C0021311', ['dsyn'], 0.0)||('in', '', '', '', 0.0)||('children', 'noun', 'C0008059', ['aggp'], 0.0)||('are', '', '', '', 0.0)||('increasing', 'verb', 'C0442808', ['ftcn'], 0.0)||('in', '', '', '', 0.0)||('frequency', 'noun', 'C0376249', ['qnco'], 0.0)||('for', '', '', '', 0.0)||('unknown', 'adj', 'C0439673', ['idcn'], 0.0)||('reasons', '', '', '', 0.0)||('.', '', '', '', 0.0)||
('to', '', '', '', 0.0)||('compare', 'verb', 'C1707455', ['acty'], 0.0)||('the', '', '', '', 0.0)||('presence', 'noun', 'C0392148', ['topp'], 0.0)||('of', '', '', '', 0.0)||('risk factors', 'noun', 'C0035648', ['qnco'], 0.0)||('for', '', '', '', 0.0)||('methicillin resistance', 'noun', 'C0079830', ['orga'], 0.0)||('between', '', '', '', 0.0)||('patients', 'noun', 'C0030705', ['podg'], 0.0)||('with', '', '', '', 0.0)||('community', 'noun', 'C0009462', ['geoa'], 0.0)||('-', '', '', '', 0.0)||('acquired', 'adj', 'C0439661', ['tmco'], 0.0)||(',', '', '', '', 0.0)||('methicillin - resistant', '', '', '', 0.0)||('and', '', '', '', 0.0)||('community', 'noun', 'C0009462', ['geoa'], 0.0)||('-', '', '', '', 0.0)||('acquired', 'adj', 'C0439661', ['tmco'], 0.0)||('methicillin', 'noun', 'C0025643', ['antb', 'orch'], 0.0)||('-', '', '', '', 0.0)||('susceptible', 'adj', 'C0231204', ['ftcn'], 0.0)||('infection', 'noun', 'C0021311', ['dsyn'], 0.0)||('and', '', '', '', 0.0)||('to', '', '', '', 0.0)||('compare', 'verb', 'C1707455', ['acty'], 0.0)||('the', '', '', '', 0.0)||('presence', 'noun', 'C0392148', ['topp'], 0.0)||('of', '', '', '', 0.0)||('risk factors', 'noun', 'C0035648', ['qnco'], 0.0)||('among', '', '', '', 0.0)||('household', 'noun', 'C0020052', ['famg'], 0.0)||('contacts', '', '', '', 0.0)||('of', '', '', '', 0.0)||('the', '', '', '', 0.0)||('patients', 'noun', 'C0030705', ['podg'], 0.0)||('from', '', '', '', 0.0)||('both', '', '', '', 0.0)||('groups', 'noun', 'C0441833', ['idcn'], 0.0)||('.', '', '', '', 0.0)||
('to', '', '', '', 0.0)||('compare', 'verb', 'C1707455', ['acty'], 0.0)||('the', '', '', '', 0.0)||('demographic', '', '', '', 0.0)||('and', '', '', '', 0.0)||('clinical', 'adj', 'C0205210', ['qlco'], 0.0)||('characteristics', 'noun', 'C1521970', ['qlco'], 0.0)||('between', '', '', '', 0.0)||('children', 'noun', 'C0008059', ['aggp'], 0.0)||('with', '', '', '', 0.0)||('community', 'noun', 'C0009462', ['geoa'], 0.0)||('-', '', '', '', 0.0)||('acquired', 'adj', 'C0439661', ['tmco'], 0.0)||(',', '', '', '', 0.0)||('methicillin - resistant', '', '', '', 0.0)||('and', '', '', '', 0.0)||('community', 'noun', 'C0009462', ['geoa'], 0.0)||('-', '', '', '', 0.0)||('acquired', 'adj', 'C0439661', ['tmco'], 0.0)||('methicillin', 'noun', 'C0025643', ['antb', 'orch'], 0.0)||('-', '', '', '', 0.0)||('susceptible', 'adj', 'C0231204', ['ftcn'], 0.0)||('infection', 'noun', 'C0021311', ['dsyn'], 0.0)||('.', '', '', '', 0.0)||
('prospective', 'adj', 'C0023981', ['resa'], 0.0)||('observational', 'adj', 'C1964257', ['diap'], 0.0)||('study', 'noun', 'C0008976', ['resa'], 0.0)||('conducted', '', '', '', 0.0)||('between', '', '', '', 0.0)||('february', '', '', '', 0.0)||('2', '', '', '', 0.0)||(',', '', '', '', 0.0)||('2000', '', '', '', 0.0)||('and', '', '', '', 0.0)||('november', '', '', '', 0.0)||('14', '', '', '', 0.0)||(',', '', '', '', 0.0)||('2000', '', '', '', 0.0)||(',', '', '', '', 0.0)||('excluding', '', '', '', 0.0)||('the', '', '', '', 0.0)||('month', 'noun', 'C0439231', ['tmco'], 0.0)||('of', '', '', '', 0.0)||('may', '', '', '', 0.0)||('and', '', '', '', 0.0)||('the', '', '', '', 0.0)||('period', 'noun', 'C1948053', ['tmco'], 0.0)||('between', '', '', '', 0.0)||('september', '', '', '', 0.0)||('2', '', '', '', 0.0)||('and', '', '', '', 0.0)||('october', '', '', '', 0.0)||('15', '', '', '', 0.0)||('.', '', '', '', 0.0)||
('texas', 'noun', 'C0039711', ['geoa'], 0.0)||('children', 'noun', 'C0008059', ['aggp'], 0.0)||("' s", '', '', '', 0.0)||('hospital', 'noun', 'C0019994', ['hcro', 'mnob'], 0.0)||(',', '', '', '', 0.0)||('houston', '', '', '', 0.0)||(',', '', '', '', 0.0)||('tx', '', '', '', 0.0)||(';', '', '', '', 0.0)||
('inpatients', 'noun', 'C0021562', ['podg'], 0.0)||('and', '', '', '', 0.0)||('outpatients', 'noun', 'C0029921', ['podg'], 0.0)||('with', '', '', '', 0.0)||('community', 'noun', 'C0009462', ['geoa'], 0.0)||('-', '', '', '', 0.0)||('acquired', 'adj', 'C0439661', ['tmco'], 0.0)||('infection', 'noun', 'C0021311', ['dsyn'], 0.0)||('.', '', '', '', 0.0)||
('proportion', 'noun', 'C1709707', ['qnco'], 0.0)||('of', '', '', '', 0.0)||('mrsa', 'noun', 'C1265292', ['bact'], 0.0)||('among', '', '', '', 0.0)||('all', '', '', '', 0.0)||('community', 'noun', 'C0009462', ['geoa'], 0.0)||('-', '', '', '', 0.0)||('acquired', 'adj', 'C0439661', ['tmco'], 0.0)||('infections', 'noun', 'C0021311', ['dsyn'], 0.0)||('.', '', '', '', 0.0)||
('the', '', '', '', 0.0)||('presence', 'noun', 'C0392148', ['topp'], 0.0)||('of', '', '', '', 0.0)||('risk factors', 'noun', 'C0035648', ['qnco'], 0.0)||('associated', 'verb', 'C0332281', ['qlco'], 0.0)||('with', '', '', '', 0.0)||('methicillin resistance', 'noun', 'C0079830', ['orga'], 0.0)||('among', '', '', '', 0.0)||('patients', 'noun', 'C0030705', ['podg'], 0.0)||(',', '', '', '', 0.0)||('and', '', '', '', 0.0)||('their', '', '', '', 0.0)||('household', 'noun', 'C0020052', ['famg'], 0.0)||('contacts', '', '', '', 0.0)||(',', '', '', '', 0.0)||('with', '', '', '', 0.0)||('community', 'noun', 'C0009462', ['geoa'], 0.0)||('-', '', '', '', 0.0)||('acquired', 'adj', 'C0439661', ['tmco'], 0.0)||(',', '', '', '', 0.0)||('methicillin - resistant', '', '', '', 0.0)||('and', '', '', '', 0.0)||('community', 'noun', 'C0009462', ['geoa'], 0.0)||('-', '', '', '', 0.0)||('acquired', 'adj', 'C0439661', ['tmco'], 0.0)||('methicillin', 'noun', 'C0025643', ['antb', 'orch'], 0.0)||('-', '', '', '', 0.0)||('susceptible', 'adj', 'C0231204', ['ftcn'], 0.0)||('.', '', '', '', 0.0)||
('the', '', '', '', 0.0)||('monthly', 'adv', 'C0332177', ['tmco'], 0.0)||('rates', '', '', '', 0.0)||('of', '', '', '', 0.0)||('methicillin resistance', 'noun', 'C0079830', ['orga'], 0.0)||('of', '', '', '', 0.0)||('varied', '', '', '', 0.0)||('between', '', '', '', 0.0)||('35', '', '', '', 0.0)||('and', '', '', '', 0.0)||('51 %', '', '', '', 0.0)||('.', '', '', '', 0.0)||
('community', 'noun', 'C0009462', ['geoa'], 0.0)||('-', '', '', '', 0.0)||('acquired', 'adj', 'C0439661', ['tmco'], 0.0)||('methicillin', 'noun', 'C0025643', ['antb', 'orch'], 0.0)||('-', '', '', '', 0.0)||('susceptible', 'adj', 'C0231204', ['ftcn'], 0.0)||('isolates', '', '', '', 0.0)||('were', '', '', '', 0.0)||('associated', 'verb', 'C0332281', ['qlco'], 0.0)||('with', '', '', '', 0.0)||('deep - seated', '', '', '', 0.0)||('infections', 'noun', 'C0021311', ['dsyn'], 0.0)||('significantly', '', '', '', 0.0)||('more', '', '', '', 0.0)||('often', 'adv', 'C0332183', ['tmco'], 0.0)||('(', '', '', '', 0.0)||('30 %', '', '', '', 0.0)||(')', '', '', '', 0.0)||('than', '', '', '', 0.0)||('community', 'noun', 'C0009462', ['geoa'], 0.0)||('-', '', '', '', 0.0)||('acquired', 'adj', 'C0439661', ['tmco'], 0.0)||(',', '', '', '', 0.0)||('methicillin - resistant', '', '', '', 0.0)||('isolates', '', '', '', 0.0)||('(', '', '', '', 0.0)||('11 %', '', '', '', 0.0)||(';', '', '', '', 0.0)||('p', '', '', '', 0.0)||('=', '', '', '', 0.0)||('0 . 01', '', '', '', 0.0)||(')', '', '', '', 0.0)||('.', '', '', '', 0.0)||
('community', 'noun', 'C0009462', ['geoa'], 0.0)||('-', '', '', '', 0.0)||('acquired', 'adj', 'C0439661', ['tmco'], 0.0)||(',', '', '', '', 0.0)||('methicillin - resistant', '', '', '', 0.0)||('isolates', '', '', '', 0.0)||('were', '', '', '', 0.0)||('generally', '', '', '', 0.0)||('susceptible', 'adj', 'C0231204', ['ftcn'], 0.0)||('to', '', '', '', 0.0)||('clindamycin', 'noun', 'C0008947', ['antb', 'carb'], 0.0)||('and', '', '', '', 0.0)||('trimethoprim - sulfamethoxazole', '', '', '', 0.0)||('and', '', '', '', 0.0)||('resistant', 'adj', 'C0332325', ['ftcn'], 0.0)||('to', '', '', '', 0.0)||('erythromycin', 'noun', 'C0014806', ['antb', 'orch'], 0.0)||('.', '', '', '', 0.0)||
('there', '', '', '', 0.0)||('were', '', '', '', 0.0)||('no', '', '', '', 0.0)||('significant', 'adj', 'C0750502', ['idcn'], 0.0)||('differences', '', '', '', 0.0)||('in', '', '', '', 0.0)||('the', '', '', '', 0.0)||('exposure', 'noun', 'C0332157', ['clna'], 0.0)||('to', '', '', '', 0.0)||('risk factors', 'noun', 'C0035648', ['qnco'], 0.0)||('between', '', '', '', 0.0)||('children', 'noun', 'C0008059', ['aggp'], 0.0)||('with', '', '', '', 0.0)||('community', 'noun', 'C0009462', ['geoa'], 0.0)||('-', '', '', '', 0.0)||('acquired', 'adj', 'C0439661', ['tmco'], 0.0)||(',', '', '', '', 0.0)||('methicillin - resistant', '', '', '', 0.0)||('and', '', '', '', 0.0)||('community', 'noun', 'C0009462', ['geoa'], 0.0)||('-', '', '', '', 0.0)||('acquired', 'adj', 'C0439661', ['tmco'], 0.0)||('methicillin', 'noun', 'C0025643', ['antb', 'orch'], 0.0)||('-', '', '', '', 0.0)||('susceptible', 'adj', 'C0231204', ['ftcn'], 0.0)||('infection', 'noun', 'C0021311', ['dsyn'], 0.0)||('.', '', '', '', 0.0)||
('no', '', '', '', 0.0)||('significant', 'adj', 'C0750502', ['idcn'], 0.0)||('risk factors', 'noun', 'C0035648', ['qnco'], 0.0)||('for', '', '', '', 0.0)||('community', 'noun', 'C0009462', ['geoa'], 0.0)||('-', '', '', '', 0.0)||('acquired', 'adj', 'C0439661', ['tmco'], 0.0)||(',', '', '', '', 0.0)||('methicillin - resistant', '', '', '', 0.0)||('were', '', '', '', 0.0)||('identified', 'verb', 'C0205396', ['qlco'], 0.0)||('among', '', '', '', 0.0)||('household', 'noun', 'C0020052', ['famg'], 0.0)||('contacts', '', '', '', 0.0)||('.', '', '', '', 0.0)||
('mrsa', 'noun', 'C1265292', ['bact'], 0.0)||('is', '', '', '', 0.0)||('an', '', '', '', 0.0)||('established', 'adj', 'C0443211', ['qlco'], 0.0)||(',', '', '', '', 0.0)||('community', 'noun', 'C0009462', ['geoa'], 0.0)||('-', '', '', '', 0.0)||('acquired', 'adj', 'C0439661', ['tmco'], 0.0)||('pathogen', 'noun', 'C0450254', ['orgm'], 0.0)||('in', '', '', '', 0.0)||('our', '', '', '', 0.0)||('area', 'noun', 'C0017446', ['geoa'], 0.0)||('.', '', '', '', 0.0)||
('this', '', '', '', 0.0)||('necessitates', '', '', '', 0.0)||('a', '', '', '', 0.0)||('change', 'noun', 'C0392747', ['ftcn'], 0.0)||('in', '', '', '', 0.0)||('empiric', 'adj', 'C1880496', ['qlco'], 0.0)||('therapy', 'noun', 'C0039798', ['ftcn'], 0.0)||('of', '', '', '', 0.0)||('infections', 'noun', 'C0021311', ['dsyn'], 0.0)||('suspected', 'verb', 'C0332147', ['qlco'], 0.0)||('to', '', '', '', 0.0)||('be', '', '', '', 0.0)||('caused', '', '', '', 0.0)||('by', '', '', '', 0.0)||('.', '', '', '', 0.0)||
