('a', '', '', '', 0.0)||('2006', '', '', '', 0.0)||('summary', 'noun', 'C1552616', ['inpr'], 0.0)||('from', '', '', '', 0.0)||('clinical', 'adj', 'C0205210', ['qlco'], 0.0)||('evidence', 'noun', 'C0332120', ['ftcn'], 0.0)||('found', '', '', '', 0.0)||('no', '', '', '', 0.0)||('rct', '', '', '', 0.0)||('support', 'noun', 'C0183683', ['medd'], 0.0)||('for', '', '', '', 0.0)||('any', '', '', '', 0.0)||('outpatient', 'adj', 'C0029921', ['podg'], 0.0)||('antibiotic', 'noun', 'C0003232', ['antb'], 0.0)||('.', '', '', '', 0.0)||
('no', '', '', '', 0.0)||('evidence', 'noun', 'C0332120', ['ftcn'], 0.0)||('exists', '', '', '', 0.0)||('that', '', '', '', 0.0)||('intranasal', 'adj', 'C0442118', ['spco'], 0.0)||('mupirocin', 'noun', 'C0085259', ['antb', 'lipd'], 0.0)||('or', '', '', '', 0.0)||('antiseptic', 'adj', 'C0003205', ['phsu'], 0.0)||('body', 'noun', 'C0460148', ['anst'], 0.0)||('washes', '', '', '', 0.0)||('reduce', '', '', '', 0.0)||('the', '', '', '', 0.0)||('recurrence rate', '', '', '', 0.0)||('.', '', '', '', 0.0)||
('we', '', '', '', 0.0)||('found', '', '', '', 0.0)||('no', '', '', '', 0.0)||('studies', '', '', '', 0.0)||('evaluating', 'verb', 'C0220825', ['ftcn'], 0.0)||('the', '', '', '', 0.0)||('optimal', 'adj', 'C2698651', ['qlco'], 0.0)||('treatment', 'noun', 'C0039798', ['ftcn'], 0.0)||('of', '', '', '', 0.0)||('purulent', 'adj', 'C0439665', ['qlco'], 0.0)||('skin', 'noun', 'C0444099', ['bdsu'], 0.0)||('and', '', '', '', 0.0)||('soft tissue', 'noun', 'C0225317', ['tisu'], 0.0)||('infections', 'noun', 'C0021311', ['dsyn'], 0.0)||('without', '', '', '', 0.0)||('abscesses', 'noun', 'C0000833', ['patf'], 0.0)||('.', '', '', '', 0.0)||
