('bromocriptine', '', '', '', 0.0)||(',', '', '', '', 0.0)||('a', '', '', '', 0.0)||('specific', 'adj', 'C0205369', ['qlco'], 0.0)||('dopamine receptor', 'noun', 'C0034798', ['aapp', 'rcpt'], 0.0)||('agonist', 'noun', 'C0243192', ['phsu'], 0.0)||(',', '', '', '', 0.0)||('has', '', '', '', 0.0)||('been', '', '', '', 0.0)||('used', '', '', '', 0.0)||('for', '', '', '', 0.0)||('the', '', '', '', 0.0)||('treatment', 'noun', 'C0039798', ['ftcn'], 0.0)||('of', '', '', '', 0.0)||('various', 'adj', 'C0440102', ['irda'], 0.0)||('hyperprolactinemic', '', '', '', 0.0)||('conditions', '', '', '', 0.0)||('and', '', '', '', 0.0)||('as', '', '', '', 0.0)||('adjunctive therapy', '', '', '', 0.0)||('for', '', '', '', 0.0)||('acromegaly', 'noun', 'C0001206', ['dsyn'], 0.0)||('(', '', '', '', 0.0)||('with', '', '', '', 0.0)||('or', '', '', '', 0.0)||('without', '', '', '', 0.0)||('concomitant', 'adj', 'C0521115', ['tmco'], 0.0)||('hyperprolactinemia', '', '', '', 0.0)||(')', '', '', '', 0.0)||('and', '', '', '', 0.0)||("parkinson ' s disease", '', '', '', 0.0)||('.', '', '', '', 0.0)||
('bromocriptine', '', '', '', 0.0)||('is', '', '', '', 0.0)||('extremely', '', '', '', 0.0)||('effective', 'adj', 'C1704419', ['qlco'], 0.0)||('in', '', '', '', 0.0)||('suppressing', 'adj', 'C2003921', ['phpr'], 0.0)||('prolactin', 'noun', 'C0033371', ['aapp', 'horm', 'phsu'], 0.0)||('secretion', 'noun', 'C0036536', ['biof'], 0.0)||('regardless of', '', '', '', 0.0)||('the', '', '', '', 0.0)||('cause', 'noun', 'C1524003', ['cnce'], 0.0)||(',', '', '', '', 0.0)||('in', '', '', '', 0.0)||('restoring', 'noun', 'C1998837', ['hlca'], 0.0)||('gonadal function', '', '', '', 0.0)||('and', '', '', '', 0.0)||('fertility', 'noun', 'C0015895', ['orgf'], 0.0)||(',', '', '', '', 0.0)||('and', '', '', '', 0.0)||('in', '', '', '', 0.0)||('decreasing', 'noun', 'C0442797', ['qlco'], 0.0)||('the', '', '', '', 0.0)||('size', 'noun', 'C0456389', ['spco'], 0.0)||('of', '', '', '', 0.0)||('prolactin', 'noun', 'C0033371', ['aapp', 'horm', 'phsu'], 0.0)||('-', '', '', '', 0.0)||('secreting', 'adj', 'C1327616', ['celf'], 0.0)||('pituitary tumors', 'noun', 'C0032019', ['neop'], 0.0)||('.', '', '', '', 0.0)||
('most', '', '', '', 0.0)||('patients', 'noun', 'C0030705', ['podg'], 0.0)||('with', '', '', '', 0.0)||('acromegaly', 'adv', 'C0001206', ['dsyn'], 0.0)||('have', '', '', '', 0.0)||('clinical', 'adj', 'C0205210', ['qlco'], 0.0)||('improvement', '', '', '', 0.0)||('with', '', '', '', 0.0)||('this', '', '', '', 0.0)||('drug', 'noun', 'C0013227', ['phsu'], 0.0)||('.', '', '', '', 0.0)||
('when', '', '', '', 0.0)||('bromocriptine', '', '', '', 0.0)||('is', '', '', '', 0.0)||('added', 'verb', 'C1524062', ['ftcn'], 0.0)||('to', '', '', '', 0.0)||('a', '', '', '', 0.0)||('regimen', 'noun', 'C0040808', ['topp'], 0.0)||('of', '', '', '', 0.0)||('levodopa', 'noun', 'C0023570', ['aapp', 'nsba', 'phsu'], 0.0)||('or', '', '', '', 0.0)||('carbidopa', 'noun', 'C0006982', ['orch', 'phsu'], 0.0)||(',', '', '', '', 0.0)||('patients', 'noun', 'C0030705', ['podg'], 0.0)||('with', '', '', '', 0.0)||("parkinson ' s disease", '', '', '', 0.0)||('frequently', 'adv', 'C0332183', ['tmco'], 0.0)||('have', '', '', '', 0.0)||('additional', 'adj', 'C1524062', ['ftcn'], 0.0)||('clinical', 'adj', 'C0205210', ['qlco'], 0.0)||('improvement', '', '', '', 0.0)||('and', '', '', '', 0.0)||(',', '', '', '', 0.0)||('in', '', '', '', 0.0)||('most', '', '', '', 0.0)||('patients', 'noun', 'C0030705', ['podg'], 0.0)||(',', '', '', '', 0.0)||('the', '', '', '', 0.0)||('levodopa', 'noun', 'C0023570', ['aapp', 'nsba', 'phsu'], 0.0)||('or', '', '', '', 0.0)||('carbidopa', 'noun', 'C0006982', ['orch', 'phsu'], 0.0)||('dose', 'noun', 'C0178602', ['qnco'], 0.0)||('can', '', '', '', 0.0)||('be', '', '', '', 0.0)||('reduced', 'verb', 'C0392756', ['qlco'], 0.0)||('.', '', '', '', 0.0)||
('withdrawal', 'noun', 'C0237955', ['menp'], 0.0)||('of', '', '', '', 0.0)||('bromocriptine', '', '', '', 0.0)||('therapy', 'noun', 'C0039798', ['ftcn'], 0.0)||('is', '', '', '', 0.0)||('associated', 'verb', 'C0332281', ['qlco'], 0.0)||('in', '', '', '', 0.0)||('most', '', '', '', 0.0)||('patients', 'noun', 'C0030705', ['podg'], 0.0)||('with', '', '', '', 0.0)||('reversal', 'noun', 'C0443290', ['ftcn'], 0.0)||('of', '', '', '', 0.0)||('its', '', '', '', 0.0)||('beneficial', '', '', '', 0.0)||('effects', '', '', '', 0.0)||('-', '', '', '', 0.0)||('-', '', '', '', 0.0)||('return', 'noun', 'C0332156', ['qlco'], 0.0)||('of', '', '', '', 0.0)||('hyperprolactinemia', '', '', '', 0.0)||(',', '', '', '', 0.0)||('return', 'noun', 'C0332156', ['qlco'], 0.0)||('of', '', '', '', 0.0)||('excess', 'adj', 'C1979886', ['qlco'], 0.0)||('growth hormone', 'noun', 'C0037663', ['aapp', 'horm', 'phsu'], 0.0)||('secretion', 'noun', 'C0036536', ['biof'], 0.0)||(',', '', '', '', 0.0)||('and', '', '', '', 0.0)||('exacerbation', '', '', '', 0.0)||('of', '', '', '', 0.0)||("parkinson ' s disease", '', '', '', 0.0)||('.', '', '', '', 0.0)||
