('an', '', '', '', 0.0)||('expert', '', '', '', 0.0)||('guideline', 'noun', 'C0162791', ['inpr'], 0.0)||('recommends', '', '', '', 0.0)||('a', '', '', '', 0.0)||('history', 'noun', 'C0019664', ['ocdi'], 0.0)||('and', '', '', '', 0.0)||('physical examination', 'noun', 'C0031809', ['hlca'], 0.0)||('to', '', '', '', 0.0)||('determine', '', '', '', 0.0)||('whether', '', '', '', 0.0)||('an', '', '', '', 0.0)||('elevated', 'adj', 'C0205250', ['qlco'], 0.0)||('spl', 'noun', 'C0037982', ['phsu', 'strd'], 0.0)||('is', '', '', '', 0.0)||('due to', '', '', '', 0.0)||('physiologic', 'adj', 'C0205463', ['ftcn'], 0.0)||(',', '', '', '', 0.0)||('pharmacologic', 'adj', 'C0031330', ['bmod'], 0.0)||(',', '', '', '', 0.0)||('or', '', '', '', 0.0)||('pathologic', 'adj', 'C1521733', ['ftcn'], 0.0)||('causes', 'noun', 'C0015127', ['ftcn'], 0.0)||('.', '', '', '', 0.0)||
('the', '', '', '', 0.0)||('fasting', 'adj', 'C0015663', ['fndg'], 0.0)||('morning', 'noun', 'C0332170', ['tmco'], 0.0)||('spl', 'noun', 'C0037982', ['phsu', 'strd'], 0.0)||('is', '', '', '', 0.0)||('least', '', '', '', 0.0)||('variable', 'noun', 'C0439828', ['qlco'], 0.0)||('and', '', '', '', 0.0)||('correlates', '', '', '', 0.0)||('best', 'adj', 'C1522427', ['qlco'], 0.0)||('with', '', '', '', 0.0)||('a', '', '', '', 0.0)||('disease', 'noun', 'C0012634', ['dsyn'], 0.0)||('state', 'noun', 'C1301808', ['geoa'], 0.0)||('.', '', '', '', 0.0)||
('a', '', '', '', 0.0)||('detailed', 'adj', 'C1522508', ['qlco'], 0.0)||('drug', 'noun', 'C0013227', ['phsu'], 0.0)||('history', 'noun', 'C0019664', ['ocdi'], 0.0)||('is', '', '', '', 0.0)||('important', '', '', '', 0.0)||('since', '', '', '', 0.0)||('drug - induced', '', '', '', 0.0)||('elevated', 'adj', 'C0205250', ['qlco'], 0.0)||('spl', 'noun', 'C0037982', ['phsu', 'strd'], 0.0)||('is', '', '', '', 0.0)||('common', 'adj', 'C0205214', ['qnco'], 0.0)||('.', '', '', '', 0.0)||('1', '', '', '', 0.0)||('laboratory', 'noun', 'C0022877', ['mnob', 'orgt'], 0.0)||('evaluation', 'noun', 'C0220825', ['ftcn'], 0.0)||('includes', 'verb', 'C0332257', ['ftcn'], 0.0)||('thyroid - stimulating hormone', '', '', '', 0.0)||(',', '', '', '', 0.0)||('blood urea nitrogen', 'noun', 'C0600137', ['bacs', 'inch'], 0.0)||(',', '', '', '', 0.0)||('and', '', '', '', 0.0)||('creatinine', 'noun', 'C0010294', ['bacs', 'orch'], 0.0)||(',', '', '', '', 0.0)||('as well as', '', '', '', 0.0)||('pregnancy', 'noun', 'C0032961', ['orgf'], 0.0)||('testing', 'noun', 'C0039593', ['ftcn'], 0.0)||('when', '', '', '', 0.0)||('applicable', 'adj', 'C1706839', ['qlco'], 0.0)||('.', '', '', '', 0.0)||
('if', '', '', '', 0.0)||('no', '', '', '', 0.0)||('cause', 'noun', 'C1524003', ['cnce'], 0.0)||('of', '', '', '', 0.0)||('elevated', 'adj', 'C0205250', ['qlco'], 0.0)||('spl', 'noun', 'C0037982', ['phsu', 'strd'], 0.0)||('is', '', '', '', 0.0)||('identified', 'verb', 'C0205396', ['qlco'], 0.0)||('by', '', '', '', 0.0)||('initial', 'adj', 'C0205265', ['tmco'], 0.0)||('clinical', 'adj', 'C0205210', ['qlco'], 0.0)||('evaluation', 'noun', 'C0220825', ['ftcn'], 0.0)||('or', '', '', '', 0.0)||('if', '', '', '', 0.0)||('the', '', '', '', 0.0)||('spl', 'noun', 'C0037982', ['phsu', 'strd'], 0.0)||('is', '', '', '', 0.0)||('greater', 'adj', 'C1704243', ['qnco'], 0.0)||('than', '', '', '', 0.0)||('200', '', '', '', 0.0)||('ng', '', '', '', 0.0)||('/', '', '', '', 0.0)||('ml', '', '', '', 0.0)||(',', '', '', '', 0.0)||('experts', '', '', '', 0.0)||('recommend', '', '', '', 0.0)||('imaging', 'verb', 'C0011923', ['diap'], 0.0)||('of', '', '', '', 0.0)||('the', '', '', '', 0.0)||('sella turcica', 'noun', 'C0036609', ['blor'], 0.0)||('with', '', '', '', 0.0)||('computed tomography', 'noun', 'C0040405', ['diap'], 0.0)||('or', '', '', '', 0.0)||('magnetic resonance imaging', 'noun', 'C0024485', ['diap'], 0.0)||('.', '', '', '', 0.0)||
