('the', '', '', '', 0.0)||('most', '', '', '', 0.0)||('recent', 'adj', 'C0332185', ['tmco'], 0.0)||('cochrane', '', '', '', 0.0)||('review', 'noun', 'C0282443', ['inpr'], 0.0)||('found', '', '', '', 0.0)||('that', '', '', '', 0.0)||('both', '', '', '', 0.0)||('vbac', '', '', '', 0.0)||('and', '', '', '', 0.0)||('repeat', 'verb', 'C0205341', ['ftcn'], 0.0)||('lowtransverse', '', '', '', 0.0)||('cesarean section', 'noun', 'C1384674', ['fndg'], 0.0)||('have', '', '', '', 0.0)||('benefits', 'noun', 'C0814225', ['qnco'], 0.0)||('and', '', '', '', 0.0)||('risks', 'noun', 'C0035647', ['qlco'], 0.0)||('associated', 'verb', 'C0332281', ['qlco'], 0.0)||('with', '', '', '', 0.0)||('them', '', '', '', 0.0)||(';', '', '', '', 0.0)||
('however', '', '', '', 0.0)||(',', '', '', '', 0.0)||('after', '', '', '', 0.0)||('reviewing', 'verb', 'C1704362', ['qlco'], 0.0)||('the', '', '', '', 0.0)||('limited', 'adj', 'C0439801', ['ftcn'], 0.0)||('data', 'noun', 'C1511726', ['idcn'], 0.0)||(',', '', '', '', 0.0)||('they', '', '', '', 0.0)||('concluded', '', '', '', 0.0)||('that', '', '', '', 0.0)||('no', '', '', '', 0.0)||('trial', 'noun', 'C0008976', ['resa'], 0.0)||('exists', '', '', '', 0.0)||('to', '', '', '', 0.0)||('adequately', '', '', '', 0.0)||('help', 'verb', 'C1552861', ['idcn'], 0.0)||('women', 'noun', 'C0043210', ['popg'], 0.0)||('and', '', '', '', 0.0)||('their', '', '', '', 0.0)||('caregivers', 'noun', 'C0085537', ['prog'], 0.0)||('make', 'verb', 'C1881534', ['ftcn'], 0.0)||('an', '', '', '', 0.0)||('informed', 'adj', 'C1522154', ['qlco'], 0.0)||('decision', 'noun', 'C0679006', ['menp'], 0.0)||('between', '', '', '', 0.0)||('the', '', '', '', 0.0)||('two', 'noun', 'C0205448', ['qnco'], 0.0)||('.', '', '', '', 0.0)||
('a', '', '', '', 0.0)||('strong', 'adj', 'C0442821', ['qlco'], 0.0)||('theme', '', '', '', 0.0)||('in', '', '', '', 0.0)||('the', '', '', '', 0.0)||('cochrane', '', '', '', 0.0)||('review', 'noun', 'C0282443', ['inpr'], 0.0)||(',', '', '', '', 0.0)||('echoed', '', '', '', 0.0)||('in', '', '', '', 0.0)||('most', '', '', '', 0.0)||('reviews', '', '', '', 0.0)||(',', '', '', '', 0.0)||('was', '', '', '', 0.0)||('the', '', '', '', 0.0)||('absence', 'noun', 'C1689985', ['anab'], 0.0)||('of', '', '', '', 0.0)||('high - quality', '', '', '', 0.0)||('prospective', 'adj', 'C0023981', ['resa'], 0.0)||('randomized', 'adj', 'C0034656', ['resa'], 0.0)||('data', 'noun', 'C1511726', ['idcn'], 0.0)||('.', '', '', '', 0.0)||
