('the', '', '', '', 0.0)||('purpose', 'noun', 'C1285529', ['ftcn'], 0.0)||('of', '', '', '', 0.0)||('this', '', '', '', 0.0)||('report', 'noun', 'C0684224', ['inpr'], 0.0)||('was', '', '', '', 0.0)||('to', '', '', '', 0.0)||('examine', '', '', '', 0.0)||('the', '', '', '', 0.0)||('available', 'adj', 'C0470187', ['ftcn'], 0.0)||('literature', 'noun', 'C0023866', ['inpr'], 0.0)||('to', '', '', '', 0.0)||('determine', '', '', '', 0.0)||('the', '', '', '', 0.0)||('safety', 'noun', 'C0036043', ['hcpp'], 0.0)||('and', '', '', '', 0.0)||('efficacy', 'noun', 'C1707887', ['resa'], 0.0)||('of', '', '', '', 0.0)||('spinal cord', 'noun', 'C0037925', ['bpoc'], 0.0)||('stimulation', 'noun', 'C1292856', ['topp'], 0.0)||('for', '', '', '', 0.0)||('the', '', '', '', 0.0)||('treatment', 'noun', 'C0039798', ['ftcn'], 0.0)||('of', '', '', '', 0.0)||('chronic pain', 'noun', 'C0150055', ['dsyn'], 0.0)||('of', '', '', '', 0.0)||('the', '', '', '', 0.0)||('trunk', 'noun', 'C0460005', ['blor'], 0.0)||('and', '', '', '', 0.0)||('limbs', 'noun', 'C0015385', ['bpoc'], 0.0)||('.', '', '', '', 0.0)||
('the', '', '', '', 0.0)||('author', 'noun', 'C0341628', ['prog'], 0.0)||('identified', 'verb', 'C0205396', ['qlco'], 0.0)||('68', '', '', '', 0.0)||('studies', '', '', '', 0.0)||('that', '', '', '', 0.0)||('fulfilled', '', '', '', 0.0)||('the', '', '', '', 0.0)||('efficacy', 'noun', 'C1707887', ['resa'], 0.0)||('inclusion', 'noun', 'C1512693', ['qlco'], 0.0)||('/', '', '', '', 0.0)||('exclusion', 'noun', 'C0680251', ['ftcn'], 0.0)||('criteria', 'noun', 'C0243161', ['inpr'], 0.0)||(',', '', '', '', 0.0)||('grouped', 'verb', 'C0439745', ['spco'], 0.0)||('on', '', '', '', 0.0)||('the', '', '', '', 0.0)||('basis', 'noun', 'C1527178', ['ftcn'], 0.0)||('of', '', '', '', 0.0)||('pain', 'noun', 'C0030193', ['sosy'], 0.0)||('indication', 'noun', 'C0392360', ['idcn'], 0.0)||(',', '', '', '', 0.0)||('with', '', '', '', 0.0)||('an', '', '', '', 0.0)||('overall', 'adj', 'C0282416', ['inpr'], 0.0)||('population', 'noun', 'C0032659', ['qnco'], 0.0)||('of', '', '', '', 0.0)||('3679', '', '', '', 0.0)||('patients', 'noun', 'C0030705', ['podg'], 0.0)||('.', '', '', '', 0.0)||
('fifty - one', '', '', '', 0.0)||('studies', '', '', '', 0.0)||('fulfilled', '', '', '', 0.0)||('all', '', '', '', 0.0)||('safety', 'noun', 'C0036043', ['hcpp'], 0.0)||('inclusion', 'noun', 'C1512693', ['qlco'], 0.0)||('/', '', '', '', 0.0)||('exclusion', 'noun', 'C0680251', ['ftcn'], 0.0)||('criteria', 'noun', 'C0243161', ['inpr'], 0.0)||('.', '', '', '', 0.0)||
('based', 'verb', 'C1527178', ['ftcn'], 0.0)||('on', '', '', '', 0.0)||('the', '', '', '', 0.0)||('literature review', 'noun', 'C0282441', ['inpr'], 0.0)||(',', '', '', '', 0.0)||('the', '', '', '', 0.0)||('author', 'noun', 'C0341628', ['prog'], 0.0)||('found', '', '', '', 0.0)||('that', '', '', '', 0.0)||('spinal cord', 'noun', 'C0037925', ['bpoc'], 0.0)||('stimulation', 'noun', 'C1292856', ['topp'], 0.0)||('had', '', '', '', 0.0)||('a', '', '', '', 0.0)||('positive', 'noun', 'C1446409', ['qlco'], 0.0)||(',', '', '', '', 0.0)||('symptomatic', 'adj', 'C0231220', ['ftcn'], 0.0)||(',', '', '', '', 0.0)||('long - term effect', '', '', '', 0.0)||('in', '', '', '', 0.0)||('cases', 'noun', 'C0868928', ['ftcn'], 0.0)||('of', '', '', '', 0.0)||('refractory', 'adj', 'C0205269', ['ftcn'], 0.0)||('angina', 'noun', 'C0002962', ['sosy'], 0.0)||('pain', 'noun', 'C0030193', ['sosy'], 0.0)||(',', '', '', '', 0.0)||('severe', 'adj', 'C0205082', ['qlco'], 0.0)||('ischemic', '', '', '', 0.0)||('limb', 'noun', 'C0015385', ['bpoc'], 0.0)||('pain', 'noun', 'C0030193', ['sosy'], 0.0)||('secondary', 'adj', 'C0175668', ['tmco'], 0.0)||('to', '', '', '', 0.0)||('peripheral vascular disease', 'noun', 'C0085096', ['dsyn'], 0.0)||(',', '', '', '', 0.0)||('peripheral', 'adj', 'C0205100', ['spco'], 0.0)||('neuropathic pain', 'noun', 'C0423716', ['sosy'], 0.0)||(',', '', '', '', 0.0)||('and', '', '', '', 0.0)||('chronic low - back pain', '', '', '', 0.0)||(',', '', '', '', 0.0)||('and', '', '', '', 0.0)||('that', '', '', '', 0.0)||(',', '', '', '', 0.0)||('in', '', '', '', 0.0)||('general', 'adj', 'C0205246', ['spco'], 0.0)||(',', '', '', '', 0.0)||('spinal cord', 'noun', 'C0037925', ['bpoc'], 0.0)||('stimulation', 'noun', 'C1292856', ['topp'], 0.0)||('was', '', '', '', 0.0)||('a', '', '', '', 0.0)||('safe', '', '', '', 0.0)||('and', '', '', '', 0.0)||('effective', 'adj', 'C1704419', ['qlco'], 0.0)||('treatment', 'noun', 'C0039798', ['ftcn'], 0.0)||('for', '', '', '', 0.0)||('a', '', '', '', 0.0)||('variety', 'noun', 'C1883525', ['cnce'], 0.0)||('of', '', '', '', 0.0)||('chronic', 'adj', 'C0205191', ['tmco'], 0.0)||('neuropathic', '', '', '', 0.0)||('conditions', '', '', '', 0.0)||('.', '', '', '', 0.0)||
('despite', '', '', '', 0.0)||('the', '', '', '', 0.0)||('positive', 'adj', 'C1446409', ['qlco'], 0.0)||('findings', 'noun', 'C2607943', ['ftcn'], 0.0)||(',', '', '', '', 0.0)||('there', '', '', '', 0.0)||('is', '', '', '', 0.0)||('an', '', '', '', 0.0)||('urgent', 'adj', 'C0439609', ['tmco'], 0.0)||('need', 'noun', 'C0027552', ['qlco'], 0.0)||('for', '', '', '', 0.0)||('randomized', 'adj', 'C0034656', ['resa'], 0.0)||(',', '', '', '', 0.0)||('controlled', 'verb', 'C2587213', ['ftcn'], 0.0)||(',', '', '', '', 0.0)||('long - term', '', '', '', 0.0)||('studies', '', '', '', 0.0)||('on', '', '', '', 0.0)||('the', '', '', '', 0.0)||('efficacy', 'noun', 'C1707887', ['resa'], 0.0)||('of', '', '', '', 0.0)||('spinal cord', 'noun', 'C0037925', ['bpoc'], 0.0)||('stimulation', 'noun', 'C1292856', ['topp'], 0.0)||('involving', 'verb', 'C1314939', ['ftcn'], 0.0)||('larger', 'adj', 'C0549177', ['qnco'], 0.0)||('patient', '', '', '', 0.0)||('sample', 'noun', 'C0370003', ['sbst'], 0.0)||('sizes', 'noun', 'C0456389', ['spco'], 0.0)||('.', '', '', '', 0.0)||
