('antimalarials', 'noun', 'C0003374', ['phsu'], 0.0)||('were', '', '', '', 0.0)||('found', '', '', '', 0.0)||('to', '', '', '', 0.0)||('decrease', 'verb', 'C0392756', ['qlco'], 0.0)||('the', '', '', '', 0.0)||('incidence', 'noun', 'C0021149', ['qnco'], 0.0)||('of', '', '', '', 0.0)||('maternal', 'adj', 'C1858460', ['clna'], 0.0)||('infections', 'noun', 'C0021311', ['dsyn'], 0.0)||('relative risk', 'noun', 'C0242492', ['qnco'], 0.0)||('=', '', '', '', 0.0)||('0 . 27', '', '', '', 0.0)||(';', '', '', '', 0.0)||
('95 %', '', '', '', 0.0)||('confidence interval', 'noun', 'C0009667', ['qnco'], 0.0)||(',', '', '', '', 0.0)||('0 . 17', '', '', '', 0.0)||('-', '', '', '', 0.0)||('0 . 44', '', '', '', 0.0)||('and', '', '', '', 0.0)||('reduce', '', '', '', 0.0)||('maternal', 'adj', 'C1858460', ['clna'], 0.0)||('anemia', 'noun', 'C1000483', ['plnt'], 0.0)||('relative risk', 'noun', 'C0242492', ['qnco'], 0.0)||('=', '', '', '', 0.0)||('0 . 62', '', '', '', 0.0)||(';', '', '', '', 0.0)||
('95 %', '', '', '', 0.0)||('confidence interval', 'noun', 'C0009667', ['qnco'], 0.0)||(',', '', '', '', 0.0)||('0 . 50', '', '', '', 0.0)||('-', '', '', '', 0.0)||('0 . 78', '', '', '', 0.0)||('in', '', '', '', 0.0)||('low', 'adj', 'C0205251', ['qlco'], 0.0)||('-', '', '', '', 0.0)||('parity', 'noun', 'C0030563', ['fndg'], 0.0)||('women', 'noun', 'C0043210', ['popg'], 0.0)||('-', '', '', '', 0.0)||('ie', '', '', '', 0.0)||(',', '', '', '', 0.0)||('during', '', '', '', 0.0)||('a', '', '', '', 0.0)||('first', 'noun', 'C0205435', ['qnco'], 0.0)||('or', '', '', '', 0.0)||('second', 'adj', 'C0205436', ['qnco'], 0.0)||('pregnancy', 'noun', 'C0032961', ['orgf'], 0.0)||('.', '', '', '', 0.0)||
