('to', '', '', '', 0.0)||('synthesize', '', '', '', 0.0)||('new', 'adj', 'C0205314', ['tmco'], 0.0)||('data', 'noun', 'C1511726', ['idcn'], 0.0)||('on', '', '', '', 0.0)||('breast cancer', 'noun', 'C0006142', ['neop'], 0.0)||('screening', 'noun', 'C0220908', ['hlca'], 0.0)||('for', '', '', '', 0.0)||('the', '', '', '', 0.0)||('u', '', '', '', 0.0)||('.', '', '', '', 0.0)||('s', '', '', '', 0.0)||('.', '', '', '', 0.0)||
('preventive', 'adj', 'C1456501', ['qlco'], 0.0)||('services', 'noun', 'C0557854', ['acty'], 0.0)||('task force', 'noun', 'C0162458', ['gora'], 0.0)||('.', '', '', '', 0.0)||
('medline', 'noun', 'C0025141', ['inpr'], 0.0)||(';', '', '', '', 0.0)||
('the', '', '', '', 0.0)||('cochrane', '', '', '', 0.0)||('controlled', 'adj', 'C2587213', ['ftcn'], 0.0)||('trials', '', '', '', 0.0)||('registry', 'noun', 'C0034975', ['inpr'], 0.0)||(';', '', '', '', 0.0)||
('and', '', '', '', 0.0)||('reference', 'noun', 'C1514811', ['idcn'], 0.0)||('lists', '', '', '', 0.0)||('of', '', '', '', 0.0)||('reviews', '', '', '', 0.0)||(',', '', '', '', 0.0)||('editorials', '', '', '', 0.0)||(',', '', '', '', 0.0)||('and', '', '', '', 0.0)||('original', 'adj', 'C0205313', ['idcn'], 0.0)||('studies', '', '', '', 0.0)||('.', '', '', '', 0.0)||
('eight', '', 'C0205454', ['qnco'], 0.0)||('randomized', 'verb', 'C0034656', ['resa'], 0.0)||(',', '', '', '', 0.0)||('controlled', 'adj', 'C2587213', ['ftcn'], 0.0)||('trials', '', '', '', 0.0)||('of', '', '', '', 0.0)||('mammography', 'noun', 'C0024671', ['diap'], 0.0)||('and', '', '', '', 0.0)||('2', '', '', '', 0.0)||('trials', '', '', '', 0.0)||('evaluating', 'verb', 'C0220825', ['ftcn'], 0.0)||('breast self - examination', '', '', '', 0.0)||('were', '', '', '', 0.0)||('included', '', '', '', 0.0)||('.', '', '', '', 0.0)||
('one', 'noun', 'C0205447', ['qnco'], 0.0)||('hundred', '', '', '', 0.0)||('fifty - four', '', '', '', 0.0)||('publications', 'noun', 'C0034036', ['inpr', 'mnob'], 0.0)||('of', '', '', '', 0.0)||('the', '', '', '', 0.0)||('results', 'noun', 'C1274040', ['ftcn'], 0.0)||('of', '', '', '', 0.0)||('these', '', '', '', 0.0)||('trials', '', '', '', 0.0)||(',', '', '', '', 0.0)||('as well as', '', '', '', 0.0)||('selected', '', '', '', 0.0)||('articles', '', '', '', 0.0)||('about', '', '', '', 0.0)||('the', '', '', '', 0.0)||('test', 'noun', 'C0022885', ['lbpr'], 0.0)||('characteristics', 'noun', 'C1521970', ['qlco'], 0.0)||('and', '', '', '', 0.0)||('harms', '', '', '', 0.0)||('associated', 'verb', 'C0332281', ['qlco'], 0.0)||('with', '', '', '', 0.0)||('screening', 'noun', 'C0220908', ['hlca'], 0.0)||(',', '', '', '', 0.0)||('were', '', '', '', 0.0)||('examined', 'verb', 'C0332128', ['fndg'], 0.0)||('.', '', '', '', 0.0)||
('predefined', '', '', '', 0.0)||('criteria', 'noun', 'C0243161', ['inpr'], 0.0)||('were', '', '', '', 0.0)||('used', '', '', '', 0.0)||('to', '', '', '', 0.0)||('assess', 'verb', 'C1516048', ['acty'], 0.0)||('the', '', '', '', 0.0)||('quality', 'noun', 'C0332306', ['qlco'], 0.0)||('of', '', '', '', 0.0)||('each', '', '', '', 0.0)||('study', 'noun', 'C0008976', ['resa'], 0.0)||('.', '', '', '', 0.0)||
('meta - analyses', '', '', '', 0.0)||('using', 'verb', 'C1524063', ['ftcn'], 0.0)||('a', '', '', '', 0.0)||('bayesian', '', '', '', 0.0)||('random - effects model', '', '', '', 0.0)||('were', '', '', '', 0.0)||('conducted', '', '', '', 0.0)||('to', '', '', '', 0.0)||('provide', 'verb', 'C0359589', ['food'], 0.0)||('summary', 'noun', 'C1552616', ['inpr'], 0.0)||('relative risk estimates', '', '', '', 0.0)||('and', '', '', '', 0.0)||('credible', '', '', '', 0.0)||('intervals', '', '', '', 0.0)||('for', '', '', '', 0.0)||('the', '', '', '', 0.0)||('effectiveness', 'noun', 'C1280519', ['qlco'], 0.0)||('of', '', '', '', 0.0)||('screening', 'noun', 'C0220908', ['hlca'], 0.0)||('with', '', '', '', 0.0)||('mammography', 'noun', 'C0024671', ['diap'], 0.0)||('in', '', '', '', 0.0)||('reducing', 'adj', 'C0392756', ['qlco'], 0.0)||('death', 'noun', 'C0011065', ['orgf'], 0.0)||('from', '', '', '', 0.0)||('breast cancer', 'noun', 'C0006142', ['neop'], 0.0)||('.', '', '', '', 0.0)||
('for', '', '', '', 0.0)||('studies', '', '', '', 0.0)||('of', '', '', '', 0.0)||('fair', 'adj', 'C1547189', ['qlco'], 0.0)||('quality', 'noun', 'C0332306', ['qlco'], 0.0)||('or', '', '', '', 0.0)||('better', 'adj', 'C0332272', ['qlco'], 0.0)||(',', '', '', '', 0.0)||('the', '', '', '', 0.0)||('summary', 'noun', 'C1552616', ['inpr'], 0.0)||('relative risk', 'noun', 'C0242492', ['qnco'], 0.0)||('was', '', '', '', 0.0)||('0 . 84', '', '', '', 0.0)||('(', '', '', '', 0.0)||('95 %', '', '', '', 0.0)||('cri', 'noun', 'C0010182', ['geoa'], 0.0)||(',', '', '', '', 0.0)||('0 . 77', '', '', '', 0.0)||('to', '', '', '', 0.0)||('0 . 91', '', '', '', 0.0)||(')', '', '', '', 0.0)||('and', '', '', '', 0.0)||('the', '', '', '', 0.0)||('number', 'noun', 'C0449788', ['qnco'], 0.0)||('needed', 'verb', 'C0027552', ['qlco'], 0.0)||('to', '', '', '', 0.0)||('screen', 'verb', 'C0430054', ['lbpr'], 0.0)||('to', '', '', '', 0.0)||('prevent', 'verb', 'C0309872', ['phsu'], 0.0)||('one', 'noun', 'C0205447', ['qnco'], 0.0)||('death', 'noun', 'C0011065', ['orgf'], 0.0)||('from', '', '', '', 0.0)||('breast cancer', 'noun', 'C0006142', ['neop'], 0.0)||('after', '', '', '', 0.0)||('approximately', 'adv', 'C0332232', ['qlco'], 0.0)||('14', '', '', '', 0.0)||('years', 'noun', 'C0439234', ['tmco'], 0.0)||('of', '', '', '', 0.0)||('observation', 'noun', 'C0302523', ['resa'], 0.0)||('was', '', '', '', 0.0)||('1224', '', '', '', 0.0)||('(', '', '', '', 0.0)||('cri', 'noun', 'C0010182', ['geoa'], 0.0)||(',', '', '', '', 0.0)||('665', '', '', '', 0.0)||('to', '', '', '', 0.0)||('2564', '', '', '', 0.0)||(')', '', '', '', 0.0)||('.', '', '', '', 0.0)||
('among', '', '', '', 0.0)||('women', 'noun', 'C0043210', ['popg'], 0.0)||('younger', '', '', '', 0.0)||('than', '', '', '', 0.0)||('50', '', '', '', 0.0)||('years', 'noun', 'C0439234', ['tmco'], 0.0)||('of', '', '', '', 0.0)||('age', 'noun', 'C0001779', ['orga'], 0.0)||(',', '', '', '', 0.0)||('the', '', '', '', 0.0)||('summary', 'noun', 'C1552616', ['inpr'], 0.0)||('relative risk', 'noun', 'C0242492', ['qnco'], 0.0)||('associated', 'verb', 'C0332281', ['qlco'], 0.0)||('with', '', '', '', 0.0)||('mammography', 'noun', 'C0024671', ['diap'], 0.0)||('was', '', '', '', 0.0)||('0 . 85', '', '', '', 0.0)||('(', '', '', '', 0.0)||('cri', 'noun', 'C0010182', ['geoa'], 0.0)||(',', '', '', '', 0.0)||('0 . 73', '', '', '', 0.0)||('to', '', '', '', 0.0)||('0 . 99', '', '', '', 0.0)||(')', '', '', '', 0.0)||('and', '', '', '', 0.0)||('the', '', '', '', 0.0)||('number', 'noun', 'C0449788', ['qnco'], 0.0)||('needed', 'verb', 'C0027552', ['qlco'], 0.0)||('to', '', '', '', 0.0)||('screen', 'verb', 'C0430054', ['lbpr'], 0.0)||('to', '', '', '', 0.0)||('prevent', 'verb', 'C0309872', ['phsu'], 0.0)||('one', 'noun', 'C0205447', ['qnco'], 0.0)||('death', 'noun', 'C0011065', ['orgf'], 0.0)||('from', '', '', '', 0.0)||('breast cancer', 'noun', 'C0006142', ['neop'], 0.0)||('after', '', '', '', 0.0)||('14', '', '', '', 0.0)||('years', 'noun', 'C0439234', ['tmco'], 0.0)||('of', '', '', '', 0.0)||('observation', 'noun', 'C0302523', ['resa'], 0.0)||('was', '', '', '', 0.0)||('1792', '', '', '', 0.0)||('(', '', '', '', 0.0)||('cri', 'noun', 'C0010182', ['geoa'], 0.0)||(',', '', '', '', 0.0)||('764', '', '', '', 0.0)||('to', '', '', '', 0.0)||('10', '', '', '', 0.0)||('540', '', '', '', 0.0)||(')', '', '', '', 0.0)||('.', '', '', '', 0.0)||
('for', '', '', '', 0.0)||('clinical breast examination', 'noun', 'C2347781', ['topp'], 0.0)||('and', '', '', '', 0.0)||('breast self - examination', '', '', '', 0.0)||(',', '', '', '', 0.0)||('evidence', 'noun', 'C0332120', ['ftcn'], 0.0)||('from', '', '', '', 0.0)||('randomized', 'adj', 'C0034656', ['resa'], 0.0)||('trials', '', '', '', 0.0)||('is', '', '', '', 0.0)||('inconclusive', 'adj', 'C1629507', ['qlco'], 0.0)||('.', '', '', '', 0.0)||
('in', '', '', '', 0.0)||('the', '', '', '', 0.0)||('randomized', 'adj', 'C0034656', ['resa'], 0.0)||(',', '', '', '', 0.0)||('controlled', 'adj', 'C2587213', ['ftcn'], 0.0)||('trials', '', '', '', 0.0)||(',', '', '', '', 0.0)||('mammography', 'noun', 'C0024671', ['diap'], 0.0)||('reduced', 'verb', 'C0392756', ['qlco'], 0.0)||('breast cancer', 'noun', 'C0006142', ['neop'], 0.0)||('mortality rates', 'noun', 'C0026565', ['qnco'], 0.0)||('among', '', '', '', 0.0)||('women', 'noun', 'C0043210', ['popg'], 0.0)||('40', '', '', '', 0.0)||('to', '', '', '', 0.0)||('74', '', '', '', 0.0)||('years', 'noun', 'C0439234', ['tmco'], 0.0)||('of', '', '', '', 0.0)||('age', 'noun', 'C0001779', ['orga'], 0.0)||('.', '', '', '', 0.0)||
('greater', 'adj', 'C1704243', ['qnco'], 0.0)||('absolute risk reduction', '', '', '', 0.0)||('was', '', '', '', 0.0)||('seen', 'verb', 'C0205397', ['qlco'], 0.0)||('among', '', '', '', 0.0)||('older', '', '', '', 0.0)||('women', 'noun', 'C0043210', ['popg'], 0.0)||('.', '', '', '', 0.0)||
('because', '', '', '', 0.0)||('these', '', '', '', 0.0)||('results', 'noun', 'C1274040', ['ftcn'], 0.0)||('incorporate', '', '', '', 0.0)||('several', '', '', '', 0.0)||('rounds', '', '', '', 0.0)||('of', '', '', '', 0.0)||('screening', 'noun', 'C0220908', ['hlca'], 0.0)||(',', '', '', '', 0.0)||('the', '', '', '', 0.0)||('actual', 'adj', 'C0237400', ['qlco'], 0.0)||('number', 'noun', 'C0449788', ['qnco'], 0.0)||('of', '', '', '', 0.0)||('mammograms', '', '', '', 0.0)||('needed', 'verb', 'C0027552', ['qlco'], 0.0)||('to', '', '', '', 0.0)||('prevent', 'verb', 'C0309872', ['phsu'], 0.0)||('one', 'noun', 'C0205447', ['qnco'], 0.0)||('death', 'noun', 'C0011065', ['orgf'], 0.0)||('from', '', '', '', 0.0)||('breast cancer', 'noun', 'C0006142', ['neop'], 0.0)||('is', '', '', '', 0.0)||('higher', '', '', '', 0.0)||('.', '', '', '', 0.0)||
('in', '', '', '', 0.0)||('addition', 'noun', 'C1883712', ['ftcn'], 0.0)||(',', '', '', '', 0.0)||('each', '', '', '', 0.0)||('screening', 'noun', 'C0220908', ['hlca'], 0.0)||('has', '', '', '', 0.0)||('associated', 'adj', 'C0332281', ['qlco'], 0.0)||('risks', 'noun', 'C0035647', ['qlco'], 0.0)||('and', '', '', '', 0.0)||('costs', 'noun', 'C0010186', ['qnco'], 0.0)||('.', '', '', '', 0.0)||
