('two', 'adj', 'C0205448', ['qnco'], 0.0)||('large', 'adj', 'C0549177', ['qnco'], 0.0)||('rcts', '', '', '', 0.0)||(',', '', '', '', 0.0)||('conducted', '', '', '', 0.0)||('in', '', '', '', 0.0)||('st petersburg', '', '', '', 0.0)||(',', '', '', '', 0.0)||('russia', 'noun', 'C0035970', ['geoa'], 0.0)||('(', '', '', '', 0.0)||('122 , 471', '', '', '', 0.0)||('women', 'noun', 'C0043210', ['popg'], 0.0)||(')', '', '', '', 0.0)||('and', '', '', '', 0.0)||('shanghai', '', '', '', 0.0)||(',', '', '', '', 0.0)||('china', 'noun', 'C0008115', ['geoa'], 0.0)||('(', '', '', '', 0.0)||('266 , 064', '', '', '', 0.0)||('women', 'noun', 'C0043210', ['popg'], 0.0)||(')', '', '', '', 0.0)||(',', '', '', '', 0.0)||('were', '', '', '', 0.0)||('found', '', '', '', 0.0)||('.', '', '', '', 0.0)||
('both', '', '', '', 0.0)||('studies', '', '', '', 0.0)||('used', '', '', '', 0.0)||('cluster', 'noun', 'C1555715', ['idcn'], 0.0)||('randomization', 'noun', 'C0034656', ['resa'], 0.0)||('(', '', '', '', 0.0)||('by', '', '', '', 0.0)||('worksite', 'noun', 'C0162579', ['spco'], 0.0)||(')', '', '', '', 0.0)||('and', '', '', '', 0.0)||('involved', 'adj', 'C1314939', ['ftcn'], 0.0)||('large', 'adj', 'C0549177', ['qnco'], 0.0)||('numbers', 'noun', 'C0237753', ['qnco'], 0.0)||('of', '', '', '', 0.0)||('women', 'noun', 'C0043210', ['popg'], 0.0)||('who', '', '', '', 0.0)||('were', '', '', '', 0.0)||('meticulously', '', '', '', 0.0)||('trained', '', '', '', 0.0)||('in', '', '', '', 0.0)||('proper', '', '', '', 0.0)||('breast self - examination', '', '', '', 0.0)||('technique', 'noun', 'C0449851', ['ftcn'], 0.0)||('and', '', '', '', 0.0)||('had', '', '', '', 0.0)||('numerousreinforcement', '', '', '', 0.0)||('sessions', '', '', '', 0.0)||('.', '', '', '', 0.0)||
('study', 'noun', 'C0008976', ['resa'], 0.0)||('compliance', 'noun', 'C0009563', ['qnco'], 0.0)||('and', '', '', '', 0.0)||('follow - up', '', '', '', 0.0)||('were', '', '', '', 0.0)||('excellent', 'adj', 'C1548784', ['qlco'], 0.0)||('.', '', '', '', 0.0)||
('outcomes', 'noun', 'C0085415', ['qlco'], 0.0)||('assessment', 'noun', 'C1261322', ['hlca'], 0.0)||('was', '', '', '', 0.0)||('explicitly', '', '', '', 0.0)||('blinded', 'verb', 'C0150108', ['resa'], 0.0)||('in', '', '', '', 0.0)||('the', '', '', '', 0.0)||('shanghai', '', '', '', 0.0)||('study', 'noun', 'C0008976', ['resa'], 0.0)||('.', '', '', '', 0.0)||
('neither', '', '', '', 0.0)||('trial', 'noun', 'C0008976', ['resa'], 0.0)||('demonstrated', '', '', '', 0.0)||('a', '', '', '', 0.0)||('reduction', 'noun', 'C0301630', ['npop'], 0.0)||('in breast', '', '', '', 0.0)||('cancer', 'noun', 'C0006826', ['neop'], 0.0)||('mortality', 'noun', 'C0026565', ['qnco'], 0.0)||('or', '', '', '', 0.0)||('improvement', '', '', '', 0.0)||('in', '', '', '', 0.0)||('the', '', '', '', 0.0)||('number', 'noun', 'C0449788', ['qnco'], 0.0)||('or', '', '', '', 0.0)||('stage', 'noun', 'C0205390', ['tmco'], 0.0)||('of', '', '', '', 0.0)||('cancers', 'noun', 'C0006826', ['neop'], 0.0)||('detected', 'verb', 'C0442726', ['fndg'], 0.0)||('during', '', '', '', 0.0)||('9', '', '', '', 0.0)||('to', '', '', '', 0.0)||('11', '', '', '', 0.0)||('years', 'noun', 'C0439234', ['tmco'], 0.0)||('of', '', '', '', 0.0)||('follow - up', '', '', '', 0.0)||(',', '', '', '', 0.0)||('but', '', '', '', 0.0)||('there', '', '', '', 0.0)||('is', '', '', '', 0.0)||('evidence', 'noun', 'C0332120', ['ftcn'], 0.0)||('for', '', '', '', 0.0)||('harm', '', '', '', 0.0)||(':', '', '', '', 0.0)||('a', '', '', '', 0.0)||('nearly', '', '', '', 0.0)||('2', '', '', '', 0.0)||('-', '', '', '', 0.0)||('fold', 'noun', 'C0332462', ['spco'], 0.0)||('increase', 'noun', 'C0442805', ['ftcn'], 0.0)||('in', '', '', '', 0.0)||('false - positive', '', '', '', 0.0)||('results', 'noun', 'C1274040', ['ftcn'], 0.0)||(',', '', '', '', 0.0)||('physician', 'noun', 'C0031831', ['prog'], 0.0)||('visits', 'noun', 'C0545082', ['bhvr'], 0.0)||(',', '', '', '', 0.0)||('and', '', '', '', 0.0)||('biopsies', 'noun', 'C0005558', ['diap'], 0.0)||('for', '', '', '', 0.0)||('benign', 'adj', 'C0205183', ['qlco'], 0.0)||('disease', 'noun', 'C0012634', ['dsyn'], 0.0)||('.', '', '', '', 0.0)||
