('effects', '', '', '', 0.0)||('of', '', '', '', 0.0)||('ramipril', 'noun', 'C0072973', ['orch', 'phsu'], 0.0)||('on', '', '', '', 0.0)||('cardiovascular', 'adj', 'C0007226', ['bdsy'], 0.0)||('and', '', '', '', 0.0)||('microvascular', 'adj', 'C0443258', ['ftcn'], 0.0)||('outcomes', 'noun', 'C0085415', ['qlco'], 0.0)||('in', '', '', '', 0.0)||('people', 'noun', 'C0027361', ['popg'], 0.0)||('with', '', '', '', 0.0)||('diabetes mellitus', 'noun', 'C0011849', ['dsyn'], 0.0)||(':', '', '', '', 0.0)||('results', 'noun', 'C1274040', ['ftcn'], 0.0)||('of', '', '', '', 0.0)||('the', '', '', '', 0.0)||('hope', 'noun', 'C0392347', ['menp'], 0.0)||('study', 'noun', 'C0008976', ['resa'], 0.0)||('and', '', '', '', 0.0)||('micro', 'adj', 'C0085672', ['lbpr'], 0.0)||('-', '', '', '', 0.0)||('hope', 'noun', 'C0392347', ['menp'], 0.0)||('substudy', '', '', '', 0.0)||('.', '', '', '', 0.0)||
('heart', 'noun', 'C0018787', ['bpoc'], 0.0)||('outcomes', 'noun', 'C0085415', ['qlco'], 0.0)||('prevention', 'noun', 'C0199176', ['topp'], 0.0)||('evaluation study', 'noun', 'C0015196', ['inpr'], 0.0)||('investigators', 'noun', 'C0035173', ['prog'], 0.0)||('.', '', '', '', 0.0)||
('background', 'noun', 'C1706907', ['cnce'], 0.0)||(':', '', '', '', 0.0)||('diabetes mellitus', 'noun', 'C0011849', ['dsyn'], 0.0)||('is', '', '', '', 0.0)||('a', '', '', '', 0.0)||('strong', 'adj', 'C0442821', ['qlco'], 0.0)||('risk factor', '', '', '', 0.0)||('for', '', '', '', 0.0)||('cardiovascular', 'adj', 'C0007226', ['bdsy'], 0.0)||('and', '', '', '', 0.0)||('renal disease', 'noun', 'C0022658', ['dsyn'], 0.0)||('.', '', '', '', 0.0)||
('we', '', '', '', 0.0)||('investigated', '', '', '', 0.0)||('whether', '', '', '', 0.0)||('the', '', '', '', 0.0)||('angiotensin - converting - enzyme inhibitor', '', '', '', 0.0)||('ramipril', 'noun', 'C0072973', ['orch', 'phsu'], 0.0)||('can', '', '', '', 0.0)||('lower', 'verb', 'C0441994', ['ftcn'], 0.0)||('these', '', '', '', 0.0)||('risks', 'noun', 'C0035647', ['qlco'], 0.0)||('in', '', '', '', 0.0)||('patients', 'noun', 'C0030705', ['podg'], 0.0)||('with', '', '', '', 0.0)||('diabetes', 'noun', 'C0011847', ['dsyn'], 0.0)||('.', '', '', '', 0.0)||
('methods', 'noun', 'C0025663', ['inpr'], 0.0)||(':', '', '', '', 0.0)||('3577', '', '', '', 0.0)||('people', 'noun', 'C0027361', ['popg'], 0.0)||('with', '', '', '', 0.0)||('diabetes', 'noun', 'C0011847', ['dsyn'], 0.0)||('included', '', '', '', 0.0)||('in', '', '', '', 0.0)||('the', '', '', '', 0.0)||('heart', 'noun', 'C0018787', ['bpoc'], 0.0)||('outcomes', 'noun', 'C0085415', ['qlco'], 0.0)||('prevention', 'noun', 'C0199176', ['topp'], 0.0)||('evaluation study', 'noun', 'C0015196', ['inpr'], 0.0)||(',', '', '', '', 0.0)||('aged', 'verb', 'C0001779', ['orga'], 0.0)||('55', '', '', '', 0.0)||('years', 'noun', 'C0439234', ['tmco'], 0.0)||('or', '', '', '', 0.0)||('older', '', '', '', 0.0)||(',', '', '', '', 0.0)||('who', '', '', '', 0.0)||('had', '', '', '', 0.0)||('a', '', '', '', 0.0)||('previous', 'adj', 'C0205156', ['tmco'], 0.0)||('cardiovascular', 'adj', 'C0007226', ['bdsy'], 0.0)||('event', 'noun', 'C0441471', ['evnt'], 0.0)||('or', '', '', '', 0.0)||('at', '', '', '', 0.0)||('least', '', '', '', 0.0)||('one', 'adv', 'C0205447', ['qnco'], 0.0)||('other', '', '', '', 0.0)||('cardiovascular risk', '', '', '', 0.0)||('factor', 'noun', 'C1521761', ['ftcn'], 0.0)||(',', '', '', '', 0.0)||('no', '', '', '', 0.0)||('clinical', 'adj', 'C0205210', ['qlco'], 0.0)||('proteinuria', 'noun', 'C0033687', ['dsyn'], 0.0)||(',', '', '', '', 0.0)||('heart failure', 'noun', 'C0018801', ['dsyn'], 0.0)||(',', '', '', '', 0.0)||('or', '', '', '', 0.0)||('low', 'adj', 'C0205251', ['qlco'], 0.0)||('ejection fraction', 'noun', 'C0489482', ['diap'], 0.0)||(',', '', '', '', 0.0)||('and', '', '', '', 0.0)||('who', '', '', '', 0.0)||('were', '', '', '', 0.0)||('not', 'adv', 'C1518422', ['ftcn'], 0.0)||('taking', '', '', '', 0.0)||('angiotensin - converting - enzyme inhibitors', '', '', '', 0.0)||(',', '', '', '', 0.0)||('were', '', '', '', 0.0)||('randomly', '', '', '', 0.0)||('assigned', 'adj', 'C1516050', ['ftcn'], 0.0)||('ramipril', 'noun', 'C0072973', ['orch', 'phsu'], 0.0)||('(', '', '', '', 0.0)||('10', '', '', '', 0.0)||('mg', '', '', '', 0.0)||('/', '', '', '', 0.0)||('day', 'noun', 'C0439228', ['tmco'], 0.0)||(')', '', '', '', 0.0)||('or', '', '', '', 0.0)||('placebo', 'noun', 'C0032042', ['topp'], 0.0)||(',', '', '', '', 0.0)||('and', '', '', '', 0.0)||('vitamin e', 'noun', 'C0042874', ['lipd', 'phsu', 'vita'], 0.0)||('or', '', '', '', 0.0)||('placebo', 'noun', 'C0032042', ['topp'], 0.0)||(',', '', '', '', 0.0)||('according to', '', '', '', 0.0)||('a', '', '', '', 0.0)||('two', 'noun', 'C0205448', ['qnco'], 0.0)||('-', '', '', '', 0.0)||('by', '', '', '', 0.0)||('-', '', '', '', 0.0)||('two', 'noun', 'C0205448', ['qnco'], 0.0)||('factorial', '', '', '', 0.0)||('design', 'noun', 'C1707689', ['acty'], 0.0)||('.', '', '', '', 0.0)||
('the', '', '', '', 0.0)||('combined', 'adj', 'C0205195', ['qlco'], 0.0)||('primary', 'adj', 'C0205225', ['qlco'], 0.0)||('outcome', 'noun', 'C1274040', ['ftcn'], 0.0)||('was', '', '', '', 0.0)||('myocardial infarction', 'noun', 'C0027051', ['dsyn'], 0.0)||(',', '', '', '', 0.0)||('stroke', 'noun', 'C0038454', ['dsyn'], 0.0)||(',', '', '', '', 0.0)||('or', '', '', '', 0.0)||('cardiovascular', 'adj', 'C0007226', ['bdsy'], 0.0)||('death', 'noun', 'C0011065', ['orgf'], 0.0)||('.', '', '', '', 0.0)||
('overt', '', '', '', 0.0)||('nephropathy', 'noun', 'C0022658', ['dsyn'], 0.0)||('was', '', '', '', 0.0)||('a', '', '', '', 0.0)||('main', 'adj', 'C0205225', ['qlco'], 0.0)||('outcome', 'noun', 'C1274040', ['ftcn'], 0.0)||('in', '', '', '', 0.0)||('a', '', '', '', 0.0)||('substudy', '', '', '', 0.0)||('.', '', '', '', 0.0)||
('results', 'noun', 'C1274040', ['ftcn'], 0.0)||(':', '', '', '', 0.0)||('the', '', '', '', 0.0)||('study', 'noun', 'C0008976', ['resa'], 0.0)||('was', '', '', '', 0.0)||('stopped', '', '', '', 0.0)||('6', '', '', '', 0.0)||('months', 'noun', 'C0439231', ['tmco'], 0.0)||('early', 'adv', 'C1279919', ['tmco'], 0.0)||('(', '', '', '', 0.0)||('after', '', '', '', 0.0)||('4 . 5', '', '', '', 0.0)||('years', 'noun', 'C0439234', ['tmco'], 0.0)||(')', '', '', '', 0.0)||('by', '', '', '', 0.0)||('the', '', '', '', 0.0)||('independent', 'adj', 'C0085862', ['idcn'], 0.0)||('data safety and monitoring board', '', '', '', 0.0)||('because of', '', '', '', 0.0)||('a', '', '', '', 0.0)||('consistent', 'adj', 'C0332290', ['idcn'], 0.0)||('benefit', 'noun', 'C0814225', ['qnco'], 0.0)||('of', '', '', '', 0.0)||('ramipril', 'noun', 'C0072973', ['orch', 'phsu'], 0.0)||('compared', 'verb', 'C1707455', ['acty'], 0.0)||('with', '', '', '', 0.0)||('placebo', 'noun', 'C0032042', ['topp'], 0.0)||('.', '', '', '', 0.0)||
('ramipril', 'noun', 'C0072973', ['orch', 'phsu'], 0.0)||('lowered', 'verb', 'C1272755', ['qnco'], 0.0)||('the', '', '', '', 0.0)||('risk', 'noun', 'C0035647', ['qlco'], 0.0)||('of', '', '', '', 0.0)||('the', '', '', '', 0.0)||('combined', 'adj', 'C0205195', ['qlco'], 0.0)||('primary', 'adj', 'C0205225', ['qlco'], 0.0)||('outcome', 'noun', 'C1274040', ['ftcn'], 0.0)||('by', '', '', '', 0.0)||('25 %', '', '', '', 0.0)||('(', '', '', '', 0.0)||('95 %', '', '', '', 0.0)||('ci', 'noun', 'C1417638', ['gngm'], 0.0)||('12', '', '', '', 0.0)||('-', '', '', '', 0.0)||('36', '', '', '', 0.0)||(',', '', '', '', 0.0)||('p', '', '', '', 0.0)||('=', '', '', '', 0.0)||('0 . 0004', '', '', '', 0.0)||(')', '', '', '', 0.0)||(',', '', '', '', 0.0)||('myocardial infarction', 'noun', 'C0027051', ['dsyn'], 0.0)||('by', '', '', '', 0.0)||('22 %', '', '', '', 0.0)||('(', '', '', '', 0.0)||('6', '', '', '', 0.0)||('-', '', '', '', 0.0)||('36', '', '', '', 0.0)||(')', '', '', '', 0.0)||(',', '', '', '', 0.0)||('stroke', 'noun', 'C0038454', ['dsyn'], 0.0)||('by', '', '', '', 0.0)||('33 %', '', '', '', 0.0)||('(', '', '', '', 0.0)||('10', '', '', '', 0.0)||('-', '', '', '', 0.0)||('50', '', '', '', 0.0)||(')', '', '', '', 0.0)||(',', '', '', '', 0.0)||('cardiovascular', 'adj', 'C0007226', ['bdsy'], 0.0)||('death', 'noun', 'C0011065', ['orgf'], 0.0)||('by', '', '', '', 0.0)||('37 %', '', '', '', 0.0)||('(', '', '', '', 0.0)||('21', '', '', '', 0.0)||('-', '', '', '', 0.0)||('51', '', '', '', 0.0)||(')', '', '', '', 0.0)||(',', '', '', '', 0.0)||('total', 'adj', 'C0439810', ['qlco'], 0.0)||('mortality', 'noun', 'C0026565', ['qnco'], 0.0)||('by', '', '', '', 0.0)||('24 %', '', '', '', 0.0)||('(', '', '', '', 0.0)||('8', '', '', '', 0.0)||('-', '', '', '', 0.0)||('37', '', '', '', 0.0)||(')', '', '', '', 0.0)||(',', '', '', '', 0.0)||('revascularisation', 'noun', 'C0581603', ['topp'], 0.0)||('by', '', '', '', 0.0)||('17 %', '', '', '', 0.0)||('(', '', '', '', 0.0)||('2', '', '', '', 0.0)||('-', '', '', '', 0.0)||('30', '', '', '', 0.0)||(')', '', '', '', 0.0)||(',', '', '', '', 0.0)||('and', '', '', '', 0.0)||('overt', '', '', '', 0.0)||('nephropathy', 'noun', 'C0022658', ['dsyn'], 0.0)||('by', '', '', '', 0.0)||('24 %', '', '', '', 0.0)||('(', '', '', '', 0.0)||('3', '', '', '', 0.0)||('-', '', '', '', 0.0)||('40', '', '', '', 0.0)||(',', '', '', '', 0.0)||('p', '', '', '', 0.0)||('=', '', '', '', 0.0)||('0 . 027', '', '', '', 0.0)||(')', '', '', '', 0.0)||('.', '', '', '', 0.0)||
('after', '', '', '', 0.0)||('adjustment', 'noun', 'C0376209', ['inbe'], 0.0)||('for', '', '', '', 0.0)||('the', '', '', '', 0.0)||('changes', '', '', '', 0.0)||('in', '', '', '', 0.0)||('systolic', 'adj', 'C0039155', ['tmco'], 0.0)||('(', '', '', '', 0.0)||('2 . 4', '', '', '', 0.0)||('mm hg', 'noun', 'C0439475', ['qnco'], 0.0)||(')', '', '', '', 0.0)||('and', '', '', '', 0.0)||('diastolic', 'adj', 'C0012000', ['clna'], 0.0)||('(', '', '', '', 0.0)||('1 . 0', '', '', '', 0.0)||('mm hg', 'noun', 'C0439475', ['qnco'], 0.0)||(')', '', '', '', 0.0)||('blood pressures', '', '', '', 0.0)||(',', '', '', '', 0.0)||('ramipril', 'noun', 'C0072973', ['orch', 'phsu'], 0.0)||('still', '', '', '', 0.0)||('lowered', 'verb', 'C1272755', ['qnco'], 0.0)||('the', '', '', '', 0.0)||('risk', 'noun', 'C0035647', ['qlco'], 0.0)||('of', '', '', '', 0.0)||('the', '', '', '', 0.0)||('combined', 'adj', 'C0205195', ['qlco'], 0.0)||('primary', 'adj', 'C0205225', ['qlco'], 0.0)||('outcome', 'noun', 'C1274040', ['ftcn'], 0.0)||('by', '', '', '', 0.0)||('25 %', '', '', '', 0.0)||('(', '', '', '', 0.0)||('12', '', '', '', 0.0)||('-', '', '', '', 0.0)||('36', '', '', '', 0.0)||(',', '', '', '', 0.0)||('p', '', '', '', 0.0)||('=', '', '', '', 0.0)||('0 . 0004', '', '', '', 0.0)||(')', '', '', '', 0.0)||('.', '', '', '', 0.0)||
('conclusions', 'noun', 'C1707478', ['idcn'], 0.0)||(':', '', '', '', 0.0)||('ramipril', 'noun', 'C0072973', ['orch', 'phsu'], 0.0)||('was', '', '', '', 0.0)||('beneficial', '', '', '', 0.0)||('for', '', '', '', 0.0)||('cardiovascular', 'adj', 'C0007226', ['bdsy'], 0.0)||('events', 'noun', 'C0441471', ['evnt'], 0.0)||('and', '', '', '', 0.0)||('overt', '', '', '', 0.0)||('nephropathy', 'noun', 'C0022658', ['dsyn'], 0.0)||('in', '', '', '', 0.0)||('people', 'noun', 'C0027361', ['popg'], 0.0)||('with', '', '', '', 0.0)||('diabetes', 'noun', 'C0011847', ['dsyn'], 0.0)||('.', '', '', '', 0.0)||
('the', '', '', '', 0.0)||('cardiovascular', 'adj', 'C0007226', ['bdsy'], 0.0)||('benefit', 'noun', 'C0814225', ['qnco'], 0.0)||('was', '', '', '', 0.0)||('greater', 'adj', 'C1704243', ['qnco'], 0.0)||('than', '', '', '', 0.0)||('that', '', '', '', 0.0)||('attributable', 'adj', 'C0596130', ['menp'], 0.0)||('to', '', '', '', 0.0)||('the', '', '', '', 0.0)||('decrease', 'noun', 'C0392756', ['qlco'], 0.0)||('in', '', '', '', 0.0)||('blood pressure', 'noun', 'C0005823', ['orgf'], 0.0)||('.', '', '', '', 0.0)||
('this', '', '', '', 0.0)||('treatment', 'noun', 'C0039798', ['ftcn'], 0.0)||('represents', '', '', '', 0.0)||('a', '', '', '', 0.0)||('vasculoprotective', '', '', '', 0.0)||('and', '', '', '', 0.0)||('renoprotective', '', '', '', 0.0)||('effect', 'noun', 'C1280500', ['qlco'], 0.0)||('for', '', '', '', 0.0)||('people', 'noun', 'C0027361', ['popg'], 0.0)||('with', '', '', '', 0.0)||('diabetes', 'noun', 'C0011847', ['dsyn'], 0.0)||('.', '', '', '', 0.0)||
