('dysfunctional uterine bleeding', 'noun', 'C0025874', ['patf'], 0.0)||('is', '', '', '', 0.0)||('"', '', '', '', 0.0)||('excessively', 'adv', 'C0442802', ['qlco'], 0.0)||('heavy', 'adj', 'C0439539', ['qlco'], 0.0)||(',', '', '', '', 0.0)||('prolonged', 'verb', 'C0439590', ['tmco'], 0.0)||('or', '', '', '', 0.0)||('frequent', 'adj', 'C0332183', ['tmco'], 0.0)||('bleeding', 'noun', 'C0019080', ['fndg'], 0.0)||('of', '', '', '', 0.0)||('uterine', 'adj', 'C0042149', ['bpoc'], 0.0)||('origin', 'noun', 'C0439659', ['tmco'], 0.0)||('which', '', '', '', 0.0)||('is', '', '', '', 0.0)||('not', 'adv', 'C1518422', ['ftcn'], 0.0)||('due to', '', '', '', 0.0)||('pregnancy', 'noun', 'C0032961', ['orgf'], 0.0)||('or', '', '', '', 0.0)||('to', '', '', '', 0.0)||('recognizable', '', '', '', 0.0)||('pelvic', 'adj', 'C0030797', ['blor'], 0.0)||('or', '', '', '', 0.0)||('systemic disease', 'noun', 'C0442893', ['dsyn'], 0.0)||('"', '', '', '', 0.0)||('.', '', '', '', 0.0)||
('anovulation', 'noun', 'C0003128', ['dsyn'], 0.0)||('may', '', '', '', 0.0)||('be', '', '', '', 0.0)||('inferred', 'verb', 'C0679201', ['menp'], 0.0)||('from', '', '', '', 0.0)||('a', '', '', '', 0.0)||('number', 'noun', 'C0449788', ['qnco'], 0.0)||('of', '', '', '', 0.0)||('observations', '', '', '', 0.0)||('but', '', '', '', 0.0)||('in', '', '', '', 0.0)||('the', '', '', '', 0.0)||('normal', 'adj', 'C0205307', ['qlco'], 0.0)||('clinical', 'adj', 'C0205210', ['qlco'], 0.0)||('situation', 'noun', 'C1998875', ['tmco'], 0.0)||(',', '', '', '', 0.0)||('anovulation', 'noun', 'C0003128', ['dsyn'], 0.0)||('is', '', '', '', 0.0)||('often', 'adv', 'C0332183', ['tmco'], 0.0)||('assumed', '', '', '', 0.0)||('when', '', '', '', 0.0)||('a', '', '', '', 0.0)||('woman', 'noun', 'C0043210', ['popg'], 0.0)||('presents', '', '', '', 0.0)||('with', '', '', '', 0.0)||('heavy', 'adj', 'C0439539', ['qlco'], 0.0)||(',', '', '', '', 0.0)||('prolonged', 'verb', 'C0439590', ['tmco'], 0.0)||('or', '', '', '', 0.0)||('frequent', 'adj', 'C0332183', ['tmco'], 0.0)||('bleeding', 'noun', 'C0019080', ['fndg'], 0.0)||(',', '', '', '', 0.0)||('particularly', '', '', '', 0.0)||('in', '', '', '', 0.0)||('those', '', '', '', 0.0)||('at', '', '', '', 0.0)||('the', '', '', '', 0.0)||('extremes', '', '', '', 0.0)||('of', '', '', '', 0.0)||('reproductive', 'adj', 'C0035150', ['orgf'], 0.0)||('life', 'noun', 'C0376558', ['idcn'], 0.0)||('and', '', '', '', 0.0)||('in', '', '', '', 0.0)||('women', 'noun', 'C0043210', ['popg'], 0.0)||('known', 'verb', 'C0205309', ['qlco'], 0.0)||('to', '', '', '', 0.0)||('have', '', '', '', 0.0)||('the', '', '', '', 0.0)||('polycystic', '', '', '', 0.0)||('ovarian', 'adj', 'C0205065', ['bpoc'], 0.0)||('syndrome', 'noun', 'C0039082', ['dsyn'], 0.0)||('.', '', '', '', 0.0)||
('menstrual', 'adj', 'C0025344', ['orgf'], 0.0)||('bleeding', 'noun', 'C0019080', ['fndg'], 0.0)||('that', '', '', '', 0.0)||('is', '', '', '', 0.0)||('irregular', 'adj', 'C0205271', ['qlco'], 0.0)||('or', '', '', '', 0.0)||('excessive', 'adj', 'C0442802', ['qlco'], 0.0)||('is', '', '', '', 0.0)||('usually', '', '', '', 0.0)||('poorly', 'adv', 'C0205169', ['qlco'], 0.0)||('tolerated', '', '', '', 0.0)||('by', '', '', '', 0.0)||('the', '', '', '', 0.0)||('majority', 'noun', 'C0680220', ['socb'], 0.0)||('of', '', '', '', 0.0)||('women', 'noun', 'C0043210', ['popg'], 0.0)||('.', '', '', '', 0.0)||
('changes', '', '', '', 0.0)||('in', '', '', '', 0.0)||('the', '', '', '', 0.0)||('length', 'noun', 'C1444754', ['qnco'], 0.0)||('of', '', '', '', 0.0)||('the', '', '', '', 0.0)||('menstrual cycle', 'noun', 'C0025329', ['orgf'], 0.0)||('generally', '', '', '', 0.0)||('imply', '', '', '', 0.0)||('disturbances', '', '', '', 0.0)||('of', '', '', '', 0.0)||('the', '', '', '', 0.0)||('hypothalamo - pituitary', '', '', '', 0.0)||('-', '', '', '', 0.0)||('ovarian', 'adj', 'C0205065', ['bpoc'], 0.0)||('axis', 'noun', 'C0004457', ['bpoc'], 0.0)||('.', '', '', '', 0.0)||
('in', '', '', '', 0.0)||('anovulatory', 'adj', 'C0429468', ['dsyn'], 0.0)||('dysfunctional uterine bleeding', 'noun', 'C0025874', ['patf'], 0.0)||('with', '', '', '', 0.0)||('acyclic', '', '', '', 0.0)||('(', '', '', '', 0.0)||('irregular', 'adj', 'C0205271', ['qlco'], 0.0)||(')', '', '', '', 0.0)||('oestrogen', '', '', '', 0.0)||('production', 'noun', 'C0033268', ['ocac'], 0.0)||('there', '', '', '', 0.0)||('will', '', '', '', 0.0)||('be', '', '', '', 0.0)||('no', '', '', '', 0.0)||('progesterone', 'noun', 'C0033308', ['horm', 'phsu', 'strd'], 0.0)||('withdrawal', 'noun', 'C0237955', ['menp'], 0.0)||('from', '', '', '', 0.0)||('oestrogen', '', '', '', 0.0)||('primed', '', '', '', 0.0)||('endometrium', 'noun', 'C0014180', ['bpoc'], 0.0)||('and', '', '', '', 0.0)||('so', '', '', '', 0.0)||('cycles', '', '', '', 0.0)||('are', '', '', '', 0.0)||('irregular', 'adj', 'C0205271', ['qlco'], 0.0)||('.', '', '', '', 0.0)||
('prolonged', 'adj', 'C0439590', ['tmco'], 0.0)||('oestrogen', '', '', '', 0.0)||('stimulation', 'noun', 'C1292856', ['topp'], 0.0)||('may', '', '', '', 0.0)||('cause', 'verb', 'C1524003', ['cnce'], 0.0)||('a', '', '', '', 0.0)||('build up', '', '', '', 0.0)||('of', '', '', '', 0.0)||('endometrium', 'noun', 'C0014180', ['bpoc'], 0.0)||('with', '', '', '', 0.0)||('erratic', '', '', '', 0.0)||('bleeding', 'noun', 'C0019080', ['fndg'], 0.0)||('as', '', '', '', 0.0)||('it', '', '', '', 0.0)||('breaks', '', '', '', 0.0)||('down', '', '', '', 0.0)||('and', '', '', '', 0.0)||('is', '', '', '', 0.0)||('expelled', '', '', '', 0.0)||('.', '', '', '', 0.0)||
('this', '', '', '', 0.0)||('is', '', '', '', 0.0)||('the', '', '', '', 0.0)||('rationale', 'noun', 'C2699007', ['idcn'], 0.0)||('for', '', '', '', 0.0)||('using', 'verb', 'C1524063', ['ftcn'], 0.0)||('cyclical', 'adj', 'C0439596', ['tmco'], 0.0)||('progestogens', '', '', '', 0.0)||('during', '', '', '', 0.0)||('the', '', '', '', 0.0)||('second', 'adj', 'C0205436', ['qnco'], 0.0)||('half', '', '', '', 0.0)||('of', '', '', '', 0.0)||('the', '', '', '', 0.0)||('menstrual cycle', 'noun', 'C0025329', ['orgf'], 0.0)||('in', '', '', '', 0.0)||('order', 'noun', 'C1705175', ['inpr'], 0.0)||('to', '', '', '', 0.0)||('provoke', '', '', '', 0.0)||('a', '', '', '', 0.0)||('regular', 'adj', 'C0205272', ['qlco'], 0.0)||('withdrawal', 'noun', 'C0237955', ['menp'], 0.0)||('bleed', '', '', '', 0.0)||('.', '', '', '', 0.0)||
('continuous', 'adj', 'C0549178', ['idcn'], 0.0)||('progestogen', '', '', '', 0.0)||('is', '', '', '', 0.0)||('intended', 'verb', 'C1283828', ['qlco'], 0.0)||('to', '', '', '', 0.0)||('induce', 'verb', 'C0205263', ['ftcn'], 0.0)||('endometrial atrophy', 'noun', 'C0334192', ['dsyn'], 0.0)||('and', '', '', '', 0.0)||('hence', '', '', '', 0.0)||('to', '', '', '', 0.0)||('prevent', 'verb', 'C0309872', ['phsu'], 0.0)||('oestrogen', '', '', '', 0.0)||('-', '', '', '', 0.0)||('stimulated', 'adj', 'C1948023', ['npop'], 0.0)||('endometrial', 'adj', 'C0227843', ['spco'], 0.0)||('proliferation', 'noun', 'C0334094', ['ftcn'], 0.0)||('.', '', '', '', 0.0)||
('progestogens', '', '', '', 0.0)||(',', '', '', '', 0.0)||('and', '', '', '', 0.0)||('oestrogens', '', '', '', 0.0)||('and', '', '', '', 0.0)||('progestogens', '', '', '', 0.0)||('in', '', '', '', 0.0)||('combination', 'noun', 'C0205195', ['qlco'], 0.0)||('are', '', '', '', 0.0)||('already', '', '', '', 0.0)||('widely', '', '', '', 0.0)||('used', '', '', '', 0.0)||('in', '', '', '', 0.0)||('the', '', '', '', 0.0)||('management', 'noun', 'C0001554', ['ocac'], 0.0)||('of', '', '', '', 0.0)||('irregular', 'adj', 'C0205271', ['qlco'], 0.0)||('or', '', '', '', 0.0)||('excessive', 'adj', 'C0442802', ['qlco'], 0.0)||('bleeding', 'noun', 'C0019080', ['fndg'], 0.0)||('due to', '', '', '', 0.0)||('dysfunctional uterine bleeding', 'noun', 'C0025874', ['patf'], 0.0)||(',', '', '', '', 0.0)||('but', '', '', '', 0.0)||('the', '', '', '', 0.0)||('regime', 'noun', 'C1998810', ['inpr'], 0.0)||(',', '', '', '', 0.0)||('dose', 'noun', 'C0178602', ['qnco'], 0.0)||('and', '', '', '', 0.0)||('type', 'noun', 'C0332307', ['qlco'], 0.0)||('of', '', '', '', 0.0)||('progestogen', '', '', '', 0.0)||('used', '', '', '', 0.0)||('varies', 'verb', 'C1548673', ['inpr'], 0.0)||('widely', '', '', '', 0.0)||('with', '', '', '', 0.0)||('little', '', '', '', 0.0)||('consensus', 'noun', 'C0376298', ['socb'], 0.0)||('about', '', '', '', 0.0)||('the', '', '', '', 0.0)||('optimum', 'noun', 'C2698651', ['qlco'], 0.0)||('treatment', 'noun', 'C0039798', ['ftcn'], 0.0)||('approach', 'noun', 'C0449445', ['spco'], 0.0)||('.', '', '', '', 0.0)||
('to', '', '', '', 0.0)||('determine', '', '', '', 0.0)||('the', '', '', '', 0.0)||('effectiveness', 'noun', 'C1280519', ['qlco'], 0.0)||('and', '', '', '', 0.0)||('acceptability', 'noun', 'C0814633', ['qlco'], 0.0)||('of', '', '', '', 0.0)||('progestogens', '', '', '', 0.0)||('alone', 'adj', 'C0439044', ['fndg'], 0.0)||(',', '', '', '', 0.0)||('and', '', '', '', 0.0)||('oestrogens', '', '', '', 0.0)||('and', '', '', '', 0.0)||('progestogens', '', '', '', 0.0)||('in', '', '', '', 0.0)||('combination', 'noun', 'C0205195', ['qlco'], 0.0)||('in', '', '', '', 0.0)||('the', '', '', '', 0.0)||('management', 'noun', 'C0001554', ['ocac'], 0.0)||('of', '', '', '', 0.0)||('irregular', 'adj', 'C0205271', ['qlco'], 0.0)||('bleeding', 'noun', 'C0019080', ['fndg'], 0.0)||('associated', 'verb', 'C0332281', ['qlco'], 0.0)||('with', '', '', '', 0.0)||('anovulation', 'noun', 'C0003128', ['dsyn'], 0.0)||('.', '', '', '', 0.0)||
('the', '', '', '', 0.0)||('search', 'noun', 'C1552603', ['idcn'], 0.0)||('strategy', 'noun', 'C0679199', ['menp'], 0.0)||('of', '', '', '', 0.0)||('the', '', '', '', 0.0)||('menstrual', 'adj', 'C0025344', ['orgf'], 0.0)||('disorders', 'noun', 'C0012634', ['dsyn'], 0.0)||('group', 'noun', 'C0441833', ['idcn'], 0.0)||('was', '', '', '', 0.0)||('used', '', '', '', 0.0)||('to', '', '', '', 0.0)||('identify', '', '', '', 0.0)||('all', '', '', '', 0.0)||('randomised', '', '', '', 0.0)||('trials', '', '', '', 0.0)||('of', '', '', '', 0.0)||('progestogens', '', '', '', 0.0)||('alone', 'adj', 'C0439044', ['fndg'], 0.0)||('or', '', '', '', 0.0)||('in', '', '', '', 0.0)||('combination', 'noun', 'C0205195', ['qlco'], 0.0)||('with', '', '', '', 0.0)||('oestrogens', '', '', '', 0.0)||('in', '', '', '', 0.0)||('the', '', '', '', 0.0)||('management', 'noun', 'C0001554', ['ocac'], 0.0)||('of', '', '', '', 0.0)||('irregular', 'adj', 'C0205271', ['qlco'], 0.0)||('menstrual', 'adj', 'C0025344', ['orgf'], 0.0)||('bleeding', 'noun', 'C0019080', ['fndg'], 0.0)||('associated', 'verb', 'C0332281', ['qlco'], 0.0)||('with', '', '', '', 0.0)||('anovulation', 'noun', 'C0003128', ['dsyn'], 0.0)||('.', '', '', '', 0.0)||
('in', '', '', '', 0.0)||('addition', 'noun', 'C1883712', ['ftcn'], 0.0)||('a', '', '', '', 0.0)||('search', 'noun', 'C1552603', ['idcn'], 0.0)||('of', '', '', '', 0.0)||('the', '', '', '', 0.0)||('cochrane', '', '', '', 0.0)||('controlled', 'adj', 'C2587213', ['ftcn'], 0.0)||('trials', '', '', '', 0.0)||('register', '', '', '', 0.0)||('was', '', '', '', 0.0)||('undertaken', '', '', '', 0.0)||('.', '', '', '', 0.0)||
('all', '', '', '', 0.0)||('randomised controlled trials', '', '', '', 0.0)||('of', '', '', '', 0.0)||('progestogens', '', '', '', 0.0)||('(', '', '', '', 0.0)||('via', '', '', '', 0.0)||('any', '', '', '', 0.0)||('route', 'noun', 'C0013153', ['ftcn'], 0.0)||(')', '', '', '', 0.0)||('alone', 'adj', 'C0439044', ['fndg'], 0.0)||('or', '', '', '', 0.0)||('in', '', '', '', 0.0)||('combination', 'noun', 'C0205195', ['qlco'], 0.0)||('with', '', '', '', 0.0)||('oestrogens', '', '', '', 0.0)||('in', '', '', '', 0.0)||('the', '', '', '', 0.0)||('treatment', 'noun', 'C0039798', ['ftcn'], 0.0)||('of', '', '', '', 0.0)||('irregular', 'adj', 'C0205271', ['qlco'], 0.0)||('bleeding', 'noun', 'C0019080', ['fndg'], 0.0)||('associated', 'verb', 'C0332281', ['qlco'], 0.0)||('with', '', '', '', 0.0)||('anovulation', 'noun', 'C0003128', ['dsyn'], 0.0)||('.', '', '', '', 0.0)||
('study', 'noun', 'C0008976', ['resa'], 0.0)||('quality', 'noun', 'C0332306', ['qlco'], 0.0)||('assessment', 'noun', 'C1261322', ['hlca'], 0.0)||('and', '', '', '', 0.0)||('data', 'noun', 'C1511726', ['idcn'], 0.0)||('extraction', 'noun', 'C0185115', ['topp'], 0.0)||('were', '', '', '', 0.0)||('carried', '', '', '', 0.0)||('out', '', '', '', 0.0)||('independently', '', '', '', 0.0)||('by', '', '', '', 0.0)||('two', 'adj', 'C0205448', ['qnco'], 0.0)||('reviewers', '', '', '', 0.0)||('.', '', '', '', 0.0)||
('both', '', '', '', 0.0)||('reviewers', '', '', '', 0.0)||('were', '', '', '', 0.0)||('experts', '', '', '', 0.0)||('in', '', '', '', 0.0)||('the', '', '', '', 0.0)||('content', 'adj', 'C0423896', ['menp'], 0.0)||('matter', '', '', '', 0.0)||('.', '', '', '', 0.0)||
('no', '', '', '', 0.0)||('randomised', '', '', '', 0.0)||('trials', '', '', '', 0.0)||('were', '', '', '', 0.0)||('identified', 'verb', 'C0205396', ['qlco'], 0.0)||('which', '', '', '', 0.0)||('compared', 'verb', 'C1707455', ['acty'], 0.0)||('progestogens', '', '', '', 0.0)||('with', '', '', '', 0.0)||('oestrogens', '', '', '', 0.0)||('and', '', '', '', 0.0)||('progestogens', '', '', '', 0.0)||('in', '', '', '', 0.0)||('the', '', '', '', 0.0)||('management', 'noun', 'C0001554', ['ocac'], 0.0)||('of', '', '', '', 0.0)||('irregular', 'adj', 'C0205271', ['qlco'], 0.0)||('bleeding', 'noun', 'C0019080', ['fndg'], 0.0)||('associated', 'verb', 'C0332281', ['qlco'], 0.0)||('with', '', '', '', 0.0)||('anovulation', 'noun', 'C0003128', ['dsyn'], 0.0)||('.', '', '', '', 0.0)||
('only', '', '', '', 0.0)||('one', 'adv', 'C0205447', ['qnco'], 0.0)||('small', 'adj', 'C0700321', ['qnco'], 0.0)||(',', '', '', '', 0.0)||('non - randomised study', '', '', '', 0.0)||('compared', 'verb', 'C1707455', ['acty'], 0.0)||('two', 'adj', 'C0205448', ['qnco'], 0.0)||('progestogen', '', '', '', 0.0)||('regimes', '', '', '', 0.0)||('in', '', '', '', 0.0)||('the', '', '', '', 0.0)||('management', 'noun', 'C0001554', ['ocac'], 0.0)||('of', '', '', '', 0.0)||('heavy', 'adj', 'C0439539', ['qlco'], 0.0)||('and', '', '', '', 0.0)||('irregular', 'adj', 'C0205271', ['qlco'], 0.0)||('bleeding', 'noun', 'C0019080', ['fndg'], 0.0)||('in', '', '', '', 0.0)||('subjects', '', '', '', 0.0)||('with', '', '', '', 0.0)||('confirmed', 'adj', 'C0750484', ['idcn'], 0.0)||('anovulation', 'noun', 'C0003128', ['dsyn'], 0.0)||('.', '', '', '', 0.0)||
('one', 'noun', 'C0205447', ['qnco'], 0.0)||('randomised', '', '', '', 0.0)||('study', 'noun', 'C0008976', ['resa'], 0.0)||('compared', 'verb', 'C1707455', ['acty'], 0.0)||('the', '', '', '', 0.0)||('effects', '', '', '', 0.0)||('of', '', '', '', 0.0)||('two', 'adj', 'C0205448', ['qnco'], 0.0)||('progestogens', '', '', '', 0.0)||('on', '', '', '', 0.0)||('endometrial', 'adj', 'C0227843', ['spco'], 0.0)||('histology', 'noun', 'C0019638', ['bmod'], 0.0)||('in', '', '', '', 0.0)||('subjects', '', '', '', 0.0)||('with', '', '', '', 0.0)||('a', '', '', '', 0.0)||('variety', 'noun', 'C1883525', ['cnce'], 0.0)||('of', '', '', '', 0.0)||('menstrual', 'adj', 'C0025344', ['orgf'], 0.0)||('symptoms', 'noun', 'C0683368', ['ftcn'], 0.0)||(',', '', '', '', 0.0)||('half', '', '', '', 0.0)||('of', '', '', '', 0.0)||('whom', '', '', '', 0.0)||('had', '', '', '', 0.0)||('cystic', 'adj', 'C0010709', ['anab'], 0.0)||('glandular', 'adj', 'C0225353', ['qlco'], 0.0)||('hyperplasia', 'noun', 'C0020507', ['patf'], 0.0)||('.', '', '', '', 0.0)||
('no', '', '', '', 0.0)||('studies', '', '', '', 0.0)||('were', '', '', '', 0.0)||('found', '', '', '', 0.0)||('which', '', '', '', 0.0)||('compared', 'verb', 'C1707455', ['acty'], 0.0)||('progestogens', '', '', '', 0.0)||('with', '', '', '', 0.0)||('oestrogens', '', '', '', 0.0)||('and', '', '', '', 0.0)||('progestogens', '', '', '', 0.0)||('in', '', '', '', 0.0)||('combination', 'noun', 'C0205195', ['qlco'], 0.0)||('or', '', '', '', 0.0)||('with', '', '', '', 0.0)||('placebo', 'noun', 'C0032042', ['topp'], 0.0)||('in', '', '', '', 0.0)||('the', '', '', '', 0.0)||('management', 'noun', 'C0001554', ['ocac'], 0.0)||('of', '', '', '', 0.0)||('irregular', 'adj', 'C0205271', ['qlco'], 0.0)||('bleeding', 'noun', 'C0019080', ['fndg'], 0.0)||('associated', 'verb', 'C0332281', ['qlco'], 0.0)||('with', '', '', '', 0.0)||('anovulation', 'noun', 'C0003128', ['dsyn'], 0.0)||('.', '', '', '', 0.0)||
('there', '', '', '', 0.0)||('is', '', '', '', 0.0)||('a', '', '', '', 0.0)||('paucity', '', '', '', 0.0)||('of', '', '', '', 0.0)||('randomised', '', '', '', 0.0)||('studies', '', '', '', 0.0)||('relating', 'verb', 'C2003855', ['ftcn'], 0.0)||('to', '', '', '', 0.0)||('the', '', '', '', 0.0)||('use', 'noun', 'C0042153', ['ftcn'], 0.0)||('of', '', '', '', 0.0)||('progestogens', '', '', '', 0.0)||('and', '', '', '', 0.0)||('of', '', '', '', 0.0)||('oestrogens', '', '', '', 0.0)||('and', '', '', '', 0.0)||('progestogens', '', '', '', 0.0)||('in', '', '', '', 0.0)||('combination', 'noun', 'C0205195', ['qlco'], 0.0)||('in', '', '', '', 0.0)||('the', '', '', '', 0.0)||('treatment', 'noun', 'C0039798', ['ftcn'], 0.0)||('of', '', '', '', 0.0)||('irregular', 'adj', 'C0205271', ['qlco'], 0.0)||('bleeding', 'noun', 'C0019080', ['fndg'], 0.0)||('associated', 'verb', 'C0332281', ['qlco'], 0.0)||('with', '', '', '', 0.0)||('anovulation', 'noun', 'C0003128', ['dsyn'], 0.0)||('.', '', '', '', 0.0)||
('further', 'adj', 'C1517331', ['spco'], 0.0)||('research', 'noun', 'C0035168', ['resa'], 0.0)||('is', '', '', '', 0.0)||('needed', 'verb', 'C0027552', ['qlco'], 0.0)||('to', '', '', '', 0.0)||('establish', '', '', '', 0.0)||('the', '', '', '', 0.0)||('role', 'noun', 'C0035820', ['socb'], 0.0)||('of', '', '', '', 0.0)||('these', '', '', '', 0.0)||('treatments', 'noun', 'C0087111', ['topp'], 0.0)||('in', '', '', '', 0.0)||('the', '', '', '', 0.0)||('management', 'noun', 'C0001554', ['ocac'], 0.0)||('of', '', '', '', 0.0)||('this', '', '', '', 0.0)||('common', 'adj', 'C0205214', ['qnco'], 0.0)||('gynaecological', '', '', '', 0.0)||('problem', 'noun', 'C0033213', ['fndg'], 0.0)||('.', '', '', '', 0.0)||
