('patients', 'noun', 'C0030705', ['podg'], 0.0)||("'", '', '', '', 0.0)||('thoughts', 'noun', 'C0039869', ['menp'], 0.0)||(',', '', '', '', 0.0)||('feelings', 'noun', 'C1527305', ['menp'], 0.0)||('and', '', '', '', 0.0)||('desires', 'noun', 'C0871633', ['menp'], 0.0)||('are', '', '', '', 0.0)||('communicated', '', '', '', 0.0)||('in', '', '', '', 0.0)||('a', '', '', '', 0.0)||('variety', 'noun', 'C1883525', ['cnce'], 0.0)||('of', '', '', '', 0.0)||('ways', '', '', '', 0.0)||(',', '', '', '', 0.0)||('and', '', '', '', 0.0)||('require', '', '', '', 0.0)||('sympathetic', '', '', '', 0.0)||(',', '', '', '', 0.0)||('critical', 'adj', 'C1511545', ['qlco'], 0.0)||('interpretation', 'noun', 'C0459471', ['inpr'], 0.0)||('.', '', '', '', 0.0)||
('patients', 'noun', 'C0030705', ['podg'], 0.0)||('need', 'verb', 'C0027552', ['qlco'], 0.0)||('clear', 'adj', 'C0522503', ['qlco'], 0.0)||(',', '', '', '', 0.0)||('evidence', 'noun', 'C0332120', ['ftcn'], 0.0)||('-', '', '', '', 0.0)||('based', 'adj', 'C1527178', ['ftcn'], 0.0)||('medical', 'adj', 'C0205476', ['ftcn'], 0.0)||('information', 'noun', 'C1533716', ['idcn'], 0.0)||('so', '', '', '', 0.0)||('that', '', '', '', 0.0)||('they', '', '', '', 0.0)||('can', '', '', '', 0.0)||('make', 'verb', 'C1881534', ['ftcn'], 0.0)||('their', '', '', '', 0.0)||('own', '', '', '', 0.0)||('decisions', '', '', '', 0.0)||('about', '', '', '', 0.0)||('whether', '', '', '', 0.0)||('to', '', '', '', 0.0)||('consent', 'verb', 'C1511481', ['ftcn'], 0.0)||('to', '', '', '', 0.0)||('or', '', '', '', 0.0)||('refuse', 'verb', 'C0017095', ['eehu'], 0.0)||('medical', 'adj', 'C0205476', ['ftcn'], 0.0)||('treatment', 'noun', 'C0039798', ['ftcn'], 0.0)||('.', '', '', '', 0.0)||
('treatment', 'noun', 'C0039798', ['ftcn'], 0.0)||('refusal', 'noun', 'C1569452', ['orch', 'phsu'], 0.0)||('may', '', '', '', 0.0)||('provide', 'verb', 'C0359589', ['food'], 0.0)||('an', '', '', '', 0.0)||('opportunity', '', '', '', 0.0)||('to', '', '', '', 0.0)||('introduce', '', '', '', 0.0)||('patients', 'noun', 'C0030705', ['podg'], 0.0)||('to', '', '', '', 0.0)||('advance', 'verb', 'C0725066', ['medd'], 0.0)||('care', 'noun', 'C0580931', ['fndg'], 0.0)||('planning', 'noun', 'C0032074', ['menp'], 0.0)||('.', '', '', '', 0.0)||
('unconscious', 'adj', 'C0041657', ['fndg'], 0.0)||('motivations', '', '', '', 0.0)||('in', '', '', '', 0.0)||('doctors', 'noun', 'C0031831', ['prog'], 0.0)||('may', '', '', '', 0.0)||('obstruct', '', '', '', 0.0)||('good', 'adj', 'C0205170', ['qlco'], 0.0)||('clinical', 'adj', 'C0205210', ['qlco'], 0.0)||('decision - making', '', '', '', 0.0)||('.', '', '', '', 0.0)||
('although', '', '', '', 0.0)||('respect', 'noun', 'C0679133', ['socb'], 0.0)||('for', '', '', '', 0.0)||('the', '', '', '', 0.0)||('patient', '', '', '', 0.0)||("' s", '', '', '', 0.0)||('responsibility', 'noun', 'C0678341', ['inbe'], 0.0)||('to', '', '', '', 0.0)||('make', 'verb', 'C1881534', ['ftcn'], 0.0)||('healthcare', 'noun', 'C0086388', ['hlca'], 0.0)||('decisions', '', '', '', 0.0)||('should', '', '', '', 0.0)||('be', '', '', '', 0.0)||('a', '', '', '', 0.0)||('condition', 'noun', 'C0348080', ['qlco'], 0.0)||('of', '', '', '', 0.0)||('the', '', '', '', 0.0)||('clinical', 'adj', 'C0205210', ['qlco'], 0.0)||('relationship', 'noun', 'C0439849', ['qlco'], 0.0)||(',', '', '', '', 0.0)||('healthcare', 'noun', 'C0086388', ['hlca'], 0.0)||('decision - making', '', '', '', 0.0)||('is', '', '', '', 0.0)||('a', '', '', '', 0.0)||('collaborative', 'adj', 'C0282116', ['acty'], 0.0)||('process', 'noun', 'C1184743', ['bpoc'], 0.0)||('.', '', '', '', 0.0)||
