('we', '', '', '', 0.0)||('sought', '', '', '', 0.0)||('to', '', '', '', 0.0)||('evaluate', 'verb', 'C0220825', ['ftcn'], 0.0)||('the', '', '', '', 0.0)||('cytologic diagnosis', '', '', '', 0.0)||('and', '', '', '', 0.0)||('sample', 'noun', 'C0370003', ['sbst'], 0.0)||('adequacy', '', '', '', 0.0)||('of', '', '', '', 0.0)||('the', '', '', '', 0.0)||('liquid', 'noun', 'C0302908', ['sbst'], 0.0)||('-', '', '', '', 0.0)||('based', 'adj', 'C1527178', ['ftcn'], 0.0)||('cervical', 'adj', 'C0205064', ['spco'], 0.0)||('cytologic', 'adj', 'C0205471', ['ftcn'], 0.0)||('smear', 'noun', 'C0444186', ['diap'], 0.0)||('(', '', '', '', 0.0)||('thinprep', '', '', '', 0.0)||(')', '', '', '', 0.0)||('compared', 'verb', 'C1707455', ['acty'], 0.0)||('with', '', '', '', 0.0)||('that', '', '', '', 0.0)||('of', '', '', '', 0.0)||('the', '', '', '', 0.0)||('conventional', 'adj', 'C0439858', ['qlco'], 0.0)||('papanicolaou smear', 'noun', 'C1744620', ['diap'], 0.0)||('.', '', '', '', 0.0)||
('prospective studies', 'noun', 'C0033522', ['resa'], 0.0)||('of', '', '', '', 0.0)||('thinprep', '', '', '', 0.0)||('and', '', '', '', 0.0)||('conventional', 'adj', 'C0439858', ['qlco'], 0.0)||('papanicolaou smears', '', '', '', 0.0)||('were', '', '', '', 0.0)||('analyzed', 'verb', 'C0936012', ['resa'], 0.0)||('for', '', '', '', 0.0)||('cytologic diagnosis', '', '', '', 0.0)||('and', '', '', '', 0.0)||('sample', 'noun', 'C0370003', ['sbst'], 0.0)||('adequacy', '', '', '', 0.0)||('.', '', '', '', 0.0)||
('computerized', '', '', '', 0.0)||('databases', 'noun', 'C0242356', ['inpr'], 0.0)||(',', '', '', '', 0.0)||('references', '', '', '', 0.0)||('in', '', '', '', 0.0)||('published', 'adj', 'C0034037', ['ocac'], 0.0)||('studies', '', '', '', 0.0)||(',', '', '', '', 0.0)||('and', '', '', '', 0.0)||('index', 'noun', 'C0918012', ['inpr'], 0.0)||('reviews', '', '', '', 0.0)||('published', 'verb', 'C0034037', ['ocac'], 0.0)||('in', '', '', '', 0.0)||('english', 'noun', 'C1556083', ['popg'], 0.0)||('were', '', '', '', 0.0)||('used', '', '', '', 0.0)||('to', '', '', '', 0.0)||('identify', '', '', '', 0.0)||('direct', 'adj', 'C0439851', ['qlco'], 0.0)||('-', '', '', '', 0.0)||('to', '', '', '', 0.0)||('-', '', '', '', 0.0)||('vial', 'adj', 'C1533199', ['qnco'], 0.0)||('and', '', '', '', 0.0)||('split', 'noun', 'C1534709', ['ftcn'], 0.0)||('-', '', '', '', 0.0)||('sample', 'verb', 'C0370003', ['sbst'], 0.0)||('clinical trials', 'noun', 'C0008976', ['resa'], 0.0)||('of', '', '', '', 0.0)||('cervical', 'adj', 'C0205064', ['spco'], 0.0)||('smears', '', '', '', 0.0)||('performed', 'verb', 'C0884358', ['ftcn'], 0.0)||('by', '', '', '', 0.0)||('conventional', 'adj', 'C0439858', ['qlco'], 0.0)||('and', '', '', '', 0.0)||('liquid', 'noun', 'C0302908', ['sbst'], 0.0)||('-', '', '', '', 0.0)||('based', 'adj', 'C1527178', ['ftcn'], 0.0)||('techniques', 'noun', 'C0025664', ['inpr'], 0.0)||('.', '', '', '', 0.0)||
('only', '', '', '', 0.0)||('published', 'verb', 'C0034037', ['ocac'], 0.0)||('studies', '', '', '', 0.0)||('that', '', '', '', 0.0)||('used', '', '', '', 0.0)||('the', '', '', '', 0.0)||('bethesda', '', '', '', 0.0)||('system', 'noun', 'C0449913', ['ftcn'], 0.0)||('nomenclature', 'noun', 'C0600281', ['inpr'], 0.0)||('with', '', '', '', 0.0)||('clearly', '', '', '', 0.0)||('documented', 'adj', 'C1301725', ['hlca'], 0.0)||('outcome', 'noun', 'C1274040', ['ftcn'], 0.0)||('data', 'noun', 'C1511726', ['idcn'], 0.0)||('were', '', '', '', 0.0)||('included', '', '', '', 0.0)||('.', '', '', '', 0.0)||
('each', '', '', '', 0.0)||('trial', 'noun', 'C0008976', ['resa'], 0.0)||('was', '', '', '', 0.0)||('assessed', 'verb', 'C1516048', ['acty'], 0.0)||('for', '', '', '', 0.0)||('the', '', '', '', 0.0)||('quality', 'noun', 'C0332306', ['qlco'], 0.0)||('of', '', '', '', 0.0)||('its', '', '', '', 0.0)||('method', 'noun', 'C0025663', ['inpr'], 0.0)||(',', '', '', '', 0.0)||('inclusion', 'noun', 'C1512693', ['qlco'], 0.0)||('and', '', '', '', 0.0)||('exclusion', 'noun', 'C0680251', ['ftcn'], 0.0)||('criteria', 'noun', 'C0243161', ['inpr'], 0.0)||(',', '', '', '', 0.0)||('adequacy', '', '', '', 0.0)||('of', '', '', '', 0.0)||('randomization', 'noun', 'C0034656', ['resa'], 0.0)||(',', '', '', '', 0.0)||('sampling', 'verb', 'C0441621', ['diap'], 0.0)||('protocols', 'noun', 'C0442711', ['inpr'], 0.0)||(',', '', '', '', 0.0)||('definition', 'noun', 'C1550452', ['idcn'], 0.0)||('of', '', '', '', 0.0)||('outcome', 'noun', 'C1274040', ['ftcn'], 0.0)||(',', '', '', '', 0.0)||('and', '', '', '', 0.0)||('statistical', 'adj', 'C0038215', ['ocdi'], 0.0)||('analyses', '', '', '', 0.0)||('.', '', '', '', 0.0)||
('twenty - five', '', '', '', 0.0)||('studies', '', '', '', 0.0)||('met', '', '', '', 0.0)||('inclusion', 'noun', 'C1512693', ['qlco'], 0.0)||('criteria', 'noun', 'C0243161', ['inpr'], 0.0)||('for', '', '', '', 0.0)||('this', '', '', '', 0.0)||('review', 'noun', 'C0282443', ['inpr'], 0.0)||('.', '', '', '', 0.0)||
('odds ratios', 'noun', 'C0028873', ['qnco'], 0.0)||('with', '', '', '', 0.0)||('95 %', '', '', '', 0.0)||('confidence intervals', 'noun', 'C0009667', ['qnco'], 0.0)||('were', '', '', '', 0.0)||('calculated', 'verb', 'C0444686', ['ftcn'], 0.0)||('for', '', '', '', 0.0)||('each', '', '', '', 0.0)||('outcome', 'noun', 'C1274040', ['ftcn'], 0.0)||('.', '', '', '', 0.0)||
('estimates', '', '', '', 0.0)||('of', '', '', '', 0.0)||('odds ratios', 'noun', 'C0028873', ['qnco'], 0.0)||('and', '', '', '', 0.0)||('risk', 'noun', 'C0035647', ['qlco'], 0.0)||('differences', '', '', '', 0.0)||('for', '', '', '', 0.0)||('dichotomous', '', '', '', 0.0)||('outcomes', 'noun', 'C0085415', ['qlco'], 0.0)||('were', '', '', '', 0.0)||('calculated', 'verb', 'C0444686', ['ftcn'], 0.0)||('by', '', '', '', 0.0)||('use', 'noun', 'C0042153', ['ftcn'], 0.0)||('of', '', '', '', 0.0)||('random', 'adj', 'C0034656', ['resa'], 0.0)||('and', '', '', '', 0.0)||('fixed - effects models', '', '', '', 0.0)||('.', '', '', '', 0.0)||
('homogeneity', 'noun', 'C1881065', ['qlco'], 0.0)||('was', '', '', '', 0.0)||('tested', '', '', '', 0.0)||('across', '', '', '', 0.0)||('the', '', '', '', 0.0)||('studies', '', '', '', 0.0)||('.', '', '', '', 0.0)||
('results', 'noun', 'C1274040', ['ftcn'], 0.0)||('indicate', '', '', '', 0.0)||('that', '', '', '', 0.0)||('the', '', '', '', 0.0)||('thinprep', '', '', '', 0.0)||('test', 'noun', 'C0022885', ['lbpr'], 0.0)||('is', '', '', '', 0.0)||('as', '', '', '', 0.0)||('good', 'adj', 'C0205170', ['qlco'], 0.0)||('as', '', '', '', 0.0)||('or', '', '', '', 0.0)||('superior', 'adj', 'C1282910', ['spco'], 0.0)||('to', '', '', '', 0.0)||('the', '', '', '', 0.0)||('conventional', 'adj', 'C0439858', ['qlco'], 0.0)||('papanicolaou smear', 'noun', 'C1744620', ['diap'], 0.0)||('in', '', '', '', 0.0)||('diagnosing', '', '', '', 0.0)||('uterine', 'adj', 'C0042149', ['bpoc'], 0.0)||('cervical', 'adj', 'C0205064', ['spco'], 0.0)||('premalignant', 'adj', 'C1514391', ['qlco'], 0.0)||('abnormalities', 'noun', 'C0000768', ['cgab'], 0.0)||('.', '', '', '', 0.0)||
('also', '', '', '', 0.0)||('the', '', '', '', 0.0)||('thinprep', '', '', '', 0.0)||('test', 'noun', 'C0022885', ['lbpr'], 0.0)||('provides', '', '', '', 0.0)||('improved', 'adj', 'C0184511', ['qlco'], 0.0)||('sample', 'noun', 'C0370003', ['sbst'], 0.0)||('adequacy', '', '', '', 0.0)||('when', '', '', '', 0.0)||('compared', 'verb', 'C1707455', ['acty'], 0.0)||('with', '', '', '', 0.0)||('the', '', '', '', 0.0)||('conventional', 'adj', 'C0439858', ['qlco'], 0.0)||('papanicolaou test', 'noun', 'C1744620', ['diap'], 0.0)||('.', '', '', '', 0.0)||
('the', '', '', '', 0.0)||('thinprep', '', '', '', 0.0)||('test', 'noun', 'C0022885', ['lbpr'], 0.0)||('improved', 'adj', 'C0184511', ['qlco'], 0.0)||('sample', 'noun', 'C0370003', ['sbst'], 0.0)||('adequacy', '', '', '', 0.0)||('and', '', '', '', 0.0)||('led', '', '', '', 0.0)||('to', '', '', '', 0.0)||('improved', 'adj', 'C0184511', ['qlco'], 0.0)||('diagnosis', 'noun', 'C0011900', ['fndg'], 0.0)||('of', '', '', '', 0.0)||('low - grade', '', '', '', 0.0)||('and', '', '', '', 0.0)||('high - grade squamous intraepithelial lesions', '', '', '', 0.0)||('.', '', '', '', 0.0)||
('however', '', '', '', 0.0)||(',', '', '', '', 0.0)||('there', '', '', '', 0.0)||('is', '', '', '', 0.0)||('no', '', '', '', 0.0)||('difference', 'noun', 'C1705242', ['qlco'], 0.0)||('in', '', '', '', 0.0)||('the', '', '', '', 0.0)||('rate', 'noun', 'C0871208', ['acty'], 0.0)||('of', '', '', '', 0.0)||('atypical', 'adj', 'C0205182', ['qlco'], 0.0)||('cells', 'noun', 'C0007634', ['cell'], 0.0)||('of', '', '', '', 0.0)||('undetermined', 'adj', 'C0205258', ['idcn'], 0.0)||('significance', 'noun', 'C0237881', ['qnco'], 0.0)||('diagnosis', 'noun', 'C0011900', ['fndg'], 0.0)||('between', '', '', '', 0.0)||('thinprep', '', '', '', 0.0)||('and', '', '', '', 0.0)||('conventional', 'adj', 'C0439858', ['qlco'], 0.0)||('smear', 'noun', 'C0444186', ['diap'], 0.0)||('groups', 'noun', 'C0441833', ['idcn'], 0.0)||('.', '', '', '', 0.0)||
('the', '', '', '', 0.0)||('added', 'adj', 'C1524062', ['ftcn'], 0.0)||('cost', 'noun', 'C0010186', ['qnco'], 0.0)||('of', '', '', '', 0.0)||('thinprep', '', '', '', 0.0)||('cytologic', 'adj', 'C0205471', ['ftcn'], 0.0)||('screening', 'noun', 'C0220908', ['hlca'], 0.0)||('and', '', '', '', 0.0)||(',', '', '', '', 0.0)||('hence', '', '', '', 0.0)||(',', '', '', '', 0.0)||('its', '', '', '', 0.0)||('cost - effectiveness', '', '', '', 0.0)||('are', '', '', '', 0.0)||('not', 'adv', 'C1518422', ['ftcn'], 0.0)||('evaluated', 'verb', 'C0220825', ['ftcn'], 0.0)||('in', '', '', '', 0.0)||('this', '', '', '', 0.0)||('study', 'noun', 'C0008976', ['resa'], 0.0)||('.', '', '', '', 0.0)||
