('to', '', '', '', 0.0)||('assess', 'verb', 'C1516048', ['acty'], 0.0)||('the', '', '', '', 0.0)||('use', 'noun', 'C0042153', ['ftcn'], 0.0)||('of', '', '', '', 0.0)||('low molecular weight heparin', 'noun', 'C2267024', ['phsu'], 0.0)||('for', '', '', '', 0.0)||('the', '', '', '', 0.0)||('treatment', 'noun', 'C0039798', ['ftcn'], 0.0)||('of', '', '', '', 0.0)||('venous thromboembolism', 'noun', 'C1861172', ['patf'], 0.0)||('in', '', '', '', 0.0)||('pregnancy', 'noun', 'C0032961', ['orgf'], 0.0)||('.', '', '', '', 0.0)||
('a', '', '', '', 0.0)||('prospective', 'adj', 'C0023981', ['resa'], 0.0)||('observational', 'adj', 'C1964257', ['diap'], 0.0)||('study', 'noun', 'C0008976', ['resa'], 0.0)||('.', '', '', '', 0.0)||
('the', '', '', '', 0.0)||('maternity', 'noun', 'C0681108', ['socb'], 0.0)||('units', 'noun', 'C0439148', ['qnco'], 0.0)||('in', '', '', '', 0.0)||('two', 'adj', 'C0205448', ['qnco'], 0.0)||('university', 'noun', 'C0041740', ['mnob', 'orgt'], 0.0)||('teaching hospitals', 'noun', 'C0020027', ['hcro', 'mnob'], 0.0)||('and', '', '', '', 0.0)||('one', 'noun', 'C0205447', ['qnco'], 0.0)||('district', '', '', '', 0.0)||('general', 'adj', 'C0205246', ['spco'], 0.0)||('teaching hospital', 'noun', 'C0000872', ['hcro', 'mnob'], 0.0)||('.', '', '', '', 0.0)||
('thirty - six', '', '', '', 0.0)||('consecutive', 'adj', 'C1707491', ['qlco'], 0.0)||('women', 'noun', 'C0043210', ['popg'], 0.0)||('presenting', 'verb', 'C0449450', ['idcn'], 0.0)||('with', '', '', '', 0.0)||('objectively', '', '', '', 0.0)||('diagnosed', 'verb', 'C0011900', ['fndg'], 0.0)||('venous thromboembolism', 'noun', 'C1861172', ['patf'], 0.0)||('during', '', '', '', 0.0)||('pregnancy', 'noun', 'C0032961', ['orgf'], 0.0)||('and', '', '', '', 0.0)||('the', '', '', '', 0.0)||('immediate', 'adj', 'C0205253', ['tmco'], 0.0)||('puerperium', 'noun', 'C0034042', ['tmco'], 0.0)||('.', '', '', '', 0.0)||
('treatment', 'noun', 'C0039798', ['ftcn'], 0.0)||('with', '', '', '', 0.0)||('the', '', '', '', 0.0)||('low molecular weight heparin', 'noun', 'C2267024', ['phsu'], 0.0)||('enoxaparin', 'noun', 'C0206460', ['carb', 'phsu'], 0.0)||(',', '', '', '', 0.0)||('approximately', 'adv', 'C0332232', ['qlco'], 0.0)||('1', '', '', '', 0.0)||('mg / kg', '', '', '', 0.0)||('s . c .', '', '', '', 0.0)||(',', '', '', '', 0.0)||('twice daily', 'adv', 'C0585361', ['tmco'], 0.0)||(',', '', '', '', 0.0)||('based', 'verb', 'C1527178', ['ftcn'], 0.0)||('on', '', '', '', 0.0)||('early', 'adj', 'C1279919', ['tmco'], 0.0)||('pregnancy', 'noun', 'C0032961', ['orgf'], 0.0)||('weight', 'noun', 'C0005910', ['orga'], 0.0)||('.', '', '', '', 0.0)||
('peak', 'adj', 'C0444505', ['qnco'], 0.0)||('anti - xa', '', '', '', 0.0)||('activity', 'noun', 'C0441655', ['acty'], 0.0)||('(', '', '', '', 0.0)||('three', '', 'C0205449', ['qnco'], 0.0)||('hours', 'noun', 'C0439227', ['tmco'], 0.0)||('post - injection', '', '', '', 0.0)||(')', '', '', '', 0.0)||(',', '', '', '', 0.0)||('alterations', '', '', '', 0.0)||('in treatment', '', '', '', 0.0)||(',', '', '', '', 0.0)||('side effects', 'noun', 'C0001688', ['ftcn'], 0.0)||('and', '', '', '', 0.0)||('the', '', '', '', 0.0)||('use', 'noun', 'C0042153', ['ftcn'], 0.0)||('of', '', '', '', 0.0)||('regional', 'adj', 'C0205147', ['spco'], 0.0)||('anaesthesia', 'noun', 'C0002903', ['topp'], 0.0)||('.', '', '', '', 0.0)||
('in', '', '', '', 0.0)||('33', '', '', '', 0.0)||('women', 'noun', 'C0043210', ['popg'], 0.0)||(',', '', '', '', 0.0)||('the', '', '', '', 0.0)||('initial dose', '', '', '', 0.0)||('of', '', '', '', 0.0)||('enoxaparin', 'noun', 'C0206460', ['carb', 'phsu'], 0.0)||('provided', '', '', '', 0.0)||('satisfactory', 'adj', 'C1547307', ['inpr'], 0.0)||('peak', 'adj', 'C0444505', ['qnco'], 0.0)||('anti - xa', '', '', '', 0.0)||('activity', 'noun', 'C0441655', ['acty'], 0.0)||('(', '', '', '', 0.0)||('median', 'noun', 'C0549183', ['spco'], 0.0)||('0 . 8', '', '', '', 0.0)||('u', '', '', '', 0.0)||('/', '', '', '', 0.0)||('ml', '', '', '', 0.0)||(',', '', '', '', 0.0)||('range', 'noun', 'C1514721', ['qnco'], 0.0)||('0 . 44', '', '', '', 0.0)||('-', '', '', '', 0.0)||('1 . 0', '', '', '', 0.0)||('u', '', '', '', 0.0)||('/', '', '', '', 0.0)||('ml', '', '', '', 0.0)||(')', '', '', '', 0.0)||('and', '', '', '', 0.0)||('was', '', '', '', 0.0)||('continued', 'verb', 'C0549178', ['idcn'], 0.0)||('.', '', '', '', 0.0)||
('three', '', 'C0205449', ['qnco'], 0.0)||('women', 'noun', 'C0043210', ['popg'], 0.0)||('required', 'verb', 'C1514873', ['ftcn'], 0.0)||('dose', 'noun', 'C0178602', ['qnco'], 0.0)||('reduction', 'noun', 'C0301630', ['npop'], 0.0)||('since', '', '', '', 0.0)||('peak', 'adj', 'C0444505', ['qnco'], 0.0)||('anti - xa', '', '', '', 0.0)||('activities', 'noun', 'C0441655', ['acty'], 0.0)||('were', '', '', '', 0.0)||('above', '', '', '', 0.0)||('the', '', '', '', 0.0)||('therapeutic range', '', '', '', 0.0)||('(', '', '', '', 0.0)||('1 . 2', '', '', '', 0.0)||(',', '', '', '', 0.0)||('1 . 2', '', '', '', 0.0)||('and', '', '', '', 0.0)||('1 . 1', '', '', '', 0.0)||('u', '', '', '', 0.0)||('/', '', '', '', 0.0)||('ml', '', '', '', 0.0)||(')', '', '', '', 0.0)||('.', '', '', '', 0.0)||
('no', '', '', '', 0.0)||('woman', 'noun', 'C0043210', ['popg'], 0.0)||('developed', '', '', '', 0.0)||('thrombocytopaenia', 'noun', 'C0040034', ['dsyn'], 0.0)||(',', '', '', '', 0.0)||('haemorrhagic', 'adj', 'C0333275', ['ftcn'], 0.0)||('complication', 'noun', 'C0009566', ['patf'], 0.0)||('or', '', '', '', 0.0)||('further', 'adv', 'C1517331', ['spco'], 0.0)||('thromboembolic', 'adj', 'C0333214', ['ftcn'], 0.0)||('episode', '', '', '', 0.0)||('.', '', '', '', 0.0)||
('two', 'adj', 'C0205448', ['qnco'], 0.0)||('women', 'noun', 'C0043210', ['popg'], 0.0)||('developed', '', '', '', 0.0)||('allergic', 'adj', 'C0700624', ['ftcn'], 0.0)||('skin reactions', '', '', '', 0.0)||('on', '', '', '', 0.0)||('enoxaparin', 'noun', 'C0206460', ['carb', 'phsu'], 0.0)||('and', '', '', '', 0.0)||('were', '', '', '', 0.0)||('changed', 'verb', 'C0392747', ['ftcn'], 0.0)||('to', '', '', '', 0.0)||('tinzaparin', 'noun', 'C0216278', ['carb', 'phsu'], 0.0)||('.', '', '', '', 0.0)||
('fifteen', '', '', '', 0.0)||('women', 'noun', 'C0043210', ['popg'], 0.0)||('had', '', '', '', 0.0)||('regional', 'adj', 'C0205147', ['spco'], 0.0)||('anaesthesia', 'noun', 'C0002903', ['topp'], 0.0)||('for', '', '', '', 0.0)||('delivery', 'noun', 'C0011209', ['topp'], 0.0)||(',', '', '', '', 0.0)||('with', '', '', '', 0.0)||('a', '', '', '', 0.0)||('reduced', 'adj', 'C0392756', ['qlco'], 0.0)||('dose', 'noun', 'C0178602', ['qnco'], 0.0)||('of', '', '', '', 0.0)||('enoxaparin', 'noun', 'C0206460', ['carb', 'phsu'], 0.0)||('(', '', '', '', 0.0)||('40', '', '', '', 0.0)||('mg', '', '', '', 0.0)||('once', '', '', '', 0.0)||('daily', 'adv', 'C0332173', ['tmco'], 0.0)||(')', '', '', '', 0.0)||(',', '', '', '', 0.0)||('all', '', '', '', 0.0)||('without', '', '', '', 0.0)||('complication', 'noun', 'C0009566', ['patf'], 0.0)||('.', '', '', '', 0.0)||
('enoxaparin', 'noun', 'C0206460', ['carb', 'phsu'], 0.0)||('is', '', '', '', 0.0)||('a', '', '', '', 0.0)||('safe', '', '', '', 0.0)||('and', '', '', '', 0.0)||('effective', 'adj', 'C1704419', ['qlco'], 0.0)||('treatment', 'noun', 'C0039798', ['ftcn'], 0.0)||('for', '', '', '', 0.0)||('venous thromboembolism', 'noun', 'C1861172', ['patf'], 0.0)||('during', '', '', '', 0.0)||('pregnancy', 'noun', 'C0032961', ['orgf'], 0.0)||('and', '', '', '', 0.0)||('confers', '', '', '', 0.0)||('a', '', '', '', 0.0)||('major', 'adj', 'C0205164', ['qlco'], 0.0)||('advantage', '', '', '', 0.0)||('over', '', '', '', 0.0)||('unfractionated', '', '', '', 0.0)||('heparin', 'noun', 'C0019134', ['bacs', 'carb', 'phsu'], 0.0)||('through', '', '', '', 0.0)||('its', '', '', '', 0.0)||('simplified', '', '', '', 0.0)||('regimen', 'noun', 'C0040808', ['topp'], 0.0)||('of', '', '', '', 0.0)||('administration', 'noun', 'C0001554', ['ocac'], 0.0)||('.', '', '', '', 0.0)||
