('nonrheumatic', '', '', '', 0.0)||('atrial fibrillation', 'noun', 'C0004238', ['patf'], 0.0)||('is', '', '', '', 0.0)||('common', 'adj', 'C0205214', ['qnco'], 0.0)||('among', '', '', '', 0.0)||('the', '', '', '', 0.0)||('elderly', 'noun', 'C0001792', ['popg'], 0.0)||('and', '', '', '', 0.0)||('is', '', '', '', 0.0)||('associated', 'verb', 'C0332281', ['qlco'], 0.0)||('with', '', '', '', 0.0)||('an', '', '', '', 0.0)||('increased risk', '', '', '', 0.0)||('of', '', '', '', 0.0)||('stroke', 'noun', 'C0038454', ['dsyn'], 0.0)||('.', '', '', '', 0.0)||
('we', '', '', '', 0.0)||('investigated', '', '', '', 0.0)||('whether', '', '', '', 0.0)||('anticoagulation', 'noun', 'C0003281', ['topp'], 0.0)||('with', '', '', '', 0.0)||('warfarin', 'noun', 'C0043031', ['hops', 'orch', 'phsu'], 0.0)||('would', '', '', '', 0.0)||('reduce', '', '', '', 0.0)||('this', '', '', '', 0.0)||('risk', 'noun', 'C0035647', ['qlco'], 0.0)||('.', '', '', '', 0.0)||
('we', '', '', '', 0.0)||('conducted', '', '', '', 0.0)||('a', '', '', '', 0.0)||('randomized', 'adj', 'C0034656', ['resa'], 0.0)||(',', '', '', '', 0.0)||('double - blind', '', '', '', 0.0)||(',', '', '', '', 0.0)||('placebo - controlled study', '', '', '', 0.0)||('to', '', '', '', 0.0)||('evaluate', 'verb', 'C0220825', ['ftcn'], 0.0)||('low - intensity', '', '', '', 0.0)||('anticoagulation', 'noun', 'C0003281', ['topp'], 0.0)||('with', '', '', '', 0.0)||('warfarin', 'noun', 'C0043031', ['hops', 'orch', 'phsu'], 0.0)||('(', '', '', '', 0.0)||('prothrombin - time', '', '', '', 0.0)||('ratio', 'noun', 'C0456603', ['qnco'], 0.0)||(',', '', '', '', 0.0)||('1 . 2', '', '', '', 0.0)||('to', '', '', '', 0.0)||('1 . 5', '', '', '', 0.0)||(')', '', '', '', 0.0)||('in', '', '', '', 0.0)||('571', '', '', '', 0.0)||('men', 'noun', 'C0025266', ['popg'], 0.0)||('with', '', '', '', 0.0)||('chronic', 'adj', 'C0205191', ['tmco'], 0.0)||('nonrheumatic', '', '', '', 0.0)||('atrial fibrillation', 'noun', 'C0004238', ['patf'], 0.0)||(';', '', '', '', 0.0)||
('525', '', '', '', 0.0)||('patients', 'noun', 'C0030705', ['podg'], 0.0)||('had', '', '', '', 0.0)||('not', 'adv', 'C1518422', ['ftcn'], 0.0)||('previously', '', '', '', 0.0)||('had', '', '', '', 0.0)||('a', '', '', '', 0.0)||('cerebral infarction', 'noun', 'C0007785', ['dsyn'], 0.0)||(',', '', '', '', 0.0)||('whereas', '', '', '', 0.0)||('46', '', '', '', 0.0)||('patients', 'noun', 'C0030705', ['podg'], 0.0)||('had', '', '', '', 0.0)||('previously', '', '', '', 0.0)||('had', '', '', '', 0.0)||('such', '', '', '', 0.0)||('an', '', '', '', 0.0)||('event', 'noun', 'C0441471', ['evnt'], 0.0)||('.', '', '', '', 0.0)||
('the', '', '', '', 0.0)||('primary', 'adj', 'C0205225', ['qlco'], 0.0)||('end point', 'noun', 'C2349179', ['qlco'], 0.0)||('was', '', '', '', 0.0)||('cerebral infarction', 'noun', 'C0007785', ['dsyn'], 0.0)||(';', '', '', '', 0.0)||
('secondary', 'adj', 'C0175668', ['tmco'], 0.0)||('end points', '', '', '', 0.0)||('were', '', '', '', 0.0)||('cerebral hemorrhage', '', '', '', 0.0)||('and', '', '', '', 0.0)||('death', 'noun', 'C0011065', ['orgf'], 0.0)||('.', '', '', '', 0.0)||
('among', '', '', '', 0.0)||('the', '', '', '', 0.0)||('patients', 'noun', 'C0030705', ['podg'], 0.0)||('with', '', '', '', 0.0)||('no', '', '', '', 0.0)||('history', 'noun', 'C0019664', ['ocdi'], 0.0)||('of', '', '', '', 0.0)||('stroke', 'noun', 'C0038454', ['dsyn'], 0.0)||(',', '', '', '', 0.0)||('cerebral infarction', 'noun', 'C0007785', ['dsyn'], 0.0)||('occurred', 'verb', 'C1709305', ['cnce'], 0.0)||('in', '', '', '', 0.0)||('19', '', '', '', 0.0)||('of', '', '', '', 0.0)||('the', '', '', '', 0.0)||('265', '', '', '', 0.0)||('patients', 'noun', 'C0030705', ['podg'], 0.0)||('in', '', '', '', 0.0)||('the', '', '', '', 0.0)||('placebo', 'noun', 'C0032042', ['topp'], 0.0)||('group', 'noun', 'C0441833', ['idcn'], 0.0)||('during', '', '', '', 0.0)||('an', '', '', '', 0.0)||('average', 'noun', 'C1510992', ['qnco'], 0.0)||('follow - up', '', '', '', 0.0)||('of', '', '', '', 0.0)||('1 . 7', '', '', '', 0.0)||('years', 'noun', 'C0439234', ['tmco'], 0.0)||('(', '', '', '', 0.0)||('4 . 3', '', '', '', 0.0)||('percent', 'noun', 'C0439165', ['qnco'], 0.0)||('per', '', '', '', 0.0)||('year', 'noun', 'C0439234', ['tmco'], 0.0)||(')', '', '', '', 0.0)||('and', '', '', '', 0.0)||('in', '', '', '', 0.0)||('4', '', '', '', 0.0)||('of', '', '', '', 0.0)||('the', '', '', '', 0.0)||('260', '', '', '', 0.0)||('patients', 'noun', 'C0030705', ['podg'], 0.0)||('in', '', '', '', 0.0)||('the', '', '', '', 0.0)||('warfarin', 'noun', 'C0043031', ['hops', 'orch', 'phsu'], 0.0)||('group', 'noun', 'C0441833', ['idcn'], 0.0)||('during', '', '', '', 0.0)||('an', '', '', '', 0.0)||('average', 'noun', 'C1510992', ['qnco'], 0.0)||('follow - up', '', '', '', 0.0)||('of', '', '', '', 0.0)||('1 . 8', '', '', '', 0.0)||('years', 'noun', 'C0439234', ['tmco'], 0.0)||('(', '', '', '', 0.0)||('0 . 9', '', '', '', 0.0)||('percent', 'noun', 'C0439165', ['qnco'], 0.0)||('per', '', '', '', 0.0)||('year', 'noun', 'C0439234', ['tmco'], 0.0)||(')', '', '', '', 0.0)||('.', '', '', '', 0.0)||
('the', '', '', '', 0.0)||('reduction', 'noun', 'C0301630', ['npop'], 0.0)||('in', '', '', '', 0.0)||('risk', 'noun', 'C0035647', ['qlco'], 0.0)||('with', '', '', '', 0.0)||('warfarin', 'noun', 'C0043031', ['hops', 'orch', 'phsu'], 0.0)||('therapy', 'noun', 'C0039798', ['ftcn'], 0.0)||('was', '', '', '', 0.0)||('0 . 79', '', '', '', 0.0)||('(', '', '', '', 0.0)||('95', '', '', '', 0.0)||('percent', 'noun', 'C0439165', ['qnco'], 0.0)||('confidence interval', 'noun', 'C0009667', ['qnco'], 0.0)||(',', '', '', '', 0.0)||('0 . 52', '', '', '', 0.0)||('to', '', '', '', 0.0)||('0 . 90', '', '', '', 0.0)||(';', '', '', '', 0.0)||('p', '', '', '', 0.0)||('=', '', '', '', 0.0)||('0 . 001', '', '', '', 0.0)||(')', '', '', '', 0.0)||('.', '', '', '', 0.0)||
('the', '', '', '', 0.0)||('annual', 'adj', 'C0332181', ['tmco'], 0.0)||('event', 'noun', 'C0441471', ['evnt'], 0.0)||('rate', 'noun', 'C0871208', ['acty'], 0.0)||('among', '', '', '', 0.0)||('the', '', '', '', 0.0)||('228', '', '', '', 0.0)||('patients', 'noun', 'C0030705', ['podg'], 0.0)||('over', '', '', '', 0.0)||('70', '', '', '', 0.0)||('years', 'noun', 'C0439234', ['tmco'], 0.0)||('of', '', '', '', 0.0)||('age', 'noun', 'C0001779', ['orga'], 0.0)||('was', '', '', '', 0.0)||('4 . 8', '', '', '', 0.0)||('percent', 'noun', 'C0439165', ['qnco'], 0.0)||('in', '', '', '', 0.0)||('the', '', '', '', 0.0)||('placebo', 'noun', 'C0032042', ['topp'], 0.0)||('group', 'noun', 'C0441833', ['idcn'], 0.0)||('and', '', '', '', 0.0)||('0 . 9', '', '', '', 0.0)||('percent', 'noun', 'C0439165', ['qnco'], 0.0)||('in', '', '', '', 0.0)||('the', '', '', '', 0.0)||('warfarin', 'noun', 'C0043031', ['hops', 'orch', 'phsu'], 0.0)||('group', 'noun', 'C0441833', ['idcn'], 0.0)||('(', '', '', '', 0.0)||('risk', 'noun', 'C0035647', ['qlco'], 0.0)||('reduction', 'noun', 'C0301630', ['npop'], 0.0)||(',', '', '', '', 0.0)||('0 . 79', '', '', '', 0.0)||(';', '', '', '', 0.0)||('p', '', '', '', 0.0)||('=', '', '', '', 0.0)||('0 . 02', '', '', '', 0.0)||(')', '', '', '', 0.0)||('.', '', '', '', 0.0)||
('the', '', '', '', 0.0)||('only', '', '', '', 0.0)||('cerebral hemorrhage', '', '', '', 0.0)||('occurred', 'verb', 'C1709305', ['cnce'], 0.0)||('in', '', '', '', 0.0)||('a', '', '', '', 0.0)||('73', '', '', '', 0.0)||('-', '', '', '', 0.0)||('year', 'noun', 'C0439234', ['tmco'], 0.0)||('-', '', '', '', 0.0)||('old', 'noun', 'C0580836', ['tmco'], 0.0)||('patient', '', '', '', 0.0)||('in', '', '', '', 0.0)||('the', '', '', '', 0.0)||('warfarin', 'noun', 'C0043031', ['hops', 'orch', 'phsu'], 0.0)||('group', 'noun', 'C0441833', ['idcn'], 0.0)||('.', '', '', '', 0.0)||
('other', '', '', '', 0.0)||('major', 'adj', 'C0205164', ['qlco'], 0.0)||('hemorrhages', 'noun', 'C0019080', ['fndg'], 0.0)||(',', '', '', '', 0.0)||('all', '', '', '', 0.0)||('gastrointestinal', 'adj', 'C0521362', ['spco'], 0.0)||(',', '', '', '', 0.0)||('occurred', 'verb', 'C1709305', ['cnce'], 0.0)||('in', '', '', '', 0.0)||('10', '', '', '', 0.0)||('patients', 'noun', 'C0030705', ['podg'], 0.0)||(':', '', '', '', 0.0)||('4', '', '', '', 0.0)||('in', '', '', '', 0.0)||('the', '', '', '', 0.0)||('placebo', 'noun', 'C0032042', ['topp'], 0.0)||('group', 'noun', 'C0441833', ['idcn'], 0.0)||(',', '', '', '', 0.0)||('for', '', '', '', 0.0)||('a', '', '', '', 0.0)||('rate', 'noun', 'C0871208', ['acty'], 0.0)||('of', '', '', '', 0.0)||('0 . 9', '', '', '', 0.0)||('percent', 'noun', 'C0439165', ['qnco'], 0.0)||('per', '', '', '', 0.0)||('year', 'noun', 'C0439234', ['tmco'], 0.0)||(',', '', '', '', 0.0)||('and', '', '', '', 0.0)||('6', '', '', '', 0.0)||('in', '', '', '', 0.0)||('the', '', '', '', 0.0)||('warfarin', 'noun', 'C0043031', ['hops', 'orch', 'phsu'], 0.0)||('group', 'noun', 'C0441833', ['idcn'], 0.0)||(',', '', '', '', 0.0)||('for', '', '', '', 0.0)||('a', '', '', '', 0.0)||('rate', 'noun', 'C0871208', ['acty'], 0.0)||('of', '', '', '', 0.0)||('1 . 3', '', '', '', 0.0)||('percent', 'noun', 'C0439165', ['qnco'], 0.0)||('per', '', '', '', 0.0)||('year', 'noun', 'C0439234', ['tmco'], 0.0)||('.', '', '', '', 0.0)||
('there', '', '', '', 0.0)||('were', '', '', '', 0.0)||('37', '', '', '', 0.0)||('deaths', 'noun', 'C1306577', ['fndg'], 0.0)||('that', '', '', '', 0.0)||('were', '', '', '', 0.0)||('not', 'adv', 'C1518422', ['ftcn'], 0.0)||('preceded', '', '', '', 0.0)||('by', '', '', '', 0.0)||('a', '', '', '', 0.0)||('cerebral', '', '', '', 0.0)||('end point', 'noun', 'C2349179', ['qlco'], 0.0)||('-', '', '', '', 0.0)||('-', '', '', '', 0.0)||('22', '', '', '', 0.0)||('in', '', '', '', 0.0)||('the', '', '', '', 0.0)||('placebo', 'noun', 'C0032042', ['topp'], 0.0)||('group', 'noun', 'C0441833', ['idcn'], 0.0)||('and', '', '', '', 0.0)||('15', '', '', '', 0.0)||('in', '', '', '', 0.0)||('the', '', '', '', 0.0)||('warfarin', 'noun', 'C0043031', ['hops', 'orch', 'phsu'], 0.0)||('group', 'noun', 'C0441833', ['idcn'], 0.0)||('(', '', '', '', 0.0)||('risk', 'noun', 'C0035647', ['qlco'], 0.0)||('reduction', 'noun', 'C0301630', ['npop'], 0.0)||(',', '', '', '', 0.0)||('0 . 31', '', '', '', 0.0)||(';', '', '', '', 0.0)||('p', '', '', '', 0.0)||('=', '', '', '', 0.0)||('0 . 19', '', '', '', 0.0)||(')', '', '', '', 0.0)||('.', '', '', '', 0.0)||
('cerebral infarction', 'noun', 'C0007785', ['dsyn'], 0.0)||('was', '', '', '', 0.0)||('more', '', '', '', 0.0)||('common', 'adj', 'C0205214', ['qnco'], 0.0)||('among', '', '', '', 0.0)||('patients', 'noun', 'C0030705', ['podg'], 0.0)||('with', '', '', '', 0.0)||('a', '', '', '', 0.0)||('history', 'noun', 'C0019664', ['ocdi'], 0.0)||('of', '', '', '', 0.0)||('cerebral infarction', 'noun', 'C0007785', ['dsyn'], 0.0)||('(', '', '', '', 0.0)||('9 . 3', '', '', '', 0.0)||('percent', 'noun', 'C0439165', ['qnco'], 0.0)||('per', '', '', '', 0.0)||('year', 'noun', 'C0439234', ['tmco'], 0.0)||('in', '', '', '', 0.0)||('the', '', '', '', 0.0)||('placebo', 'noun', 'C0032042', ['topp'], 0.0)||('group', 'noun', 'C0441833', ['idcn'], 0.0)||('and', '', '', '', 0.0)||('6 . 1', '', '', '', 0.0)||('percent', 'noun', 'C0439165', ['qnco'], 0.0)||('per', '', '', '', 0.0)||('year', 'noun', 'C0439234', ['tmco'], 0.0)||('in', '', '', '', 0.0)||('the', '', '', '', 0.0)||('warfarin', 'noun', 'C0043031', ['hops', 'orch', 'phsu'], 0.0)||('group', 'noun', 'C0441833', ['idcn'], 0.0)||(')', '', '', '', 0.0)||('than', '', '', '', 0.0)||('among', '', '', '', 0.0)||('those', '', '', '', 0.0)||('without', '', '', '', 0.0)||('such', '', '', '', 0.0)||('a', '', '', '', 0.0)||('history', 'noun', 'C0019664', ['ocdi'], 0.0)||('.', '', '', '', 0.0)||
('low - intensity', '', '', '', 0.0)||('anticoagulation', 'noun', 'C0003281', ['topp'], 0.0)||('with', '', '', '', 0.0)||('warfarin', 'noun', 'C0043031', ['hops', 'orch', 'phsu'], 0.0)||('prevented', '', '', '', 0.0)||('cerebral infarction', 'noun', 'C0007785', ['dsyn'], 0.0)||('in', '', '', '', 0.0)||('patients', 'noun', 'C0030705', ['podg'], 0.0)||('with', '', '', '', 0.0)||('nonrheumatic', '', '', '', 0.0)||('atrial fibrillation', 'noun', 'C0004238', ['patf'], 0.0)||('without', '', '', '', 0.0)||('producing', '', '', '', 0.0)||('an', '', '', '', 0.0)||('excess', 'adj', 'C1979886', ['qlco'], 0.0)||('risk', 'noun', 'C0035647', ['qlco'], 0.0)||('of', '', '', '', 0.0)||('major', 'adj', 'C0205164', ['qlco'], 0.0)||('hemorrhage', '', '', '', 0.0)||('.', '', '', '', 0.0)||
('this', '', '', '', 0.0)||('benefit', 'noun', 'C0814225', ['qnco'], 0.0)||('extended', 'verb', 'C0231448', ['ftcn'], 0.0)||('to', '', '', '', 0.0)||('patients', 'noun', 'C0030705', ['podg'], 0.0)||('over', '', '', '', 0.0)||('70', '', '', '', 0.0)||('years', 'noun', 'C0439234', ['tmco'], 0.0)||('of', '', '', '', 0.0)||('age', 'noun', 'C0001779', ['orga'], 0.0)||('.', '', '', '', 0.0)||
