('the', '', '', '', 0.0)||('second', 'adj', 'C0205436', ['qnco'], 0.0)||('copenhagen', '', '', '', 0.0)||('atrial fibrillation', 'noun', 'C0004238', ['patf'], 0.0)||(',', '', '', '', 0.0)||('aspirin', 'noun', 'C0004057', ['orch', 'phsu'], 0.0)||(',', '', '', '', 0.0)||('and', '', '', '', 0.0)||('anticoagulation', 'noun', 'C0003281', ['topp'], 0.0)||('study', 'noun', 'C0008976', ['resa'], 0.0)||('(', '', '', '', 0.0)||('afasak', '', '', '', 0.0)||('-', '', '', '', 0.0)||('2', '', '', '', 0.0)||(')', '', '', '', 0.0)||('completed', 'verb', 'C0205197', ['qlco'], 0.0)||('3', '', '', '', 0.0)||('of', '', '', '', 0.0)||('the', '', '', '', 0.0)||('scheduled', 'adj', 'C0086960', ['inpr'], 0.0)||('6', '', '', '', 0.0)||('years', 'noun', 'C0439234', ['tmco'], 0.0)||(';', '', '', '', 0.0)||
('it', '', '', '', 0.0)||('compared', 'verb', 'C1707455', ['acty'], 0.0)||('warfarin', 'noun', 'C0043031', ['hops', 'orch', 'phsu'], 0.0)||('1 . 25', '', '', '', 0.0)||('mg', '', '', '', 0.0)||('/', '', '', '', 0.0)||('d', '', '', '', 0.0)||(',', '', '', '', 0.0)||('warfarin', 'noun', 'C0043031', ['hops', 'orch', 'phsu'], 0.0)||('1 . 25', '', '', '', 0.0)||('mg', '', '', '', 0.0)||('/', '', '', '', 0.0)||('d', '', '', '', 0.0)||('plus', '', '', '', 0.0)||('aspirin', 'noun', 'C0004057', ['orch', 'phsu'], 0.0)||('300', '', '', '', 0.0)||('mg', '', '', '', 0.0)||(',', '', '', '', 0.0)||('aspirin', 'noun', 'C0004057', ['orch', 'phsu'], 0.0)||('300', '', '', '', 0.0)||('mg', '', '', '', 0.0)||('alone', 'adj', 'C0439044', ['fndg'], 0.0)||(',', '', '', '', 0.0)||('and', '', '', '', 0.0)||('adjusted', 'verb', 'C0456081', ['ftcn'], 0.0)||('-', '', '', '', 0.0)||('dose', 'noun', 'C0178602', ['qnco'], 0.0)||('warfarin', 'noun', 'C0043031', ['hops', 'orch', 'phsu'], 0.0)||('(', '', '', '', 0.0)||('inr', 'noun', 'C0525032', ['lbpr'], 0.0)||('=', '', '', '', 0.0)||('2 . 0', '', '', '', 0.0)||('-', '', '', '', 0.0)||('3 . 0', '', '', '', 0.0)||(')', '', '', '', 0.0)||('to', '', '', '', 0.0)||('treat', 'verb', 'C1292734', ['ftcn'], 0.0)||('nvaf', '', '', '', 0.0)||('for', '', '', '', 0.0)||('patients', 'noun', 'C0030705', ['podg'], 0.0)||('with', '', '', '', 0.0)||('a', '', '', '', 0.0)||('median', 'adj', 'C0549183', ['spco'], 0.0)||('age', 'noun', 'C0001779', ['orga'], 0.0)||('of', '', '', '', 0.0)||('74', '', '', '', 0.0)||('years', 'noun', 'C0439234', ['tmco'], 0.0)||('(', '', '', '', 0.0)||('range', 'noun', 'C1514721', ['qnco'], 0.0)||(',', '', '', '', 0.0)||('44', '', '', '', 0.0)||('-', '', '', '', 0.0)||('89', '', '', '', 0.0)||(')', '', '', '', 0.0)||('.', '', '', '', 0.0)||
('the', '', '', '', 0.0)||('cumulative', 'adj', 'C1511559', ['qlco'], 0.0)||('stroke', 'noun', 'C0038454', ['dsyn'], 0.0)||('event', 'noun', 'C0441471', ['evnt'], 0.0)||('rate', 'noun', 'C0871208', ['acty'], 0.0)||('after', '', '', '', 0.0)||('1', '', '', '', 0.0)||('year', 'noun', 'C0439234', ['tmco'], 0.0)||('was', '', '', '', 0.0)||('5 . 8 %', '', '', '', 0.0)||('on', '', '', '', 0.0)||('fixed - dose', '', '', '', 0.0)||('warfarin', 'noun', 'C0043031', ['hops', 'orch', 'phsu'], 0.0)||(',', '', '', '', 0.0)||('7 . 2 %', '', '', '', 0.0)||('on', '', '', '', 0.0)||('combination', 'noun', 'C0205195', ['qlco'], 0.0)||(',', '', '', '', 0.0)||('3 . 6 %', '', '', '', 0.0)||('on', '', '', '', 0.0)||('aspirin', 'noun', 'C0004057', ['orch', 'phsu'], 0.0)||(',', '', '', '', 0.0)||('and', '', '', '', 0.0)||('2 . 8 %', '', '', '', 0.0)||('on', '', '', '', 0.0)||('adjusted', 'adj', 'C0456081', ['ftcn'], 0.0)||('-', '', '', '', 0.0)||('dose', 'noun', 'C0178602', ['qnco'], 0.0)||('warfarin', 'noun', 'C0043031', ['hops', 'orch', 'phsu'], 0.0)||('.', '', '', '', 0.0)||
('the', '', '', '', 0.0)||('researchers', 'noun', 'C0035173', ['prog'], 0.0)||('concluded', '', '', '', 0.0)||('that', '', '', '', 0.0)||('while', '', '', '', 0.0)||('the', '', '', '', 0.0)||('difference', 'noun', 'C1705242', ['qlco'], 0.0)||('was', '', '', '', 0.0)||('not', 'adv', 'C1518422', ['ftcn'], 0.0)||('statistically significant', 'adj', 'C0237881', ['qnco'], 0.0)||(',', '', '', '', 0.0)||('adjusted', 'verb', 'C0456081', ['ftcn'], 0.0)||('-', '', '', '', 0.0)||('dose', 'noun', 'C0178602', ['qnco'], 0.0)||('warfarin', 'noun', 'C0043031', ['hops', 'orch', 'phsu'], 0.0)||('seemed', '', '', '', 0.0)||('superior', 'adj', 'C1282910', ['spco'], 0.0)||('to', '', '', '', 0.0)||('other', '', '', '', 0.0)||('treatments', 'noun', 'C0087111', ['topp'], 0.0)||('after', '', '', '', 0.0)||('1', '', '', '', 0.0)||('year', 'noun', 'C0439234', ['tmco'], 0.0)||('.', '', '', '', 0.0)||
