('tissue adhesives', 'noun', 'C0040277', ['bodm'], 0.0)||('are', '', '', '', 0.0)||('effective', 'adj', 'C1704419', ['qlco'], 0.0)||('and', '', '', '', 0.0)||('yield', '', '', '', 0.0)||('results', 'verb', 'C1274040', ['ftcn'], 0.0)||('comparable', '', '', '', 0.0)||('to', '', '', '', 0.0)||('those', '', '', '', 0.0)||('with', '', '', '', 0.0)||('conventional', 'adj', 'C0439858', ['qlco'], 0.0)||('suturing', 'noun', 'C0009068', ['topp'], 0.0)||('of', '', '', '', 0.0)||('superficial', 'adj', 'C0205124', ['spco'], 0.0)||(',', '', '', '', 0.0)||('linear', 'adj', 'C0205132', ['spco'], 0.0)||(',', '', '', '', 0.0)||('and', '', '', '', 0.0)||('low - tension', '', '', '', 0.0)||('lacerations', 'noun', 'C0043246', ['inpo'], 0.0)||('.', '', '', '', 0.0)||
('the', '', '', '', 0.0)||('cosmetic', 'adj', 'C0010164', ['mnob'], 0.0)||('outcome', 'noun', 'C1274040', ['ftcn'], 0.0)||('is', '', '', '', 0.0)||('similar', 'adj', 'C2348205', ['qlco'], 0.0)||(';', '', '', '', 0.0)||
('wound', 'noun', 'C0043250', ['inpo'], 0.0)||('complications', 'noun', 'C0009566', ['patf'], 0.0)||(',', '', '', '', 0.0)||('such as', '', '', '', 0.0)||('infection', 'noun', 'C0021311', ['dsyn'], 0.0)||('and', '', '', '', 0.0)||('dehiscence', 'noun', 'C0149663', ['fndg'], 0.0)||(',', '', '', '', 0.0)||('may', '', '', '', 0.0)||('be', '', '', '', 0.0)||('lower', 'adj', 'C0441994', ['ftcn'], 0.0)||('with', '', '', '', 0.0)||('tissue adhesives', 'noun', 'C0040277', ['bodm'], 0.0)||('.', '', '', '', 0.0)||
('wound', 'noun', 'C0043250', ['inpo'], 0.0)||('closure', 'noun', 'C0185003', ['topp'], 0.0)||('of', '', '', '', 0.0)||('superficial', 'adj', 'C0205124', ['spco'], 0.0)||('lacerations', 'noun', 'C0043246', ['inpo'], 0.0)||('by', '', '', '', 0.0)||('tissue adhesives', 'noun', 'C0040277', ['bodm'], 0.0)||('is', '', '', '', 0.0)||('quicker', '', '', '', 0.0)||('and', '', '', '', 0.0)||('less', '', '', '', 0.0)||('painful', 'adj', 'C0030193', ['sosy'], 0.0)||('compared', 'verb', 'C1707455', ['acty'], 0.0)||('with', '', '', '', 0.0)||('conventional', 'adj', 'C0439858', ['qlco'], 0.0)||('suturing', 'noun', 'C0009068', ['topp'], 0.0)||
