('this', '', '', '', 0.0)||('review', 'noun', 'C0282443', ['inpr'], 0.0)||('is', '', '', '', 0.0)||('one', 'verb', 'C0205447', ['qnco'], 0.0)||('in', '', '', '', 0.0)||('a', '', '', '', 0.0)||('series', 'noun', 'C0205549', ['qnco'], 0.0)||('of', '', '', '', 0.0)||('reviews', '', '', '', 0.0)||('of', '', '', '', 0.0)||('interventions', '', '', '', 0.0)||('for', '', '', '', 0.0)||('lateral', 'adj', 'C0205093', ['spco'], 0.0)||('elbow', 'noun', 'C0013769', ['blor'], 0.0)||('pain', 'noun', 'C0030193', ['sosy'], 0.0)||('.', '', '', '', 0.0)||
('lateral', 'adj', 'C0205093', ['spco'], 0.0)||('elbow', 'noun', 'C0013769', ['blor'], 0.0)||('pain', 'noun', 'C0030193', ['sosy'], 0.0)||(',', '', '', '', 0.0)||('or', '', '', '', 0.0)||('tennis elbow', 'noun', 'C0039516', ['dsyn'], 0.0)||(',', '', '', '', 0.0)||('is', '', '', '', 0.0)||('a', '', '', '', 0.0)||('common', 'adj', 'C0205214', ['qnco'], 0.0)||('condition', 'noun', 'C0348080', ['qlco'], 0.0)||('causing', 'adj', 'C0678227', ['ftcn'], 0.0)||('pain', 'noun', 'C0030193', ['sosy'], 0.0)||('in', '', '', '', 0.0)||('the', '', '', '', 0.0)||('elbow', 'noun', 'C0013769', ['blor'], 0.0)||('and', '', '', '', 0.0)||('forearm', 'noun', 'C0016536', ['blor'], 0.0)||('and', '', '', '', 0.0)||('lack', 'noun', 'C0332268', ['qlco'], 0.0)||('of', '', '', '', 0.0)||('strength', 'noun', 'C0808080', ['idcn'], 0.0)||('and', '', '', '', 0.0)||('function', 'noun', 'C0031843', ['phsf'], 0.0)||('of', '', '', '', 0.0)||('the', '', '', '', 0.0)||('elbow', 'noun', 'C0013769', ['blor'], 0.0)||('and', '', '', '', 0.0)||('wrist', 'noun', 'C0043262', ['blor'], 0.0)||('.', '', '', '', 0.0)||
('acupuncture', 'noun', 'C0001299', ['bmod'], 0.0)||('has', '', '', '', 0.0)||('long', 'adj', 'C0205166', ['qlco'], 0.0)||('been', '', '', '', 0.0)||('used', '', '', '', 0.0)||('to', '', '', '', 0.0)||('treat', 'verb', 'C1292734', ['ftcn'], 0.0)||('lateral', 'adj', 'C0205093', ['spco'], 0.0)||('elbow', 'noun', 'C0013769', ['blor'], 0.0)||('pain', 'noun', 'C0030193', ['sosy'], 0.0)||('in', '', '', '', 0.0)||('china', 'noun', 'C0008115', ['geoa'], 0.0)||('and', '', '', '', 0.0)||('in', '', '', '', 0.0)||('western', 'noun', 'C1705493', ['spco'], 0.0)||('countries', 'noun', 'C0454664', ['geoa'], 0.0)||('practitioners', '', '', '', 0.0)||('and', '', '', '', 0.0)||('consumers', '', '', '', 0.0)||('are', '', '', '', 0.0)||('increasingly', '', '', '', 0.0)||('exploring', '', '', '', 0.0)||('acupuncture', 'noun', 'C0001299', ['bmod'], 0.0)||('as', '', '', '', 0.0)||('a', '', '', '', 0.0)||('first', 'adj', 'C0205435', ['qnco'], 0.0)||('line', 'noun', 'C0205132', ['spco'], 0.0)||('treatment', 'noun', 'C0039798', ['ftcn'], 0.0)||('for', '', '', '', 0.0)||('musculoskeletal disorders', 'noun', 'C0026857', ['dsyn'], 0.0)||('.', '', '', '', 0.0)||
('no', '', '', '', 0.0)||('previous', 'adj', 'C0205156', ['tmco'], 0.0)||('systematic review', '', '', '', 0.0)||('of', '', '', '', 0.0)||('the', '', '', '', 0.0)||('available', 'adj', 'C0470187', ['ftcn'], 0.0)||('evidence', 'noun', 'C0332120', ['ftcn'], 0.0)||('has', '', '', '', 0.0)||('been', '', '', '', 0.0)||('conducted', '', '', '', 0.0)||('to', '', '', '', 0.0)||('determine', '', '', '', 0.0)||('whether', '', '', '', 0.0)||('acupuncture', 'noun', 'C0001299', ['bmod'], 0.0)||('is', '', '', '', 0.0)||('efficacious', '', '', '', 0.0)||('in', '', '', '', 0.0)||('the', '', '', '', 0.0)||('treatment', 'noun', 'C0039798', ['ftcn'], 0.0)||('lateral', 'adj', 'C0205093', ['spco'], 0.0)||('elbow', 'noun', 'C0013769', ['blor'], 0.0)||('pain', 'noun', 'C0030193', ['sosy'], 0.0)||('.', '', '', '', 0.0)||
('to', '', '', '', 0.0)||('determine', '', '', '', 0.0)||('the', '', '', '', 0.0)||('effectiveness', 'noun', 'C1280519', ['qlco'], 0.0)||('of', '', '', '', 0.0)||('acupuncture', 'noun', 'C0001299', ['bmod'], 0.0)||('in', '', '', '', 0.0)||('the', '', '', '', 0.0)||('treatment', 'noun', 'C0039798', ['ftcn'], 0.0)||('of', '', '', '', 0.0)||('adults', 'noun', 'C0001675', ['aggp'], 0.0)||('with', '', '', '', 0.0)||('lateral', 'adj', 'C0205093', ['spco'], 0.0)||('elbow', 'noun', 'C0013769', ['blor'], 0.0)||('pain', 'noun', 'C0030193', ['sosy'], 0.0)||('with', '', '', '', 0.0)||('respect', 'noun', 'C0679133', ['socb'], 0.0)||('to', '', '', '', 0.0)||('pain reduction', '', '', '', 0.0)||(',', '', '', '', 0.0)||('improvement', '', '', '', 0.0)||('in', '', '', '', 0.0)||('function', 'noun', 'C0031843', ['phsf'], 0.0)||(',', '', '', '', 0.0)||('grip strength', 'noun', 'C0429271', ['diap'], 0.0)||('and', '', '', '', 0.0)||('adverse effects', 'noun', 'C0001688', ['ftcn'], 0.0)||('.', '', '', '', 0.0)||
('we', '', '', '', 0.0)||('searched', 'verb', 'C1706202', ['acty'], 0.0)||('medline', 'noun', 'C0025141', ['inpr'], 0.0)||(',', '', '', '', 0.0)||('cinahl', '', '', '', 0.0)||(',', '', '', '', 0.0)||('embase', '', '', '', 0.0)||('and', '', '', '', 0.0)||('scisearch', '', '', '', 0.0)||('and', '', '', '', 0.0)||('the', '', '', '', 0.0)||('cochrane', '', '', '', 0.0)||('clinical trials', 'noun', 'C0008976', ['resa'], 0.0)||('register', '', '', '', 0.0)||('and', '', '', '', 0.0)||('the', '', '', '', 0.0)||('musculoskeletal', 'adj', 'C0497254', ['ftcn'], 0.0)||('review', 'noun', 'C0282443', ['inpr'], 0.0)||('group', 'noun', 'C0441833', ['idcn'], 0.0)||("' s", '', '', '', 0.0)||('specialist', 'noun', 'C0087009', ['prog'], 0.0)||('trial', 'noun', 'C0008976', ['resa'], 0.0)||('database', 'noun', 'C0242356', ['inpr'], 0.0)||('from', '', '', '', 0.0)||('1966', '', '', '', 0.0)||('to', '', '', '', 0.0)||('june', '', '', '', 0.0)||('2001', '', '', '', 0.0)||('.', '', '', '', 0.0)||
('identified', 'adj', 'C0205396', ['qlco'], 0.0)||('keywords', '', '', '', 0.0)||('and', '', '', '', 0.0)||('authors', 'noun', 'C0341628', ['prog'], 0.0)||('were', '', '', '', 0.0)||('searched', 'verb', 'C1706202', ['acty'], 0.0)||('in', '', '', '', 0.0)||('an', '', '', '', 0.0)||('effort', 'noun', 'C0015264', ['orgf'], 0.0)||('to', '', '', '', 0.0)||('retrieve', '', '', '', 0.0)||('as', '', '', '', 0.0)||('many', '', '', '', 0.0)||('trials', '', '', '', 0.0)||('as', '', '', '', 0.0)||('possible', 'adj', 'C0332149', ['qlco'], 0.0)||('.', '', '', '', 0.0)||
('two', 'adj', 'C0205448', ['qnco'], 0.0)||('independent', 'adj', 'C0085862', ['idcn'], 0.0)||('reviewers', '', '', '', 0.0)||('assessed', 'verb', 'C1516048', ['acty'], 0.0)||('all', '', '', '', 0.0)||('identified', 'adj', 'C0205396', ['qlco'], 0.0)||('trials', '', '', '', 0.0)||('against', '', '', '', 0.0)||('pre - determined', '', '', '', 0.0)||('inclusion', 'noun', 'C1512693', ['qlco'], 0.0)||('criteria', 'noun', 'C0243161', ['inpr'], 0.0)||('.', '', '', '', 0.0)||
('randomised', '', '', '', 0.0)||('and', '', '', '', 0.0)||('pseudo randomised', '', '', '', 0.0)||('trials', '', '', '', 0.0)||('in', '', '', '', 0.0)||('all', '', '', '', 0.0)||('languages', 'noun', 'C0023008', ['lang'], 0.0)||('were', '', '', '', 0.0)||('included', '', '', '', 0.0)||('in', '', '', '', 0.0)||('the', '', '', '', 0.0)||('review', 'noun', 'C0282443', ['inpr'], 0.0)||('provided', '', '', '', 0.0)||('they', '', '', '', 0.0)||('were', '', '', '', 0.0)||('testing', 'adj', 'C0039593', ['ftcn'], 0.0)||('acupuncture', 'noun', 'C0001299', ['bmod'], 0.0)||('compared', 'verb', 'C1707455', ['acty'], 0.0)||('to', '', '', '', 0.0)||('placebo', 'noun', 'C0032042', ['topp'], 0.0)||('or', '', '', '', 0.0)||('another', '', '', '', 0.0)||('intervention', 'noun', 'C1273869', ['hlca'], 0.0)||('in', '', '', '', 0.0)||('adults', 'noun', 'C0001675', ['aggp'], 0.0)||('with', '', '', '', 0.0)||('lateral', 'adj', 'C0205093', ['spco'], 0.0)||('elbow', 'noun', 'C0013769', ['blor'], 0.0)||('pain', 'noun', 'C0030193', ['sosy'], 0.0)||('(', '', '', '', 0.0)||('tennis elbow', 'noun', 'C0039516', ['dsyn'], 0.0)||(')', '', '', '', 0.0)||('.', '', '', '', 0.0)||
('outcomes', 'noun', 'C0085415', ['qlco'], 0.0)||('of', '', '', '', 0.0)||('interest', 'noun', 'C0543488', ['menp'], 0.0)||('were', '', '', '', 0.0)||('pain', 'noun', 'C0030193', ['sosy'], 0.0)||(',', '', '', '', 0.0)||('function', 'noun', 'C0031843', ['phsf'], 0.0)||(',', '', '', '', 0.0)||('disability', 'noun', 'C0231170', ['fndg'], 0.0)||(',', '', '', '', 0.0)||('quality', 'noun', 'C0332306', ['qlco'], 0.0)||('of', '', '', '', 0.0)||('life', 'noun', 'C0376558', ['idcn'], 0.0)||(',', '', '', '', 0.0)||('strength', 'noun', 'C0808080', ['idcn'], 0.0)||(',', '', '', '', 0.0)||('participant', 'noun', 'C0679646', ['popg'], 0.0)||('satisfaction', 'noun', 'C0242428', ['menp'], 0.0)||('with', '', '', '', 0.0)||('treatment', 'noun', 'C0039798', ['ftcn'], 0.0)||('and', '', '', '', 0.0)||('adverse effect', 'noun', 'C0559546', ['fndg'], 0.0)||('.', '', '', '', 0.0)||
('for', '', '', '', 0.0)||('continuous', 'adj', 'C0549178', ['idcn'], 0.0)||('variables', '', '', '', 0.0)||('means', 'noun', 'C1704970', ['cnce'], 0.0)||('and', '', '', '', 0.0)||('standard deviations', '', '', '', 0.0)||('were', '', '', '', 0.0)||('extracted', 'verb', 'C0185115', ['topp'], 0.0)||('or', '', '', '', 0.0)||('imputed', 'verb', 'C2699638', ['qnco'], 0.0)||('to', '', '', '', 0.0)||('allow', '', '', '', 0.0)||('the', '', '', '', 0.0)||('analysis', 'noun', 'C0002778', ['lbpr'], 0.0)||('of', '', '', '', 0.0)||('weighted', '', '', '', 0.0)||('mean difference', '', '', '', 0.0)||(',', '', '', '', 0.0)||('while', '', '', '', 0.0)||('for', '', '', '', 0.0)||('binary', 'adj', 'C1706942', ['qlco'], 0.0)||('data', 'noun', 'C1511726', ['idcn'], 0.0)||('numbers', 'noun', 'C0237753', ['qnco'], 0.0)||('of', '', '', '', 0.0)||('events', 'noun', 'C0441471', ['evnt'], 0.0)||('and', '', '', '', 0.0)||('total', 'adj', 'C0439810', ['qlco'], 0.0)||('population', 'noun', 'C0032659', ['qnco'], 0.0)||('were', '', '', '', 0.0)||('analysed', '', '', '', 0.0)||('and', '', '', '', 0.0)||('interpreted', '', '', '', 0.0)||('as', '', '', '', 0.0)||('relative risks', 'noun', 'C0242492', ['qnco'], 0.0)||('.', '', '', '', 0.0)||
('trial', 'noun', 'C0008976', ['resa'], 0.0)||('results', 'noun', 'C1274040', ['ftcn'], 0.0)||('were', '', '', '', 0.0)||('combined', 'verb', 'C0205195', ['qlco'], 0.0)||('only', '', '', '', 0.0)||('in', '', '', '', 0.0)||('the', '', '', '', 0.0)||('absence', 'noun', 'C1689985', ['anab'], 0.0)||('of', '', '', '', 0.0)||('clinical', 'adj', 'C0205210', ['qlco'], 0.0)||('and', '', '', '', 0.0)||('statistical', 'adj', 'C0038215', ['ocdi'], 0.0)||('heterogeneity', 'noun', 'C0019409', ['qlco'], 0.0)||('.', '', '', '', 0.0)||
('four', '', 'C0205450', ['qnco'], 0.0)||('small', 'adj', 'C0700321', ['qnco'], 0.0)||('randomized controlled trials', '', '', '', 0.0)||('were', '', '', '', 0.0)||('included', '', '', '', 0.0)||('but', '', '', '', 0.0)||('due to', '', '', '', 0.0)||('flaws', '', '', '', 0.0)||('in study', '', '', '', 0.0)||('designs', '', '', '', 0.0)||('(', '', '', '', 0.0)||('particularly', '', '', '', 0.0)||('small', 'adj', 'C0700321', ['qnco'], 0.0)||('populations', 'noun', 'C0032659', ['qnco'], 0.0)||(',', '', '', '', 0.0)||('uncertain', 'adj', 'C0087130', ['idcn'], 0.0)||('allocation', 'noun', 'C1706778', ['acty'], 0.0)||('concealment', '', '', '', 0.0)||('and', '', '', '', 0.0)||('substantial', '', '', '', 0.0)||('loss', 'noun', 'C1517945', ['qnco'], 0.0)||('to', '', '', '', 0.0)||('follow up', '', '', '', 0.0)||(')', '', '', '', 0.0)||('and', '', '', '', 0.0)||('clinical', 'adj', 'C0205210', ['qlco'], 0.0)||('differences', '', '', '', 0.0)||('between', '', '', '', 0.0)||('trials', '', '', '', 0.0)||(',', '', '', '', 0.0)||('data', 'noun', 'C1511726', ['idcn'], 0.0)||('from', '', '', '', 0.0)||('trials', '', '', '', 0.0)||('could', '', '', '', 0.0)||('not', 'adv', 'C1518422', ['ftcn'], 0.0)||('be', '', '', '', 0.0)||('combined', 'verb', 'C0205195', ['qlco'], 0.0)||('in', '', '', '', 0.0)||('a', '', '', '', 0.0)||('meta - analysis', '', '', '', 0.0)||('.', '', '', '', 0.0)||
('one', 'noun', 'C0205447', ['qnco'], 0.0)||('randomised controlled trial', '', '', '', 0.0)||('found', '', '', '', 0.0)||('that', '', '', '', 0.0)||('needle', 'noun', 'C0027551', ['medd'], 0.0)||('acupuncture', 'noun', 'C0001299', ['bmod'], 0.0)||('results', 'verb', 'C1274040', ['ftcn'], 0.0)||('in', '', '', '', 0.0)||('relief', 'noun', 'C0564405', ['fndg'], 0.0)||('of', '', '', '', 0.0)||('pain', 'noun', 'C0030193', ['sosy'], 0.0)||('for', '', '', '', 0.0)||('significantly', '', '', '', 0.0)||('longer', '', '', '', 0.0)||('than', '', '', '', 0.0)||('placebo', 'noun', 'C0032042', ['topp'], 0.0)||('(', '', '', '', 0.0)||('wmd', '', '', '', 0.0)||('=', '', '', '', 0.0)||('18 . 8', '', '', '', 0.0)||('hours', 'noun', 'C0439227', ['tmco'], 0.0)||(',', '', '', '', 0.0)||('95 %', '', '', '', 0.0)||('ci', 'noun', 'C1417638', ['gngm'], 0.0)||('10 . 1', '', '', '', 0.0)||('to', '', '', '', 0.0)||('27 . 5', '', '', '', 0.0)||(')', '', '', '', 0.0)||('and', '', '', '', 0.0)||('is', '', '', '', 0.0)||('more', '', '', '', 0.0)||('likely', 'adv', 'C0332148', ['qlco'], 0.0)||('to', '', '', '', 0.0)||('result', 'verb', 'C1274040', ['ftcn'], 0.0)||('in', '', '', '', 0.0)||('a', '', '', '', 0.0)||('50 %', '', '', '', 0.0)||('or', '', '', '', 0.0)||('greater', 'adj', 'C1704243', ['qnco'], 0.0)||('reduction', 'noun', 'C0301630', ['npop'], 0.0)||('in', '', '', '', 0.0)||('pain', 'noun', 'C0030193', ['sosy'], 0.0)||('after', '', '', '', 0.0)||('1', '', '', '', 0.0)||('treatment', 'noun', 'C0039798', ['ftcn'], 0.0)||('(', '', '', '', 0.0)||('rr', 'noun', 'C0231832', ['clna'], 0.0)||('0 . 33', '', '', '', 0.0)||(',', '', '', '', 0.0)||('95 %', '', '', '', 0.0)||('ci', 'noun', 'C1417638', ['gngm'], 0.0)||('0 . 16', '', '', '', 0.0)||('to', '', '', '', 0.0)||('0 . 69', '', '', '', 0.0)||(')', '', '', '', 0.0)||('(', '', '', '', 0.0)||('molsberger', '', '', '', 0.0)||('1994', '', '', '', 0.0)||(')', '', '', '', 0.0)||('.', '', '', '', 0.0)||
('a', '', '', '', 0.0)||('second', 'noun', 'C0205436', ['qnco'], 0.0)||('randomized controlled trial', '', '', '', 0.0)||('demonstrated', '', '', '', 0.0)||('needle', 'noun', 'C0027551', ['medd'], 0.0)||('acupuncture', 'noun', 'C0001299', ['bmod'], 0.0)||('to', '', '', '', 0.0)||('be', '', '', '', 0.0)||('more', '', '', '', 0.0)||('likely', 'adv', 'C0332148', ['qlco'], 0.0)||('to', '', '', '', 0.0)||('result', 'verb', 'C1274040', ['ftcn'], 0.0)||('in', '', '', '', 0.0)||('overall', 'adj', 'C0282416', ['inpr'], 0.0)||('participant', 'noun', 'C0679646', ['popg'], 0.0)||('reported', 'verb', 'C0684224', ['inpr'], 0.0)||('improvement', '', '', '', 0.0)||('than', '', '', '', 0.0)||('placebo', 'noun', 'C0032042', ['topp'], 0.0)||('in', '', '', '', 0.0)||('the', '', '', '', 0.0)||('short term', '', '', '', 0.0)||('(', '', '', '', 0.0)||('rr', 'noun', 'C0231832', ['clna'], 0.0)||('=', '', '', '', 0.0)||('0 . 09', '', '', '', 0.0)||('95 %', '', '', '', 0.0)||('ci', 'noun', 'C1417638', ['gngm'], 0.0)||('0 . 01', '', '', '', 0.0)||('to', '', '', '', 0.0)||('0 . 64', '', '', '', 0.0)||(')', '', '', '', 0.0)||('(', '', '', '', 0.0)||('haker', '', '', '', 0.0)||('1990a', '', '', '', 0.0)||(')', '', '', '', 0.0)||('.', '', '', '', 0.0)||
('no', '', '', '', 0.0)||('significant', 'adj', 'C0750502', ['idcn'], 0.0)||('differences', '', '', '', 0.0)||('were', '', '', '', 0.0)||('found', '', '', '', 0.0)||('in', '', '', '', 0.0)||('the', '', '', '', 0.0)||('longer term', '', '', '', 0.0)||('(', '', '', '', 0.0)||('after', '', '', '', 0.0)||('3', '', '', '', 0.0)||('or', '', '', '', 0.0)||('12', '', '', '', 0.0)||('months', 'noun', 'C0439231', ['tmco'], 0.0)||(')', '', '', '', 0.0)||('.', '', '', '', 0.0)||
('a', '', '', '', 0.0)||('randomized controlled trial', '', '', '', 0.0)||('of', '', '', '', 0.0)||('laser', 'noun', 'C0023089', ['mnob'], 0.0)||('acupuncture', 'noun', 'C0001299', ['bmod'], 0.0)||('versus', '', '', '', 0.0)||('placebo', 'noun', 'C0032042', ['topp'], 0.0)||('demonstrated', '', '', '', 0.0)||('no', '', '', '', 0.0)||('differences', '', '', '', 0.0)||('between', '', '', '', 0.0)||('laser', 'noun', 'C0023089', ['mnob'], 0.0)||('acupuncture', 'noun', 'C0001299', ['bmod'], 0.0)||('and', '', '', '', 0.0)||('placebo', 'noun', 'C0032042', ['topp'], 0.0)||('with', '', '', '', 0.0)||('respect', 'noun', 'C0679133', ['socb'], 0.0)||('to', '', '', '', 0.0)||('overall', 'adj', 'C0282416', ['inpr'], 0.0)||('benefit', 'noun', 'C0814225', ['qnco'], 0.0)||('(', '', '', '', 0.0)||('haker', '', '', '', 0.0)||('1990b', '', '', '', 0.0)||(')', '', '', '', 0.0)||('.', '', '', '', 0.0)||
('a', '', '', '', 0.0)||('fourth', 'adj', 'C0205438', ['qnco'], 0.0)||('included', '', '', '', 0.0)||('trial', 'noun', 'C0008976', ['resa'], 0.0)||('published', 'verb', 'C0034037', ['ocac'], 0.0)||('in', '', '', '', 0.0)||('chinese', 'noun', 'C0018555', ['mamm'], 0.0)||('demonstrated', '', '', '', 0.0)||('no', '', '', '', 0.0)||('difference', 'noun', 'C1705242', ['qlco'], 0.0)||('between', '', '', '', 0.0)||('vitamin b12', 'noun', 'C0042845', ['orch', 'phsu', 'vita'], 0.0)||('injection', 'noun', 'C1272883', ['bodm'], 0.0)||('plus', '', '', '', 0.0)||('acupuncture', 'noun', 'C0001299', ['bmod'], 0.0)||(',', '', '', '', 0.0)||('and', '', '', '', 0.0)||('vitamin b12', 'noun', 'C0042845', ['orch', 'phsu', 'vita'], 0.0)||('injection', 'noun', 'C1272883', ['bodm'], 0.0)||('alone', 'adj', 'C0439044', ['fndg'], 0.0)||('(', '', '', '', 0.0)||('wang', '', '', '', 0.0)||('1997', '', '', '', 0.0)||(')', '', '', '', 0.0)||('.', '', '', '', 0.0)||
('there', '', '', '', 0.0)||('is', '', '', '', 0.0)||('insufficient', 'adj', 'C0205412', ['qlco'], 0.0)||('evidence', 'noun', 'C0332120', ['ftcn'], 0.0)||('to', '', '', '', 0.0)||('either', '', '', '', 0.0)||('support', 'noun', 'C0183683', ['medd'], 0.0)||('or', '', '', '', 0.0)||('refute', '', '', '', 0.0)||('the', '', '', '', 0.0)||('use', 'noun', 'C0042153', ['ftcn'], 0.0)||('of', '', '', '', 0.0)||('acupuncture', 'noun', 'C0001299', ['bmod'], 0.0)||('(', '', '', '', 0.0)||('either', '', '', '', 0.0)||('needle', 'noun', 'C0027551', ['medd'], 0.0)||('or', '', '', '', 0.0)||('laser', 'noun', 'C0023089', ['mnob'], 0.0)||(')', '', '', '', 0.0)||('in', '', '', '', 0.0)||('the', '', '', '', 0.0)||('treatment', 'noun', 'C0039798', ['ftcn'], 0.0)||('of', '', '', '', 0.0)||('lateral', 'adj', 'C0205093', ['spco'], 0.0)||('elbow', 'noun', 'C0013769', ['blor'], 0.0)||('pain', 'noun', 'C0030193', ['sosy'], 0.0)||('.', '', '', '', 0.0)||
('this', '', '', '', 0.0)||('review', 'noun', 'C0282443', ['inpr'], 0.0)||('has', '', '', '', 0.0)||('demonstrated', '', '', '', 0.0)||('needle', 'noun', 'C0027551', ['medd'], 0.0)||('acupuncture', 'noun', 'C0001299', ['bmod'], 0.0)||('to', '', '', '', 0.0)||('be', '', '', '', 0.0)||('of', '', '', '', 0.0)||('short term benefit', '', '', '', 0.0)||('with', '', '', '', 0.0)||('respect', 'noun', 'C0679133', ['socb'], 0.0)||('to', '', '', '', 0.0)||('pain', 'noun', 'C0030193', ['sosy'], 0.0)||(',', '', '', '', 0.0)||('but', '', '', '', 0.0)||('this', '', '', '', 0.0)||('finding', 'noun', 'C0037088', ['sosy'], 0.0)||('is', '', '', '', 0.0)||('based', 'verb', 'C1527178', ['ftcn'], 0.0)||('on', '', '', '', 0.0)||('the', '', '', '', 0.0)||('results', 'noun', 'C1274040', ['ftcn'], 0.0)||('of', '', '', '', 0.0)||('2', '', '', '', 0.0)||('small', 'adj', 'C0700321', ['qnco'], 0.0)||('trials', '', '', '', 0.0)||(',', '', '', '', 0.0)||('the', '', '', '', 0.0)||('results', 'noun', 'C1274040', ['ftcn'], 0.0)||('of', '', '', '', 0.0)||('which', '', '', '', 0.0)||('were', '', '', '', 0.0)||('not', 'adv', 'C1518422', ['ftcn'], 0.0)||('able', 'adj', 'C0085732', ['orga'], 0.0)||('to', '', '', '', 0.0)||('be', '', '', '', 0.0)||('combined', 'verb', 'C0205195', ['qlco'], 0.0)||('in', '', '', '', 0.0)||('meta - analysis', '', '', '', 0.0)||('.', '', '', '', 0.0)||
('no', '', '', '', 0.0)||('benefit', 'noun', 'C0814225', ['qnco'], 0.0)||('lasting', '', '', '', 0.0)||('more', '', '', '', 0.0)||('than', '', '', '', 0.0)||('24', '', '', '', 0.0)||('hours', 'noun', 'C0439227', ['tmco'], 0.0)||('following', '', '', '', 0.0)||('treatment', 'noun', 'C0039798', ['ftcn'], 0.0)||('has', '', '', '', 0.0)||('been', '', '', '', 0.0)||('demonstrated', '', '', '', 0.0)||('.', '', '', '', 0.0)||
('no', '', '', '', 0.0)||('trial', 'noun', 'C0008976', ['resa'], 0.0)||('assessed', 'verb', 'C1516048', ['acty'], 0.0)||('or', '', '', '', 0.0)||('commented', '', '', '', 0.0)||('on', '', '', '', 0.0)||('potential', 'adj', 'C0035647', ['qlco'], 0.0)||('adverse effect', 'noun', 'C0559546', ['fndg'], 0.0)||('.', '', '', '', 0.0)||
('further', 'adj', 'C1517331', ['spco'], 0.0)||('trials', '', '', '', 0.0)||(',', '', '', '', 0.0)||('utilising', '', '', '', 0.0)||('appropriate', 'adj', 'C1548787', ['qlco'], 0.0)||('methods', 'noun', 'C0025663', ['inpr'], 0.0)||('and', '', '', '', 0.0)||('adequate', 'adj', 'C0205410', ['qlco'], 0.0)||('sample', 'noun', 'C0370003', ['sbst'], 0.0)||('sizes', 'noun', 'C0456389', ['spco'], 0.0)||(',', '', '', '', 0.0)||('are', '', '', '', 0.0)||('needed', 'verb', 'C0027552', ['qlco'], 0.0)||('before', '', '', '', 0.0)||('conclusions', 'noun', 'C1707478', ['idcn'], 0.0)||('can', '', '', '', 0.0)||('be', '', '', '', 0.0)||('drawn', '', '', '', 0.0)||('regarding', '', '', '', 0.0)||('the', '', '', '', 0.0)||('effect', 'noun', 'C1280500', ['qlco'], 0.0)||('of', '', '', '', 0.0)||('acupuncture', 'noun', 'C0001299', ['bmod'], 0.0)||('on', '', '', '', 0.0)||('tennis elbow', 'noun', 'C0039516', ['dsyn'], 0.0)||('.', '', '', '', 0.0)||
