('the', '', '', '', 0.0)||('symptomatic', 'adj', 'C0231220', ['ftcn'], 0.0)||('effect', 'noun', 'C1280500', ['qlco'], 0.0)||('of', '', '', '', 0.0)||('inhaled', 'adj', 'C0004048', ['orgf'], 0.0)||('fenoterol', 'noun', 'C0015840', ['orch', 'phsu'], 0.0)||(',', '', '', '', 0.0)||('a beta', '', '', '', 0.0)||('2', '', '', '', 0.0)||('-', '', '', '', 0.0)||('agonist', 'noun', 'C0243192', ['phsu'], 0.0)||(',', '', '', '', 0.0)||('0 . 2', '', '', '', 0.0)||('mg', '', '', '', 0.0)||('4', '', '', '', 0.0)||('times', 'noun', 'C1632851', ['qnco'], 0.0)||('daily', 'adv', 'C0332173', ['tmco'], 0.0)||('for', '', '', '', 0.0)||('7', '', '', '', 0.0)||('days', 'noun', 'C0439228', ['tmco'], 0.0)||(',', '', '', '', 0.0)||('was', '', '', '', 0.0)||('evaluated', 'verb', 'C0220825', ['ftcn'], 0.0)||('in', '', '', '', 0.0)||('80', '', '', '', 0.0)||('patients', 'noun', 'C0030705', ['podg'], 0.0)||('with', '', '', '', 0.0)||('acute bronchitis', 'noun', 'C0149514', ['dsyn'], 0.0)||('examined', 'verb', 'C0332128', ['fndg'], 0.0)||('at', '', '', '', 0.0)||('the', '', '', '', 0.0)||('chest', 'noun', 'C0817096', ['blor'], 0.0)||('clinic', 'noun', 'C0002424', ['hcro', 'mnob'], 0.0)||(',', '', '', '', 0.0)||('department', 'noun', 'C1704729', ['orgt'], 0.0)||('of', '', '', '', 0.0)||('medicine', 'noun', 'C0025118', ['bmod'], 0.0)||(',', '', '', '', 0.0)||('university hospital', 'noun', 'C0020028', ['hcro', 'mnob'], 0.0)||('of', '', '', '', 0.0)||('tromsa', '', '', '', 0.0)||('.', '', '', '', 0.0)||('seventy', '', '', '', 0.0)||('-', '', '', '', 0.0)||('three', '', 'C0205449', ['qnco'], 0.0)||('patients', 'noun', 'C0030705', ['podg'], 0.0)||('completed', 'verb', 'C0205197', ['qlco'], 0.0)||('the', '', '', '', 0.0)||('trial', 'noun', 'C0008976', ['resa'], 0.0)||('.', '', '', '', 0.0)||
('end - point', '', '', '', 0.0)||('fev1', 'noun', 'C0802965', ['clna'], 0.0)||('(', '', '', '', 0.0)||('%', '', '', '', 0.0)||('predicted', 'adj', 'C0681842', ['idcn'], 0.0)||(')', '', '', '', 0.0)||('showed', '', '', '', 0.0)||('a', '', '', '', 0.0)||('mean', 'noun', 'C0444504', ['qnco'], 0.0)||('increase', 'noun', 'C0442805', ['ftcn'], 0.0)||('of', '', '', '', 0.0)||('5 . 1 %', '', '', '', 0.0)||('in', '', '', '', 0.0)||('the', '', '', '', 0.0)||('fenoterol', 'noun', 'C0015840', ['orch', 'phsu'], 0.0)||('group', 'noun', 'C0441833', ['idcn'], 0.0)||('and', '', '', '', 0.0)||('0 . 5 %', '', '', '', 0.0)||('in', '', '', '', 0.0)||('the', '', '', '', 0.0)||('placebo', 'noun', 'C0032042', ['topp'], 0.0)||('group', 'noun', 'C0441833', ['idcn'], 0.0)||('(', '', '', '', 0.0)||('p', '', '', '', 0.0)||('=', '', '', '', 0.0)||('0 . 006', '', '', '', 0.0)||(')', '', '', '', 0.0)||('.', '', '', '', 0.0)||
('the', '', '', '', 0.0)||('corresponding', '', '', '', 0.0)||('decrease', 'noun', 'C0392756', ['qlco'], 0.0)||('in', '', '', '', 0.0)||('total symptom score', '', '', '', 0.0)||('after', '', '', '', 0.0)||('one', 'noun', 'C0205447', ['qnco'], 0.0)||('week', 'noun', 'C0439230', ['tmco'], 0.0)||('was', '', '', '', 0.0)||('67 %', '', '', '', 0.0)||('and', '', '', '', 0.0)||('51 %', '', '', '', 0.0)||(',', '', '', '', 0.0)||('respectively', '', '', '', 0.0)||('(', '', '', '', 0.0)||('p', '', '', '', 0.0)||('=', '', '', '', 0.0)||('0 . 06', '', '', '', 0.0)||(')', '', '', '', 0.0)||('.', '', '', '', 0.0)||
('in', '', '', '', 0.0)||('a', '', '', '', 0.0)||('subgroup', 'noun', 'C1515021', ['clas'], 0.0)||('of', '', '', '', 0.0)||('35', '', '', '', 0.0)||('patients', 'noun', 'C0030705', ['podg'], 0.0)||('with', '', '', '', 0.0)||('either', '', '', '', 0.0)||('bronchial', 'adj', 'C0205039', ['bpoc'], 0.0)||('hyper - responsiveness', '', '', '', 0.0)||(',', '', '', '', 0.0)||('wheezes', 'noun', 'C0043144', ['sosy'], 0.0)||('on', '', '', '', 0.0)||('auscultation', 'noun', 'C0004339', ['diap'], 0.0)||('or', '', '', '', 0.0)||('fev1', 'noun', 'C0802965', ['clna'], 0.0)||('less', '', '', '', 0.0)||('than', '', '', '', 0.0)||('80 %', '', '', '', 0.0)||('of', '', '', '', 0.0)||('predicted', 'verb', 'C0681842', ['idcn'], 0.0)||('at', '', '', '', 0.0)||('entry', 'noun', 'C1550548', ['ftcn'], 0.0)||(',', '', '', '', 0.0)||('a', '', '', '', 0.0)||('statistically significant', 'adj', 'C0237881', ['qnco'], 0.0)||('difference', 'noun', 'C1705242', ['qlco'], 0.0)||('in', '', '', '', 0.0)||('reduction', 'noun', 'C0301630', ['npop'], 0.0)||('of', '', '', '', 0.0)||('total symptom score', '', '', '', 0.0)||('in', '', '', '', 0.0)||('favour', '', '', '', 0.0)||('of', '', '', '', 0.0)||('fenoterol', 'noun', 'C0015840', ['orch', 'phsu'], 0.0)||('was', '', '', '', 0.0)||('demonstrated', '', '', '', 0.0)||('on', '', '', '', 0.0)||('the', '', '', '', 0.0)||('second', 'adj', 'C0205436', ['qnco'], 0.0)||('day', 'noun', 'C0439228', ['tmco'], 0.0)||('of', '', '', '', 0.0)||('the', '', '', '', 0.0)||('trial', 'noun', 'C0008976', ['resa'], 0.0)||('.', '', '', '', 0.0)||
('no', '', '', '', 0.0)||('difference', 'noun', 'C1705242', ['qlco'], 0.0)||('was', '', '', '', 0.0)||('found', '', '', '', 0.0)||('in', '', '', '', 0.0)||('the', '', '', '', 0.0)||('38', '', '', '', 0.0)||('patients', 'noun', 'C0030705', ['podg'], 0.0)||('with', '', '', '', 0.0)||('normal', 'adj', 'C0205307', ['qlco'], 0.0)||('lung', 'noun', 'C0024109', ['bpoc'], 0.0)||('findings', 'noun', 'C2607943', ['ftcn'], 0.0)||('.', '', '', '', 0.0)||
('fenoterol', 'noun', 'C0015840', ['orch', 'phsu'], 0.0)||('was', '', '', '', 0.0)||('useful', '', '', '', 0.0)||('when', '', '', '', 0.0)||('objective', 'adj', 'C0018017', ['inpr'], 0.0)||('signs', 'noun', 'C0220912', ['ftcn'], 0.0)||('of', '', '', '', 0.0)||('bronchial', 'adj', 'C0205039', ['bpoc'], 0.0)||('involvement', 'noun', 'C1314939', ['ftcn'], 0.0)||('was', '', '', '', 0.0)||('present', 'adj', 'C0150312', ['qnco'], 0.0)||('and', '', '', '', 0.0)||('may', '', '', '', 0.0)||('be', '', '', '', 0.0)||('applicable', 'adj', 'C1706839', ['qlco'], 0.0)||('to', '', '', '', 0.0)||('the', '', '', '', 0.0)||('treatment', 'noun', 'C0039798', ['ftcn'], 0.0)||('of', '', '', '', 0.0)||('acute bronchitis', 'noun', 'C0149514', ['dsyn'], 0.0)||('.', '', '', '', 0.0)||
