('the', '', '', '', 0.0)||('swedish', 'adj', 'C1710263', ['popg'], 0.0)||('enuresis', 'noun', 'C0014394', ['sosy'], 0.0)||('trial', 'noun', 'C0008976', ['resa'], 0.0)||('was', '', '', '', 0.0)||('conducted', '', '', '', 0.0)||('to', '', '', '', 0.0)||('evaluate', 'verb', 'C0220825', ['ftcn'], 0.0)||('the', '', '', '', 0.0)||('long - term', '', '', '', 0.0)||('safety', 'noun', 'C0036043', ['hcpp'], 0.0)||('and', '', '', '', 0.0)||('efficacy', 'noun', 'C1707887', ['resa'], 0.0)||('of', '', '', '', 0.0)||('intranasal', 'adj', 'C0442118', ['spco'], 0.0)||('desmopressin', 'noun', 'C0011701', ['aapp', 'horm', 'phsu'], 0.0)||('treatment', 'noun', 'C0039798', ['ftcn'], 0.0)||('in', '', '', '', 0.0)||('children', 'noun', 'C0008059', ['aggp'], 0.0)||('with', '', '', '', 0.0)||('primary', 'adj', 'C0205225', ['qlco'], 0.0)||(',', '', '', '', 0.0)||('monosymptomatic nocturnal enuresis', '', '', '', 0.0)||('.', '', '', '', 0.0)||
('the', '', '', '', 0.0)||('study', 'noun', 'C0008976', ['resa'], 0.0)||('had', '', '', '', 0.0)||('an', '', '', '', 0.0)||('open', 'adj', 'C0175566', ['spco'], 0.0)||(',', '', '', '', 0.0)||('multicentre', '', '', '', 0.0)||('design', 'noun', 'C1707689', ['acty'], 0.0)||('and', '', '', '', 0.0)||('comprised', '', '', '', 0.0)||('a', '', '', '', 0.0)||('4', '', '', '', 0.0)||('-', '', '', '', 0.0)||('wk', 'noun', 'C0439230', ['tmco'], 0.0)||('observation', 'noun', 'C0302523', ['resa'], 0.0)||('period', 'noun', 'C1948053', ['tmco'], 0.0)||(',', '', '', '', 0.0)||('a', '', '', '', 0.0)||('6', '', '', '', 0.0)||('-', '', '', '', 0.0)||('wk', 'noun', 'C0439230', ['tmco'], 0.0)||('dose', 'noun', 'C0178602', ['qnco'], 0.0)||('titration', 'noun', 'C0162621', ['lbpr'], 0.0)||('period', 'noun', 'C1948053', ['tmco'], 0.0)||('(', '', '', '', 0.0)||('with', '', '', '', 0.0)||('20', '', '', '', 0.0)||('-', '', '', '', 0.0)||('40', '', '', '', 0.0)||('microg', 'noun', 'C0439211', ['qnco'], 0.0)||('desmopressin', 'noun', 'C0011701', ['aapp', 'horm', 'phsu'], 0.0)||(')', '', '', '', 0.0)||('and', '', '', '', 0.0)||('a 1', '', '', '', 0.0)||('-', '', '', '', 0.0)||('y', '', '', '', 0.0)||(',', '', '', '', 0.0)||('long - term', '', '', '', 0.0)||('treatment', 'noun', 'C0039798', ['ftcn'], 0.0)||('period', 'noun', 'C1948053', ['tmco'], 0.0)||('.', '', '', '', 0.0)||
('a', '', '', '', 0.0)||('treatment', 'noun', 'C0039798', ['ftcn'], 0.0)||('-', '', '', '', 0.0)||('free', 'adj', 'C1880497', ['qlco'], 0.0)||('week', 'noun', 'C0439230', ['tmco'], 0.0)||('was', '', '', '', 0.0)||('introduced', '', '', '', 0.0)||('every', '', '', '', 0.0)||('3', '', '', '', 0.0)||('mo', '', '', '', 0.0)||('to', '', '', '', 0.0)||('identify', '', '', '', 0.0)||('dry', 'adj', 'C0151908', ['sosy'], 0.0)||('patients', 'noun', 'C0030705', ['podg'], 0.0)||('.', '', '', '', 0.0)||
('in', '', '', '', 0.0)||('total', 'noun', 'C0439810', ['qlco'], 0.0)||(',', '', '', '', 0.0)||('399', '', '', '', 0.0)||('children', 'noun', 'C0008059', ['aggp'], 0.0)||('aged', 'verb', 'C0001779', ['orga'], 0.0)||('6', '', '', '', 0.0)||('-', '', '', '', 0.0)||('12', '', '', '', 0.0)||('y', '', '', '', 0.0)||('with', '', '', '', 0.0)||('primary', 'adj', 'C0205225', ['qlco'], 0.0)||(',', '', '', '', 0.0)||('monosymptomatic nocturnal enuresis', '', '', '', 0.0)||('were', '', '', '', 0.0)||('recruited', '', '', '', 0.0)||('.', '', '', '', 0.0)||
('of', '', '', '', 0.0)||('these', '', '', '', 0.0)||(',', '', '', '', 0.0)||('245', '', '', '', 0.0)||('patients', 'noun', 'C0030705', ['podg'], 0.0)||('(', '', '', '', 0.0)||('61 %', '', '', '', 0.0)||(')', '', '', '', 0.0)||('experienced', '', '', '', 0.0)||('>', '', '', '', 0.0)||('or', '', '', '', 0.0)||('=', '', '', '', 0.0)||('50 %', '', '', '', 0.0)||('reduction', 'noun', 'C0301630', ['npop'], 0.0)||('in', '', '', '', 0.0)||('the', '', '', '', 0.0)||('number', 'noun', 'C0449788', ['qnco'], 0.0)||('of', '', '', '', 0.0)||('wet', 'noun', 'C0205381', ['qlco'], 0.0)||('nights', '', '', '', 0.0)||('during', '', '', '', 0.0)||('the', '', '', '', 0.0)||('last', '', '', '', 0.0)||('4', '', '', '', 0.0)||('wk', 'noun', 'C0439230', ['tmco'], 0.0)||('of', '', '', '', 0.0)||('dose', 'noun', 'C0178602', ['qnco'], 0.0)||('titration', 'noun', 'C0162621', ['lbpr'], 0.0)||('compared', 'verb', 'C1707455', ['acty'], 0.0)||('with', '', '', '', 0.0)||('the', '', '', '', 0.0)||('observation', 'noun', 'C0302523', ['resa'], 0.0)||('period', 'noun', 'C1948053', ['tmco'], 0.0)||('.', '', '', '', 0.0)||
('these', '', '', '', 0.0)||('responders', '', '', '', 0.0)||('entered', 'verb', 'C1521975', ['qlco'], 0.0)||('the', '', '', '', 0.0)||('long - term', '', '', '', 0.0)||('phase', 'noun', 'C0205390', ['tmco'], 0.0)||('of', '', '', '', 0.0)||('the', '', '', '', 0.0)||('trial', 'noun', 'C0008976', ['resa'], 0.0)||('.', '', '', '', 0.0)||
('the', '', '', '', 0.0)||('mean number', '', '', '', 0.0)||('of', '', '', '', 0.0)||('wet', 'noun', 'C0205381', ['qlco'], 0.0)||('nights', '', '', '', 0.0)||('per', '', '', '', 0.0)||('week', 'noun', 'C0439230', ['tmco'], 0.0)||('decreased', 'verb', 'C0205216', ['qnco'], 0.0)||('from', '', '', '', 0.0)||('a', '', '', '', 0.0)||('median', 'noun', 'C0549183', ['spco'], 0.0)||('of', '', '', '', 0.0)||('5 . 3', '', '', '', 0.0)||('(', '', '', '', 0.0)||('range', 'noun', 'C1514721', ['qnco'], 0.0)||('1 . 3', '', '', '', 0.0)||('-', '', '', '', 0.0)||('7 . 0', '', '', '', 0.0)||(')', '', '', '', 0.0)||('during', '', '', '', 0.0)||('the', '', '', '', 0.0)||('observation', 'noun', 'C0302523', ['resa'], 0.0)||('period', 'noun', 'C1948053', ['tmco'], 0.0)||('to', '', '', '', 0.0)||('a', '', '', '', 0.0)||('median', 'noun', 'C0549183', ['spco'], 0.0)||('of', '', '', '', 0.0)||('0 . 8', '', '', '', 0.0)||('(', '', '', '', 0.0)||('range', 'noun', 'C1514721', ['qnco'], 0.0)||('0 . 0', '', '', '', 0.0)||('-', '', '', '', 0.0)||('5 . 0', '', '', '', 0.0)||(')', '', '', '', 0.0)||('during', '', '', '', 0.0)||('the', '', '', '', 0.0)||('last', '', '', '', 0.0)||('3', '', '', '', 0.0)||('-', '', '', '', 0.0)||('mo', '', '', '', 0.0)||('period', 'noun', 'C1948053', ['tmco'], 0.0)||('.', '', '', '', 0.0)||
('seventy', '', '', '', 0.0)||('-', '', '', '', 0.0)||('seven', '', 'C0205453', ['qnco'], 0.0)||('children', 'noun', 'C0008059', ['aggp'], 0.0)||('became', '', '', '', 0.0)||('dry', 'adj', 'C0151908', ['sosy'], 0.0)||(',', '', '', '', 0.0)||('63', '', '', '', 0.0)||('(', '', '', '', 0.0)||('83 %', '', '', '', 0.0)||(')', '', '', '', 0.0)||('within', '', '', '', 0.0)||('6', '', '', '', 0.0)||('mo', '', '', '', 0.0)||('of', '', '', '', 0.0)||('treatment', 'noun', 'C0039798', ['ftcn'], 0.0)||('initiation', 'noun', 'C0589507', ['menp'], 0.0)||('.', '', '', '', 0.0)||
('the', '', '', '', 0.0)||('percentage', 'noun', 'C0439165', ['qnco'], 0.0)||('of', '', '', '', 0.0)||('children', 'noun', 'C0008059', ['aggp'], 0.0)||('who', '', '', '', 0.0)||('became', '', '', '', 0.0)||('dry', 'verb', 'C0151908', ['sosy'], 0.0)||('was', '', '', '', 0.0)||('similar', 'adj', 'C2348205', ['qlco'], 0.0)||('in', '', '', '', 0.0)||('all', '', '', '', 0.0)||('age groups', 'noun', 'C0027362', ['aggp'], 0.0)||('.', '', '', '', 0.0)||
('significantly', '', '', '', 0.0)||('fewer', '', '', '', 0.0)||('children', 'noun', 'C0008059', ['aggp'], 0.0)||('in', '', '', '', 0.0)||('the', '', '', '', 0.0)||('lowest', 'adj', 'C1708760', ['qlco'], 0.0)||('age group', 'noun', 'C0027362', ['aggp'], 0.0)||('were', '', '', '', 0.0)||('defined', 'verb', 'C1704788', ['cnce'], 0.0)||('as', '', '', '', 0.0)||('responders', '', '', '', 0.0)||('(', '', '', '', 0.0)||('52 %', '', '', '', 0.0)||(';', '', '', '', 0.0)||('95 %', '', '', '', 0.0)||('ci', 'noun', 'C1417638', ['gngm'], 0.0)||('45', '', '', '', 0.0)||(',', '', '', '', 0.0)||('59', '', '', '', 0.0)||(')', '', '', '', 0.0)||('among', '', '', '', 0.0)||('the', '', '', '', 0.0)||('6', '', '', '', 0.0)||('-', '', '', '', 0.0)||('7', '', '', '', 0.0)||('-', '', '', '', 0.0)||('y', '', '', '', 0.0)||('-', '', '', '', 0.0)||('olds', '', '', '', 0.0)||('compared', 'verb', 'C1707455', ['acty'], 0.0)||('to', '', '', '', 0.0)||('65 %', '', '', '', 0.0)||('(', '', '', '', 0.0)||('56', '', '', '', 0.0)||(',', '', '', '', 0.0)||('74', '', '', '', 0.0)||(')', '', '', '', 0.0)||('and', '', '', '', 0.0)||('81 %', '', '', '', 0.0)||('(', '', '', '', 0.0)||('72', '', '', '', 0.0)||(',', '', '', '', 0.0)||('90', '', '', '', 0.0)||(')', '', '', '', 0.0)||('in', '', '', '', 0.0)||('the', '', '', '', 0.0)||('two', 'adv', 'C0205448', ['qnco'], 0.0)||('older', '', '', '', 0.0)||('age groups', 'noun', 'C0027362', ['aggp'], 0.0)||('.', '', '', '', 0.0)||
('desmopressin', 'noun', 'C0011701', ['aapp', 'horm', 'phsu'], 0.0)||('was', '', '', '', 0.0)||('well tolerated', '', '', '', 0.0)||('.', '', '', '', 0.0)||
('no', '', '', '', 0.0)||('serious', 'adj', 'C0205404', ['qlco'], 0.0)||('drug - related', '', '', '', 0.0)||('adverse', '', '', '', 0.0)||('events', 'noun', 'C0441471', ['evnt'], 0.0)||('were', '', '', '', 0.0)||('recorded', '', '', '', 0.0)||('and', '', '', '', 0.0)||('no', '', '', '', 0.0)||('clinical', 'adj', 'C0205210', ['qlco'], 0.0)||('symptoms', 'noun', 'C0683368', ['ftcn'], 0.0)||('of', '', '', '', 0.0)||('hyponatraemia', 'noun', 'C0020625', ['patf'], 0.0)||('were', '', '', '', 0.0)||('reported', 'verb', 'C0684224', ['inpr'], 0.0)||('.', '', '', '', 0.0)||
('the', '', '', '', 0.0)||('swedish', 'adj', 'C1710263', ['popg'], 0.0)||('enuresis', 'noun', 'C0014394', ['sosy'], 0.0)||('trial', 'noun', 'C0008976', ['resa'], 0.0)||('trial', 'noun', 'C0008976', ['resa'], 0.0)||('has', '', '', '', 0.0)||('demonstrated', '', '', '', 0.0)||('that', '', '', '', 0.0)||('desmopressin', 'noun', 'C0011701', ['aapp', 'horm', 'phsu'], 0.0)||('is', '', '', '', 0.0)||('both', '', '', '', 0.0)||('safe', '', '', '', 0.0)||('and', '', '', '', 0.0)||('effective', 'adj', 'C1704419', ['qlco'], 0.0)||('for', '', '', '', 0.0)||('the', '', '', '', 0.0)||('long - term', '', '', '', 0.0)||('treatment', 'noun', 'C0039798', ['ftcn'], 0.0)||('of', '', '', '', 0.0)||('primary', 'adj', 'C0205225', ['qlco'], 0.0)||(',', '', '', '', 0.0)||('monosymptomatic nocturnal enuresis', '', '', '', 0.0)||(',', '', '', '', 0.0)||('with', '', '', '', 0.0)||('a', '', '', '', 0.0)||('significant', 'adj', 'C0750502', ['idcn'], 0.0)||('therapeutic', 'adj', 'C0039796', ['topp'], 0.0)||('effect', 'noun', 'C1280500', ['qlco'], 0.0)||('also', '', '', '', 0.0)||('in', '', '', '', 0.0)||('children', 'noun', 'C0008059', ['aggp'], 0.0)||('of', '', '', '', 0.0)||('6', '', '', '', 0.0)||('-', '', '', '', 0.0)||('7', '', '', '', 0.0)||('y', '', '', '', 0.0)||('of', '', '', '', 0.0)||('age', 'noun', 'C0001779', ['orga'], 0.0)||('.', '', '', '', 0.0)||
