('snajderova', '', '', '', 0.0)||('and', '', '', '', 0.0)||('colleagues', '', '', '', 0.0)||('studied', '', '', '', 0.0)||('desmopressin', 'noun', 'C0011701', ['aapp', 'horm', 'phsu'], 0.0)||('as', '', '', '', 0.0)||('a long', '', '', '', 0.0)||('-', '', '', '', 0.0)||('term', 'noun', 'C1515273', ['tmco'], 0.0)||('treatment', 'noun', 'C0039798', ['ftcn'], 0.0)||('for', '', '', '', 0.0)||('55', '', '', '', 0.0)||('children', 'noun', 'C0008059', ['aggp'], 0.0)||('with', '', '', '', 0.0)||('primary nocturnal enuresis', 'noun', 'C2228139', ['sosy'], 0.0)||('.', '', '', '', 0.0)||
('intranasal', 'adj', 'C0442118', ['spco'], 0.0)||('desmopressin', 'noun', 'C0011701', ['aapp', 'horm', 'phsu'], 0.0)||('was', '', '', '', 0.0)||('titrated', '', '', '', 0.0)||('upward', 'adj', 'C1282911', ['spco'], 0.0)||('until', '', '', '', 0.0)||('bedwetting', 'noun', 'C0270327', ['sosy'], 0.0)||('stopped', '', '', '', 0.0)||('7', '', '', '', 0.0)||('-', '', '', '', 0.0)||('21', '', '', '', 0.0)||('g', '', '', '', 0.0)||(';', '', '', '', 0.0)||
('89 . 1 %', '', '', '', 0.0)||('responders', '', '', '', 0.0)||(';', '', '', '', 0.0)||
('children', 'noun', 'C0008059', ['aggp'], 0.0)||('in', '', '', '', 0.0)||('whom', '', '', '', 0.0)||('no', '', '', '', 0.0)||('response', 'noun', 'C0871261', ['clna'], 0.0)||('occurred', 'verb', 'C1709305', ['cnce'], 0.0)||('to', '', '', '', 0.0)||('a', '', '', '', 0.0)||('maximum', 'noun', 'C0806909', ['qnco'], 0.0)||('of', '', '', '', 0.0)||('28', '', '', '', 0.0)||('g', '', '', '', 0.0)||('were', '', '', '', 0.0)||('excluded', 'verb', 'C1554077', ['idcn'], 0.0)||('.', '', '', '', 0.0)||
('every', '', '', '', 0.0)||('3', '', '', '', 0.0)||('months', 'noun', 'C0439231', ['tmco'], 0.0)||(',', '', '', '', 0.0)||('a', '', '', '', 0.0)||('weaning', 'adj', 'C0043084', ['orgf'], 0.0)||('attempt', 'noun', 'C1516084', ['evnt'], 0.0)||('was', '', '', '', 0.0)||('made', '', '', '', 0.0)||(';', '', '', '', 0.0)||
('if', '', '', '', 0.0)||('relapse', 'noun', 'C0035020', ['phpr'], 0.0)||('occurred', 'verb', 'C1709305', ['cnce'], 0.0)||(',', '', '', '', 0.0)||('the', '', '', '', 0.0)||('previous', 'adj', 'C0205156', ['tmco'], 0.0)||('successful', 'adj', 'C1272703', ['qlco'], 0.0)||('dose', 'noun', 'C0178602', ['qnco'], 0.0)||('was', '', '', '', 0.0)||('reinstated', '', '', '', 0.0)||('.', '', '', '', 0.0)||
('at', '', '', '', 0.0)||('the', '', '', '', 0.0)||('end', 'noun', 'C0444930', ['spco'], 0.0)||('of', '', '', '', 0.0)||('each', '', '', '', 0.0)||('of', '', '', '', 0.0)||('the', '', '', '', 0.0)||('3', '', '', '', 0.0)||('years', 'noun', 'C0439234', ['tmco'], 0.0)||(',', '', '', '', 0.0)||('the', '', '', '', 0.0)||('number', 'noun', 'C0449788', ['qnco'], 0.0)||('of', '', '', '', 0.0)||('responders', '', '', '', 0.0)||('remained', '', '', '', 0.0)||('higher', '', '', '', 0.0)||('72 . 7 %', '', '', '', 0.0)||(',', '', '', '', 0.0)||('70 . 9 %', '', '', '', 0.0)||(',', '', '', '', 0.0)||('61 . 6 %', '', '', '', 0.0)||('than', '', '', '', 0.0)||('the', '', '', '', 0.0)||('spontaneous', 'adj', 'C0205359', ['ftcn'], 0.0)||('cure', 'noun', 'C1511495', ['gora'], 0.0)||('rate', 'noun', 'C0871208', ['acty'], 0.0)||('of', '', '', '', 0.0)||('15 %', '', '', '', 0.0)||('.', '', '', '', 0.0)||
