('to', '', '', '', 0.0)||('study', 'verb', 'C0008976', ['resa'], 0.0)||('the', '', '', '', 0.0)||('effectiveness', 'noun', 'C1280519', ['qlco'], 0.0)||('of', '', '', '', 0.0)||('a', '', '', '', 0.0)||('standardized', '', '', '', 0.0)||('dose', 'noun', 'C0178602', ['qnco'], 0.0)||('of', '', '', '', 0.0)||('amitriptyline', 'noun', 'C0002600', ['orch', 'phsu'], 0.0)||(',', '', '', '', 0.0)||('1', '', '', '', 0.0)||('mg / kg', '', '', '', 0.0)||(',', '', '', '', 0.0)||('for', '', '', '', 0.0)||('childhood', 'noun', 'C0231335', ['tmco'], 0.0)||('headaches', 'noun', 'C0018681', ['sosy'], 0.0)||('.', '', '', '', 0.0)||
('amitriptyline', 'noun', 'C0002600', ['orch', 'phsu'], 0.0)||('has', '', '', '', 0.0)||('been', '', '', '', 0.0)||('shown', '', '', '', 0.0)||('to', '', '', '', 0.0)||('be', '', '', '', 0.0)||('effective', 'adj', 'C1704419', ['qlco'], 0.0)||('for', '', '', '', 0.0)||('the', '', '', '', 0.0)||('prophylaxis', 'noun', 'C0033107', ['inpr'], 0.0)||('of', '', '', '', 0.0)||('migraine', 'noun', 'C0149931', ['dsyn'], 0.0)||('in', '', '', '', 0.0)||('adults', 'noun', 'C0001675', ['aggp'], 0.0)||('.', '', '', '', 0.0)||
('studies', '', '', '', 0.0)||('in', '', '', '', 0.0)||('children', 'noun', 'C0008059', ['aggp'], 0.0)||(',', '', '', '', 0.0)||('however', '', '', '', 0.0)||(',', '', '', '', 0.0)||('have', '', '', '', 0.0)||('been', '', '', '', 0.0)||('quite', '', '', '', 0.0)||('limited', 'verb', 'C0439801', ['ftcn'], 0.0)||('.', '', '', '', 0.0)||
('in', '', '', '', 0.0)||('adults', 'noun', 'C0001675', ['aggp'], 0.0)||(',', '', '', '', 0.0)||('the', '', '', '', 0.0)||('suggested', '', '', '', 0.0)||('effective dose', '', '', '', 0.0)||('range', 'noun', 'C1514721', ['qnco'], 0.0)||('is', '', '', '', 0.0)||('10', '', '', '', 0.0)||('to', '', '', '', 0.0)||('150', '', '', '', 0.0)||('mg', '', '', '', 0.0)||('.', '', '', '', 0.0)||
('in', '', '', '', 0.0)||('children', 'noun', 'C0008059', ['aggp'], 0.0)||(',', '', '', '', 0.0)||('a', '', '', '', 0.0)||('standardized', '', '', '', 0.0)||('dosage', 'noun', 'C0178602', ['qnco'], 0.0)||('is', '', '', '', 0.0)||('often', 'adv', 'C0332183', ['tmco'], 0.0)||('not', 'adv', 'C1518422', ['ftcn'], 0.0)||('used', '', '', '', 0.0)||(',', '', '', '', 0.0)||('resulting', '', '', '', 0.0)||('in', '', '', '', 0.0)||('a', '', '', '', 0.0)||('dosage', 'noun', 'C0178602', ['qnco'], 0.0)||('range', 'noun', 'C1514721', ['qnco'], 0.0)||('in', '', '', '', 0.0)||('clinical', 'adj', 'C0205210', ['qlco'], 0.0)||('practice', 'verb', 'C0237607', ['menp'], 0.0)||('that', '', '', '', 0.0)||('often', 'adv', 'C0332183', ['tmco'], 0.0)||('varies', 'verb', 'C1548673', ['inpr'], 0.0)||('from', '', '', '', 0.0)||('a', '', '', '', 0.0)||('very', 'adv', 'C0442824', ['qlco'], 0.0)||('low dose', 'noun', 'C0445550', ['qnco'], 0.0)||('to', '', '', '', 0.0)||('a', '', '', '', 0.0)||('dose equivalent', '', '', '', 0.0)||('to', '', '', '', 0.0)||('that', '', '', '', 0.0)||('used', '', '', '', 0.0)||('in', '', '', '', 0.0)||('adults', 'noun', 'C0001675', ['aggp'], 0.0)||('.', '', '', '', 0.0)||
('children', 'noun', 'C0008059', ['aggp'], 0.0)||('with', '', '', '', 0.0)||('more', '', '', '', 0.0)||('than', '', '', '', 0.0)||('three', '', 'C0205449', ['qnco'], 0.0)||('headaches', 'noun', 'C0018681', ['sosy'], 0.0)||('per', '', '', '', 0.0)||('month', 'noun', 'C0439231', ['tmco'], 0.0)||('were', '', '', '', 0.0)||('treated', 'verb', 'C1522326', ['ftcn'], 0.0)||('with', '', '', '', 0.0)||('amitriptyline', 'noun', 'C0002600', ['orch', 'phsu'], 0.0)||(',', '', '', '', 0.0)||('slowly', 'adv', 'C0439834', ['qlco'], 0.0)||('increasing', 'verb', 'C0442808', ['ftcn'], 0.0)||('the', '', '', '', 0.0)||('dose', 'noun', 'C0178602', ['qnco'], 0.0)||('to', '', '', '', 0.0)||('1', '', '', '', 0.0)||('mg / kg', '', '', '', 0.0)||('per', '', '', '', 0.0)||('day', 'noun', 'C0439228', ['tmco'], 0.0)||('.', '', '', '', 0.0)||
('the', '', '', '', 0.0)||('frequency', 'noun', 'C0376249', ['qnco'], 0.0)||(',', '', '', '', 0.0)||('severity', 'noun', 'C0439793', ['qlco'], 0.0)||(',', '', '', '', 0.0)||('and', '', '', '', 0.0)||('duration', 'noun', 'C0449238', ['tmco'], 0.0)||('of', '', '', '', 0.0)||('their', '', '', '', 0.0)||('headaches', 'noun', 'C0018681', ['sosy'], 0.0)||('were', '', '', '', 0.0)||('initially', 'adv', 'C0205265', ['tmco'], 0.0)||('evaluated', 'verb', 'C0220825', ['ftcn'], 0.0)||('and', '', '', '', 0.0)||('subsequently', '', '', '', 0.0)||('measured', 'verb', 'C0444706', ['qlco'], 0.0)||('at', '', '', '', 0.0)||('each', '', '', '', 0.0)||('follow - up', '', '', '', 0.0)||('evaluation', 'noun', 'C0220825', ['ftcn'], 0.0)||('.', '', '', '', 0.0)||
('two', 'adj', 'C0205448', ['qnco'], 0.0)||('hundred', '', '', '', 0.0)||('seventy', '', '', '', 0.0)||('-', '', '', '', 0.0)||('nine', '', 'C0205455', ['qnco'], 0.0)||('children', 'noun', 'C0008059', ['aggp'], 0.0)||('had', '', '', '', 0.0)||('headaches', 'noun', 'C0018681', ['sosy'], 0.0)||('occurring', '', '', '', 0.0)||('frequently', 'adv', 'C0332183', ['tmco'], 0.0)||('enough', '', '', '', 0.0)||('to', '', '', '', 0.0)||('indicate', '', '', '', 0.0)||('prophylactic treatment', 'noun', 'C0199176', ['topp'], 0.0)||('.', '', '', '', 0.0)||
('of', '', '', '', 0.0)||('these', '', '', '', 0.0)||('children', 'noun', 'C0008059', ['aggp'], 0.0)||(',', '', '', '', 0.0)||('192', '', '', '', 0.0)||('(', '', '', '', 0.0)||('68 . 8 %', '', '', '', 0.0)||(')', '', '', '', 0.0)||('were', '', '', '', 0.0)||('treated', 'verb', 'C1522326', ['ftcn'], 0.0)||('with', '', '', '', 0.0)||('amitriptyline', 'noun', 'C0002600', ['orch', 'phsu'], 0.0)||('.', '', '', '', 0.0)||
('the', '', '', '', 0.0)||('average', 'adj', 'C1510992', ['qnco'], 0.0)||('age', 'noun', 'C0001779', ['orga'], 0.0)||('at', '', '', '', 0.0)||('presentation', 'noun', 'C0449450', ['idcn'], 0.0)||('was', '', '', '', 0.0)||('12 . 0', '', '', '', 0.0)||('(', '', '', '', 0.0)||('+', '', '', '', 0.0)||('/', '', '', '', 0.0)||('-', '', '', '', 0.0)||('3 . 0', '', '', '', 0.0)||(')', '', '', '', 0.0)||('years', 'noun', 'C0439234', ['tmco'], 0.0)||('.', '', '', '', 0.0)||
('the', '', '', '', 0.0)||('ratio', 'noun', 'C0456603', ['qnco'], 0.0)||('of', '', '', '', 0.0)||('boys', 'noun', 'C0870221', ['aggp'], 0.0)||('to', '', '', '', 0.0)||('girls', 'noun', 'C0870604', ['aggp'], 0.0)||('was', '', '', '', 0.0)||('1', '', '', '', 0.0)||(':', '', '', '', 0.0)||('1 . 74', '', '', '', 0.0)||('.', '', '', '', 0.0)||
('the', '', '', '', 0.0)||('average', 'adj', 'C1510992', ['qnco'], 0.0)||('frequency', 'noun', 'C0376249', ['qnco'], 0.0)||('of', '', '', '', 0.0)||('headaches', 'noun', 'C0018681', ['sosy'], 0.0)||('was', '', '', '', 0.0)||('17 . 1', '', '', '', 0.0)||('(', '', '', '', 0.0)||('+', '', '', '', 0.0)||('/', '', '', '', 0.0)||('-', '', '', '', 0.0)||('10 . 1', '', '', '', 0.0)||(')', '', '', '', 0.0)||('days', 'noun', 'C0439228', ['tmco'], 0.0)||('per', '', '', '', 0.0)||('month', 'noun', 'C0439231', ['tmco'], 0.0)||('.', '', '', '', 0.0)||
('the', '', '', '', 0.0)||('average', 'adj', 'C1510992', ['qnco'], 0.0)||('severity', 'noun', 'C0439793', ['qlco'], 0.0)||('was', '', '', '', 0.0)||('6 . 84', '', '', '', 0.0)||('(', '', '', '', 0.0)||('+', '', '', '', 0.0)||('/', '', '', '', 0.0)||('-', '', '', '', 0.0)||('1 . 67', '', '', '', 0.0)||(')', '', '', '', 0.0)||('on', '', '', '', 0.0)||('a', '', '', '', 0.0)||('10', '', '', '', 0.0)||('-', '', '', '', 0.0)||('point', 'noun', 'C1552961', ['qnco'], 0.0)||('pain scale', 'noun', 'C1504479', ['diap'], 0.0)||('.', '', '', '', 0.0)||
('the', '', '', '', 0.0)||('average', 'adj', 'C1510992', ['qnco'], 0.0)||('duration', 'noun', 'C0449238', ['tmco'], 0.0)||('was', '', '', '', 0.0)||('11 . 5', '', '', '', 0.0)||('(', '', '', '', 0.0)||('+', '', '', '', 0.0)||('/', '', '', '', 0.0)||('-', '', '', '', 0.0)||('15 . 0', '', '', '', 0.0)||(')', '', '', '', 0.0)||('hours', 'noun', 'C0439227', ['tmco'], 0.0)||('.', '', '', '', 0.0)||
('the', '', '', '', 0.0)||('most', '', '', '', 0.0)||('frequent', 'adj', 'C0332183', ['tmco'], 0.0)||('diagnoses', 'noun', 'C0011900', ['fndg'], 0.0)||('using', 'verb', 'C1524063', ['ftcn'], 0.0)||('international', 'adj', 'C1512888', ['idcn'], 0.0)||('headache', 'noun', 'C0018681', ['sosy'], 0.0)||('society', 'noun', 'C0037455', ['orgt'], 0.0)||('criteria', 'noun', 'C0243161', ['inpr'], 0.0)||('were', '', '', '', 0.0)||('migraine', 'noun', 'C0149931', ['dsyn'], 0.0)||('(', '', '', '', 0.0)||('60 . 6 %', '', '', '', 0.0)||(')', '', '', '', 0.0)||(',', '', '', '', 0.0)||('migraine', 'noun', 'C0149931', ['dsyn'], 0.0)||('with', '', '', '', 0.0)||('aura', 'noun', 'C0236018', ['fndg'], 0.0)||('(', '', '', '', 0.0)||('7 . 9 %', '', '', '', 0.0)||(')', '', '', '', 0.0)||(',', '', '', '', 0.0)||('and', '', '', '', 0.0)||('tension - type headache', '', '', '', 0.0)||('(', '', '', '', 0.0)||('10 . 4 %', '', '', '', 0.0)||(')', '', '', '', 0.0)||('.', '', '', '', 0.0)||
('of', '', '', '', 0.0)||('these', '', '', '', 0.0)||('children', 'noun', 'C0008059', ['aggp'], 0.0)||(',', '', '', '', 0.0)||('146', '', '', '', 0.0)||('have', '', '', '', 0.0)||('been', '', '', '', 0.0)||('seen', 'verb', 'C0205397', ['qlco'], 0.0)||('for', '', '', '', 0.0)||('at', '', '', '', 0.0)||('least', '', '', '', 0.0)||('one', 'adv', 'C0205447', ['qnco'], 0.0)||('follow - up', '', '', '', 0.0)||('examination', '', '', '', 0.0)||(',', '', '', '', 0.0)||('occurring', '', '', '', 0.0)||('on', '', '', '', 0.0)||('average', 'noun', 'C1510992', ['qnco'], 0.0)||('67 . 3', '', '', '', 0.0)||('(', '', '', '', 0.0)||('+', '', '', '', 0.0)||('/', '', '', '', 0.0)||('-', '', '', '', 0.0)||('32 . 3', '', '', '', 0.0)||(')', '', '', '', 0.0)||('days', 'noun', 'C0439228', ['tmco'], 0.0)||('after', '', '', '', 0.0)||('beginning', 'noun', 'C0439659', ['tmco'], 0.0)||('prophylactic treatment', 'noun', 'C0199176', ['topp'], 0.0)||('.', '', '', '', 0.0)||
('a', '', '', '', 0.0)||('total', 'noun', 'C0439810', ['qlco'], 0.0)||('of', '', '', '', 0.0)||('84 . 2 %', '', '', '', 0.0)||('of', '', '', '', 0.0)||('the', '', '', '', 0.0)||('children', 'noun', 'C0008059', ['aggp'], 0.0)||('reported', 'verb', 'C0684224', ['inpr'], 0.0)||('an', '', '', '', 0.0)||('overall', 'adj', 'C0282416', ['inpr'], 0.0)||('perception', 'noun', 'C0030971', ['menp'], 0.0)||('of', '', '', '', 0.0)||('being', '', '', '', 0.0)||('better', 'adj', 'C0332272', ['qlco'], 0.0)||(',', '', '', '', 0.0)||('while', '', '', '', 0.0)||('11 . 6 %', '', '', '', 0.0)||('reported', 'verb', 'C0684224', ['inpr'], 0.0)||('being', '', '', '', 0.0)||('the', '', '', '', 0.0)||('same', 'adj', 'C0445247', ['qlco'], 0.0)||('.', '', '', '', 0.0)||
('the', '', '', '', 0.0)||('frequency', 'noun', 'C0376249', ['qnco'], 0.0)||('of', '', '', '', 0.0)||('headaches', 'noun', 'C0018681', ['sosy'], 0.0)||('improved', 'verb', 'C0184511', ['qlco'], 0.0)||('to', '', '', '', 0.0)||('9 . 2', '', '', '', 0.0)||('(', '', '', '', 0.0)||('+', '', '', '', 0.0)||('/', '', '', '', 0.0)||('-', '', '', '', 0.0)||('10 . 0', '', '', '', 0.0)||(')', '', '', '', 0.0)||('days', 'noun', 'C0439228', ['tmco'], 0.0)||('per', '', '', '', 0.0)||('month', 'noun', 'C0439231', ['tmco'], 0.0)||('.', '', '', '', 0.0)||
('the', '', '', '', 0.0)||('average', 'adj', 'C1510992', ['qnco'], 0.0)||('severity', 'noun', 'C0439793', ['qlco'], 0.0)||('was', '', '', '', 0.0)||('reduced', 'verb', 'C0392756', ['qlco'], 0.0)||('to', '', '', '', 0.0)||('5 . 1', '', '', '', 0.0)||('(', '', '', '', 0.0)||('+', '', '', '', 0.0)||('/', '', '', '', 0.0)||('-', '', '', '', 0.0)||('2 . 1', '', '', '', 0.0)||(')', '', '', '', 0.0)||(',', '', '', '', 0.0)||('and', '', '', '', 0.0)||('the', '', '', '', 0.0)||('average', 'adj', 'C1510992', ['qnco'], 0.0)||('duration', 'noun', 'C0449238', ['tmco'], 0.0)||('was', '', '', '', 0.0)||('reduced', 'verb', 'C0392756', ['qlco'], 0.0)||('to', '', '', '', 0.0)||('6 . 3', '', '', '', 0.0)||('(', '', '', '', 0.0)||('+', '', '', '', 0.0)||('/', '', '', '', 0.0)||('-', '', '', '', 0.0)||('11 . 1', '', '', '', 0.0)||(')', '', '', '', 0.0)||('hours', 'noun', 'C0439227', ['tmco'], 0.0)||('.', '', '', '', 0.0)||
('if', '', '', '', 0.0)||('daily', 'adj', 'C0332173', ['tmco'], 0.0)||('or', '', '', '', 0.0)||('continuous', 'adj', 'C0549178', ['idcn'], 0.0)||('headaches', 'noun', 'C0018681', ['sosy'], 0.0)||('were', '', '', '', 0.0)||('excluded', 'verb', 'C1554077', ['idcn'], 0.0)||(',', '', '', '', 0.0)||('the', '', '', '', 0.0)||('improvements', '', '', '', 0.0)||('were', '', '', '', 0.0)||('more', '', '', '', 0.0)||('marked', 'verb', 'C0522501', ['qlco'], 0.0)||('.', '', '', '', 0.0)||
('minimal', 'adj', 'C0547040', ['qlco'], 0.0)||('side effects', 'noun', 'C0001688', ['ftcn'], 0.0)||('were', '', '', '', 0.0)||('reported', 'verb', 'C0684224', ['inpr'], 0.0)||('from', '', '', '', 0.0)||('these', '', '', '', 0.0)||('children', 'noun', 'C0008059', ['aggp'], 0.0)||('and', '', '', '', 0.0)||('their', '', '', '', 0.0)||('families', 'noun', 'C0015576', ['famg'], 0.0)||('.', '', '', '', 0.0)||
('long - term', '', '', '', 0.0)||('evaluation', 'noun', 'C0220825', ['ftcn'], 0.0)||('(', '', '', '', 0.0)||('156', '', '', '', 0.0)||('to', '', '', '', 0.0)||('415', '', '', '', 0.0)||('days', 'noun', 'C0439228', ['tmco'], 0.0)||(')', '', '', '', 0.0)||('showed', '', '', '', 0.0)||('continued', 'adj', 'C0549178', ['idcn'], 0.0)||('sustained', 'adj', 'C0443318', ['ftcn'], 0.0)||('improvement', '', '', '', 0.0)||('.', '', '', '', 0.0)||
('amitriptyline', 'noun', 'C0002600', ['orch', 'phsu'], 0.0)||('is', '', '', '', 0.0)||('an', '', '', '', 0.0)||('effective', 'adj', 'C1704419', ['qlco'], 0.0)||('prophylactic', 'adj', 'C0355642', ['phsu'], 0.0)||('medication', '', '', '', 0.0)||('for', '', '', '', 0.0)||('children', 'noun', 'C0008059', ['aggp'], 0.0)||('with', '', '', '', 0.0)||('frequent', 'adj', 'C0332183', ['tmco'], 0.0)||('headaches', 'noun', 'C0018681', ['sosy'], 0.0)||('.', '', '', '', 0.0)||
('a', '', '', '', 0.0)||('standardized', '', '', '', 0.0)||('dosing', '', '', '', 0.0)||('regimen', 'noun', 'C0040808', ['topp'], 0.0)||('results', 'verb', 'C1274040', ['ftcn'], 0.0)||('in', '', '', '', 0.0)||('a', '', '', '', 0.0)||('significant', 'adj', 'C0750502', ['idcn'], 0.0)||('number', 'noun', 'C0449788', ['qnco'], 0.0)||('of', '', '', '', 0.0)||('children', 'noun', 'C0008059', ['aggp'], 0.0)||('responding', 'verb', 'C2003874', ['bhvr'], 0.0)||('with', '', '', '', 0.0)||('minimal', 'adj', 'C0547040', ['qlco'], 0.0)||('side effects', 'noun', 'C0001688', ['ftcn'], 0.0)||('.', '', '', '', 0.0)||
('the', '', '', '', 0.0)||('children', 'noun', 'C0008059', ['aggp'], 0.0)||('are', '', '', '', 0.0)||('able', 'adj', 'C0085732', ['orga'], 0.0)||('to', '', '', '', 0.0)||('tolerate', '', '', '', 0.0)||('this', '', '', '', 0.0)||('dosing', '', '', '', 0.0)||('scheme', 'noun', 'C1519193', ['inpr'], 0.0)||('and', '', '', '', 0.0)||('demonstrate', '', '', '', 0.0)||('good', 'adj', 'C0205170', ['qlco'], 0.0)||('adherence', 'noun', 'C1510802', ['ftcn'], 0.0)||('to', '', '', '', 0.0)||('a', '', '', '', 0.0)||('dosing', '', '', '', 0.0)||('schedule', 'noun', 'C0086960', ['inpr'], 0.0)||('of', '', '', '', 0.0)||('once', '', '', '', 0.0)||('a', '', '', '', 0.0)||('day', 'noun', 'C0439228', ['tmco'], 0.0)||('.', '', '', '', 0.0)||
