('to', '', '', '', 0.0)||('determine', '', '', '', 0.0)||('the', '', '', '', 0.0)||('beneficial', '', '', '', 0.0)||('use', 'noun', 'C0042153', ['ftcn'], 0.0)||('of', '', '', '', 0.0)||('divalproex sodium', 'noun', 'C0886883', ['orch', 'phsu'], 0.0)||('as', '', '', '', 0.0)||('a', '', '', '', 0.0)||('prophylactic treatment', 'noun', 'C0199176', ['topp'], 0.0)||('for', '', '', '', 0.0)||('migraine', 'noun', 'C0149931', ['dsyn'], 0.0)||('in', '', '', '', 0.0)||('children', 'noun', 'C0008059', ['aggp'], 0.0)||('.', '', '', '', 0.0)||
('previous', 'adj', 'C0205156', ['tmco'], 0.0)||('studies', '', '', '', 0.0)||('for', '', '', '', 0.0)||('treatment', 'noun', 'C0039798', ['ftcn'], 0.0)||('of', '', '', '', 0.0)||('migraine', 'noun', 'C0149931', ['dsyn'], 0.0)||('in', '', '', '', 0.0)||('adults', 'noun', 'C0001675', ['aggp'], 0.0)||('have', '', '', '', 0.0)||('shown', '', '', '', 0.0)||('a', '', '', '', 0.0)||('greater', 'adj', 'C1704243', ['qnco'], 0.0)||('than', '', '', '', 0.0)||('50 %', '', '', '', 0.0)||('reduction', 'noun', 'C0301630', ['npop'], 0.0)||('in', '', '', '', 0.0)||('migraine', 'noun', 'C0149931', ['dsyn'], 0.0)||('attack', 'noun', 'C0699795', ['medd'], 0.0)||('frequencies', 'noun', 'C0439603', ['tmco'], 0.0)||('.', '', '', '', 0.0)||
('few', '', '', '', 0.0)||('data', 'noun', 'C1511726', ['idcn'], 0.0)||('exist', '', '', '', 0.0)||(',', '', '', '', 0.0)||('however', '', '', '', 0.0)||(',', '', '', '', 0.0)||('regarding', '', '', '', 0.0)||('the', '', '', '', 0.0)||('efficacy', 'noun', 'C1707887', ['resa'], 0.0)||('and', '', '', '', 0.0)||('safety', 'noun', 'C0036043', ['hcpp'], 0.0)||('of', '', '', '', 0.0)||('divalproex sodium', 'noun', 'C0886883', ['orch', 'phsu'], 0.0)||('use', 'noun', 'C0042153', ['ftcn'], 0.0)||('in', '', '', '', 0.0)||('children', 'noun', 'C0008059', ['aggp'], 0.0)||('with', '', '', '', 0.0)||('migraine', 'noun', 'C0149931', ['dsyn'], 0.0)||('.', '', '', '', 0.0)||
('we', '', '', '', 0.0)||('studied', '', '', '', 0.0)||('the', '', '', '', 0.0)||('incidence', 'noun', 'C0021149', ['qnco'], 0.0)||('of', '', '', '', 0.0)||('headache', 'noun', 'C0018681', ['sosy'], 0.0)||('relief', 'noun', 'C0564405', ['fndg'], 0.0)||('in', '', '', '', 0.0)||('our', '', '', '', 0.0)||('patients', 'noun', 'C0030705', ['podg'], 0.0)||('with', '', '', '', 0.0)||('migraine', 'noun', 'C0149931', ['dsyn'], 0.0)||('aged', 'verb', 'C0001779', ['orga'], 0.0)||('16', '', '', '', 0.0)||('years', 'noun', 'C0439234', ['tmco'], 0.0)||('and', '', '', '', 0.0)||('younger', '', '', '', 0.0)||('treated', 'verb', 'C1522326', ['ftcn'], 0.0)||('with', '', '', '', 0.0)||('divalproex sodium', 'noun', 'C0886883', ['orch', 'phsu'], 0.0)||('prophylactically', '', '', '', 0.0)||('at', '', '', '', 0.0)||('our', '', '', '', 0.0)||('institution', 'noun', 'C0018704', ['hcro', 'mnob'], 0.0)||('from', '', '', '', 0.0)||('july', '', '', '', 0.0)||('1996', '', '', '', 0.0)||('to', '', '', '', 0.0)||('december', '', '', '', 0.0)||('1998', '', '', '', 0.0)||('to', '', '', '', 0.0)||('determine', '', '', '', 0.0)||('medication', '', '', '', 0.0)||('dosage', 'noun', 'C0178602', ['qnco'], 0.0)||('used', '', '', '', 0.0)||(',', '', '', '', 0.0)||('concomitant', 'adj', 'C0521115', ['tmco'], 0.0)||('headache', 'noun', 'C0018681', ['sosy'], 0.0)||('medications', 'noun', 'C0013227', ['phsu'], 0.0)||(',', '', '', '', 0.0)||('and', '', '', '', 0.0)||('possible', 'adj', 'C0332149', ['qlco'], 0.0)||('adverse effects', 'noun', 'C0001688', ['ftcn'], 0.0)||('.', '', '', '', 0.0)||
('a', '', '', '', 0.0)||('total', 'noun', 'C0439810', ['qlco'], 0.0)||('of', '', '', '', 0.0)||('42', '', '', '', 0.0)||('patients', 'noun', 'C0030705', ['podg'], 0.0)||(',', '', '', '', 0.0)||('ranging', '', '', '', 0.0)||('in', '', '', '', 0.0)||('age', 'noun', 'C0001779', ['orga'], 0.0)||('from', '', '', '', 0.0)||('7', '', '', '', 0.0)||('to', '', '', '', 0.0)||('16', '', '', '', 0.0)||('years', 'noun', 'C0439234', ['tmco'], 0.0)||('(', '', '', '', 0.0)||('mean', 'noun', 'C0444504', ['qnco'], 0.0)||('age', 'noun', 'C0001779', ['orga'], 0.0)||(',', '', '', '', 0.0)||('11 . 3', '', '', '', 0.0)||('years', 'noun', 'C0439234', ['tmco'], 0.0)||(')', '', '', '', 0.0)||(',', '', '', '', 0.0)||('were', '', '', '', 0.0)||('treated', 'verb', 'C1522326', ['ftcn'], 0.0)||('with', '', '', '', 0.0)||('divalproex sodium', 'noun', 'C0886883', ['orch', 'phsu'], 0.0)||('for', '', '', '', 0.0)||('headache', 'noun', 'C0018681', ['sosy'], 0.0)||('.', '', '', '', 0.0)||
('all', '', '', '', 0.0)||('had', '', '', '', 0.0)||('a', '', '', '', 0.0)||('history', 'noun', 'C0019664', ['ocdi'], 0.0)||('of', '', '', '', 0.0)||('migraine', 'noun', 'C0149931', ['dsyn'], 0.0)||('with', '', '', '', 0.0)||('or', '', '', '', 0.0)||('without', '', '', '', 0.0)||('aura', 'noun', 'C0236018', ['fndg'], 0.0)||('.', '', '', '', 0.0)||
('baseline', 'noun', 'C0168634', ['bodm'], 0.0)||('headache', 'noun', 'C0018681', ['sosy'], 0.0)||('frequency', 'noun', 'C0376249', ['qnco'], 0.0)||('during', '', '', '', 0.0)||('a', '', '', '', 0.0)||('minimum', 'noun', 'C1524031', ['qlco'], 0.0)||('6', '', '', '', 0.0)||('-', '', '', '', 0.0)||('month', 'noun', 'C0439231', ['tmco'], 0.0)||('period', 'noun', 'C1948053', ['tmco'], 0.0)||('was', '', '', '', 0.0)||('one', 'verb', 'C0205447', ['qnco'], 0.0)||('to', '', '', '', 0.0)||('four', '', 'C0205450', ['qnco'], 0.0)||('headaches', 'noun', 'C0018681', ['sosy'], 0.0)||('per', '', '', '', 0.0)||('month', 'noun', 'C0439231', ['tmco'], 0.0)||('.', '', '', '', 0.0)||
('divalproex sodium', 'noun', 'C0886883', ['orch', 'phsu'], 0.0)||('dosage', 'noun', 'C0178602', ['qnco'], 0.0)||('ranged', '', '', '', 0.0)||('from', '', '', '', 0.0)||('15', '', '', '', 0.0)||('mg / kg', '', '', '', 0.0)||('/', '', '', '', 0.0)||('day', 'noun', 'C0439228', ['tmco'], 0.0)||('to', '', '', '', 0.0)||('45', '', '', '', 0.0)||('mg / kg', '', '', '', 0.0)||('/', '', '', '', 0.0)||('day', 'noun', 'C0439228', ['tmco'], 0.0)||('.', '', '', '', 0.0)||
('of', '', '', '', 0.0)||('the', '', '', '', 0.0)||('42', '', '', '', 0.0)||('patients', 'noun', 'C0030705', ['podg'], 0.0)||(',', '', '', '', 0.0)||('34', '', '', '', 0.0)||('(', '', '', '', 0.0)||('80 . 9 %', '', '', '', 0.0)||(')', '', '', '', 0.0)||('successfully', '', '', '', 0.0)||('discontinued', 'verb', 'C1444662', ['fndg'], 0.0)||('their', '', '', '', 0.0)||('abortive', 'adj', 'C1579373', ['phsu'], 0.0)||('medications', 'noun', 'C0013227', ['phsu'], 0.0)||('.', '', '', '', 0.0)||
('after', '', '', '', 0.0)||('4', '', '', '', 0.0)||('months', 'noun', 'C0439231', ['tmco'], 0.0)||("'", '', '', '', 0.0)||('treatment', 'noun', 'C0039798', ['ftcn'], 0.0)||(',', '', '', '', 0.0)||('50 %', '', '', '', 0.0)||('headache', 'noun', 'C0018681', ['sosy'], 0.0)||('reduction', 'noun', 'C0301630', ['npop'], 0.0)||('was', '', '', '', 0.0)||('seen', 'verb', 'C0205397', ['qlco'], 0.0)||('in', '', '', '', 0.0)||('78 . 5 %', '', '', '', 0.0)||('of', '', '', '', 0.0)||('patients', 'noun', 'C0030705', ['podg'], 0.0)||(',', '', '', '', 0.0)||('75 %', '', '', '', 0.0)||('reduction', 'noun', 'C0301630', ['npop'], 0.0)||('in', '', '', '', 0.0)||('14 . 2 %', '', '', '', 0.0)||('of', '', '', '', 0.0)||('patients', 'noun', 'C0030705', ['podg'], 0.0)||(',', '', '', '', 0.0)||('and', '', '', '', 0.0)||('9', '', '', '', 0.0)||('.', '', '', '', 0.0)||
('5 %', '', '', '', 0.0)||('of', '', '', '', 0.0)||('patients', 'noun', 'C0030705', ['podg'], 0.0)||('became', '', '', '', 0.0)||('headache', 'noun', 'C0018681', ['sosy'], 0.0)||('-', '', '', '', 0.0)||('free', 'adj', 'C1880497', ['qlco'], 0.0)||('.', '', '', '', 0.0)||
('these', '', '', '', 0.0)||('results', 'noun', 'C1274040', ['ftcn'], 0.0)||('indicate', '', '', '', 0.0)||('divalproex sodium', 'noun', 'C0886883', ['orch', 'phsu'], 0.0)||('to', '', '', '', 0.0)||('be', '', '', '', 0.0)||('an', '', '', '', 0.0)||('effective', 'adj', 'C1704419', ['qlco'], 0.0)||('and', '', '', '', 0.0)||('well - tolerated', '', '', '', 0.0)||('treatment', 'noun', 'C0039798', ['ftcn'], 0.0)||('for', '', '', '', 0.0)||('the', '', '', '', 0.0)||('prophylaxis', 'noun', 'C0033107', ['inpr'], 0.0)||('of', '', '', '', 0.0)||('migraine', 'noun', 'C0149931', ['dsyn'], 0.0)||('in', '', '', '', 0.0)||('children', 'noun', 'C0008059', ['aggp'], 0.0)||('.', '', '', '', 0.0)||
