('an', '', '', '', 0.0)||('8', '', '', '', 0.0)||('-', '', '', '', 0.0)||('month', 'noun', 'C0439231', ['tmco'], 0.0)||(',', '', '', '', 0.0)||('double - blind', '', '', '', 0.0)||(',', '', '', '', 0.0)||('placebo - controlled', '', '', '', 0.0)||('crossover trial', 'noun', 'C0150097', ['resa'], 0.0)||('was', '', '', '', 0.0)||('carried', '', '', '', 0.0)||('out', '', '', '', 0.0)||('on', '', '', '', 0.0)||('the', '', '', '', 0.0)||('use', 'noun', 'C0042153', ['ftcn'], 0.0)||('of', '', '', '', 0.0)||('nimodipine', 'noun', 'C0028094', ['orch', 'phsu'], 0.0)||('in', '', '', '', 0.0)||('migraine', 'noun', 'C0149931', ['dsyn'], 0.0)||('prophylaxis', 'noun', 'C0033107', ['inpr'], 0.0)||('in', '', '', '', 0.0)||('37', '', '', '', 0.0)||('patients', 'noun', 'C0030705', ['podg'], 0.0)||('aged', 'verb', 'C0001779', ['orga'], 0.0)||('7', '', '', '', 0.0)||('to', '', '', '', 0.0)||('18', '', '', '', 0.0)||('years', 'noun', 'C0439234', ['tmco'], 0.0)||('old', 'noun', 'C0580836', ['tmco'], 0.0)||('.', '', '', '', 0.0)||
('after', '', '', '', 0.0)||('a', '', '', '', 0.0)||('4', '', '', '', 0.0)||('-', '', '', '', 0.0)||('week', 'noun', 'C0439230', ['tmco'], 0.0)||('medication', '', '', '', 0.0)||('-', '', '', '', 0.0)||('free', 'adj', 'C1880497', ['qlco'], 0.0)||('run - in', '', '', '', 0.0)||('period', 'noun', 'C1948053', ['tmco'], 0.0)||(',', '', '', '', 0.0)||('19', '', '', '', 0.0)||('subjects', '', '', '', 0.0)||('(', '', '', '', 0.0)||('group', 'noun', 'C0441833', ['idcn'], 0.0)||('1', '', '', '', 0.0)||(')', '', '', '', 0.0)||('received', 'verb', 'C1514756', ['qlco'], 0.0)||('a', '', '', '', 0.0)||('placebo', 'noun', 'C0032042', ['topp'], 0.0)||('while', '', '', '', 0.0)||('18', '', '', '', 0.0)||('(', '', '', '', 0.0)||('group', 'noun', 'C0441833', ['idcn'], 0.0)||('2', '', '', '', 0.0)||(')', '', '', '', 0.0)||('received', 'adj', 'C1514756', ['qlco'], 0.0)||('nimodipine', 'noun', 'C0028094', ['orch', 'phsu'], 0.0)||('(', '', '', '', 0.0)||('10', '', '', '', 0.0)||('-', '', '', '', 0.0)||('20', '', '', '', 0.0)||('mg', '', '', '', 0.0)||('t . i . d .', '', '', '', 0.0)||(',', '', '', '', 0.0)||('according to', '', '', '', 0.0)||('body weight', 'noun', 'C0005910', ['orga'], 0.0)||(')', '', '', '', 0.0)||(',', '', '', '', 0.0)||('for', '', '', '', 0.0)||('12', '', '', '', 0.0)||('weeks', 'noun', 'C0439230', ['tmco'], 0.0)||('.', '', '', '', 0.0)||
('after', '', '', '', 0.0)||('a', '', '', '', 0.0)||('4', '', '', '', 0.0)||('-', '', '', '', 0.0)||('week', 'noun', 'C0439230', ['tmco'], 0.0)||('wash - out', '', '', '', 0.0)||('period', 'noun', 'C1948053', ['tmco'], 0.0)||(',', '', '', '', 0.0)||('the', '', '', '', 0.0)||('groups', 'noun', 'C0441833', ['idcn'], 0.0)||('switched', '', '', '', 0.0)||('therapy', 'noun', 'C0039798', ['ftcn'], 0.0)||('for', '', '', '', 0.0)||('a', '', '', '', 0.0)||('further', 'adj', 'C1517331', ['spco'], 0.0)||('12', '', '', '', 0.0)||('weeks', 'noun', 'C0439230', ['tmco'], 0.0)||('.', '', '', '', 0.0)||
('30', '', '', '', 0.0)||('patients', 'noun', 'C0030705', ['podg'], 0.0)||('completed', 'verb', 'C0205197', ['qlco'], 0.0)||('the', '', '', '', 0.0)||('trial', 'noun', 'C0008976', ['resa'], 0.0)||('and', '', '', '', 0.0)||('the', '', '', '', 0.0)||('number', 'noun', 'C0449788', ['qnco'], 0.0)||('of', '', '', '', 0.0)||('dropouts', 'noun', 'C0013135', ['popg'], 0.0)||('was', '', '', '', 0.0)||('comparable', '', '', '', 0.0)||('in', '', '', '', 0.0)||('the', '', '', '', 0.0)||('2', '', '', '', 0.0)||('groups', 'noun', 'C0441833', ['idcn'], 0.0)||('.', '', '', '', 0.0)||
('the', '', '', '', 0.0)||('only', '', '', '', 0.0)||('side - effect', '', '', '', 0.0)||('during', '', '', '', 0.0)||('nimodipine', 'noun', 'C0028094', ['orch', 'phsu'], 0.0)||('treatment', 'noun', 'C0039798', ['ftcn'], 0.0)||('was', '', '', '', 0.0)||('mild', 'adj', 'C0547040', ['qlco'], 0.0)||('abdominal', 'adj', 'C0000726', ['blor'], 0.0)||('discomfort', 'noun', 'C0231218', ['sosy'], 0.0)||('(', '', '', '', 0.0)||('3', '', '', '', 0.0)||('cases', 'noun', 'C0868928', ['ftcn'], 0.0)||(')', '', '', '', 0.0)||('.', '', '', '', 0.0)||
('the', '', '', '', 0.0)||('treatments', 'noun', 'C0087111', ['topp'], 0.0)||('were', '', '', '', 0.0)||('evaluated', 'verb', 'C0220825', ['ftcn'], 0.0)||('on', '', '', '', 0.0)||('the', '', '', '', 0.0)||('basis', 'noun', 'C1527178', ['ftcn'], 0.0)||('of', '', '', '', 0.0)||('frequency', 'noun', 'C0376249', ['qnco'], 0.0)||('and', '', '', '', 0.0)||('duration', 'noun', 'C0449238', ['tmco'], 0.0)||('of', '', '', '', 0.0)||('attacks', '', '', '', 0.0)||('.', '', '', '', 0.0)||
('there', '', '', '', 0.0)||('was', '', '', '', 0.0)||('a', '', '', '', 0.0)||('significant', 'adj', 'C0750502', ['idcn'], 0.0)||('reduction', 'noun', 'C0301630', ['npop'], 0.0)||('in', '', '', '', 0.0)||('both', '', '', '', 0.0)||('parameters', 'noun', 'C0449381', ['fndg'], 0.0)||('during', '', '', '', 0.0)||('the', '', '', '', 0.0)||('first', 'adj', 'C0205435', ['qnco'], 0.0)||('period', 'noun', 'C1948053', ['tmco'], 0.0)||('of', '', '', '', 0.0)||('treatment', 'noun', 'C0039798', ['ftcn'], 0.0)||('.', '', '', '', 0.0)||
('during', '', '', '', 0.0)||('the', '', '', '', 0.0)||('second', 'adj', 'C0205436', ['qnco'], 0.0)||('period', 'noun', 'C1948053', ['tmco'], 0.0)||('of', '', '', '', 0.0)||('treatment', 'noun', 'C0039798', ['ftcn'], 0.0)||(',', '', '', '', 0.0)||('nimodipine', 'noun', 'C0028094', ['orch', 'phsu'], 0.0)||('proved', '', '', '', 0.0)||('to', '', '', '', 0.0)||('have', '', '', '', 0.0)||('a', '', '', '', 0.0)||('significantly', '', '', '', 0.0)||('greater', 'adj', 'C1704243', ['qnco'], 0.0)||('effect', 'noun', 'C1280500', ['qlco'], 0.0)||('than', '', '', '', 0.0)||('the', '', '', '', 0.0)||('placebo', 'noun', 'C0032042', ['topp'], 0.0)||('with', '', '', '', 0.0)||('regard', '', '', '', 0.0)||('to', '', '', '', 0.0)||('frequency', 'noun', 'C0376249', ['qnco'], 0.0)||(',', '', '', '', 0.0)||('whereas', '', '', '', 0.0)||('the', '', '', '', 0.0)||('response', 'noun', 'C0871261', ['clna'], 0.0)||('was', '', '', '', 0.0)||('similar', 'adj', 'C2348205', ['qlco'], 0.0)||('with', '', '', '', 0.0)||('the', '', '', '', 0.0)||('placebo', 'noun', 'C0032042', ['topp'], 0.0)||('as regards', '', '', '', 0.0)||('duration', 'noun', 'C0449238', ['tmco'], 0.0)||('of', '', '', '', 0.0)||('attacks', '', '', '', 0.0)||('.', '', '', '', 0.0)||
('the', '', '', '', 0.0)||('latter', '', '', '', 0.0)||('parameter', 'noun', 'C0549193', ['spco'], 0.0)||('shows', '', '', '', 0.0)||('a', '', '', '', 0.0)||('significant', 'adj', 'C0750502', ['idcn'], 0.0)||('decrease', 'noun', 'C0392756', ['qlco'], 0.0)||('during', '', '', '', 0.0)||('the', '', '', '', 0.0)||('treatment', 'noun', 'C0039798', ['ftcn'], 0.0)||('periods', '', '', '', 0.0)||(',', '', '', '', 0.0)||('regardless of', '', '', '', 0.0)||('type', 'noun', 'C0332307', ['qlco'], 0.0)||('of', '', '', '', 0.0)||('therapy', 'noun', 'C0039798', ['ftcn'], 0.0)||('.', '', '', '', 0.0)||
